{"users": [{"id": 15046, "slack_id": "U094QD6MXT4", "display_name": "Parsana F", "bio": null, "projects_count": 0, "devlogs_count": 0, "votes_count": 0, "ships_count": 0, "projects": [], "coding_time_seconds": 0, "coding_time_seconds_today": 0, "balance": "You need to have a pocket watcher badge to view this.", "badges": [], "created_at": "2025-07-07T16:25:12.461-04:00", "updated_at": "2025-07-08T03:18:22.406-04:00", "avatar": "https://avatars.slack-edge.com/2025-07-07/9156509327510_7a11f5aa8c996d7cbae2_original.png", "custom_css": null}, {"id": 15047, "slack_id": "U094QD6MNEN", "display_name": "Rishi Reddy", "bio": null, "projects_count": 0, "devlogs_count": 0, "votes_count": 0, "ships_count": 0, "projects": [], "coding_time_seconds": 0, "coding_time_seconds_today": 0, "balance": "You need to have a pocket watcher badge to view this.", "badges": [], "created_at": "2025-07-07T16:27:47.788-04:00", "updated_at": "2025-07-08T03:18:26.538-04:00", "avatar": "https://avatars.slack-edge.com/2025-07-07/9182537112432_6c62c6e5521b93005e11_original.png", "custom_css": null}, {"id": 15048, "slack_id": "U094LG95VL6", "display_name": "Roseline", "bio": null, "projects_count": 0, "devlogs_count": 0, "votes_count": 0, "ships_count": 0, "projects": [], "coding_time_seconds": 1310, "coding_time_seconds_today": 0, "balance": "You need to have a pocket watcher badge to view this.", "badges": [], "created_at": "2025-07-07T16:38:07.412-04:00", "updated_at": "2025-08-10T11:32:01.786-04:00", "avatar": "https://secure.gravatar.com/avatar/25e9531b38e4bfa56f071b74016efc34.jpg?s=512&d=https%3A%2F%2Fa.slack-edge.com%2Fdf10d%2Fimg%2Favatars%2Fava_0021-512.png", "custom_css": null}, {"id": 15049, "slack_id": "U095CHKBXG8", "display_name": "gaursh101", "bio": null, "projects_count": 0, "devlogs_count": 0, "votes_count": 0, "ships_count": 0, "projects": [], "coding_time_seconds": 0, "coding_time_seconds_today": 0, "balance": "You need to have a pocket watcher badge to view this.", "badges": [], "created_at": "2025-07-07T16:45:02.137-04:00", "updated_at": "2025-07-08T03:18:26.710-04:00", "avatar": "https://secure.gravatar.com/avatar/321dc4b9531902c344404721e5793c94.jpg?s=512&d=https%3A%2F%2Fa.slack-edge.com%2Fdf10d%2Fimg%2Favatars%2Fava_0012-512.png", "custom_css": null}, {"id": 15050, "slack_id": "U094JT7EXGT", "display_name": "Erik Shaver", "bio": null, "projects_count": 0, "devlogs_count": 0, "votes_count": 0, "ships_count": 0, "projects": [], "coding_time_seconds": 0, "coding_time_seconds_today": 0, "balance": "You need to have a pocket watcher badge to view this.", "badges": [], "created_at": "2025-07-07T17:00:51.238-04:00", "updated_at": "2025-07-08T03:18:26.793-04:00", "avatar": "https://avatars.slack-edge.com/2025-07-07/9162498427556_97346c2c16c26548f5cc_original.png", "custom_css": null}, {"id": 15051, "slack_id": "U094QKBUD8S", "display_name": "Naima Ammar", "bio": null, "projects_count": 0, "devlogs_count": 0, "votes_count": 0, "ships_count": 0, "projects": [], "coding_time_seconds": 0, "coding_time_seconds_today": 0, "balance": "You need to have a pocket watcher badge to view this.", "badges": [], "created_at": "2025-07-07T17:11:48.887-04:00", "updated_at": "2025-07-09T21:53:08.983-04:00", "avatar": "https://secure.gravatar.com/avatar/63624ad939e22ece062ddcfc1af4b5dd.jpg?s=512&d=https%3A%2F%2Fa.slack-edge.com%2Fdf10d%2Fimg%2Favatars%2Fava_0021-512.png", "custom_css": null}, {"id": 15052, "slack_id": "U094SJH694L", "display_name": "Yana", "bio": null, "projects_count": 0, "devlogs_count": 0, "votes_count": 0, "ships_count": 0, "projects": [], "coding_time_seconds": 0, "coding_time_seconds_today": 0, "balance": "You need to have a pocket watcher badge to view this.", "badges": [], "created_at": "2025-07-07T17:36:10.127-04:00", "updated_at": "2025-07-08T18:45:01.717-04:00", "avatar": "https://avatars.slack-edge.com/2025-07-07/9147961595223_fb8ebc5bc813c8ed86fa_original.jpg", "custom_css": null}, {"id": 15053, "slack_id": "U094BTVMML7", "display_name": "Irsan Sutanto", "bio": null, "projects_count": 0, "devlogs_count": 0, "votes_count": 0, "ships_count": 0, "projects": [], "coding_time_seconds": 0, "coding_time_seconds_today": 0, "balance": "You need to have a pocket watcher badge to view this.", "badges": [], "created_at": "2025-07-07T17:38:15.868-04:00", "updated_at": "2025-07-08T03:18:27.045-04:00", "avatar": "https://secure.gravatar.com/avatar/5d275c060e284b1375d0bffcbb3948f1.jpg?s=512&d=https%3A%2F%2Fa.slack-edge.com%2Fdf10d%2Fimg%2Favatars%2Fava_0018-512.png", "custom_css": null}, {"id": 15054, "slack_id": "U094K2L4399", "display_name": "Another Person", "bio": null, "projects_count": 0, "devlogs_count": 0, "votes_count": 2, "ships_count": 0, "projects": [], "coding_time_seconds": 59981, "coding_time_seconds_today": 0, "balance": "You need to have a pocket watcher badge to view this.", "badges": [], "created_at": "2025-07-07T17:40:04.048-04:00", "updated_at": "2025-07-09T21:05:07.826-04:00", "avatar": "https://secure.gravatar.com/avatar/e4363327810b2099e3bfcb41fd220ce2.jpg?s=512&d=https%3A%2F%2Fa.slack-edge.com%2Fdf10d%2Fimg%2Favatars%2Fava_0022-512.png", "custom_css": null}, {"id": 15055, "slack_id": "U08RJ1PEM7X", "display_name": "Nova", "bio": null, "projects_count": 2, "devlogs_count": 2, "votes_count": 11, "ships_count": 1, "projects": [{"id": 11975, "title": "Flux", "devlogs_count": 1, "created_at": "2025-08-21T17:15:48.244-04:00"}, {"id": 6351, "title": "PetalNote", "devlogs_count": 1, "created_at": "2025-07-12T15:44:52.014-04:00"}], "coding_time_seconds": 341784, "coding_time_seconds_today": 0, "balance": "You need to have a pocket watcher badge to view this.", "badges": [{"name": "Maiden Voyage", "text": "you shipped your first project! the journey begins...", "icon": "\ud83d\udea2"}], "created_at": "2025-07-07T18:41:42.000-04:00", "updated_at": "2025-09-10T22:58:36.671-04:00", "avatar": "https://avatars.slack-edge.com/2025-09-09/9518356851280_26999c97b58ba37b1f83_original.png", "custom_css": null}, {"id": 15056, "slack_id": "U095CVAGC72", "display_name": "Roopali Rahul", "bio": null, "projects_count": 0, "devlogs_count": 0, "votes_count": 0, "ships_count": 0, "projects": [], "coding_time_seconds": 0, "coding_time_seconds_today": 0, "balance": "You need to have a pocket watcher badge to view this.", "badges": [], "created_at": "2025-07-07T18:42:44.299-04:00", "updated_at": "2025-07-08T03:18:31.321-04:00", "avatar": "https://secure.gravatar.com/avatar/41a699a520da581bc1d598c65c9a5191.jpg?s=512&d=https%3A%2F%2Fa.slack-edge.com%2Fdf10d%2Fimg%2Favatars%2Fava_0013-512.png", "custom_css": null}, {"id": 15057, "slack_id": "U095D1QPH8Q", "display_name": "Ana", "bio": null, "projects_count": 0, "devlogs_count": 0, "votes_count": 0, "ships_count": 0, "projects": [], "coding_time_seconds": 0, "coding_time_seconds_today": 0, "balance": "You need to have a pocket watcher badge to view this.", "badges": [], "created_at": "2025-07-07T19:03:50.855-04:00", "updated_at": "2025-07-08T03:18:31.405-04:00", "avatar": "https://secure.gravatar.com/avatar/262dc6c330eab0b7809b541a3f4ce2a7.jpg?s=512&d=https%3A%2F%2Fa.slack-edge.com%2Fdf10d%2Fimg%2Favatars%2Fava_0015-512.png", "custom_css": null}, {"id": 15058, "slack_id": "U095D212WC8", "display_name": "Pookstir", "bio": "", "projects_count": 3, "devlogs_count": 29, "votes_count": 42, "ships_count": 1, "projects": [{"id": 5884, "title": "Wolf Interpreter", "devlogs_count": 11, "created_at": "2025-07-08T21:04:50.252-04:00"}, {"id": 8531, "title": "Mycor", "devlogs_count": 11, "created_at": "2025-07-28T02:02:07.940-04:00"}, {"id": 9170, "title": "Surface Circuits", "devlogs_count": 7, "created_at": "2025-07-30T20:36:30.154-04:00"}], "coding_time_seconds": 433861, "coding_time_seconds_today": 0, "balance": "You need to have a pocket watcher badge to view this.", "badges": [{"name": "Spider", "text": "this user has a pet!", "icon": "\ud83d\udd77\ufe0f"}, {"name": "Graphic Design is My Passion", "text": "Oh God How Did This Get Here I Am Not Good With Computer", "icon": "\ud83c\udfa8"}, {"name": "Maiden Voyage", "text": "you shipped your first project! the journey begins...", "icon": "\ud83d\udea2"}], "created_at": "2025-07-07T19:07:30.954-04:00", "updated_at": "2025-09-10T22:58:36.748-04:00", "avatar": "https://secure.gravatar.com/avatar/9613f740c4ae28274e41470f07d557b5.jpg?s=512&d=https%3A%2F%2Fa.slack-edge.com%2Fdf10d%2Fimg%2Favatars%2Fava_0001-512.png", "custom_css": ".bug {\r\n  transform: scale(15) !important;\r\n}\r\n.h-4.flex.items-center .font-extrabold.whitespace-nowrap .ml-1 {\r\n    display: none;\r\n    position: relative;\r\n}\r\n.h-4.flex.items-center .font-extrabold.whitespace-nowrap:before {\r\n  margin-left: calc(var(--spacing) * 1);\r\n  content: ' 0';\r\n}\r\n.h-4.flex.items-center picture img {\r\n  padding: 16px 16px 0px 0px;\r\n  background: url('/shell.png');\r\n  background-size: 16px;\r\n  width: 0px;\r\n  height: 0px;\r\n}\r\n.h-12.w-12.rounded-full.flex-shrink-0 {\r\n  padding: 48px 48px 0px 0px;\r\n  background: url('https://cattacocattaco.github.io/Wolf-Interpreter/test/frown.png');\r\n  background-size: 48px;\r\n  width: 0px;\r\n  height: 0px;\r\n}\r\n.text-xl.whitespace-nowrap.overflow-ellipsis a span span {\r\n  display: none;\r\n}\r\n.text-xl.whitespace-nowrap.overflow-ellipsis a span:after {\r\n  content: 'Banned';\r\n}\r\n.text-xl.whitespace-nowrap.overflow-ellipsis a img {\r\n  display: none;\r\n}\r\n.text-xl.whitespace-nowrap.overflow-ellipsis img {\r\n  display: none;\r\n}\r\nimg[alt=\"Pookstir\"]{\r\n  padding: 48px 48px 0px 0px;\r\n  background: url('https://cattacocattaco.github.io/Wolf-Interpreter/test/frown.png');\r\n  background-size: 48px;\r\n  width: 0px;\r\n  height: 0px;\r\n}\r\na[href=\"/users/15058\"] span span {\r\n  display: none;\r\n}\r\na[href=\"/users/15058\"] span:before {\r\n  content: 'Sowwy';\r\n}"}, {"id": 15059, "slack_id": "U094KBT2B8T", "display_name": "Anirudh Pulugurtha", "bio": null, "projects_count": 0, "devlogs_count": 0, "votes_count": 0, "ships_count": 0, "projects": [], "coding_time_seconds": 0, "coding_time_seconds_today": 0, "balance": "You need to have a pocket watcher badge to view this.", "badges": [], "created_at": "2025-07-07T19:12:46.700-04:00", "updated_at": "2025-07-08T03:18:31.559-04:00", "avatar": "https://secure.gravatar.com/avatar/9fe22ddf4176148a8c08c5700a65781c.jpg?s=512&d=https%3A%2F%2Fa.slack-edge.com%2Fdf10d%2Fimg%2Favatars%2Fava_0000-512.png", "custom_css": null}, {"id": 15060, "slack_id": "U08CPTYLMMY", "display_name": "Danny Kim", "bio": null, "projects_count": 0, "devlogs_count": 0, "votes_count": 0, "ships_count": 0, "projects": [], "coding_time_seconds": 3028, "coding_time_seconds_today": 0, "balance": "You need to have a pocket watcher badge to view this.", "badges": [], "created_at": "2025-07-07T19:41:56.847-04:00", "updated_at": "2025-08-02T03:26:53.418-04:00", "avatar": "https://avatars.slack-edge.com/2025-08-01/9290827239766_720ece1a851901d76263_original.jpg", "custom_css": null}, {"id": 15061, "slack_id": "U094MA42YR4", "display_name": "KingBebo", "bio": null, "projects_count": 0, "devlogs_count": 0, "votes_count": 0, "ships_count": 0, "projects": [], "coding_time_seconds": 79012, "coding_time_seconds_today": 0, "balance": "You need to have a pocket watcher badge to view this.", "badges": [], "created_at": "2025-07-07T20:20:29.688-04:00", "updated_at": "2025-07-08T03:18:31.704-04:00", "avatar": "https://secure.gravatar.com/avatar/1bc980e79ea56f6e429b326f0ebfd140.jpg?s=512&d=https%3A%2F%2Fa.slack-edge.com%2Fdf10d%2Fimg%2Favatars%2Fava_0009-512.png", "custom_css": null}, {"id": 15062, "slack_id": "U094Q2KGBV3", "display_name": "Yusuf Amin", "bio": null, "projects_count": 3, "devlogs_count": 8, "votes_count": 26, "ships_count": 2, "projects": [{"id": 11539, "title": "Flodo", "devlogs_count": 0, "created_at": "2025-08-16T21:02:03.397-04:00"}, {"id": 12294, "title": "Automated Birthday Message Bot: Craft the PERFECT Birthday wish", "devlogs_count": 2, "created_at": "2025-08-25T10:41:39.821-04:00"}, {"id": 5888, "title": "Bodok: Where Readers Meet", "devlogs_count": 6, "created_at": "2025-07-08T22:17:43.182-04:00"}], "coding_time_seconds": 193792, "coding_time_seconds_today": 0, "balance": "You need to have a pocket watcher badge to view this.", "badges": [{"name": "Maiden Voyage", "text": "you shipped your first project! the journey begins...", "icon": "\ud83d\udea2"}], "created_at": "2025-07-07T20:26:10.388-04:00", "updated_at": "2025-09-10T22:58:36.866-04:00", "avatar": "https://secure.gravatar.com/avatar/fd3dd8fa99e7f4889f124711e8ef22fc.jpg?s=512&d=https%3A%2F%2Fa.slack-edge.com%2Fdf10d%2Fimg%2Favatars%2Fava_0005-512.png", "custom_css": null}, {"id": 15063, "slack_id": "U08KQR79GJZ", "display_name": "Maithili Rastogi", "bio": null, "projects_count": 0, "devlogs_count": 0, "votes_count": 0, "ships_count": 0, "projects": [], "coding_time_seconds": 339182, "coding_time_seconds_today": 0, "balance": "You need to have a pocket watcher badge to view this.", "badges": [], "created_at": "2025-07-07T20:27:01.072-04:00", "updated_at": "2025-08-25T09:33:32.530-04:00", "avatar": "https://avatars.slack-edge.com/2025-07-06/9149022945171_aed7f15c2a5a835cf354_original.png", "custom_css": null}, {"id": 15064, "slack_id": "U094Q3SAF1T", "display_name": "Slobodan Jevtic", "bio": null, "projects_count": 0, "devlogs_count": 0, "votes_count": 0, "ships_count": 0, "projects": [], "coding_time_seconds": 16130, "coding_time_seconds_today": 0, "balance": "You need to have a pocket watcher badge to view this.", "badges": [], "created_at": "2025-07-07T20:32:28.483-04:00", "updated_at": "2025-07-08T03:18:31.943-04:00", "avatar": "https://secure.gravatar.com/avatar/df28abb26c8201f7538079309921f2f0.jpg?s=512&d=https%3A%2F%2Fa.slack-edge.com%2Fdf10d%2Fimg%2Favatars%2Fava_0011-512.png", "custom_css": null}, {"id": 15065, "slack_id": "U094Q3FDERK", "display_name": "loaderROR2", "bio": null, "projects_count": 1, "devlogs_count": 1, "votes_count": 0, "ships_count": 0, "projects": [{"id": 6130, "title": "making graphics.py 3 dimensional", "devlogs_count": 1, "created_at": "2025-07-10T17:48:01.418-04:00"}], "coding_time_seconds": 73589, "coding_time_seconds_today": 0, "balance": "You need to have a pocket watcher badge to view this.", "badges": [], "created_at": "2025-07-07T20:35:49.853-04:00", "updated_at": "2025-08-31T20:14:33.818-04:00", "avatar": "https://secure.gravatar.com/avatar/b86d2ef4c7f5a5a9b0fb12ad702a5039.jpg?s=512&d=https%3A%2F%2Fa.slack-edge.com%2Fdf10d%2Fimg%2Favatars%2Fava_0002-512.png", "custom_css": null}], "pagination": {"page": 749, "pages": 1192, "count": 23828, "items": 20}}