{"users": [{"id": 1481, "slack_id": "U091899GC2K", "display_name": "Saad", "bio": null, "projects_count": 0, "devlogs_count": 0, "votes_count": 0, "ships_count": 0, "projects": [], "coding_time_seconds": 156364, "coding_time_seconds_today": 0, "balance": "You need to have a pocket watcher badge to view this.", "badges": [], "created_at": "2025-06-16T13:21:27.444-04:00", "updated_at": "2025-07-03T19:17:50.191-04:00", "avatar": "https://secure.gravatar.com/avatar/11dbc00f9d0a182b00956f0c01b06ea9.jpg?s=512&d=https%3A%2F%2Fa.slack-edge.com%2Fdf10d%2Fimg%2Favatars%2Fava_0022-512.png", "custom_css": null}, {"id": 1482, "slack_id": "U09224YB6LR", "display_name": "asier", "bio": null, "projects_count": 0, "devlogs_count": 0, "votes_count": 0, "ships_count": 0, "projects": [], "coding_time_seconds": 0, "coding_time_seconds_today": 0, "balance": "You need to have a pocket watcher badge to view this.", "badges": [], "created_at": "2025-06-16T13:21:28.975-04:00", "updated_at": "2025-07-03T19:17:50.479-04:00", "avatar": "https://secure.gravatar.com/avatar/804691b86f78f4329f8e41dfb7223c91.jpg?s=512&d=https%3A%2F%2Fa.slack-edge.com%2Fdf10d%2Fimg%2Favatars%2Fava_0005-512.png", "custom_css": null}, {"id": 1483, "slack_id": "U092251DU3T", "display_name": "Appsorwebs", "bio": null, "projects_count": 0, "devlogs_count": 0, "votes_count": 0, "ships_count": 0, "projects": [], "coding_time_seconds": 0, "coding_time_seconds_today": 0, "balance": "You need to have a pocket watcher badge to view this.", "badges": [], "created_at": "2025-06-16T13:21:32.894-04:00", "updated_at": "2025-07-03T19:17:50.751-04:00", "avatar": "https://secure.gravatar.com/avatar/69cc641abc1570b1d628dd2c5165b164.jpg?s=512&d=https%3A%2F%2Fa.slack-edge.com%2Fdf10d%2Fimg%2Favatars%2Fava_0005-512.png", "custom_css": null}, {"id": 1484, "slack_id": "U091896LG2K", "display_name": "jonathan tchuente", "bio": null, "projects_count": 0, "devlogs_count": 0, "votes_count": 0, "ships_count": 0, "projects": [], "coding_time_seconds": 251044, "coding_time_seconds_today": 1496, "balance": "You need to have a pocket watcher badge to view this.", "badges": [], "created_at": "2025-06-16T13:21:37.367-04:00", "updated_at": "2025-07-03T19:17:51.045-04:00", "avatar": "https://avatars.slack-edge.com/2025-06-16/9058045395764_379df5e9bd0ab6f85cbf_original.jpg", "custom_css": null}, {"id": 1485, "slack_id": "U092BMG69EU", "display_name": "Awais Sajid", "bio": null, "projects_count": 0, "devlogs_count": 0, "votes_count": 0, "ships_count": 0, "projects": [], "coding_time_seconds": 0, "coding_time_seconds_today": 0, "balance": "You need to have a pocket watcher badge to view this.", "badges": [], "created_at": "2025-06-16T13:21:40.509-04:00", "updated_at": "2025-07-03T19:17:51.326-04:00", "avatar": "https://secure.gravatar.com/avatar/56783d0b6d2b364f7ad57ed92faa584b.jpg?s=512&d=https%3A%2F%2Fa.slack-edge.com%2Fdf10d%2Fimg%2Favatars%2Fava_0015-512.png", "custom_css": null}, {"id": 1486, "slack_id": "U078J2RSR4J", "display_name": "CarlosHacks", "bio": null, "projects_count": 0, "devlogs_count": 0, "votes_count": 0, "ships_count": 0, "projects": [], "coding_time_seconds": 0, "coding_time_seconds_today": 0, "balance": "You need to have a pocket watcher badge to view this.", "badges": [], "created_at": "2025-06-16T13:21:44.331-04:00", "updated_at": "2025-07-03T19:17:51.593-04:00", "avatar": "https://avatars.slack-edge.com/2024-06-18/7295245610403_e64083d0f91b225bdb1c_original.png", "custom_css": null}, {"id": 1487, "slack_id": "U09224T9DTK", "display_name": "Taya", "bio": null, "projects_count": 0, "devlogs_count": 0, "votes_count": 0, "ships_count": 0, "projects": [], "coding_time_seconds": 0, "coding_time_seconds_today": 0, "balance": "You need to have a pocket watcher badge to view this.", "badges": [], "created_at": "2025-06-16T13:21:55.214-04:00", "updated_at": "2025-07-03T19:17:51.882-04:00", "avatar": "https://secure.gravatar.com/avatar/041c36b905c264f242f73d4eadeb3d23.jpg?s=512&d=https%3A%2F%2Fa.slack-edge.com%2Fdf10d%2Fimg%2Favatars%2Fava_0014-512.png", "custom_css": null}, {"id": 1488, "slack_id": "U092C2U6H9N", "display_name": "Gera Martinez", "bio": null, "projects_count": 0, "devlogs_count": 0, "votes_count": 0, "ships_count": 0, "projects": [], "coding_time_seconds": 0, "coding_time_seconds_today": 0, "balance": "You need to have a pocket watcher badge to view this.", "badges": [], "created_at": "2025-06-16T13:21:56.081-04:00", "updated_at": "2025-07-03T19:17:52.153-04:00", "avatar": "https://secure.gravatar.com/avatar/159b6024e53074a2baa0048ed04a2f52.jpg?s=512&d=https%3A%2F%2Fa.slack-edge.com%2Fdf10d%2Fimg%2Favatars%2Fava_0009-512.png", "custom_css": null}, {"id": 1489, "slack_id": "U0857UWECTS", "display_name": "Nawab-AS", "bio": null, "projects_count": 0, "devlogs_count": 0, "votes_count": 0, "ships_count": 0, "projects": [], "coding_time_seconds": 421175, "coding_time_seconds_today": 0, "balance": "You need to have a pocket watcher badge to view this.", "badges": [], "created_at": "2025-06-16T13:22:02.331-04:00", "updated_at": "2025-09-02T21:37:17.022-04:00", "avatar": "https://avatars.slack-edge.com/2025-08-04/9303148293362_2b24b09fa18621a8c260_original.png", "custom_css": null}, {"id": 1490, "slack_id": "U091MQZGYCV", "display_name": "Pranav Marwaha", "bio": null, "projects_count": 0, "devlogs_count": 0, "votes_count": 0, "ships_count": 0, "projects": [], "coding_time_seconds": 2340, "coding_time_seconds_today": 0, "balance": "You need to have a pocket watcher badge to view this.", "badges": [], "created_at": "2025-06-16T13:22:06.168-04:00", "updated_at": "2025-07-03T19:17:52.718-04:00", "avatar": "https://secure.gravatar.com/avatar/8b9972b1a0c29c937ac392bf9789eb88.jpg?s=512&d=https%3A%2F%2Fa.slack-edge.com%2Fdf10d%2Fimg%2Favatars%2Fava_0014-512.png", "custom_css": null}, {"id": 1491, "slack_id": "U091GNC5AFQ", "display_name": "Hima Niko", "bio": null, "projects_count": 0, "devlogs_count": 0, "votes_count": 0, "ships_count": 0, "projects": [], "coding_time_seconds": 0, "coding_time_seconds_today": 0, "balance": "You need to have a pocket watcher badge to view this.", "badges": [], "created_at": "2025-06-16T13:22:10.553-04:00", "updated_at": "2025-07-03T19:17:52.990-04:00", "avatar": "https://secure.gravatar.com/avatar/7f5d72e1a03635ee75e837e56ccf6f9a.jpg?s=512&d=https%3A%2F%2Fa.slack-edge.com%2Fdf10d%2Fimg%2Favatars%2Fava_0012-512.png", "custom_css": null}, {"id": 1492, "slack_id": "U078VDDUH89", "display_name": "Map", "bio": null, "projects_count": 0, "devlogs_count": 0, "votes_count": 0, "ships_count": 0, "projects": [], "coding_time_seconds": 12443, "coding_time_seconds_today": 0, "balance": "You need to have a pocket watcher badge to view this.", "badges": [], "created_at": "2025-06-16T13:22:25.692-04:00", "updated_at": "2025-07-03T19:17:53.283-04:00", "avatar": "https://avatars.slack-edge.com/2024-06-25/7326835141843_40e31241d044b1db6a2f_original.png", "custom_css": null}, {"id": 1493, "slack_id": "U091JDPC5R8", "display_name": "saku", "bio": null, "projects_count": 4, "devlogs_count": 15, "votes_count": 62, "ships_count": 4, "projects": [{"id": 2156, "title": "google2brave (userscript)", "devlogs_count": 3, "created_at": "2025-06-20T10:01:27.645-04:00"}, {"id": 2576, "title": "Hole Digger", "devlogs_count": 6, "created_at": "2025-06-21T11:06:17.430-04:00"}, {"id": 4553, "title": "PeerStudio", "devlogs_count": 4, "created_at": "2025-06-30T15:48:07.909-04:00"}, {"id": 1808, "title": "thiscatdoesnotexist", "devlogs_count": 2, "created_at": "2025-06-19T09:48:37.416-04:00"}], "coding_time_seconds": 375485, "coding_time_seconds_today": 0, "balance": "You need to have a pocket watcher badge to view this.", "badges": [{"name": "Maiden Voyage", "text": "you shipped your first project! the journey begins...", "icon": "\ud83d\udea2"}], "created_at": "2025-06-16T13:22:29.472-04:00", "updated_at": "2025-09-10T22:51:53.693-04:00", "avatar": "https://avatars.slack-edge.com/2025-08-30/9421756345079_4b249fe23909fb433ea5_original.png", "custom_css": null}, {"id": 1494, "slack_id": "U092253FULR", "display_name": "Cam", "bio": null, "projects_count": 0, "devlogs_count": 0, "votes_count": 0, "ships_count": 0, "projects": [], "coding_time_seconds": 0, "coding_time_seconds_today": 0, "balance": "You need to have a pocket watcher badge to view this.", "badges": [], "created_at": "2025-06-16T13:22:32.772-04:00", "updated_at": "2025-07-03T19:17:53.829-04:00", "avatar": "https://secure.gravatar.com/avatar/6a364437c998a50923548a6c2189554a.jpg?s=512&d=https%3A%2F%2Fa.slack-edge.com%2Fdf10d%2Fimg%2Favatars%2Fava_0001-512.png", "custom_css": null}, {"id": 1495, "slack_id": "U092C2W020G", "display_name": "RanulND", "bio": null, "projects_count": 0, "devlogs_count": 0, "votes_count": 0, "ships_count": 0, "projects": [], "coding_time_seconds": 0, "coding_time_seconds_today": 0, "balance": "You need to have a pocket watcher badge to view this.", "badges": [], "created_at": "2025-06-16T13:22:47.506-04:00", "updated_at": "2025-07-03T19:17:54.099-04:00", "avatar": "https://secure.gravatar.com/avatar/18533abaa4609a48113431a70e3d527b.jpg?s=512&d=https%3A%2F%2Fa.slack-edge.com%2Fdf10d%2Fimg%2Favatars%2Fava_0018-512.png", "custom_css": null}, {"id": 1496, "slack_id": "U079W50D0Q2", "display_name": "anoam", "bio": null, "projects_count": 1, "devlogs_count": 4, "votes_count": 9, "ships_count": 1, "projects": [{"id": 1479, "title": "NetTool", "devlogs_count": 4, "created_at": "2025-06-18T16:03:42.202-04:00"}], "coding_time_seconds": 197192, "coding_time_seconds_today": 0, "balance": "You need to have a pocket watcher badge to view this.", "badges": [{"name": "Maiden Voyage", "text": "you shipped your first project! the journey begins...", "icon": "\ud83d\udea2"}], "created_at": "2025-06-16T13:22:53.628-04:00", "updated_at": "2025-09-10T22:51:53.780-04:00", "avatar": "https://secure.gravatar.com/avatar/98b152a72d62cce83a4ea908ef064642.jpg?s=512&d=https%3A%2F%2Fa.slack-edge.com%2Fdf10d%2Fimg%2Favatars%2Fava_0018-512.png", "custom_css": null}, {"id": 1497, "slack_id": "U091GKHHREF", "display_name": "MAQSOOD HUSSAIN WANI", "bio": null, "projects_count": 0, "devlogs_count": 0, "votes_count": 0, "ships_count": 0, "projects": [], "coding_time_seconds": 0, "coding_time_seconds_today": 0, "balance": "You need to have a pocket watcher badge to view this.", "badges": [], "created_at": "2025-06-16T13:22:54.576-04:00", "updated_at": "2025-07-03T19:17:54.650-04:00", "avatar": "https://secure.gravatar.com/avatar/42fd0dee0489b6e32584430e59f770bd.jpg?s=512&d=https%3A%2F%2Fa.slack-edge.com%2Fdf10d%2Fimg%2Favatars%2Fava_0014-512.png", "custom_css": null}, {"id": 1498, "slack_id": "U091GKQFLBD", "display_name": "m-coscia", "bio": null, "projects_count": 0, "devlogs_count": 0, "votes_count": 0, "ships_count": 0, "projects": [], "coding_time_seconds": 0, "coding_time_seconds_today": 0, "balance": "You need to have a pocket watcher badge to view this.", "badges": [], "created_at": "2025-06-16T13:23:22.391-04:00", "updated_at": "2025-07-03T19:17:54.943-04:00", "avatar": "https://secure.gravatar.com/avatar/4fce3c9dbe2f98129f9a2d984adac560.jpg?s=512&d=https%3A%2F%2Fa.slack-edge.com%2Fdf10d%2Fimg%2Favatars%2Fava_0026-512.png", "custom_css": null}, {"id": 1499, "slack_id": "U092C31GESU", "display_name": "bunnysunny24", "bio": null, "projects_count": 0, "devlogs_count": 0, "votes_count": 0, "ships_count": 0, "projects": [], "coding_time_seconds": 378, "coding_time_seconds_today": 0, "balance": "You need to have a pocket watcher badge to view this.", "badges": [], "created_at": "2025-06-16T13:23:35.769-04:00", "updated_at": "2025-07-03T19:17:55.213-04:00", "avatar": "https://secure.gravatar.com/avatar/8c3476e3467db19f0041b7d6097b4072.jpg?s=512&d=https%3A%2F%2Fa.slack-edge.com%2Fdf10d%2Fimg%2Favatars%2Fava_0012-512.png", "custom_css": null}, {"id": 1500, "slack_id": "U091MR0QLKX", "display_name": "Rudra Goyal", "bio": null, "projects_count": 1, "devlogs_count": 1, "votes_count": 0, "ships_count": 0, "projects": [{"id": 808, "title": "Starting with openCV - python ", "devlogs_count": 1, "created_at": "2025-06-17T08:42:46.422-04:00"}], "coding_time_seconds": 11935, "coding_time_seconds_today": 0, "balance": "You need to have a pocket watcher badge to view this.", "badges": [], "created_at": "2025-06-16T13:23:42.323-04:00", "updated_at": "2025-07-03T19:17:55.480-04:00", "avatar": "https://secure.gravatar.com/avatar/afd71e5db4063c32cddc86009011f191.jpg?s=512&d=https%3A%2F%2Fa.slack-edge.com%2Fdf10d%2Fimg%2Favatars%2Fava_0001-512.png", "custom_css": null}], "pagination": {"page": 75, "pages": 1192, "count": 23827, "items": 20}}