{"users": [{"id": 15066, "slack_id": "U07EY6N6S10", "display_name": "GnanadeepJ", "bio": null, "projects_count": 0, "devlogs_count": 0, "votes_count": 0, "ships_count": 0, "projects": [], "coding_time_seconds": 3280, "coding_time_seconds_today": 0, "balance": "You need to have a pocket watcher badge to view this.", "badges": [], "created_at": "2025-07-07T20:56:11.735-04:00", "updated_at": "2025-07-07T21:05:41.875-04:00", "avatar": "https://secure.gravatar.com/avatar/f5c12fc83ca4f34705bb4256ea4be6cd.jpg?s=512&d=https%3A%2F%2Fa.slack-edge.com%2Fdf10d%2Fimg%2Favatars%2Fava_0021-512.png", "custom_css": null}, {"id": 15067, "slack_id": "U094CFDU5RV", "display_name": "Enaium", "bio": null, "projects_count": 0, "devlogs_count": 0, "votes_count": 0, "ships_count": 0, "projects": [], "coding_time_seconds": 155271, "coding_time_seconds_today": 0, "balance": "You need to have a pocket watcher badge to view this.", "badges": [], "created_at": "2025-07-07T20:57:51.924-04:00", "updated_at": "2025-07-08T03:18:32.200-04:00", "avatar": "https://secure.gravatar.com/avatar/96a4c0d4e01449fc9ed3944bb1cf2826.jpg?s=512&d=https%3A%2F%2Fa.slack-edge.com%2Fdf10d%2Fimg%2Favatars%2Fava_0000-512.png", "custom_css": null}, {"id": 15068, "slack_id": "U0954L2JU2V", "display_name": "Gabriela Martinez", "bio": null, "projects_count": 0, "devlogs_count": 0, "votes_count": 0, "ships_count": 0, "projects": [], "coding_time_seconds": 0, "coding_time_seconds_today": 0, "balance": "You need to have a pocket watcher badge to view this.", "badges": [], "created_at": "2025-07-07T20:58:40.382-04:00", "updated_at": "2025-07-08T03:18:32.305-04:00", "avatar": "https://avatars.slack-edge.com/2025-07-07/9183375397520_8bafda733213df4dab2c_original.png", "custom_css": null}, {"id": 15069, "slack_id": "U094CM46SAK", "display_name": "Sameer Kumar", "bio": null, "projects_count": 0, "devlogs_count": 0, "votes_count": 0, "ships_count": 0, "projects": [], "coding_time_seconds": 0, "coding_time_seconds_today": 0, "balance": "You need to have a pocket watcher badge to view this.", "badges": [], "created_at": "2025-07-07T22:02:10.776-04:00", "updated_at": "2025-07-08T03:18:32.381-04:00", "avatar": "https://avatars.slack-edge.com/2025-07-07/9155932654691_65eef5dc58cba1b817b7_original.jpg", "custom_css": null}, {"id": 15070, "slack_id": "U0954UCG0F3", "display_name": "Joanna", "bio": null, "projects_count": 0, "devlogs_count": 0, "votes_count": 0, "ships_count": 0, "projects": [], "coding_time_seconds": 120, "coding_time_seconds_today": 0, "balance": "You need to have a pocket watcher badge to view this.", "badges": [], "created_at": "2025-07-07T22:29:57.753-04:00", "updated_at": "2025-07-08T03:18:32.466-04:00", "avatar": "https://secure.gravatar.com/avatar/eb058866cbea461a1c1fea0aa980cd15.jpg?s=512&d=https%3A%2F%2Fa.slack-edge.com%2Fdf10d%2Fimg%2Favatars%2Fava_0004-512.png", "custom_css": null}, {"id": 15071, "slack_id": "U0813AUE2E7", "display_name": "Ryan Zhao", "bio": null, "projects_count": 0, "devlogs_count": 0, "votes_count": 5, "ships_count": 0, "projects": [], "coding_time_seconds": 326, "coding_time_seconds_today": 0, "balance": "You need to have a pocket watcher badge to view this.", "badges": [], "created_at": "2025-07-07T22:40:32.406-04:00", "updated_at": "2025-07-07T23:01:12.955-04:00", "avatar": "https://secure.gravatar.com/avatar/0428d88b97d0142c7ad33f042896e1df.jpg?s=512&d=https%3A%2F%2Fa.slack-edge.com%2Fdf10d%2Fimg%2Favatars%2Fava_0016-512.png", "custom_css": null}, {"id": 15072, "slack_id": "U091MCW4AVB", "display_name": "Kushal Chhetri", "bio": null, "projects_count": 0, "devlogs_count": 0, "votes_count": 0, "ships_count": 0, "projects": [], "coding_time_seconds": 0, "coding_time_seconds_today": 0, "balance": "You need to have a pocket watcher badge to view this.", "badges": [], "created_at": "2025-07-07T22:42:57.116-04:00", "updated_at": "2025-07-08T03:18:36.669-04:00", "avatar": "https://avatars.slack-edge.com/2025-07-07/9175013011537_b3c8da77abea86c3ea06_original.jpg", "custom_css": null}, {"id": 15073, "slack_id": "U094MQ131SA", "display_name": "Bob", "bio": null, "projects_count": 0, "devlogs_count": 0, "votes_count": 0, "ships_count": 0, "projects": [], "coding_time_seconds": 0, "coding_time_seconds_today": 0, "balance": "You need to have a pocket watcher badge to view this.", "badges": [], "created_at": "2025-07-07T22:46:46.766-04:00", "updated_at": "2025-07-08T19:23:40.122-04:00", "avatar": "https://secure.gravatar.com/avatar/2492a4fdab835835498f6114de03f33d.jpg?s=512&d=https%3A%2F%2Fa.slack-edge.com%2Fdf10d%2Fimg%2Favatars%2Fava_0025-512.png", "custom_css": null}, {"id": 15074, "slack_id": "U094CR98NF9", "display_name": "Daniel Xu", "bio": null, "projects_count": 0, "devlogs_count": 0, "votes_count": 0, "ships_count": 0, "projects": [], "coding_time_seconds": 24227, "coding_time_seconds_today": 0, "balance": "You need to have a pocket watcher badge to view this.", "badges": [], "created_at": "2025-07-07T22:54:28.405-04:00", "updated_at": "2025-07-08T03:18:36.834-04:00", "avatar": "https://secure.gravatar.com/avatar/68dfdcc7a771acccfeee45225eed42dd.jpg?s=512&d=https%3A%2F%2Fa.slack-edge.com%2Fdf10d%2Fimg%2Favatars%2Fava_0003-512.png", "custom_css": null}, {"id": 15075, "slack_id": "U09552QU1SM", "display_name": "Cheese", "bio": null, "projects_count": 0, "devlogs_count": 0, "votes_count": 0, "ships_count": 0, "projects": [], "coding_time_seconds": 7758, "coding_time_seconds_today": 0, "balance": "You need to have a pocket watcher badge to view this.", "badges": [], "created_at": "2025-07-07T23:15:47.556-04:00", "updated_at": "2025-07-08T03:18:36.921-04:00", "avatar": "https://secure.gravatar.com/avatar/5da5aa7b77207ec54839e72991e6e8d5.jpg?s=512&d=https%3A%2F%2Fa.slack-edge.com%2Fdf10d%2Fimg%2Favatars%2Fava_0022-512.png", "custom_css": null}, {"id": 15076, "slack_id": "U095DN2SBB2", "display_name": "Arindam", "bio": null, "projects_count": 0, "devlogs_count": 0, "votes_count": 0, "ships_count": 0, "projects": [], "coding_time_seconds": 0, "coding_time_seconds_today": 0, "balance": "You need to have a pocket watcher badge to view this.", "badges": [], "created_at": "2025-07-07T23:16:32.897-04:00", "updated_at": "2025-07-08T03:18:37.038-04:00", "avatar": "https://secure.gravatar.com/avatar/14a2868d0e9245e57863b86f04a74b5f.jpg?s=512&d=https%3A%2F%2Fa.slack-edge.com%2Fdf10d%2Fimg%2Favatars%2Fava_0002-512.png", "custom_css": null}, {"id": 15077, "slack_id": "U094RPEJR8S", "display_name": "Max", "bio": "", "projects_count": 1, "devlogs_count": 36, "votes_count": 20, "ships_count": 1, "projects": [{"id": 5997, "title": "Skywell", "devlogs_count": 36, "created_at": "2025-07-09T20:37:24.143-04:00"}], "coding_time_seconds": 218478, "coding_time_seconds_today": 0, "balance": "You need to have a pocket watcher badge to view this.", "badges": [{"name": "Maiden Voyage", "text": "you shipped your first project! the journey begins...", "icon": "\ud83d\udea2"}], "created_at": "2025-07-07T23:18:00.534-04:00", "updated_at": "2025-09-10T22:58:37.182-04:00", "avatar": "https://avatars.slack-edge.com/2025-07-07/9156155739779_89eb3c8b72799c8028b3_original.jpg", "custom_css": null}, {"id": 15078, "slack_id": "U095DND7MPA", "display_name": "Ibrahim", "bio": null, "projects_count": 0, "devlogs_count": 0, "votes_count": 0, "ships_count": 0, "projects": [], "coding_time_seconds": 0, "coding_time_seconds_today": 0, "balance": "You need to have a pocket watcher badge to view this.", "badges": [], "created_at": "2025-07-07T23:21:41.865-04:00", "updated_at": "2025-07-08T03:18:37.244-04:00", "avatar": "https://avatars.slack-edge.com/2025-07-07/9175121380929_f2cdc042f36ae20f3674_original.png", "custom_css": null}, {"id": 15079, "slack_id": "U09553TEB25", "display_name": "Huerte", "bio": null, "projects_count": 0, "devlogs_count": 0, "votes_count": 0, "ships_count": 0, "projects": [], "coding_time_seconds": 0, "coding_time_seconds_today": 0, "balance": "You need to have a pocket watcher badge to view this.", "badges": [], "created_at": "2025-07-07T23:30:13.975-04:00", "updated_at": "2025-07-08T03:18:37.323-04:00", "avatar": "https://secure.gravatar.com/avatar/a1f720466b596e86f6760720d177f172.jpg?s=512&d=https%3A%2F%2Fa.slack-edge.com%2Fdf10d%2Fimg%2Favatars%2Fava_0020-512.png", "custom_css": null}, {"id": 15080, "slack_id": "U0812AA7ELD", "display_name": "sid", "bio": null, "projects_count": 1, "devlogs_count": 2, "votes_count": 2, "ships_count": 0, "projects": [{"id": 9972, "title": "Prisoner's Dilemma", "devlogs_count": 2, "created_at": "2025-08-03T08:28:54.143-04:00"}], "coding_time_seconds": 120677, "coding_time_seconds_today": 0, "balance": "You need to have a pocket watcher badge to view this.", "badges": [], "created_at": "2025-07-07T23:40:57.504-04:00", "updated_at": "2025-08-09T08:23:21.258-04:00", "avatar": "https://avatars.slack-edge.com/2025-04-09/8743882246881_f8dd71701fbdf9c2026a_original.png", "custom_css": null}, {"id": 15081, "slack_id": "U08077S89HS", "display_name": "vintheweirdass", "bio": null, "projects_count": 0, "devlogs_count": 0, "votes_count": 0, "ships_count": 0, "projects": [], "coding_time_seconds": 137080, "coding_time_seconds_today": 0, "balance": "You need to have a pocket watcher badge to view this.", "badges": [], "created_at": "2025-07-08T00:23:02.771-04:00", "updated_at": "2025-09-18T03:13:22.570-04:00", "avatar": "https://avatars.slack-edge.com/2024-11-09/8005860252163_02b9dac987a31dc514b0_original.png", "custom_css": null}, {"id": 15082, "slack_id": "U094TSJJSBW", "display_name": "Prestige Park Ridge", "bio": null, "projects_count": 0, "devlogs_count": 0, "votes_count": 0, "ships_count": 0, "projects": [], "coding_time_seconds": 0, "coding_time_seconds_today": 0, "balance": "You need to have a pocket watcher badge to view this.", "badges": [], "created_at": "2025-07-08T00:37:21.617-04:00", "updated_at": "2025-07-08T03:18:37.547-04:00", "avatar": "https://secure.gravatar.com/avatar/596e9b136954639df87ab5ee6cddfe09.jpg?s=512&d=https%3A%2F%2Fa.slack-edge.com%2Fdf10d%2Fimg%2Favatars%2Fava_0016-512.png", "custom_css": null}, {"id": 15083, "slack_id": "U0956JQU600", "display_name": "AryaRathi", "bio": null, "projects_count": 0, "devlogs_count": 0, "votes_count": 0, "ships_count": 0, "projects": [], "coding_time_seconds": 0, "coding_time_seconds_today": 0, "balance": "You need to have a pocket watcher badge to view this.", "badges": [], "created_at": "2025-07-08T00:49:51.576-04:00", "updated_at": "2025-07-08T03:18:37.630-04:00", "avatar": "https://secure.gravatar.com/avatar/b6082714d1cc51a2faad30d78409829a.jpg?s=512&d=https%3A%2F%2Fa.slack-edge.com%2Fdf10d%2Fimg%2Favatars%2Fava_0013-512.png", "custom_css": null}, {"id": 15084, "slack_id": "U094HPZ7Q14", "display_name": "DEEPAK", "bio": null, "projects_count": 0, "devlogs_count": 0, "votes_count": 0, "ships_count": 0, "projects": [], "coding_time_seconds": 0, "coding_time_seconds_today": 0, "balance": "You need to have a pocket watcher badge to view this.", "badges": [], "created_at": "2025-07-08T01:25:38.411-04:00", "updated_at": "2025-07-08T03:18:37.709-04:00", "avatar": "https://secure.gravatar.com/avatar/24d5c4f2110402971631b0c1de4db673.jpg?s=512&d=https%3A%2F%2Fa.slack-edge.com%2Fdf10d%2Fimg%2Favatars%2Fava_0003-512.png", "custom_css": null}, {"id": 15085, "slack_id": "U094S55TR3L", "display_name": "Soujanya Das", "bio": null, "projects_count": 6, "devlogs_count": 6, "votes_count": 44, "ships_count": 4, "projects": [{"id": 12785, "title": "Quotes to post generator", "devlogs_count": 2, "created_at": "2025-09-02T11:47:55.310-04:00"}, {"id": 5803, "title": "Boba Project", "devlogs_count": 0, "created_at": "2025-07-08T06:04:36.222-04:00"}, {"id": 11073, "title": "QuizMaster", "devlogs_count": 1, "created_at": "2025-08-13T01:19:37.394-04:00"}, {"id": 12550, "title": "Blog App", "devlogs_count": 1, "created_at": "2025-08-29T10:46:14.820-04:00"}, {"id": 12718, "title": "Mood base joke app ", "devlogs_count": 1, "created_at": "2025-09-01T12:04:41.483-04:00"}, {"id": 11737, "title": "Portfolio", "devlogs_count": 1, "created_at": "2025-08-19T01:10:17.021-04:00"}], "coding_time_seconds": 114365, "coding_time_seconds_today": 0, "balance": "You need to have a pocket watcher badge to view this.", "badges": [{"name": "Maiden Voyage", "text": "you shipped your first project! the journey begins...", "icon": "\ud83d\udea2"}], "created_at": "2025-07-08T01:27:42.971-04:00", "updated_at": "2025-09-10T22:58:37.373-04:00", "avatar": "https://avatars.slack-edge.com/2025-07-08/9175515839585_d3ccc1a2608ddc5566ec_original.jpg", "custom_css": null}], "pagination": {"page": 750, "pages": 1192, "count": 23828, "items": 20}}