{"users": [{"id": 15106, "slack_id": "U094H1U3N1Z", "display_name": "specialbrocoli", "bio": null, "projects_count": 0, "devlogs_count": 0, "votes_count": 0, "ships_count": 0, "projects": [], "coding_time_seconds": 43554, "coding_time_seconds_today": 0, "balance": "You need to have a pocket watcher badge to view this.", "badges": [], "created_at": "2025-07-08T07:09:30.914-04:00", "updated_at": "2025-07-08T10:21:40.752-04:00", "avatar": "https://secure.gravatar.com/avatar/192614a9414fc71dc7fed9284bc815ff.jpg?s=512&d=https%3A%2F%2Fa.slack-edge.com%2Fdf10d%2Fimg%2Favatars%2Fava_0002-512.png", "custom_css": null}, {"id": 15107, "slack_id": "U09571DTP6V", "display_name": "Sehajdeep Singh Dhami", "bio": null, "projects_count": 0, "devlogs_count": 0, "votes_count": 0, "ships_count": 0, "projects": [], "coding_time_seconds": 21471, "coding_time_seconds_today": 0, "balance": "You need to have a pocket watcher badge to view this.", "badges": [], "created_at": "2025-07-08T07:32:16.504-04:00", "updated_at": "2025-07-08T10:21:40.850-04:00", "avatar": "https://avatars.slack-edge.com/2025-07-08/9158181724867_5afcd03c4f29195c41b5_original.png", "custom_css": null}, {"id": 15108, "slack_id": "U094SLCE2LD", "display_name": "Anand Kumar", "bio": null, "projects_count": 0, "devlogs_count": 0, "votes_count": 0, "ships_count": 0, "projects": [], "coding_time_seconds": 0, "coding_time_seconds_today": 0, "balance": "You need to have a pocket watcher badge to view this.", "badges": [], "created_at": "2025-07-08T07:39:11.753-04:00", "updated_at": "2025-07-08T10:21:40.960-04:00", "avatar": "https://secure.gravatar.com/avatar/fedabab18b913ae71d28a85881df0273.jpg?s=512&d=https%3A%2F%2Fa.slack-edge.com%2Fdf10d%2Fimg%2Favatars%2Fava_0010-512.png", "custom_css": null}, {"id": 15109, "slack_id": "U07RFAJ61B3", "display_name": "Aisha", "bio": null, "projects_count": 0, "devlogs_count": 0, "votes_count": 0, "ships_count": 0, "projects": [], "coding_time_seconds": 0, "coding_time_seconds_today": 0, "balance": "You need to have a pocket watcher badge to view this.", "badges": [], "created_at": "2025-07-08T07:48:57.758-04:00", "updated_at": "2025-07-08T10:21:41.042-04:00", "avatar": "https://secure.gravatar.com/avatar/e2c3a62170384aa9201dbcde0b33f5e8.jpg?s=512&d=https%3A%2F%2Fa.slack-edge.com%2Fdf10d%2Fimg%2Favatars%2Fava_0015-512.png", "custom_css": null}, {"id": 15110, "slack_id": "U090525TDAR", "display_name": "manu-emb", "bio": null, "projects_count": 0, "devlogs_count": 0, "votes_count": 0, "ships_count": 0, "projects": [], "coding_time_seconds": 0, "coding_time_seconds_today": 0, "balance": "You need to have a pocket watcher badge to view this.", "badges": [], "created_at": "2025-07-08T08:10:05.513-04:00", "updated_at": "2025-07-08T09:57:22.447-04:00", "avatar": "https://secure.gravatar.com/avatar/540e404edb742debed0b0bad62aff725.jpg?s=512&d=https%3A%2F%2Fa.slack-edge.com%2Fdf10d%2Fimg%2Favatars%2Fava_0000-512.png", "custom_css": null}, {"id": 15111, "slack_id": "U094F0VH6KH", "display_name": "Jalfonita", "bio": null, "projects_count": 0, "devlogs_count": 0, "votes_count": 0, "ships_count": 0, "projects": [], "coding_time_seconds": 0, "coding_time_seconds_today": 0, "balance": "You need to have a pocket watcher badge to view this.", "badges": [], "created_at": "2025-07-08T08:12:54.421-04:00", "updated_at": "2025-07-08T10:21:41.191-04:00", "avatar": "https://secure.gravatar.com/avatar/a306cdb69eb8514451551c06e80e3ff4.jpg?s=512&d=https%3A%2F%2Fa.slack-edge.com%2Fdf10d%2Fimg%2Favatars%2Fava_0005-512.png", "custom_css": null}, {"id": 15112, "slack_id": "U094NAWK9DH", "display_name": "Gabry7000", "bio": null, "projects_count": 0, "devlogs_count": 0, "votes_count": 0, "ships_count": 0, "projects": [], "coding_time_seconds": 0, "coding_time_seconds_today": 0, "balance": "You need to have a pocket watcher badge to view this.", "badges": [], "created_at": "2025-07-08T08:18:06.384-04:00", "updated_at": "2025-07-08T10:21:41.264-04:00", "avatar": "https://avatars.slack-edge.com/2025-07-08/9151072034071_8a4b6c29b86a2aa0dd39_original.png", "custom_css": null}, {"id": 15113, "slack_id": "U094U0R0H3L", "display_name": "Capputino", "bio": null, "projects_count": 0, "devlogs_count": 0, "votes_count": 0, "ships_count": 0, "projects": [], "coding_time_seconds": 112611, "coding_time_seconds_today": 0, "balance": "You need to have a pocket watcher badge to view this.", "badges": [], "created_at": "2025-07-08T08:24:00.684-04:00", "updated_at": "2025-07-08T10:21:41.344-04:00", "avatar": "https://secure.gravatar.com/avatar/5a480c83714f4501f5b284fcd34cdada.jpg?s=512&d=https%3A%2F%2Fa.slack-edge.com%2Fdf10d%2Fimg%2Favatars%2Fava_0004-512.png", "custom_css": null}, {"id": 15114, "slack_id": "U094U17KVLJ", "display_name": "zeni", "bio": null, "projects_count": 1, "devlogs_count": 2, "votes_count": 19, "ships_count": 1, "projects": [{"id": 5831, "title": "Interactive Retro Terminal", "devlogs_count": 2, "created_at": "2025-07-08T10:08:54.025-04:00"}], "coding_time_seconds": 77611, "coding_time_seconds_today": 0, "balance": "You need to have a pocket watcher badge to view this.", "badges": [{"name": "Maiden Voyage", "text": "you shipped your first project! the journey begins...", "icon": "\ud83d\udea2"}], "created_at": "2025-07-08T08:30:08.547-04:00", "updated_at": "2025-09-10T22:58:37.980-04:00", "avatar": "https://avatars.slack-edge.com/2025-07-08/9151127778823_8e9ddf700602ad30fcad_original.png", "custom_css": null}, {"id": 15115, "slack_id": "U094QC1PXT8", "display_name": "kuskustaim", "bio": null, "projects_count": 2, "devlogs_count": 4, "votes_count": 18, "ships_count": 1, "projects": [{"id": 6589, "title": "Snek", "devlogs_count": 2, "created_at": "2025-07-14T11:50:22.657-04:00"}, {"id": 6720, "title": "Lines", "devlogs_count": 0, "created_at": "2025-07-15T13:22:57.753-04:00"}], "coding_time_seconds": 73212, "coding_time_seconds_today": 0, "balance": "You need to have a pocket watcher badge to view this.", "badges": [{"name": "Maiden Voyage", "text": "you shipped your first project! the journey begins...", "icon": "\ud83d\udea2"}], "created_at": "2025-07-08T08:42:32.740-04:00", "updated_at": "2025-09-10T22:58:38.004-04:00", "avatar": "https://secure.gravatar.com/avatar/c4c72752ed964f92e861e8392c64d671.jpg?s=512&d=https%3A%2F%2Fa.slack-edge.com%2Fdf10d%2Fimg%2Favatars%2Fava_0011-512.png", "custom_css": null}, {"id": 15116, "slack_id": "U094T2JLNH3", "display_name": "De Paiva Abreu Louka", "bio": null, "projects_count": 0, "devlogs_count": 0, "votes_count": 0, "ships_count": 0, "projects": [], "coding_time_seconds": 0, "coding_time_seconds_today": 0, "balance": "You need to have a pocket watcher badge to view this.", "badges": [], "created_at": "2025-07-08T09:21:09.644-04:00", "updated_at": "2025-07-08T10:21:41.589-04:00", "avatar": "https://secure.gravatar.com/avatar/dc255ee9e85b0f212a8db6eaee837c8c.jpg?s=512&d=https%3A%2F%2Fa.slack-edge.com%2Fdf10d%2Fimg%2Favatars%2Fava_0014-512.png", "custom_css": null}, {"id": 15117, "slack_id": "U094FM9298F", "display_name": "Jeffrey Ben", "bio": null, "projects_count": 0, "devlogs_count": 0, "votes_count": 0, "ships_count": 0, "projects": [], "coding_time_seconds": 0, "coding_time_seconds_today": 0, "balance": "You need to have a pocket watcher badge to view this.", "badges": [], "created_at": "2025-07-08T10:13:09.085-04:00", "updated_at": "2025-07-08T10:21:41.670-04:00", "avatar": "https://secure.gravatar.com/avatar/42d73ad9b4f1afc4bcbb9873071adfdf.jpg?s=512&d=https%3A%2F%2Fa.slack-edge.com%2Fdf10d%2Fimg%2Favatars%2Fava_0013-512.png", "custom_css": null}, {"id": 15118, "slack_id": "U094P2V9EAX", "display_name": "Muhammad Hadi Mughal", "bio": null, "projects_count": 0, "devlogs_count": 0, "votes_count": 0, "ships_count": 0, "projects": [], "coding_time_seconds": 0, "coding_time_seconds_today": 0, "balance": "You need to have a pocket watcher badge to view this.", "badges": [], "created_at": "2025-07-08T10:22:00.905-04:00", "updated_at": "2025-07-09T03:20:09.333-04:00", "avatar": "https://avatars.slack-edge.com/2025-07-08/9163641456261_b810f524719f2d00e14c_original.png", "custom_css": null}, {"id": 15119, "slack_id": "U094WJEQM1A", "display_name": "Sarang Vehale", "bio": null, "projects_count": 0, "devlogs_count": 0, "votes_count": 0, "ships_count": 0, "projects": [], "coding_time_seconds": 0, "coding_time_seconds_today": 0, "balance": "You need to have a pocket watcher badge to view this.", "badges": [], "created_at": "2025-07-08T10:23:10.368-04:00", "updated_at": "2025-07-09T03:20:09.409-04:00", "avatar": "https://avatars.slack-edge.com/2025-07-08/9161090539046_79f8d39440f7aeee7b67_original.png", "custom_css": null}, {"id": 15120, "slack_id": "U094UQPKCUA", "display_name": "Ayanfe", "bio": null, "projects_count": 1, "devlogs_count": 2, "votes_count": 3, "ships_count": 1, "projects": [{"id": 5836, "title": "Workshop", "devlogs_count": 2, "created_at": "2025-07-08T11:05:12.713-04:00"}], "coding_time_seconds": 75885, "coding_time_seconds_today": 0, "balance": "You need to have a pocket watcher badge to view this.", "badges": [{"name": "Maiden Voyage", "text": "you shipped your first project! the journey begins...", "icon": "\ud83d\udea2"}], "created_at": "2025-07-08T10:40:01.476-04:00", "updated_at": "2025-09-10T22:58:38.120-04:00", "avatar": "https://secure.gravatar.com/avatar/80fbe9fce08816378cbc1cdde39debd1.jpg?s=512&d=https%3A%2F%2Fa.slack-edge.com%2Fdf10d%2Fimg%2Favatars%2Fava_0000-512.png", "custom_css": null}, {"id": 15121, "slack_id": "U094R54BG22", "display_name": "Bridget Denton", "bio": null, "projects_count": 1, "devlogs_count": 1, "votes_count": 2, "ships_count": 0, "projects": [{"id": 5834, "title": "Calculator", "devlogs_count": 1, "created_at": "2025-07-08T10:59:03.372-04:00"}], "coding_time_seconds": 21084, "coding_time_seconds_today": 0, "balance": "You need to have a pocket watcher badge to view this.", "badges": [], "created_at": "2025-07-08T10:41:51.524-04:00", "updated_at": "2025-07-09T03:20:09.570-04:00", "avatar": "https://secure.gravatar.com/avatar/54be5d2959d291f1728c8a629842f836.jpg?s=512&d=https%3A%2F%2Fa.slack-edge.com%2Fdf10d%2Fimg%2Favatars%2Fava_0001-512.png", "custom_css": null}, {"id": 15122, "slack_id": "U08UJMHSCBT", "display_name": "Sneh", "bio": null, "projects_count": 0, "devlogs_count": 0, "votes_count": 0, "ships_count": 0, "projects": [], "coding_time_seconds": 11854, "coding_time_seconds_today": 0, "balance": "You need to have a pocket watcher badge to view this.", "badges": [], "created_at": "2025-07-08T10:42:55.835-04:00", "updated_at": "2025-07-09T01:09:24.852-04:00", "avatar": "https://avatars.slack-edge.com/2025-06-13/9029891528295_43577ed5cd5ce0f295f7_original.jpg", "custom_css": null}, {"id": 15123, "slack_id": "U095878UYUR", "display_name": "anahita", "bio": null, "projects_count": 0, "devlogs_count": 0, "votes_count": 0, "ships_count": 0, "projects": [], "coding_time_seconds": 0, "coding_time_seconds_today": 0, "balance": "You need to have a pocket watcher badge to view this.", "badges": [], "created_at": "2025-07-08T11:00:14.718-04:00", "updated_at": "2025-07-09T03:20:09.709-04:00", "avatar": "https://secure.gravatar.com/avatar/9a4c221d4afd9eb938da8a528b3ec35b.jpg?s=512&d=https%3A%2F%2Fa.slack-edge.com%2Fdf10d%2Fimg%2Favatars%2Fava_0017-512.png", "custom_css": null}, {"id": 15124, "slack_id": "U094HP5GUUD", "display_name": "Manar Fermas", "bio": null, "projects_count": 0, "devlogs_count": 0, "votes_count": 0, "ships_count": 0, "projects": [], "coding_time_seconds": 0, "coding_time_seconds_today": 0, "balance": "You need to have a pocket watcher badge to view this.", "badges": [], "created_at": "2025-07-08T11:01:13.767-04:00", "updated_at": "2025-07-09T03:20:09.792-04:00", "avatar": "https://secure.gravatar.com/avatar/37ac0f552b3c4a2f7276a94d33191321.jpg?s=512&d=https%3A%2F%2Fa.slack-edge.com%2Fdf10d%2Fimg%2Favatars%2Fava_0025-512.png", "custom_css": null}, {"id": 15125, "slack_id": "U094UV111T4", "display_name": "That1Animator", "bio": null, "projects_count": 0, "devlogs_count": 0, "votes_count": 0, "ships_count": 0, "projects": [], "coding_time_seconds": 0, "coding_time_seconds_today": 0, "balance": "You need to have a pocket watcher badge to view this.", "badges": [], "created_at": "2025-07-08T11:02:01.527-04:00", "updated_at": "2025-07-09T03:20:09.886-04:00", "avatar": "https://secure.gravatar.com/avatar/4b6f67b340d6370cfb2451c76c4c071d.jpg?s=512&d=https%3A%2F%2Fa.slack-edge.com%2Fdf10d%2Fimg%2Favatars%2Fava_0012-512.png", "custom_css": null}], "pagination": {"page": 752, "pages": 1192, "count": 23828, "items": 20}}