{"users": [{"id": 15126, "slack_id": "U084Z2BJCGN", "display_name": "LucilleLovesMelodie", "bio": null, "projects_count": 0, "devlogs_count": 0, "votes_count": 0, "ships_count": 0, "projects": [], "coding_time_seconds": 0, "coding_time_seconds_today": 0, "balance": "You need to have a pocket watcher badge to view this.", "badges": [], "created_at": "2025-07-08T11:20:24.952-04:00", "updated_at": "2025-07-08T11:20:35.224-04:00", "avatar": "https://avatars.slack-edge.com/2024-12-15/8199853286864_59e021946168d95b271a_original.png", "custom_css": null}, {"id": 15127, "slack_id": "U0837CCRB0D", "display_name": "Fallods", "bio": null, "projects_count": 0, "devlogs_count": 0, "votes_count": 0, "ships_count": 0, "projects": [], "coding_time_seconds": 0, "coding_time_seconds_today": 0, "balance": "You need to have a pocket watcher badge to view this.", "badges": [], "created_at": "2025-07-08T11:21:31.403-04:00", "updated_at": "2025-07-08T11:21:40.749-04:00", "avatar": "https://secure.gravatar.com/avatar/5d4ece5c12e5ac9c19db79d1c25c02e6.jpg?s=512&d=https%3A%2F%2Fa.slack-edge.com%2Fdf10d%2Fimg%2Favatars%2Fava_0010-512.png", "custom_css": null}, {"id": 15128, "slack_id": "U094U0YKNA1", "display_name": "yara", "bio": null, "projects_count": 0, "devlogs_count": 0, "votes_count": 0, "ships_count": 0, "projects": [], "coding_time_seconds": 0, "coding_time_seconds_today": 0, "balance": "You need to have a pocket watcher badge to view this.", "badges": [], "created_at": "2025-07-08T11:22:09.168-04:00", "updated_at": "2025-07-09T03:20:10.104-04:00", "avatar": "https://secure.gravatar.com/avatar/ed139838734c0ecbfcb33feddb04031a.jpg?s=512&d=https%3A%2F%2Fa.slack-edge.com%2Fdf10d%2Fimg%2Favatars%2Fava_0010-512.png", "custom_css": null}, {"id": 15129, "slack_id": "U095H0F30PJ", "display_name": "Ahmad Mustafa", "bio": null, "projects_count": 0, "devlogs_count": 0, "votes_count": 0, "ships_count": 0, "projects": [], "coding_time_seconds": 43498, "coding_time_seconds_today": 0, "balance": "You need to have a pocket watcher badge to view this.", "badges": [], "created_at": "2025-07-08T11:31:52.689-04:00", "updated_at": "2025-07-09T03:20:10.214-04:00", "avatar": "https://avatars.slack-edge.com/2025-07-08/9167121106564_a40be528a29d29f04ca0_original.png", "custom_css": null}, {"id": 15130, "slack_id": "U094V6KAYEN", "display_name": "darien", "bio": null, "projects_count": 0, "devlogs_count": 0, "votes_count": 0, "ships_count": 0, "projects": [], "coding_time_seconds": 0, "coding_time_seconds_today": 0, "balance": "You need to have a pocket watcher badge to view this.", "badges": [], "created_at": "2025-07-08T11:38:13.049-04:00", "updated_at": "2025-07-09T03:20:10.310-04:00", "avatar": "https://secure.gravatar.com/avatar/79437bb3b4b31f68c057c1b0f0f57300.jpg?s=512&d=https%3A%2F%2Fa.slack-edge.com%2Fdf10d%2Fimg%2Favatars%2Fava_0006-512.png", "custom_css": null}, {"id": 15131, "slack_id": "U08CMP4LV6Z", "display_name": "Jay Surse", "bio": null, "projects_count": 0, "devlogs_count": 3, "votes_count": 1, "ships_count": 0, "projects": [], "coding_time_seconds": 116803, "coding_time_seconds_today": 0, "balance": "You need to have a pocket watcher badge to view this.", "badges": [], "created_at": "2025-07-08T12:07:07.200-04:00", "updated_at": "2025-07-08T12:16:43.103-04:00", "avatar": "https://avatars.slack-edge.com/2025-02-11/8424478882311_3426c3a59a75d6fe845f_original.png", "custom_css": null}, {"id": 15132, "slack_id": "U08SS8KU2GH", "display_name": "Matthew Yang", "bio": null, "projects_count": 0, "devlogs_count": 0, "votes_count": 0, "ships_count": 0, "projects": [], "coding_time_seconds": 0, "coding_time_seconds_today": 0, "balance": "You need to have a pocket watcher badge to view this.", "badges": [], "created_at": "2025-07-08T12:39:12.217-04:00", "updated_at": "2025-07-09T13:55:01.767-04:00", "avatar": "https://secure.gravatar.com/avatar/c38ee950b33acfa661d3ba89e01634e6.jpg?s=512&d=https%3A%2F%2Fa.slack-edge.com%2Fdf10d%2Fimg%2Favatars%2Fava_0003-512.png", "custom_css": null}, {"id": 15133, "slack_id": "U094S0WPS7Q", "display_name": "Michael Kenyon", "bio": null, "projects_count": 0, "devlogs_count": 0, "votes_count": 0, "ships_count": 0, "projects": [], "coding_time_seconds": 0, "coding_time_seconds_today": 0, "balance": "You need to have a pocket watcher badge to view this.", "badges": [], "created_at": "2025-07-08T12:45:18.623-04:00", "updated_at": "2025-07-09T03:20:10.541-04:00", "avatar": "https://avatars.slack-edge.com/2025-07-08/9187513344816_23aac5e44d098da4d1a8_original.png", "custom_css": null}, {"id": 15134, "slack_id": "U094XGNFYUC", "display_name": "Imaani", "bio": null, "projects_count": 0, "devlogs_count": 0, "votes_count": 0, "ships_count": 0, "projects": [], "coding_time_seconds": 0, "coding_time_seconds_today": 0, "balance": "You need to have a pocket watcher badge to view this.", "badges": [], "created_at": "2025-07-08T12:45:57.563-04:00", "updated_at": "2025-07-09T03:20:10.617-04:00", "avatar": "https://secure.gravatar.com/avatar/942c3df45d41356475189fdb031e28c8.jpg?s=512&d=https%3A%2F%2Fa.slack-edge.com%2Fdf10d%2Fimg%2Favatars%2Fava_0021-512.png", "custom_css": null}, {"id": 15135, "slack_id": "U094S14KW8N", "display_name": "Adam", "bio": null, "projects_count": 0, "devlogs_count": 0, "votes_count": 0, "ships_count": 0, "projects": [], "coding_time_seconds": 0, "coding_time_seconds_today": 0, "balance": "You need to have a pocket watcher badge to view this.", "badges": [], "created_at": "2025-07-08T12:47:29.619-04:00", "updated_at": "2025-07-09T03:20:10.702-04:00", "avatar": "https://secure.gravatar.com/avatar/255ed28d882edcdfb1fb26c302cc22d5.jpg?s=512&d=https%3A%2F%2Fa.slack-edge.com%2Fdf10d%2Fimg%2Favatars%2Fava_0025-512.png", "custom_css": null}, {"id": 15136, "slack_id": "U095HGDV0U8", "display_name": "Joanna Li", "bio": null, "projects_count": 2, "devlogs_count": 6, "votes_count": 22, "ships_count": 1, "projects": [{"id": 10909, "title": "First Web ", "devlogs_count": 1, "created_at": "2025-08-11T17:49:35.826-04:00"}, {"id": 11726, "title": "Game Dev", "devlogs_count": 2, "created_at": "2025-08-18T21:44:52.330-04:00"}], "coding_time_seconds": 100943, "coding_time_seconds_today": 0, "balance": "You need to have a pocket watcher badge to view this.", "badges": [{"name": "Maiden Voyage", "text": "you shipped your first project! the journey begins...", "icon": "\ud83d\udea2"}], "created_at": "2025-07-08T12:56:51.459-04:00", "updated_at": "2025-09-10T22:58:38.534-04:00", "avatar": "https://avatars.slack-edge.com/2025-08-01/9290366562899_43987d6b8713cef526d2_original.png", "custom_css": null}, {"id": 15137, "slack_id": "U094VM0SN6N", "display_name": "Justin Liu", "bio": null, "projects_count": 0, "devlogs_count": 0, "votes_count": 0, "ships_count": 0, "projects": [], "coding_time_seconds": 0, "coding_time_seconds_today": 0, "balance": "You need to have a pocket watcher badge to view this.", "badges": [], "created_at": "2025-07-08T12:58:40.032-04:00", "updated_at": "2025-07-09T03:20:10.856-04:00", "avatar": "https://avatars.slack-edge.com/2025-07-08/9160115814243_08859b4757df17edb57c_original.png", "custom_css": null}, {"id": 15138, "slack_id": "U07GD8QF21L", "display_name": "Sathvik Kannam", "bio": null, "projects_count": 0, "devlogs_count": 0, "votes_count": 0, "ships_count": 0, "projects": [], "coding_time_seconds": 0, "coding_time_seconds_today": 0, "balance": "You need to have a pocket watcher badge to view this.", "badges": [], "created_at": "2025-07-08T13:00:34.436-04:00", "updated_at": "2025-07-08T13:14:38.244-04:00", "avatar": "https://avatars.slack-edge.com/2024-08-12/7563826511923_8358d540a91e5084588c_original.png", "custom_css": null}, {"id": 15139, "slack_id": "U095HHEBQJU", "display_name": "Sowjanyaa", "bio": null, "projects_count": 0, "devlogs_count": 0, "votes_count": 0, "ships_count": 0, "projects": [], "coding_time_seconds": 0, "coding_time_seconds_today": 0, "balance": "You need to have a pocket watcher badge to view this.", "badges": [], "created_at": "2025-07-08T13:01:41.733-04:00", "updated_at": "2025-07-09T03:20:15.096-04:00", "avatar": "https://secure.gravatar.com/avatar/ae0f7c04df22ef3e745bf96f5a48003b.jpg?s=512&d=https%3A%2F%2Fa.slack-edge.com%2Fdf10d%2Fimg%2Favatars%2Fava_0012-512.png", "custom_css": null}, {"id": 15140, "slack_id": "U094S5HF5K8", "display_name": "Nour", "bio": null, "projects_count": 0, "devlogs_count": 0, "votes_count": 0, "ships_count": 0, "projects": [], "coding_time_seconds": 0, "coding_time_seconds_today": 0, "balance": "You need to have a pocket watcher badge to view this.", "badges": [], "created_at": "2025-07-08T13:10:37.128-04:00", "updated_at": "2025-07-11T08:39:39.592-04:00", "avatar": "https://secure.gravatar.com/avatar/4f417cb53c13284538960c504415f287.jpg?s=512&d=https%3A%2F%2Fa.slack-edge.com%2Fdf10d%2Fimg%2Favatars%2Fava_0008-512.png", "custom_css": null}, {"id": 15141, "slack_id": "U095HKRGJE4", "display_name": "Abhi", "bio": null, "projects_count": 0, "devlogs_count": 0, "votes_count": 0, "ships_count": 0, "projects": [], "coding_time_seconds": 0, "coding_time_seconds_today": 0, "balance": "You need to have a pocket watcher badge to view this.", "badges": [], "created_at": "2025-07-08T13:19:21.549-04:00", "updated_at": "2025-07-09T03:20:15.271-04:00", "avatar": "https://avatars.slack-edge.com/2025-07-08/9167775474308_940f605e55304ec5185f_original.jpg", "custom_css": null}, {"id": 15142, "slack_id": "U08NG01P934", "display_name": "Baran N", "bio": null, "projects_count": 0, "devlogs_count": 0, "votes_count": 0, "ships_count": 0, "projects": [], "coding_time_seconds": 26070, "coding_time_seconds_today": 0, "balance": "You need to have a pocket watcher badge to view this.", "badges": [], "created_at": "2025-07-08T13:23:22.229-04:00", "updated_at": "2025-08-21T21:20:03.666-04:00", "avatar": "https://avatars.slack-edge.com/2025-08-21/9378858881687_9b73c22d8d000f1c6933_original.jpg", "custom_css": null}, {"id": 15143, "slack_id": "U094US7H2Q5", "display_name": "Omar", "bio": null, "projects_count": 0, "devlogs_count": 0, "votes_count": 0, "ships_count": 0, "projects": [], "coding_time_seconds": 51424, "coding_time_seconds_today": 0, "balance": "You need to have a pocket watcher badge to view this.", "badges": [], "created_at": "2025-07-08T13:40:09.517-04:00", "updated_at": "2025-07-09T03:20:15.435-04:00", "avatar": "https://secure.gravatar.com/avatar/2afc227b1a77cad76b1d6f6c8d55187f.jpg?s=512&d=https%3A%2F%2Fa.slack-edge.com%2Fdf10d%2Fimg%2Favatars%2Fava_0024-512.png", "custom_css": null}, {"id": 15144, "slack_id": "U094SBKBPB8", "display_name": "Vinayak", "bio": null, "projects_count": 0, "devlogs_count": 0, "votes_count": 0, "ships_count": 0, "projects": [], "coding_time_seconds": 0, "coding_time_seconds_today": 0, "balance": "You need to have a pocket watcher badge to view this.", "badges": [], "created_at": "2025-07-08T13:46:26.273-04:00", "updated_at": "2025-07-09T03:20:15.510-04:00", "avatar": "https://secure.gravatar.com/avatar/8c65f419bb5fb3c5c5c23d140c2f763d.jpg?s=512&d=https%3A%2F%2Fa.slack-edge.com%2Fdf10d%2Fimg%2Favatars%2Fava_0023-512.png", "custom_css": null}, {"id": 15145, "slack_id": "U07BX8V0TB8", "display_name": "Nikhil Rao", "bio": null, "projects_count": 0, "devlogs_count": 0, "votes_count": 0, "ships_count": 0, "projects": [], "coding_time_seconds": 0, "coding_time_seconds_today": 0, "balance": "You need to have a pocket watcher badge to view this.", "badges": [], "created_at": "2025-07-08T13:48:29.497-04:00", "updated_at": "2025-07-08T13:49:40.280-04:00", "avatar": "https://avatars.slack-edge.com/2024-07-11/7411821624691_97a93573ad3078bad741_original.png", "custom_css": null}], "pagination": {"page": 753, "pages": 1192, "count": 23828, "items": 20}}