{"users": [{"id": 15166, "slack_id": "U095K4XPBB2", "display_name": "gyandeep kintali", "bio": null, "projects_count": 0, "devlogs_count": 0, "votes_count": 0, "ships_count": 0, "projects": [], "coding_time_seconds": 12351, "coding_time_seconds_today": 0, "balance": "You need to have a pocket watcher badge to view this.", "badges": [], "created_at": "2025-07-08T18:25:26.672-04:00", "updated_at": "2025-07-09T03:20:25.328-04:00", "avatar": "https://secure.gravatar.com/avatar/a957243429a64b262775281ea2de2565.jpg?s=512&d=https%3A%2F%2Fa.slack-edge.com%2Fdf10d%2Fimg%2Favatars%2Fava_0008-512.png", "custom_css": null}, {"id": 15167, "slack_id": "U095ALLLMB3", "display_name": "Seth Ogoe Ayim", "bio": null, "projects_count": 0, "devlogs_count": 0, "votes_count": 0, "ships_count": 0, "projects": [], "coding_time_seconds": 0, "coding_time_seconds_today": 0, "balance": "You need to have a pocket watcher badge to view this.", "badges": [], "created_at": "2025-07-08T18:26:32.831-04:00", "updated_at": "2025-07-09T03:20:25.428-04:00", "avatar": "https://avatars.slack-edge.com/2025-07-08/9166292490661_48f19a8f754b41f300e0_original.jpg", "custom_css": null}, {"id": 15168, "slack_id": "U094W9ASQTF", "display_name": "Zain Mehboob E", "bio": null, "projects_count": 0, "devlogs_count": 0, "votes_count": 0, "ships_count": 0, "projects": [], "coding_time_seconds": 0, "coding_time_seconds_today": 0, "balance": "You need to have a pocket watcher badge to view this.", "badges": [], "created_at": "2025-07-08T18:38:18.377-04:00", "updated_at": "2025-07-09T03:20:25.513-04:00", "avatar": "https://secure.gravatar.com/avatar/0eb31ad360d7e2c3805e93e70daa3555.jpg?s=512&d=https%3A%2F%2Fa.slack-edge.com%2Fdf10d%2Fimg%2Favatars%2Fava_0005-512.png", "custom_css": null}, {"id": 15169, "slack_id": "U08260ZDXV2", "display_name": "b7w", "bio": null, "projects_count": 0, "devlogs_count": 0, "votes_count": 0, "ships_count": 0, "projects": [], "coding_time_seconds": 93098, "coding_time_seconds_today": 0, "balance": "You need to have a pocket watcher badge to view this.", "badges": [], "created_at": "2025-07-08T19:06:43.815-04:00", "updated_at": "2025-07-10T22:55:00.219-04:00", "avatar": "https://avatars.slack-edge.com/2024-11-26/8074168264311_0f56ebb8fb3d0e711e8a_original.jpg", "custom_css": null}, {"id": 15170, "slack_id": "U094Z9KDE3E", "display_name": "Aaron Zhang", "bio": null, "projects_count": 0, "devlogs_count": 0, "votes_count": 0, "ships_count": 0, "projects": [], "coding_time_seconds": 0, "coding_time_seconds_today": 0, "balance": "You need to have a pocket watcher badge to view this.", "badges": [], "created_at": "2025-07-08T19:09:14.471-04:00", "updated_at": "2025-07-09T03:20:25.656-04:00", "avatar": "https://secure.gravatar.com/avatar/10cd51c9e4be54db1f1ba4e6851a3de9.jpg?s=512&d=https%3A%2F%2Fa.slack-edge.com%2Fdf10d%2Fimg%2Favatars%2Fava_0005-512.png", "custom_css": null}, {"id": 15171, "slack_id": "U094RPZ719R", "display_name": "Silver", "bio": null, "projects_count": 0, "devlogs_count": 0, "votes_count": 0, "ships_count": 0, "projects": [], "coding_time_seconds": 0, "coding_time_seconds_today": 0, "balance": "You need to have a pocket watcher badge to view this.", "badges": [], "created_at": "2025-07-08T19:14:17.737-04:00", "updated_at": "2025-07-09T03:20:25.735-04:00", "avatar": "https://avatars.slack-edge.com/2025-07-08/9163942841958_d0f761460e65f2d871b4_original.gif", "custom_css": null}, {"id": 15172, "slack_id": "U095KATQK0Q", "display_name": "fuite", "bio": null, "projects_count": 0, "devlogs_count": 0, "votes_count": 0, "ships_count": 0, "projects": [], "coding_time_seconds": 0, "coding_time_seconds_today": 0, "balance": "You need to have a pocket watcher badge to view this.", "badges": [], "created_at": "2025-07-08T19:29:35.483-04:00", "updated_at": "2025-07-09T03:20:25.812-04:00", "avatar": "https://secure.gravatar.com/avatar/4cae83f7443f42162cc6a8e9642495c0.jpg?s=512&d=https%3A%2F%2Fa.slack-edge.com%2Fdf10d%2Fimg%2Favatars%2Fava_0022-512.png", "custom_css": null}, {"id": 15173, "slack_id": "U094TVD9ZK8", "display_name": "ParthB", "bio": null, "projects_count": 0, "devlogs_count": 0, "votes_count": 0, "ships_count": 0, "projects": [], "coding_time_seconds": 0, "coding_time_seconds_today": 0, "balance": "You need to have a pocket watcher badge to view this.", "badges": [], "created_at": "2025-07-08T19:40:13.321-04:00", "updated_at": "2025-07-09T21:57:01.739-04:00", "avatar": "https://secure.gravatar.com/avatar/f7467a83e43f1d2d93ee2bd4a0856ccd.jpg?s=512&d=https%3A%2F%2Fa.slack-edge.com%2Fdf10d%2Fimg%2Favatars%2Fava_0021-512.png", "custom_css": null}, {"id": 15174, "slack_id": "U094JP889JT", "display_name": "Elliott", "bio": null, "projects_count": 0, "devlogs_count": 0, "votes_count": 0, "ships_count": 0, "projects": [], "coding_time_seconds": 240, "coding_time_seconds_today": 0, "balance": "You need to have a pocket watcher badge to view this.", "badges": [], "created_at": "2025-07-08T20:37:16.211-04:00", "updated_at": "2025-09-09T16:42:59.242-04:00", "avatar": "https://avatars.slack-edge.com/2025-07-25/9256431007829_616be6d9f8d8b1083a62_original.png", "custom_css": null}, {"id": 15175, "slack_id": "U094XRVP4M8", "display_name": "Orangejack", "bio": null, "projects_count": 0, "devlogs_count": 0, "votes_count": 0, "ships_count": 0, "projects": [], "coding_time_seconds": 4822, "coding_time_seconds_today": 0, "balance": "You need to have a pocket watcher badge to view this.", "badges": [], "created_at": "2025-07-08T21:24:38.087-04:00", "updated_at": "2025-07-10T12:14:04.565-04:00", "avatar": "https://secure.gravatar.com/avatar/85c703d6b2c10161051fa22c5599af5c.jpg?s=512&d=https%3A%2F%2Fa.slack-edge.com%2Fdf10d%2Fimg%2Favatars%2Fava_0023-512.png", "custom_css": null}, {"id": 15176, "slack_id": "U095KNUGC2C", "display_name": "Jackson", "bio": null, "projects_count": 7, "devlogs_count": 13, "votes_count": 141, "ships_count": 6, "projects": [{"id": 13648, "title": "Mad Libs", "devlogs_count": 1, "created_at": "2025-09-21T22:19:44.256-04:00"}, {"id": 12633, "title": "Assembly Adventures", "devlogs_count": 0, "created_at": "2025-08-30T19:15:07.038-04:00"}, {"id": 12743, "title": "Assembly Adventures", "devlogs_count": 1, "created_at": "2025-09-01T22:08:34.352-04:00"}, {"id": 8660, "title": "Expo4sure", "devlogs_count": 1, "created_at": "2025-07-28T20:11:15.249-04:00"}, {"id": 8152, "title": "Portfolio", "devlogs_count": 1, "created_at": "2025-07-25T00:12:41.149-04:00"}, {"id": 10373, "title": "Color By Number", "devlogs_count": 1, "created_at": "2025-08-06T11:45:49.577-04:00"}, {"id": 7464, "title": "\ud83c\udf54Calories App", "devlogs_count": 8, "created_at": "2025-07-21T22:13:06.927-04:00"}], "coding_time_seconds": 186161, "coding_time_seconds_today": 0, "balance": "You need to have a pocket watcher badge to view this.", "badges": [{"name": "Maiden Voyage", "text": "you shipped your first project! the journey begins...", "icon": "\ud83d\udea2"}, {"name": "Ballot Stuffer", "text": "vote 100 times.", "icon": "https://summer.hackclub.com/assets/i_voted-bf851b48.png"}], "created_at": "2025-07-08T21:39:44.966-04:00", "updated_at": "2025-09-10T22:58:39.556-04:00", "avatar": "https://secure.gravatar.com/avatar/d224a1eaf11628155ba1e9b0cb7d4c11.jpg?s=512&d=https%3A%2F%2Fa.slack-edge.com%2Fdf10d%2Fimg%2Favatars%2Fava_0015-512.png", "custom_css": null}, {"id": 15177, "slack_id": "U08A44FBMHC", "display_name": "Qazi", "bio": null, "projects_count": 4, "devlogs_count": 13, "votes_count": 64, "ships_count": 3, "projects": [{"id": 6670, "title": "Portfolio Site Redesign !!", "devlogs_count": 5, "created_at": "2025-07-15T00:42:19.631-04:00"}, {"id": 9614, "title": "Year-In-Pixels | One Hour Challenge", "devlogs_count": 1, "created_at": "2025-08-01T21:05:25.719-04:00"}, {"id": 10428, "title": "Hack the Skies Calendar", "devlogs_count": 0, "created_at": "2025-08-07T00:00:42.414-04:00"}, {"id": 10195, "title": "CRiDO", "devlogs_count": 4, "created_at": "2025-08-04T20:56:22.394-04:00"}], "coding_time_seconds": 94302, "coding_time_seconds_today": 0, "balance": "You need to have a pocket watcher badge to view this.", "badges": [{"name": "Maiden Voyage", "text": "you shipped your first project! the journey begins...", "icon": "\ud83d\udea2"}], "created_at": "2025-07-08T22:03:32.769-04:00", "updated_at": "2025-09-10T22:58:39.585-04:00", "avatar": "https://secure.gravatar.com/avatar/a587bd14ee36b807447fb01723a94c7f.jpg?s=512&d=https%3A%2F%2Fa.slack-edge.com%2Fdf10d%2Fimg%2Favatars%2Fava_0013-512.png", "custom_css": null}, {"id": 15178, "slack_id": "U091RCRGLRG", "display_name": "kettle", "bio": null, "projects_count": 0, "devlogs_count": 0, "votes_count": 0, "ships_count": 0, "projects": [], "coding_time_seconds": 8028, "coding_time_seconds_today": 0, "balance": "You need to have a pocket watcher badge to view this.", "badges": [], "created_at": "2025-07-08T22:43:27.298-04:00", "updated_at": "2025-07-09T03:20:26.277-04:00", "avatar": "https://secure.gravatar.com/avatar/34b744c86f71d29726b1c6060bd2bf5f.jpg?s=512&d=https%3A%2F%2Fa.slack-edge.com%2Fdf10d%2Fimg%2Favatars%2Fava_0026-512.png", "custom_css": null}, {"id": 15179, "slack_id": "U094X58A337", "display_name": "Veer", "bio": null, "projects_count": 0, "devlogs_count": 0, "votes_count": 0, "ships_count": 0, "projects": [], "coding_time_seconds": 0, "coding_time_seconds_today": 0, "balance": "You need to have a pocket watcher badge to view this.", "badges": [], "created_at": "2025-07-08T23:31:47.665-04:00", "updated_at": "2025-07-09T03:20:26.352-04:00", "avatar": "https://secure.gravatar.com/avatar/5cdc77c7088c27154f745695c94505e0.jpg?s=512&d=https%3A%2F%2Fa.slack-edge.com%2Fdf10d%2Fimg%2Favatars%2Fava_0020-512.png", "custom_css": null}, {"id": 15180, "slack_id": "U094SHQRUAX", "display_name": "Harsha", "bio": null, "projects_count": 0, "devlogs_count": 0, "votes_count": 0, "ships_count": 0, "projects": [], "coding_time_seconds": 22751, "coding_time_seconds_today": 0, "balance": "You need to have a pocket watcher badge to view this.", "badges": [], "created_at": "2025-07-08T23:33:26.511-04:00", "updated_at": "2025-07-13T13:02:13.341-04:00", "avatar": "https://secure.gravatar.com/avatar/121be96b1897304afbcb27ba945318b5.jpg?s=512&d=https%3A%2F%2Fa.slack-edge.com%2Fdf10d%2Fimg%2Favatars%2Fava_0007-512.png", "custom_css": null}, {"id": 15181, "slack_id": "U095052E8TW", "display_name": "Kai Jane", "bio": null, "projects_count": 0, "devlogs_count": 0, "votes_count": 0, "ships_count": 0, "projects": [], "coding_time_seconds": 0, "coding_time_seconds_today": 0, "balance": "You need to have a pocket watcher badge to view this.", "badges": [], "created_at": "2025-07-08T23:57:26.783-04:00", "updated_at": "2025-07-09T08:52:47.214-04:00", "avatar": "https://secure.gravatar.com/avatar/276379fe78d13abb548291651937380a.jpg?s=512&d=https%3A%2F%2Fa.slack-edge.com%2Fdf10d%2Fimg%2Favatars%2Fava_0001-512.png", "custom_css": null}, {"id": 15182, "slack_id": "U09598RQAL9", "display_name": "Dennis Gapchenko", "bio": null, "projects_count": 1, "devlogs_count": 0, "votes_count": 0, "ships_count": 0, "projects": [{"id": 6850, "title": "Slot Machine Game", "devlogs_count": 0, "created_at": "2025-07-16T21:02:19.288-04:00"}], "coding_time_seconds": 19698, "coding_time_seconds_today": 0, "balance": "You need to have a pocket watcher badge to view this.", "badges": [], "created_at": "2025-07-09T00:04:06.089-04:00", "updated_at": "2025-07-13T09:20:15.437-04:00", "avatar": "https://avatars.slack-edge.com/2025-07-12/9174886878391_973eb8390ac7c6b28188_original.jpg", "custom_css": null}, {"id": 15183, "slack_id": "U094KCUERGX", "display_name": "AA", "bio": null, "projects_count": 0, "devlogs_count": 0, "votes_count": 0, "ships_count": 0, "projects": [], "coding_time_seconds": 0, "coding_time_seconds_today": 0, "balance": "You need to have a pocket watcher badge to view this.", "badges": [], "created_at": "2025-07-09T00:11:09.226-04:00", "updated_at": "2025-07-09T08:52:47.374-04:00", "avatar": "https://secure.gravatar.com/avatar/e9f6e0170cb8d9424f4b837afe820913.jpg?s=512&d=https%3A%2F%2Fa.slack-edge.com%2Fdf10d%2Fimg%2Favatars%2Fava_0023-512.png", "custom_css": null}, {"id": 15184, "slack_id": "U094URECMD4", "display_name": "yujunshin", "bio": null, "projects_count": 0, "devlogs_count": 0, "votes_count": 0, "ships_count": 0, "projects": [], "coding_time_seconds": 636, "coding_time_seconds_today": 0, "balance": "You need to have a pocket watcher badge to view this.", "badges": [], "created_at": "2025-07-09T00:17:13.340-04:00", "updated_at": "2025-07-09T03:20:26.784-04:00", "avatar": "https://secure.gravatar.com/avatar/9c465b879d8599e1ff1b9b248fbc6a55.jpg?s=512&d=https%3A%2F%2Fa.slack-edge.com%2Fdf10d%2Fimg%2Favatars%2Fava_0011-512.png", "custom_css": null}, {"id": 15185, "slack_id": "U095BPDK5PT", "display_name": "Sungju Cho", "bio": null, "projects_count": 3, "devlogs_count": 10, "votes_count": 14, "ships_count": 2, "projects": [{"id": 6072, "title": "Jiwonbot", "devlogs_count": 8, "created_at": "2025-07-10T11:26:01.285-04:00"}, {"id": 6440, "title": "Parcel MCP", "devlogs_count": 1, "created_at": "2025-07-13T10:09:43.048-04:00"}, {"id": 6442, "title": "SSF25", "devlogs_count": 1, "created_at": "2025-07-13T10:56:13.114-04:00"}], "coding_time_seconds": 420130, "coding_time_seconds_today": 210, "balance": "You need to have a pocket watcher badge to view this.", "badges": [{"name": "Maiden Voyage", "text": "you shipped your first project! the journey begins...", "icon": "\ud83d\udea2"}], "created_at": "2025-07-09T00:20:03.375-04:00", "updated_at": "2025-09-10T22:58:39.794-04:00", "avatar": "https://avatars.slack-edge.com/2025-07-08/9190252131152_0b42e4f476f8fc9b1efe_original.jpg", "custom_css": null}], "pagination": {"page": 755, "pages": 1192, "count": 23828, "items": 20}}