{"users": [{"id": 15186, "slack_id": "U095BQVDP7B", "display_name": "Om Radadiya", "bio": null, "projects_count": 0, "devlogs_count": 0, "votes_count": 0, "ships_count": 0, "projects": [], "coding_time_seconds": 0, "coding_time_seconds_today": 0, "balance": "You need to have a pocket watcher badge to view this.", "badges": [], "created_at": "2025-07-09T00:37:09.174-04:00", "updated_at": "2025-07-09T03:20:26.972-04:00", "avatar": "https://avatars.slack-edge.com/2025-07-08/9164934269382_710d90bd809c6f6ecff3_original.png", "custom_css": null}, {"id": 15187, "slack_id": "U094KL1CGJK", "display_name": "Selena", "bio": null, "projects_count": 0, "devlogs_count": 0, "votes_count": 0, "ships_count": 0, "projects": [], "coding_time_seconds": 0, "coding_time_seconds_today": 0, "balance": "You need to have a pocket watcher badge to view this.", "badges": [], "created_at": "2025-07-09T01:29:22.099-04:00", "updated_at": "2025-07-09T03:20:27.053-04:00", "avatar": "https://secure.gravatar.com/avatar/a09040a0c8993b912a6f4a66cbbc0dee.jpg?s=512&d=https%3A%2F%2Fa.slack-edge.com%2Fdf10d%2Fimg%2Favatars%2Fava_0002-512.png", "custom_css": null}, {"id": 15188, "slack_id": "U094YNAG6RY", "display_name": "yatharth", "bio": null, "projects_count": 0, "devlogs_count": 0, "votes_count": 0, "ships_count": 0, "projects": [], "coding_time_seconds": 0, "coding_time_seconds_today": 0, "balance": "You need to have a pocket watcher badge to view this.", "badges": [], "created_at": "2025-07-09T02:04:50.312-04:00", "updated_at": "2025-07-09T03:20:27.132-04:00", "avatar": "https://secure.gravatar.com/avatar/ef85428be46a6db0ca546571080c0512.jpg?s=512&d=https%3A%2F%2Fa.slack-edge.com%2Fdf10d%2Fimg%2Favatars%2Fava_0001-512.png", "custom_css": null}, {"id": 15189, "slack_id": "U094YNFJ2HY", "display_name": "Daira Razo", "bio": null, "projects_count": 0, "devlogs_count": 0, "votes_count": 0, "ships_count": 0, "projects": [], "coding_time_seconds": 0, "coding_time_seconds_today": 0, "balance": "You need to have a pocket watcher badge to view this.", "badges": [], "created_at": "2025-07-09T02:10:08.096-04:00", "updated_at": "2025-07-09T03:20:27.216-04:00", "avatar": "https://avatars.slack-edge.com/2025-07-08/9190616358352_45d2bc717fe6722d3a9e_original.png", "custom_css": null}, {"id": 15190, "slack_id": "U094XKS08SZ", "display_name": "AMR", "bio": null, "projects_count": 4, "devlogs_count": 4, "votes_count": 59, "ships_count": 4, "projects": [{"id": 6794, "title": "Comfort Bites", "devlogs_count": 1, "created_at": "2025-07-16T09:29:25.014-04:00"}, {"id": 6506, "title": "Bba", "devlogs_count": 1, "created_at": "2025-07-13T23:05:36.004-04:00"}, {"id": 6660, "title": "SRL", "devlogs_count": 1, "created_at": "2025-07-14T22:44:10.013-04:00"}, {"id": 5920, "title": "topr", "devlogs_count": 1, "created_at": "2025-07-09T05:44:13.576-04:00"}], "coding_time_seconds": 56542, "coding_time_seconds_today": 0, "balance": "You need to have a pocket watcher badge to view this.", "badges": [{"name": "Maiden Voyage", "text": "you shipped your first project! the journey begins...", "icon": "\ud83d\udea2"}], "created_at": "2025-07-09T02:11:04.757-04:00", "updated_at": "2025-09-10T22:58:39.973-04:00", "avatar": "https://secure.gravatar.com/avatar/6fe4fa63840d5154f38046e01ecd7a0b.jpg?s=512&d=https%3A%2F%2Fa.slack-edge.com%2Fdf10d%2Fimg%2Favatars%2Fava_0007-512.png", "custom_css": null}, {"id": 15191, "slack_id": "U095LHWMQHE", "display_name": "Talha Aslam", "bio": null, "projects_count": 0, "devlogs_count": 0, "votes_count": 0, "ships_count": 0, "projects": [], "coding_time_seconds": 0, "coding_time_seconds_today": 0, "balance": "You need to have a pocket watcher badge to view this.", "badges": [], "created_at": "2025-07-09T02:13:56.169-04:00", "updated_at": "2025-07-09T03:20:27.381-04:00", "avatar": "https://secure.gravatar.com/avatar/1e43a29e931c3ae7690009f6b2b82dfa.jpg?s=512&d=https%3A%2F%2Fa.slack-edge.com%2Fdf10d%2Fimg%2Favatars%2Fava_0007-512.png", "custom_css": null}, {"id": 15192, "slack_id": "U07UKHC7BUP", "display_name": "Luckstern", "bio": null, "projects_count": 0, "devlogs_count": 0, "votes_count": 0, "ships_count": 0, "projects": [], "coding_time_seconds": 0, "coding_time_seconds_today": 0, "balance": "You need to have a pocket watcher badge to view this.", "badges": [], "created_at": "2025-07-09T02:38:00.094-04:00", "updated_at": "2025-07-09T02:41:06.720-04:00", "avatar": "https://secure.gravatar.com/avatar/e4c218411acf04b46be0c2c98ffb5585.jpg?s=512&d=https%3A%2F%2Fa.slack-edge.com%2Fdf10d%2Fimg%2Favatars%2Fava_0009-512.png", "custom_css": null}, {"id": 15193, "slack_id": "U095LLNELE4", "display_name": "Tomero", "bio": null, "projects_count": 0, "devlogs_count": 0, "votes_count": 0, "ships_count": 0, "projects": [], "coding_time_seconds": 2297, "coding_time_seconds_today": 0, "balance": "You need to have a pocket watcher badge to view this.", "badges": [], "created_at": "2025-07-09T02:38:57.095-04:00", "updated_at": "2025-07-16T04:27:29.500-04:00", "avatar": "https://secure.gravatar.com/avatar/f2c276b96edc069dba44ff969dc44c53.jpg?s=512&d=https%3A%2F%2Fa.slack-edge.com%2Fdf10d%2Fimg%2Favatars%2Fava_0004-512.png", "custom_css": null}, {"id": 15194, "slack_id": "U094YTBKFU2", "display_name": "Duckers", "bio": null, "projects_count": 0, "devlogs_count": 0, "votes_count": 0, "ships_count": 0, "projects": [], "coding_time_seconds": 0, "coding_time_seconds_today": 0, "balance": "You need to have a pocket watcher badge to view this.", "badges": [], "created_at": "2025-07-09T02:48:39.372-04:00", "updated_at": "2025-07-09T03:20:27.610-04:00", "avatar": "https://secure.gravatar.com/avatar/5ff50c67dec11a60af4e496263fc6bca.jpg?s=512&d=https%3A%2F%2Fa.slack-edge.com%2Fdf10d%2Fimg%2Favatars%2Fava_0022-512.png", "custom_css": null}, {"id": 15195, "slack_id": "U095CBTDBDF", "display_name": "Arshiya", "bio": null, "projects_count": 0, "devlogs_count": 0, "votes_count": 0, "ships_count": 0, "projects": [], "coding_time_seconds": 120, "coding_time_seconds_today": 0, "balance": "You need to have a pocket watcher badge to view this.", "badges": [], "created_at": "2025-07-09T03:10:28.372-04:00", "updated_at": "2025-07-09T03:20:27.689-04:00", "avatar": "https://secure.gravatar.com/avatar/85dcf6d385671977de34afa277b5b45c.jpg?s=512&d=https%3A%2F%2Fa.slack-edge.com%2Fdf10d%2Fimg%2Favatars%2Fava_0019-512.png", "custom_css": null}, {"id": 15196, "slack_id": "U07AU7T6R98", "display_name": "yursen nezzari", "bio": null, "projects_count": 1, "devlogs_count": 0, "votes_count": 1, "ships_count": 0, "projects": [{"id": 5905, "title": "DeadZone", "devlogs_count": 0, "created_at": "2025-07-09T03:28:33.205-04:00"}], "coding_time_seconds": 170923, "coding_time_seconds_today": 0, "balance": "You need to have a pocket watcher badge to view this.", "badges": [], "created_at": "2025-07-09T03:15:44.763-04:00", "updated_at": "2025-07-10T05:36:00.304-04:00", "avatar": "https://avatars.slack-edge.com/2024-07-04/7378839107172_b1df719b58a12fdf1cf8_original.jpg", "custom_css": null}, {"id": 15197, "slack_id": "U094VM06UG6", "display_name": "Oyster\u2019s Secret(Joumana Or Pearl)", "bio": null, "projects_count": 1, "devlogs_count": 1, "votes_count": 1, "ships_count": 0, "projects": [{"id": 13091, "title": "trial ", "devlogs_count": 1, "created_at": "2025-09-08T11:38:37.474-04:00"}], "coding_time_seconds": 4631, "coding_time_seconds_today": 0, "balance": "You need to have a pocket watcher badge to view this.", "badges": [], "created_at": "2025-07-09T04:03:37.563-04:00", "updated_at": "2025-09-10T13:14:42.443-04:00", "avatar": "https://avatars.slack-edge.com/2025-09-02/9431971763159_77fef31eadd5fcc10958_original.jpg", "custom_css": null}, {"id": 15198, "slack_id": "U095CKR5N9X", "display_name": "alizulfiqar", "bio": null, "projects_count": 0, "devlogs_count": 0, "votes_count": 0, "ships_count": 0, "projects": [], "coding_time_seconds": 0, "coding_time_seconds_today": 0, "balance": "You need to have a pocket watcher badge to view this.", "badges": [], "created_at": "2025-07-09T04:05:40.090-04:00", "updated_at": "2025-07-09T21:20:46.872-04:00", "avatar": "https://secure.gravatar.com/avatar/909c1a0ccfe3d4e57888036762ed1c46.jpg?s=512&d=https%3A%2F%2Fa.slack-edge.com%2Fdf10d%2Fimg%2Favatars%2Fava_0016-512.png", "custom_css": null}, {"id": 15199, "slack_id": "U088JDUN7B9", "display_name": "Wiktor", "bio": null, "projects_count": 1, "devlogs_count": 3, "votes_count": 19, "ships_count": 0, "projects": [{"id": 6161, "title": "2D engine", "devlogs_count": 3, "created_at": "2025-07-11T02:29:40.070-04:00"}], "coding_time_seconds": 136457, "coding_time_seconds_today": 2065, "balance": "You need to have a pocket watcher badge to view this.", "badges": [], "created_at": "2025-07-09T04:28:49.555-04:00", "updated_at": "2025-07-26T06:41:24.062-04:00", "avatar": "https://secure.gravatar.com/avatar/b8a5609bef16db581de3827d3ff86907.jpg?s=512&d=https%3A%2F%2Fa.slack-edge.com%2Fdf10d%2Fimg%2Favatars%2Fava_0004-512.png", "custom_css": null}, {"id": 15200, "slack_id": "U094VRBB7HC", "display_name": "Hussain Abidi", "bio": null, "projects_count": 0, "devlogs_count": 0, "votes_count": 0, "ships_count": 0, "projects": [], "coding_time_seconds": 3539, "coding_time_seconds_today": 0, "balance": "You need to have a pocket watcher badge to view this.", "badges": [], "created_at": "2025-07-09T04:39:32.672-04:00", "updated_at": "2025-07-09T21:20:47.011-04:00", "avatar": "https://avatars.slack-edge.com/2025-07-09/9156553703623_fd214a823c87803343d4_original.jpg", "custom_css": null}, {"id": 15201, "slack_id": "U094GKEUE69", "display_name": "Thrishank", "bio": null, "projects_count": 0, "devlogs_count": 0, "votes_count": 0, "ships_count": 0, "projects": [], "coding_time_seconds": 20571, "coding_time_seconds_today": 0, "balance": "You need to have a pocket watcher badge to view this.", "badges": [], "created_at": "2025-07-09T05:11:50.326-04:00", "updated_at": "2025-07-23T04:38:38.623-04:00", "avatar": "https://secure.gravatar.com/avatar/274084a9585c7138ca71b084dd8f8c80.jpg?s=512&d=https%3A%2F%2Fa.slack-edge.com%2Fdf10d%2Fimg%2Favatars%2Fava_0018-512.png", "custom_css": null}, {"id": 15202, "slack_id": "U094LV86RT9", "display_name": "Alexandru", "bio": null, "projects_count": 0, "devlogs_count": 0, "votes_count": 0, "ships_count": 0, "projects": [], "coding_time_seconds": 152238, "coding_time_seconds_today": 0, "balance": "You need to have a pocket watcher badge to view this.", "badges": [], "created_at": "2025-07-09T06:10:05.231-04:00", "updated_at": "2025-07-09T21:20:47.164-04:00", "avatar": "https://secure.gravatar.com/avatar/0476143ef4ab922b6fca87dacd6a4287.jpg?s=512&d=https%3A%2F%2Fa.slack-edge.com%2Fdf10d%2Fimg%2Favatars%2Fava_0022-512.png", "custom_css": null}, {"id": 15203, "slack_id": "U094U7YF18B", "display_name": "zetrey", "bio": null, "projects_count": 0, "devlogs_count": 0, "votes_count": 0, "ships_count": 0, "projects": [], "coding_time_seconds": 0, "coding_time_seconds_today": 0, "balance": "You need to have a pocket watcher badge to view this.", "badges": [], "created_at": "2025-07-09T06:19:57.097-04:00", "updated_at": "2025-07-09T21:20:47.243-04:00", "avatar": "https://secure.gravatar.com/avatar/1099bf7b9162c8bf9d1ec90cd2a38b65.jpg?s=512&d=https%3A%2F%2Fa.slack-edge.com%2Fdf10d%2Fimg%2Favatars%2Fava_0011-512.png", "custom_css": null}, {"id": 15204, "slack_id": "U094M29SU6B", "display_name": "AbnormalJawa", "bio": null, "projects_count": 1, "devlogs_count": 1, "votes_count": 0, "ships_count": 0, "projects": [{"id": 12575, "title": "luci-app-confy", "devlogs_count": 1, "created_at": "2025-08-30T02:12:02.045-04:00"}], "coding_time_seconds": 38239, "coding_time_seconds_today": 0, "balance": "You need to have a pocket watcher badge to view this.", "badges": [], "created_at": "2025-07-09T06:29:40.174-04:00", "updated_at": "2025-08-30T02:22:24.136-04:00", "avatar": "https://secure.gravatar.com/avatar/b1fc50681aa192e1565dc0001f22ee12.jpg?s=512&d=https%3A%2F%2Fa.slack-edge.com%2Fdf10d%2Fimg%2Favatars%2Fava_0020-512.png", "custom_css": null}, {"id": 15205, "slack_id": "U094YSGRS9K", "display_name": "Tymofii Saukh", "bio": null, "projects_count": 1, "devlogs_count": 9, "votes_count": 3, "ships_count": 0, "projects": [{"id": 12828, "title": "Rela", "devlogs_count": 9, "created_at": "2025-09-03T10:56:34.907-04:00"}], "coding_time_seconds": 254617, "coding_time_seconds_today": 6232, "balance": "You need to have a pocket watcher badge to view this.", "badges": [], "created_at": "2025-07-09T06:36:51.342-04:00", "updated_at": "2025-09-02T17:02:22.157-04:00", "avatar": "https://secure.gravatar.com/avatar/575899af400a051676f30078c761e1a0.jpg?s=512&d=https%3A%2F%2Fa.slack-edge.com%2Fdf10d%2Fimg%2Favatars%2Fava_0013-512.png", "custom_css": null}], "pagination": {"page": 756, "pages": 1192, "count": 23828, "items": 20}}