{"users": [{"id": 15206, "slack_id": "U094M4KT563", "display_name": "David", "bio": "sup gng\r\nhttps://mateias.xyz/\r\n\r\nts pmo icl \ud83e\udd40\ud83d\udc94", "projects_count": 3, "devlogs_count": 21, "votes_count": 76, "ships_count": 2, "projects": [{"id": 11621, "title": "crabouflage", "devlogs_count": 8, "created_at": "2025-08-17T19:06:35.604-04:00"}, {"id": 12476, "title": "charybdis", "devlogs_count": 3, "created_at": "2025-08-28T05:59:22.770-04:00"}, {"id": 6566, "title": "gigr", "devlogs_count": 9, "created_at": "2025-07-14T09:33:48.469-04:00"}], "coding_time_seconds": 188757, "coding_time_seconds_today": 0, "balance": "You need to have a pocket watcher badge to view this.", "badges": [{"name": "Maiden Voyage", "text": "you shipped your first project! the journey begins...", "icon": "\ud83d\udea2"}, {"name": "Ballot Stuffer", "text": "vote 100 times.", "icon": "https://summer.hackclub.com/assets/i_voted-bf851b48.png"}], "created_at": "2025-07-09T06:44:59.537-04:00", "updated_at": "2025-09-10T22:58:40.382-04:00", "avatar": "https://secure.gravatar.com/avatar/c0af6173305173a02d7615733f9cf93e.jpg?s=512&d=https%3A%2F%2Fa.slack-edge.com%2Fdf10d%2Fimg%2Favatars%2Fava_0023-512.png", "custom_css": null}, {"id": 15207, "slack_id": "U094YLYCDL5", "display_name": "vrishank", "bio": null, "projects_count": 1, "devlogs_count": 0, "votes_count": 1, "ships_count": 0, "projects": [{"id": 5963, "title": "Basic Calculator", "devlogs_count": 0, "created_at": "2025-07-09T12:45:32.000-04:00"}], "coding_time_seconds": 4471, "coding_time_seconds_today": 0, "balance": "You need to have a pocket watcher badge to view this.", "badges": [], "created_at": "2025-07-09T07:09:19.752-04:00", "updated_at": "2025-07-10T09:31:01.766-04:00", "avatar": "https://secure.gravatar.com/avatar/b01464cac66503aab8293a00b937d104.jpg?s=512&d=https%3A%2F%2Fa.slack-edge.com%2Fdf10d%2Fimg%2Favatars%2Fava_0026-512.png", "custom_css": null}, {"id": 15208, "slack_id": "U095DKK56MP", "display_name": "LIJEN S", "bio": null, "projects_count": 0, "devlogs_count": 0, "votes_count": 0, "ships_count": 0, "projects": [], "coding_time_seconds": 0, "coding_time_seconds_today": 0, "balance": "You need to have a pocket watcher badge to view this.", "badges": [], "created_at": "2025-07-09T07:35:39.724-04:00", "updated_at": "2025-07-09T21:20:51.696-04:00", "avatar": "https://avatars.slack-edge.com/2025-07-09/9172063346484_82beebaa702f603dc90a_original.png", "custom_css": null}, {"id": 15209, "slack_id": "U095NAKDYM6", "display_name": "will", "bio": "\u256d (o\u2323o) \ud83d\udd91 \r\n\r\n\u250cbio*\u2500\u2500\u2500\u2500\u2500\u2500\u2500\u2500\u2500\u2500\u229f\u22a1\u22a0\u2510\r\n\u2502 i like bash, ts, js                        \u2502\r\n\u2502 i use vscodium                          \u2502\r\n\u2502 femboy expert                          \u2502\r\n\u2514\u2500\u2500\u2500\u2500\u2500\u2500\u2500\u2500\u2500\u2500\u2500\u2500\u2500\u2500\u2500\u2518", "projects_count": 3, "devlogs_count": 21, "votes_count": 72, "ships_count": 3, "projects": [{"id": 6595, "title": "html-element-whiteboard", "devlogs_count": 9, "created_at": "2025-07-14T12:27:06.530-04:00"}, {"id": 10799, "title": "barbucket", "devlogs_count": 5, "created_at": "2025-08-10T23:46:49.155-04:00"}, {"id": 6131, "title": "Illustrative Math Archiver", "devlogs_count": 7, "created_at": "2025-07-10T17:48:05.292-04:00"}], "coding_time_seconds": 128214, "coding_time_seconds_today": 0, "balance": "You need to have a pocket watcher badge to view this.", "badges": [{"name": "Maiden Voyage", "text": "you shipped your first project! the journey begins...", "icon": "\ud83d\udea2"}, {"name": "Ballot Stuffer", "text": "vote 100 times.", "icon": "https://summer.hackclub.com/assets/i_voted-bf851b48.png"}], "created_at": "2025-07-09T08:23:28.212-04:00", "updated_at": "2025-09-10T22:58:40.477-04:00", "avatar": "https://avatars.slack-edge.com/2025-07-09/9192386311904_7527f7e35195ffb0a9f4_original.png", "custom_css": null}, {"id": 15210, "slack_id": "U078L74HM9B", "display_name": "a3acx", "bio": null, "projects_count": 0, "devlogs_count": 0, "votes_count": 0, "ships_count": 0, "projects": [], "coding_time_seconds": 0, "coding_time_seconds_today": 0, "balance": "You need to have a pocket watcher badge to view this.", "badges": [], "created_at": "2025-07-09T08:46:34.274-04:00", "updated_at": "2025-07-09T21:20:51.897-04:00", "avatar": "https://avatars.slack-edge.com/2024-10-03/7827265878164_8caff5e7de4aa42544e0_original.jpg", "custom_css": null}, {"id": 15211, "slack_id": "U07FKFQV3NF", "display_name": "kuglatec", "bio": "github.com/kuglatec", "projects_count": 2, "devlogs_count": 6, "votes_count": 20, "ships_count": 1, "projects": [{"id": 5945, "title": "checkmate chess-engine", "devlogs_count": 6, "created_at": "2025-07-09T09:56:24.917-04:00"}, {"id": 12207, "title": "trendFit", "devlogs_count": 0, "created_at": "2025-08-24T11:13:17.303-04:00"}], "coding_time_seconds": 315375, "coding_time_seconds_today": 0, "balance": "You need to have a pocket watcher badge to view this.", "badges": [{"name": "Maiden Voyage", "text": "you shipped your first project! the journey begins...", "icon": "\ud83d\udea2"}], "created_at": "2025-07-09T08:52:31.479-04:00", "updated_at": "2025-09-21T13:09:04.344-04:00", "avatar": "https://avatars.slack-edge.com/2024-08-05/7527291315141_4e484343dc3e39a35d18_original.jpg", "custom_css": null}, {"id": 15212, "slack_id": "U08US56H7FU", "display_name": "Huda Azeem", "bio": null, "projects_count": 0, "devlogs_count": 0, "votes_count": 0, "ships_count": 0, "projects": [], "coding_time_seconds": 177110, "coding_time_seconds_today": 0, "balance": "You need to have a pocket watcher badge to view this.", "badges": [], "created_at": "2025-07-09T09:01:20.656-04:00", "updated_at": "2025-08-23T10:01:42.976-04:00", "avatar": "https://secure.gravatar.com/avatar/fa4dcff66f3c729eb054874cbe66e152.jpg?s=512&d=https%3A%2F%2Fa.slack-edge.com%2Fdf10d%2Fimg%2Favatars%2Fava_0016-512.png", "custom_css": null}, {"id": 15213, "slack_id": "U095E2NBC9F", "display_name": "Jack K", "bio": null, "projects_count": 0, "devlogs_count": 0, "votes_count": 1, "ships_count": 0, "projects": [], "coding_time_seconds": 2587, "coding_time_seconds_today": 0, "balance": "You need to have a pocket watcher badge to view this.", "badges": [], "created_at": "2025-07-09T09:04:34.915-04:00", "updated_at": "2025-07-11T11:58:45.892-04:00", "avatar": "https://secure.gravatar.com/avatar/9a9ecd1b09dbe4604948f9a2f2bbdd2c.jpg?s=512&d=https%3A%2F%2Fa.slack-edge.com%2Fdf10d%2Fimg%2Favatars%2Fava_0005-512.png", "custom_css": null}, {"id": 15214, "slack_id": "U079EKJQZ1S", "display_name": "zenonet", "bio": null, "projects_count": 5, "devlogs_count": 27, "votes_count": 40, "ships_count": 3, "projects": [{"id": 9080, "title": "ChatReview", "devlogs_count": 14, "created_at": "2025-07-30T13:48:37.226-04:00"}, {"id": 9081, "title": "Deconz Client", "devlogs_count": 6, "created_at": "2025-07-30T13:49:41.152-04:00"}, {"id": 10475, "title": "MementoDb to Sqlite converter", "devlogs_count": 1, "created_at": "2025-08-07T10:23:17.704-04:00"}, {"id": 12132, "title": "ParticleSim", "devlogs_count": 2, "created_at": "2025-08-23T11:25:37.430-04:00"}, {"id": 8466, "title": "Movie Database", "devlogs_count": 4, "created_at": "2025-07-27T11:16:16.054-04:00"}], "coding_time_seconds": 311322, "coding_time_seconds_today": 0, "balance": "You need to have a pocket watcher badge to view this.", "badges": [{"name": "Maiden Voyage", "text": "you shipped your first project! the journey begins...", "icon": "\ud83d\udea2"}], "created_at": "2025-07-09T09:12:31.677-04:00", "updated_at": "2025-09-10T22:58:40.621-04:00", "avatar": "https://secure.gravatar.com/avatar/3c257c55b8165f5a34e64aa0d2a0811d.jpg?s=512&d=https%3A%2F%2Fa.slack-edge.com%2Fdf10d%2Fimg%2Favatars%2Fava_0018-512.png", "custom_css": null}, {"id": 15215, "slack_id": "U094ZN4DC3F", "display_name": "Tanishga Ravikumar Priya", "bio": null, "projects_count": 0, "devlogs_count": 0, "votes_count": 0, "ships_count": 0, "projects": [], "coding_time_seconds": 2127, "coding_time_seconds_today": 0, "balance": "You need to have a pocket watcher badge to view this.", "badges": [], "created_at": "2025-07-09T09:36:25.214-04:00", "updated_at": "2025-07-09T21:20:53.078-04:00", "avatar": "https://secure.gravatar.com/avatar/2afbd2a12a6379cc1d4fed7d6d7d850f.jpg?s=512&d=https%3A%2F%2Fa.slack-edge.com%2Fdf10d%2Fimg%2Favatars%2Fava_0004-512.png", "custom_css": null}, {"id": 15216, "slack_id": "U095E4C91HP", "display_name": "fakhr", "bio": null, "projects_count": 0, "devlogs_count": 0, "votes_count": 0, "ships_count": 0, "projects": [], "coding_time_seconds": 0, "coding_time_seconds_today": 0, "balance": "You need to have a pocket watcher badge to view this.", "badges": [], "created_at": "2025-07-09T09:39:20.893-04:00", "updated_at": "2025-07-09T21:20:53.161-04:00", "avatar": "https://secure.gravatar.com/avatar/290445c174ef05de695485e0e21a67dd.jpg?s=512&d=https%3A%2F%2Fa.slack-edge.com%2Fdf10d%2Fimg%2Favatars%2Fava_0017-512.png", "custom_css": null}, {"id": 15217, "slack_id": "U0950UDNFU2", "display_name": "Adriana", "bio": null, "projects_count": 0, "devlogs_count": 0, "votes_count": 0, "ships_count": 0, "projects": [], "coding_time_seconds": 0, "coding_time_seconds_today": 0, "balance": "You need to have a pocket watcher badge to view this.", "badges": [], "created_at": "2025-07-09T09:45:19.484-04:00", "updated_at": "2025-07-09T21:20:53.244-04:00", "avatar": "https://secure.gravatar.com/avatar/f6592c9cceccc09b9e3c51838824f7e7.jpg?s=512&d=https%3A%2F%2Fa.slack-edge.com%2Fdf10d%2Fimg%2Favatars%2Fava_0016-512.png", "custom_css": null}, {"id": 15218, "slack_id": "U055CGMTQS2", "display_name": "kevadesu", "bio": null, "projects_count": 0, "devlogs_count": 0, "votes_count": 0, "ships_count": 0, "projects": [], "coding_time_seconds": 40901, "coding_time_seconds_today": 0, "balance": "You need to have a pocket watcher badge to view this.", "badges": [], "created_at": "2025-07-09T09:48:17.118-04:00", "updated_at": "2025-07-09T21:20:53.330-04:00", "avatar": "https://avatars.slack-edge.com/2024-08-11/7581204360720_05b37af17391f0f581d9_original.jpg", "custom_css": null}, {"id": 15219, "slack_id": "U095EB5TY6M", "display_name": "Felix", "bio": null, "projects_count": 0, "devlogs_count": 0, "votes_count": 0, "ships_count": 0, "projects": [], "coding_time_seconds": 0, "coding_time_seconds_today": 0, "balance": "You need to have a pocket watcher badge to view this.", "badges": [], "created_at": "2025-07-09T09:53:27.195-04:00", "updated_at": "2025-07-09T21:20:53.409-04:00", "avatar": "https://secure.gravatar.com/avatar/b22b939400e9111e310d085568972334.jpg?s=512&d=https%3A%2F%2Fa.slack-edge.com%2Fdf10d%2Fimg%2Favatars%2Fava_0014-512.png", "custom_css": null}, {"id": 15220, "slack_id": "U094N3L9CUX", "display_name": "Akosua", "bio": null, "projects_count": 4, "devlogs_count": 3, "votes_count": 2, "ships_count": 0, "projects": [{"id": 5989, "title": "Project.NEO", "devlogs_count": 0, "created_at": "2025-07-09T18:04:32.668-04:00"}, {"id": 5990, "title": "Project.Portfolio", "devlogs_count": 2, "created_at": "2025-07-09T18:14:30.639-04:00"}, {"id": 6289, "title": "Project.ELXR", "devlogs_count": 1, "created_at": "2025-07-12T04:11:33.401-04:00"}, {"id": 8751, "title": "Project.Grid", "devlogs_count": 0, "created_at": "2025-07-29T05:41:26.681-04:00"}], "coding_time_seconds": 20397, "coding_time_seconds_today": 0, "balance": "You need to have a pocket watcher badge to view this.", "badges": [], "created_at": "2025-07-09T09:59:15.265-04:00", "updated_at": "2025-08-11T06:15:25.418-04:00", "avatar": "https://avatars.slack-edge.com/2025-07-09/9184431321761_f9c50b98556f0908176b_original.jpg", "custom_css": null}, {"id": 15221, "slack_id": "U094N55NMPH", "display_name": "Felix", "bio": null, "projects_count": 3, "devlogs_count": 2, "votes_count": 1, "ships_count": 1, "projects": [{"id": 5970, "title": "Python Dice-Roller", "devlogs_count": 2, "created_at": "2025-07-09T13:53:43.680-04:00"}, {"id": 6075, "title": "password-generator", "devlogs_count": 0, "created_at": "2025-07-10T11:52:54.415-04:00"}, {"id": 6077, "title": "own github.io-Website", "devlogs_count": 0, "created_at": "2025-07-10T12:03:28.121-04:00"}], "coding_time_seconds": 26356, "coding_time_seconds_today": 0, "balance": "You need to have a pocket watcher badge to view this.", "badges": [{"name": "Maiden Voyage", "text": "you shipped your first project! the journey begins...", "icon": "\ud83d\udea2"}], "created_at": "2025-07-09T10:05:28.337-04:00", "updated_at": "2025-09-14T05:16:55.593-04:00", "avatar": "https://secure.gravatar.com/avatar/bdcd6f70857f7c864231184d3f667a63.jpg?s=512&d=https%3A%2F%2Fa.slack-edge.com%2Fdf10d%2Fimg%2Favatars%2Fava_0002-512.png", "custom_css": null}, {"id": 15222, "slack_id": "U095ELYQ0N5", "display_name": "Michael Do", "bio": null, "projects_count": 4, "devlogs_count": 6, "votes_count": 13, "ships_count": 1, "projects": [{"id": 6807, "title": "Tetris", "devlogs_count": 4, "created_at": "2025-07-16T11:53:48.367-04:00"}, {"id": 9274, "title": "Checkers", "devlogs_count": 0, "created_at": "2025-07-31T10:33:40.653-04:00"}, {"id": 9275, "title": "Checkers", "devlogs_count": 0, "created_at": "2025-07-31T10:33:40.656-04:00"}, {"id": 6809, "title": "Candy Crush Game", "devlogs_count": 2, "created_at": "2025-07-16T12:40:24.039-04:00"}], "coding_time_seconds": 155353, "coding_time_seconds_today": 0, "balance": "You need to have a pocket watcher badge to view this.", "badges": [{"name": "Maiden Voyage", "text": "you shipped your first project! the journey begins...", "icon": "\ud83d\udea2"}], "created_at": "2025-07-09T10:43:57.529-04:00", "updated_at": "2025-09-10T22:58:40.796-04:00", "avatar": "https://secure.gravatar.com/avatar/4ac4ebaa899f466552bbec074e07d2dc.jpg?s=512&d=https%3A%2F%2Fa.slack-edge.com%2Fdf10d%2Fimg%2Favatars%2Fava_0003-512.png", "custom_css": null}, {"id": 15223, "slack_id": "U094VLD61JP", "display_name": "Edgar Maga\u00f1a", "bio": null, "projects_count": 0, "devlogs_count": 0, "votes_count": 0, "ships_count": 0, "projects": [], "coding_time_seconds": 0, "coding_time_seconds_today": 0, "balance": "You need to have a pocket watcher badge to view this.", "badges": [], "created_at": "2025-07-09T10:55:28.984-04:00", "updated_at": "2025-08-28T21:20:31.687-04:00", "avatar": "https://avatars.slack-edge.com/2025-08-28/9413036255255_7fc4ee2701d8522255d6_original.png", "custom_css": null}, {"id": 15224, "slack_id": "U094VMCHZ35", "display_name": "Devansh Singh", "bio": null, "projects_count": 1, "devlogs_count": 0, "votes_count": 0, "ships_count": 0, "projects": [{"id": 5954, "title": "Potfolio", "devlogs_count": 0, "created_at": "2025-07-09T11:20:27.831-04:00"}], "coding_time_seconds": 37079, "coding_time_seconds_today": 0, "balance": "You need to have a pocket watcher badge to view this.", "badges": [], "created_at": "2025-07-09T10:56:56.085-04:00", "updated_at": "2025-07-09T21:20:57.858-04:00", "avatar": "https://secure.gravatar.com/avatar/7f22948119fdb4e2d70c1be1a1f39659.jpg?s=512&d=https%3A%2F%2Fa.slack-edge.com%2Fdf10d%2Fimg%2Favatars%2Fava_0016-512.png", "custom_css": null}, {"id": 15225, "slack_id": "U091Q48HMBM", "display_name": "marsi", "bio": null, "projects_count": 1, "devlogs_count": 0, "votes_count": 1, "ships_count": 0, "projects": [{"id": 11163, "title": "Hangman", "devlogs_count": 0, "created_at": "2025-08-13T16:56:27.314-04:00"}], "coding_time_seconds": 4539, "coding_time_seconds_today": 0, "balance": "You need to have a pocket watcher badge to view this.", "badges": [], "created_at": "2025-07-09T10:58:41.435-04:00", "updated_at": "2025-08-13T16:56:27.306-04:00", "avatar": "https://secure.gravatar.com/avatar/58a35e3017d99823edda363bb821926a.jpg?s=512&d=https%3A%2F%2Fa.slack-edge.com%2Fdf10d%2Fimg%2Favatars%2Fava_0022-512.png", "custom_css": null}], "pagination": {"page": 757, "pages": 1192, "count": 23828, "items": 20}}