{"users": [{"id": 15226, "slack_id": "U09506FDS2Z", "display_name": "Angoti", "bio": null, "projects_count": 0, "devlogs_count": 0, "votes_count": 0, "ships_count": 0, "projects": [], "coding_time_seconds": 0, "coding_time_seconds_today": 0, "balance": "You need to have a pocket watcher badge to view this.", "badges": [], "created_at": "2025-07-09T11:03:22.239-04:00", "updated_at": "2025-07-09T21:20:58.016-04:00", "avatar": "https://secure.gravatar.com/avatar/a0c2c83cce4345c64cf79bfc20003894.jpg?s=512&d=https%3A%2F%2Fa.slack-edge.com%2Fdf10d%2Fimg%2Favatars%2Fava_0002-512.png", "custom_css": null}, {"id": 15227, "slack_id": "U094NCWK223", "display_name": "Eunmi Kim", "bio": null, "projects_count": 0, "devlogs_count": 0, "votes_count": 0, "ships_count": 0, "projects": [], "coding_time_seconds": 0, "coding_time_seconds_today": 0, "balance": "You need to have a pocket watcher badge to view this.", "badges": [], "created_at": "2025-07-09T11:07:13.995-04:00", "updated_at": "2025-07-09T21:20:58.101-04:00", "avatar": "https://avatars.slack-edge.com/2025-07-09/9170367354789_ec5b25dedbcfb1e9f554_original.png", "custom_css": null}, {"id": 15228, "slack_id": "U0951MB4VJ6", "display_name": "Owen", "bio": null, "projects_count": 0, "devlogs_count": 0, "votes_count": 0, "ships_count": 0, "projects": [], "coding_time_seconds": 143229, "coding_time_seconds_today": 0, "balance": "You need to have a pocket watcher badge to view this.", "badges": [], "created_at": "2025-07-09T11:42:40.171-04:00", "updated_at": "2025-07-09T21:20:58.177-04:00", "avatar": "https://secure.gravatar.com/avatar/76e8e3be96a0c3f8673a51d88aa48383.jpg?s=512&d=https%3A%2F%2Fa.slack-edge.com%2Fdf10d%2Fimg%2Favatars%2Fava_0000-512.png", "custom_css": null}, {"id": 15229, "slack_id": "U095PQ7HLV6", "display_name": "Elizabeth Chou", "bio": null, "projects_count": 0, "devlogs_count": 0, "votes_count": 0, "ships_count": 0, "projects": [], "coding_time_seconds": 0, "coding_time_seconds_today": 0, "balance": "You need to have a pocket watcher badge to view this.", "badges": [], "created_at": "2025-07-09T12:09:40.507-04:00", "updated_at": "2025-07-16T14:27:53.206-04:00", "avatar": "https://avatars.slack-edge.com/2025-07-09/9158991538311_bacd5975f28d5b088a7b_original.jpg", "custom_css": null}, {"id": 15230, "slack_id": "U09527577AQ", "display_name": "M S Vignesh", "bio": null, "projects_count": 0, "devlogs_count": 0, "votes_count": 0, "ships_count": 0, "projects": [], "coding_time_seconds": 0, "coding_time_seconds_today": 0, "balance": "You need to have a pocket watcher badge to view this.", "badges": [], "created_at": "2025-07-09T12:12:28.985-04:00", "updated_at": "2025-07-09T21:21:02.352-04:00", "avatar": "https://avatars.slack-edge.com/2025-07-09/9159009486679_cfd7d9436c59a4ca9e24_original.png", "custom_css": null}, {"id": 15231, "slack_id": "U095FE8VD5F", "display_name": "Rowan SaMaha", "bio": null, "projects_count": 1, "devlogs_count": 1, "votes_count": 0, "ships_count": 1, "projects": [{"id": 8616, "title": "Carbonet", "devlogs_count": 1, "created_at": "2025-07-28T15:55:54.065-04:00"}], "coding_time_seconds": 28770, "coding_time_seconds_today": 0, "balance": "You need to have a pocket watcher badge to view this.", "badges": [{"name": "Maiden Voyage", "text": "you shipped your first project! the journey begins...", "icon": "\ud83d\udea2"}], "created_at": "2025-07-09T12:42:57.326-04:00", "updated_at": "2025-09-10T22:58:41.105-04:00", "avatar": "https://secure.gravatar.com/avatar/bf13e2cecb4dcabe2a92bb0cfe0fa5f7.jpg?s=512&d=https%3A%2F%2Fa.slack-edge.com%2Fdf10d%2Fimg%2Favatars%2Fava_0023-512.png", "custom_css": null}, {"id": 15232, "slack_id": "U095FFH5QE5", "display_name": "Pixelforger", "bio": null, "projects_count": 0, "devlogs_count": 0, "votes_count": 0, "ships_count": 0, "projects": [], "coding_time_seconds": 0, "coding_time_seconds_today": 0, "balance": "You need to have a pocket watcher badge to view this.", "badges": [], "created_at": "2025-07-09T12:48:02.535-04:00", "updated_at": "2025-07-09T21:21:02.516-04:00", "avatar": "https://secure.gravatar.com/avatar/778303c22e4be14868002f0a05712a7f.jpg?s=512&d=https%3A%2F%2Fa.slack-edge.com%2Fdf10d%2Fimg%2Favatars%2Fava_0000-512.png", "custom_css": null}, {"id": 15233, "slack_id": "U094P6CCU5D", "display_name": "Christian Townhill", "bio": null, "projects_count": 0, "devlogs_count": 0, "votes_count": 0, "ships_count": 0, "projects": [], "coding_time_seconds": 0, "coding_time_seconds_today": 0, "balance": "You need to have a pocket watcher badge to view this.", "badges": [], "created_at": "2025-07-09T12:51:38.234-04:00", "updated_at": "2025-07-09T21:21:02.608-04:00", "avatar": "https://avatars.slack-edge.com/2025-07-09/9168586289238_cad8c2f2fa69b2406cb3_original.png", "custom_css": null}, {"id": 15234, "slack_id": "U095Q2LJ49W", "display_name": "Thakur Manit", "bio": null, "projects_count": 0, "devlogs_count": 0, "votes_count": 0, "ships_count": 0, "projects": [], "coding_time_seconds": 0, "coding_time_seconds_today": 0, "balance": "You need to have a pocket watcher badge to view this.", "badges": [], "created_at": "2025-07-09T12:56:12.725-04:00", "updated_at": "2025-07-09T21:21:02.685-04:00", "avatar": "https://avatars.slack-edge.com/2025-07-09/9159257692535_d4049dba0caa18c0633d_original.webp", "custom_css": null}, {"id": 15235, "slack_id": "U0953SWQMN0", "display_name": "Solar", "bio": null, "projects_count": 1, "devlogs_count": 2, "votes_count": 0, "ships_count": 1, "projects": [{"id": 6225, "title": "Firefly Terminal", "devlogs_count": 2, "created_at": "2025-07-11T12:45:20.161-04:00"}], "coding_time_seconds": 79865, "coding_time_seconds_today": 0, "balance": "You need to have a pocket watcher badge to view this.", "badges": [{"name": "Maiden Voyage", "text": "you shipped your first project! the journey begins...", "icon": "\ud83d\udea2"}], "created_at": "2025-07-09T12:57:21.035-04:00", "updated_at": "2025-09-10T22:58:41.212-04:00", "avatar": "https://avatars.slack-edge.com/2025-07-09/9166526362963_83f77eb7e502d456df38_original.jpg", "custom_css": null}, {"id": 15236, "slack_id": "U095Q3GM0AU", "display_name": "Anish Sarkar", "bio": null, "projects_count": 0, "devlogs_count": 0, "votes_count": 0, "ships_count": 0, "projects": [], "coding_time_seconds": 1939, "coding_time_seconds_today": 0, "balance": "You need to have a pocket watcher badge to view this.", "badges": [], "created_at": "2025-07-09T12:58:43.097-04:00", "updated_at": "2025-07-09T21:21:02.856-04:00", "avatar": "https://secure.gravatar.com/avatar/1e6b6ea433961079d5b217c4c0e4c77c.jpg?s=512&d=https%3A%2F%2Fa.slack-edge.com%2Fdf10d%2Fimg%2Favatars%2Fava_0002-512.png", "custom_css": null}, {"id": 15237, "slack_id": "U095Q4KMGHW", "display_name": "Conor", "bio": null, "projects_count": 0, "devlogs_count": 0, "votes_count": 0, "ships_count": 0, "projects": [], "coding_time_seconds": 0, "coding_time_seconds_today": 0, "balance": "You need to have a pocket watcher badge to view this.", "badges": [], "created_at": "2025-07-09T13:04:14.458-04:00", "updated_at": "2025-07-09T21:21:02.936-04:00", "avatar": "https://secure.gravatar.com/avatar/06fae7f1fab263efead2b393c0e10e57.jpg?s=512&d=https%3A%2F%2Fa.slack-edge.com%2Fdf10d%2Fimg%2Favatars%2Fava_0015-512.png", "custom_css": null}, {"id": 15238, "slack_id": "U095AD7RYPK", "display_name": "Ayaan", "bio": null, "projects_count": 0, "devlogs_count": 0, "votes_count": 0, "ships_count": 0, "projects": [], "coding_time_seconds": 0, "coding_time_seconds_today": 0, "balance": "You need to have a pocket watcher badge to view this.", "badges": [], "created_at": "2025-07-09T13:18:46.726-04:00", "updated_at": "2025-07-09T21:21:03.010-04:00", "avatar": "https://secure.gravatar.com/avatar/8ca9980628c7061780064b38072edb7b.jpg?s=512&d=https%3A%2F%2Fa.slack-edge.com%2Fdf10d%2Fimg%2Favatars%2Fava_0009-512.png", "custom_css": null}, {"id": 15239, "slack_id": "U09543WULAG", "display_name": "soosadam", "bio": null, "projects_count": 0, "devlogs_count": 0, "votes_count": 0, "ships_count": 0, "projects": [], "coding_time_seconds": 0, "coding_time_seconds_today": 0, "balance": "You need to have a pocket watcher badge to view this.", "badges": [], "created_at": "2025-07-09T13:35:30.563-04:00", "updated_at": "2025-07-09T21:21:03.084-04:00", "avatar": "https://secure.gravatar.com/avatar/753a73cfd173e5d0569e9b51d0944b63.jpg?s=512&d=https%3A%2F%2Fa.slack-edge.com%2Fdf10d%2Fimg%2Favatars%2Fava_0005-512.png", "custom_css": null}, {"id": 15240, "slack_id": "U095FQ61NHX", "display_name": "Omkar Kulkarni", "bio": null, "projects_count": 0, "devlogs_count": 0, "votes_count": 0, "ships_count": 0, "projects": [], "coding_time_seconds": 0, "coding_time_seconds_today": 0, "balance": "You need to have a pocket watcher badge to view this.", "badges": [], "created_at": "2025-07-09T13:43:57.677-04:00", "updated_at": "2025-07-09T21:21:03.164-04:00", "avatar": "https://secure.gravatar.com/avatar/1308f3153e67f8bd8fe64c3ea0c907e4.jpg?s=512&d=https%3A%2F%2Fa.slack-edge.com%2Fdf10d%2Fimg%2Favatars%2Fava_0017-512.png", "custom_css": null}, {"id": 15241, "slack_id": "U094WR1D9MZ", "display_name": "kdv", "bio": null, "projects_count": 1, "devlogs_count": 4, "votes_count": 30, "ships_count": 1, "projects": [{"id": 5975, "title": "Pomelo", "devlogs_count": 4, "created_at": "2025-07-09T14:26:12.537-04:00"}], "coding_time_seconds": 145500, "coding_time_seconds_today": 0, "balance": "You need to have a pocket watcher badge to view this.", "badges": [{"name": "Maiden Voyage", "text": "you shipped your first project! the journey begins...", "icon": "\ud83d\udea2"}], "created_at": "2025-07-09T13:57:59.387-04:00", "updated_at": "2025-09-10T22:58:41.377-04:00", "avatar": "https://avatars.slack-edge.com/2025-07-14/9195580871285_5cc4fb8a415284bc66ba_original.jpg", "custom_css": null}, {"id": 15242, "slack_id": "U094Z24PLKY", "display_name": "Po\u010dtis", "bio": null, "projects_count": 1, "devlogs_count": 5, "votes_count": 46, "ships_count": 1, "projects": [{"id": 6459, "title": "S&P Drywalling", "devlogs_count": 5, "created_at": "2025-07-13T14:20:27.772-04:00"}], "coding_time_seconds": 33498, "coding_time_seconds_today": 0, "balance": "You need to have a pocket watcher badge to view this.", "badges": [{"name": "Maiden Voyage", "text": "you shipped your first project! the journey begins...", "icon": "\ud83d\udea2"}], "created_at": "2025-07-09T14:18:06.307-04:00", "updated_at": "2025-09-13T05:28:43.132-04:00", "avatar": "https://avatars.slack-edge.com/2025-07-23/9242036271382_0b11f311a679ecf41e3b_original.png", "custom_css": null}, {"id": 15243, "slack_id": "U09547Z85CL", "display_name": "Matyi", "bio": null, "projects_count": 0, "devlogs_count": 0, "votes_count": 0, "ships_count": 0, "projects": [], "coding_time_seconds": 0, "coding_time_seconds_today": 0, "balance": "You need to have a pocket watcher badge to view this.", "badges": [], "created_at": "2025-07-09T14:36:43.491-04:00", "updated_at": "2025-07-09T21:21:03.403-04:00", "avatar": "https://secure.gravatar.com/avatar/f9fdf8ce66bebf8dcf3e393702236edf.jpg?s=512&d=https%3A%2F%2Fa.slack-edge.com%2Fdf10d%2Fimg%2Favatars%2Fava_0003-512.png", "custom_css": null}, {"id": 15244, "slack_id": "U07UZ15JZFV", "display_name": "wearr", "bio": null, "projects_count": 1, "devlogs_count": 4, "votes_count": 39, "ships_count": 1, "projects": [{"id": 7893, "title": "ResourceDragon - Proprietary Archive Extractor", "devlogs_count": 4, "created_at": "2025-07-23T13:00:07.578-04:00"}], "coding_time_seconds": 316386, "coding_time_seconds_today": 0, "balance": "You need to have a pocket watcher badge to view this.", "badges": [{"name": "Maiden Voyage", "text": "you shipped your first project! the journey begins...", "icon": "\ud83d\udea2"}], "created_at": "2025-07-09T15:09:05.650-04:00", "updated_at": "2025-09-10T22:58:41.471-04:00", "avatar": "https://avatars.slack-edge.com/2024-11-06/7994857458804_13164964d896b87e5169_original.png", "custom_css": null}, {"id": 15245, "slack_id": "U094BS6GBM5", "display_name": "Lucas Matos de Almeida", "bio": null, "projects_count": 0, "devlogs_count": 0, "votes_count": 0, "ships_count": 0, "projects": [], "coding_time_seconds": 0, "coding_time_seconds_today": 0, "balance": "You need to have a pocket watcher badge to view this.", "badges": [], "created_at": "2025-07-09T15:16:51.030-04:00", "updated_at": "2025-07-09T21:21:03.552-04:00", "avatar": "https://secure.gravatar.com/avatar/096d2d736f0dc3cb6dc54143a9748858.jpg?s=512&d=https%3A%2F%2Fa.slack-edge.com%2Fdf10d%2Fimg%2Favatars%2Fava_0005-512.png", "custom_css": null}], "pagination": {"page": 758, "pages": 1192, "count": 23828, "items": 20}}