{"users": [{"id": 15246, "slack_id": "U05SC0RDYV6", "display_name": "Brandon", "bio": null, "projects_count": 3, "devlogs_count": 17, "votes_count": 18, "ships_count": 1, "projects": [{"id": 6104, "title": "Biotech CV Robotic System API + Dashboard", "devlogs_count": 10, "created_at": "2025-07-10T15:03:08.790-04:00"}, {"id": 6253, "title": "My Python-Based Secure Login System (ft YubiKey from Arcade)", "devlogs_count": 4, "created_at": "2025-07-11T15:51:33.229-04:00"}, {"id": 7079, "title": "AP Statistic Mobile App (cross platform!)", "devlogs_count": 3, "created_at": "2025-07-18T21:03:24.682-04:00"}], "coding_time_seconds": 261208, "coding_time_seconds_today": 0, "balance": "You need to have a pocket watcher badge to view this.", "badges": [{"name": "Maiden Voyage", "text": "you shipped your first project! the journey begins...", "icon": "\ud83d\udea2"}], "created_at": "2025-07-09T15:23:35.756-04:00", "updated_at": "2025-09-10T22:58:41.528-04:00", "avatar": "https://avatars.slack-edge.com/2024-07-10/7389757201959_a28c191f56b92e57eb51_original.png", "custom_css": null}, {"id": 15247, "slack_id": "U094ZCGLP4N", "display_name": "Wojciech", "bio": null, "projects_count": 0, "devlogs_count": 0, "votes_count": 0, "ships_count": 0, "projects": [], "coding_time_seconds": 242, "coding_time_seconds_today": 0, "balance": "You need to have a pocket watcher badge to view this.", "badges": [], "created_at": "2025-07-09T15:23:56.615-04:00", "updated_at": "2025-07-09T21:21:03.714-04:00", "avatar": "https://secure.gravatar.com/avatar/78660c3826571f9a4d1f93d16dc8c8bb.jpg?s=512&d=https%3A%2F%2Fa.slack-edge.com%2Fdf10d%2Fimg%2Favatars%2Fava_0024-512.png", "custom_css": null}, {"id": 15248, "slack_id": "U0952UM97EW", "display_name": "Umayer", "bio": null, "projects_count": 0, "devlogs_count": 0, "votes_count": 1, "ships_count": 0, "projects": [], "coding_time_seconds": 602, "coding_time_seconds_today": 0, "balance": "You need to have a pocket watcher badge to view this.", "badges": [], "created_at": "2025-07-09T15:25:03.569-04:00", "updated_at": "2025-07-10T08:05:10.255-04:00", "avatar": "https://secure.gravatar.com/avatar/483ba4eff5af50dff7b6302779286b78.jpg?s=512&d=https%3A%2F%2Fa.slack-edge.com%2Fdf10d%2Fimg%2Favatars%2Fava_0009-512.png", "custom_css": null}, {"id": 15249, "slack_id": "U094Q1HMSLF", "display_name": "OG_Coding_62", "bio": null, "projects_count": 1, "devlogs_count": 0, "votes_count": 0, "ships_count": 0, "projects": [{"id": 5981, "title": "Friendly Dollop", "devlogs_count": 0, "created_at": "2025-07-09T15:46:45.292-04:00"}], "coding_time_seconds": 2487, "coding_time_seconds_today": 0, "balance": "You need to have a pocket watcher badge to view this.", "badges": [], "created_at": "2025-07-09T15:26:32.701-04:00", "updated_at": "2025-07-09T21:21:07.929-04:00", "avatar": "https://secure.gravatar.com/avatar/f592bca8e14b347ed23587edda6e0451.jpg?s=512&d=https%3A%2F%2Fa.slack-edge.com%2Fdf10d%2Fimg%2Favatars%2Fava_0004-512.png", "custom_css": null}, {"id": 15250, "slack_id": "U094Q1PECQ7", "display_name": "Richard", "bio": null, "projects_count": 0, "devlogs_count": 0, "votes_count": 0, "ships_count": 0, "projects": [], "coding_time_seconds": 0, "coding_time_seconds_today": 0, "balance": "You need to have a pocket watcher badge to view this.", "badges": [], "created_at": "2025-07-09T15:27:49.756-04:00", "updated_at": "2025-07-09T21:21:08.008-04:00", "avatar": "https://avatars.slack-edge.com/2025-07-09/9167357902499_fe5cfb8bd2d4daa84c2f_original.png", "custom_css": null}, {"id": 15251, "slack_id": "U0924FG1QJG", "display_name": "Kailey", "bio": null, "projects_count": 5, "devlogs_count": 18, "votes_count": 72, "ships_count": 5, "projects": [{"id": 9625, "title": "Personality Quiz", "devlogs_count": 2, "created_at": "2025-08-01T22:39:49.146-04:00"}, {"id": 10688, "title": "Baking", "devlogs_count": 4, "created_at": "2025-08-09T15:32:15.895-04:00"}, {"id": 10932, "title": "Food Waste", "devlogs_count": 4, "created_at": "2025-08-11T22:24:05.232-04:00"}, {"id": 13453, "title": "To-Do List", "devlogs_count": 4, "created_at": "2025-09-16T21:01:49.691-04:00"}, {"id": 11417, "title": "Boba", "devlogs_count": 4, "created_at": "2025-08-15T17:13:25.558-04:00"}], "coding_time_seconds": 408302, "coding_time_seconds_today": 0, "balance": "You need to have a pocket watcher badge to view this.", "badges": [{"name": "Maiden Voyage", "text": "you shipped your first project! the journey begins...", "icon": "\ud83d\udea2"}], "created_at": "2025-07-09T16:47:35.855-04:00", "updated_at": "2025-09-10T22:58:41.674-04:00", "avatar": "https://secure.gravatar.com/avatar/8f8d0c16f352965f8d96469854cae4f3.jpg?s=512&d=https%3A%2F%2Fa.slack-edge.com%2Fdf10d%2Fimg%2Favatars%2Fava_0011-512.png", "custom_css": null}, {"id": 15252, "slack_id": "U0951QM8X7F", "display_name": "Ahmed Amine Mchayaa", "bio": null, "projects_count": 0, "devlogs_count": 0, "votes_count": 0, "ships_count": 0, "projects": [], "coding_time_seconds": 0, "coding_time_seconds_today": 0, "balance": "You need to have a pocket watcher badge to view this.", "badges": [], "created_at": "2025-07-09T16:47:38.268-04:00", "updated_at": "2025-07-28T10:49:52.702-04:00", "avatar": "https://secure.gravatar.com/avatar/cb277b2d5487e56d0813b81998815d10.jpg?s=512&d=https%3A%2F%2Fa.slack-edge.com%2Fdf10d%2Fimg%2Favatars%2Fava_0016-512.png", "custom_css": null}, {"id": 15253, "slack_id": "U082ZGAL4F7", "display_name": "awfulcarpet", "bio": null, "projects_count": 7, "devlogs_count": 16, "votes_count": 24, "ships_count": 1, "projects": [{"id": 9175, "title": "gbem", "devlogs_count": 11, "created_at": "2025-07-30T20:46:43.899-04:00"}, {"id": 9373, "title": "swm", "devlogs_count": 1, "created_at": "2025-07-31T22:09:26.765-04:00"}, {"id": 9383, "title": "norc", "devlogs_count": 0, "created_at": "2025-07-31T23:16:18.626-04:00"}, {"id": 11407, "title": "chip8", "devlogs_count": 4, "created_at": "2025-08-15T15:05:43.769-04:00"}, {"id": 5987, "title": "img2epub", "devlogs_count": 0, "created_at": "2025-07-09T17:37:40.480-04:00"}, {"id": 7094, "title": "cpop", "devlogs_count": 0, "created_at": "2025-07-18T23:37:01.594-04:00"}, {"id": 11074, "title": "bf", "devlogs_count": 0, "created_at": "2025-08-13T01:22:17.924-04:00"}], "coding_time_seconds": 657328, "coding_time_seconds_today": 4525, "balance": "You need to have a pocket watcher badge to view this.", "badges": [{"name": "Maiden Voyage", "text": "you shipped your first project! the journey begins...", "icon": "\ud83d\udea2"}], "created_at": "2025-07-09T16:58:59.207-04:00", "updated_at": "2025-09-10T22:58:41.731-04:00", "avatar": "https://secure.gravatar.com/avatar/10891a8e88764f7f2a258c6a4b7bd3c2.jpg?s=512&d=https%3A%2F%2Fa.slack-edge.com%2Fdf10d%2Fimg%2Favatars%2Fava_0013-512.png", "custom_css": null}, {"id": 15254, "slack_id": "U094QGC03QF", "display_name": "Joachim Sonigo", "bio": null, "projects_count": 0, "devlogs_count": 0, "votes_count": 0, "ships_count": 0, "projects": [], "coding_time_seconds": 35, "coding_time_seconds_today": 0, "balance": "You need to have a pocket watcher badge to view this.", "badges": [], "created_at": "2025-07-09T17:11:01.404-04:00", "updated_at": "2025-07-09T21:21:08.294-04:00", "avatar": "https://secure.gravatar.com/avatar/19988c0a7f4a9fa573711f9f2d479d15.jpg?s=512&d=https%3A%2F%2Fa.slack-edge.com%2Fdf10d%2Fimg%2Favatars%2Fava_0024-512.png", "custom_css": null}, {"id": 15255, "slack_id": "U0903D7NFGV", "display_name": "Hritika Pandey", "bio": null, "projects_count": 0, "devlogs_count": 0, "votes_count": 0, "ships_count": 0, "projects": [], "coding_time_seconds": 8335, "coding_time_seconds_today": 0, "balance": "You need to have a pocket watcher badge to view this.", "badges": [], "created_at": "2025-07-09T18:36:34.647-04:00", "updated_at": "2025-07-10T12:14:10.758-04:00", "avatar": "https://avatars.slack-edge.com/2025-07-09/9168211120099_6cca06a27d9d03cb8871_original.jpg", "custom_css": null}, {"id": 15256, "slack_id": "U0955JZF00L", "display_name": "Abdelghani Salek", "bio": null, "projects_count": 0, "devlogs_count": 0, "votes_count": 0, "ships_count": 0, "projects": [], "coding_time_seconds": 0, "coding_time_seconds_today": 0, "balance": "You need to have a pocket watcher badge to view this.", "badges": [], "created_at": "2025-07-09T19:15:51.182-04:00", "updated_at": "2025-07-09T21:21:08.452-04:00", "avatar": "https://secure.gravatar.com/avatar/dccb3c9ab95fcbb3056af770dd7c813b.jpg?s=512&d=https%3A%2F%2Fa.slack-edge.com%2Fdf10d%2Fimg%2Favatars%2Fava_0017-512.png", "custom_css": null}, {"id": 15257, "slack_id": "U094R1GQ423", "display_name": "Aashrith", "bio": "I really like coding and want to save enough for the ipad.", "projects_count": 13, "devlogs_count": 69, "votes_count": 194, "ships_count": 11, "projects": [{"id": 6241, "title": "ReLeaf ", "devlogs_count": 4, "created_at": "2025-07-11T14:21:49.593-04:00"}, {"id": 6320, "title": "EntertainAI", "devlogs_count": 5, "created_at": "2025-07-12T10:10:12.982-04:00"}, {"id": 12999, "title": "3D Battlefield Scene", "devlogs_count": 3, "created_at": "2025-09-06T17:56:51.346-04:00"}, {"id": 13041, "title": "MolSight", "devlogs_count": 4, "created_at": "2025-09-07T12:10:37.092-04:00"}, {"id": 13492, "title": "ResearchAI", "devlogs_count": 4, "created_at": "2025-09-17T19:07:14.030-04:00"}, {"id": 6054, "title": "ML for Hospital wait times", "devlogs_count": 4, "created_at": "2025-07-10T08:57:08.408-04:00"}, {"id": 13592, "title": "Wildfire AI", "devlogs_count": 6, "created_at": "2025-09-20T10:23:08.074-04:00"}, {"id": 13680, "title": "Mathematical Visualizer", "devlogs_count": 0, "created_at": "2025-09-22T19:39:17.862-04:00"}, {"id": 13598, "title": "SkyGuard", "devlogs_count": 4, "created_at": "2025-09-20T12:38:20.079-04:00"}, {"id": 13372, "title": "3D Gun viewer", "devlogs_count": 5, "created_at": "2025-09-14T17:34:19.996-04:00"}, {"id": 13375, "title": "Airplane Simulator Website", "devlogs_count": 3, "created_at": "2025-09-14T21:21:29.855-04:00"}, {"id": 6055, "title": "Personal Website ", "devlogs_count": 5, "created_at": "2025-07-10T08:59:35.037-04:00"}, {"id": 12875, "title": "Operation: Zombie Strike", "devlogs_count": 6, "created_at": "2025-09-04T06:49:42.895-04:00"}], "coding_time_seconds": 653666, "coding_time_seconds_today": 0, "balance": "You need to have a pocket watcher badge to view this.", "badges": [{"name": "Maiden Voyage", "text": "you shipped your first project! the journey begins...", "icon": "\ud83d\udea2"}, {"name": "Ballot Stuffer", "text": "vote 100 times.", "icon": "https://summer.hackclub.com/assets/i_voted-bf851b48.png"}], "created_at": "2025-07-09T19:35:56.726-04:00", "updated_at": "2025-09-17T13:19:34.829-04:00", "avatar": "https://avatars.slack-edge.com/2025-09-17/9547753566753_319543539ca56da518d5_original.jpg", "custom_css": null}, {"id": 15258, "slack_id": "U0950GXJGMC", "display_name": "Yunseo Lee", "bio": null, "projects_count": 0, "devlogs_count": 0, "votes_count": 0, "ships_count": 0, "projects": [], "coding_time_seconds": 0, "coding_time_seconds_today": 0, "balance": "You need to have a pocket watcher badge to view this.", "badges": [], "created_at": "2025-07-09T20:13:43.717-04:00", "updated_at": "2025-07-10T12:14:10.939-04:00", "avatar": "https://secure.gravatar.com/avatar/ce789ea5d4042049fcafc75e90b410cb.jpg?s=512&d=https%3A%2F%2Fa.slack-edge.com%2Fdf10d%2Fimg%2Favatars%2Fava_0004-512.png", "custom_css": null}, {"id": 15259, "slack_id": "U0950HAGMU6", "display_name": "King", "bio": null, "projects_count": 0, "devlogs_count": 0, "votes_count": 0, "ships_count": 0, "projects": [], "coding_time_seconds": 0, "coding_time_seconds_today": 0, "balance": "You need to have a pocket watcher badge to view this.", "badges": [], "created_at": "2025-07-09T20:18:18.071-04:00", "updated_at": "2025-07-10T12:14:11.003-04:00", "avatar": "https://secure.gravatar.com/avatar/6fffe8111e4e937a46ea54d94d73ae59.jpg?s=512&d=https%3A%2F%2Fa.slack-edge.com%2Fdf10d%2Fimg%2Favatars%2Fava_0011-512.png", "custom_css": null}, {"id": 15260, "slack_id": "U095349R1K7", "display_name": "Kazi Hossain", "bio": null, "projects_count": 0, "devlogs_count": 0, "votes_count": 0, "ships_count": 0, "projects": [], "coding_time_seconds": 0, "coding_time_seconds_today": 0, "balance": "You need to have a pocket watcher badge to view this.", "badges": [], "created_at": "2025-07-09T21:11:04.452-04:00", "updated_at": "2025-07-09T21:21:08.754-04:00", "avatar": "https://secure.gravatar.com/avatar/1ebceec12e4ef33418b28c902a590541.jpg?s=512&d=https%3A%2F%2Fa.slack-edge.com%2Fdf10d%2Fimg%2Favatars%2Fava_0019-512.png", "custom_css": null}, {"id": 15261, "slack_id": "U08FHV12UKE", "display_name": "i dont know", "bio": null, "projects_count": 0, "devlogs_count": 0, "votes_count": 0, "ships_count": 0, "projects": [], "coding_time_seconds": 4124, "coding_time_seconds_today": 0, "balance": "You need to have a pocket watcher badge to view this.", "badges": [], "created_at": "2025-07-09T21:24:31.644-04:00", "updated_at": "2025-08-07T19:31:49.684-04:00", "avatar": "https://secure.gravatar.com/avatar/0ce8d3ed1333cf9feefc7660fcb17e1e.jpg?s=512&d=https%3A%2F%2Fa.slack-edge.com%2Fdf10d%2Fimg%2Favatars%2Fava_0000-512.png", "custom_css": null}, {"id": 15262, "slack_id": "U07AFPFP6E8", "display_name": "Cindy Dong", "bio": null, "projects_count": 0, "devlogs_count": 0, "votes_count": 0, "ships_count": 0, "projects": [], "coding_time_seconds": 0, "coding_time_seconds_today": 0, "balance": "You need to have a pocket watcher badge to view this.", "badges": [], "created_at": "2025-07-09T21:31:12.808-04:00", "updated_at": "2025-07-09T21:32:47.785-04:00", "avatar": "https://secure.gravatar.com/avatar/73df372e77e6bc3197124904cf556710.jpg?s=512&d=https%3A%2F%2Fa.slack-edge.com%2Fdf10d%2Fimg%2Favatars%2Fava_0003-512.png", "custom_css": null}, {"id": 15263, "slack_id": "U0950QT2FAA", "display_name": "Gabriel Arao", "bio": null, "projects_count": 0, "devlogs_count": 0, "votes_count": 0, "ships_count": 0, "projects": [], "coding_time_seconds": 0, "coding_time_seconds_today": 0, "balance": "You need to have a pocket watcher badge to view this.", "badges": [], "created_at": "2025-07-09T21:39:13.943-04:00", "updated_at": "2025-07-10T03:20:50.652-04:00", "avatar": "https://secure.gravatar.com/avatar/b729842f838f5dbdfe27d52a6b24ad03.jpg?s=512&d=https%3A%2F%2Fa.slack-edge.com%2Fdf10d%2Fimg%2Favatars%2Fava_0001-512.png", "custom_css": null}, {"id": 15264, "slack_id": "U0954A7PLTU", "display_name": "Ritu", "bio": null, "projects_count": 0, "devlogs_count": 0, "votes_count": 0, "ships_count": 0, "projects": [], "coding_time_seconds": 0, "coding_time_seconds_today": 0, "balance": "You need to have a pocket watcher badge to view this.", "badges": [], "created_at": "2025-07-09T21:45:11.314-04:00", "updated_at": "2025-07-27T19:11:11.179-04:00", "avatar": "https://secure.gravatar.com/avatar/cf8d530eb48b2c67e318d1f31f10ffc5.jpg?s=512&d=https%3A%2F%2Fa.slack-edge.com%2Fdf10d%2Fimg%2Favatars%2Fava_0020-512.png", "custom_css": null}, {"id": 15265, "slack_id": "U08SFPU4EPJ", "display_name": "Julia", "bio": null, "projects_count": 1, "devlogs_count": 2, "votes_count": 0, "ships_count": 0, "projects": [{"id": 6005, "title": "Libby Annotations", "devlogs_count": 2, "created_at": "2025-07-09T22:11:18.349-04:00"}], "coding_time_seconds": 22732, "coding_time_seconds_today": 0, "balance": "You need to have a pocket watcher badge to view this.", "badges": [], "created_at": "2025-07-09T21:52:59.969-04:00", "updated_at": "2025-07-10T13:04:41.639-04:00", "avatar": "https://secure.gravatar.com/avatar/acf45404eb79821ed8758cb553cd2c28.jpg?s=512&d=https%3A%2F%2Fa.slack-edge.com%2Fdf10d%2Fimg%2Favatars%2Fava_0005-512.png", "custom_css": null}], "pagination": {"page": 759, "pages": 1192, "count": 23828, "items": 20}}