{"users": [{"id": 1501, "slack_id": "U091MQTPE77", "display_name": "ABDUL REHMAN MUSTAFA", "bio": null, "projects_count": 0, "devlogs_count": 0, "votes_count": 0, "ships_count": 0, "projects": [], "coding_time_seconds": 0, "coding_time_seconds_today": 0, "balance": "You need to have a pocket watcher badge to view this.", "badges": [], "created_at": "2025-06-16T13:23:49.820-04:00", "updated_at": "2025-07-03T19:17:55.759-04:00", "avatar": "https://secure.gravatar.com/avatar/0ec1a86c856715cce6cde5b5703c135d.jpg?s=512&d=https%3A%2F%2Fa.slack-edge.com%2Fdf10d%2Fimg%2Favatars%2Fava_0015-512.png", "custom_css": null}, {"id": 1502, "slack_id": "U091PJKLN0J", "display_name": "Winnie McKenzie", "bio": null, "projects_count": 0, "devlogs_count": 0, "votes_count": 0, "ships_count": 0, "projects": [], "coding_time_seconds": 7899, "coding_time_seconds_today": 0, "balance": "You need to have a pocket watcher badge to view this.", "badges": [], "created_at": "2025-06-16T13:23:51.083-04:00", "updated_at": "2025-07-03T19:17:56.027-04:00", "avatar": "https://secure.gravatar.com/avatar/3780dcdf85f177aa9d7e18ea6ea137ba.jpg?s=512&d=https%3A%2F%2Fa.slack-edge.com%2Fdf10d%2Fimg%2Favatars%2Fava_0018-512.png", "custom_css": null}, {"id": 1503, "slack_id": "U07A9EABQG6", "display_name": "Mouseylicense", "bio": null, "projects_count": 0, "devlogs_count": 0, "votes_count": 0, "ships_count": 0, "projects": [], "coding_time_seconds": 8, "coding_time_seconds_today": 0, "balance": "You need to have a pocket watcher badge to view this.", "badges": [], "created_at": "2025-06-16T13:23:55.006-04:00", "updated_at": "2025-08-09T07:34:52.415-04:00", "avatar": "https://avatars.slack-edge.com/2024-08-16/7611189810272_1b0e5b71d34b1daca742_original.png", "custom_css": null}, {"id": 1504, "slack_id": "U07ES8RN81M", "display_name": "Yuvraj P", "bio": "", "projects_count": 2, "devlogs_count": 31, "votes_count": 0, "ships_count": 0, "projects": [{"id": 489, "title": "TimeBlock(Unofficial Name)", "devlogs_count": 2, "created_at": "2025-06-16T23:26:25.671-04:00"}, {"id": 4825, "title": "Insominia", "devlogs_count": 29, "created_at": "2025-07-01T18:04:41.284-04:00"}], "coding_time_seconds": 724079, "coding_time_seconds_today": 0, "balance": "You need to have a pocket watcher badge to view this.", "badges": [], "created_at": "2025-06-16T13:23:56.638-04:00", "updated_at": "2025-08-06T15:31:03.604-04:00", "avatar": "https://avatars.slack-edge.com/2025-06-13/9046670386485_2d3a4e02598aadd0f835_original.png", "custom_css": null}, {"id": 1505, "slack_id": "U09225JUG57", "display_name": "Rana Cherukuri", "bio": null, "projects_count": 1, "devlogs_count": 0, "votes_count": 0, "ships_count": 0, "projects": [{"id": 1586, "title": "2024-25 AOOD GamePad Galaga Game", "devlogs_count": 0, "created_at": "2025-06-18T20:19:59.221-04:00"}], "coding_time_seconds": 21092, "coding_time_seconds_today": 0, "balance": "You need to have a pocket watcher badge to view this.", "badges": [], "created_at": "2025-06-16T13:24:01.650-04:00", "updated_at": "2025-07-03T19:17:56.842-04:00", "avatar": "https://avatars.slack-edge.com/2025-06-16/9055875298901_e4bb128fce9ba1c87283_original.jpg", "custom_css": null}, {"id": 1506, "slack_id": "U091GNUDL06", "display_name": "Lakshay", "bio": null, "projects_count": 0, "devlogs_count": 0, "votes_count": 0, "ships_count": 0, "projects": [], "coding_time_seconds": 621, "coding_time_seconds_today": 0, "balance": "You need to have a pocket watcher badge to view this.", "badges": [], "created_at": "2025-06-16T13:24:02.023-04:00", "updated_at": "2025-07-03T19:17:57.117-04:00", "avatar": "https://secure.gravatar.com/avatar/1b7b8bf64c47e6e60e747497d25b753a.jpg?s=512&d=https%3A%2F%2Fa.slack-edge.com%2Fdf10d%2Fimg%2Favatars%2Fava_0009-512.png", "custom_css": null}, {"id": 1507, "slack_id": "U091GNNE9RU", "display_name": "Jay Roy", "bio": null, "projects_count": 0, "devlogs_count": 0, "votes_count": 0, "ships_count": 0, "projects": [], "coding_time_seconds": 0, "coding_time_seconds_today": 0, "balance": "You need to have a pocket watcher badge to view this.", "badges": [], "created_at": "2025-06-16T13:24:03.741-04:00", "updated_at": "2025-07-03T19:17:57.386-04:00", "avatar": "https://avatars.slack-edge.com/2025-06-16/9070199671841_1b698e9ca3089d14aaa1_original.png", "custom_css": null}, {"id": 1508, "slack_id": "U091GNT3QMU", "display_name": "Ishita", "bio": null, "projects_count": 0, "devlogs_count": 0, "votes_count": 0, "ships_count": 0, "projects": [], "coding_time_seconds": 0, "coding_time_seconds_today": 0, "balance": "You need to have a pocket watcher badge to view this.", "badges": [], "created_at": "2025-06-16T13:24:15.771-04:00", "updated_at": "2025-07-03T19:17:57.651-04:00", "avatar": "https://secure.gravatar.com/avatar/428a2a71942dc3d1ab52669cccb71459.jpg?s=512&d=https%3A%2F%2Fa.slack-edge.com%2Fdf10d%2Fimg%2Favatars%2Fava_0004-512.png", "custom_css": null}, {"id": 1509, "slack_id": "U07F3A33BRB", "display_name": "Susmit Das", "bio": null, "projects_count": 0, "devlogs_count": 0, "votes_count": 0, "ships_count": 0, "projects": [], "coding_time_seconds": 103009, "coding_time_seconds_today": 0, "balance": "You need to have a pocket watcher badge to view this.", "badges": [], "created_at": "2025-06-16T13:24:25.044-04:00", "updated_at": "2025-07-03T19:17:57.912-04:00", "avatar": "https://avatars.slack-edge.com/2024-08-01/7539039656032_5ef4c710dabd4dbfb849_original.png", "custom_css": null}, {"id": 1510, "slack_id": "U0738KZGQH5", "display_name": "grimsteel", "bio": null, "projects_count": 1, "devlogs_count": 0, "votes_count": 0, "ships_count": 0, "projects": [{"id": 13004, "title": "pass-secret-service", "devlogs_count": 0, "created_at": "2025-09-06T18:47:52.979-04:00"}], "coding_time_seconds": 89324, "coding_time_seconds_today": 0, "balance": "You need to have a pocket watcher badge to view this.", "badges": [], "created_at": "2025-06-16T13:24:38.663-04:00", "updated_at": "2025-08-21T18:20:12.768-04:00", "avatar": "https://avatars.slack-edge.com/2025-03-21/8624614384423_92038a50c5767500a9ed_original.jpg", "custom_css": null}, {"id": 1511, "slack_id": "U09225NA80H", "display_name": "Andrii", "bio": null, "projects_count": 0, "devlogs_count": 0, "votes_count": 0, "ships_count": 0, "projects": [], "coding_time_seconds": 29, "coding_time_seconds_today": 0, "balance": "You need to have a pocket watcher badge to view this.", "badges": [], "created_at": "2025-06-16T13:24:41.802-04:00", "updated_at": "2025-07-03T19:17:58.457-04:00", "avatar": "https://secure.gravatar.com/avatar/42aaafa13ee37113bfed671e1c3492df.jpg?s=512&d=https%3A%2F%2Fa.slack-edge.com%2Fdf10d%2Fimg%2Favatars%2Fava_0014-512.png", "custom_css": null}, {"id": 1512, "slack_id": "U091GL3QWGK", "display_name": "fauzi", "bio": null, "projects_count": 0, "devlogs_count": 0, "votes_count": 0, "ships_count": 0, "projects": [], "coding_time_seconds": 0, "coding_time_seconds_today": 0, "balance": "You need to have a pocket watcher badge to view this.", "badges": [], "created_at": "2025-06-16T13:24:44.286-04:00", "updated_at": "2025-07-03T19:17:58.722-04:00", "avatar": "https://secure.gravatar.com/avatar/fb33a4e28deb4a1222179b3827eb8d03.jpg?s=512&d=https%3A%2F%2Fa.slack-edge.com%2Fdf10d%2Fimg%2Favatars%2Fava_0005-512.png", "custom_css": null}, {"id": 1513, "slack_id": "U091Q15MQ5S", "display_name": "Srijan", "bio": null, "projects_count": 0, "devlogs_count": 0, "votes_count": 0, "ships_count": 0, "projects": [], "coding_time_seconds": 0, "coding_time_seconds_today": 0, "balance": "You need to have a pocket watcher badge to view this.", "badges": [], "created_at": "2025-06-16T13:24:56.445-04:00", "updated_at": "2025-07-03T19:17:58.980-04:00", "avatar": "https://secure.gravatar.com/avatar/dbf6ec6a64056db8e89d0081852d0399.jpg?s=512&d=https%3A%2F%2Fa.slack-edge.com%2Fdf10d%2Fimg%2Favatars%2Fava_0016-512.png", "custom_css": null}, {"id": 1514, "slack_id": "U09189FTV2B", "display_name": "Silas", "bio": null, "projects_count": 0, "devlogs_count": 0, "votes_count": 0, "ships_count": 0, "projects": [], "coding_time_seconds": 311322, "coding_time_seconds_today": 831, "balance": "You need to have a pocket watcher badge to view this.", "badges": [], "created_at": "2025-06-16T13:25:15.164-04:00", "updated_at": "2025-07-03T19:17:59.248-04:00", "avatar": "https://secure.gravatar.com/avatar/7fbf7677ebf7593e869a5fc75244d34a.jpg?s=512&d=https%3A%2F%2Fa.slack-edge.com%2Fdf10d%2Fimg%2Favatars%2Fava_0000-512.png", "custom_css": null}, {"id": 1515, "slack_id": "U091M00K6CV", "display_name": "Gerten", "bio": null, "projects_count": 0, "devlogs_count": 0, "votes_count": 0, "ships_count": 0, "projects": [], "coding_time_seconds": 0, "coding_time_seconds_today": 0, "balance": "You need to have a pocket watcher badge to view this.", "badges": [], "created_at": "2025-06-16T13:25:19.818-04:00", "updated_at": "2025-07-03T19:17:59.513-04:00", "avatar": "https://secure.gravatar.com/avatar/7451dfe0ee2e90b7f85c071309726bc9.jpg?s=512&d=https%3A%2F%2Fa.slack-edge.com%2Fdf10d%2Fimg%2Favatars%2Fava_0009-512.png", "custom_css": null}, {"id": 1516, "slack_id": "U091Q1920VA", "display_name": "Andrea", "bio": null, "projects_count": 0, "devlogs_count": 0, "votes_count": 0, "ships_count": 0, "projects": [], "coding_time_seconds": 0, "coding_time_seconds_today": 0, "balance": "You need to have a pocket watcher badge to view this.", "badges": [], "created_at": "2025-06-16T13:25:29.655-04:00", "updated_at": "2025-07-03T19:17:59.793-04:00", "avatar": "https://secure.gravatar.com/avatar/78b16fa80e49e855ae93a54890a5a4be.jpg?s=512&d=https%3A%2F%2Fa.slack-edge.com%2Fdf10d%2Fimg%2Favatars%2Fava_0011-512.png", "custom_css": null}, {"id": 1517, "slack_id": "U07UUV30KU1", "display_name": "Kevin", "bio": "gr. 11 kid from ottawa\r\ni love game dev\r\n\r\nstarted coding to avoid school\r\nNow i\u2019m failing both.", "projects_count": 0, "devlogs_count": 52, "votes_count": 161, "ships_count": 0, "projects": [], "coding_time_seconds": 517266, "coding_time_seconds_today": 0, "balance": "You need to have a pocket watcher badge to view this.", "badges": [{"name": "Maiden Voyage", "text": "you shipped your first project! the journey begins...", "icon": "\ud83d\udea2"}, {"name": "Ballot Stuffer", "text": "vote 100 times.", "icon": "https://summer.hackclub.com/assets/i_voted-bf851b48.png"}], "created_at": "2025-06-16T13:25:34.282-04:00", "updated_at": "2025-09-10T22:51:54.349-04:00", "avatar": "https://avatars.slack-edge.com/2025-03-31/8679338222454_c976fae70eff2707ea0d_original.jpg", "custom_css": null}, {"id": 1518, "slack_id": "U091PJQJ6MQ", "display_name": "I", "bio": null, "projects_count": 0, "devlogs_count": 0, "votes_count": 0, "ships_count": 0, "projects": [], "coding_time_seconds": 0, "coding_time_seconds_today": 0, "balance": "You need to have a pocket watcher badge to view this.", "badges": [], "created_at": "2025-06-16T13:25:34.605-04:00", "updated_at": "2025-07-03T19:18:00.330-04:00", "avatar": "https://secure.gravatar.com/avatar/8ac40d017fdd2d4459968be14284687d.jpg?s=512&d=https%3A%2F%2Fa.slack-edge.com%2Fdf10d%2Fimg%2Favatars%2Fava_0006-512.png", "custom_css": null}, {"id": 1519, "slack_id": "U092C35DM7S", "display_name": "Mike", "bio": null, "projects_count": 0, "devlogs_count": 0, "votes_count": 0, "ships_count": 0, "projects": [], "coding_time_seconds": 0, "coding_time_seconds_today": 0, "balance": "You need to have a pocket watcher badge to view this.", "badges": [], "created_at": "2025-06-16T13:25:42.221-04:00", "updated_at": "2025-07-03T19:18:00.602-04:00", "avatar": "https://secure.gravatar.com/avatar/e37708b3a79dcfe7a65451ab759b08e8.jpg?s=512&d=https%3A%2F%2Fa.slack-edge.com%2Fdf10d%2Fimg%2Favatars%2Fava_0025-512.png", "custom_css": null}, {"id": 1520, "slack_id": "U092259597T", "display_name": "thalis", "bio": null, "projects_count": 0, "devlogs_count": 0, "votes_count": 0, "ships_count": 0, "projects": [], "coding_time_seconds": 0, "coding_time_seconds_today": 0, "balance": "You need to have a pocket watcher badge to view this.", "badges": [], "created_at": "2025-06-16T13:25:56.763-04:00", "updated_at": "2025-07-03T19:18:00.869-04:00", "avatar": "https://secure.gravatar.com/avatar/bebc518f90e3cfb1a2853b36a8db0608.jpg?s=512&d=https%3A%2F%2Fa.slack-edge.com%2Fdf10d%2Fimg%2Favatars%2Fava_0012-512.png", "custom_css": null}], "pagination": {"page": 76, "pages": 1192, "count": 23827, "items": 20}}