{"users": [{"id": 15266, "slack_id": "U07A5VAUGAG", "display_name": "Carter pfaff", "bio": null, "projects_count": 0, "devlogs_count": 0, "votes_count": 0, "ships_count": 0, "projects": [], "coding_time_seconds": 387540, "coding_time_seconds_today": 0, "balance": "You need to have a pocket watcher badge to view this.", "badges": [], "created_at": "2025-07-09T22:13:45.968-04:00", "updated_at": "2025-08-14T21:20:35.632-04:00", "avatar": "https://avatars.slack-edge.com/2025-08-14/9355287098402_08ac42df9179f95b7208_original.jpg", "custom_css": null}, {"id": 15267, "slack_id": "U076RE1PKGF", "display_name": "Yakshith Kommineni", "bio": null, "projects_count": 3, "devlogs_count": 9, "votes_count": 0, "ships_count": 0, "projects": [{"id": 8630, "title": "Trava", "devlogs_count": 5, "created_at": "2025-07-28T17:53:22.239-04:00"}, {"id": 8633, "title": "PackGodBot", "devlogs_count": 0, "created_at": "2025-07-28T17:55:38.979-04:00"}, {"id": 8635, "title": "Level0", "devlogs_count": 4, "created_at": "2025-07-28T17:56:48.621-04:00"}], "coding_time_seconds": 396739, "coding_time_seconds_today": 0, "balance": "You need to have a pocket watcher badge to view this.", "badges": [], "created_at": "2025-07-09T22:33:32.233-04:00", "updated_at": "2025-09-24T16:09:12.574-04:00", "avatar": "https://avatars.slack-edge.com/2024-06-07/7266832507536_eb38a362a861a30953a8_original.jpg", "custom_css": null}, {"id": 15268, "slack_id": "U07KGJ89MRQ", "display_name": "Eric Fernandes", "bio": null, "projects_count": 0, "devlogs_count": 0, "votes_count": 0, "ships_count": 0, "projects": [], "coding_time_seconds": 0, "coding_time_seconds_today": 0, "balance": "You need to have a pocket watcher badge to view this.", "badges": [], "created_at": "2025-07-09T22:34:53.112-04:00", "updated_at": "2025-07-09T22:35:02.660-04:00", "avatar": "https://avatars.slack-edge.com/2024-09-01/7655994169686_7fdae642ae0b2abde910_original.png", "custom_css": null}, {"id": 15269, "slack_id": "U094NDGV65V", "display_name": "Cw", "bio": null, "projects_count": 1, "devlogs_count": 0, "votes_count": 0, "ships_count": 0, "projects": [{"id": 6458, "title": "Peer Learning Platform", "devlogs_count": 0, "created_at": "2025-07-13T14:16:30.218-04:00"}], "coding_time_seconds": 106662, "coding_time_seconds_today": 0, "balance": "You need to have a pocket watcher badge to view this.", "badges": [], "created_at": "2025-07-09T22:44:44.656-04:00", "updated_at": "2025-07-13T15:11:41.462-04:00", "avatar": "https://secure.gravatar.com/avatar/2cd19999c8d5b49c86c53fe5fca0e8e1.jpg?s=512&d=https%3A%2F%2Fa.slack-edge.com%2Fdf10d%2Fimg%2Favatars%2Fava_0003-512.png", "custom_css": null}, {"id": 15270, "slack_id": "U0744BL3327", "display_name": "Nathan Perlman", "bio": null, "projects_count": 0, "devlogs_count": 0, "votes_count": 0, "ships_count": 0, "projects": [], "coding_time_seconds": 174540, "coding_time_seconds_today": 0, "balance": "You need to have a pocket watcher badge to view this.", "badges": [], "created_at": "2025-07-09T22:51:29.210-04:00", "updated_at": "2025-07-11T00:24:00.744-04:00", "avatar": "https://secure.gravatar.com/avatar/26dbc1c48d98e8d11e95e20e1cafae7c.jpg?s=512&d=https%3A%2F%2Fa.slack-edge.com%2Fdf10d%2Fimg%2Favatars%2Fava_0018-512.png", "custom_css": null}, {"id": 15271, "slack_id": "U0744BKFLAF", "display_name": "Edwin", "bio": null, "projects_count": 1, "devlogs_count": 4, "votes_count": 0, "ships_count": 0, "projects": [{"id": 8941, "title": "Model United Nations Website", "devlogs_count": 4, "created_at": "2025-07-29T20:05:58.408-04:00"}], "coding_time_seconds": 286390, "coding_time_seconds_today": 0, "balance": "You need to have a pocket watcher badge to view this.", "badges": [], "created_at": "2025-07-09T23:01:26.046-04:00", "updated_at": "2025-07-31T14:33:00.943-04:00", "avatar": "https://secure.gravatar.com/avatar/f5e7d6ff5f7e600f22f8cf3511d21c8b.jpg?s=512&d=https%3A%2F%2Fa.slack-edge.com%2Fdf10d%2Fimg%2Favatars%2Fava_0021-512.png", "custom_css": null}, {"id": 15272, "slack_id": "U084HSPHYEM", "display_name": "Xrime", "bio": null, "projects_count": 6, "devlogs_count": 25, "votes_count": 111, "ships_count": 5, "projects": [{"id": 6905, "title": "TicTacEase", "devlogs_count": 2, "created_at": "2025-07-17T08:44:38.094-04:00"}, {"id": 7342, "title": "Expense Tracker", "devlogs_count": 7, "created_at": "2025-07-21T04:46:27.396-04:00"}, {"id": 11732, "title": "ClimaX", "devlogs_count": 5, "created_at": "2025-08-19T00:35:07.060-04:00"}, {"id": 12918, "title": "SpaceShooterX", "devlogs_count": 10, "created_at": "2025-09-05T09:21:18.386-04:00"}, {"id": 12866, "title": "SkyMelete", "devlogs_count": 0, "created_at": "2025-09-03T23:59:16.127-04:00"}, {"id": 7409, "title": "Plant Garden", "devlogs_count": 1, "created_at": "2025-07-21T17:05:01.954-04:00"}], "coding_time_seconds": 297473, "coding_time_seconds_today": 4706, "balance": "You need to have a pocket watcher badge to view this.", "badges": [{"name": "Maiden Voyage", "text": "you shipped your first project! the journey begins...", "icon": "\ud83d\udea2"}, {"name": "Ballot Stuffer", "text": "vote 100 times.", "icon": "https://summer.hackclub.com/assets/i_voted-bf851b48.png"}], "created_at": "2025-07-09T23:48:02.902-04:00", "updated_at": "2025-09-24T01:12:07.948-04:00", "avatar": "https://secure.gravatar.com/avatar/c4326a2acaa19c0d1c1988b4c935e0bc.jpg?s=512&d=https%3A%2F%2Fa.slack-edge.com%2Fdf10d%2Fimg%2Favatars%2Fava_0000-512.png", "custom_css": null}, {"id": 15273, "slack_id": "U095J8GN709", "display_name": "Shardul Gurav", "bio": null, "projects_count": 0, "devlogs_count": 0, "votes_count": 0, "ships_count": 0, "projects": [], "coding_time_seconds": 0, "coding_time_seconds_today": 0, "balance": "You need to have a pocket watcher badge to view this.", "badges": [], "created_at": "2025-07-10T00:38:57.142-04:00", "updated_at": "2025-07-10T03:20:55.494-04:00", "avatar": "https://secure.gravatar.com/avatar/265f2c57f2b16fb9228f38c956a32cd0.jpg?s=512&d=https%3A%2F%2Fa.slack-edge.com%2Fdf10d%2Fimg%2Favatars%2Fava_0008-512.png", "custom_css": null}, {"id": 15274, "slack_id": "U0953P4CK7F", "display_name": "fastbook", "bio": null, "projects_count": 0, "devlogs_count": 0, "votes_count": 0, "ships_count": 0, "projects": [], "coding_time_seconds": 0, "coding_time_seconds_today": 0, "balance": "You need to have a pocket watcher badge to view this.", "badges": [], "created_at": "2025-07-10T00:46:48.813-04:00", "updated_at": "2025-07-10T03:20:55.576-04:00", "avatar": "https://secure.gravatar.com/avatar/7628b9daec5f551944587b112394eef0.jpg?s=512&d=https%3A%2F%2Fa.slack-edge.com%2Fdf10d%2Fimg%2Favatars%2Fava_0005-512.png", "custom_css": null}, {"id": 15275, "slack_id": "U08RGLPSDHT", "display_name": "Adhitya Nadooli", "bio": null, "projects_count": 0, "devlogs_count": 0, "votes_count": 0, "ships_count": 0, "projects": [], "coding_time_seconds": 471909, "coding_time_seconds_today": 0, "balance": "You need to have a pocket watcher badge to view this.", "badges": [], "created_at": "2025-07-10T00:52:36.917-04:00", "updated_at": "2025-07-10T03:20:55.667-04:00", "avatar": "https://avatars.slack-edge.com/2025-05-09/8887856519665_2cac134ee1f65d29cf4a_original.png", "custom_css": null}, {"id": 15276, "slack_id": "U0956JX8FK6", "display_name": "Wisanggeni Widiyatmoko", "bio": null, "projects_count": 0, "devlogs_count": 0, "votes_count": 0, "ships_count": 0, "projects": [], "coding_time_seconds": 139339, "coding_time_seconds_today": 0, "balance": "You need to have a pocket watcher badge to view this.", "badges": [], "created_at": "2025-07-10T01:03:03.314-04:00", "updated_at": "2025-07-10T22:59:32.069-04:00", "avatar": "https://avatars.slack-edge.com/2025-07-09/9162034649015_1f7063c596501dd93eb5_original.png", "custom_css": null}, {"id": 15277, "slack_id": "U08TJ257D60", "display_name": "Drishti Arora", "bio": null, "projects_count": 0, "devlogs_count": 0, "votes_count": 0, "ships_count": 0, "projects": [], "coding_time_seconds": 0, "coding_time_seconds_today": 0, "balance": "You need to have a pocket watcher badge to view this.", "badges": [], "created_at": "2025-07-10T01:04:57.094-04:00", "updated_at": "2025-07-10T12:14:12.791-04:00", "avatar": "https://secure.gravatar.com/avatar/97ae42b5d3c6f5463b04ca6a466731ac.jpg?s=512&d=https%3A%2F%2Fa.slack-edge.com%2Fdf10d%2Fimg%2Favatars%2Fava_0023-512.png", "custom_css": null}, {"id": 15278, "slack_id": "U08A8UJUBK7", "display_name": "Vishesh Waghmore", "bio": null, "projects_count": 1, "devlogs_count": 0, "votes_count": 0, "ships_count": 0, "projects": [{"id": 6238, "title": "Air Writing", "devlogs_count": 0, "created_at": "2025-07-11T13:40:48.368-04:00"}], "coding_time_seconds": 120158, "coding_time_seconds_today": 0, "balance": "You need to have a pocket watcher badge to view this.", "badges": [], "created_at": "2025-07-10T01:08:44.617-04:00", "updated_at": "2025-07-11T13:03:45.559-04:00", "avatar": "https://secure.gravatar.com/avatar/ffe0ee099868e0a9dc8375db05abbb7b.jpg?s=512&d=https%3A%2F%2Fa.slack-edge.com%2Fdf10d%2Fimg%2Favatars%2Fava_0023-512.png", "custom_css": null}, {"id": 15279, "slack_id": "U07DJ67A4D8", "display_name": "Vedant", "bio": null, "projects_count": 0, "devlogs_count": 0, "votes_count": 0, "ships_count": 0, "projects": [], "coding_time_seconds": 646907, "coding_time_seconds_today": 10834, "balance": "You need to have a pocket watcher badge to view this.", "badges": [], "created_at": "2025-07-10T01:10:49.388-04:00", "updated_at": "2025-08-05T00:32:31.942-04:00", "avatar": "https://avatars.slack-edge.com/2024-07-22/7445656434823_abaae1092029ab144639_original.jpg", "custom_css": null}, {"id": 15280, "slack_id": "U08FQ01CEPM", "display_name": "stephanie", "bio": null, "projects_count": 1, "devlogs_count": 0, "votes_count": 0, "ships_count": 0, "projects": [{"id": 7293, "title": "stephanie's shelf ", "devlogs_count": 0, "created_at": "2025-07-20T17:07:56.473-04:00"}], "coding_time_seconds": 682052, "coding_time_seconds_today": 120, "balance": "You need to have a pocket watcher badge to view this.", "badges": [], "created_at": "2025-07-10T01:14:43.706-04:00", "updated_at": "2025-09-23T05:13:31.309-04:00", "avatar": "https://avatars.slack-edge.com/2025-07-20/9220931461699_11e518adb2ded0f2ebae_original.png", "custom_css": null}, {"id": 15281, "slack_id": "U08S8T00P0W", "display_name": "vlat", "bio": null, "projects_count": 0, "devlogs_count": 0, "votes_count": 0, "ships_count": 0, "projects": [], "coding_time_seconds": 204799, "coding_time_seconds_today": 0, "balance": "You need to have a pocket watcher badge to view this.", "badges": [], "created_at": "2025-07-10T01:22:01.305-04:00", "updated_at": "2025-08-12T01:20:49.610-04:00", "avatar": "https://secure.gravatar.com/avatar/27ab3c4100aa4c3440de22544a5bf77b.jpg?s=512&d=https%3A%2F%2Fa.slack-edge.com%2Fdf10d%2Fimg%2Favatars%2Fava_0026-512.png", "custom_css": null}, {"id": 15282, "slack_id": "U0951EZFU22", "display_name": "pogeku", "bio": null, "projects_count": 0, "devlogs_count": 0, "votes_count": 0, "ships_count": 0, "projects": [], "coding_time_seconds": 0, "coding_time_seconds_today": 0, "balance": "You need to have a pocket watcher badge to view this.", "badges": [], "created_at": "2025-07-10T01:25:29.578-04:00", "updated_at": "2025-07-11T01:50:24.595-04:00", "avatar": "https://secure.gravatar.com/avatar/db6a4d430112a3044ac23f2977012d57.jpg?s=512&d=https%3A%2F%2Fa.slack-edge.com%2Fdf10d%2Fimg%2Favatars%2Fava_0014-512.png", "custom_css": null}, {"id": 15283, "slack_id": "U0951HN36DU", "display_name": "Parth Kulkarni", "bio": null, "projects_count": 0, "devlogs_count": 0, "votes_count": 0, "ships_count": 0, "projects": [], "coding_time_seconds": 22776, "coding_time_seconds_today": 0, "balance": "You need to have a pocket watcher badge to view this.", "badges": [], "created_at": "2025-07-10T01:49:51.945-04:00", "updated_at": "2025-07-10T03:20:56.329-04:00", "avatar": "https://secure.gravatar.com/avatar/4ba01bfe9659a1295b93c50ea1a82102.jpg?s=512&d=https%3A%2F%2Fa.slack-edge.com%2Fdf10d%2Fimg%2Favatars%2Fava_0011-512.png", "custom_css": null}, {"id": 15284, "slack_id": "U08J6SB45JM", "display_name": "Areeb Ahmad Syed", "bio": null, "projects_count": 0, "devlogs_count": 0, "votes_count": 0, "ships_count": 0, "projects": [], "coding_time_seconds": 51607, "coding_time_seconds_today": 0, "balance": "You need to have a pocket watcher badge to view this.", "badges": [], "created_at": "2025-07-10T01:51:16.918-04:00", "updated_at": "2025-07-10T02:30:56.097-04:00", "avatar": "https://avatars.slack-edge.com/2025-03-15/8593238736615_b347021b6f831aa1ad4d_original.png", "custom_css": null}, {"id": 15285, "slack_id": "U07DC174SDU", "display_name": "olio", "bio": null, "projects_count": 4, "devlogs_count": 20, "votes_count": 41, "ships_count": 2, "projects": [{"id": 8805, "title": "YAPDA", "devlogs_count": 1, "created_at": "2025-07-29T10:18:12.171-04:00"}, {"id": 8890, "title": "Show time!", "devlogs_count": 11, "created_at": "2025-07-29T15:17:25.597-04:00"}, {"id": 6567, "title": "HumanJIT", "devlogs_count": 5, "created_at": "2025-07-14T09:35:39.880-04:00"}, {"id": 8889, "title": "TinglyTanks", "devlogs_count": 3, "created_at": "2025-07-29T15:16:14.110-04:00"}], "coding_time_seconds": 177102, "coding_time_seconds_today": 954, "balance": "You need to have a pocket watcher badge to view this.", "badges": [{"name": "Maiden Voyage", "text": "you shipped your first project! the journey begins...", "icon": "\ud83d\udea2"}], "created_at": "2025-07-10T02:29:07.623-04:00", "updated_at": "2025-09-10T22:58:42.778-04:00", "avatar": "https://avatars.slack-edge.com/2025-06-01/8983793642308_78a25e06079441e2f20b_original.png", "custom_css": null}], "pagination": {"page": 760, "pages": 1192, "count": 23828, "items": 20}}