{"users": [{"id": 15286, "slack_id": "U07URV8HZEJ", "display_name": "andrew", "bio": null, "projects_count": 1, "devlogs_count": 18, "votes_count": 21, "ships_count": 1, "projects": [{"id": 8745, "title": "HydroHabit", "devlogs_count": 18, "created_at": "2025-07-29T05:14:45.889-04:00"}], "coding_time_seconds": 193920, "coding_time_seconds_today": 0, "balance": "You need to have a pocket watcher badge to view this.", "badges": [{"name": "Maiden Voyage", "text": "you shipped your first project! the journey begins...", "icon": "\ud83d\udea2"}], "created_at": "2025-07-10T02:29:39.818-04:00", "updated_at": "2025-09-10T22:58:42.800-04:00", "avatar": "https://avatars.slack-edge.com/2025-04-01/8692809929730_71500c9bb582a5efbd0d_original.png", "custom_css": null}, {"id": 15287, "slack_id": "U094SCNBLAK", "display_name": "May the Tan be with", "bio": null, "projects_count": 0, "devlogs_count": 0, "votes_count": 0, "ships_count": 0, "projects": [], "coding_time_seconds": 3, "coding_time_seconds_today": 0, "balance": "You need to have a pocket watcher badge to view this.", "badges": [], "created_at": "2025-07-10T02:59:35.136-04:00", "updated_at": "2025-07-10T03:21:00.688-04:00", "avatar": "https://secure.gravatar.com/avatar/05e97b48485d0950636d848c930fbc1a.jpg?s=512&d=https%3A%2F%2Fa.slack-edge.com%2Fdf10d%2Fimg%2Favatars%2Fava_0024-512.png", "custom_css": null}, {"id": 15288, "slack_id": "U094ZU993MH", "display_name": "manthan", "bio": null, "projects_count": 0, "devlogs_count": 0, "votes_count": 0, "ships_count": 0, "projects": [], "coding_time_seconds": 0, "coding_time_seconds_today": 0, "balance": "You need to have a pocket watcher badge to view this.", "badges": [], "created_at": "2025-07-10T03:21:30.915-04:00", "updated_at": "2025-07-10T09:20:50.380-04:00", "avatar": "https://secure.gravatar.com/avatar/7acf775cfef319a7e02d781e498ba0ed.jpg?s=512&d=https%3A%2F%2Fa.slack-edge.com%2Fdf10d%2Fimg%2Favatars%2Fava_0014-512.png", "custom_css": null}, {"id": 15289, "slack_id": "U095779HG3E", "display_name": "Create Shadow", "bio": null, "projects_count": 1, "devlogs_count": 0, "votes_count": 0, "ships_count": 0, "projects": [{"id": 6029, "title": "LoomCal", "devlogs_count": 0, "created_at": "2025-07-10T04:59:45.307-04:00"}], "coding_time_seconds": 36458, "coding_time_seconds_today": 0, "balance": "You need to have a pocket watcher badge to view this.", "badges": [], "created_at": "2025-07-10T03:39:31.894-04:00", "updated_at": "2025-07-10T11:58:18.833-04:00", "avatar": "https://avatars.slack-edge.com/2025-07-10/9170065083491_999b691993fc4fa59bed_original.png", "custom_css": null}, {"id": 15290, "slack_id": "U09501TLA59", "display_name": "Ann", "bio": null, "projects_count": 0, "devlogs_count": 0, "votes_count": 0, "ships_count": 0, "projects": [], "coding_time_seconds": 0, "coding_time_seconds_today": 0, "balance": "You need to have a pocket watcher badge to view this.", "badges": [], "created_at": "2025-07-10T03:41:02.103-04:00", "updated_at": "2025-07-10T09:20:50.560-04:00", "avatar": "https://secure.gravatar.com/avatar/1d8ee603fc56a0a9ab929fe24907e1a6.jpg?s=512&d=https%3A%2F%2Fa.slack-edge.com%2Fdf10d%2Fimg%2Favatars%2Fava_0005-512.png", "custom_css": null}, {"id": 15291, "slack_id": "U095TL03WJC", "display_name": "Parth", "bio": null, "projects_count": 0, "devlogs_count": 0, "votes_count": 0, "ships_count": 0, "projects": [], "coding_time_seconds": 0, "coding_time_seconds_today": 0, "balance": "You need to have a pocket watcher badge to view this.", "badges": [], "created_at": "2025-07-10T03:47:19.827-04:00", "updated_at": "2025-07-10T12:14:14.087-04:00", "avatar": "https://secure.gravatar.com/avatar/622b304b527b39e37a3a53ad211efc82.jpg?s=512&d=https%3A%2F%2Fa.slack-edge.com%2Fdf10d%2Fimg%2Favatars%2Fava_0000-512.png", "custom_css": null}, {"id": 15292, "slack_id": "U08RWHY200H", "display_name": "Atmudia", "bio": null, "projects_count": 1, "devlogs_count": 17, "votes_count": 0, "ships_count": 0, "projects": [{"id": 8639, "title": "WantIt", "devlogs_count": 17, "created_at": "2025-07-28T18:14:59.841-04:00"}], "coding_time_seconds": 264276, "coding_time_seconds_today": 0, "balance": "You need to have a pocket watcher badge to view this.", "badges": [], "created_at": "2025-07-10T03:48:14.780-04:00", "updated_at": "2025-07-10T06:21:24.685-04:00", "avatar": "https://avatars.slack-edge.com/2025-05-08/8866549670645_53c00b9f44139981f560_original.png", "custom_css": null}, {"id": 15293, "slack_id": "U094SNE4ZAT", "display_name": "Sambhav Aryal", "bio": null, "projects_count": 0, "devlogs_count": 0, "votes_count": 0, "ships_count": 0, "projects": [], "coding_time_seconds": 0, "coding_time_seconds_today": 0, "balance": "You need to have a pocket watcher badge to view this.", "badges": [], "created_at": "2025-07-10T04:10:01.255-04:00", "updated_at": "2025-07-11T00:30:53.215-04:00", "avatar": "https://avatars.slack-edge.com/2025-07-10/9162779372407_73c25405967d18a130bd_original.png", "custom_css": null}, {"id": 15294, "slack_id": "U07H3UB9U0H", "display_name": "Daniel", "bio": null, "projects_count": 0, "devlogs_count": 0, "votes_count": 0, "ships_count": 0, "projects": [], "coding_time_seconds": 388848, "coding_time_seconds_today": 0, "balance": "You need to have a pocket watcher badge to view this.", "badges": [], "created_at": "2025-07-10T04:18:53.000-04:00", "updated_at": "2025-08-20T21:20:45.810-04:00", "avatar": "https://avatars.slack-edge.com/2025-08-20/9381106239573_72e02ff5c02b891b8729_original.png", "custom_css": null}, {"id": 15295, "slack_id": "U09507TDZMZ", "display_name": "hamza essafar", "bio": null, "projects_count": 0, "devlogs_count": 0, "votes_count": 0, "ships_count": 0, "projects": [], "coding_time_seconds": 0, "coding_time_seconds_today": 0, "balance": "You need to have a pocket watcher badge to view this.", "badges": [], "created_at": "2025-07-10T04:22:06.600-04:00", "updated_at": "2025-07-10T09:20:50.927-04:00", "avatar": "https://secure.gravatar.com/avatar/e8f7b14725708021e92296c21c6f486b.jpg?s=512&d=https%3A%2F%2Fa.slack-edge.com%2Fdf10d%2Fimg%2Favatars%2Fava_0007-512.png", "custom_css": null}, {"id": 15296, "slack_id": "U0954KUMFKP", "display_name": "Carrot", "bio": null, "projects_count": 0, "devlogs_count": 0, "votes_count": 0, "ships_count": 0, "projects": [], "coding_time_seconds": 0, "coding_time_seconds_today": 0, "balance": "You need to have a pocket watcher badge to view this.", "badges": [], "created_at": "2025-07-10T04:26:12.456-04:00", "updated_at": "2025-07-10T09:20:50.998-04:00", "avatar": "https://secure.gravatar.com/avatar/8aaecce118a24591f9d3adde927f5084.jpg?s=512&d=https%3A%2F%2Fa.slack-edge.com%2Fdf10d%2Fimg%2Favatars%2Fava_0021-512.png", "custom_css": null}, {"id": 15297, "slack_id": "U0957CNUUSG", "display_name": "Abdul Munam", "bio": null, "projects_count": 0, "devlogs_count": 0, "votes_count": 0, "ships_count": 0, "projects": [], "coding_time_seconds": 0, "coding_time_seconds_today": 0, "balance": "You need to have a pocket watcher badge to view this.", "badges": [], "created_at": "2025-07-10T04:29:11.913-04:00", "updated_at": "2025-07-10T09:20:51.089-04:00", "avatar": "https://avatars.slack-edge.com/2025-07-10/9174702788005_fa566429af043d94f196_original.png", "custom_css": null}, {"id": 15298, "slack_id": "U08BK9UEC9Y", "display_name": "CTROLLPLAYZ", "bio": null, "projects_count": 3, "devlogs_count": 12, "votes_count": 25, "ships_count": 2, "projects": [{"id": 8035, "title": "TracFarm", "devlogs_count": 1, "created_at": "2025-07-24T07:57:33.599-04:00"}, {"id": 13653, "title": "DigiteX", "devlogs_count": 3, "created_at": "2025-09-22T06:25:51.498-04:00"}, {"id": 6270, "title": "CashCow", "devlogs_count": 8, "created_at": "2025-07-11T21:52:41.789-04:00"}], "coding_time_seconds": 169883, "coding_time_seconds_today": 8645, "balance": "You need to have a pocket watcher badge to view this.", "badges": [{"name": "Maiden Voyage", "text": "you shipped your first project! the journey begins...", "icon": "\ud83d\udea2"}], "created_at": "2025-07-10T04:29:12.819-04:00", "updated_at": "2025-09-24T16:52:48.499-04:00", "avatar": "https://avatars.slack-edge.com/2025-02-04/8414603083185_d0a356cf02d4087b1daf_original.png", "custom_css": null}, {"id": 15299, "slack_id": "U095TUAG4SC", "display_name": "Akshay", "bio": null, "projects_count": 0, "devlogs_count": 0, "votes_count": 0, "ships_count": 0, "projects": [], "coding_time_seconds": 0, "coding_time_seconds_today": 0, "balance": "You need to have a pocket watcher badge to view this.", "badges": [], "created_at": "2025-07-10T04:43:34.423-04:00", "updated_at": "2025-07-10T09:20:51.220-04:00", "avatar": "https://secure.gravatar.com/avatar/9f742560792fbdcc68d7062c3596509c.jpg?s=512&d=https%3A%2F%2Fa.slack-edge.com%2Fdf10d%2Fimg%2Favatars%2Fava_0013-512.png", "custom_css": null}, {"id": 15300, "slack_id": "U0952JEN9DL", "display_name": "Rinta\u308a\u3093\u305f", "bio": null, "projects_count": 2, "devlogs_count": 1, "votes_count": 1, "ships_count": 0, "projects": [{"id": 8276, "title": "A useful little gizmo", "devlogs_count": 0, "created_at": "2025-07-25T23:27:06.230-04:00"}, {"id": 8319, "title": "VRC tracking: Trying out Joy-Cons with Camera", "devlogs_count": 1, "created_at": "2025-07-26T07:07:13.785-04:00"}], "coding_time_seconds": 403739, "coding_time_seconds_today": 1491, "balance": "You need to have a pocket watcher badge to view this.", "badges": [], "created_at": "2025-07-10T05:22:48.237-04:00", "updated_at": "2025-07-16T01:18:51.503-04:00", "avatar": "https://secure.gravatar.com/avatar/e58076035db1350c9fc8ccffac16ae0d.jpg?s=512&d=https%3A%2F%2Fa.slack-edge.com%2Fdf10d%2Fimg%2Favatars%2Fava_0004-512.png", "custom_css": null}, {"id": 15301, "slack_id": "U0957PC71DJ", "display_name": "Max_Gamet", "bio": null, "projects_count": 0, "devlogs_count": 0, "votes_count": 0, "ships_count": 0, "projects": [], "coding_time_seconds": 10869, "coding_time_seconds_today": 0, "balance": "You need to have a pocket watcher badge to view this.", "badges": [], "created_at": "2025-07-10T05:33:56.604-04:00", "updated_at": "2025-07-10T09:20:51.387-04:00", "avatar": "https://secure.gravatar.com/avatar/791aa28436c41db51804b11891a049bd.jpg?s=512&d=https%3A%2F%2Fa.slack-edge.com%2Fdf10d%2Fimg%2Favatars%2Fava_0024-512.png", "custom_css": null}, {"id": 15302, "slack_id": "U078N3TA33P", "display_name": "croatia-dev", "bio": null, "projects_count": 0, "devlogs_count": 0, "votes_count": 0, "ships_count": 0, "projects": [], "coding_time_seconds": 0, "coding_time_seconds_today": 0, "balance": "You need to have a pocket watcher badge to view this.", "badges": [], "created_at": "2025-07-10T05:35:20.737-04:00", "updated_at": "2025-07-10T05:37:47.725-04:00", "avatar": "https://secure.gravatar.com/avatar/eb829bd6acc41c8ae6613cce40679e2d.jpg?s=512&d=https%3A%2F%2Fa.slack-edge.com%2Fdf10d%2Fimg%2Favatars%2Fava_0009-512.png", "custom_css": null}, {"id": 15303, "slack_id": "U095KJ07YL9", "display_name": "manoj", "bio": null, "projects_count": 0, "devlogs_count": 0, "votes_count": 0, "ships_count": 0, "projects": [], "coding_time_seconds": 0, "coding_time_seconds_today": 0, "balance": "You need to have a pocket watcher badge to view this.", "badges": [], "created_at": "2025-07-10T05:48:47.980-04:00", "updated_at": "2025-07-10T09:20:51.536-04:00", "avatar": "https://avatars.slack-edge.com/2025-07-10/9176178050514_08c251b067536f379b86_original.png", "custom_css": null}, {"id": 15304, "slack_id": "U08RPK27GSF", "display_name": "shush", "bio": null, "projects_count": 0, "devlogs_count": 0, "votes_count": 0, "ships_count": 0, "projects": [], "coding_time_seconds": 651687, "coding_time_seconds_today": 0, "balance": "You need to have a pocket watcher badge to view this.", "badges": [], "created_at": "2025-07-10T06:00:38.384-04:00", "updated_at": "2025-08-22T21:20:54.232-04:00", "avatar": "https://avatars.slack-edge.com/2025-08-23/9383820635223_88549e4b0ef8a24483dd_original.png", "custom_css": null}, {"id": 15305, "slack_id": "U079NUGD1CJ", "display_name": "Arnav Chauhan", "bio": null, "projects_count": 0, "devlogs_count": 0, "votes_count": 0, "ships_count": 0, "projects": [], "coding_time_seconds": 301644, "coding_time_seconds_today": 0, "balance": "You need to have a pocket watcher badge to view this.", "badges": [], "created_at": "2025-07-10T06:06:18.205-04:00", "updated_at": "2025-07-10T09:20:51.708-04:00", "avatar": "https://avatars.slack-edge.com/2025-03-09/8578167601108_06e7a8bab865f2647dfc_original.png", "custom_css": null}], "pagination": {"page": 761, "pages": 1192, "count": 23828, "items": 20}}