{"users": [{"id": 15306, "slack_id": "U095KRWCLHF", "display_name": "Bumblebee", "bio": null, "projects_count": 0, "devlogs_count": 0, "votes_count": 0, "ships_count": 0, "projects": [], "coding_time_seconds": 0, "coding_time_seconds_today": 0, "balance": "You need to have a pocket watcher badge to view this.", "badges": [], "created_at": "2025-07-10T06:47:39.915-04:00", "updated_at": "2025-07-10T12:14:16.586-04:00", "avatar": "https://secure.gravatar.com/avatar/d38435bc9a20fa56820b14ca7410c89b.jpg?s=512&d=https%3A%2F%2Fa.slack-edge.com%2Fdf10d%2Fimg%2Favatars%2Fava_0022-512.png", "custom_css": null}, {"id": 15307, "slack_id": "U09580RN144", "display_name": "Adetona Blessing", "bio": null, "projects_count": 0, "devlogs_count": 0, "votes_count": 0, "ships_count": 0, "projects": [], "coding_time_seconds": 15311, "coding_time_seconds_today": 0, "balance": "You need to have a pocket watcher badge to view this.", "badges": [], "created_at": "2025-07-10T06:49:20.690-04:00", "updated_at": "2025-07-20T03:19:01.657-04:00", "avatar": "https://secure.gravatar.com/avatar/136db2b4439ea77ab94c09f43476bdd9.jpg?s=512&d=https%3A%2F%2Fa.slack-edge.com%2Fdf10d%2Fimg%2Favatars%2Fava_0025-512.png", "custom_css": null}, {"id": 15308, "slack_id": "U095KV7A7B3", "display_name": "Jestem", "bio": null, "projects_count": 0, "devlogs_count": 0, "votes_count": 0, "ships_count": 0, "projects": [], "coding_time_seconds": 0, "coding_time_seconds_today": 0, "balance": "You need to have a pocket watcher badge to view this.", "badges": [], "created_at": "2025-07-10T07:13:35.334-04:00", "updated_at": "2025-07-10T09:20:55.977-04:00", "avatar": "https://secure.gravatar.com/avatar/8f046db9ca1526558fc3fb80e233c1a0.jpg?s=512&d=https%3A%2F%2Fa.slack-edge.com%2Fdf10d%2Fimg%2Favatars%2Fava_0022-512.png", "custom_css": null}, {"id": 15309, "slack_id": "U095UMU7DEU", "display_name": "TheStrom", "bio": null, "projects_count": 1, "devlogs_count": 2, "votes_count": 1, "ships_count": 0, "projects": [{"id": 6192, "title": "Intel 8080 Emulator", "devlogs_count": 2, "created_at": "2025-07-11T08:23:33.834-04:00"}], "coding_time_seconds": 31491, "coding_time_seconds_today": 0, "balance": "You need to have a pocket watcher badge to view this.", "badges": [], "created_at": "2025-07-10T07:28:32.270-04:00", "updated_at": "2025-08-26T22:39:14.952-04:00", "avatar": "https://secure.gravatar.com/avatar/d944613f5c10a1d27c28f87847026312.jpg?s=512&d=https%3A%2F%2Fa.slack-edge.com%2Fdf10d%2Fimg%2Favatars%2Fava_0026-512.png", "custom_css": null}, {"id": 15310, "slack_id": "U095KPG1C57", "display_name": "Archie", "bio": null, "projects_count": 2, "devlogs_count": 3, "votes_count": 14, "ships_count": 1, "projects": [{"id": 6170, "title": "Join Message Plus", "devlogs_count": 2, "created_at": "2025-07-11T04:16:39.049-04:00"}, {"id": 6874, "title": "AMT - SJHS", "devlogs_count": 1, "created_at": "2025-07-17T02:37:22.835-04:00"}], "coding_time_seconds": 95931, "coding_time_seconds_today": 0, "balance": "You need to have a pocket watcher badge to view this.", "badges": [{"name": "Maiden Voyage", "text": "you shipped your first project! the journey begins...", "icon": "\ud83d\udea2"}], "created_at": "2025-07-10T07:32:36.003-04:00", "updated_at": "2025-09-10T22:58:43.283-04:00", "avatar": "https://secure.gravatar.com/avatar/d7eda675bf3cf4d224844944b52d542c.jpg?s=512&d=https%3A%2F%2Fa.slack-edge.com%2Fdf10d%2Fimg%2Favatars%2Fava_0007-512.png", "custom_css": null}, {"id": 15311, "slack_id": "U0955GM4PRB", "display_name": "linus", "bio": null, "projects_count": 0, "devlogs_count": 89, "votes_count": 50, "ships_count": 0, "projects": [], "coding_time_seconds": 716462, "coding_time_seconds_today": 0, "balance": "You need to have a pocket watcher badge to view this.", "badges": [{"name": "Maiden Voyage", "text": "you shipped your first project! the journey begins...", "icon": "\ud83d\udea2"}, {"name": "Ballot Stuffer", "text": "vote 100 times.", "icon": "https://summer.hackclub.com/assets/i_voted-bf851b48.png"}], "created_at": "2025-07-10T07:56:04.571-04:00", "updated_at": "2025-09-10T22:58:43.310-04:00", "avatar": "https://secure.gravatar.com/avatar/9957d90dbaa31531fa2f80929ddcbd79.jpg?s=512&d=https%3A%2F%2Fa.slack-edge.com%2Fdf10d%2Fimg%2Favatars%2Fava_0021-512.png", "custom_css": null}, {"id": 15312, "slack_id": "U079Z9ZKHCH", "display_name": "PabRubio", "bio": null, "projects_count": 0, "devlogs_count": 0, "votes_count": 0, "ships_count": 0, "projects": [], "coding_time_seconds": 178128, "coding_time_seconds_today": 0, "balance": "You need to have a pocket watcher badge to view this.", "badges": [], "created_at": "2025-07-10T08:29:37.232-04:00", "updated_at": "2025-07-10T09:20:56.280-04:00", "avatar": "https://avatars.slack-edge.com/2024-07-10/7401000853893_004fc402de6a7663ab4d_original.png", "custom_css": null}, {"id": 15313, "slack_id": "U0956TP9XSN", "display_name": "Ibrahim Al-Howaid", "bio": null, "projects_count": 0, "devlogs_count": 7, "votes_count": 13, "ships_count": 0, "projects": [], "coding_time_seconds": 45798, "coding_time_seconds_today": 0, "balance": "You need to have a pocket watcher badge to view this.", "badges": [{"name": "Maiden Voyage", "text": "you shipped your first project! the journey begins...", "icon": "\ud83d\udea2"}], "created_at": "2025-07-10T08:50:50.894-04:00", "updated_at": "2025-09-10T22:58:43.401-04:00", "avatar": "https://secure.gravatar.com/avatar/7b4aece23d3431572eb5fc8f95bc000e.jpg?s=512&d=https%3A%2F%2Fa.slack-edge.com%2Fdf10d%2Fimg%2Favatars%2Fava_0001-512.png", "custom_css": null}, {"id": 15314, "slack_id": "U08TU0J3R41", "display_name": "Jade", "bio": null, "projects_count": 2, "devlogs_count": 2, "votes_count": 4, "ships_count": 0, "projects": [{"id": 6062, "title": "PolyQuest - Learn new skills ", "devlogs_count": 2, "created_at": "2025-07-10T09:57:51.688-04:00"}, {"id": 6665, "title": "Vampire Tonic - Theme for tonic YSWS", "devlogs_count": 0, "created_at": "2025-07-14T23:08:11.846-04:00"}], "coding_time_seconds": 37549, "coding_time_seconds_today": 0, "balance": "You need to have a pocket watcher badge to view this.", "badges": [], "created_at": "2025-07-10T09:25:26.503-04:00", "updated_at": "2025-07-10T09:59:58.151-04:00", "avatar": "https://avatars.slack-edge.com/2025-05-21/8936520322756_8b605920dfbb76f739df_original.jpg", "custom_css": null}, {"id": 15315, "slack_id": "U0951QJ26HZ", "display_name": "Tenilzes", "bio": null, "projects_count": 0, "devlogs_count": 0, "votes_count": 0, "ships_count": 0, "projects": [], "coding_time_seconds": 0, "coding_time_seconds_today": 0, "balance": "You need to have a pocket watcher badge to view this.", "badges": [], "created_at": "2025-07-10T09:32:15.812-04:00", "updated_at": "2025-07-10T21:21:14.244-04:00", "avatar": "https://secure.gravatar.com/avatar/494bba9c906062266dcafcd183f0e367.jpg?s=512&d=https%3A%2F%2Fa.slack-edge.com%2Fdf10d%2Fimg%2Favatars%2Fava_0010-512.png", "custom_css": null}, {"id": 15316, "slack_id": "U09564A0FM3", "display_name": "Alex", "bio": null, "projects_count": 0, "devlogs_count": 0, "votes_count": 0, "ships_count": 0, "projects": [], "coding_time_seconds": 0, "coding_time_seconds_today": 0, "balance": "You need to have a pocket watcher badge to view this.", "badges": [], "created_at": "2025-07-10T09:37:02.297-04:00", "updated_at": "2025-07-10T21:21:14.320-04:00", "avatar": "https://secure.gravatar.com/avatar/695d2b53e5a6431f45f90dcf9f64e35c.jpg?s=512&d=https%3A%2F%2Fa.slack-edge.com%2Fdf10d%2Fimg%2Favatars%2Fava_0003-512.png", "custom_css": null}, {"id": 15317, "slack_id": "U094UA8D5HD", "display_name": "Lankenua", "bio": null, "projects_count": 0, "devlogs_count": 0, "votes_count": 0, "ships_count": 0, "projects": [], "coding_time_seconds": 0, "coding_time_seconds_today": 0, "balance": "You need to have a pocket watcher badge to view this.", "badges": [], "created_at": "2025-07-10T09:48:35.088-04:00", "updated_at": "2025-07-10T21:21:14.402-04:00", "avatar": "https://secure.gravatar.com/avatar/971ded4183129908cfb3c74b0b90201b.jpg?s=512&d=https%3A%2F%2Fa.slack-edge.com%2Fdf10d%2Fimg%2Favatars%2Fava_0012-512.png", "custom_css": null}, {"id": 15318, "slack_id": "U0951TMLURH", "display_name": "Akhilesh", "bio": null, "projects_count": 0, "devlogs_count": 0, "votes_count": 0, "ships_count": 0, "projects": [], "coding_time_seconds": 0, "coding_time_seconds_today": 0, "balance": "You need to have a pocket watcher badge to view this.", "badges": [], "created_at": "2025-07-10T09:49:24.978-04:00", "updated_at": "2025-07-10T21:21:14.486-04:00", "avatar": "https://secure.gravatar.com/avatar/e88b9a572e052b23ff4bbfbf0551f699.jpg?s=512&d=https%3A%2F%2Fa.slack-edge.com%2Fdf10d%2Fimg%2Favatars%2Fava_0009-512.png", "custom_css": null}, {"id": 15319, "slack_id": "U0953VC88BY", "display_name": "sorry2hacku", "bio": null, "projects_count": 0, "devlogs_count": 0, "votes_count": 0, "ships_count": 0, "projects": [], "coding_time_seconds": 0, "coding_time_seconds_today": 0, "balance": "You need to have a pocket watcher badge to view this.", "badges": [], "created_at": "2025-07-10T09:51:14.257-04:00", "updated_at": "2025-07-10T21:21:18.605-04:00", "avatar": "https://secure.gravatar.com/avatar/c69ae228e274382855d57358a393018e.jpg?s=512&d=https%3A%2F%2Fa.slack-edge.com%2Fdf10d%2Fimg%2Favatars%2Fava_0011-512.png", "custom_css": null}, {"id": 15320, "slack_id": "U095VF4D480", "display_name": "Arjun Gambhir", "bio": null, "projects_count": 1, "devlogs_count": 0, "votes_count": 1, "ships_count": 0, "projects": [{"id": 7003, "title": "Exploring Swarm robots [ Constructing a coordinate plane using computer vision as a GPS for the swarm ]", "devlogs_count": 0, "created_at": "2025-07-18T06:28:45.094-04:00"}], "coding_time_seconds": 2113, "coding_time_seconds_today": 0, "balance": "You need to have a pocket watcher badge to view this.", "badges": [], "created_at": "2025-07-10T09:54:31.524-04:00", "updated_at": "2025-07-15T05:54:45.790-04:00", "avatar": "https://secure.gravatar.com/avatar/741e937a6880d844c7dc58fdf27e12ad.jpg?s=512&d=https%3A%2F%2Fa.slack-edge.com%2Fdf10d%2Fimg%2Favatars%2Fava_0016-512.png", "custom_css": null}, {"id": 15321, "slack_id": "U095LPZ2LC9", "display_name": "Joel Jaison", "bio": null, "projects_count": 0, "devlogs_count": 0, "votes_count": 0, "ships_count": 0, "projects": [], "coding_time_seconds": 0, "coding_time_seconds_today": 0, "balance": "You need to have a pocket watcher badge to view this.", "badges": [], "created_at": "2025-07-10T09:55:20.993-04:00", "updated_at": "2025-07-10T21:21:18.767-04:00", "avatar": "https://secure.gravatar.com/avatar/1f97fdc80f4b62cc6eef1b0bc58a988f.jpg?s=512&d=https%3A%2F%2Fa.slack-edge.com%2Fdf10d%2Fimg%2Favatars%2Fava_0019-512.png", "custom_css": null}, {"id": 15322, "slack_id": "U094UBRCUG7", "display_name": "abhijna marathe", "bio": null, "projects_count": 0, "devlogs_count": 0, "votes_count": 0, "ships_count": 0, "projects": [], "coding_time_seconds": 0, "coding_time_seconds_today": 0, "balance": "You need to have a pocket watcher badge to view this.", "badges": [], "created_at": "2025-07-10T09:56:01.597-04:00", "updated_at": "2025-07-11T03:48:24.371-04:00", "avatar": "https://avatars.slack-edge.com/2025-07-10/9190838942769_6965f159c07142cac657_original.png", "custom_css": null}, {"id": 15323, "slack_id": "U094P7H48SD", "display_name": "Noam Oved", "bio": null, "projects_count": 0, "devlogs_count": 0, "votes_count": 0, "ships_count": 0, "projects": [], "coding_time_seconds": 0, "coding_time_seconds_today": 0, "balance": "You need to have a pocket watcher badge to view this.", "badges": [], "created_at": "2025-07-10T10:01:10.674-04:00", "updated_at": "2025-07-10T21:21:18.938-04:00", "avatar": "https://avatars.slack-edge.com/2025-07-10/9174099149990_ee11b5916c29648651b0_original.png", "custom_css": null}, {"id": 15324, "slack_id": "U095699LQNR", "display_name": "Lankenua Ikovo", "bio": null, "projects_count": 0, "devlogs_count": 0, "votes_count": 0, "ships_count": 0, "projects": [], "coding_time_seconds": 0, "coding_time_seconds_today": 0, "balance": "You need to have a pocket watcher badge to view this.", "badges": [], "created_at": "2025-07-10T10:03:35.061-04:00", "updated_at": "2025-07-10T21:21:19.023-04:00", "avatar": "https://avatars.slack-edge.com/2025-07-10/9177407774594_ae11fc83f3c9e4fdcb00_original.jpg", "custom_css": null}, {"id": 15325, "slack_id": "U095VKHAK08", "display_name": "Ramin Adineh", "bio": null, "projects_count": 0, "devlogs_count": 0, "votes_count": 0, "ships_count": 0, "projects": [], "coding_time_seconds": 87568, "coding_time_seconds_today": 0, "balance": "You need to have a pocket watcher badge to view this.", "badges": [], "created_at": "2025-07-10T10:15:52.826-04:00", "updated_at": "2025-07-10T21:21:19.116-04:00", "avatar": "https://secure.gravatar.com/avatar/31e79f63f3b40b20fee6e7829783d720.jpg?s=512&d=https%3A%2F%2Fa.slack-edge.com%2Fdf10d%2Fimg%2Favatars%2Fava_0016-512.png", "custom_css": null}], "pagination": {"page": 762, "pages": 1192, "count": 23828, "items": 20}}