{"users": [{"id": 15346, "slack_id": "U095X46RJGY", "display_name": "Lisu", "bio": null, "projects_count": 1, "devlogs_count": 0, "votes_count": 0, "ships_count": 0, "projects": [{"id": 6100, "title": "Movie Player", "devlogs_count": 0, "created_at": "2025-07-10T14:16:25.901-04:00"}], "coding_time_seconds": 273, "coding_time_seconds_today": 0, "balance": "You need to have a pocket watcher badge to view this.", "badges": [], "created_at": "2025-07-10T14:06:22.224-04:00", "updated_at": "2025-07-11T15:44:02.059-04:00", "avatar": "https://avatars.slack-edge.com/2025-07-10/9175706349494_fcb3810c055d8f926bb4_original.png", "custom_css": null}, {"id": 15347, "slack_id": "U08TVFDQDS5", "display_name": "Advita Verma", "bio": null, "projects_count": 0, "devlogs_count": 0, "votes_count": 2, "ships_count": 0, "projects": [], "coding_time_seconds": 25021, "coding_time_seconds_today": 0, "balance": "You need to have a pocket watcher badge to view this.", "badges": [], "created_at": "2025-07-10T14:21:06.374-04:00", "updated_at": "2025-08-16T12:24:33.162-04:00", "avatar": "https://avatars.slack-edge.com/2025-07-14/9209872743745_e57489e29d2d630ab025_original.jpg", "custom_css": null}, {"id": 15348, "slack_id": "U07UL7C3Z6X", "display_name": "cala", "bio": null, "projects_count": 0, "devlogs_count": 0, "votes_count": 0, "ships_count": 0, "projects": [], "coding_time_seconds": 21609, "coding_time_seconds_today": 0, "balance": "You need to have a pocket watcher badge to view this.", "badges": [], "created_at": "2025-07-10T14:33:27.020-04:00", "updated_at": "2025-08-18T02:14:58.772-04:00", "avatar": "https://avatars.slack-edge.com/2024-11-02/7974852251668_fdef0beb85056cb8fa88_original.jpg", "custom_css": null}, {"id": 15349, "slack_id": "U095APS7MGC", "display_name": "fearnot", "bio": null, "projects_count": 1, "devlogs_count": 0, "votes_count": 0, "ships_count": 0, "projects": [{"id": 10747, "title": "SCIST Official Website", "devlogs_count": 0, "created_at": "2025-08-10T10:25:41.569-04:00"}], "coding_time_seconds": 30417, "coding_time_seconds_today": 0, "balance": "You need to have a pocket watcher badge to view this.", "badges": [], "created_at": "2025-07-10T14:48:28.704-04:00", "updated_at": "2025-08-10T16:08:45.959-04:00", "avatar": "https://secure.gravatar.com/avatar/582da575ff5a78f8f1271e3537f8b987.jpg?s=512&d=https%3A%2F%2Fa.slack-edge.com%2Fdf10d%2Fimg%2Favatars%2Fava_0005-512.png", "custom_css": null}, {"id": 15350, "slack_id": "U08RG91GNLV", "display_name": "Mykhailo Drogovoz", "bio": null, "projects_count": 6, "devlogs_count": 27, "votes_count": 60, "ships_count": 4, "projects": [{"id": 13208, "title": "Booking system", "devlogs_count": 1, "created_at": "2025-09-11T16:32:13.682-04:00"}, {"id": 8970, "title": "WorkoutCasino", "devlogs_count": 4, "created_at": "2025-07-30T03:18:25.510-04:00"}, {"id": 13638, "title": "3d-printed-store", "devlogs_count": 1, "created_at": "2025-09-21T15:42:45.346-04:00"}, {"id": 13281, "title": "Secureshare", "devlogs_count": 7, "created_at": "2025-09-13T07:25:55.582-04:00"}, {"id": 13182, "title": "Smart City Events Map", "devlogs_count": 13, "created_at": "2025-09-11T02:04:03.856-04:00"}, {"id": 6308, "title": "Rezka Party", "devlogs_count": 1, "created_at": "2025-07-12T07:54:23.729-04:00"}], "coding_time_seconds": 590898, "coding_time_seconds_today": 0, "balance": "You need to have a pocket watcher badge to view this.", "badges": [{"name": "Maiden Voyage", "text": "you shipped your first project! the journey begins...", "icon": "\ud83d\udea2"}], "created_at": "2025-07-10T14:56:08.651-04:00", "updated_at": "2025-09-10T22:58:44.652-04:00", "avatar": "https://secure.gravatar.com/avatar/048b8dedf4f4ea63d49b0171cef0ea45.jpg?s=512&d=https%3A%2F%2Fa.slack-edge.com%2Fdf10d%2Fimg%2Favatars%2Fava_0006-512.png", "custom_css": null}, {"id": 15351, "slack_id": "U095NMX4DG9", "display_name": "Akshay Mittal", "bio": null, "projects_count": 0, "devlogs_count": 0, "votes_count": 0, "ships_count": 0, "projects": [], "coding_time_seconds": 0, "coding_time_seconds_today": 0, "balance": "You need to have a pocket watcher badge to view this.", "badges": [], "created_at": "2025-07-10T15:19:33.470-04:00", "updated_at": "2025-07-10T21:21:25.512-04:00", "avatar": "https://avatars.slack-edge.com/2025-07-10/9166292779911_3eba12fd02562e72ecdf_original.jpg", "custom_css": null}, {"id": 15352, "slack_id": "U095AUDV11A", "display_name": "Mina Oukrine", "bio": null, "projects_count": 0, "devlogs_count": 0, "votes_count": 0, "ships_count": 0, "projects": [], "coding_time_seconds": 0, "coding_time_seconds_today": 0, "balance": "You need to have a pocket watcher badge to view this.", "badges": [], "created_at": "2025-07-10T15:20:55.854-04:00", "updated_at": "2025-07-10T21:21:25.642-04:00", "avatar": "https://secure.gravatar.com/avatar/1ca2dbf4c8f186ba9567c596be8f1925.jpg?s=512&d=https%3A%2F%2Fa.slack-edge.com%2Fdf10d%2Fimg%2Favatars%2Fava_0005-512.png", "custom_css": null}, {"id": 15353, "slack_id": "U094WA9RBHV", "display_name": "induwara uthsara", "bio": null, "projects_count": 0, "devlogs_count": 0, "votes_count": 0, "ships_count": 0, "projects": [], "coding_time_seconds": 0, "coding_time_seconds_today": 0, "balance": "You need to have a pocket watcher badge to view this.", "badges": [], "created_at": "2025-07-10T15:35:55.379-04:00", "updated_at": "2025-07-10T21:21:25.725-04:00", "avatar": "https://secure.gravatar.com/avatar/1541aa4c7bad40fb2253bfcbfb563bfc.jpg?s=512&d=https%3A%2F%2Fa.slack-edge.com%2Fdf10d%2Fimg%2Favatars%2Fava_0010-512.png", "custom_css": null}, {"id": 15354, "slack_id": "U0959CQ4NHY", "display_name": "gummi", "bio": null, "projects_count": 0, "devlogs_count": 0, "votes_count": 0, "ships_count": 0, "projects": [], "coding_time_seconds": 0, "coding_time_seconds_today": 0, "balance": "You need to have a pocket watcher badge to view this.", "badges": [], "created_at": "2025-07-10T15:44:01.183-04:00", "updated_at": "2025-07-10T21:21:25.804-04:00", "avatar": "https://secure.gravatar.com/avatar/7cb9116499751a9a565e447bdd65ffa0.jpg?s=512&d=https%3A%2F%2Fa.slack-edge.com%2Fdf10d%2Fimg%2Favatars%2Fava_0012-512.png", "custom_css": null}, {"id": 15355, "slack_id": "U095XKZJQJU", "display_name": "Lucas Wang", "bio": null, "projects_count": 0, "devlogs_count": 0, "votes_count": 0, "ships_count": 0, "projects": [], "coding_time_seconds": 5393, "coding_time_seconds_today": 0, "balance": "You need to have a pocket watcher badge to view this.", "badges": [], "created_at": "2025-07-10T15:48:52.289-04:00", "updated_at": "2025-07-10T21:21:25.896-04:00", "avatar": "https://avatars.slack-edge.com/2025-07-10/9178381941205_7cd8658745ad77d935f2_original.png", "custom_css": null}, {"id": 15356, "slack_id": "U095442EKJ7", "display_name": "Ohviya Velu", "bio": null, "projects_count": 0, "devlogs_count": 0, "votes_count": 0, "ships_count": 0, "projects": [], "coding_time_seconds": 0, "coding_time_seconds_today": 0, "balance": "You need to have a pocket watcher badge to view this.", "badges": [], "created_at": "2025-07-10T16:02:16.654-04:00", "updated_at": "2025-07-10T21:21:25.985-04:00", "avatar": "https://secure.gravatar.com/avatar/55121821b1ad1843c174eb434f8474bf.jpg?s=512&d=https%3A%2F%2Fa.slack-edge.com%2Fdf10d%2Fimg%2Favatars%2Fava_0007-512.png", "custom_css": null}, {"id": 15357, "slack_id": "U09569SDPJS", "display_name": "Iyla", "bio": null, "projects_count": 0, "devlogs_count": 0, "votes_count": 0, "ships_count": 0, "projects": [], "coding_time_seconds": 83216, "coding_time_seconds_today": 0, "balance": "You need to have a pocket watcher badge to view this.", "badges": [], "created_at": "2025-07-10T16:02:42.614-04:00", "updated_at": "2025-09-05T03:20:11.061-04:00", "avatar": "https://avatars.slack-edge.com/2025-09-05/9465320358978_d97c0ad2fccb794d1c09_original.jpg", "custom_css": null}, {"id": 15358, "slack_id": "U095P5579R7", "display_name": "metopolly", "bio": null, "projects_count": 0, "devlogs_count": 0, "votes_count": 0, "ships_count": 0, "projects": [], "coding_time_seconds": 0, "coding_time_seconds_today": 0, "balance": "You need to have a pocket watcher badge to view this.", "badges": [], "created_at": "2025-07-10T16:40:34.418-04:00", "updated_at": "2025-07-10T21:21:30.191-04:00", "avatar": "https://secure.gravatar.com/avatar/0fcff0d43700215dab4ffd04e6b5b241.jpg?s=512&d=https%3A%2F%2Fa.slack-edge.com%2Fdf10d%2Fimg%2Favatars%2Fava_0024-512.png", "custom_css": null}, {"id": 15359, "slack_id": "U095XTWCSKA", "display_name": "Caiden", "bio": null, "projects_count": 0, "devlogs_count": 0, "votes_count": 0, "ships_count": 0, "projects": [], "coding_time_seconds": 0, "coding_time_seconds_today": 0, "balance": "You need to have a pocket watcher badge to view this.", "badges": [], "created_at": "2025-07-10T16:42:48.122-04:00", "updated_at": "2025-07-10T21:21:30.284-04:00", "avatar": "https://secure.gravatar.com/avatar/91f8010c636160b73cd903a78cbdf351.jpg?s=512&d=https%3A%2F%2Fa.slack-edge.com%2Fdf10d%2Fimg%2Favatars%2Fava_0010-512.png", "custom_css": null}, {"id": 15360, "slack_id": "U095P5JHAE5", "display_name": "Ali saadoun(white hat hacker)", "bio": null, "projects_count": 0, "devlogs_count": 0, "votes_count": 0, "ships_count": 0, "projects": [], "coding_time_seconds": 0, "coding_time_seconds_today": 0, "balance": "You need to have a pocket watcher badge to view this.", "badges": [], "created_at": "2025-07-10T16:44:34.990-04:00", "updated_at": "2025-07-11T14:16:02.918-04:00", "avatar": "https://secure.gravatar.com/avatar/3a1df37bd28e303ca2bcea92ad3cd406.jpg?s=512&d=https%3A%2F%2Fa.slack-edge.com%2Fdf10d%2Fimg%2Favatars%2Fava_0016-512.png", "custom_css": null}, {"id": 15361, "slack_id": "U095Y25QA3A", "display_name": "Inara Bajwa", "bio": null, "projects_count": 0, "devlogs_count": 0, "votes_count": 0, "ships_count": 0, "projects": [], "coding_time_seconds": 0, "coding_time_seconds_today": 0, "balance": "You need to have a pocket watcher badge to view this.", "badges": [], "created_at": "2025-07-10T17:07:40.683-04:00", "updated_at": "2025-07-10T21:21:30.487-04:00", "avatar": "https://secure.gravatar.com/avatar/d92b2f856debb7cdd7bb9ac6bee989fa.jpg?s=512&d=https%3A%2F%2Fa.slack-edge.com%2Fdf10d%2Fimg%2Favatars%2Fava_0020-512.png", "custom_css": null}, {"id": 15362, "slack_id": "U095BJ1T5B6", "display_name": "SunnydayAOE", "bio": null, "projects_count": 0, "devlogs_count": 0, "votes_count": 0, "ships_count": 0, "projects": [], "coding_time_seconds": 2812, "coding_time_seconds_today": 0, "balance": "You need to have a pocket watcher badge to view this.", "badges": [], "created_at": "2025-07-10T17:37:38.416-04:00", "updated_at": "2025-07-10T21:21:30.576-04:00", "avatar": "https://avatars.slack-edge.com/2025-07-10/9180011836466_7489e9b13b67d26b2436_original.png", "custom_css": null}, {"id": 15363, "slack_id": "U093L5ALKJP", "display_name": "Rugwiro X", "bio": null, "projects_count": 0, "devlogs_count": 0, "votes_count": 0, "ships_count": 0, "projects": [], "coding_time_seconds": 0, "coding_time_seconds_today": 0, "balance": "You need to have a pocket watcher badge to view this.", "badges": [], "created_at": "2025-07-10T17:45:00.492-04:00", "updated_at": "2025-07-10T21:21:30.688-04:00", "avatar": "https://avatars.slack-edge.com/2025-07-10/9202238418336_fd03ee2a9ddfaba275ee_original.jpg", "custom_css": null}, {"id": 15364, "slack_id": "U0956STFF0E", "display_name": "Fahrenheit", "bio": null, "projects_count": 0, "devlogs_count": 0, "votes_count": 1, "ships_count": 0, "projects": [], "coding_time_seconds": 18527, "coding_time_seconds_today": 0, "balance": "You need to have a pocket watcher badge to view this.", "badges": [], "created_at": "2025-07-10T18:03:42.589-04:00", "updated_at": "2025-08-12T02:23:53.003-04:00", "avatar": "https://secure.gravatar.com/avatar/e620b5e5829d8af49d7de477cc2c35db.jpg?s=512&d=https%3A%2F%2Fa.slack-edge.com%2Fdf10d%2Fimg%2Favatars%2Fava_0026-512.png", "custom_css": null}, {"id": 15365, "slack_id": "U081ZBF7HK8", "display_name": "Inara Bajwa", "bio": null, "projects_count": 1, "devlogs_count": 0, "votes_count": 0, "ships_count": 0, "projects": [{"id": 6956, "title": "Word Guessing Game", "devlogs_count": 0, "created_at": "2025-07-17T15:19:52.628-04:00"}], "coding_time_seconds": 90579, "coding_time_seconds_today": 0, "balance": "You need to have a pocket watcher badge to view this.", "badges": [], "created_at": "2025-07-10T18:20:12.193-04:00", "updated_at": "2025-07-18T09:51:00.406-04:00", "avatar": "https://secure.gravatar.com/avatar/d7381e3deae1222c12c778cfb002b37d.jpg?s=512&d=https%3A%2F%2Fa.slack-edge.com%2Fdf10d%2Fimg%2Favatars%2Fava_0018-512.png", "custom_css": null}], "pagination": {"page": 764, "pages": 1192, "count": 23828, "items": 20}}