{"users": [{"id": 15366, "slack_id": "U07R81J6F08", "display_name": "Maxwell L", "bio": null, "projects_count": 0, "devlogs_count": 0, "votes_count": 0, "ships_count": 0, "projects": [], "coding_time_seconds": 365, "coding_time_seconds_today": 0, "balance": "You need to have a pocket watcher badge to view this.", "badges": [], "created_at": "2025-07-10T18:43:03.474-04:00", "updated_at": "2025-07-10T21:21:30.920-04:00", "avatar": "https://avatars.slack-edge.com/2025-06-06/9036019527552_e4262a7816a2e0e4238e_original.png", "custom_css": null}, {"id": 15367, "slack_id": "U095PPK9CPK", "display_name": "Ibrahim Mostafa", "bio": null, "projects_count": 0, "devlogs_count": 0, "votes_count": 0, "ships_count": 0, "projects": [], "coding_time_seconds": 440, "coding_time_seconds_today": 0, "balance": "You need to have a pocket watcher badge to view this.", "badges": [], "created_at": "2025-07-10T19:27:47.617-04:00", "updated_at": "2025-07-11T11:12:55.349-04:00", "avatar": "https://secure.gravatar.com/avatar/3736dbb941e687f26f0a8544e8e681bb.jpg?s=512&d=https%3A%2F%2Fa.slack-edge.com%2Fdf10d%2Fimg%2Favatars%2Fava_0012-512.png", "custom_css": null}, {"id": 15368, "slack_id": "U094X7E33TR", "display_name": "api_tester_a123", "bio": null, "projects_count": 0, "devlogs_count": 0, "votes_count": 0, "ships_count": 0, "projects": [], "coding_time_seconds": 0, "coding_time_seconds_today": 0, "balance": "You need to have a pocket watcher badge to view this.", "badges": [], "created_at": "2025-07-10T19:28:27.234-04:00", "updated_at": "2025-07-10T21:21:31.105-04:00", "avatar": "https://secure.gravatar.com/avatar/fe86b1a627ebed283121e9dff24fbedd.jpg?s=512&d=https%3A%2F%2Fa.slack-edge.com%2Fdf10d%2Fimg%2Favatars%2Fava_0022-512.png", "custom_css": null}, {"id": 15369, "slack_id": "U094X7K13P1", "display_name": "David Kebo", "bio": null, "projects_count": 0, "devlogs_count": 0, "votes_count": 0, "ships_count": 0, "projects": [], "coding_time_seconds": 0, "coding_time_seconds_today": 0, "balance": "You need to have a pocket watcher badge to view this.", "badges": [], "created_at": "2025-07-10T19:29:07.538-04:00", "updated_at": "2025-07-10T21:21:31.198-04:00", "avatar": "https://secure.gravatar.com/avatar/466991336d152a88ee9d6f5338745889.jpg?s=512&d=https%3A%2F%2Fa.slack-edge.com%2Fdf10d%2Fimg%2Favatars%2Fava_0010-512.png", "custom_css": null}, {"id": 15370, "slack_id": "U095YJN0UJC", "display_name": "Gurangad", "bio": null, "projects_count": 0, "devlogs_count": 0, "votes_count": 0, "ships_count": 0, "projects": [], "coding_time_seconds": 0, "coding_time_seconds_today": 0, "balance": "You need to have a pocket watcher badge to view this.", "badges": [], "created_at": "2025-07-10T19:50:35.486-04:00", "updated_at": "2025-07-10T21:21:35.331-04:00", "avatar": "https://secure.gravatar.com/avatar/f9e6e8f6dbc00f3e06f07a85560357ae.jpg?s=512&d=https%3A%2F%2Fa.slack-edge.com%2Fdf10d%2Fimg%2Favatars%2Fava_0004-512.png", "custom_css": null}, {"id": 15371, "slack_id": "U094K9APZPE", "display_name": "Ishaan", "bio": null, "projects_count": 0, "devlogs_count": 0, "votes_count": 0, "ships_count": 0, "projects": [], "coding_time_seconds": 0, "coding_time_seconds_today": 0, "balance": "You need to have a pocket watcher badge to view this.", "badges": [], "created_at": "2025-07-10T20:00:03.237-04:00", "updated_at": "2025-07-10T21:21:35.437-04:00", "avatar": "https://secure.gravatar.com/avatar/0874f46f5085ff979888b759a95eb8fa.jpg?s=512&d=https%3A%2F%2Fa.slack-edge.com%2Fdf10d%2Fimg%2Favatars%2Fava_0018-512.png", "custom_css": null}, {"id": 15372, "slack_id": "U094EGB4VP0", "display_name": "Marne", "bio": null, "projects_count": 0, "devlogs_count": 0, "votes_count": 0, "ships_count": 0, "projects": [], "coding_time_seconds": 0, "coding_time_seconds_today": 0, "balance": "You need to have a pocket watcher badge to view this.", "badges": [], "created_at": "2025-07-10T20:02:04.826-04:00", "updated_at": "2025-07-10T21:21:35.542-04:00", "avatar": "https://secure.gravatar.com/avatar/b67aeddd5d61f140f9114c500537135d.jpg?s=512&d=https%3A%2F%2Fa.slack-edge.com%2Fdf10d%2Fimg%2Favatars%2Fava_0002-512.png", "custom_css": null}, {"id": 15373, "slack_id": "U0959DTJWUD", "display_name": "K", "bio": null, "projects_count": 1, "devlogs_count": 4, "votes_count": 7, "ships_count": 1, "projects": [{"id": 8139, "title": "online text editor", "devlogs_count": 4, "created_at": "2025-07-24T21:32:37.067-04:00"}], "coding_time_seconds": 7556, "coding_time_seconds_today": 0, "balance": "You need to have a pocket watcher badge to view this.", "badges": [{"name": "Maiden Voyage", "text": "you shipped your first project! the journey begins...", "icon": "\ud83d\udea2"}], "created_at": "2025-07-10T20:39:27.395-04:00", "updated_at": "2025-09-10T22:58:45.278-04:00", "avatar": "https://secure.gravatar.com/avatar/e2921c2fbc2e929f58a2390c2b284ebc.jpg?s=512&d=https%3A%2F%2Fa.slack-edge.com%2Fdf10d%2Fimg%2Favatars%2Fava_0014-512.png", "custom_css": null}, {"id": 15374, "slack_id": "U08R775SVMF", "display_name": "Ann", "bio": null, "projects_count": 0, "devlogs_count": 0, "votes_count": 0, "ships_count": 0, "projects": [], "coding_time_seconds": 90890, "coding_time_seconds_today": 0, "balance": "You need to have a pocket watcher badge to view this.", "badges": [], "created_at": "2025-07-10T21:45:30.779-04:00", "updated_at": "2025-07-11T23:22:00.356-04:00", "avatar": "https://avatars.slack-edge.com/2025-06-11/9035165905957_01699efe8627579c9e08_original.jpg", "custom_css": null}, {"id": 15375, "slack_id": "U094HJHAX9U", "display_name": "Muntra", "bio": null, "projects_count": 0, "devlogs_count": 0, "votes_count": 0, "ships_count": 0, "projects": [], "coding_time_seconds": 26148, "coding_time_seconds_today": 0, "balance": "You need to have a pocket watcher badge to view this.", "badges": [], "created_at": "2025-07-10T22:57:25.210-04:00", "updated_at": "2025-07-11T09:21:30.448-04:00", "avatar": "https://avatars.slack-edge.com/2025-07-08/9187590362048_ff01b079cf74d942562c_original.png", "custom_css": null}, {"id": 15376, "slack_id": "U0957T6MN8N", "display_name": "Edgar", "bio": null, "projects_count": 0, "devlogs_count": 0, "votes_count": 0, "ships_count": 0, "projects": [], "coding_time_seconds": 0, "coding_time_seconds_today": 0, "balance": "You need to have a pocket watcher badge to view this.", "badges": [], "created_at": "2025-07-10T23:04:40.440-04:00", "updated_at": "2025-07-11T09:21:30.541-04:00", "avatar": "https://secure.gravatar.com/avatar/50db4d3b6b54d7a18bc43f41254632cf.jpg?s=512&d=https%3A%2F%2Fa.slack-edge.com%2Fdf10d%2Fimg%2Favatars%2Fava_0004-512.png", "custom_css": null}, {"id": 15377, "slack_id": "U08NWS8CQF2", "display_name": "K", "bio": null, "projects_count": 0, "devlogs_count": 0, "votes_count": 0, "ships_count": 0, "projects": [], "coding_time_seconds": 0, "coding_time_seconds_today": 0, "balance": "You need to have a pocket watcher badge to view this.", "badges": [], "created_at": "2025-07-10T23:20:52.694-04:00", "updated_at": "2025-07-10T23:20:59.391-04:00", "avatar": "https://secure.gravatar.com/avatar/e42050d308269d160f3a36d380375bde.jpg?s=512&d=https%3A%2F%2Fa.slack-edge.com%2Fdf10d%2Fimg%2Favatars%2Fava_0026-512.png", "custom_css": null}, {"id": 15378, "slack_id": "U095ZC9775E", "display_name": "James Hayashi", "bio": null, "projects_count": 0, "devlogs_count": 0, "votes_count": 0, "ships_count": 0, "projects": [], "coding_time_seconds": 0, "coding_time_seconds_today": 0, "balance": "You need to have a pocket watcher badge to view this.", "badges": [], "created_at": "2025-07-11T00:16:18.829-04:00", "updated_at": "2025-07-11T09:21:30.701-04:00", "avatar": "https://avatars.slack-edge.com/2025-07-10/9194680892305_d5c1032bf0377b65648a_original.png", "custom_css": null}, {"id": 15379, "slack_id": "U09585PL49L", "display_name": "JAYANTHYADAV", "bio": null, "projects_count": 0, "devlogs_count": 0, "votes_count": 0, "ships_count": 0, "projects": [], "coding_time_seconds": 0, "coding_time_seconds_today": 0, "balance": "You need to have a pocket watcher badge to view this.", "badges": [], "created_at": "2025-07-11T00:34:59.294-04:00", "updated_at": "2025-07-11T09:21:30.798-04:00", "avatar": "https://secure.gravatar.com/avatar/1aacd84a5f26df97d8d2c26f0e305186.jpg?s=512&d=https%3A%2F%2Fa.slack-edge.com%2Fdf10d%2Fimg%2Favatars%2Fava_0011-512.png", "custom_css": null}, {"id": 15380, "slack_id": "U08S8FXJPLN", "display_name": "shalley", "bio": null, "projects_count": 4, "devlogs_count": 5, "votes_count": 26, "ships_count": 2, "projects": [{"id": 6156, "title": "Number Game ", "devlogs_count": 1, "created_at": "2025-07-11T01:08:29.485-04:00"}, {"id": 7320, "title": "HangTags Order & About", "devlogs_count": 1, "created_at": "2025-07-20T23:28:30.054-04:00"}, {"id": 6160, "title": "About Indonesia & My Portfolio", "devlogs_count": 1, "created_at": "2025-07-11T02:12:58.693-04:00"}, {"id": 7338, "title": "Alshakoe Catering Website", "devlogs_count": 2, "created_at": "2025-07-21T03:39:27.998-04:00"}], "coding_time_seconds": 49959, "coding_time_seconds_today": 0, "balance": "You need to have a pocket watcher badge to view this.", "badges": [{"name": "Maiden Voyage", "text": "you shipped your first project! the journey begins...", "icon": "\ud83d\udea2"}], "created_at": "2025-07-11T00:37:05.882-04:00", "updated_at": "2025-09-10T22:58:45.497-04:00", "avatar": "https://avatars.slack-edge.com/2025-05-15/8892348566195_70aa67f8cbc4219d938a_original.png", "custom_css": null}, {"id": 15381, "slack_id": "U09560FB5DH", "display_name": "Druthi", "bio": null, "projects_count": 0, "devlogs_count": 0, "votes_count": 0, "ships_count": 0, "projects": [], "coding_time_seconds": 0, "coding_time_seconds_today": 0, "balance": "You need to have a pocket watcher badge to view this.", "badges": [], "created_at": "2025-07-11T00:39:28.302-04:00", "updated_at": "2025-07-11T09:21:34.981-04:00", "avatar": "https://secure.gravatar.com/avatar/8b0ca39f9dafeaf5d0a81e2e657b369d.jpg?s=512&d=https%3A%2F%2Fa.slack-edge.com%2Fdf10d%2Fimg%2Favatars%2Fava_0001-512.png", "custom_css": null}, {"id": 15382, "slack_id": "U08Q42E3RNY", "display_name": "R", "bio": null, "projects_count": 0, "devlogs_count": 1, "votes_count": 0, "ships_count": 0, "projects": [], "coding_time_seconds": 203835, "coding_time_seconds_today": 0, "balance": "You need to have a pocket watcher badge to view this.", "badges": [], "created_at": "2025-07-11T00:55:28.534-04:00", "updated_at": "2025-07-17T04:55:18.402-04:00", "avatar": "https://avatars.slack-edge.com/2025-04-29/8841991988608_7ca59398852054dcf460_original.png", "custom_css": null}, {"id": 15383, "slack_id": "U095CT4JNPN", "display_name": "Vineet", "bio": null, "projects_count": 0, "devlogs_count": 0, "votes_count": 0, "ships_count": 0, "projects": [], "coding_time_seconds": 0, "coding_time_seconds_today": 0, "balance": "You need to have a pocket watcher badge to view this.", "badges": [], "created_at": "2025-07-11T00:56:36.630-04:00", "updated_at": "2025-07-11T09:21:35.157-04:00", "avatar": "https://secure.gravatar.com/avatar/d5a193228e458cf260afcd462c48452a.jpg?s=512&d=https%3A%2F%2Fa.slack-edge.com%2Fdf10d%2Fimg%2Favatars%2Fava_0007-512.png", "custom_css": null}, {"id": 15384, "slack_id": "U095ZGXJPRN", "display_name": "Kabir Nawaz", "bio": null, "projects_count": 0, "devlogs_count": 0, "votes_count": 0, "ships_count": 0, "projects": [], "coding_time_seconds": 0, "coding_time_seconds_today": 0, "balance": "You need to have a pocket watcher badge to view this.", "badges": [], "created_at": "2025-07-11T01:06:02.300-04:00", "updated_at": "2025-07-11T09:21:35.244-04:00", "avatar": "https://avatars.slack-edge.com/2025-07-10/9194830145761_02accae14659a28082e7_original.png", "custom_css": null}, {"id": 15385, "slack_id": "U095D2QLE8L", "display_name": "C T", "bio": null, "projects_count": 0, "devlogs_count": 0, "votes_count": 0, "ships_count": 0, "projects": [], "coding_time_seconds": 45568, "coding_time_seconds_today": 0, "balance": "You need to have a pocket watcher badge to view this.", "badges": [], "created_at": "2025-07-11T01:51:04.390-04:00", "updated_at": "2025-07-11T16:08:26.616-04:00", "avatar": "https://secure.gravatar.com/avatar/ada2f9075f0b37b0a11f8390c25b0196.jpg?s=512&d=https%3A%2F%2Fa.slack-edge.com%2Fdf10d%2Fimg%2Favatars%2Fava_0014-512.png", "custom_css": null}], "pagination": {"page": 765, "pages": 1192, "count": 23828, "items": 20}}