{"users": [{"id": 15386, "slack_id": "U095BFN88R0", "display_name": "Rapphy", "bio": null, "projects_count": 0, "devlogs_count": 0, "votes_count": 0, "ships_count": 0, "projects": [], "coding_time_seconds": 0, "coding_time_seconds_today": 0, "balance": "You need to have a pocket watcher badge to view this.", "badges": [], "created_at": "2025-07-11T02:02:01.519-04:00", "updated_at": "2025-07-11T09:21:35.420-04:00", "avatar": "https://secure.gravatar.com/avatar/906d4323fd94ed350bc8c2594815e35b.jpg?s=512&d=https%3A%2F%2Fa.slack-edge.com%2Fdf10d%2Fimg%2Favatars%2Fava_0023-512.png", "custom_css": null}, {"id": 15387, "slack_id": "U094YB7DYLF", "display_name": "Nepali Gamer Samip", "bio": null, "projects_count": 1, "devlogs_count": 0, "votes_count": 0, "ships_count": 0, "projects": [{"id": 6388, "title": "RentGadi", "devlogs_count": 0, "created_at": "2025-07-12T23:49:57.641-04:00"}], "coding_time_seconds": 17844, "coding_time_seconds_today": 0, "balance": "You need to have a pocket watcher badge to view this.", "badges": [], "created_at": "2025-07-11T02:02:12.727-04:00", "updated_at": "2025-07-11T09:21:35.515-04:00", "avatar": "https://avatars.slack-edge.com/2025-07-10/9203770273456_165523e6f698fbd07b61_original.jpg", "custom_css": null}, {"id": 15388, "slack_id": "U0958GHCV2S", "display_name": "John O", "bio": null, "projects_count": 0, "devlogs_count": 0, "votes_count": 0, "ships_count": 0, "projects": [], "coding_time_seconds": 0, "coding_time_seconds_today": 0, "balance": "You need to have a pocket watcher badge to view this.", "badges": [], "created_at": "2025-07-11T02:21:10.917-04:00", "updated_at": "2025-07-11T09:21:35.593-04:00", "avatar": "https://secure.gravatar.com/avatar/e06c87d2a06a4e9ef6becf656eec84e7.jpg?s=512&d=https%3A%2F%2Fa.slack-edge.com%2Fdf10d%2Fimg%2Favatars%2Fava_0018-512.png", "custom_css": null}, {"id": 15389, "slack_id": "U095AEXF737", "display_name": "Jwala", "bio": null, "projects_count": 2, "devlogs_count": 0, "votes_count": 0, "ships_count": 0, "projects": [{"id": 6176, "title": "Buildemy Backend", "devlogs_count": 0, "created_at": "2025-07-11T05:17:57.743-04:00"}, {"id": 6177, "title": "Buildemy Frontend", "devlogs_count": 0, "created_at": "2025-07-11T05:21:12.241-04:00"}], "coding_time_seconds": 204458, "coding_time_seconds_today": 0, "balance": "You need to have a pocket watcher badge to view this.", "badges": [], "created_at": "2025-07-11T02:21:55.177-04:00", "updated_at": "2025-07-11T09:21:35.691-04:00", "avatar": "https://secure.gravatar.com/avatar/7dd357112676fe0c621d3428f3c46340.jpg?s=512&d=https%3A%2F%2Fa.slack-edge.com%2Fdf10d%2Fimg%2Favatars%2Fava_0005-512.png", "custom_css": null}, {"id": 15390, "slack_id": "U095R4VL6KB", "display_name": "Furkaan Ahmed Teli", "bio": null, "projects_count": 0, "devlogs_count": 0, "votes_count": 0, "ships_count": 0, "projects": [], "coding_time_seconds": 0, "coding_time_seconds_today": 0, "balance": "You need to have a pocket watcher badge to view this.", "badges": [], "created_at": "2025-07-11T02:53:01.366-04:00", "updated_at": "2025-07-15T11:36:01.757-04:00", "avatar": "https://secure.gravatar.com/avatar/ad32f64e0823996f9ca11c92cea96a9b.jpg?s=512&d=https%3A%2F%2Fa.slack-edge.com%2Fdf10d%2Fimg%2Favatars%2Fava_0020-512.png", "custom_css": null}, {"id": 15391, "slack_id": "U08AXQCAQ6S", "display_name": "Poshkin Omer", "bio": null, "projects_count": 0, "devlogs_count": 0, "votes_count": 0, "ships_count": 0, "projects": [], "coding_time_seconds": 0, "coding_time_seconds_today": 0, "balance": "You need to have a pocket watcher badge to view this.", "badges": [], "created_at": "2025-07-11T02:57:09.176-04:00", "updated_at": "2025-07-11T09:21:35.847-04:00", "avatar": "https://secure.gravatar.com/avatar/5ba0e5f4ba6feb242637954f825c2c4b.jpg?s=512&d=https%3A%2F%2Fa.slack-edge.com%2Fdf10d%2Fimg%2Favatars%2Fava_0000-512.png", "custom_css": null}, {"id": 15392, "slack_id": "U095AK5JWJZ", "display_name": "dipesh", "bio": null, "projects_count": 0, "devlogs_count": 0, "votes_count": 0, "ships_count": 0, "projects": [], "coding_time_seconds": 0, "coding_time_seconds_today": 0, "balance": "You need to have a pocket watcher badge to view this.", "badges": [], "created_at": "2025-07-11T02:59:11.759-04:00", "updated_at": "2025-07-11T09:21:35.928-04:00", "avatar": "https://secure.gravatar.com/avatar/66f9d0b242794e12f7a42bf796f81967.jpg?s=512&d=https%3A%2F%2Fa.slack-edge.com%2Fdf10d%2Fimg%2Favatars%2Fava_0018-512.png", "custom_css": null}, {"id": 15393, "slack_id": "U0958L8P2Q6", "display_name": "Pritam Chaulagain", "bio": null, "projects_count": 0, "devlogs_count": 0, "votes_count": 0, "ships_count": 0, "projects": [], "coding_time_seconds": 0, "coding_time_seconds_today": 0, "balance": "You need to have a pocket watcher badge to view this.", "badges": [], "created_at": "2025-07-11T03:07:02.920-04:00", "updated_at": "2025-07-11T09:21:36.004-04:00", "avatar": "https://secure.gravatar.com/avatar/e9ea7a61a13fc59fed11ba9ab5c11940.jpg?s=512&d=https%3A%2F%2Fa.slack-edge.com%2Fdf10d%2Fimg%2Favatars%2Fava_0013-512.png", "custom_css": null}, {"id": 15394, "slack_id": "U094YKFGVN3", "display_name": "SUBIGYA SUBEDI", "bio": null, "projects_count": 0, "devlogs_count": 0, "votes_count": 0, "ships_count": 0, "projects": [], "coding_time_seconds": 0, "coding_time_seconds_today": 0, "balance": "You need to have a pocket watcher badge to view this.", "badges": [], "created_at": "2025-07-11T03:21:02.924-04:00", "updated_at": "2025-07-11T09:21:36.091-04:00", "avatar": "https://avatars.slack-edge.com/2025-07-11/9176628845779_18a34987da7dcf15ac1c_original.jpg", "custom_css": null}, {"id": 15395, "slack_id": "U095RBZ799P", "display_name": "Sambit", "bio": null, "projects_count": 0, "devlogs_count": 0, "votes_count": 0, "ships_count": 0, "projects": [], "coding_time_seconds": 61546, "coding_time_seconds_today": 0, "balance": "You need to have a pocket watcher badge to view this.", "badges": [], "created_at": "2025-07-11T03:46:47.407-04:00", "updated_at": "2025-07-11T09:21:36.198-04:00", "avatar": "https://secure.gravatar.com/avatar/bc1f0f0c0f6640900cb4711498c32cfd.jpg?s=512&d=https%3A%2F%2Fa.slack-edge.com%2Fdf10d%2Fimg%2Favatars%2Fava_0009-512.png", "custom_css": null}, {"id": 15396, "slack_id": "U094YPAV9FH", "display_name": "Joe", "bio": null, "projects_count": 0, "devlogs_count": 0, "votes_count": 0, "ships_count": 0, "projects": [], "coding_time_seconds": 0, "coding_time_seconds_today": 0, "balance": "You need to have a pocket watcher badge to view this.", "badges": [], "created_at": "2025-07-11T03:55:29.036-04:00", "updated_at": "2025-07-11T09:21:36.275-04:00", "avatar": "https://secure.gravatar.com/avatar/cf2b8f472254442b50eb62b66fafd4c8.jpg?s=512&d=https%3A%2F%2Fa.slack-edge.com%2Fdf10d%2Fimg%2Favatars%2Fava_0010-512.png", "custom_css": null}, {"id": 15397, "slack_id": "U0956NNQABD", "display_name": "osato", "bio": null, "projects_count": 0, "devlogs_count": 0, "votes_count": 0, "ships_count": 0, "projects": [], "coding_time_seconds": 554798, "coding_time_seconds_today": 0, "balance": "You need to have a pocket watcher badge to view this.", "badges": [], "created_at": "2025-07-11T03:57:55.728-04:00", "updated_at": "2025-07-11T09:21:36.349-04:00", "avatar": "https://secure.gravatar.com/avatar/657b437d63ab54797e0077e2b929f9c2.jpg?s=512&d=https%3A%2F%2Fa.slack-edge.com%2Fdf10d%2Fimg%2Favatars%2Fava_0025-512.png", "custom_css": null}, {"id": 15398, "slack_id": "U09608YHZPS", "display_name": "Chocobo", "bio": null, "projects_count": 0, "devlogs_count": 0, "votes_count": 0, "ships_count": 0, "projects": [], "coding_time_seconds": 30981, "coding_time_seconds_today": 0, "balance": "You need to have a pocket watcher badge to view this.", "badges": [], "created_at": "2025-07-11T04:15:20.962-04:00", "updated_at": "2025-07-11T09:21:36.448-04:00", "avatar": "https://avatars.slack-edge.com/2025-07-11/9179111922838_fce06c4a93356b8372a3_original.jpg", "custom_css": null}, {"id": 15399, "slack_id": "U094NLYBJUF", "display_name": "Abdulwahid yaich", "bio": null, "projects_count": 0, "devlogs_count": 0, "votes_count": 0, "ships_count": 0, "projects": [], "coding_time_seconds": 0, "coding_time_seconds_today": 0, "balance": "You need to have a pocket watcher badge to view this.", "badges": [], "created_at": "2025-07-11T04:30:43.421-04:00", "updated_at": "2025-07-11T09:21:36.534-04:00", "avatar": "https://secure.gravatar.com/avatar/7603e413d25b6cf1ac0eaac6ecda2bd5.jpg?s=512&d=https%3A%2F%2Fa.slack-edge.com%2Fdf10d%2Fimg%2Favatars%2Fava_0009-512.png", "custom_css": null}, {"id": 15400, "slack_id": "U095DPT4DFW", "display_name": "IK", "bio": null, "projects_count": 0, "devlogs_count": 0, "votes_count": 0, "ships_count": 0, "projects": [], "coding_time_seconds": 0, "coding_time_seconds_today": 0, "balance": "You need to have a pocket watcher badge to view this.", "badges": [], "created_at": "2025-07-11T04:42:15.327-04:00", "updated_at": "2025-07-11T09:21:36.613-04:00", "avatar": "https://secure.gravatar.com/avatar/45e1e36dfee6a7c251f1a397fadafcdc.jpg?s=512&d=https%3A%2F%2Fa.slack-edge.com%2Fdf10d%2Fimg%2Favatars%2Fava_0014-512.png", "custom_css": null}, {"id": 15401, "slack_id": "U095DSUAEAG", "display_name": "Khushi Ray", "bio": null, "projects_count": 0, "devlogs_count": 0, "votes_count": 0, "ships_count": 0, "projects": [], "coding_time_seconds": 0, "coding_time_seconds_today": 0, "balance": "You need to have a pocket watcher badge to view this.", "badges": [], "created_at": "2025-07-11T05:03:20.752-04:00", "updated_at": "2025-07-11T09:21:36.694-04:00", "avatar": "https://secure.gravatar.com/avatar/41c8b591cf3b571538e74dba9ae6f50e.jpg?s=512&d=https%3A%2F%2Fa.slack-edge.com%2Fdf10d%2Fimg%2Favatars%2Fava_0008-512.png", "custom_css": null}, {"id": 15402, "slack_id": "U095C8NRXAN", "display_name": "manax", "bio": null, "projects_count": 0, "devlogs_count": 0, "votes_count": 0, "ships_count": 0, "projects": [], "coding_time_seconds": 0, "coding_time_seconds_today": 0, "balance": "You need to have a pocket watcher badge to view this.", "badges": [], "created_at": "2025-07-11T05:06:47.934-04:00", "updated_at": "2025-07-11T09:21:40.810-04:00", "avatar": "https://secure.gravatar.com/avatar/cf8d197184ad862f6dc7125ba44bdebc.jpg?s=512&d=https%3A%2F%2Fa.slack-edge.com%2Fdf10d%2Fimg%2Favatars%2Fava_0001-512.png", "custom_css": null}, {"id": 15403, "slack_id": "U0959E08PU6", "display_name": "coder1", "bio": null, "projects_count": 0, "devlogs_count": 0, "votes_count": 0, "ships_count": 0, "projects": [], "coding_time_seconds": 0, "coding_time_seconds_today": 0, "balance": "You need to have a pocket watcher badge to view this.", "badges": [], "created_at": "2025-07-11T05:29:04.387-04:00", "updated_at": "2025-07-11T09:21:40.887-04:00", "avatar": "https://secure.gravatar.com/avatar/53b9b208a0c3e40ad4724763f6dd28ff.jpg?s=512&d=https%3A%2F%2Fa.slack-edge.com%2Fdf10d%2Fimg%2Favatars%2Fava_0011-512.png", "custom_css": null}, {"id": 15404, "slack_id": "U095RVAEP1P", "display_name": "Incharge ATL", "bio": null, "projects_count": 0, "devlogs_count": 0, "votes_count": 0, "ships_count": 0, "projects": [], "coding_time_seconds": 0, "coding_time_seconds_today": 0, "balance": "You need to have a pocket watcher badge to view this.", "badges": [], "created_at": "2025-07-11T05:51:44.960-04:00", "updated_at": "2025-07-11T09:21:40.966-04:00", "avatar": "https://avatars.slack-edge.com/2025-07-11/9196010914881_707cb45fed515b5aeef0_original.png", "custom_css": null}, {"id": 15405, "slack_id": "U095S06KLC9", "display_name": "Guest", "bio": null, "projects_count": 1, "devlogs_count": 4, "votes_count": 36, "ships_count": 1, "projects": [{"id": 6286, "title": "Vortex website", "devlogs_count": 4, "created_at": "2025-07-12T03:23:16.889-04:00"}], "coding_time_seconds": 60083, "coding_time_seconds_today": 0, "balance": "You need to have a pocket watcher badge to view this.", "badges": [{"name": "Maiden Voyage", "text": "you shipped your first project! the journey begins...", "icon": "\ud83d\udea2"}], "created_at": "2025-07-11T05:53:07.170-04:00", "updated_at": "2025-09-10T22:58:46.183-04:00", "avatar": "https://avatars.slack-edge.com/2025-08-27/9428707291025_ed999818011f242c348f_original.jpg", "custom_css": null}], "pagination": {"page": 766, "pages": 1192, "count": 23828, "items": 20}}