{"users": [{"id": 15406, "slack_id": "U0959GQU5FG", "display_name": "Khizer Malik", "bio": null, "projects_count": 0, "devlogs_count": 0, "votes_count": 0, "ships_count": 0, "projects": [], "coding_time_seconds": 0, "coding_time_seconds_today": 0, "balance": "You need to have a pocket watcher badge to view this.", "badges": [], "created_at": "2025-07-11T05:55:27.794-04:00", "updated_at": "2025-07-11T09:21:41.141-04:00", "avatar": "https://secure.gravatar.com/avatar/9d33003141377f9211e49703e7d5bfb5.jpg?s=512&d=https%3A%2F%2Fa.slack-edge.com%2Fdf10d%2Fimg%2Favatars%2Fava_0025-512.png", "custom_css": null}, {"id": 15407, "slack_id": "U095S1XPE2D", "display_name": "arhaan rai", "bio": null, "projects_count": 0, "devlogs_count": 0, "votes_count": 0, "ships_count": 0, "projects": [], "coding_time_seconds": 26192, "coding_time_seconds_today": 0, "balance": "You need to have a pocket watcher badge to view this.", "badges": [], "created_at": "2025-07-11T06:05:59.814-04:00", "updated_at": "2025-07-11T09:21:41.239-04:00", "avatar": "https://avatars.slack-edge.com/2025-07-11/9184205190292_28e55a8120a92257300e_original.jpg", "custom_css": null}, {"id": 15408, "slack_id": "U095E72MU5A", "display_name": "Deflorion474", "bio": null, "projects_count": 1, "devlogs_count": 1, "votes_count": 19, "ships_count": 1, "projects": [{"id": 6344, "title": "Punch-O-Matic 2000", "devlogs_count": 1, "created_at": "2025-07-12T14:52:23.631-04:00"}], "coding_time_seconds": 14857, "coding_time_seconds_today": 0, "balance": "You need to have a pocket watcher badge to view this.", "badges": [{"name": "Maiden Voyage", "text": "you shipped your first project! the journey begins...", "icon": "\ud83d\udea2"}], "created_at": "2025-07-11T06:18:34.497-04:00", "updated_at": "2025-09-10T22:58:46.247-04:00", "avatar": "https://secure.gravatar.com/avatar/4ac39bc6db3370355845ece9c0727e77.jpg?s=512&d=https%3A%2F%2Fa.slack-edge.com%2Fdf10d%2Fimg%2Favatars%2Fava_0004-512.png", "custom_css": null}, {"id": 15409, "slack_id": "U0821JP002J", "display_name": "slosa (Michal)", "bio": null, "projects_count": 0, "devlogs_count": 0, "votes_count": 0, "ships_count": 0, "projects": [], "coding_time_seconds": 0, "coding_time_seconds_today": 0, "balance": "You need to have a pocket watcher badge to view this.", "badges": [], "created_at": "2025-07-11T06:38:38.026-04:00", "updated_at": "2025-07-11T06:48:59.340-04:00", "avatar": "https://avatars.slack-edge.com/2024-11-24/8099045145120_e191cf19680ec87bb7dd_original.jpg", "custom_css": null}, {"id": 15410, "slack_id": "U094ZFJE9C7", "display_name": "Aayush Adhikari", "bio": null, "projects_count": 0, "devlogs_count": 0, "votes_count": 0, "ships_count": 0, "projects": [], "coding_time_seconds": 0, "coding_time_seconds_today": 0, "balance": "You need to have a pocket watcher badge to view this.", "badges": [], "created_at": "2025-07-11T06:57:06.726-04:00", "updated_at": "2025-07-11T09:21:41.478-04:00", "avatar": "https://secure.gravatar.com/avatar/b8b7df52a067cd8110660dc1569af2d8.jpg?s=512&d=https%3A%2F%2Fa.slack-edge.com%2Fdf10d%2Fimg%2Favatars%2Fava_0009-512.png", "custom_css": null}, {"id": 15411, "slack_id": "U0959U01N4E", "display_name": "Josh White", "bio": null, "projects_count": 0, "devlogs_count": 0, "votes_count": 0, "ships_count": 0, "projects": [], "coding_time_seconds": 0, "coding_time_seconds_today": 0, "balance": "You need to have a pocket watcher badge to view this.", "badges": [], "created_at": "2025-07-11T07:13:23.370-04:00", "updated_at": "2025-07-11T09:21:41.566-04:00", "avatar": "https://avatars.slack-edge.com/2025-07-11/9169604030775_53d94b5646a37e7567ca_original.png", "custom_css": null}, {"id": 15412, "slack_id": "U095BQ53YVB", "display_name": "He Haotan", "bio": null, "projects_count": 0, "devlogs_count": 0, "votes_count": 0, "ships_count": 0, "projects": [], "coding_time_seconds": 0, "coding_time_seconds_today": 0, "balance": "You need to have a pocket watcher badge to view this.", "badges": [], "created_at": "2025-07-11T07:19:31.940-04:00", "updated_at": "2025-07-11T09:21:41.645-04:00", "avatar": "https://secure.gravatar.com/avatar/09fed813aa57199d574f8766afdb46c4.jpg?s=512&d=https%3A%2F%2Fa.slack-edge.com%2Fdf10d%2Fimg%2Favatars%2Fava_0024-512.png", "custom_css": null}, {"id": 15413, "slack_id": "U0939V8LKMZ", "display_name": "Subham Choudhury", "bio": null, "projects_count": 0, "devlogs_count": 0, "votes_count": 0, "ships_count": 0, "projects": [], "coding_time_seconds": 0, "coding_time_seconds_today": 0, "balance": "You need to have a pocket watcher badge to view this.", "badges": [], "created_at": "2025-07-11T08:09:56.410-04:00", "updated_at": "2025-07-11T09:21:41.719-04:00", "avatar": "https://secure.gravatar.com/avatar/3e511f7d7fefa1319b9797bdccca6645.jpg?s=512&d=https%3A%2F%2Fa.slack-edge.com%2Fdf10d%2Fimg%2Favatars%2Fava_0015-512.png", "custom_css": null}, {"id": 15414, "slack_id": "U095D351YE6", "display_name": "Neel Pandya", "bio": null, "projects_count": 0, "devlogs_count": 0, "votes_count": 0, "ships_count": 0, "projects": [], "coding_time_seconds": 0, "coding_time_seconds_today": 0, "balance": "You need to have a pocket watcher badge to view this.", "badges": [], "created_at": "2025-07-11T08:34:56.525-04:00", "updated_at": "2025-07-11T09:21:41.800-04:00", "avatar": "https://secure.gravatar.com/avatar/d03fe88815e2c1316c8d1583eb48a528.jpg?s=512&d=https%3A%2F%2Fa.slack-edge.com%2Fdf10d%2Fimg%2Favatars%2Fava_0008-512.png", "custom_css": null}, {"id": 15415, "slack_id": "U09585WCAD9", "display_name": "Rubiks", "bio": null, "projects_count": 0, "devlogs_count": 0, "votes_count": 0, "ships_count": 0, "projects": [], "coding_time_seconds": 0, "coding_time_seconds_today": 0, "balance": "You need to have a pocket watcher badge to view this.", "badges": [], "created_at": "2025-07-11T08:58:48.491-04:00", "updated_at": "2025-07-11T09:21:41.886-04:00", "avatar": "https://secure.gravatar.com/avatar/6c14f65c8c7ee48c267105c3c1a228ff.jpg?s=512&d=https%3A%2F%2Fa.slack-edge.com%2Fdf10d%2Fimg%2Favatars%2Fava_0005-512.png", "custom_css": null}, {"id": 15416, "slack_id": "U08QLT1EFL5", "display_name": "Vasile Bargaoan", "bio": null, "projects_count": 0, "devlogs_count": 0, "votes_count": 0, "ships_count": 0, "projects": [], "coding_time_seconds": 65528, "coding_time_seconds_today": 0, "balance": "You need to have a pocket watcher badge to view this.", "badges": [], "created_at": "2025-07-11T09:04:38.044-04:00", "updated_at": "2025-07-11T09:21:41.975-04:00", "avatar": "https://avatars.slack-edge.com/2025-05-02/8836920367381_98fea72829adde3bdb95_original.png", "custom_css": null}, {"id": 15417, "slack_id": "U095AHA03EJ", "display_name": "aman", "bio": "C++/JS/CSS | learning React ", "projects_count": 0, "devlogs_count": 32, "votes_count": 91, "ships_count": 0, "projects": [], "coding_time_seconds": 307692, "coding_time_seconds_today": 0, "balance": "You need to have a pocket watcher badge to view this.", "badges": [{"name": "Maiden Voyage", "text": "you shipped your first project! the journey begins...", "icon": "\ud83d\udea2"}, {"name": "Ballot Stuffer", "text": "vote 100 times.", "icon": "https://summer.hackclub.com/assets/i_voted-bf851b48.png"}, {"name": "Spider", "text": "this user has a pet!", "icon": "\ud83d\udd77\ufe0f"}], "created_at": "2025-07-11T09:26:53.043-04:00", "updated_at": "2025-09-10T22:58:46.441-04:00", "avatar": "https://avatars.slack-edge.com/2025-08-03/9311247483121_74e8d7c1d18646f2cc8a_original.jpg", "custom_css": null}, {"id": 15418, "slack_id": "U095AJK11QW", "display_name": "preclik02", "bio": null, "projects_count": 0, "devlogs_count": 0, "votes_count": 0, "ships_count": 0, "projects": [], "coding_time_seconds": 0, "coding_time_seconds_today": 0, "balance": "You need to have a pocket watcher badge to view this.", "badges": [], "created_at": "2025-07-11T09:32:11.389-04:00", "updated_at": "2025-07-11T21:21:43.858-04:00", "avatar": "https://secure.gravatar.com/avatar/e442b343148ee914edcb721c73da8a2b.jpg?s=512&d=https%3A%2F%2Fa.slack-edge.com%2Fdf10d%2Fimg%2Favatars%2Fava_0017-512.png", "custom_css": null}, {"id": 15419, "slack_id": "U09503M15HV", "display_name": "Annaji Viswanadh Garimella", "bio": null, "projects_count": 0, "devlogs_count": 0, "votes_count": 0, "ships_count": 0, "projects": [], "coding_time_seconds": 0, "coding_time_seconds_today": 0, "balance": "You need to have a pocket watcher badge to view this.", "badges": [], "created_at": "2025-07-11T09:36:18.673-04:00", "updated_at": "2025-07-11T21:21:43.934-04:00", "avatar": "https://secure.gravatar.com/avatar/dfb25e072cadd3489fea0c6ee4872f17.jpg?s=512&d=https%3A%2F%2Fa.slack-edge.com%2Fdf10d%2Fimg%2Favatars%2Fava_0025-512.png", "custom_css": null}, {"id": 15420, "slack_id": "U0961NC09CY", "display_name": "Parth S", "bio": null, "projects_count": 0, "devlogs_count": 0, "votes_count": 0, "ships_count": 0, "projects": [], "coding_time_seconds": 0, "coding_time_seconds_today": 0, "balance": "You need to have a pocket watcher badge to view this.", "badges": [], "created_at": "2025-07-11T09:44:22.595-04:00", "updated_at": "2025-07-11T21:21:44.055-04:00", "avatar": "https://secure.gravatar.com/avatar/4e16770b0b44ebaa3d3d2785c07c3270.jpg?s=512&d=https%3A%2F%2Fa.slack-edge.com%2Fdf10d%2Fimg%2Favatars%2Fava_0017-512.png", "custom_css": null}, {"id": 15421, "slack_id": "U07DLEKJA85", "display_name": "shambhavi", "bio": null, "projects_count": 0, "devlogs_count": 0, "votes_count": 0, "ships_count": 0, "projects": [], "coding_time_seconds": 91926, "coding_time_seconds_today": 0, "balance": "You need to have a pocket watcher badge to view this.", "badges": [], "created_at": "2025-07-11T10:06:32.370-04:00", "updated_at": "2025-09-17T16:11:56.505-04:00", "avatar": "https://avatars.slack-edge.com/2025-09-08/9465885333111_65f310e7dd941f9ffc3d_original.png", "custom_css": null}, {"id": 15422, "slack_id": "U094FBFJQUD", "display_name": "Ewezu Ngim", "bio": null, "projects_count": 0, "devlogs_count": 0, "votes_count": 0, "ships_count": 0, "projects": [], "coding_time_seconds": 0, "coding_time_seconds_today": 0, "balance": "You need to have a pocket watcher badge to view this.", "badges": [], "created_at": "2025-07-11T10:08:20.707-04:00", "updated_at": "2025-07-11T21:21:44.238-04:00", "avatar": "https://secure.gravatar.com/avatar/6c9c02c3df62fd72f3c062357c4e86aa.jpg?s=512&d=https%3A%2F%2Fa.slack-edge.com%2Fdf10d%2Fimg%2Favatars%2Fava_0008-512.png", "custom_css": null}, {"id": 15423, "slack_id": "U095DJFFSSW", "display_name": "Prashanna Dhami", "bio": null, "projects_count": 0, "devlogs_count": 0, "votes_count": 0, "ships_count": 0, "projects": [], "coding_time_seconds": 6584, "coding_time_seconds_today": 0, "balance": "You need to have a pocket watcher badge to view this.", "badges": [], "created_at": "2025-07-11T10:13:40.459-04:00", "updated_at": "2025-07-11T21:21:44.312-04:00", "avatar": "https://secure.gravatar.com/avatar/51a8b1f33f815b6608500ad2597993e3.jpg?s=512&d=https%3A%2F%2Fa.slack-edge.com%2Fdf10d%2Fimg%2Favatars%2Fava_0019-512.png", "custom_css": null}, {"id": 15424, "slack_id": "U07BYQVKRG8", "display_name": "Ryan Lim", "bio": null, "projects_count": 0, "devlogs_count": 0, "votes_count": 0, "ships_count": 0, "projects": [], "coding_time_seconds": 0, "coding_time_seconds_today": 0, "balance": "You need to have a pocket watcher badge to view this.", "badges": [], "created_at": "2025-07-11T10:52:25.269-04:00", "updated_at": "2025-07-12T12:33:00.270-04:00", "avatar": "https://avatars.slack-edge.com/2024-09-11/7694916152071_0317b28ef774495922c2_original.jpg", "custom_css": null}, {"id": 15425, "slack_id": "U095DRHR350", "display_name": "Uday Sharma", "bio": null, "projects_count": 0, "devlogs_count": 0, "votes_count": 0, "ships_count": 0, "projects": [], "coding_time_seconds": 0, "coding_time_seconds_today": 0, "balance": "You need to have a pocket watcher badge to view this.", "badges": [], "created_at": "2025-07-11T10:57:04.964-04:00", "updated_at": "2025-07-11T21:21:44.443-04:00", "avatar": "https://secure.gravatar.com/avatar/1a5efe3dca79646b1f81ccf68a8fc465.jpg?s=512&d=https%3A%2F%2Fa.slack-edge.com%2Fdf10d%2Fimg%2Favatars%2Fava_0024-512.png", "custom_css": null}], "pagination": {"page": 767, "pages": 1192, "count": 23828, "items": 20}}