{"users": [{"id": 15426, "slack_id": "U095TEXPD1P", "display_name": "Andrew Hepworth", "bio": null, "projects_count": 0, "devlogs_count": 0, "votes_count": 0, "ships_count": 0, "projects": [], "coding_time_seconds": 0, "coding_time_seconds_today": 0, "balance": "You need to have a pocket watcher badge to view this.", "badges": [], "created_at": "2025-07-11T11:01:39.758-04:00", "updated_at": "2025-07-11T21:21:44.521-04:00", "avatar": "https://secure.gravatar.com/avatar/8b8c1d1d7269d4468a325917ee80840f.jpg?s=512&d=https%3A%2F%2Fa.slack-edge.com%2Fdf10d%2Fimg%2Favatars%2Fava_0015-512.png", "custom_css": null}, {"id": 15427, "slack_id": "U0820V84P6Z", "display_name": "Volkov", "bio": null, "projects_count": 1, "devlogs_count": 6, "votes_count": 0, "ships_count": 0, "projects": [{"id": 11022, "title": "The Dice-inator", "devlogs_count": 6, "created_at": "2025-08-12T12:55:38.850-04:00"}], "coding_time_seconds": 119835, "coding_time_seconds_today": 0, "balance": "You need to have a pocket watcher badge to view this.", "badges": [], "created_at": "2025-07-11T11:28:32.914-04:00", "updated_at": "2025-08-08T17:10:22.315-04:00", "avatar": "https://avatars.slack-edge.com/2025-02-26/8506226354262_10cdbf825622dfb4b761_original.png", "custom_css": null}, {"id": 15428, "slack_id": "U095UDD1KH7", "display_name": "Muhammad Ahmad Hamid", "bio": null, "projects_count": 0, "devlogs_count": 0, "votes_count": 0, "ships_count": 0, "projects": [], "coding_time_seconds": 0, "coding_time_seconds_today": 0, "balance": "You need to have a pocket watcher badge to view this.", "badges": [], "created_at": "2025-07-11T14:22:14.387-04:00", "updated_at": "2025-07-11T21:21:44.657-04:00", "avatar": "https://secure.gravatar.com/avatar/4af510e341458e80d16cca6e9d0c53b5.jpg?s=512&d=https%3A%2F%2Fa.slack-edge.com%2Fdf10d%2Fimg%2Favatars%2Fava_0017-512.png", "custom_css": null}, {"id": 15429, "slack_id": "U081GLEBDQV", "display_name": "Loay Alaa", "bio": null, "projects_count": 3, "devlogs_count": 3, "votes_count": 57, "ships_count": 3, "projects": [{"id": 6349, "title": "Pet Simulator", "devlogs_count": 1, "created_at": "2025-07-12T15:04:29.032-04:00"}, {"id": 6409, "title": "Advanced Airline Booking System", "devlogs_count": 1, "created_at": "2025-07-13T04:45:43.027-04:00"}, {"id": 6561, "title": "Space Shooter", "devlogs_count": 1, "created_at": "2025-07-14T09:13:13.396-04:00"}], "coding_time_seconds": 118602, "coding_time_seconds_today": 0, "balance": "You need to have a pocket watcher badge to view this.", "badges": [{"name": "Maiden Voyage", "text": "you shipped your first project! the journey begins...", "icon": "\ud83d\udea2"}], "created_at": "2025-07-11T14:55:34.241-04:00", "updated_at": "2025-09-10T22:58:46.733-04:00", "avatar": "https://avatars.slack-edge.com/2025-07-12/9209943101232_fe0a37989647fa4e724e_original.png", "custom_css": null}, {"id": 15430, "slack_id": "U092ZFTQ04E", "display_name": "Mina Tharwat Marzouk Gobrael", "bio": null, "projects_count": 0, "devlogs_count": 0, "votes_count": 0, "ships_count": 0, "projects": [], "coding_time_seconds": 0, "coding_time_seconds_today": 0, "balance": "You need to have a pocket watcher badge to view this.", "badges": [], "created_at": "2025-07-11T15:08:06.920-04:00", "updated_at": "2025-08-26T04:05:48.861-04:00", "avatar": "https://secure.gravatar.com/avatar/511139676e0bbc1efed39075f6122e1e.jpg?s=512&d=https%3A%2F%2Fa.slack-edge.com%2Fdf10d%2Fimg%2Favatars%2Fava_0021-512.png", "custom_css": null}, {"id": 15431, "slack_id": "U095F67FCGJ", "display_name": "Diya", "bio": null, "projects_count": 0, "devlogs_count": 0, "votes_count": 0, "ships_count": 0, "projects": [], "coding_time_seconds": 0, "coding_time_seconds_today": 0, "balance": "You need to have a pocket watcher badge to view this.", "badges": [], "created_at": "2025-07-11T15:12:43.902-04:00", "updated_at": "2025-07-18T15:26:03.303-04:00", "avatar": "https://secure.gravatar.com/avatar/3403a11485488dc38703becd2901e7fb.jpg?s=512&d=https%3A%2F%2Fa.slack-edge.com%2Fdf10d%2Fimg%2Favatars%2Fava_0004-512.png", "custom_css": null}, {"id": 15432, "slack_id": "U095FAN195Y", "display_name": "Rojen Chakradhar", "bio": null, "projects_count": 0, "devlogs_count": 0, "votes_count": 0, "ships_count": 0, "projects": [], "coding_time_seconds": 20324, "coding_time_seconds_today": 0, "balance": "You need to have a pocket watcher badge to view this.", "badges": [], "created_at": "2025-07-11T15:46:03.091-04:00", "updated_at": "2025-08-19T09:22:14.714-04:00", "avatar": "https://avatars.slack-edge.com/2025-08-19/9368585555539_0c7e38edb2910b198132_original.png", "custom_css": null}, {"id": 15433, "slack_id": "U0950M08ZQF", "display_name": "Mike", "bio": null, "projects_count": 0, "devlogs_count": 0, "votes_count": 0, "ships_count": 0, "projects": [], "coding_time_seconds": 0, "coding_time_seconds_today": 0, "balance": "You need to have a pocket watcher badge to view this.", "badges": [], "created_at": "2025-07-11T15:47:46.878-04:00", "updated_at": "2025-07-11T21:21:45.036-04:00", "avatar": "https://secure.gravatar.com/avatar/d7ca6c4a8786ad13b00a7b20609b4cf7.jpg?s=512&d=https%3A%2F%2Fa.slack-edge.com%2Fdf10d%2Fimg%2Favatars%2Fava_0002-512.png", "custom_css": null}, {"id": 15434, "slack_id": "U095EJYE6UD", "display_name": "ton\u010di", "bio": null, "projects_count": 0, "devlogs_count": 0, "votes_count": 0, "ships_count": 0, "projects": [], "coding_time_seconds": 172, "coding_time_seconds_today": 0, "balance": "You need to have a pocket watcher badge to view this.", "badges": [], "created_at": "2025-07-11T16:07:58.335-04:00", "updated_at": "2025-07-12T14:49:24.911-04:00", "avatar": "https://secure.gravatar.com/avatar/8844834bca77e3be6b2c71f932a1d3fd.jpg?s=512&d=https%3A%2F%2Fa.slack-edge.com%2Fdf10d%2Fimg%2Favatars%2Fava_0016-512.png", "custom_css": null}, {"id": 15435, "slack_id": "U0711E0K0F4", "display_name": "Dan", "bio": null, "projects_count": 5, "devlogs_count": 13, "votes_count": 20, "ships_count": 2, "projects": [{"id": 8512, "title": "windows-config", "devlogs_count": 1, "created_at": "2025-07-27T18:18:01.788-04:00"}, {"id": 8513, "title": "http-server", "devlogs_count": 3, "created_at": "2025-07-27T18:18:48.706-04:00"}, {"id": 10528, "title": "BTHSHub (server)", "devlogs_count": 9, "created_at": "2025-08-07T20:31:23.056-04:00"}, {"id": 13645, "title": "BTHSHub-Site", "devlogs_count": 0, "created_at": "2025-09-21T21:21:04.098-04:00"}, {"id": 12997, "title": "BTHSHub-App", "devlogs_count": 0, "created_at": "2025-09-06T17:37:53.141-04:00"}], "coding_time_seconds": 215038, "coding_time_seconds_today": 0, "balance": "You need to have a pocket watcher badge to view this.", "badges": [{"name": "Maiden Voyage", "text": "you shipped your first project! the journey begins...", "icon": "\ud83d\udea2"}], "created_at": "2025-07-11T16:19:13.945-04:00", "updated_at": "2025-09-21T21:09:24.983-04:00", "avatar": "https://avatars.slack-edge.com/2024-04-28/7035359206931_8b870fd6ab92a09ec9ba_original.png", "custom_css": null}, {"id": 15436, "slack_id": "U0963SFDFHN", "display_name": "Ilyas", "bio": null, "projects_count": 0, "devlogs_count": 0, "votes_count": 0, "ships_count": 0, "projects": [], "coding_time_seconds": 0, "coding_time_seconds_today": 0, "balance": "You need to have a pocket watcher badge to view this.", "badges": [], "created_at": "2025-07-11T16:20:31.485-04:00", "updated_at": "2025-07-11T21:21:45.301-04:00", "avatar": "https://secure.gravatar.com/avatar/77c3e3c7831fac4a11035e919d4928c3.jpg?s=512&d=https%3A%2F%2Fa.slack-edge.com%2Fdf10d%2Fimg%2Favatars%2Fava_0004-512.png", "custom_css": null}, {"id": 15437, "slack_id": "U095EM64M53", "display_name": "DEBANJAN MAJI", "bio": null, "projects_count": 0, "devlogs_count": 0, "votes_count": 0, "ships_count": 0, "projects": [], "coding_time_seconds": 0, "coding_time_seconds_today": 0, "balance": "You need to have a pocket watcher badge to view this.", "badges": [], "created_at": "2025-07-11T16:25:13.967-04:00", "updated_at": "2025-07-11T21:21:45.398-04:00", "avatar": "https://secure.gravatar.com/avatar/1c6575e917459267cac64c1ae9279d4a.jpg?s=512&d=https%3A%2F%2Fa.slack-edge.com%2Fdf10d%2Fimg%2Favatars%2Fava_0006-512.png", "custom_css": null}, {"id": 15438, "slack_id": "U0828GPL2E8", "display_name": "Veeraj Vandakudri", "bio": null, "projects_count": 2, "devlogs_count": 3, "votes_count": 4, "ships_count": 1, "projects": [{"id": 6677, "title": "C4D app (both for IOS & Android)", "devlogs_count": 2, "created_at": "2025-07-15T03:53:49.077-04:00"}, {"id": 6680, "title": "A complete workflow for a fintech agent", "devlogs_count": 1, "created_at": "2025-07-15T04:06:28.681-04:00"}], "coding_time_seconds": 166351, "coding_time_seconds_today": 0, "balance": "You need to have a pocket watcher badge to view this.", "badges": [{"name": "Maiden Voyage", "text": "you shipped your first project! the journey begins...", "icon": "\ud83d\udea2"}], "created_at": "2025-07-11T16:27:33.901-04:00", "updated_at": "2025-09-10T22:58:47.045-04:00", "avatar": "https://avatars.slack-edge.com/2024-11-22/8074056618130_9767352d0ad3deb5cff3_original.png", "custom_css": null}, {"id": 15439, "slack_id": "U095FGAC350", "display_name": "matt", "bio": null, "projects_count": 0, "devlogs_count": 0, "votes_count": 0, "ships_count": 0, "projects": [], "coding_time_seconds": 0, "coding_time_seconds_today": 0, "balance": "You need to have a pocket watcher badge to view this.", "badges": [], "created_at": "2025-07-11T16:28:49.176-04:00", "updated_at": "2025-07-11T21:21:45.539-04:00", "avatar": "https://secure.gravatar.com/avatar/07f182f939418aadcb6702542bde2604.jpg?s=512&d=https%3A%2F%2Fa.slack-edge.com%2Fdf10d%2Fimg%2Favatars%2Fava_0014-512.png", "custom_css": null}, {"id": 15440, "slack_id": "U09640T3JGY", "display_name": "miraz173r", "bio": null, "projects_count": 0, "devlogs_count": 0, "votes_count": 0, "ships_count": 0, "projects": [], "coding_time_seconds": 117630, "coding_time_seconds_today": 0, "balance": "You need to have a pocket watcher badge to view this.", "badges": [], "created_at": "2025-07-11T16:52:52.260-04:00", "updated_at": "2025-07-11T21:21:45.614-04:00", "avatar": "https://secure.gravatar.com/avatar/097c7eada852a1f051c9db01f719b4c7.jpg?s=512&d=https%3A%2F%2Fa.slack-edge.com%2Fdf10d%2Fimg%2Favatars%2Fava_0021-512.png", "custom_css": null}, {"id": 15441, "slack_id": "U08MLAXU9S9", "display_name": "Hesham", "bio": null, "projects_count": 0, "devlogs_count": 0, "votes_count": 0, "ships_count": 0, "projects": [], "coding_time_seconds": 2725, "coding_time_seconds_today": 0, "balance": "You need to have a pocket watcher badge to view this.", "badges": [], "created_at": "2025-07-11T17:14:52.434-04:00", "updated_at": "2025-07-11T17:19:41.220-04:00", "avatar": "https://avatars.slack-edge.com/2025-04-14/8755043687267_87990112cb8eba3793ff_original.jpg", "custom_css": null}, {"id": 15442, "slack_id": "U093C3FD1FD", "display_name": "Lojain Mahmoud Ahmed Hasan", "bio": null, "projects_count": 0, "devlogs_count": 0, "votes_count": 0, "ships_count": 0, "projects": [], "coding_time_seconds": 0, "coding_time_seconds_today": 0, "balance": "You need to have a pocket watcher badge to view this.", "badges": [], "created_at": "2025-07-11T17:31:53.713-04:00", "updated_at": "2025-07-11T21:21:45.759-04:00", "avatar": "https://avatars.slack-edge.com/2025-07-12/9208199102624_b35b4a5fa84a89c06b73_original.jpg", "custom_css": null}, {"id": 15443, "slack_id": "U07GD0E1RUN", "display_name": "Iris Veress", "bio": null, "projects_count": 0, "devlogs_count": 0, "votes_count": 0, "ships_count": 0, "projects": [], "coding_time_seconds": 0, "coding_time_seconds_today": 0, "balance": "You need to have a pocket watcher badge to view this.", "badges": [], "created_at": "2025-07-11T18:16:07.275-04:00", "updated_at": "2025-07-11T18:16:13.876-04:00", "avatar": "https://avatars.slack-edge.com/2024-08-12/7576317830737_47166929ea1dcd4cb4c4_original.png", "custom_css": null}, {"id": 15444, "slack_id": "U095AU1Q89Z", "display_name": "simi", "bio": null, "projects_count": 2, "devlogs_count": 1, "votes_count": 12, "ships_count": 1, "projects": [{"id": 7798, "title": "Car Shop", "devlogs_count": 0, "created_at": "2025-07-23T04:31:25.374-04:00"}, {"id": 6901, "title": "Chic Guess", "devlogs_count": 1, "created_at": "2025-07-17T08:14:30.578-04:00"}], "coding_time_seconds": 38609, "coding_time_seconds_today": 0, "balance": "You need to have a pocket watcher badge to view this.", "badges": [{"name": "Maiden Voyage", "text": "you shipped your first project! the journey begins...", "icon": "\ud83d\udea2"}], "created_at": "2025-07-11T18:43:06.610-04:00", "updated_at": "2025-09-10T22:58:47.194-04:00", "avatar": "https://secure.gravatar.com/avatar/170b2bc5d0bb37ce4d745a03c1996efc.jpg?s=512&d=https%3A%2F%2Fa.slack-edge.com%2Fdf10d%2Fimg%2Favatars%2Fava_0002-512.png", "custom_css": null}, {"id": 15445, "slack_id": "U05D1G4H754", "display_name": "Evan Gan", "bio": null, "projects_count": 0, "devlogs_count": 0, "votes_count": 0, "ships_count": 0, "projects": [], "coding_time_seconds": 236593, "coding_time_seconds_today": 0, "balance": "You need to have a pocket watcher badge to view this.", "badges": [], "created_at": "2025-07-11T19:12:05.093-04:00", "updated_at": "2025-08-12T21:21:14.570-04:00", "avatar": "https://avatars.slack-edge.com/2025-08-12/9329486658215_7e54160e876c9151e0a0_original.jpg", "custom_css": null}], "pagination": {"page": 768, "pages": 1192, "count": 23828, "items": 20}}