{"users": [{"id": 1521, "slack_id": "U09224NL0UR", "display_name": "Tsiyena", "bio": null, "projects_count": 0, "devlogs_count": 0, "votes_count": 0, "ships_count": 0, "projects": [], "coding_time_seconds": 0, "coding_time_seconds_today": 0, "balance": "You need to have a pocket watcher badge to view this.", "badges": [], "created_at": "2025-06-16T13:26:05.370-04:00", "updated_at": "2025-07-03T19:18:01.133-04:00", "avatar": "https://secure.gravatar.com/avatar/9414703a71c98c7e2b73b21275e55b10.jpg?s=512&d=https%3A%2F%2Fa.slack-edge.com%2Fdf10d%2Fimg%2Favatars%2Fava_0010-512.png", "custom_css": null}, {"id": 1522, "slack_id": "U092C380LKS", "display_name": "Artem", "bio": null, "projects_count": 0, "devlogs_count": 0, "votes_count": 0, "ships_count": 0, "projects": [], "coding_time_seconds": 41987, "coding_time_seconds_today": 0, "balance": "You need to have a pocket watcher badge to view this.", "badges": [], "created_at": "2025-06-16T13:26:08.260-04:00", "updated_at": "2025-07-03T19:18:01.411-04:00", "avatar": "https://secure.gravatar.com/avatar/7a3f6d6231ff43a4e647530cf6be4149.jpg?s=512&d=https%3A%2F%2Fa.slack-edge.com%2Fdf10d%2Fimg%2Favatars%2Fava_0017-512.png", "custom_css": null}, {"id": 1523, "slack_id": "U091MRP7QJH", "display_name": "Stella", "bio": null, "projects_count": 0, "devlogs_count": 0, "votes_count": 0, "ships_count": 0, "projects": [], "coding_time_seconds": 0, "coding_time_seconds_today": 0, "balance": "You need to have a pocket watcher badge to view this.", "badges": [], "created_at": "2025-06-16T13:26:08.664-04:00", "updated_at": "2025-07-03T19:18:01.683-04:00", "avatar": "https://secure.gravatar.com/avatar/2d40e1e40cf28904dd904c6b03d0632b.jpg?s=512&d=https%3A%2F%2Fa.slack-edge.com%2Fdf10d%2Fimg%2Favatars%2Fava_0000-512.png", "custom_css": null}, {"id": 1524, "slack_id": "U092C3AR30Q", "display_name": "Jo\u00e3o Fernandes", "bio": null, "projects_count": 0, "devlogs_count": 0, "votes_count": 0, "ships_count": 0, "projects": [], "coding_time_seconds": 0, "coding_time_seconds_today": 0, "balance": "You need to have a pocket watcher badge to view this.", "badges": [], "created_at": "2025-06-16T13:26:13.285-04:00", "updated_at": "2025-07-03T19:18:01.959-04:00", "avatar": "https://secure.gravatar.com/avatar/3010a6de7960f18d26f962aa32ac2753.jpg?s=512&d=https%3A%2F%2Fa.slack-edge.com%2Fdf10d%2Fimg%2Favatars%2Fava_0013-512.png", "custom_css": null}, {"id": 1525, "slack_id": "U091Q1MDKPE", "display_name": "Abrar Jahin", "bio": null, "projects_count": 1, "devlogs_count": 0, "votes_count": 0, "ships_count": 0, "projects": [{"id": 181, "title": "StudErn", "devlogs_count": 0, "created_at": "2025-06-16T15:05:55.259-04:00"}], "coding_time_seconds": 263141, "coding_time_seconds_today": 0, "balance": "You need to have a pocket watcher badge to view this.", "badges": [], "created_at": "2025-06-16T13:26:37.108-04:00", "updated_at": "2025-07-12T15:07:15.730-04:00", "avatar": "https://secure.gravatar.com/avatar/1b65d7b912dbb973c6a2a1a2f0a645ae.jpg?s=512&d=https%3A%2F%2Fa.slack-edge.com%2Fdf10d%2Fimg%2Favatars%2Fava_0015-512.png", "custom_css": null}, {"id": 1526, "slack_id": "U091PJZU690", "display_name": "Jasstej Singh Marwaha", "bio": null, "projects_count": 0, "devlogs_count": 0, "votes_count": 0, "ships_count": 0, "projects": [], "coding_time_seconds": 41637, "coding_time_seconds_today": 0, "balance": "You need to have a pocket watcher badge to view this.", "badges": [], "created_at": "2025-06-16T13:26:42.118-04:00", "updated_at": "2025-07-03T19:18:02.510-04:00", "avatar": "https://avatars.slack-edge.com/2025-06-16/9042357081575_6ce32dd4f8bda4470e04_original.jpg", "custom_css": null}, {"id": 1527, "slack_id": "U09225PBWMP", "display_name": "C\u00f4me d'H\u00e9rouville", "bio": null, "projects_count": 0, "devlogs_count": 0, "votes_count": 0, "ships_count": 0, "projects": [], "coding_time_seconds": 0, "coding_time_seconds_today": 0, "balance": "You need to have a pocket watcher badge to view this.", "badges": [], "created_at": "2025-06-16T13:26:53.128-04:00", "updated_at": "2025-07-03T19:18:02.786-04:00", "avatar": "https://avatars.slack-edge.com/2025-06-16/9050805100198_8c10c1bcfc6b01f375ed_original.jpg", "custom_css": null}, {"id": 1528, "slack_id": "U092C3GUKJL", "display_name": "haritha", "bio": null, "projects_count": 1, "devlogs_count": 0, "votes_count": 0, "ships_count": 0, "projects": [{"id": 1813, "title": "Crux", "devlogs_count": 0, "created_at": "2025-06-19T10:10:44.170-04:00"}], "coding_time_seconds": 0, "coding_time_seconds_today": 0, "balance": "You need to have a pocket watcher badge to view this.", "badges": [], "created_at": "2025-06-16T13:27:13.674-04:00", "updated_at": "2025-07-03T19:18:03.047-04:00", "avatar": "https://secure.gravatar.com/avatar/5016f6a4b83c15a628c30dcc40e27515.jpg?s=512&d=https%3A%2F%2Fa.slack-edge.com%2Fdf10d%2Fimg%2Favatars%2Fava_0010-512.png", "custom_css": null}, {"id": 1529, "slack_id": "U0918A4S79V", "display_name": "Kemal Cater", "bio": null, "projects_count": 2, "devlogs_count": 1, "votes_count": 0, "ships_count": 0, "projects": [{"id": 6937, "title": "encryption", "devlogs_count": 1, "created_at": "2025-07-17T13:51:54.010-04:00"}, {"id": 13371, "title": "Game of Life", "devlogs_count": 0, "created_at": "2025-09-14T16:37:07.983-04:00"}], "coding_time_seconds": 340743, "coding_time_seconds_today": 0, "balance": "You need to have a pocket watcher badge to view this.", "badges": [], "created_at": "2025-06-16T13:27:31.070-04:00", "updated_at": "2025-09-05T21:39:09.825-04:00", "avatar": "https://avatars.slack-edge.com/2025-06-16/9058075823556_d045f54ebd9543237b88_original.png", "custom_css": null}, {"id": 1530, "slack_id": "U091GLEB2KD", "display_name": "Abhay Varshney", "bio": null, "projects_count": 0, "devlogs_count": 0, "votes_count": 0, "ships_count": 0, "projects": [], "coding_time_seconds": 354272, "coding_time_seconds_today": 0, "balance": "You need to have a pocket watcher badge to view this.", "badges": [], "created_at": "2025-06-16T13:27:32.152-04:00", "updated_at": "2025-08-01T15:47:06.723-04:00", "avatar": "https://secure.gravatar.com/avatar/b9cba74ddd0d5d16909d53ac97d1241b.jpg?s=512&d=https%3A%2F%2Fa.slack-edge.com%2Fdf10d%2Fimg%2Favatars%2Fava_0009-512.png", "custom_css": null}, {"id": 1531, "slack_id": "U091GKXA7QT", "display_name": "Joseph P George", "bio": null, "projects_count": 1, "devlogs_count": 0, "votes_count": 0, "ships_count": 0, "projects": [{"id": 1259, "title": "space visualiser", "devlogs_count": 0, "created_at": "2025-06-18T02:42:09.512-04:00"}], "coding_time_seconds": 11025, "coding_time_seconds_today": 0, "balance": "You need to have a pocket watcher badge to view this.", "badges": [], "created_at": "2025-06-16T13:27:34.484-04:00", "updated_at": "2025-07-03T19:18:03.922-04:00", "avatar": "https://secure.gravatar.com/avatar/964bebd64e890c1ba3e07add8c7358a8.jpg?s=512&d=https%3A%2F%2Fa.slack-edge.com%2Fdf10d%2Fimg%2Favatars%2Fava_0002-512.png", "custom_css": null}, {"id": 1532, "slack_id": "U091Q1RR6SG", "display_name": "Marek Balv\u00edn", "bio": null, "projects_count": 0, "devlogs_count": 0, "votes_count": 0, "ships_count": 0, "projects": [], "coding_time_seconds": 0, "coding_time_seconds_today": 0, "balance": "You need to have a pocket watcher badge to view this.", "badges": [], "created_at": "2025-06-16T13:27:37.407-04:00", "updated_at": "2025-07-03T19:18:04.191-04:00", "avatar": "https://avatars.slack-edge.com/2025-06-16/9050809034822_6a957577459ec7239e30_original.png", "custom_css": null}, {"id": 1533, "slack_id": "U091GPBADEJ", "display_name": "Augusto Rech", "bio": null, "projects_count": 0, "devlogs_count": 0, "votes_count": 0, "ships_count": 0, "projects": [], "coding_time_seconds": 0, "coding_time_seconds_today": 0, "balance": "You need to have a pocket watcher badge to view this.", "badges": [], "created_at": "2025-06-16T13:27:52.539-04:00", "updated_at": "2025-07-03T19:18:04.472-04:00", "avatar": "https://secure.gravatar.com/avatar/332c3251c1662c80d682e66ff2c215f0.jpg?s=512&d=https%3A%2F%2Fa.slack-edge.com%2Fdf10d%2Fimg%2Favatars%2Fava_0010-512.png", "custom_css": null}, {"id": 1534, "slack_id": "U091Q1JM52Q", "display_name": "Subhranshu", "bio": null, "projects_count": 0, "devlogs_count": 0, "votes_count": 0, "ships_count": 0, "projects": [], "coding_time_seconds": 349349, "coding_time_seconds_today": 0, "balance": "You need to have a pocket watcher badge to view this.", "badges": [], "created_at": "2025-06-16T13:27:52.985-04:00", "updated_at": "2025-07-03T19:18:04.750-04:00", "avatar": "https://secure.gravatar.com/avatar/b14597fd838b8d88796cad430012db5e.jpg?s=512&d=https%3A%2F%2Fa.slack-edge.com%2Fdf10d%2Fimg%2Favatars%2Fava_0001-512.png", "custom_css": null}, {"id": 1535, "slack_id": "U0854U71H8E", "display_name": "Evan Yu", "bio": null, "projects_count": 2, "devlogs_count": 6, "votes_count": 0, "ships_count": 0, "projects": [{"id": 2718, "title": "Pico+", "devlogs_count": 4, "created_at": "2025-06-21T21:08:40.494-04:00"}, {"id": 4138, "title": "Microkey", "devlogs_count": 2, "created_at": "2025-06-27T17:35:15.944-04:00"}], "coding_time_seconds": 517845, "coding_time_seconds_today": 0, "balance": "You need to have a pocket watcher badge to view this.", "badges": [], "created_at": "2025-06-16T13:27:57.239-04:00", "updated_at": "2025-08-20T17:08:11.233-04:00", "avatar": "https://avatars.slack-edge.com/2025-01-23/8353988240833_1b93df9b5e156cfd3f46_original.jpg", "custom_css": null}, {"id": 1536, "slack_id": "U091GLCK3C3", "display_name": "Jiachen Jiang", "bio": null, "projects_count": 0, "devlogs_count": 0, "votes_count": 0, "ships_count": 0, "projects": [], "coding_time_seconds": 294, "coding_time_seconds_today": 0, "balance": "You need to have a pocket watcher badge to view this.", "badges": [], "created_at": "2025-06-16T13:27:57.682-04:00", "updated_at": "2025-07-03T19:18:05.289-04:00", "avatar": "https://secure.gravatar.com/avatar/7c58ec8032da0ac3b207f46e2662297d.jpg?s=512&d=https%3A%2F%2Fa.slack-edge.com%2Fdf10d%2Fimg%2Favatars%2Fava_0007-512.png", "custom_css": null}, {"id": 1537, "slack_id": "U091MRY7VV3", "display_name": "Phillip R\u00f8dseth", "bio": null, "projects_count": 0, "devlogs_count": 0, "votes_count": 0, "ships_count": 0, "projects": [], "coding_time_seconds": 0, "coding_time_seconds_today": 0, "balance": "You need to have a pocket watcher badge to view this.", "badges": [], "created_at": "2025-06-16T13:28:09.333-04:00", "updated_at": "2025-07-03T19:18:05.564-04:00", "avatar": "https://secure.gravatar.com/avatar/8c8439a0950aecb74f1b0365cb69d27a.jpg?s=512&d=https%3A%2F%2Fa.slack-edge.com%2Fdf10d%2Fimg%2Favatars%2Fava_0014-512.png", "custom_css": null}, {"id": 1538, "slack_id": "U092262LKDF", "display_name": "utkarsh shukla", "bio": null, "projects_count": 0, "devlogs_count": 0, "votes_count": 0, "ships_count": 0, "projects": [], "coding_time_seconds": 0, "coding_time_seconds_today": 0, "balance": "You need to have a pocket watcher badge to view this.", "badges": [], "created_at": "2025-06-16T13:28:13.385-04:00", "updated_at": "2025-07-03T19:18:05.852-04:00", "avatar": "https://avatars.slack-edge.com/2025-06-16/9042354408439_d294182c5153cbaca45c_original.jpg", "custom_css": null}, {"id": 1539, "slack_id": "U0918ADTAMV", "display_name": "Anupam Choudhary", "bio": null, "projects_count": 0, "devlogs_count": 0, "votes_count": 0, "ships_count": 0, "projects": [], "coding_time_seconds": 381585, "coding_time_seconds_today": 0, "balance": "You need to have a pocket watcher badge to view this.", "badges": [], "created_at": "2025-06-16T13:28:17.601-04:00", "updated_at": "2025-07-03T19:18:06.132-04:00", "avatar": "https://avatars.slack-edge.com/2025-06-16/9080140427040_d88592e42b4e3142ed77_original.png", "custom_css": null}, {"id": 1540, "slack_id": "U092265L8NM", "display_name": "Ian Rioseco Castro", "bio": null, "projects_count": 0, "devlogs_count": 0, "votes_count": 0, "ships_count": 0, "projects": [], "coding_time_seconds": 0, "coding_time_seconds_today": 0, "balance": "You need to have a pocket watcher badge to view this.", "badges": [], "created_at": "2025-06-16T13:28:17.810-04:00", "updated_at": "2025-07-03T19:18:06.395-04:00", "avatar": "https://avatars.slack-edge.com/2025-06-16/9080140812960_63aec6df0131f71cc3f5_original.png", "custom_css": null}], "pagination": {"page": 77, "pages": 1192, "count": 23827, "items": 20}}