{"users": [{"id": 15466, "slack_id": "U095WLSGEF3", "display_name": "Udit Chandra", "bio": null, "projects_count": 0, "devlogs_count": 0, "votes_count": 0, "ships_count": 0, "projects": [], "coding_time_seconds": 229, "coding_time_seconds_today": 0, "balance": "You need to have a pocket watcher badge to view this.", "badges": [], "created_at": "2025-07-12T04:45:20.878-04:00", "updated_at": "2025-07-12T09:21:42.527-04:00", "avatar": "https://avatars.slack-edge.com/2025-07-12/9200733445057_3c5987603e47f389da1e_original.jpg", "custom_css": null}, {"id": 15467, "slack_id": "U0965EBCS48", "display_name": "BERTY RIMON", "bio": null, "projects_count": 0, "devlogs_count": 0, "votes_count": 0, "ships_count": 0, "projects": [], "coding_time_seconds": 121281, "coding_time_seconds_today": 0, "balance": "You need to have a pocket watcher badge to view this.", "badges": [], "created_at": "2025-07-12T05:07:08.940-04:00", "updated_at": "2025-08-21T21:21:57.564-04:00", "avatar": "https://avatars.slack-edge.com/2025-08-21/9402268243009_733d90e01fe7ea2d85b2_original.jpg", "custom_css": null}, {"id": 15468, "slack_id": "U0965GG1YDN", "display_name": "Priyanshu", "bio": null, "projects_count": 0, "devlogs_count": 0, "votes_count": 0, "ships_count": 0, "projects": [], "coding_time_seconds": 0, "coding_time_seconds_today": 0, "balance": "You need to have a pocket watcher badge to view this.", "badges": [], "created_at": "2025-07-12T05:59:30.533-04:00", "updated_at": "2025-07-24T05:32:43.893-04:00", "avatar": "https://secure.gravatar.com/avatar/c1369fc8b09eae8c3162a1003d68f5c6.jpg?s=512&d=https%3A%2F%2Fa.slack-edge.com%2Fdf10d%2Fimg%2Favatars%2Fava_0017-512.png", "custom_css": null}, {"id": 15469, "slack_id": "U0782081XU7", "display_name": "Joe", "bio": null, "projects_count": 3, "devlogs_count": 6, "votes_count": 9, "ships_count": 0, "projects": [{"id": 6894, "title": "Questy", "devlogs_count": 4, "created_at": "2025-07-17T06:18:13.265-04:00"}, {"id": 10777, "title": "Ebooko", "devlogs_count": 2, "created_at": "2025-08-10T17:01:18.742-04:00"}, {"id": 12539, "title": "Healtharr", "devlogs_count": 0, "created_at": "2025-08-29T06:17:43.198-04:00"}], "coding_time_seconds": 115636, "coding_time_seconds_today": 284, "balance": "You need to have a pocket watcher badge to view this.", "badges": [], "created_at": "2025-07-12T06:01:23.389-04:00", "updated_at": "2025-08-10T16:57:12.113-04:00", "avatar": "https://secure.gravatar.com/avatar/aed4ba5bb79d96fed91f671285717dbe.jpg?s=512&d=https%3A%2F%2Fa.slack-edge.com%2Fdf10d%2Fimg%2Favatars%2Fava_0025-512.png", "custom_css": null}, {"id": 15470, "slack_id": "U095C9J1AD9", "display_name": "Parul Pahurkar", "bio": null, "projects_count": 0, "devlogs_count": 0, "votes_count": 0, "ships_count": 0, "projects": [], "coding_time_seconds": 0, "coding_time_seconds_today": 0, "balance": "You need to have a pocket watcher badge to view this.", "badges": [], "created_at": "2025-07-12T07:28:29.103-04:00", "updated_at": "2025-07-12T09:21:42.833-04:00", "avatar": "https://avatars.slack-edge.com/2025-07-12/9186460476165_3db28c25ad08bf751310_original.png", "custom_css": null}, {"id": 15471, "slack_id": "U095JSV14CU", "display_name": "Bread Pit", "bio": null, "projects_count": 0, "devlogs_count": 0, "votes_count": 0, "ships_count": 0, "projects": [], "coding_time_seconds": 0, "coding_time_seconds_today": 0, "balance": "You need to have a pocket watcher badge to view this.", "badges": [], "created_at": "2025-07-12T07:38:27.740-04:00", "updated_at": "2025-07-12T09:21:42.915-04:00", "avatar": "https://secure.gravatar.com/avatar/1f017b4b7ba30f1cb4417426f747a0fd.jpg?s=512&d=https%3A%2F%2Fa.slack-edge.com%2Fdf10d%2Fimg%2Favatars%2Fava_0015-512.png", "custom_css": null}, {"id": 15472, "slack_id": "U095EPU8T2A", "display_name": "ittzmesteven", "bio": null, "projects_count": 0, "devlogs_count": 0, "votes_count": 0, "ships_count": 0, "projects": [], "coding_time_seconds": 0, "coding_time_seconds_today": 0, "balance": "You need to have a pocket watcher badge to view this.", "badges": [], "created_at": "2025-07-12T07:48:46.961-04:00", "updated_at": "2025-07-12T09:21:47.044-04:00", "avatar": "https://secure.gravatar.com/avatar/ec89d1a7fdbbba7c723db0d792f8351a.jpg?s=512&d=https%3A%2F%2Fa.slack-edge.com%2Fdf10d%2Fimg%2Favatars%2Fava_0026-512.png", "custom_css": null}, {"id": 15473, "slack_id": "U0965MGPCSC", "display_name": "Anchal", "bio": null, "projects_count": 0, "devlogs_count": 0, "votes_count": 0, "ships_count": 0, "projects": [], "coding_time_seconds": 0, "coding_time_seconds_today": 0, "balance": "You need to have a pocket watcher badge to view this.", "badges": [], "created_at": "2025-07-12T07:53:29.685-04:00", "updated_at": "2025-07-12T09:21:47.120-04:00", "avatar": "https://avatars.slack-edge.com/2025-07-12/9209741340432_816210e082bdfd140d89_original.png", "custom_css": null}, {"id": 15474, "slack_id": "U09183CJS4X", "display_name": "ajay", "bio": null, "projects_count": 0, "devlogs_count": 0, "votes_count": 0, "ships_count": 0, "projects": [], "coding_time_seconds": 0, "coding_time_seconds_today": 0, "balance": "You need to have a pocket watcher badge to view this.", "badges": [], "created_at": "2025-07-12T08:05:21.258-04:00", "updated_at": "2025-07-12T09:21:47.193-04:00", "avatar": "https://secure.gravatar.com/avatar/7b8fc608736a885d61fdfc3b6073f627.jpg?s=512&d=https%3A%2F%2Fa.slack-edge.com%2Fdf10d%2Fimg%2Favatars%2Fava_0022-512.png", "custom_css": null}, {"id": 15475, "slack_id": "U095CC92ZL3", "display_name": "Shifa", "bio": null, "projects_count": 0, "devlogs_count": 0, "votes_count": 0, "ships_count": 0, "projects": [], "coding_time_seconds": 0, "coding_time_seconds_today": 0, "balance": "You need to have a pocket watcher badge to view this.", "badges": [], "created_at": "2025-07-12T08:35:37.581-04:00", "updated_at": "2025-07-12T09:21:47.276-04:00", "avatar": "https://secure.gravatar.com/avatar/a3ad1b54bb1bede9328e50ea8505306b.jpg?s=512&d=https%3A%2F%2Fa.slack-edge.com%2Fdf10d%2Fimg%2Favatars%2Fava_0001-512.png", "custom_css": null}, {"id": 15476, "slack_id": "U06AHBM8E94", "display_name": "Asher", "bio": null, "projects_count": 0, "devlogs_count": 0, "votes_count": 0, "ships_count": 0, "projects": [], "coding_time_seconds": 0, "coding_time_seconds_today": 0, "balance": "You need to have a pocket watcher badge to view this.", "badges": [], "created_at": "2025-07-12T08:39:29.930-04:00", "updated_at": "2025-07-12T08:42:18.548-04:00", "avatar": "https://avatars.slack-edge.com/2023-12-19/6363975742563_c2a138f63953c99455f0_original.jpg", "custom_css": null}, {"id": 15477, "slack_id": "U095H6CRCSW", "display_name": "Alexa Luna", "bio": null, "projects_count": 0, "devlogs_count": 0, "votes_count": 0, "ships_count": 0, "projects": [], "coding_time_seconds": 0, "coding_time_seconds_today": 0, "balance": "You need to have a pocket watcher badge to view this.", "badges": [], "created_at": "2025-07-12T08:43:06.860-04:00", "updated_at": "2025-07-12T09:21:51.477-04:00", "avatar": "https://avatars.slack-edge.com/2025-07-12/9182436346675_378ce7fb03a57d7d4183_original.png", "custom_css": null}, {"id": 15478, "slack_id": "U095ET4FQH4", "display_name": "Afaaafz'", "bio": null, "projects_count": 0, "devlogs_count": 0, "votes_count": 0, "ships_count": 0, "projects": [], "coding_time_seconds": 0, "coding_time_seconds_today": 0, "balance": "You need to have a pocket watcher badge to view this.", "badges": [], "created_at": "2025-07-12T08:59:43.853-04:00", "updated_at": "2025-07-12T09:21:51.567-04:00", "avatar": "https://secure.gravatar.com/avatar/243ef60db873f72934df184cbfefa9f6.jpg?s=512&d=https%3A%2F%2Fa.slack-edge.com%2Fdf10d%2Fimg%2Favatars%2Fava_0009-512.png", "custom_css": null}, {"id": 15479, "slack_id": "U095CEYTAHH", "display_name": "Maaz", "bio": null, "projects_count": 0, "devlogs_count": 1, "votes_count": 3, "ships_count": 0, "projects": [], "coding_time_seconds": 96604, "coding_time_seconds_today": 0, "balance": "You need to have a pocket watcher badge to view this.", "badges": [{"name": "Maiden Voyage", "text": "you shipped your first project! the journey begins...", "icon": "\ud83d\udea2"}], "created_at": "2025-07-12T09:36:58.869-04:00", "updated_at": "2025-09-10T22:58:48.093-04:00", "avatar": "https://secure.gravatar.com/avatar/c899a88acb1f34920af8f2b066033bb6.jpg?s=512&d=https%3A%2F%2Fa.slack-edge.com%2Fdf10d%2Fimg%2Favatars%2Fava_0011-512.png", "custom_css": null}, {"id": 15480, "slack_id": "U05JKJY7A3A", "display_name": "Nguy\u1ec5n Gia B\u00e1ch", "bio": null, "projects_count": 0, "devlogs_count": 0, "votes_count": 0, "ships_count": 0, "projects": [], "coding_time_seconds": 618644, "coding_time_seconds_today": 6257, "balance": "You need to have a pocket watcher badge to view this.", "badges": [], "created_at": "2025-07-12T09:49:17.338-04:00", "updated_at": "2025-07-17T05:06:47.951-04:00", "avatar": "https://avatars.slack-edge.com/2024-09-19/7744058069142_c54b32c3abb9a0de8a6f_original.jpg", "custom_css": null}, {"id": 15481, "slack_id": "U095X57UJAD", "display_name": "Mahdi Zakizadeh", "bio": null, "projects_count": 0, "devlogs_count": 0, "votes_count": 0, "ships_count": 0, "projects": [], "coding_time_seconds": 354013, "coding_time_seconds_today": 0, "balance": "You need to have a pocket watcher badge to view this.", "badges": [], "created_at": "2025-07-12T10:00:03.086-04:00", "updated_at": "2025-07-12T15:21:21.698-04:00", "avatar": "https://avatars.slack-edge.com/2025-07-12/9189143749108_bd6231a8f2df09727df1_original.jpg", "custom_css": null}, {"id": 15482, "slack_id": "U0953NKKGCX", "display_name": "Beanie", "bio": null, "projects_count": 0, "devlogs_count": 0, "votes_count": 0, "ships_count": 0, "projects": [], "coding_time_seconds": 392, "coding_time_seconds_today": 0, "balance": "You need to have a pocket watcher badge to view this.", "badges": [], "created_at": "2025-07-12T10:10:25.589-04:00", "updated_at": "2025-07-12T15:21:21.816-04:00", "avatar": "https://secure.gravatar.com/avatar/56b97cf221c1b2c6a94a4dffb3c3dcd4.jpg?s=512&d=https%3A%2F%2Fa.slack-edge.com%2Fdf10d%2Fimg%2Favatars%2Fava_0021-512.png", "custom_css": null}, {"id": 15483, "slack_id": "U0942PKUS20", "display_name": "TRA64", "bio": null, "projects_count": 0, "devlogs_count": 0, "votes_count": 0, "ships_count": 0, "projects": [], "coding_time_seconds": 0, "coding_time_seconds_today": 0, "balance": "You need to have a pocket watcher badge to view this.", "badges": [], "created_at": "2025-07-12T10:30:32.920-04:00", "updated_at": "2025-07-12T15:21:21.897-04:00", "avatar": "https://avatars.slack-edge.com/2025-07-12/9186759082213_1e026922f0f6a1bc5fdc_original.png", "custom_css": null}, {"id": 15484, "slack_id": "U095K5PE1LL", "display_name": "abdoallah", "bio": null, "projects_count": 1, "devlogs_count": 1, "votes_count": 0, "ships_count": 0, "projects": [{"id": 8436, "title": "Paper Space Mining Industry", "devlogs_count": 1, "created_at": "2025-07-27T06:07:54.731-04:00"}], "coding_time_seconds": 181536, "coding_time_seconds_today": 0, "balance": "You need to have a pocket watcher badge to view this.", "badges": [], "created_at": "2025-07-12T10:35:49.080-04:00", "updated_at": "2025-07-15T08:44:42.049-04:00", "avatar": "https://secure.gravatar.com/avatar/00b54bd879ad06a8558fa4ddc68ced0c.jpg?s=512&d=https%3A%2F%2Fa.slack-edge.com%2Fdf10d%2Fimg%2Favatars%2Fava_0016-512.png", "custom_css": null}, {"id": 15485, "slack_id": "U095X7626QZ", "display_name": "Prathamesh Jha", "bio": null, "projects_count": 0, "devlogs_count": 0, "votes_count": 0, "ships_count": 0, "projects": [], "coding_time_seconds": 5969, "coding_time_seconds_today": 0, "balance": "You need to have a pocket watcher badge to view this.", "badges": [], "created_at": "2025-07-12T10:41:20.416-04:00", "updated_at": "2025-07-17T22:39:01.858-04:00", "avatar": "https://avatars.slack-edge.com/2025-07-12/9182610048579_c88c798e9849b2520fcc_original.jpg", "custom_css": null}], "pagination": {"page": 770, "pages": 1192, "count": 23828, "items": 20}}