{"users": [{"id": 15486, "slack_id": "U095K65BKNY", "display_name": "Evan Liu", "bio": null, "projects_count": 0, "devlogs_count": 0, "votes_count": 0, "ships_count": 0, "projects": [], "coding_time_seconds": 0, "coding_time_seconds_today": 0, "balance": "You need to have a pocket watcher badge to view this.", "badges": [], "created_at": "2025-07-12T10:44:05.880-04:00", "updated_at": "2025-07-12T15:21:22.138-04:00", "avatar": "https://avatars.slack-edge.com/2025-07-12/9189216396900_9c9ecbaa8c129a040102_original.jpg", "custom_css": null}, {"id": 15487, "slack_id": "U0953QKARHV", "display_name": "Rhythm Timalsina", "bio": null, "projects_count": 0, "devlogs_count": 0, "votes_count": 0, "ships_count": 0, "projects": [], "coding_time_seconds": 18007, "coding_time_seconds_today": 0, "balance": "You need to have a pocket watcher badge to view this.", "badges": [], "created_at": "2025-07-12T10:59:24.121-04:00", "updated_at": "2025-07-12T15:21:22.220-04:00", "avatar": "https://avatars.slack-edge.com/2025-07-12/9189239848980_a4077005ba004c1122a9_original.png", "custom_css": null}, {"id": 15488, "slack_id": "U095GQKFYLV", "display_name": "Yasha Bajaj", "bio": null, "projects_count": 0, "devlogs_count": 0, "votes_count": 0, "ships_count": 0, "projects": [], "coding_time_seconds": 2836, "coding_time_seconds_today": 0, "balance": "You need to have a pocket watcher badge to view this.", "badges": [], "created_at": "2025-07-12T11:19:22.597-04:00", "updated_at": "2025-07-12T15:21:22.298-04:00", "avatar": "https://secure.gravatar.com/avatar/3345307ff822b3e9b8954436bb2cbcad.jpg?s=512&d=https%3A%2F%2Fa.slack-edge.com%2Fdf10d%2Fimg%2Favatars%2Fava_0009-512.png", "custom_css": null}, {"id": 15489, "slack_id": "U095CNKGAUT", "display_name": "vidroh072", "bio": null, "projects_count": 0, "devlogs_count": 0, "votes_count": 0, "ships_count": 0, "projects": [], "coding_time_seconds": 0, "coding_time_seconds_today": 0, "balance": "You need to have a pocket watcher badge to view this.", "badges": [], "created_at": "2025-07-12T12:30:21.944-04:00", "updated_at": "2025-07-12T15:21:22.389-04:00", "avatar": "https://secure.gravatar.com/avatar/d438579395b5ff987ee2a0f595a92a79.jpg?s=512&d=https%3A%2F%2Fa.slack-edge.com%2Fdf10d%2Fimg%2Favatars%2Fava_0021-512.png", "custom_css": null}, {"id": 15490, "slack_id": "U0953UT4BB9", "display_name": "amish", "bio": null, "projects_count": 0, "devlogs_count": 0, "votes_count": 0, "ships_count": 0, "projects": [], "coding_time_seconds": 0, "coding_time_seconds_today": 0, "balance": "You need to have a pocket watcher badge to view this.", "badges": [], "created_at": "2025-07-12T12:41:42.774-04:00", "updated_at": "2025-07-12T15:21:22.475-04:00", "avatar": "https://secure.gravatar.com/avatar/27b6a0de3e5dcd07d14bc15a6021408b.jpg?s=512&d=https%3A%2F%2Fa.slack-edge.com%2Fdf10d%2Fimg%2Favatars%2Fava_0017-512.png", "custom_css": null}, {"id": 15491, "slack_id": "U095KCAUEPN", "display_name": "Simrik", "bio": null, "projects_count": 0, "devlogs_count": 0, "votes_count": 0, "ships_count": 0, "projects": [], "coding_time_seconds": 0, "coding_time_seconds_today": 0, "balance": "You need to have a pocket watcher badge to view this.", "badges": [], "created_at": "2025-07-12T13:11:31.252-04:00", "updated_at": "2025-07-12T15:21:22.561-04:00", "avatar": "https://secure.gravatar.com/avatar/e0ca58aa6a88c60d10c34e4ed2a8c775.jpg?s=512&d=https%3A%2F%2Fa.slack-edge.com%2Fdf10d%2Fimg%2Favatars%2Fava_0015-512.png", "custom_css": null}, {"id": 15492, "slack_id": "U082UPGDR0Q", "display_name": "Daniel Xu", "bio": null, "projects_count": 1, "devlogs_count": 7, "votes_count": 56, "ships_count": 1, "projects": [{"id": 6463, "title": "ChessMD", "devlogs_count": 7, "created_at": "2025-07-13T14:42:52.811-04:00"}], "coding_time_seconds": 241303, "coding_time_seconds_today": 0, "balance": "You need to have a pocket watcher badge to view this.", "badges": [{"name": "Maiden Voyage", "text": "you shipped your first project! the journey begins...", "icon": "\ud83d\udea2"}], "created_at": "2025-07-12T13:18:55.849-04:00", "updated_at": "2025-09-10T22:58:48.424-04:00", "avatar": "https://secure.gravatar.com/avatar/4745bac5c409780c915d4cb4f8641d21.jpg?s=512&d=https%3A%2F%2Fa.slack-edge.com%2Fdf10d%2Fimg%2Favatars%2Fava_0005-512.png", "custom_css": null}, {"id": 15493, "slack_id": "U095HJ64ZBL", "display_name": "Dhiloshan Sayanthan", "bio": null, "projects_count": 0, "devlogs_count": 0, "votes_count": 0, "ships_count": 0, "projects": [], "coding_time_seconds": 0, "coding_time_seconds_today": 0, "balance": "You need to have a pocket watcher badge to view this.", "badges": [], "created_at": "2025-07-12T13:20:12.770-04:00", "updated_at": "2025-07-12T15:21:22.727-04:00", "avatar": "https://avatars.slack-edge.com/2025-07-12/9210282306384_b808524b5710bd75cb9c_original.jpg", "custom_css": null}, {"id": 15494, "slack_id": "U08260C0ZSN", "display_name": "Purple", "bio": null, "projects_count": 0, "devlogs_count": 0, "votes_count": 0, "ships_count": 0, "projects": [], "coding_time_seconds": 2582, "coding_time_seconds_today": 0, "balance": "You need to have a pocket watcher badge to view this.", "badges": [], "created_at": "2025-07-12T14:33:15.972-04:00", "updated_at": "2025-07-12T15:21:26.855-04:00", "avatar": "https://avatars.slack-edge.com/2024-11-23/8098517226752_d6991714f3ce2df39afe_original.jpg", "custom_css": null}, {"id": 15495, "slack_id": "U092RVBHZUH", "display_name": "Eva Peng", "bio": null, "projects_count": 0, "devlogs_count": 0, "votes_count": 0, "ships_count": 0, "projects": [], "coding_time_seconds": 0, "coding_time_seconds_today": 0, "balance": "You need to have a pocket watcher badge to view this.", "badges": [], "created_at": "2025-07-12T15:03:07.667-04:00", "updated_at": "2025-07-12T15:21:26.945-04:00", "avatar": "https://secure.gravatar.com/avatar/5cc0616caedf2b6d65d082e7bb40a9c6.jpg?s=512&d=https%3A%2F%2Fa.slack-edge.com%2Fdf10d%2Fimg%2Favatars%2Fava_0014-512.png", "custom_css": null}, {"id": 15496, "slack_id": "U07UMUZA24A", "display_name": "pay-pies", "bio": "", "projects_count": 2, "devlogs_count": 16, "votes_count": 25, "ships_count": 2, "projects": [{"id": 11231, "title": "Habit Tracker App", "devlogs_count": 8, "created_at": "2025-08-14T07:07:53.272-04:00"}, {"id": 7642, "title": "Cats and Dogs", "devlogs_count": 7, "created_at": "2025-07-22T11:32:33.763-04:00"}], "coding_time_seconds": 108779, "coding_time_seconds_today": 0, "balance": "You need to have a pocket watcher badge to view this.", "badges": [{"name": "Maiden Voyage", "text": "you shipped your first project! the journey begins...", "icon": "\ud83d\udea2"}], "created_at": "2025-07-12T15:04:32.287-04:00", "updated_at": "2025-09-10T22:58:48.524-04:00", "avatar": "https://avatars.slack-edge.com/2025-05-28/8966222218964_7f6d2651bc217ea585fc_original.jpg", "custom_css": null}, {"id": 15497, "slack_id": "U095KK1V360", "display_name": "Rachit Jaiswal", "bio": null, "projects_count": 0, "devlogs_count": 0, "votes_count": 0, "ships_count": 0, "projects": [], "coding_time_seconds": 0, "coding_time_seconds_today": 0, "balance": "You need to have a pocket watcher badge to view this.", "badges": [], "created_at": "2025-07-12T15:27:37.228-04:00", "updated_at": "2025-07-13T09:22:13.126-04:00", "avatar": "https://avatars.slack-edge.com/2025-07-12/9187245148501_b37a89dd2582ea39dbe5_original.png", "custom_css": null}, {"id": 15498, "slack_id": "U095H7ZH16H", "display_name": "Luka malin", "bio": null, "projects_count": 0, "devlogs_count": 0, "votes_count": 0, "ships_count": 0, "projects": [], "coding_time_seconds": 0, "coding_time_seconds_today": 0, "balance": "You need to have a pocket watcher badge to view this.", "badges": [], "created_at": "2025-07-12T15:49:45.317-04:00", "updated_at": "2025-07-13T09:22:13.203-04:00", "avatar": "https://secure.gravatar.com/avatar/a4967cc7902c9f1b78499548254cb298.jpg?s=512&d=https%3A%2F%2Fa.slack-edge.com%2Fdf10d%2Fimg%2Favatars%2Fava_0017-512.png", "custom_css": null}, {"id": 15499, "slack_id": "U095HAQ4ZV3", "display_name": "Suryansh Sijwali", "bio": null, "projects_count": 0, "devlogs_count": 0, "votes_count": 0, "ships_count": 0, "projects": [], "coding_time_seconds": 0, "coding_time_seconds_today": 0, "balance": "You need to have a pocket watcher badge to view this.", "badges": [], "created_at": "2025-07-12T16:53:01.284-04:00", "updated_at": "2025-07-13T09:22:17.318-04:00", "avatar": "https://avatars.slack-edge.com/2025-07-12/9183134021923_175f78180368f715a981_original.jpg", "custom_css": null}, {"id": 15500, "slack_id": "U09544MSFB9", "display_name": "Hiago Filipe Santos de Souza", "bio": null, "projects_count": 0, "devlogs_count": 0, "votes_count": 0, "ships_count": 0, "projects": [], "coding_time_seconds": 0, "coding_time_seconds_today": 0, "balance": "You need to have a pocket watcher badge to view this.", "badges": [], "created_at": "2025-07-12T17:15:52.267-04:00", "updated_at": "2025-07-13T09:22:17.403-04:00", "avatar": "https://avatars.slack-edge.com/2025-07-12/9210634637216_d2f83557eaf38733eaf6_original.jpg", "custom_css": null}, {"id": 15501, "slack_id": "U095KR77876", "display_name": "Jaiesurya", "bio": null, "projects_count": 0, "devlogs_count": 0, "votes_count": 0, "ships_count": 0, "projects": [], "coding_time_seconds": 15798, "coding_time_seconds_today": 0, "balance": "You need to have a pocket watcher badge to view this.", "badges": [], "created_at": "2025-07-12T18:01:54.434-04:00", "updated_at": "2025-09-22T13:42:28.794-04:00", "avatar": "https://secure.gravatar.com/avatar/7c92c82ddcd4b593adba150c8cca0766.jpg?s=512&d=https%3A%2F%2Fa.slack-edge.com%2Fdf10d%2Fimg%2Favatars%2Fava_0004-512.png", "custom_css": null}, {"id": 15502, "slack_id": "U095Y75UKBK", "display_name": "Hunter", "bio": null, "projects_count": 0, "devlogs_count": 0, "votes_count": 0, "ships_count": 0, "projects": [], "coding_time_seconds": 53705, "coding_time_seconds_today": 0, "balance": "You need to have a pocket watcher badge to view this.", "badges": [], "created_at": "2025-07-12T21:44:02.330-04:00", "updated_at": "2025-07-13T23:38:01.765-04:00", "avatar": "https://secure.gravatar.com/avatar/cb4f7b11c76db4d9181015ab622a7742.jpg?s=512&d=https%3A%2F%2Fa.slack-edge.com%2Fdf10d%2Fimg%2Favatars%2Fava_0014-512.png", "custom_css": null}, {"id": 15503, "slack_id": "U095L5NC7EY", "display_name": "Vanessa", "bio": null, "projects_count": 0, "devlogs_count": 0, "votes_count": 0, "ships_count": 0, "projects": [], "coding_time_seconds": 0, "coding_time_seconds_today": 0, "balance": "You need to have a pocket watcher badge to view this.", "badges": [], "created_at": "2025-07-12T22:09:32.631-04:00", "updated_at": "2025-07-13T09:22:17.634-04:00", "avatar": "https://secure.gravatar.com/avatar/ebd92cbbd77646d2dd72cc50fc03b7f9.jpg?s=512&d=https%3A%2F%2Fa.slack-edge.com%2Fdf10d%2Fimg%2Favatars%2Fava_0005-512.png", "custom_css": null}, {"id": 15504, "slack_id": "U095J8LFMC2", "display_name": "Hibatullah Hana", "bio": null, "projects_count": 0, "devlogs_count": 0, "votes_count": 0, "ships_count": 0, "projects": [], "coding_time_seconds": 0, "coding_time_seconds_today": 0, "balance": "You need to have a pocket watcher badge to view this.", "badges": [], "created_at": "2025-07-12T22:30:12.775-04:00", "updated_at": "2025-07-13T09:22:17.723-04:00", "avatar": "https://avatars.slack-edge.com/2025-07-12/9187855596901_9df7150a22fd97fe9afd_original.png", "custom_css": null}, {"id": 15505, "slack_id": "U082JM4LX5F", "display_name": "Durga", "bio": "", "projects_count": 0, "devlogs_count": 12, "votes_count": 132, "ships_count": 0, "projects": [], "coding_time_seconds": 172413, "coding_time_seconds_today": 0, "balance": "You need to have a pocket watcher badge to view this.", "badges": [{"name": "Maiden Voyage", "text": "you shipped your first project! the journey begins...", "icon": "\ud83d\udea2"}, {"name": "Ballot Stuffer", "text": "vote 100 times.", "icon": "https://summer.hackclub.com/assets/i_voted-bf851b48.png"}], "created_at": "2025-07-12T22:53:24.414-04:00", "updated_at": "2025-09-10T22:58:48.738-04:00", "avatar": "https://avatars.slack-edge.com/2025-08-07/9300783447303_f16a334ca80e9a77ac24_original.png", "custom_css": null}], "pagination": {"page": 771, "pages": 1192, "count": 23828, "items": 20}}