{"users": [{"id": 15506, "slack_id": "U095JAGB7DG", "display_name": "Pranay Rawat", "bio": null, "projects_count": 1, "devlogs_count": 1, "votes_count": 1, "ships_count": 1, "projects": [{"id": 8212, "title": "Rock Paper Scissors", "devlogs_count": 1, "created_at": "2025-07-25T09:40:59.506-04:00"}], "coding_time_seconds": 23985, "coding_time_seconds_today": 0, "balance": "You need to have a pocket watcher badge to view this.", "badges": [{"name": "Maiden Voyage", "text": "you shipped your first project! the journey begins...", "icon": "\ud83d\udea2"}], "created_at": "2025-07-12T23:32:11.821-04:00", "updated_at": "2025-09-10T22:58:48.774-04:00", "avatar": "https://avatars.slack-edge.com/2025-07-12/9211156475984_4e5449b921900f268468_original.png", "custom_css": null}, {"id": 15507, "slack_id": "U0954P7CK3R", "display_name": "Swordo Leadon", "bio": null, "projects_count": 0, "devlogs_count": 0, "votes_count": 0, "ships_count": 0, "projects": [], "coding_time_seconds": 1608, "coding_time_seconds_today": 0, "balance": "You need to have a pocket watcher badge to view this.", "badges": [], "created_at": "2025-07-12T23:41:01.980-04:00", "updated_at": "2025-07-13T09:22:17.961-04:00", "avatar": "https://avatars.slack-edge.com/2025-07-12/9202404106817_f96a3301fafcbd7a3c53_original.png", "custom_css": null}, {"id": 15508, "slack_id": "U07A4UDE309", "display_name": "Niya", "bio": null, "projects_count": 0, "devlogs_count": 0, "votes_count": 0, "ships_count": 0, "projects": [], "coding_time_seconds": 0, "coding_time_seconds_today": 0, "balance": "You need to have a pocket watcher badge to view this.", "badges": [], "created_at": "2025-07-12T23:57:57.309-04:00", "updated_at": "2025-07-13T00:04:16.764-04:00", "avatar": "https://avatars.slack-edge.com/2024-06-25/7329410406917_106af7ce41cdb4f27364_original.png", "custom_css": null}, {"id": 15509, "slack_id": "U095DNTNG3D", "display_name": "Casper", "bio": null, "projects_count": 1, "devlogs_count": 1, "votes_count": 3, "ships_count": 0, "projects": [{"id": 6420, "title": "SignalForecast", "devlogs_count": 1, "created_at": "2025-07-13T06:20:07.033-04:00"}], "coding_time_seconds": 19802, "coding_time_seconds_today": 0, "balance": "You need to have a pocket watcher badge to view this.", "badges": [], "created_at": "2025-07-13T01:46:28.143-04:00", "updated_at": "2025-07-13T19:30:12.221-04:00", "avatar": "https://secure.gravatar.com/avatar/4281573fa14d0fcdf9b6f7bcc364e8d0.jpg?s=512&d=https%3A%2F%2Fa.slack-edge.com%2Fdf10d%2Fimg%2Favatars%2Fava_0015-512.png", "custom_css": null}, {"id": 15510, "slack_id": "U095YKZNA0H", "display_name": "Arize", "bio": null, "projects_count": 0, "devlogs_count": 0, "votes_count": 0, "ships_count": 0, "projects": [], "coding_time_seconds": 633, "coding_time_seconds_today": 0, "balance": "You need to have a pocket watcher badge to view this.", "badges": [], "created_at": "2025-07-13T03:13:03.528-04:00", "updated_at": "2025-07-13T09:22:22.229-04:00", "avatar": "https://secure.gravatar.com/avatar/1bb627ec60d8eb8b17e70a647e8264bb.jpg?s=512&d=https%3A%2F%2Fa.slack-edge.com%2Fdf10d%2Fimg%2Favatars%2Fava_0019-512.png", "custom_css": null}, {"id": 15511, "slack_id": "U095JJNJXKL", "display_name": "Jess Villanueva", "bio": null, "projects_count": 1, "devlogs_count": 1, "votes_count": 0, "ships_count": 0, "projects": [{"id": 10942, "title": "Experiment Atlas", "devlogs_count": 0, "created_at": "2025-08-12T00:51:35.505-04:00"}], "coding_time_seconds": 5084, "coding_time_seconds_today": 0, "balance": "You need to have a pocket watcher badge to view this.", "badges": [{"name": "Maiden Voyage", "text": "you shipped your first project! the journey begins...", "icon": "\ud83d\udea2"}], "created_at": "2025-07-13T03:23:46.531-04:00", "updated_at": "2025-09-10T22:58:48.904-04:00", "avatar": "https://secure.gravatar.com/avatar/a3ba80706c3573c6951bf7d86ec3f44f.jpg?s=512&d=https%3A%2F%2Fa.slack-edge.com%2Fdf10d%2Fimg%2Favatars%2Fava_0013-512.png", "custom_css": null}, {"id": 15512, "slack_id": "U095LK9T0R2", "display_name": "Huck Peterson", "bio": null, "projects_count": 0, "devlogs_count": 0, "votes_count": 0, "ships_count": 0, "projects": [], "coding_time_seconds": 0, "coding_time_seconds_today": 0, "balance": "You need to have a pocket watcher badge to view this.", "badges": [], "created_at": "2025-07-13T04:01:12.933-04:00", "updated_at": "2025-07-13T09:22:22.395-04:00", "avatar": "https://avatars.slack-edge.com/2025-07-13/9175088998615_f335a80f0a3fb04e5874_original.png", "custom_css": null}, {"id": 15513, "slack_id": "U0967HNQ5T2", "display_name": "penglaitechnology", "bio": null, "projects_count": 0, "devlogs_count": 0, "votes_count": 0, "ships_count": 0, "projects": [], "coding_time_seconds": 0, "coding_time_seconds_today": 0, "balance": "You need to have a pocket watcher badge to view this.", "badges": [], "created_at": "2025-07-13T04:54:31.421-04:00", "updated_at": "2025-07-13T09:22:22.469-04:00", "avatar": "https://secure.gravatar.com/avatar/a1a2c43c244bf7c6a44625a6f318311b.jpg?s=512&d=https%3A%2F%2Fa.slack-edge.com%2Fdf10d%2Fimg%2Favatars%2Fava_0013-512.png", "custom_css": null}, {"id": 15514, "slack_id": "U095E5SJ0JF", "display_name": "Harshit Gautam", "bio": null, "projects_count": 0, "devlogs_count": 0, "votes_count": 0, "ships_count": 0, "projects": [], "coding_time_seconds": 3603, "coding_time_seconds_today": 0, "balance": "You need to have a pocket watcher badge to view this.", "badges": [], "created_at": "2025-07-13T07:12:19.446-04:00", "updated_at": "2025-07-14T03:52:01.927-04:00", "avatar": "https://secure.gravatar.com/avatar/917acae2126b78ef1a90017f0f59298f.jpg?s=512&d=https%3A%2F%2Fa.slack-edge.com%2Fdf10d%2Fimg%2Favatars%2Fava_0024-512.png", "custom_css": null}, {"id": 15515, "slack_id": "U08SB7SU02V", "display_name": "THE benk", "bio": null, "projects_count": 2, "devlogs_count": 0, "votes_count": 1, "ships_count": 0, "projects": [{"id": 9015, "title": "kerbal text adventure", "devlogs_count": 0, "created_at": "2025-07-30T07:32:36.754-04:00"}, {"id": 9014, "title": "kerbal text adventure", "devlogs_count": 0, "created_at": "2025-07-30T07:32:35.016-04:00"}], "coding_time_seconds": 23303, "coding_time_seconds_today": 0, "balance": "You need to have a pocket watcher badge to view this.", "badges": [], "created_at": "2025-07-13T07:31:34.327-04:00", "updated_at": "2025-07-30T16:15:26.877-04:00", "avatar": "https://avatars.slack-edge.com/2025-05-12/8886146579508_5d9881c866819888fe62_original.png", "custom_css": null}, {"id": 15516, "slack_id": "U0955C2UXV5", "display_name": "mosho", "bio": null, "projects_count": 1, "devlogs_count": 2, "votes_count": 19, "ships_count": 0, "projects": [{"id": 6745, "title": "Flaux", "devlogs_count": 0, "created_at": "2025-07-15T17:42:16.610-04:00"}], "coding_time_seconds": 29055, "coding_time_seconds_today": 0, "balance": "You need to have a pocket watcher badge to view this.", "badges": [{"name": "Maiden Voyage", "text": "you shipped your first project! the journey begins...", "icon": "\ud83d\udea2"}], "created_at": "2025-07-13T08:38:15.945-04:00", "updated_at": "2025-09-10T22:58:49.018-04:00", "avatar": "https://secure.gravatar.com/avatar/1e8f347b36ce3848ad13b962201858bb.jpg?s=512&d=https%3A%2F%2Fa.slack-edge.com%2Fdf10d%2Fimg%2Favatars%2Fava_0003-512.png", "custom_css": null}, {"id": 15517, "slack_id": "U0955C8NKP1", "display_name": "AmirAli Rashidi", "bio": null, "projects_count": 0, "devlogs_count": 0, "votes_count": 0, "ships_count": 0, "projects": [], "coding_time_seconds": 356977, "coding_time_seconds_today": 0, "balance": "You need to have a pocket watcher badge to view this.", "badges": [], "created_at": "2025-07-13T08:43:32.712-04:00", "updated_at": "2025-07-13T09:22:22.763-04:00", "avatar": "https://secure.gravatar.com/avatar/ef9a972739badfb396328f2ff7de0d43.jpg?s=512&d=https%3A%2F%2Fa.slack-edge.com%2Fdf10d%2Fimg%2Favatars%2Fava_0011-512.png", "custom_css": null}, {"id": 15518, "slack_id": "U095M1K8H1A", "display_name": "samrat karki", "bio": null, "projects_count": 0, "devlogs_count": 0, "votes_count": 0, "ships_count": 0, "projects": [], "coding_time_seconds": 0, "coding_time_seconds_today": 0, "balance": "You need to have a pocket watcher badge to view this.", "badges": [], "created_at": "2025-07-13T08:44:20.916-04:00", "updated_at": "2025-07-13T09:22:22.840-04:00", "avatar": "https://secure.gravatar.com/avatar/d71b332a79da5c3dba1e6d7faed26422.jpg?s=512&d=https%3A%2F%2Fa.slack-edge.com%2Fdf10d%2Fimg%2Favatars%2Fava_0009-512.png", "custom_css": null}, {"id": 15519, "slack_id": "U07P3KHHNJE", "display_name": "Prayas", "bio": null, "projects_count": 0, "devlogs_count": 0, "votes_count": 0, "ships_count": 0, "projects": [], "coding_time_seconds": 0, "coding_time_seconds_today": 0, "balance": "You need to have a pocket watcher badge to view this.", "badges": [], "created_at": "2025-07-13T08:54:38.087-04:00", "updated_at": "2025-07-13T09:22:22.907-04:00", "avatar": "https://secure.gravatar.com/avatar/6a13eb616151d25ee3725eaf1a64027f.jpg?s=512&d=https%3A%2F%2Fa.slack-edge.com%2Fdf10d%2Fimg%2Favatars%2Fava_0011-512.png", "custom_css": null}, {"id": 15520, "slack_id": "U08NRF98RFC", "display_name": "Akshay Kumar", "bio": null, "projects_count": 0, "devlogs_count": 10, "votes_count": 1, "ships_count": 0, "projects": [], "coding_time_seconds": 1267080, "coding_time_seconds_today": 0, "balance": "You need to have a pocket watcher badge to view this.", "badges": [{"name": "Maiden Voyage", "text": "you shipped your first project! the journey begins...", "icon": "\ud83d\udea2"}], "created_at": "2025-07-13T09:08:22.580-04:00", "updated_at": "2025-09-10T22:58:49.121-04:00", "avatar": "https://secure.gravatar.com/avatar/648ca891e8a5acb148b365f446c42d45.jpg?s=512&d=https%3A%2F%2Fa.slack-edge.com%2Fdf10d%2Fimg%2Favatars%2Fava_0009-512.png", "custom_css": null}, {"id": 15521, "slack_id": "U095M2SRQNQ", "display_name": "Shampu Ali", "bio": null, "projects_count": 0, "devlogs_count": 0, "votes_count": 0, "ships_count": 0, "projects": [], "coding_time_seconds": 0, "coding_time_seconds_today": 0, "balance": "You need to have a pocket watcher badge to view this.", "badges": [], "created_at": "2025-07-13T09:16:01.966-04:00", "updated_at": "2025-07-13T09:22:23.096-04:00", "avatar": "https://secure.gravatar.com/avatar/a12b0b703c3735eec8fce032f157f1fb.jpg?s=512&d=https%3A%2F%2Fa.slack-edge.com%2Fdf10d%2Fimg%2Favatars%2Fava_0026-512.png", "custom_css": null}, {"id": 15522, "slack_id": "U095Z62L9SM", "display_name": "Annelies", "bio": null, "projects_count": 1, "devlogs_count": 1, "votes_count": 0, "ships_count": 0, "projects": [{"id": 6882, "title": "Learning C++", "devlogs_count": 1, "created_at": "2025-07-17T03:45:18.412-04:00"}], "coding_time_seconds": 40310, "coding_time_seconds_today": 0, "balance": "You need to have a pocket watcher badge to view this.", "badges": [], "created_at": "2025-07-13T09:21:24.297-04:00", "updated_at": "2025-08-18T13:33:32.797-04:00", "avatar": "https://secure.gravatar.com/avatar/24093d52fc0f102fe31a770696cfa6a9.jpg?s=512&d=https%3A%2F%2Fa.slack-edge.com%2Fdf10d%2Fimg%2Favatars%2Fava_0001-512.png", "custom_css": null}, {"id": 15523, "slack_id": "U092H3E08U9", "display_name": "Abraham Amartei", "bio": null, "projects_count": 0, "devlogs_count": 0, "votes_count": 0, "ships_count": 0, "projects": [], "coding_time_seconds": 0, "coding_time_seconds_today": 0, "balance": "You need to have a pocket watcher badge to view this.", "badges": [], "created_at": "2025-07-13T09:45:20.312-04:00", "updated_at": "2025-07-13T15:21:48.451-04:00", "avatar": "https://secure.gravatar.com/avatar/a99390e3bbc9d84da9f63a30820beb76.jpg?s=512&d=https%3A%2F%2Fa.slack-edge.com%2Fdf10d%2Fimg%2Favatars%2Fava_0024-512.png", "custom_css": null}, {"id": 15524, "slack_id": "U095JRL8ULV", "display_name": "Safa Yousaf", "bio": null, "projects_count": 1, "devlogs_count": 1, "votes_count": 0, "ships_count": 0, "projects": [{"id": 6452, "title": "Visitor Comment Site", "devlogs_count": 1, "created_at": "2025-07-13T12:59:15.507-04:00"}], "coding_time_seconds": 6043, "coding_time_seconds_today": 0, "balance": "You need to have a pocket watcher badge to view this.", "badges": [], "created_at": "2025-07-13T09:51:21.466-04:00", "updated_at": "2025-07-13T15:21:52.604-04:00", "avatar": "https://secure.gravatar.com/avatar/79cd459ac012dd680096c4e9b8918d5a.jpg?s=512&d=https%3A%2F%2Fa.slack-edge.com%2Fdf10d%2Fimg%2Favatars%2Fava_0010-512.png", "custom_css": null}, {"id": 15525, "slack_id": "U09681LU7SL", "display_name": "higor", "bio": null, "projects_count": 0, "devlogs_count": 0, "votes_count": 0, "ships_count": 0, "projects": [], "coding_time_seconds": 0, "coding_time_seconds_today": 0, "balance": "You need to have a pocket watcher badge to view this.", "badges": [], "created_at": "2025-07-13T10:06:41.714-04:00", "updated_at": "2025-07-13T15:21:52.705-04:00", "avatar": "https://secure.gravatar.com/avatar/aad59e6a9ca80f7324dab36b61bd5137.jpg?s=512&d=https%3A%2F%2Fa.slack-edge.com%2Fdf10d%2Fimg%2Favatars%2Fava_0000-512.png", "custom_css": null}], "pagination": {"page": 772, "pages": 1192, "count": 23828, "items": 20}}