{"users": [{"id": 15526, "slack_id": "U08S64FD23Y", "display_name": "Inesh Agarwal", "bio": null, "projects_count": 0, "devlogs_count": 0, "votes_count": 0, "ships_count": 0, "projects": [], "coding_time_seconds": 10288, "coding_time_seconds_today": 0, "balance": "You need to have a pocket watcher badge to view this.", "badges": [], "created_at": "2025-07-13T10:29:59.222-04:00", "updated_at": "2025-07-18T08:38:54.222-04:00", "avatar": "https://avatars.slack-edge.com/2025-05-19/8909355198547_844b1003e78a5d71fab7_original.png", "custom_css": null}, {"id": 15527, "slack_id": "U095Z89CNKT", "display_name": "Genesis.Grid", "bio": null, "projects_count": 0, "devlogs_count": 0, "votes_count": 0, "ships_count": 0, "projects": [], "coding_time_seconds": 0, "coding_time_seconds_today": 0, "balance": "You need to have a pocket watcher badge to view this.", "badges": [], "created_at": "2025-07-13T10:37:18.467-04:00", "updated_at": "2025-07-13T15:21:52.850-04:00", "avatar": "https://secure.gravatar.com/avatar/f75b9de8a8f46a54f461b677ff512902.jpg?s=512&d=https%3A%2F%2Fa.slack-edge.com%2Fdf10d%2Fimg%2Favatars%2Fava_0023-512.png", "custom_css": null}, {"id": 15528, "slack_id": "U09683EA86L", "display_name": "Etilia", "bio": "Hii, im a game/webdev from germany!", "projects_count": 5, "devlogs_count": 43, "votes_count": 99, "ships_count": 4, "projects": [{"id": 13431, "title": "Only one Bed", "devlogs_count": 8, "created_at": "2025-09-16T09:15:08.665-04:00"}, {"id": 10767, "title": "KeyGame Studios Website", "devlogs_count": 14, "created_at": "2025-08-10T14:21:46.421-04:00"}, {"id": 9775, "title": "Art Portfolio Website", "devlogs_count": 4, "created_at": "2025-08-02T08:45:20.782-04:00"}, {"id": 10144, "title": "New and improved personal website!", "devlogs_count": 15, "created_at": "2025-08-04T11:26:32.303-04:00"}, {"id": 11581, "title": "Website Template", "devlogs_count": 3, "created_at": "2025-08-17T07:46:16.670-04:00"}], "coding_time_seconds": 87403, "coding_time_seconds_today": 0, "balance": "You need to have a pocket watcher badge to view this.", "badges": [{"name": "Maiden Voyage", "text": "you shipped your first project! the journey begins...", "icon": "\ud83d\udea2"}, {"name": "Ballot Stuffer", "text": "vote 100 times.", "icon": "https://summer.hackclub.com/assets/i_voted-bf851b48.png"}], "created_at": "2025-07-13T10:52:51.361-04:00", "updated_at": "2025-09-18T14:43:42.675-04:00", "avatar": "https://avatars.slack-edge.com/2025-08-28/9424209622534_c62c420d32e3b941e363_original.png", "custom_css": null}, {"id": 15529, "slack_id": "U095M75AYEQ", "display_name": "Samip Shrestha", "bio": null, "projects_count": 0, "devlogs_count": 0, "votes_count": 0, "ships_count": 0, "projects": [], "coding_time_seconds": 0, "coding_time_seconds_today": 0, "balance": "You need to have a pocket watcher badge to view this.", "badges": [], "created_at": "2025-07-13T11:00:42.977-04:00", "updated_at": "2025-07-13T15:21:53.043-04:00", "avatar": "https://secure.gravatar.com/avatar/76c3c77fd145d2a0362936b2fd625dfb.jpg?s=512&d=https%3A%2F%2Fa.slack-edge.com%2Fdf10d%2Fimg%2Favatars%2Fava_0008-512.png", "custom_css": null}, {"id": 15530, "slack_id": "U09540LJ30F", "display_name": "Pragnyan Ramtha Adapa", "bio": null, "projects_count": 5, "devlogs_count": 8, "votes_count": 51, "ships_count": 5, "projects": [{"id": 8993, "title": "ASCII\u00a0WEBCAM", "devlogs_count": 3, "created_at": "2025-07-30T05:27:56.463-04:00"}, {"id": 12117, "title": "Auto Pilot ", "devlogs_count": 2, "created_at": "2025-08-23T08:24:34.235-04:00"}, {"id": 6527, "title": "my portfolio", "devlogs_count": 1, "created_at": "2025-07-14T01:53:39.763-04:00"}, {"id": 8173, "title": "emoji guesser ", "devlogs_count": 1, "created_at": "2025-07-25T04:04:22.069-04:00"}, {"id": 8177, "title": "REZ0 search", "devlogs_count": 1, "created_at": "2025-07-25T04:34:19.107-04:00"}], "coding_time_seconds": 76108, "coding_time_seconds_today": 0, "balance": "You need to have a pocket watcher badge to view this.", "badges": [{"name": "Maiden Voyage", "text": "you shipped your first project! the journey begins...", "icon": "\ud83d\udea2"}], "created_at": "2025-07-13T11:06:45.678-04:00", "updated_at": "2025-09-10T22:58:49.346-04:00", "avatar": "https://avatars.slack-edge.com/2025-07-13/9191261807364_e7fdfa6dea003ab8d765_original.jpg", "custom_css": null}, {"id": 15531, "slack_id": "U095ZB7J88H", "display_name": "MOHAMED AMINE NAFAR", "bio": null, "projects_count": 0, "devlogs_count": 0, "votes_count": 0, "ships_count": 0, "projects": [], "coding_time_seconds": 0, "coding_time_seconds_today": 0, "balance": "You need to have a pocket watcher badge to view this.", "badges": [], "created_at": "2025-07-13T11:14:31.145-04:00", "updated_at": "2025-07-13T15:21:53.279-04:00", "avatar": "https://secure.gravatar.com/avatar/ef0a25a32a893babe8fb7191ac09c453.jpg?s=512&d=https%3A%2F%2Fa.slack-edge.com%2Fdf10d%2Fimg%2Favatars%2Fava_0018-512.png", "custom_css": null}, {"id": 15532, "slack_id": "U0955J175QF", "display_name": "DuckPerfect", "bio": null, "projects_count": 0, "devlogs_count": 0, "votes_count": 0, "ships_count": 0, "projects": [], "coding_time_seconds": 167, "coding_time_seconds_today": 0, "balance": "You need to have a pocket watcher badge to view this.", "badges": [], "created_at": "2025-07-13T11:51:40.153-04:00", "updated_at": "2025-07-13T15:21:53.364-04:00", "avatar": "https://secure.gravatar.com/avatar/14b48d738571a7b9c8aeb533b3c2358f.jpg?s=512&d=https%3A%2F%2Fa.slack-edge.com%2Fdf10d%2Fimg%2Favatars%2Fava_0021-512.png", "custom_css": null}, {"id": 15533, "slack_id": "U095JRPJ8BX", "display_name": "Anshika Singh", "bio": null, "projects_count": 0, "devlogs_count": 0, "votes_count": 0, "ships_count": 0, "projects": [], "coding_time_seconds": 0, "coding_time_seconds_today": 0, "balance": "You need to have a pocket watcher badge to view this.", "badges": [], "created_at": "2025-07-13T11:55:57.532-04:00", "updated_at": "2025-07-13T15:21:53.461-04:00", "avatar": "https://avatars.slack-edge.com/2025-07-13/9203455671617_a4f11c3c000ed84384d3_original.png", "custom_css": null}, {"id": 15534, "slack_id": "U095JADU0UA", "display_name": "James magar", "bio": null, "projects_count": 0, "devlogs_count": 0, "votes_count": 0, "ships_count": 0, "projects": [], "coding_time_seconds": 0, "coding_time_seconds_today": 0, "balance": "You need to have a pocket watcher badge to view this.", "badges": [], "created_at": "2025-07-13T11:56:34.037-04:00", "updated_at": "2025-07-13T15:21:53.537-04:00", "avatar": "https://secure.gravatar.com/avatar/ace4a9739177acfb820fc1b260196104.jpg?s=512&d=https%3A%2F%2Fa.slack-edge.com%2Fdf10d%2Fimg%2Favatars%2Fava_0024-512.png", "custom_css": null}, {"id": 15535, "slack_id": "U094HS304AY", "display_name": "Goutham Mahesh", "bio": null, "projects_count": 0, "devlogs_count": 1, "votes_count": 0, "ships_count": 0, "projects": [], "coding_time_seconds": 32747, "coding_time_seconds_today": 0, "balance": "You need to have a pocket watcher badge to view this.", "badges": [], "created_at": "2025-07-13T12:24:33.797-04:00", "updated_at": "2025-07-13T15:21:57.670-04:00", "avatar": "https://secure.gravatar.com/avatar/dbaa8f92905e94b00d75f6eafeef9a71.jpg?s=512&d=https%3A%2F%2Fa.slack-edge.com%2Fdf10d%2Fimg%2Favatars%2Fava_0025-512.png", "custom_css": null}, {"id": 15536, "slack_id": "U095KBM976E", "display_name": "csboo", "bio": null, "projects_count": 0, "devlogs_count": 0, "votes_count": 0, "ships_count": 0, "projects": [], "coding_time_seconds": 0, "coding_time_seconds_today": 0, "balance": "You need to have a pocket watcher badge to view this.", "badges": [], "created_at": "2025-07-13T12:39:14.699-04:00", "updated_at": "2025-07-13T15:21:57.752-04:00", "avatar": "https://secure.gravatar.com/avatar/539d4afa0d8c4cbfb8eb3ef38091c5bc.jpg?s=512&d=https%3A%2F%2Fa.slack-edge.com%2Fdf10d%2Fimg%2Favatars%2Fava_0018-512.png", "custom_css": null}, {"id": 15537, "slack_id": "U095MB4MPPE", "display_name": "Anuj Jain", "bio": null, "projects_count": 0, "devlogs_count": 0, "votes_count": 0, "ships_count": 0, "projects": [], "coding_time_seconds": 0, "coding_time_seconds_today": 0, "balance": "You need to have a pocket watcher badge to view this.", "badges": [], "created_at": "2025-07-13T12:40:55.145-04:00", "updated_at": "2025-07-13T15:21:57.832-04:00", "avatar": "https://secure.gravatar.com/avatar/f137755b3083c44c5f17621c6fa334a3.jpg?s=512&d=https%3A%2F%2Fa.slack-edge.com%2Fdf10d%2Fimg%2Favatars%2Fava_0021-512.png", "custom_css": null}, {"id": 15538, "slack_id": "U095KEQHCJE", "display_name": "Ridhin Paul", "bio": null, "projects_count": 0, "devlogs_count": 0, "votes_count": 0, "ships_count": 0, "projects": [], "coding_time_seconds": 0, "coding_time_seconds_today": 0, "balance": "You need to have a pocket watcher badge to view this.", "badges": [], "created_at": "2025-07-13T13:55:19.367-04:00", "updated_at": "2025-07-14T08:35:57.648-04:00", "avatar": "https://secure.gravatar.com/avatar/0e4772c3a0707b5f7397b8afaae4f3e8.jpg?s=512&d=https%3A%2F%2Fa.slack-edge.com%2Fdf10d%2Fimg%2Favatars%2Fava_0001-512.png", "custom_css": null}, {"id": 15539, "slack_id": "U095MFN7JJ0", "display_name": "Artem Tsitronov", "bio": null, "projects_count": 0, "devlogs_count": 0, "votes_count": 0, "ships_count": 0, "projects": [], "coding_time_seconds": 7670, "coding_time_seconds_today": 0, "balance": "You need to have a pocket watcher badge to view this.", "badges": [], "created_at": "2025-07-13T14:34:29.008-04:00", "updated_at": "2025-07-13T15:21:57.999-04:00", "avatar": "https://secure.gravatar.com/avatar/41c91ab12ead14f82299babe04497bdf.jpg?s=512&d=https%3A%2F%2Fa.slack-edge.com%2Fdf10d%2Fimg%2Favatars%2Fava_0004-512.png", "custom_css": null}, {"id": 15540, "slack_id": "U095EQNN95Z", "display_name": "Trishya Shah", "bio": null, "projects_count": 0, "devlogs_count": 0, "votes_count": 0, "ships_count": 0, "projects": [], "coding_time_seconds": 0, "coding_time_seconds_today": 0, "balance": "You need to have a pocket watcher badge to view this.", "badges": [], "created_at": "2025-07-13T14:47:44.385-04:00", "updated_at": "2025-07-13T15:21:58.085-04:00", "avatar": "https://secure.gravatar.com/avatar/b6aeb18854460256d040884d5c4dc81f.jpg?s=512&d=https%3A%2F%2Fa.slack-edge.com%2Fdf10d%2Fimg%2Favatars%2Fava_0015-512.png", "custom_css": null}, {"id": 15541, "slack_id": "U095MGPJKC4", "display_name": "Anvay", "bio": null, "projects_count": 0, "devlogs_count": 0, "votes_count": 0, "ships_count": 0, "projects": [], "coding_time_seconds": 0, "coding_time_seconds_today": 0, "balance": "You need to have a pocket watcher badge to view this.", "badges": [], "created_at": "2025-07-13T14:55:44.785-04:00", "updated_at": "2025-07-30T17:27:13.959-04:00", "avatar": "https://secure.gravatar.com/avatar/888fde52a49f00f36f09b5334d0b15fd.jpg?s=512&d=https%3A%2F%2Fa.slack-edge.com%2Fdf10d%2Fimg%2Favatars%2Fava_0017-512.png", "custom_css": null}, {"id": 15542, "slack_id": "U095KACJC5T", "display_name": "Claude Dumas", "bio": null, "projects_count": 0, "devlogs_count": 0, "votes_count": 0, "ships_count": 0, "projects": [], "coding_time_seconds": 0, "coding_time_seconds_today": 0, "balance": "You need to have a pocket watcher badge to view this.", "badges": [], "created_at": "2025-07-13T15:21:33.897-04:00", "updated_at": "2025-07-13T21:21:46.806-04:00", "avatar": "https://secure.gravatar.com/avatar/19aa0cad7fd8b26380fceaf64962f2bf.jpg?s=512&d=https%3A%2F%2Fa.slack-edge.com%2Fdf10d%2Fimg%2Favatars%2Fava_0011-512.png", "custom_css": null}, {"id": 15543, "slack_id": "U0968FT0LL8", "display_name": "David", "bio": null, "projects_count": 1, "devlogs_count": 0, "votes_count": 0, "ships_count": 0, "projects": [{"id": 6645, "title": "iPod Music Manager", "devlogs_count": 0, "created_at": "2025-07-14T18:48:28.749-04:00"}], "coding_time_seconds": 86561, "coding_time_seconds_today": 1720, "balance": "You need to have a pocket watcher badge to view this.", "badges": [], "created_at": "2025-07-13T16:10:01.755-04:00", "updated_at": "2025-08-25T10:14:16.666-04:00", "avatar": "https://secure.gravatar.com/avatar/9f266eee42d597303fb3a9b72c1c6c8f.jpg?s=512&d=https%3A%2F%2Fa.slack-edge.com%2Fdf10d%2Fimg%2Favatars%2Fava_0006-512.png", "custom_css": null}, {"id": 15544, "slack_id": "U095KCGG3A9", "display_name": "Anshuman Mishra", "bio": null, "projects_count": 1, "devlogs_count": 0, "votes_count": 0, "ships_count": 0, "projects": [{"id": 6724, "title": "Portfolio", "devlogs_count": 0, "created_at": "2025-07-15T14:33:18.477-04:00"}], "coding_time_seconds": 10251, "coding_time_seconds_today": 0, "balance": "You need to have a pocket watcher badge to view this.", "badges": [], "created_at": "2025-07-13T16:13:59.902-04:00", "updated_at": "2025-07-16T22:30:01.755-04:00", "avatar": "https://avatars.slack-edge.com/2025-07-13/9203837551521_c9f6fa2a35f658537b18_original.png", "custom_css": null}, {"id": 15545, "slack_id": "U0968G6AAJU", "display_name": "Manav Sachdeva", "bio": null, "projects_count": 1, "devlogs_count": 1, "votes_count": 1, "ships_count": 1, "projects": [{"id": 6734, "title": "Basic Python Calculator", "devlogs_count": 1, "created_at": "2025-07-15T15:56:11.389-04:00"}], "coding_time_seconds": 2585, "coding_time_seconds_today": 0, "balance": "You need to have a pocket watcher badge to view this.", "badges": [{"name": "Maiden Voyage", "text": "you shipped your first project! the journey begins...", "icon": "\ud83d\udea2"}], "created_at": "2025-07-13T16:41:47.319-04:00", "updated_at": "2025-09-10T22:58:49.793-04:00", "avatar": "https://avatars.slack-edge.com/2025-07-13/9189730582514_00f3869dcc349c6a7733_original.jpg", "custom_css": null}], "pagination": {"page": 773, "pages": 1192, "count": 23828, "items": 20}}