{"users": [{"id": 15546, "slack_id": "U095FU6B3CN", "display_name": "Alexa", "bio": "", "projects_count": 9, "devlogs_count": 26, "votes_count": 86, "ships_count": 7, "projects": [{"id": 10912, "title": "Reactfolio", "devlogs_count": 2, "created_at": "2025-08-11T18:18:40.941-04:00"}, {"id": 6573, "title": "Clean Portfolio", "devlogs_count": 1, "created_at": "2025-07-14T10:31:24.268-04:00"}, {"id": 13016, "title": "Mons Olympus", "devlogs_count": 0, "created_at": "2025-09-07T01:00:58.957-04:00"}, {"id": 6512, "title": "PERSONALITY QUIZ: WHAT CAT MEME ARE YOU?", "devlogs_count": 5, "created_at": "2025-07-13T23:49:02.357-04:00"}, {"id": 9332, "title": "The History of Boba", "devlogs_count": 4, "created_at": "2025-07-31T16:15:37.561-04:00"}, {"id": 6586, "title": "Magic Flashcards", "devlogs_count": 5, "created_at": "2025-07-14T11:34:58.130-04:00"}, {"id": 6575, "title": "FortuneCookie.io", "devlogs_count": 5, "created_at": "2025-07-14T10:39:26.537-04:00"}, {"id": 6513, "title": "Glass Portfolio Site", "devlogs_count": 2, "created_at": "2025-07-14T00:16:50.728-04:00"}, {"id": 11419, "title": "Dress Up Party", "devlogs_count": 2, "created_at": "2025-08-15T18:07:22.755-04:00"}], "coding_time_seconds": 411448, "coding_time_seconds_today": 0, "balance": "You need to have a pocket watcher badge to view this.", "badges": [{"name": "Maiden Voyage", "text": "you shipped your first project! the journey begins...", "icon": "\ud83d\udea2"}, {"name": "Ballot Stuffer", "text": "vote 100 times.", "icon": "https://summer.hackclub.com/assets/i_voted-bf851b48.png"}], "created_at": "2025-07-13T16:53:50.286-04:00", "updated_at": "2025-09-10T22:58:49.822-04:00", "avatar": "https://secure.gravatar.com/avatar/8d174373af8935bca9c46cc444b3f859.jpg?s=512&d=https%3A%2F%2Fa.slack-edge.com%2Fdf10d%2Fimg%2Favatars%2Fava_0024-512.png", "custom_css": null}, {"id": 15547, "slack_id": "U095ZQZM55F", "display_name": "Mutaz", "bio": null, "projects_count": 1, "devlogs_count": 0, "votes_count": 1, "ships_count": 0, "projects": [{"id": 6478, "title": "Campass", "devlogs_count": 0, "created_at": "2025-07-13T17:16:39.754-04:00"}], "coding_time_seconds": 38021, "coding_time_seconds_today": 0, "balance": "You need to have a pocket watcher badge to view this.", "badges": [], "created_at": "2025-07-13T17:09:14.278-04:00", "updated_at": "2025-08-09T04:08:08.740-04:00", "avatar": "https://secure.gravatar.com/avatar/f9a23280853196565c500742ec5dd2b5.jpg?s=512&d=https%3A%2F%2Fa.slack-edge.com%2Fdf10d%2Fimg%2Favatars%2Fava_0013-512.png", "custom_css": null}, {"id": 15548, "slack_id": "U095MPRNGG4", "display_name": "Noah Jackson", "bio": null, "projects_count": 0, "devlogs_count": 0, "votes_count": 8, "ships_count": 0, "projects": [], "coding_time_seconds": 0, "coding_time_seconds_today": 0, "balance": "You need to have a pocket watcher badge to view this.", "badges": [], "created_at": "2025-07-13T17:40:02.249-04:00", "updated_at": "2025-07-14T22:28:32.404-04:00", "avatar": "https://avatars.slack-edge.com/2025-07-14/9180639686247_b4b8655463dbe436ecb4_original.jpg", "custom_css": null}, {"id": 15549, "slack_id": "U095MQK1ZC4", "display_name": "Henry", "bio": null, "projects_count": 0, "devlogs_count": 0, "votes_count": 0, "ships_count": 0, "projects": [], "coding_time_seconds": 0, "coding_time_seconds_today": 0, "balance": "You need to have a pocket watcher badge to view this.", "badges": [], "created_at": "2025-07-13T18:00:56.993-04:00", "updated_at": "2025-07-14T08:35:58.382-04:00", "avatar": "https://avatars.slack-edge.com/2025-07-13/9189833476130_42b15c17d74449ac8b30_original.png", "custom_css": null}, {"id": 15550, "slack_id": "U079D8NSXV1", "display_name": "Larry Le", "bio": null, "projects_count": 0, "devlogs_count": 0, "votes_count": 0, "ships_count": 0, "projects": [], "coding_time_seconds": 0, "coding_time_seconds_today": 0, "balance": "You need to have a pocket watcher badge to view this.", "badges": [], "created_at": "2025-07-13T18:01:40.500-04:00", "updated_at": "2025-07-13T18:01:45.303-04:00", "avatar": "https://avatars.slack-edge.com/2024-06-23/7304850126855_1216fe99c5acb5b9c330_original.png", "custom_css": null}, {"id": 15551, "slack_id": "U095HQU609L", "display_name": "Ginger", "bio": null, "projects_count": 1, "devlogs_count": 0, "votes_count": 2, "ships_count": 0, "projects": [{"id": 6497, "title": "Protocol/Eclipsed", "devlogs_count": 0, "created_at": "2025-07-13T20:46:50.287-04:00"}], "coding_time_seconds": 10780, "coding_time_seconds_today": 0, "balance": "You need to have a pocket watcher badge to view this.", "badges": [], "created_at": "2025-07-13T18:31:22.079-04:00", "updated_at": "2025-08-24T16:17:13.940-04:00", "avatar": "https://avatars.slack-edge.com/2025-07-13/9187910172614_3313907be0d6953aae62_original.png", "custom_css": null}, {"id": 15552, "slack_id": "U095669844X", "display_name": "Ashray Shah", "bio": "I am a 15 year old cybersecurity and programming enthusiast. I proudly intern at AYODE making CS education better! I also work as a freelancer and Minecraft Client and Macro developer.", "projects_count": 2, "devlogs_count": 4, "votes_count": 23, "ships_count": 1, "projects": [{"id": 6489, "title": "MagicTheme", "devlogs_count": 0, "created_at": "2025-07-13T19:35:42.091-04:00"}, {"id": 6504, "title": "Visor", "devlogs_count": 4, "created_at": "2025-07-13T23:00:22.760-04:00"}], "coding_time_seconds": 256763, "coding_time_seconds_today": 0, "balance": "You need to have a pocket watcher badge to view this.", "badges": [{"name": "Maiden Voyage", "text": "you shipped your first project! the journey begins...", "icon": "\ud83d\udea2"}], "created_at": "2025-07-13T19:15:27.602-04:00", "updated_at": "2025-09-10T22:58:49.952-04:00", "avatar": "https://avatars.slack-edge.com/2025-07-13/9204112713809_4525c885f1753c230243_original.png", "custom_css": null}, {"id": 15553, "slack_id": "U0968RQ6XK2", "display_name": "John Hume", "bio": null, "projects_count": 0, "devlogs_count": 0, "votes_count": 0, "ships_count": 0, "projects": [], "coding_time_seconds": 0, "coding_time_seconds_today": 0, "balance": "You need to have a pocket watcher badge to view this.", "badges": [], "created_at": "2025-07-13T19:35:03.084-04:00", "updated_at": "2025-07-13T21:21:47.692-04:00", "avatar": "https://secure.gravatar.com/avatar/75e7633ecb2f014e02626d65379fd8cb.jpg?s=512&d=https%3A%2F%2Fa.slack-edge.com%2Fdf10d%2Fimg%2Favatars%2Fava_0019-512.png", "custom_css": null}, {"id": 15554, "slack_id": "U095KPH72LV", "display_name": "Samarth Gaggar", "bio": null, "projects_count": 0, "devlogs_count": 0, "votes_count": 0, "ships_count": 0, "projects": [], "coding_time_seconds": 0, "coding_time_seconds_today": 0, "balance": "You need to have a pocket watcher badge to view this.", "badges": [], "created_at": "2025-07-13T20:14:54.616-04:00", "updated_at": "2025-07-13T21:21:51.808-04:00", "avatar": "https://secure.gravatar.com/avatar/1ee2ddca2aef997c9dcd04fbdd0dbc2d.jpg?s=512&d=https%3A%2F%2Fa.slack-edge.com%2Fdf10d%2Fimg%2Favatars%2Fava_0004-512.png", "custom_css": null}, {"id": 15555, "slack_id": "U0864RF9LAX", "display_name": "benj21", "bio": null, "projects_count": 1, "devlogs_count": 0, "votes_count": 0, "ships_count": 0, "projects": [{"id": 9872, "title": "Black and White", "devlogs_count": 0, "created_at": "2025-08-02T15:15:06.748-04:00"}], "coding_time_seconds": 84017, "coding_time_seconds_today": 0, "balance": "You need to have a pocket watcher badge to view this.", "badges": [], "created_at": "2025-07-13T20:17:40.366-04:00", "updated_at": "2025-07-14T22:14:00.234-04:00", "avatar": "https://secure.gravatar.com/avatar/dc758eb8537c19924d32306cbdd62d1b.jpg?s=512&d=https%3A%2F%2Fa.slack-edge.com%2Fdf10d%2Fimg%2Favatars%2Fava_0022-512.png", "custom_css": null}, {"id": 15556, "slack_id": "U09690YAQ3A", "display_name": "John Bennett", "bio": null, "projects_count": 0, "devlogs_count": 0, "votes_count": 0, "ships_count": 0, "projects": [], "coding_time_seconds": 0, "coding_time_seconds_today": 0, "balance": "You need to have a pocket watcher badge to view this.", "badges": [], "created_at": "2025-07-13T20:46:01.352-04:00", "updated_at": "2025-07-14T08:35:58.805-04:00", "avatar": "https://secure.gravatar.com/avatar/4821428943970d2d41e521c8e8033847.jpg?s=512&d=https%3A%2F%2Fa.slack-edge.com%2Fdf10d%2Fimg%2Favatars%2Fava_0017-512.png", "custom_css": null}, {"id": 15557, "slack_id": "U096098DT17", "display_name": "Genilson Mess", "bio": null, "projects_count": 0, "devlogs_count": 0, "votes_count": 0, "ships_count": 0, "projects": [], "coding_time_seconds": 0, "coding_time_seconds_today": 0, "balance": "You need to have a pocket watcher badge to view this.", "badges": [], "created_at": "2025-07-13T20:50:02.559-04:00", "updated_at": "2025-07-13T21:21:56.111-04:00", "avatar": "https://avatars.slack-edge.com/2025-07-13/9185441658163_0fa8f170883facec3a9b_original.png", "custom_css": null}, {"id": 15558, "slack_id": "U095FCT9R4K", "display_name": "Matthew Johnson", "bio": null, "projects_count": 0, "devlogs_count": 0, "votes_count": 0, "ships_count": 0, "projects": [], "coding_time_seconds": 95526, "coding_time_seconds_today": 0, "balance": "You need to have a pocket watcher badge to view this.", "badges": [], "created_at": "2025-07-13T20:53:31.069-04:00", "updated_at": "2025-07-13T21:21:56.200-04:00", "avatar": "https://avatars.slack-edge.com/2025-07-13/9176417459719_d0dae2bfc6a06f085a87_original.png", "custom_css": null}, {"id": 15559, "slack_id": "U095FD1BFDH", "display_name": "Aviatorcat", "bio": null, "projects_count": 1, "devlogs_count": 2, "votes_count": 12, "ships_count": 1, "projects": [{"id": 6511, "title": "Ping", "devlogs_count": 2, "created_at": "2025-07-13T23:42:08.649-04:00"}], "coding_time_seconds": 5458, "coding_time_seconds_today": 0, "balance": "You need to have a pocket watcher badge to view this.", "badges": [{"name": "Maiden Voyage", "text": "you shipped your first project! the journey begins...", "icon": "\ud83d\udea2"}], "created_at": "2025-07-13T20:54:32.272-04:00", "updated_at": "2025-09-10T22:58:50.167-04:00", "avatar": "https://avatars.slack-edge.com/2025-07-13/9188356563094_4498c60691aa7815e8a0_original.jpg", "custom_css": null}, {"id": 15560, "slack_id": "U096948SB5E", "display_name": "goob", "bio": null, "projects_count": 0, "devlogs_count": 0, "votes_count": 0, "ships_count": 0, "projects": [], "coding_time_seconds": 6001, "coding_time_seconds_today": 0, "balance": "You need to have a pocket watcher badge to view this.", "badges": [], "created_at": "2025-07-13T21:23:30.867-04:00", "updated_at": "2025-07-21T21:36:42.814-04:00", "avatar": "https://avatars.slack-edge.com/2025-07-14/9204426142065_7e3357593bb9bef0aa71_original.jpg", "custom_css": null}, {"id": 15561, "slack_id": "U095L04CU05", "display_name": "Tanoak", "bio": null, "projects_count": 0, "devlogs_count": 0, "votes_count": 0, "ships_count": 0, "projects": [], "coding_time_seconds": 0, "coding_time_seconds_today": 0, "balance": "You need to have a pocket watcher badge to view this.", "badges": [], "created_at": "2025-07-13T21:33:52.078-04:00", "updated_at": "2025-07-14T03:22:27.361-04:00", "avatar": "https://avatars.slack-edge.com/2025-07-13/9188245215382_fc37adba5d78eeb40e74_original.png", "custom_css": null}, {"id": 15562, "slack_id": "U095J7B08UW", "display_name": "broderick", "bio": null, "projects_count": 0, "devlogs_count": 0, "votes_count": 0, "ships_count": 0, "projects": [], "coding_time_seconds": 0, "coding_time_seconds_today": 0, "balance": "You need to have a pocket watcher badge to view this.", "badges": [], "created_at": "2025-07-13T21:39:25.504-04:00", "updated_at": "2025-07-14T03:22:27.434-04:00", "avatar": "https://secure.gravatar.com/avatar/4d03d41f703084cb60b1d22e9e8d4a50.jpg?s=512&d=https%3A%2F%2Fa.slack-edge.com%2Fdf10d%2Fimg%2Favatars%2Fava_0018-512.png", "custom_css": null}, {"id": 15563, "slack_id": "U0965LRT0KA", "display_name": "Vedika Gopinaath", "bio": null, "projects_count": 0, "devlogs_count": 0, "votes_count": 0, "ships_count": 0, "projects": [], "coding_time_seconds": 0, "coding_time_seconds_today": 0, "balance": "You need to have a pocket watcher badge to view this.", "badges": [], "created_at": "2025-07-13T21:44:52.806-04:00", "updated_at": "2025-07-14T03:22:27.510-04:00", "avatar": "https://avatars.slack-edge.com/2025-07-13/9190041553045_b1462bb2bbc9fdc2bceb_original.png", "custom_css": null}, {"id": 15564, "slack_id": "U095FJSNN8K", "display_name": "bouney", "bio": null, "projects_count": 0, "devlogs_count": 0, "votes_count": 0, "ships_count": 0, "projects": [], "coding_time_seconds": 0, "coding_time_seconds_today": 0, "balance": "You need to have a pocket watcher badge to view this.", "badges": [], "created_at": "2025-07-13T22:05:20.093-04:00", "updated_at": "2025-07-14T03:22:27.617-04:00", "avatar": "https://secure.gravatar.com/avatar/891d66a633126641e7bbd73eb4dbc9bb.jpg?s=512&d=https%3A%2F%2Fa.slack-edge.com%2Fdf10d%2Fimg%2Favatars%2Fava_0008-512.png", "custom_css": null}, {"id": 15565, "slack_id": "U095NCALZHA", "display_name": "Enfiniq", "bio": null, "projects_count": 0, "devlogs_count": 38, "votes_count": 19, "ships_count": 0, "projects": [], "coding_time_seconds": 580533, "coding_time_seconds_today": 0, "balance": "You need to have a pocket watcher badge to view this.", "badges": [{"name": "Maiden Voyage", "text": "you shipped your first project! the journey begins...", "icon": "\ud83d\udea2"}], "created_at": "2025-07-13T22:28:10.457-04:00", "updated_at": "2025-09-10T22:58:50.341-04:00", "avatar": "https://avatars.slack-edge.com/2025-07-13/9204607611601_f4349a1cf8082f37de9e_original.jpg", "custom_css": null}], "pagination": {"page": 774, "pages": 1192, "count": 23828, "items": 20}}