{"users": [{"id": 15586, "slack_id": "U08234QQG5T", "display_name": "Koushik Hari", "bio": null, "projects_count": 0, "devlogs_count": 0, "votes_count": 3, "ships_count": 0, "projects": [], "coding_time_seconds": 0, "coding_time_seconds_today": 0, "balance": "You need to have a pocket watcher badge to view this.", "badges": [], "created_at": "2025-07-14T06:53:07.914-04:00", "updated_at": "2025-07-14T07:03:22.992-04:00", "avatar": "https://avatars.slack-edge.com/2025-07-14/9192030027701_dd3056274078c46f989f_original.png", "custom_css": null}, {"id": 15587, "slack_id": "U06JZ6URWUB", "display_name": "J Pujith Anand", "bio": "", "projects_count": 0, "devlogs_count": 0, "votes_count": 6, "ships_count": 0, "projects": [], "coding_time_seconds": 0, "coding_time_seconds_today": 0, "balance": "You need to have a pocket watcher badge to view this.", "badges": [{"name": "Ballot Stuffer", "text": "vote 100 times.", "icon": "https://summer.hackclub.com/assets/i_voted-bf851b48.png"}], "created_at": "2025-07-14T06:58:28.916-04:00", "updated_at": "2025-09-10T22:58:50.915-04:00", "avatar": "https://avatars.slack-edge.com/2025-07-15/9199213509652_27af50b3bea161e4c22f_original.jpg", "custom_css": null}, {"id": 15588, "slack_id": "U095QBJTY68", "display_name": "Muhammad Abdullah", "bio": null, "projects_count": 5, "devlogs_count": 19, "votes_count": 84, "ships_count": 4, "projects": [{"id": 7054, "title": "Internet Speed Twitter (X) Complain Bot", "devlogs_count": 2, "created_at": "2025-07-18T15:34:01.668-04:00"}, {"id": 8828, "title": "Portfolio Website", "devlogs_count": 5, "created_at": "2025-07-29T11:46:07.895-04:00"}, {"id": 12887, "title": "Cave Adventure", "devlogs_count": 1, "created_at": "2025-09-04T12:33:45.370-04:00"}, {"id": 7392, "title": "ClariNote (AI Powered Study helper)", "devlogs_count": 6, "created_at": "2025-07-21T14:33:16.220-04:00"}, {"id": 6604, "title": "LinkedIn Job Application Automation", "devlogs_count": 5, "created_at": "2025-07-14T13:42:54.524-04:00"}], "coding_time_seconds": 180041, "coding_time_seconds_today": 0, "balance": "You need to have a pocket watcher badge to view this.", "badges": [{"name": "Maiden Voyage", "text": "you shipped your first project! the journey begins...", "icon": "\ud83d\udea2"}], "created_at": "2025-07-14T07:02:59.933-04:00", "updated_at": "2025-09-10T22:58:50.952-04:00", "avatar": "https://avatars.slack-edge.com/2025-07-14/9178542396263_6f6024909d7be703fbb1_original.png", "custom_css": null}, {"id": 15589, "slack_id": "U0826097XPU", "display_name": "observer5645", "bio": null, "projects_count": 0, "devlogs_count": 0, "votes_count": 9, "ships_count": 0, "projects": [], "coding_time_seconds": 0, "coding_time_seconds_today": 0, "balance": "You need to have a pocket watcher badge to view this.", "badges": [], "created_at": "2025-07-14T07:07:49.279-04:00", "updated_at": "2025-07-15T09:07:00.690-04:00", "avatar": "https://secure.gravatar.com/avatar/4153e29eb190f4bd8a2975ec8073ddb2.jpg?s=512&d=https%3A%2F%2Fa.slack-edge.com%2Fdf10d%2Fimg%2Favatars%2Fava_0026-512.png", "custom_css": null}, {"id": 15590, "slack_id": "U06AZQAKQFK", "display_name": "Eshwar Sai", "bio": null, "projects_count": 0, "devlogs_count": 0, "votes_count": 5, "ships_count": 0, "projects": [], "coding_time_seconds": 0, "coding_time_seconds_today": 0, "balance": "You need to have a pocket watcher badge to view this.", "badges": [], "created_at": "2025-07-14T07:26:43.380-04:00", "updated_at": "2025-07-14T07:35:10.260-04:00", "avatar": "https://avatars.slack-edge.com/2023-12-18/6358265487973_c81cd87d33f5c25c535e_original.jpg", "custom_css": null}, {"id": 15591, "slack_id": "U095L9NMUSJ", "display_name": "dimm", "bio": null, "projects_count": 0, "devlogs_count": 0, "votes_count": 0, "ships_count": 0, "projects": [], "coding_time_seconds": 0, "coding_time_seconds_today": 0, "balance": "You need to have a pocket watcher badge to view this.", "badges": [], "created_at": "2025-07-14T07:29:50.337-04:00", "updated_at": "2025-07-14T22:28:43.564-04:00", "avatar": "https://avatars.slack-edge.com/2025-07-14/9193316148293_62c5a9ad7e2849c6a8d9_original.png", "custom_css": null}, {"id": 15592, "slack_id": "U07Q3AV5F8X", "display_name": "KSR", "bio": null, "projects_count": 0, "devlogs_count": 0, "votes_count": 0, "ships_count": 0, "projects": [], "coding_time_seconds": 0, "coding_time_seconds_today": 0, "balance": "You need to have a pocket watcher badge to view this.", "badges": [], "created_at": "2025-07-14T07:42:28.950-04:00", "updated_at": "2025-07-14T22:28:47.704-04:00", "avatar": "https://secure.gravatar.com/avatar/cc71444957c77945767d7efdfc236860.jpg?s=512&d=https%3A%2F%2Fa.slack-edge.com%2Fdf10d%2Fimg%2Favatars%2Fava_0002-512.png", "custom_css": null}, {"id": 15593, "slack_id": "U082JLHMF9P", "display_name": "Harsha 06", "bio": null, "projects_count": 0, "devlogs_count": 0, "votes_count": 1, "ships_count": 0, "projects": [], "coding_time_seconds": 0, "coding_time_seconds_today": 0, "balance": "You need to have a pocket watcher badge to view this.", "badges": [], "created_at": "2025-07-14T07:44:20.349-04:00", "updated_at": "2025-07-14T07:48:01.232-04:00", "avatar": "https://avatars.slack-edge.com/2025-07-14/9178701719879_13bc0e223a3c89284fca_original.jpg", "custom_css": null}, {"id": 15594, "slack_id": "U095QHMG476", "display_name": "shawtydoha", "bio": null, "projects_count": 0, "devlogs_count": 0, "votes_count": 0, "ships_count": 0, "projects": [], "coding_time_seconds": 0, "coding_time_seconds_today": 0, "balance": "You need to have a pocket watcher badge to view this.", "badges": [], "created_at": "2025-07-14T07:54:50.796-04:00", "updated_at": "2025-07-14T22:28:47.862-04:00", "avatar": "https://secure.gravatar.com/avatar/b9e082c617c95dd483185b2d9d2c15f7.jpg?s=512&d=https%3A%2F%2Fa.slack-edge.com%2Fdf10d%2Fimg%2Favatars%2Fava_0009-512.png", "custom_css": null}, {"id": 15595, "slack_id": "U095NB85B6H", "display_name": "Logan C", "bio": null, "projects_count": 0, "devlogs_count": 0, "votes_count": 0, "ships_count": 0, "projects": [], "coding_time_seconds": 0, "coding_time_seconds_today": 0, "balance": "You need to have a pocket watcher badge to view this.", "badges": [], "created_at": "2025-07-14T08:20:43.432-04:00", "updated_at": "2025-07-14T22:28:47.950-04:00", "avatar": "https://secure.gravatar.com/avatar/a6d44fc5e5ceea89761fdb264f951431.jpg?s=512&d=https%3A%2F%2Fa.slack-edge.com%2Fdf10d%2Fimg%2Favatars%2Fava_0024-512.png", "custom_css": null}, {"id": 15596, "slack_id": "U095NRP5FGS", "display_name": "Carl Joseph N. Nacar", "bio": null, "projects_count": 0, "devlogs_count": 0, "votes_count": 0, "ships_count": 0, "projects": [], "coding_time_seconds": 24164, "coding_time_seconds_today": 0, "balance": "You need to have a pocket watcher badge to view this.", "badges": [], "created_at": "2025-07-14T08:35:55.302-04:00", "updated_at": "2025-09-03T07:49:29.816-04:00", "avatar": "https://secure.gravatar.com/avatar/3c5ed158d7a6b138f9157eac333b7060.jpg?s=512&d=https%3A%2F%2Fa.slack-edge.com%2Fdf10d%2Fimg%2Favatars%2Fava_0026-512.png", "custom_css": null}, {"id": 15597, "slack_id": "U095NJWF7PW", "display_name": "Caleb Chandonnet", "bio": null, "projects_count": 1, "devlogs_count": 0, "votes_count": 1, "ships_count": 0, "projects": [{"id": 6662, "title": "a page to access google sites", "devlogs_count": 0, "created_at": "2025-07-14T23:01:52.787-04:00"}], "coding_time_seconds": 10290, "coding_time_seconds_today": 0, "balance": "You need to have a pocket watcher badge to view this.", "badges": [], "created_at": "2025-07-14T09:03:51.440-04:00", "updated_at": "2025-07-14T22:28:48.122-04:00", "avatar": "https://secure.gravatar.com/avatar/a0b52c609d2bf22acfea8a449ba82c24.jpg?s=512&d=https%3A%2F%2Fa.slack-edge.com%2Fdf10d%2Fimg%2Favatars%2Fava_0006-512.png", "custom_css": null}, {"id": 15598, "slack_id": "U092LQRMS66", "display_name": "Pragati Basnet", "bio": null, "projects_count": 0, "devlogs_count": 0, "votes_count": 0, "ships_count": 0, "projects": [], "coding_time_seconds": 0, "coding_time_seconds_today": 0, "balance": "You need to have a pocket watcher badge to view this.", "badges": [], "created_at": "2025-07-14T09:45:38.573-04:00", "updated_at": "2025-07-14T22:28:48.226-04:00", "avatar": "https://avatars.slack-edge.com/2025-07-14/9191018972950_a81d55527e1f09f52b91_original.png", "custom_css": null}, {"id": 15599, "slack_id": "U095JH4DC91", "display_name": "Rohit", "bio": null, "projects_count": 0, "devlogs_count": 0, "votes_count": 0, "ships_count": 0, "projects": [], "coding_time_seconds": 0, "coding_time_seconds_today": 0, "balance": "You need to have a pocket watcher badge to view this.", "badges": [], "created_at": "2025-07-14T10:11:38.976-04:00", "updated_at": "2025-07-14T22:28:48.300-04:00", "avatar": "https://secure.gravatar.com/avatar/425818e6f94371e726f49a98672bc920.jpg?s=512&d=https%3A%2F%2Fa.slack-edge.com%2Fdf10d%2Fimg%2Favatars%2Fava_0005-512.png", "custom_css": null}, {"id": 15600, "slack_id": "U095M612MBQ", "display_name": "Fumimaro", "bio": null, "projects_count": 0, "devlogs_count": 0, "votes_count": 0, "ships_count": 0, "projects": [], "coding_time_seconds": 0, "coding_time_seconds_today": 0, "balance": "You need to have a pocket watcher badge to view this.", "badges": [], "created_at": "2025-07-14T10:18:02.063-04:00", "updated_at": "2025-07-14T22:28:48.380-04:00", "avatar": "https://secure.gravatar.com/avatar/e7f118745065f9512b9e96fce74b4a09.jpg?s=512&d=https%3A%2F%2Fa.slack-edge.com%2Fdf10d%2Fimg%2Favatars%2Fava_0001-512.png", "custom_css": null}, {"id": 15601, "slack_id": "U095PES1E1Y", "display_name": "Deekshith", "bio": null, "projects_count": 0, "devlogs_count": 0, "votes_count": 0, "ships_count": 0, "projects": [], "coding_time_seconds": 0, "coding_time_seconds_today": 0, "balance": "You need to have a pocket watcher badge to view this.", "badges": [], "created_at": "2025-07-14T10:19:03.178-04:00", "updated_at": "2025-07-14T22:28:48.459-04:00", "avatar": "https://avatars.slack-edge.com/2025-07-14/9216435244720_268e5895ea8e65410cb0_original.jpg", "custom_css": null}, {"id": 15602, "slack_id": "U07ABMCT849", "display_name": "strixt", "bio": null, "projects_count": 0, "devlogs_count": 0, "votes_count": 0, "ships_count": 0, "projects": [], "coding_time_seconds": 0, "coding_time_seconds_today": 0, "balance": "You need to have a pocket watcher badge to view this.", "badges": [], "created_at": "2025-07-14T10:29:52.541-04:00", "updated_at": "2025-07-14T12:33:57.779-04:00", "avatar": "https://avatars.slack-edge.com/2025-04-08/8727076681859_4db5193bd4dfcd1dff61_original.png", "custom_css": null}, {"id": 15603, "slack_id": "U0963LK8R1P", "display_name": "Steven Humosun", "bio": null, "projects_count": 1, "devlogs_count": 0, "votes_count": 0, "ships_count": 0, "projects": [{"id": 6585, "title": "Dream Journal & Interpretation Platform", "devlogs_count": 0, "created_at": "2025-07-14T11:32:49.011-04:00"}], "coding_time_seconds": 2364, "coding_time_seconds_today": 0, "balance": "You need to have a pocket watcher badge to view this.", "badges": [], "created_at": "2025-07-14T10:32:48.935-04:00", "updated_at": "2025-08-07T16:24:44.232-04:00", "avatar": "https://secure.gravatar.com/avatar/735dd5efcb1635b34bb04050fc8a5c21.jpg?s=512&d=https%3A%2F%2Fa.slack-edge.com%2Fdf10d%2Fimg%2Favatars%2Fava_0003-512.png", "custom_css": null}, {"id": 15604, "slack_id": "U095M97R7RU", "display_name": "Hrishikesh", "bio": null, "projects_count": 0, "devlogs_count": 0, "votes_count": 0, "ships_count": 0, "projects": [], "coding_time_seconds": 138654, "coding_time_seconds_today": 0, "balance": "You need to have a pocket watcher badge to view this.", "badges": [], "created_at": "2025-07-14T10:35:02.831-04:00", "updated_at": "2025-07-14T22:28:48.698-04:00", "avatar": "https://secure.gravatar.com/avatar/72561ebce06eda0d126637da129ba432.jpg?s=512&d=https%3A%2F%2Fa.slack-edge.com%2Fdf10d%2Fimg%2Favatars%2Fava_0007-512.png", "custom_css": null}, {"id": 15605, "slack_id": "U095A8GH6BX", "display_name": "Anointed Enahoro", "bio": null, "projects_count": 1, "devlogs_count": 0, "votes_count": 1, "ships_count": 0, "projects": [{"id": 6927, "title": "Personalized Study Scheduler", "devlogs_count": 0, "created_at": "2025-07-17T12:11:22.883-04:00"}], "coding_time_seconds": 187, "coding_time_seconds_today": 0, "balance": "You need to have a pocket watcher badge to view this.", "badges": [], "created_at": "2025-07-14T11:09:05.749-04:00", "updated_at": "2025-08-14T21:22:35.577-04:00", "avatar": "https://avatars.slack-edge.com/2025-08-14/9381413258560_dfd8c8c44958ea5c57c3_original.jpg", "custom_css": null}], "pagination": {"page": 776, "pages": 1192, "count": 23828, "items": 20}}