{"users": [{"id": 15606, "slack_id": "U095CUX3A6P", "display_name": "Lakshanya Prabhu", "bio": null, "projects_count": 0, "devlogs_count": 0, "votes_count": 2, "ships_count": 0, "projects": [], "coding_time_seconds": 3046, "coding_time_seconds_today": 0, "balance": "You need to have a pocket watcher badge to view this.", "badges": [], "created_at": "2025-07-14T11:16:31.520-04:00", "updated_at": "2025-07-15T09:53:15.144-04:00", "avatar": "https://secure.gravatar.com/avatar/b0e277cbac4f7ff651f485e94fad3787.jpg?s=512&d=https%3A%2F%2Fa.slack-edge.com%2Fdf10d%2Fimg%2Favatars%2Fava_0015-512.png", "custom_css": null}, {"id": 15607, "slack_id": "U0963VBTD3K", "display_name": "Nathan Joo", "bio": null, "projects_count": 0, "devlogs_count": 0, "votes_count": 0, "ships_count": 0, "projects": [], "coding_time_seconds": 0, "coding_time_seconds_today": 0, "balance": "You need to have a pocket watcher badge to view this.", "badges": [], "created_at": "2025-07-14T11:19:20.288-04:00", "updated_at": "2025-07-14T22:28:48.946-04:00", "avatar": "https://secure.gravatar.com/avatar/e3f1725d9100767568bccf49aa58320d.jpg?s=512&d=https%3A%2F%2Fa.slack-edge.com%2Fdf10d%2Fimg%2Favatars%2Fava_0026-512.png", "custom_css": null}, {"id": 15608, "slack_id": "U0959SSC24F", "display_name": "Michael M", "bio": "", "projects_count": 3, "devlogs_count": 19, "votes_count": 67, "ships_count": 3, "projects": [{"id": 9159, "title": "Keystrike", "devlogs_count": 4, "created_at": "2025-07-30T19:45:29.040-04:00"}, {"id": 7137, "title": "Git Leaderboard", "devlogs_count": 4, "created_at": "2025-07-19T11:14:00.486-04:00"}, {"id": 6600, "title": "Git Server", "devlogs_count": 11, "created_at": "2025-07-14T13:27:28.173-04:00"}], "coding_time_seconds": 130610, "coding_time_seconds_today": 0, "balance": "You need to have a pocket watcher badge to view this.", "badges": [{"name": "Maiden Voyage", "text": "you shipped your first project! the journey begins...", "icon": "\ud83d\udea2"}], "created_at": "2025-07-14T11:23:00.717-04:00", "updated_at": "2025-09-10T22:58:51.457-04:00", "avatar": "https://secure.gravatar.com/avatar/c5534c2c41197a94dcf282b75fcd4f19.jpg?s=512&d=https%3A%2F%2Fa.slack-edge.com%2Fdf10d%2Fimg%2Favatars%2Fava_0021-512.png", "custom_css": null}, {"id": 15609, "slack_id": "U0964B948D7", "display_name": "elvis hacker", "bio": null, "projects_count": 0, "devlogs_count": 0, "votes_count": 0, "ships_count": 0, "projects": [], "coding_time_seconds": 0, "coding_time_seconds_today": 0, "balance": "You need to have a pocket watcher badge to view this.", "badges": [], "created_at": "2025-07-14T12:19:56.471-04:00", "updated_at": "2025-07-14T22:28:49.128-04:00", "avatar": "https://secure.gravatar.com/avatar/fd563f45351d9e30dd472439478bdbbf.jpg?s=512&d=https%3A%2F%2Fa.slack-edge.com%2Fdf10d%2Fimg%2Favatars%2Fava_0026-512.png", "custom_css": null}, {"id": 15610, "slack_id": "U095S6SCEJ0", "display_name": "Siddarth", "bio": null, "projects_count": 0, "devlogs_count": 0, "votes_count": 0, "ships_count": 0, "projects": [], "coding_time_seconds": 0, "coding_time_seconds_today": 0, "balance": "You need to have a pocket watcher badge to view this.", "badges": [], "created_at": "2025-07-14T12:26:32.296-04:00", "updated_at": "2025-07-14T22:28:49.207-04:00", "avatar": "https://secure.gravatar.com/avatar/d4e1ec2700a39f283b071c305bb461e9.jpg?s=512&d=https%3A%2F%2Fa.slack-edge.com%2Fdf10d%2Fimg%2Favatars%2Fava_0008-512.png", "custom_css": null}, {"id": 15611, "slack_id": "U095LHJ283U", "display_name": "Rohan Sugate", "bio": null, "projects_count": 0, "devlogs_count": 0, "votes_count": 0, "ships_count": 0, "projects": [], "coding_time_seconds": 0, "coding_time_seconds_today": 0, "balance": "You need to have a pocket watcher badge to view this.", "badges": [], "created_at": "2025-07-14T12:49:18.684-04:00", "updated_at": "2025-07-14T22:28:49.317-04:00", "avatar": "https://avatars.slack-edge.com/2025-07-14/9208578783025_0bc15b230d13b18ce5f0_original.png", "custom_css": null}, {"id": 15612, "slack_id": "U095KPF9G9H", "display_name": "arwa", "bio": null, "projects_count": 0, "devlogs_count": 0, "votes_count": 0, "ships_count": 0, "projects": [], "coding_time_seconds": 0, "coding_time_seconds_today": 0, "balance": "You need to have a pocket watcher badge to view this.", "badges": [], "created_at": "2025-07-14T13:36:29.596-04:00", "updated_at": "2025-07-18T05:27:50.557-04:00", "avatar": "https://secure.gravatar.com/avatar/c5b98100bb1f0690916483f9c44498a9.jpg?s=512&d=https%3A%2F%2Fa.slack-edge.com%2Fdf10d%2Fimg%2Favatars%2Fava_0024-512.png", "custom_css": null}, {"id": 15613, "slack_id": "U08P913M5CG", "display_name": "rakesh", "bio": null, "projects_count": 0, "devlogs_count": 9, "votes_count": 82, "ships_count": 0, "projects": [], "coding_time_seconds": 855894, "coding_time_seconds_today": 0, "balance": "You need to have a pocket watcher badge to view this.", "badges": [{"name": "Maiden Voyage", "text": "you shipped your first project! the journey begins...", "icon": "\ud83d\udea2"}, {"name": "Ballot Stuffer", "text": "vote 100 times.", "icon": "https://summer.hackclub.com/assets/i_voted-bf851b48.png"}], "created_at": "2025-07-14T13:39:57.660-04:00", "updated_at": "2025-09-10T22:58:51.636-04:00", "avatar": "https://avatars.slack-edge.com/2025-04-17/8771820808147_da9810ae18edfe59f0ce_original.jpg", "custom_css": null}, {"id": 15614, "slack_id": "U08ATRPDPL0", "display_name": "shakman", "bio": null, "projects_count": 0, "devlogs_count": 0, "votes_count": 0, "ships_count": 0, "projects": [], "coding_time_seconds": 0, "coding_time_seconds_today": 0, "balance": "You need to have a pocket watcher badge to view this.", "badges": [], "created_at": "2025-07-14T13:43:00.136-04:00", "updated_at": "2025-07-14T13:43:36.584-04:00", "avatar": "https://avatars.slack-edge.com/2025-01-25/8348908042322_5587aafd6ecbfbb1ee44_original.png", "custom_css": null}, {"id": 15615, "slack_id": "U0964SCBSBT", "display_name": "Maverick Rains", "bio": null, "projects_count": 0, "devlogs_count": 0, "votes_count": 0, "ships_count": 0, "projects": [], "coding_time_seconds": 0, "coding_time_seconds_today": 0, "balance": "You need to have a pocket watcher badge to view this.", "badges": [], "created_at": "2025-07-14T13:48:25.840-04:00", "updated_at": "2025-07-14T22:28:49.665-04:00", "avatar": "https://secure.gravatar.com/avatar/17e331262f6ed5de6de87caf8c842a4a.jpg?s=512&d=https%3A%2F%2Fa.slack-edge.com%2Fdf10d%2Fimg%2Favatars%2Fava_0018-512.png", "custom_css": null}, {"id": 15616, "slack_id": "U095NESQ0SJ", "display_name": "Mayank", "bio": null, "projects_count": 0, "devlogs_count": 0, "votes_count": 0, "ships_count": 0, "projects": [], "coding_time_seconds": 0, "coding_time_seconds_today": 0, "balance": "You need to have a pocket watcher badge to view this.", "badges": [], "created_at": "2025-07-14T13:52:50.499-04:00", "updated_at": "2025-07-14T22:51:42.920-04:00", "avatar": "https://avatars.slack-edge.com/2025-07-14/9196768048388_b83005415c56381bd0d2_original.png", "custom_css": null}, {"id": 15617, "slack_id": "U095NDULE1L", "display_name": "Articlions", "bio": null, "projects_count": 2, "devlogs_count": 2, "votes_count": 0, "ships_count": 0, "projects": [{"id": 7198, "title": "Articlions' About Me", "devlogs_count": 2, "created_at": "2025-07-19T21:45:58.158-04:00"}, {"id": 12329, "title": "Parkour I Part 1", "devlogs_count": 0, "created_at": "2025-08-25T20:04:49.262-04:00"}], "coding_time_seconds": 14107, "coding_time_seconds_today": 0, "balance": "You need to have a pocket watcher badge to view this.", "badges": [], "created_at": "2025-07-14T13:59:58.629-04:00", "updated_at": "2025-08-18T12:12:45.084-04:00", "avatar": "https://secure.gravatar.com/avatar/d5c56711b7223fad4a06423d43d77a4c.jpg?s=512&d=https%3A%2F%2Fa.slack-edge.com%2Fdf10d%2Fimg%2Favatars%2Fava_0019-512.png", "custom_css": null}, {"id": 15618, "slack_id": "U0964V7PYL9", "display_name": "Aryan Raj", "bio": null, "projects_count": 0, "devlogs_count": 0, "votes_count": 0, "ships_count": 0, "projects": [], "coding_time_seconds": 0, "coding_time_seconds_today": 0, "balance": "You need to have a pocket watcher badge to view this.", "badges": [], "created_at": "2025-07-14T14:03:53.307-04:00", "updated_at": "2025-07-14T22:28:49.929-04:00", "avatar": "https://avatars.slack-edge.com/2025-07-14/9189999166259_d414d738be5e211a8ecb_original.png", "custom_css": null}, {"id": 15619, "slack_id": "U095ASSS3N3", "display_name": "Varun Ganeshkumar", "bio": null, "projects_count": 2, "devlogs_count": 7, "votes_count": 20, "ships_count": 1, "projects": [{"id": 10681, "title": "Late For Work", "devlogs_count": 3, "created_at": "2025-08-09T14:35:16.147-04:00"}, {"id": 7878, "title": "Username Taken", "devlogs_count": 4, "created_at": "2025-07-23T12:03:02.932-04:00"}], "coding_time_seconds": 51166, "coding_time_seconds_today": 0, "balance": "You need to have a pocket watcher badge to view this.", "badges": [{"name": "Maiden Voyage", "text": "you shipped your first project! the journey begins...", "icon": "\ud83d\udea2"}], "created_at": "2025-07-14T14:16:03.917-04:00", "updated_at": "2025-09-10T22:58:51.784-04:00", "avatar": "https://secure.gravatar.com/avatar/a7b50b6b9c1a9383023e88fa651d8afd.jpg?s=512&d=https%3A%2F%2Fa.slack-edge.com%2Fdf10d%2Fimg%2Favatars%2Fava_0018-512.png", "custom_css": null}, {"id": 15620, "slack_id": "U08RD8A4AMV", "display_name": "caden", "bio": null, "projects_count": 0, "devlogs_count": 15, "votes_count": 20, "ships_count": 0, "projects": [], "coding_time_seconds": 639030, "coding_time_seconds_today": 0, "balance": "You need to have a pocket watcher badge to view this.", "badges": [{"name": "Maiden Voyage", "text": "you shipped your first project! the journey begins...", "icon": "\ud83d\udea2"}], "created_at": "2025-07-14T14:31:48.871-04:00", "updated_at": "2025-09-10T22:58:51.810-04:00", "avatar": "https://secure.gravatar.com/avatar/e64bc9f9fa1f485026b7dd7dab4b9b4b.jpg?s=512&d=https%3A%2F%2Fa.slack-edge.com%2Fdf10d%2Fimg%2Favatars%2Fava_0025-512.png", "custom_css": null}, {"id": 15621, "slack_id": "U095B16QMMM", "display_name": "Nitya Gautam", "bio": null, "projects_count": 0, "devlogs_count": 85, "votes_count": 55, "ships_count": 0, "projects": [], "coding_time_seconds": 900528, "coding_time_seconds_today": 0, "balance": "You need to have a pocket watcher badge to view this.", "badges": [{"name": "Maiden Voyage", "text": "you shipped your first project! the journey begins...", "icon": "\ud83d\udea2"}, {"name": "Ballot Stuffer", "text": "vote 100 times.", "icon": "https://summer.hackclub.com/assets/i_voted-bf851b48.png"}], "created_at": "2025-07-14T14:36:44.749-04:00", "updated_at": "2025-09-10T22:58:51.835-04:00", "avatar": "https://avatars.slack-edge.com/2025-08-08/9323600889222_5b501a02c08348a34e0c_original.jpg", "custom_css": null}, {"id": 15622, "slack_id": "U063443TGEQ", "display_name": "Navneet S", "bio": null, "projects_count": 0, "devlogs_count": 0, "votes_count": 0, "ships_count": 0, "projects": [], "coding_time_seconds": 2791, "coding_time_seconds_today": 0, "balance": "You need to have a pocket watcher badge to view this.", "badges": [], "created_at": "2025-07-14T14:42:32.492-04:00", "updated_at": "2025-07-14T14:52:29.463-04:00", "avatar": "https://secure.gravatar.com/avatar/74e761e66d4056659ccd9de7284587d3.jpg?s=512&d=https%3A%2F%2Fa.slack-edge.com%2Fdf10d%2Fimg%2Favatars%2Fava_0003-512.png", "custom_css": null}, {"id": 15623, "slack_id": "U095T3N40SY", "display_name": "Raymond Zhang", "bio": null, "projects_count": 1, "devlogs_count": 0, "votes_count": 0, "ships_count": 0, "projects": [{"id": 6643, "title": "Knot Too Long", "devlogs_count": 0, "created_at": "2025-07-14T18:12:20.096-04:00"}], "coding_time_seconds": 18082, "coding_time_seconds_today": 0, "balance": "You need to have a pocket watcher badge to view this.", "badges": [], "created_at": "2025-07-14T15:03:27.547-04:00", "updated_at": "2025-07-14T22:28:54.352-04:00", "avatar": "https://secure.gravatar.com/avatar/9381bdb4a7d425d0ea06c365b8a282d8.jpg?s=512&d=https%3A%2F%2Fa.slack-edge.com%2Fdf10d%2Fimg%2Favatars%2Fava_0026-512.png", "custom_css": null}, {"id": 15624, "slack_id": "U095RANVAEN", "display_name": "Yash Kumar Singh", "bio": null, "projects_count": 0, "devlogs_count": 0, "votes_count": 0, "ships_count": 0, "projects": [], "coding_time_seconds": 0, "coding_time_seconds_today": 0, "balance": "You need to have a pocket watcher badge to view this.", "badges": [], "created_at": "2025-07-14T15:11:02.778-04:00", "updated_at": "2025-07-14T22:28:54.432-04:00", "avatar": "https://avatars.slack-edge.com/2025-07-14/9209363748193_f0f8b523fdc6e6d24dd4_original.gif", "custom_css": null}, {"id": 15625, "slack_id": "U095T5UB8DS", "display_name": "n0o0b090lv", "bio": "--GAME MAKER 4 LIFE--\r\n\r\nPROUD OWNER OF\r\nOKRIM -> https://n0o0b090lv.itch.io/okrim \r\n// updated okrim -> https://n0o0b090lv.itch.io/okrim-updated\r\nUNDERKILL -> https://n0o0b090lv.itch.io/underkill\r\n\r\nAlso funny dude so be sure to dm (why not :D)\r\n", "projects_count": 3, "devlogs_count": 36, "votes_count": 29, "ships_count": 2, "projects": [{"id": 12962, "title": "MusicMix", "devlogs_count": 5, "created_at": "2025-09-06T07:09:54.115-04:00"}, {"id": 13035, "title": "The Best of All Possible Snowdrifts", "devlogs_count": 13, "created_at": "2025-09-07T10:33:42.616-04:00"}, {"id": 10770, "title": "COOKIER", "devlogs_count": 9, "created_at": "2025-08-10T14:42:04.039-04:00"}], "coding_time_seconds": 528229, "coding_time_seconds_today": 0, "balance": "You need to have a pocket watcher badge to view this.", "badges": [{"name": "Maiden Voyage", "text": "you shipped your first project! the journey begins...", "icon": "\ud83d\udea2"}], "created_at": "2025-07-14T15:20:31.796-04:00", "updated_at": "2025-09-19T14:07:00.486-04:00", "avatar": "https://avatars.slack-edge.com/2025-07-14/9195673359570_6598e9c942bf67bbc000_original.jpg", "custom_css": null}], "pagination": {"page": 777, "pages": 1192, "count": 23828, "items": 20}}