{"users": [{"id": 15646, "slack_id": "U095SSYRBC2", "display_name": "Sparsh Roy", "bio": null, "projects_count": 0, "devlogs_count": 0, "votes_count": 0, "ships_count": 0, "projects": [], "coding_time_seconds": 0, "coding_time_seconds_today": 0, "balance": "You need to have a pocket watcher badge to view this.", "badges": [], "created_at": "2025-07-14T21:57:29.224-04:00", "updated_at": "2025-07-14T22:29:04.950-04:00", "avatar": "https://secure.gravatar.com/avatar/5db419510dc4c52998be35c45c8035b0.jpg?s=512&d=https%3A%2F%2Fa.slack-edge.com%2Fdf10d%2Fimg%2Favatars%2Fava_0002-512.png", "custom_css": null}, {"id": 15647, "slack_id": "U095SKM433P", "display_name": "Steven Thienvanich", "bio": null, "projects_count": 0, "devlogs_count": 0, "votes_count": 0, "ships_count": 0, "projects": [], "coding_time_seconds": 0, "coding_time_seconds_today": 0, "balance": "You need to have a pocket watcher badge to view this.", "badges": [], "created_at": "2025-07-14T23:31:39.814-04:00", "updated_at": "2025-07-15T03:22:53.737-04:00", "avatar": "https://secure.gravatar.com/avatar/96a396afc712ba1051070ff68590cf36.jpg?s=512&d=https%3A%2F%2Fa.slack-edge.com%2Fdf10d%2Fimg%2Favatars%2Fava_0021-512.png", "custom_css": null}, {"id": 15648, "slack_id": "U095V1B6WJ0", "display_name": "number hake BOT CLUB", "bio": null, "projects_count": 0, "devlogs_count": 0, "votes_count": 0, "ships_count": 0, "projects": [], "coding_time_seconds": 0, "coding_time_seconds_today": 0, "balance": "You need to have a pocket watcher badge to view this.", "badges": [], "created_at": "2025-07-14T23:49:52.162-04:00", "updated_at": "2025-07-15T03:22:53.812-04:00", "avatar": "https://secure.gravatar.com/avatar/4a87922dd4756e0a99adbf894fb68430.jpg?s=512&d=https%3A%2F%2Fa.slack-edge.com%2Fdf10d%2Fimg%2Favatars%2Fava_0009-512.png", "custom_css": null}, {"id": 15649, "slack_id": "U096G2994LQ", "display_name": "Keenan Archer", "bio": null, "projects_count": 0, "devlogs_count": 0, "votes_count": 0, "ships_count": 0, "projects": [], "coding_time_seconds": 0, "coding_time_seconds_today": 0, "balance": "You need to have a pocket watcher badge to view this.", "badges": [], "created_at": "2025-07-15T00:00:56.180-04:00", "updated_at": "2025-07-15T03:22:53.913-04:00", "avatar": "https://secure.gravatar.com/avatar/9dc73d185dfc55b056d638a2b79c066c.jpg?s=512&d=https%3A%2F%2Fa.slack-edge.com%2Fdf10d%2Fimg%2Favatars%2Fava_0015-512.png", "custom_css": null}, {"id": 15650, "slack_id": "U095TC2GMAN", "display_name": "Blake Mangum", "bio": null, "projects_count": 0, "devlogs_count": 0, "votes_count": 0, "ships_count": 0, "projects": [], "coding_time_seconds": 0, "coding_time_seconds_today": 0, "balance": "You need to have a pocket watcher badge to view this.", "badges": [], "created_at": "2025-07-15T00:15:29.178-04:00", "updated_at": "2025-07-15T03:22:54.011-04:00", "avatar": "https://secure.gravatar.com/avatar/d4e713a996d7891feb78b5d1e128366b.jpg?s=512&d=https%3A%2F%2Fa.slack-edge.com%2Fdf10d%2Fimg%2Favatars%2Fava_0009-512.png", "custom_css": null}, {"id": 15651, "slack_id": "U095QPCH2JJ", "display_name": "Dylan", "bio": null, "projects_count": 1, "devlogs_count": 4, "votes_count": 0, "ships_count": 0, "projects": [{"id": 13013, "title": "Small Inconveniences", "devlogs_count": 4, "created_at": "2025-09-06T21:55:45.781-04:00"}], "coding_time_seconds": 45073, "coding_time_seconds_today": 0, "balance": "You need to have a pocket watcher badge to view this.", "badges": [], "created_at": "2025-07-15T00:28:56.644-04:00", "updated_at": "2025-08-06T21:59:04.737-04:00", "avatar": "https://secure.gravatar.com/avatar/7883072435df0302a79d8cfa71cf11c0.jpg?s=512&d=https%3A%2F%2Fa.slack-edge.com%2Fdf10d%2Fimg%2Favatars%2Fava_0022-512.png", "custom_css": null}, {"id": 15652, "slack_id": "U095SSJHUMT", "display_name": "Nithya", "bio": null, "projects_count": 0, "devlogs_count": 97, "votes_count": 0, "ships_count": 0, "projects": [], "coding_time_seconds": 341093, "coding_time_seconds_today": 0, "balance": "You need to have a pocket watcher badge to view this.", "badges": [], "created_at": "2025-07-15T00:51:15.565-04:00", "updated_at": "2025-08-06T21:50:07.203-04:00", "avatar": "https://secure.gravatar.com/avatar/b89e9079dfc78f00ee93aaa06863f659.jpg?s=512&d=https%3A%2F%2Fa.slack-edge.com%2Fdf10d%2Fimg%2Favatars%2Fava_0024-512.png", "custom_css": null}, {"id": 15653, "slack_id": "U093SUH551D", "display_name": "Developer Harsh", "bio": null, "projects_count": 0, "devlogs_count": 0, "votes_count": 0, "ships_count": 0, "projects": [], "coding_time_seconds": 0, "coding_time_seconds_today": 0, "balance": "You need to have a pocket watcher badge to view this.", "badges": [], "created_at": "2025-07-15T02:17:40.017-04:00", "updated_at": "2025-07-15T03:22:54.315-04:00", "avatar": "https://avatars.slack-edge.com/2025-07-14/9195141091766_a8a0383bce4fe76dba27_original.jpg", "custom_css": null}, {"id": 15654, "slack_id": "U095R74TMPY", "display_name": "Ennvader", "bio": null, "projects_count": 0, "devlogs_count": 0, "votes_count": 0, "ships_count": 0, "projects": [], "coding_time_seconds": 0, "coding_time_seconds_today": 0, "balance": "You need to have a pocket watcher badge to view this.", "badges": [], "created_at": "2025-07-15T02:49:52.946-04:00", "updated_at": "2025-07-15T03:22:54.404-04:00", "avatar": "https://secure.gravatar.com/avatar/734a9a059eb34c3733edf6161cb9b785.jpg?s=512&d=https%3A%2F%2Fa.slack-edge.com%2Fdf10d%2Fimg%2Favatars%2Fava_0025-512.png", "custom_css": null}, {"id": 15655, "slack_id": "U095DP01FM5", "display_name": "MANCHALA GANESH", "bio": null, "projects_count": 0, "devlogs_count": 0, "votes_count": 0, "ships_count": 0, "projects": [], "coding_time_seconds": 0, "coding_time_seconds_today": 0, "balance": "You need to have a pocket watcher badge to view this.", "badges": [], "created_at": "2025-07-15T02:59:26.827-04:00", "updated_at": "2025-07-15T03:22:54.506-04:00", "avatar": "https://avatars.slack-edge.com/2025-07-14/9211869718193_12123ca8128b0893b3d3_original.png", "custom_css": null}, {"id": 15656, "slack_id": "U091R1DC65A", "display_name": "Samy", "bio": null, "projects_count": 0, "devlogs_count": 0, "votes_count": 0, "ships_count": 0, "projects": [], "coding_time_seconds": 0, "coding_time_seconds_today": 0, "balance": "You need to have a pocket watcher badge to view this.", "badges": [], "created_at": "2025-07-15T03:07:08.470-04:00", "updated_at": "2025-07-15T03:22:54.579-04:00", "avatar": "https://secure.gravatar.com/avatar/b5264d5c8bdfd0ea56e6b39df5bf5334.jpg?s=512&d=https%3A%2F%2Fa.slack-edge.com%2Fdf10d%2Fimg%2Favatars%2Fava_0000-512.png", "custom_css": null}, {"id": 15657, "slack_id": "U095VQFSV4L", "display_name": "Sajid Shah", "bio": null, "projects_count": 0, "devlogs_count": 0, "votes_count": 0, "ships_count": 0, "projects": [], "coding_time_seconds": 797, "coding_time_seconds_today": 0, "balance": "You need to have a pocket watcher badge to view this.", "badges": [], "created_at": "2025-07-15T03:28:07.912-04:00", "updated_at": "2025-07-17T11:22:10.966-04:00", "avatar": "https://secure.gravatar.com/avatar/d4252992fe42e0fb467d7194bed33c0b.jpg?s=512&d=https%3A%2F%2Fa.slack-edge.com%2Fdf10d%2Fimg%2Favatars%2Fava_0016-512.png", "custom_css": null}, {"id": 15658, "slack_id": "U095U5DSBGA", "display_name": "itsCroxa", "bio": "I'm cool ig.", "projects_count": 0, "devlogs_count": 0, "votes_count": 3, "ships_count": 0, "projects": [], "coding_time_seconds": 18211, "coding_time_seconds_today": 0, "balance": "You need to have a pocket watcher badge to view this.", "badges": [], "created_at": "2025-07-15T03:38:20.246-04:00", "updated_at": "2025-07-15T09:23:30.955-04:00", "avatar": "https://secure.gravatar.com/avatar/1508ca87f1493609272149d8731a531c.jpg?s=512&d=https%3A%2F%2Fa.slack-edge.com%2Fdf10d%2Fimg%2Favatars%2Fava_0018-512.png", "custom_css": null}, {"id": 15659, "slack_id": "U09682E9BCH", "display_name": "Slothh", "bio": null, "projects_count": 1, "devlogs_count": 1, "votes_count": 0, "ships_count": 0, "projects": [{"id": 6805, "title": "COOKIE\ud83c\udf6a", "devlogs_count": 1, "created_at": "2025-07-16T11:26:25.865-04:00"}], "coding_time_seconds": 2492, "coding_time_seconds_today": 0, "balance": "You need to have a pocket watcher badge to view this.", "badges": [], "created_at": "2025-07-15T03:49:36.743-04:00", "updated_at": "2025-07-17T08:16:01.633-04:00", "avatar": "https://secure.gravatar.com/avatar/136d129fec029932cbee0b64c434be8f.jpg?s=512&d=https%3A%2F%2Fa.slack-edge.com%2Fdf10d%2Fimg%2Favatars%2Fava_0013-512.png", "custom_css": null}, {"id": 15660, "slack_id": "U095E3REQF9", "display_name": "Santhosh Kuamr", "bio": null, "projects_count": 0, "devlogs_count": 0, "votes_count": 0, "ships_count": 0, "projects": [], "coding_time_seconds": 551, "coding_time_seconds_today": 0, "balance": "You need to have a pocket watcher badge to view this.", "badges": [], "created_at": "2025-07-15T04:10:02.861-04:00", "updated_at": "2025-07-15T09:23:35.173-04:00", "avatar": "https://secure.gravatar.com/avatar/521ff522b3e2c48d9b1eb70e792cdcb3.jpg?s=512&d=https%3A%2F%2Fa.slack-edge.com%2Fdf10d%2Fimg%2Favatars%2Fava_0020-512.png", "custom_css": null}, {"id": 15661, "slack_id": "U09688QAABB", "display_name": "Arun Kumar K", "bio": null, "projects_count": 0, "devlogs_count": 0, "votes_count": 0, "ships_count": 0, "projects": [], "coding_time_seconds": 0, "coding_time_seconds_today": 0, "balance": "You need to have a pocket watcher badge to view this.", "badges": [], "created_at": "2025-07-15T04:35:48.147-04:00", "updated_at": "2025-07-15T09:23:35.253-04:00", "avatar": "https://avatars.slack-edge.com/2025-07-15/9200194065396_1fd7289ed72101387ce7_original.jpg", "custom_css": null}, {"id": 15662, "slack_id": "U07UML9JMD2", "display_name": "Mohamed A. Magdy", "bio": null, "projects_count": 1, "devlogs_count": 4, "votes_count": 20, "ships_count": 1, "projects": [{"id": 11885, "title": "Arcent", "devlogs_count": 4, "created_at": "2025-08-20T17:28:16.529-04:00"}], "coding_time_seconds": 137198, "coding_time_seconds_today": 0, "balance": "You need to have a pocket watcher badge to view this.", "badges": [{"name": "Maiden Voyage", "text": "you shipped your first project! the journey begins...", "icon": "\ud83d\udea2"}], "created_at": "2025-07-15T04:37:50.223-04:00", "updated_at": "2025-09-10T22:58:53.176-04:00", "avatar": "https://avatars.slack-edge.com/2024-11-02/7968351860917_5c005f6a7f10cfbbf4b5_original.png", "custom_css": null}, {"id": 15663, "slack_id": "U092A7PATCJ", "display_name": "a0fefd", "bio": null, "projects_count": 0, "devlogs_count": 0, "votes_count": 0, "ships_count": 0, "projects": [], "coding_time_seconds": 0, "coding_time_seconds_today": 0, "balance": "You need to have a pocket watcher badge to view this.", "badges": [], "created_at": "2025-07-15T04:42:33.808-04:00", "updated_at": "2025-08-11T07:12:40.369-04:00", "avatar": "https://secure.gravatar.com/avatar/7206b7d5b4876f5b08fd27e46f5e2798.jpg?s=512&d=https%3A%2F%2Fa.slack-edge.com%2Fdf10d%2Fimg%2Favatars%2Fava_0010-512.png", "custom_css": null}, {"id": 15664, "slack_id": "U095W9D69E0", "display_name": "Akash Enjeti", "bio": null, "projects_count": 0, "devlogs_count": 0, "votes_count": 0, "ships_count": 0, "projects": [], "coding_time_seconds": 0, "coding_time_seconds_today": 0, "balance": "You need to have a pocket watcher badge to view this.", "badges": [], "created_at": "2025-07-15T05:05:31.381-04:00", "updated_at": "2025-07-15T09:23:35.521-04:00", "avatar": "https://avatars.slack-edge.com/2025-07-15/9184426559559_2c91c19aadfe285ea82c_original.jpg", "custom_css": null}, {"id": 15665, "slack_id": "U082PLXQ8NB", "display_name": "Xavier", "bio": null, "projects_count": 0, "devlogs_count": 0, "votes_count": 0, "ships_count": 0, "projects": [], "coding_time_seconds": 0, "coding_time_seconds_today": 0, "balance": "You need to have a pocket watcher badge to view this.", "badges": [], "created_at": "2025-07-15T05:23:10.302-04:00", "updated_at": "2025-07-31T21:22:25.503-04:00", "avatar": "https://secure.gravatar.com/avatar/f58c91a182f54389053bc813186f4600.jpg?s=512&d=https%3A%2F%2Fa.slack-edge.com%2Fdf10d%2Fimg%2Favatars%2Fava_0017-512.png", "custom_css": null}], "pagination": {"page": 779, "pages": 1192, "count": 23828, "items": 20}}