{"users": [{"id": 1541, "slack_id": "U091GLKMVL3", "display_name": "Amay Patel", "bio": null, "projects_count": 0, "devlogs_count": 0, "votes_count": 0, "ships_count": 0, "projects": [], "coding_time_seconds": 0, "coding_time_seconds_today": 0, "balance": "You need to have a pocket watcher badge to view this.", "badges": [], "created_at": "2025-06-16T13:28:19.215-04:00", "updated_at": "2025-07-03T19:18:06.654-04:00", "avatar": "https://secure.gravatar.com/avatar/cb07bfc22443750a1a74cb46a4041e6d.jpg?s=512&d=https%3A%2F%2Fa.slack-edge.com%2Fdf10d%2Fimg%2Favatars%2Fava_0022-512.png", "custom_css": null}, {"id": 1542, "slack_id": "U091PKA8JF4", "display_name": "pending marcus", "bio": null, "projects_count": 0, "devlogs_count": 0, "votes_count": 0, "ships_count": 0, "projects": [], "coding_time_seconds": 5, "coding_time_seconds_today": 0, "balance": "You need to have a pocket watcher badge to view this.", "badges": [], "created_at": "2025-06-16T13:28:22.606-04:00", "updated_at": "2025-07-03T19:18:06.930-04:00", "avatar": "https://secure.gravatar.com/avatar/2557db9085ade680e6d081545d82a6e2.jpg?s=512&d=https%3A%2F%2Fa.slack-edge.com%2Fdf10d%2Fimg%2Favatars%2Fava_0021-512.png", "custom_css": null}, {"id": 1543, "slack_id": "U091MRXGPHB", "display_name": "Maxence", "bio": null, "projects_count": 0, "devlogs_count": 0, "votes_count": 0, "ships_count": 0, "projects": [], "coding_time_seconds": 303651, "coding_time_seconds_today": 0, "balance": "You need to have a pocket watcher badge to view this.", "badges": [], "created_at": "2025-06-16T13:28:23.891-04:00", "updated_at": "2025-07-03T19:18:07.200-04:00", "avatar": "https://secure.gravatar.com/avatar/ba7f6ebda35fd5680804369dd0cb5cfe.jpg?s=512&d=https%3A%2F%2Fa.slack-edge.com%2Fdf10d%2Fimg%2Favatars%2Fava_0022-512.png", "custom_css": null}, {"id": 1544, "slack_id": "U0826AD3TMJ", "display_name": "Ben", "bio": null, "projects_count": 0, "devlogs_count": 0, "votes_count": 0, "ships_count": 0, "projects": [], "coding_time_seconds": 112085, "coding_time_seconds_today": 0, "balance": "You need to have a pocket watcher badge to view this.", "badges": [], "created_at": "2025-06-16T13:28:29.538-04:00", "updated_at": "2025-07-07T20:39:05.700-04:00", "avatar": "https://avatars.slack-edge.com/2025-04-19/8775626681173_0fad0026da5b0e90df3f_original.png", "custom_css": null}, {"id": 1545, "slack_id": "U091MS1SB9B", "display_name": "INSURANCE WALE", "bio": null, "projects_count": 1, "devlogs_count": 0, "votes_count": 0, "ships_count": 0, "projects": [{"id": 7219, "title": "USCustomers", "devlogs_count": 0, "created_at": "2025-07-20T03:14:03.848-04:00"}], "coding_time_seconds": 661205, "coding_time_seconds_today": 0, "balance": "You need to have a pocket watcher badge to view this.", "badges": [], "created_at": "2025-06-16T13:28:32.928-04:00", "updated_at": "2025-07-20T03:14:55.413-04:00", "avatar": "https://avatars.slack-edge.com/2025-06-16/9050716941219_82ebebd418b50fd869f4_original.png", "custom_css": null}, {"id": 1546, "slack_id": "U091GLD6R9R", "display_name": "Noah Elijah Till", "bio": null, "projects_count": 0, "devlogs_count": 0, "votes_count": 0, "ships_count": 0, "projects": [], "coding_time_seconds": 75755, "coding_time_seconds_today": 0, "balance": "You need to have a pocket watcher badge to view this.", "badges": [], "created_at": "2025-06-16T13:28:37.216-04:00", "updated_at": "2025-07-03T19:18:08.003-04:00", "avatar": "https://secure.gravatar.com/avatar/e4597a36b5914bc10ca3cd5533bd6cc1.jpg?s=512&d=https%3A%2F%2Fa.slack-edge.com%2Fdf10d%2Fimg%2Favatars%2Fava_0020-512.png", "custom_css": null}, {"id": 1547, "slack_id": "U0918AE0VC7", "display_name": "Mark Lester Dampios", "bio": null, "projects_count": 0, "devlogs_count": 0, "votes_count": 0, "ships_count": 0, "projects": [], "coding_time_seconds": 45505, "coding_time_seconds_today": 0, "balance": "You need to have a pocket watcher badge to view this.", "badges": [], "created_at": "2025-06-16T13:28:41.060-04:00", "updated_at": "2025-07-03T19:18:08.272-04:00", "avatar": "https://avatars.slack-edge.com/2025-06-16/9058081451428_6f10d2e5c42d124fd69a_original.png", "custom_css": null}, {"id": 1548, "slack_id": "U091GPB65SS", "display_name": "Swarnendu Majumder", "bio": null, "projects_count": 0, "devlogs_count": 0, "votes_count": 0, "ships_count": 0, "projects": [], "coding_time_seconds": 0, "coding_time_seconds_today": 0, "balance": "You need to have a pocket watcher badge to view this.", "badges": [], "created_at": "2025-06-16T13:28:50.382-04:00", "updated_at": "2025-07-03T19:18:08.555-04:00", "avatar": "https://secure.gravatar.com/avatar/f85c003f6f6a483617c4a0a139a715a5.jpg?s=512&d=https%3A%2F%2Fa.slack-edge.com%2Fdf10d%2Fimg%2Favatars%2Fava_0012-512.png", "custom_css": null}, {"id": 1549, "slack_id": "U091GP4FRHU", "display_name": "Marc", "bio": null, "projects_count": 0, "devlogs_count": 0, "votes_count": 0, "ships_count": 0, "projects": [], "coding_time_seconds": 0, "coding_time_seconds_today": 0, "balance": "You need to have a pocket watcher badge to view this.", "badges": [], "created_at": "2025-06-16T13:29:08.632-04:00", "updated_at": "2025-07-03T19:18:08.822-04:00", "avatar": "https://secure.gravatar.com/avatar/9a82a8b250c45e5fe925faac0596a305.jpg?s=512&d=https%3A%2F%2Fa.slack-edge.com%2Fdf10d%2Fimg%2Favatars%2Fava_0007-512.png", "custom_css": null}, {"id": 1550, "slack_id": "U0918ABAGCX", "display_name": "Med Redha", "bio": null, "projects_count": 0, "devlogs_count": 0, "votes_count": 0, "ships_count": 0, "projects": [], "coding_time_seconds": 0, "coding_time_seconds_today": 0, "balance": "You need to have a pocket watcher badge to view this.", "badges": [], "created_at": "2025-06-16T13:29:17.271-04:00", "updated_at": "2025-07-03T19:18:09.107-04:00", "avatar": "https://secure.gravatar.com/avatar/95fae9118ee3543aba560fcc1cb2b354.jpg?s=512&d=https%3A%2F%2Fa.slack-edge.com%2Fdf10d%2Fimg%2Favatars%2Fava_0012-512.png", "custom_css": null}, {"id": 1551, "slack_id": "U0918AEJKDM", "display_name": "sxasky", "bio": null, "projects_count": 1, "devlogs_count": 0, "votes_count": 0, "ships_count": 0, "projects": [{"id": 237, "title": "3D render", "devlogs_count": 0, "created_at": "2025-06-16T16:04:40.567-04:00"}], "coding_time_seconds": 327, "coding_time_seconds_today": 0, "balance": "You need to have a pocket watcher badge to view this.", "badges": [], "created_at": "2025-06-16T13:29:39.976-04:00", "updated_at": "2025-07-03T19:18:09.385-04:00", "avatar": "https://secure.gravatar.com/avatar/2ca958cb491f3b53446c19e443f6560a.jpg?s=512&d=https%3A%2F%2Fa.slack-edge.com%2Fdf10d%2Fimg%2Favatars%2Fava_0014-512.png", "custom_css": null}, {"id": 1552, "slack_id": "U0918AHKTUP", "display_name": "Zid Irsyadin Sartono Wijaogy", "bio": null, "projects_count": 0, "devlogs_count": 0, "votes_count": 0, "ships_count": 0, "projects": [], "coding_time_seconds": 0, "coding_time_seconds_today": 0, "balance": "You need to have a pocket watcher badge to view this.", "badges": [], "created_at": "2025-06-16T13:29:55.517-04:00", "updated_at": "2025-07-03T19:18:09.666-04:00", "avatar": "https://avatars.slack-edge.com/2025-06-16/9070233812081_abf9fddfb92df5dd0014_original.png", "custom_css": null}, {"id": 1553, "slack_id": "U09187YS1B9", "display_name": "sawabird", "bio": null, "projects_count": 0, "devlogs_count": 0, "votes_count": 0, "ships_count": 0, "projects": [], "coding_time_seconds": 1976, "coding_time_seconds_today": 0, "balance": "You need to have a pocket watcher badge to view this.", "badges": [], "created_at": "2025-06-16T13:30:01.760-04:00", "updated_at": "2025-08-10T01:59:53.197-04:00", "avatar": "https://secure.gravatar.com/avatar/f9c107586f91d082681fe445affd3af6.jpg?s=512&d=https%3A%2F%2Fa.slack-edge.com%2Fdf10d%2Fimg%2Favatars%2Fava_0026-512.png", "custom_css": null}, {"id": 1554, "slack_id": "U091Q22T2QL", "display_name": "Santiago Santafe", "bio": null, "projects_count": 0, "devlogs_count": 0, "votes_count": 0, "ships_count": 0, "projects": [], "coding_time_seconds": 27832, "coding_time_seconds_today": 0, "balance": "You need to have a pocket watcher badge to view this.", "badges": [], "created_at": "2025-06-16T13:30:13.378-04:00", "updated_at": "2025-07-03T19:18:10.199-04:00", "avatar": "https://secure.gravatar.com/avatar/1acf20598ff0e32dcabf5ae4d6e3a761.jpg?s=512&d=https%3A%2F%2Fa.slack-edge.com%2Fdf10d%2Fimg%2Favatars%2Fava_0001-512.png", "custom_css": null}, {"id": 1555, "slack_id": "U091PKMPGP4", "display_name": "Vishal Sharma", "bio": null, "projects_count": 0, "devlogs_count": 0, "votes_count": 0, "ships_count": 0, "projects": [], "coding_time_seconds": 0, "coding_time_seconds_today": 0, "balance": "You need to have a pocket watcher badge to view this.", "badges": [], "created_at": "2025-06-16T13:30:24.235-04:00", "updated_at": "2025-07-03T19:18:10.461-04:00", "avatar": "https://secure.gravatar.com/avatar/2e26d0bfd7db6d19b7b61127e7491ac8.jpg?s=512&d=https%3A%2F%2Fa.slack-edge.com%2Fdf10d%2Fimg%2Favatars%2Fava_0018-512.png", "custom_css": null}, {"id": 1556, "slack_id": "U091MS2E1A9", "display_name": "Warley Serafim", "bio": null, "projects_count": 0, "devlogs_count": 0, "votes_count": 0, "ships_count": 0, "projects": [], "coding_time_seconds": 0, "coding_time_seconds_today": 0, "balance": "You need to have a pocket watcher badge to view this.", "badges": [], "created_at": "2025-06-16T13:30:27.586-04:00", "updated_at": "2025-07-03T19:18:10.725-04:00", "avatar": "https://secure.gravatar.com/avatar/91b6c08c0313d0d4b2faa4fedf1920f6.jpg?s=512&d=https%3A%2F%2Fa.slack-edge.com%2Fdf10d%2Fimg%2Favatars%2Fava_0016-512.png", "custom_css": null}, {"id": 1557, "slack_id": "U07S02ETSLF", "display_name": "Pransh Dalal", "bio": null, "projects_count": 0, "devlogs_count": 0, "votes_count": 0, "ships_count": 0, "projects": [], "coding_time_seconds": 0, "coding_time_seconds_today": 0, "balance": "You need to have a pocket watcher badge to view this.", "badges": [], "created_at": "2025-06-16T13:30:35.911-04:00", "updated_at": "2025-07-03T19:18:10.991-04:00", "avatar": "https://avatars.slack-edge.com/2024-10-17/7901132419476_5d4b558d07fab290acd9_original.jpg", "custom_css": null}, {"id": 1558, "slack_id": "U0918AQAMV5", "display_name": "louis smith", "bio": null, "projects_count": 1, "devlogs_count": 3, "votes_count": 17, "ships_count": 1, "projects": [{"id": 3611, "title": "Dry-Cleaners", "devlogs_count": 3, "created_at": "2025-06-24T23:55:46.260-04:00"}], "coding_time_seconds": 104418, "coding_time_seconds_today": 0, "balance": "You need to have a pocket watcher badge to view this.", "badges": [{"name": "Maiden Voyage", "text": "you shipped your first project! the journey begins...", "icon": "\ud83d\udea2"}], "created_at": "2025-06-16T13:30:36.357-04:00", "updated_at": "2025-09-10T22:51:55.515-04:00", "avatar": "https://avatars.slack-edge.com/2025-06-16/9080155295104_1c9c62875c8ecc28f937_original.png", "custom_css": null}, {"id": 1559, "slack_id": "U091Q2DJCA0", "display_name": "Yash", "bio": null, "projects_count": 0, "devlogs_count": 0, "votes_count": 0, "ships_count": 0, "projects": [], "coding_time_seconds": 0, "coding_time_seconds_today": 0, "balance": "You need to have a pocket watcher badge to view this.", "badges": [], "created_at": "2025-06-16T13:31:02.033-04:00", "updated_at": "2025-07-03T19:18:11.654-04:00", "avatar": "https://secure.gravatar.com/avatar/3bab90207c6a0b28a2a56a8e45f36e14.jpg?s=512&d=https%3A%2F%2Fa.slack-edge.com%2Fdf10d%2Fimg%2Favatars%2Fava_0019-512.png", "custom_css": null}, {"id": 1560, "slack_id": "U091GM2SLEP", "display_name": "Bruno Ancona Sala", "bio": null, "projects_count": 0, "devlogs_count": 0, "votes_count": 0, "ships_count": 0, "projects": [], "coding_time_seconds": 333469, "coding_time_seconds_today": 0, "balance": "You need to have a pocket watcher badge to view this.", "badges": [], "created_at": "2025-06-16T13:31:09.265-04:00", "updated_at": "2025-07-03T19:18:11.949-04:00", "avatar": "https://secure.gravatar.com/avatar/bc833ffb48a41918c8c8739ca26a1be2.jpg?s=512&d=https%3A%2F%2Fa.slack-edge.com%2Fdf10d%2Fimg%2Favatars%2Fava_0026-512.png", "custom_css": null}], "pagination": {"page": 78, "pages": 1192, "count": 23827, "items": 20}}