{"users": [{"id": 15666, "slack_id": "U080AT975U0", "display_name": "Fela", "bio": null, "projects_count": 0, "devlogs_count": 0, "votes_count": 0, "ships_count": 0, "projects": [], "coding_time_seconds": 0, "coding_time_seconds_today": 0, "balance": "You need to have a pocket watcher badge to view this.", "badges": [], "created_at": "2025-07-15T05:49:08.170-04:00", "updated_at": "2025-07-15T09:23:35.705-04:00", "avatar": "https://secure.gravatar.com/avatar/def4bdc30dbad7c8e0bb216c3146c151.jpg?s=512&d=https%3A%2F%2Fa.slack-edge.com%2Fdf10d%2Fimg%2Favatars%2Fava_0007-512.png", "custom_css": null}, {"id": 15667, "slack_id": "U095PG3JGKV", "display_name": "Naz", "bio": null, "projects_count": 0, "devlogs_count": 0, "votes_count": 0, "ships_count": 0, "projects": [], "coding_time_seconds": 0, "coding_time_seconds_today": 0, "balance": "You need to have a pocket watcher badge to view this.", "badges": [], "created_at": "2025-07-15T05:52:49.007-04:00", "updated_at": "2025-07-15T09:23:35.786-04:00", "avatar": "https://secure.gravatar.com/avatar/c40a52db0681c5dbc0ad2ba12cd0e388.jpg?s=512&d=https%3A%2F%2Fa.slack-edge.com%2Fdf10d%2Fimg%2Favatars%2Fava_0007-512.png", "custom_css": null}, {"id": 15668, "slack_id": "U095ELHLF9D", "display_name": "Jack", "bio": null, "projects_count": 0, "devlogs_count": 0, "votes_count": 0, "ships_count": 0, "projects": [], "coding_time_seconds": 0, "coding_time_seconds_today": 0, "balance": "You need to have a pocket watcher badge to view this.", "badges": [], "created_at": "2025-07-15T06:05:49.802-04:00", "updated_at": "2025-07-15T09:23:35.866-04:00", "avatar": "https://secure.gravatar.com/avatar/93b74ebc935221dfe1642b2bb6d9a30b.jpg?s=512&d=https%3A%2F%2Fa.slack-edge.com%2Fdf10d%2Fimg%2Favatars%2Fava_0015-512.png", "custom_css": null}, {"id": 15669, "slack_id": "U082T2R0U7P", "display_name": "Chinmay Butola", "bio": null, "projects_count": 0, "devlogs_count": 0, "votes_count": 0, "ships_count": 0, "projects": [], "coding_time_seconds": 0, "coding_time_seconds_today": 0, "balance": "You need to have a pocket watcher badge to view this.", "badges": [], "created_at": "2025-07-15T06:29:34.275-04:00", "updated_at": "2025-07-15T06:35:34.604-04:00", "avatar": "https://secure.gravatar.com/avatar/85117b14c791144a5a449da3b7f5e3de.jpg?s=512&d=https%3A%2F%2Fa.slack-edge.com%2Fdf10d%2Fimg%2Favatars%2Fava_0019-512.png", "custom_css": null}, {"id": 15670, "slack_id": "U08RS7AEA77", "display_name": "Aamina", "bio": null, "projects_count": 4, "devlogs_count": 4, "votes_count": 4, "ships_count": 3, "projects": [{"id": 7782, "title": "AI-Blog-App", "devlogs_count": 2, "created_at": "2025-07-23T02:41:08.242-04:00"}, {"id": 8057, "title": "Flappy bird", "devlogs_count": 1, "created_at": "2025-07-24T10:44:08.067-04:00"}, {"id": 8758, "title": "Space-shooter", "devlogs_count": 0, "created_at": "2025-07-29T06:22:42.927-04:00"}, {"id": 8759, "title": "Space-shooter", "devlogs_count": 1, "created_at": "2025-07-29T06:22:43.036-04:00"}], "coding_time_seconds": 218569, "coding_time_seconds_today": 0, "balance": "You need to have a pocket watcher badge to view this.", "badges": [{"name": "Maiden Voyage", "text": "you shipped your first project! the journey begins...", "icon": "\ud83d\udea2"}], "created_at": "2025-07-15T07:02:06.730-04:00", "updated_at": "2025-09-10T22:58:53.450-04:00", "avatar": "https://avatars.slack-edge.com/2025-07-13/9211313645440_6f72c41c29f1dde1f9dd_original.jpg", "custom_css": null}, {"id": 15671, "slack_id": "U091Q70F6EN", "display_name": "Muhammed Saif CA", "bio": null, "projects_count": 0, "devlogs_count": 0, "votes_count": 0, "ships_count": 0, "projects": [], "coding_time_seconds": 0, "coding_time_seconds_today": 0, "balance": "You need to have a pocket watcher badge to view this.", "badges": [], "created_at": "2025-07-15T07:08:27.897-04:00", "updated_at": "2025-07-15T15:22:52.116-04:00", "avatar": "https://avatars.slack-edge.com/2025-07-15/9199150448341_848fcf75ab2758e890c8_original.jpg", "custom_css": null}, {"id": 15672, "slack_id": "U09698MMU8Z", "display_name": "Liza Patel", "bio": null, "projects_count": 0, "devlogs_count": 0, "votes_count": 0, "ships_count": 0, "projects": [], "coding_time_seconds": 0, "coding_time_seconds_today": 0, "balance": "You need to have a pocket watcher badge to view this.", "badges": [], "created_at": "2025-07-15T08:21:55.842-04:00", "updated_at": "2025-07-15T09:23:40.389-04:00", "avatar": "https://avatars.slack-edge.com/2025-07-15/9201271144132_79e6d752f84efe25012c_original.png", "custom_css": null}, {"id": 15673, "slack_id": "U096J8GJ87J", "display_name": "Makerlife", "bio": null, "projects_count": 0, "devlogs_count": 0, "votes_count": 0, "ships_count": 0, "projects": [], "coding_time_seconds": 0, "coding_time_seconds_today": 0, "balance": "You need to have a pocket watcher badge to view this.", "badges": [], "created_at": "2025-07-15T08:28:11.699-04:00", "updated_at": "2025-07-15T09:23:40.484-04:00", "avatar": "https://secure.gravatar.com/avatar/cb69cb96489acae56e1ec773882cace9.jpg?s=512&d=https%3A%2F%2Fa.slack-edge.com%2Fdf10d%2Fimg%2Favatars%2Fava_0012-512.png", "custom_css": null}, {"id": 15674, "slack_id": "U095EEB10AK", "display_name": "Gauri Jayaraj", "bio": null, "projects_count": 0, "devlogs_count": 0, "votes_count": 0, "ships_count": 0, "projects": [], "coding_time_seconds": 0, "coding_time_seconds_today": 0, "balance": "You need to have a pocket watcher badge to view this.", "badges": [], "created_at": "2025-07-15T08:32:30.161-04:00", "updated_at": "2025-07-15T09:23:40.566-04:00", "avatar": "https://secure.gravatar.com/avatar/2462ad2d189c7bcbeaa852c2c6e76981.jpg?s=512&d=https%3A%2F%2Fa.slack-edge.com%2Fdf10d%2Fimg%2Favatars%2Fava_0015-512.png", "custom_css": null}, {"id": 15675, "slack_id": "U095URWV2TF", "display_name": "AJ", "bio": null, "projects_count": 0, "devlogs_count": 0, "votes_count": 0, "ships_count": 0, "projects": [], "coding_time_seconds": 0, "coding_time_seconds_today": 0, "balance": "You need to have a pocket watcher badge to view this.", "badges": [], "created_at": "2025-07-15T08:37:50.923-04:00", "updated_at": "2025-07-15T09:23:40.647-04:00", "avatar": "https://secure.gravatar.com/avatar/dbfb5303d2d5918821db7688c94f453e.jpg?s=512&d=https%3A%2F%2Fa.slack-edge.com%2Fdf10d%2Fimg%2Favatars%2Fava_0004-512.png", "custom_css": null}, {"id": 15676, "slack_id": "U095VJSUN02", "display_name": "Patel Avani", "bio": null, "projects_count": 0, "devlogs_count": 0, "votes_count": 0, "ships_count": 0, "projects": [], "coding_time_seconds": 0, "coding_time_seconds_today": 0, "balance": "You need to have a pocket watcher badge to view this.", "badges": [], "created_at": "2025-07-15T08:40:27.735-04:00", "updated_at": "2025-07-15T12:35:01.744-04:00", "avatar": "https://secure.gravatar.com/avatar/95cdb1e4d0e16c448d3c9bde7cf94e6f.jpg?s=512&d=https%3A%2F%2Fa.slack-edge.com%2Fdf10d%2Fimg%2Favatars%2Fava_0004-512.png", "custom_css": null}, {"id": 15677, "slack_id": "U095FB3L5DM", "display_name": "Philbert", "bio": null, "projects_count": 0, "devlogs_count": 0, "votes_count": 0, "ships_count": 0, "projects": [], "coding_time_seconds": 0, "coding_time_seconds_today": 0, "balance": "You need to have a pocket watcher badge to view this.", "badges": [], "created_at": "2025-07-15T08:41:09.865-04:00", "updated_at": "2025-07-15T09:23:40.826-04:00", "avatar": "https://secure.gravatar.com/avatar/f2a156be6ae44d5112f32bbec754656f.jpg?s=512&d=https%3A%2F%2Fa.slack-edge.com%2Fdf10d%2Fimg%2Favatars%2Fava_0014-512.png", "custom_css": null}, {"id": 15678, "slack_id": "U096JANQHCG", "display_name": "Job paul kamai", "bio": null, "projects_count": 0, "devlogs_count": 0, "votes_count": 0, "ships_count": 0, "projects": [], "coding_time_seconds": 0, "coding_time_seconds_today": 0, "balance": "You need to have a pocket watcher badge to view this.", "badges": [], "created_at": "2025-07-15T08:42:19.449-04:00", "updated_at": "2025-07-15T09:23:40.899-04:00", "avatar": "https://secure.gravatar.com/avatar/ad91d95fa11d6982ec2c601c4f07d409.jpg?s=512&d=https%3A%2F%2Fa.slack-edge.com%2Fdf10d%2Fimg%2Favatars%2Fava_0015-512.png", "custom_css": null}, {"id": 15679, "slack_id": "U0969C0DP09", "display_name": "Jason", "bio": null, "projects_count": 0, "devlogs_count": 0, "votes_count": 0, "ships_count": 0, "projects": [], "coding_time_seconds": 0, "coding_time_seconds_today": 0, "balance": "You need to have a pocket watcher badge to view this.", "badges": [], "created_at": "2025-07-15T08:44:19.918-04:00", "updated_at": "2025-07-15T09:23:40.984-04:00", "avatar": "https://secure.gravatar.com/avatar/ef13fc99c4d485c3650d8bd9edfcaf7f.jpg?s=512&d=https%3A%2F%2Fa.slack-edge.com%2Fdf10d%2Fimg%2Favatars%2Fava_0015-512.png", "custom_css": null}, {"id": 15680, "slack_id": "U095XHDV7QC", "display_name": "Hidevs", "bio": null, "projects_count": 0, "devlogs_count": 0, "votes_count": 0, "ships_count": 0, "projects": [], "coding_time_seconds": 0, "coding_time_seconds_today": 0, "balance": "You need to have a pocket watcher badge to view this.", "badges": [], "created_at": "2025-07-15T09:20:53.630-04:00", "updated_at": "2025-07-15T15:22:52.726-04:00", "avatar": "https://secure.gravatar.com/avatar/50397136776e6549e015e58ea59c976a.jpg?s=512&d=https%3A%2F%2Fa.slack-edge.com%2Fdf10d%2Fimg%2Favatars%2Fava_0012-512.png", "custom_css": null}, {"id": 15681, "slack_id": "U095T1CH8CE", "display_name": "Everette Xue", "bio": null, "projects_count": 1, "devlogs_count": 0, "votes_count": 0, "ships_count": 0, "projects": [{"id": 11165, "title": "Youtube Shorts Tracker", "devlogs_count": 0, "created_at": "2025-08-13T17:11:42.566-04:00"}], "coding_time_seconds": 11728, "coding_time_seconds_today": 0, "balance": "You need to have a pocket watcher badge to view this.", "badges": [], "created_at": "2025-07-15T09:32:33.789-04:00", "updated_at": "2025-08-08T20:22:26.445-04:00", "avatar": "https://avatars.slack-edge.com/2025-07-15/9201687531828_643891b046c59267f676_original.webp", "custom_css": null}, {"id": 15682, "slack_id": "U0940NNNRK6", "display_name": "Dokyung Lim", "bio": null, "projects_count": 0, "devlogs_count": 0, "votes_count": 0, "ships_count": 0, "projects": [], "coding_time_seconds": 45513, "coding_time_seconds_today": 0, "balance": "You need to have a pocket watcher badge to view this.", "badges": [], "created_at": "2025-07-15T09:41:03.883-04:00", "updated_at": "2025-08-03T11:08:01.981-04:00", "avatar": "https://avatars.slack-edge.com/2025-07-15/9199238619701_911d7672487b882611b8_original.png", "custom_css": null}, {"id": 15683, "slack_id": "U095XQVSH6Y", "display_name": "Aarush Aggarwal", "bio": null, "projects_count": 0, "devlogs_count": 0, "votes_count": 0, "ships_count": 0, "projects": [], "coding_time_seconds": 0, "coding_time_seconds_today": 0, "balance": "You need to have a pocket watcher badge to view this.", "badges": [], "created_at": "2025-07-15T10:02:00.420-04:00", "updated_at": "2025-07-15T15:22:57.060-04:00", "avatar": "https://secure.gravatar.com/avatar/45a78ca87c3eaabce1a85d3a7642b612.jpg?s=512&d=https%3A%2F%2Fa.slack-edge.com%2Fdf10d%2Fimg%2Favatars%2Fava_0003-512.png", "custom_css": null}, {"id": 15684, "slack_id": "U096HJUDZ88", "display_name": "Mahmoud", "bio": null, "projects_count": 0, "devlogs_count": 0, "votes_count": 0, "ships_count": 0, "projects": [], "coding_time_seconds": 0, "coding_time_seconds_today": 0, "balance": "You need to have a pocket watcher badge to view this.", "badges": [], "created_at": "2025-07-15T10:40:20.259-04:00", "updated_at": "2025-07-15T15:22:57.169-04:00", "avatar": "https://secure.gravatar.com/avatar/46c30707a229ea18c9515e2b454e41f9.jpg?s=512&d=https%3A%2F%2Fa.slack-edge.com%2Fdf10d%2Fimg%2Favatars%2Fava_0026-512.png", "custom_css": null}, {"id": 15685, "slack_id": "U095G4DM1M5", "display_name": "Gideon Smith", "bio": null, "projects_count": 0, "devlogs_count": 0, "votes_count": 0, "ships_count": 0, "projects": [], "coding_time_seconds": 0, "coding_time_seconds_today": 0, "balance": "You need to have a pocket watcher badge to view this.", "badges": [], "created_at": "2025-07-15T10:48:32.392-04:00", "updated_at": "2025-07-15T15:22:57.263-04:00", "avatar": "https://avatars.slack-edge.com/2025-07-15/9200473386690_f86fc5436c2c2f3189ac_original.png", "custom_css": null}], "pagination": {"page": 780, "pages": 1192, "count": 23828, "items": 20}}