{"users": [{"id": 15686, "slack_id": "U095G84GRST", "display_name": "Sukanya Mondal", "bio": null, "projects_count": 0, "devlogs_count": 0, "votes_count": 0, "ships_count": 0, "projects": [], "coding_time_seconds": 0, "coding_time_seconds_today": 0, "balance": "You need to have a pocket watcher badge to view this.", "badges": [], "created_at": "2025-07-15T11:02:19.389-04:00", "updated_at": "2025-07-15T15:22:57.381-04:00", "avatar": "https://avatars.slack-edge.com/2025-07-15/9195151912883_00150ea8be289dfe4f24_original.png", "custom_css": null}, {"id": 15687, "slack_id": "U095YL0P7L4", "display_name": "Maneesh Gollapudi", "bio": null, "projects_count": 0, "devlogs_count": 0, "votes_count": 0, "ships_count": 0, "projects": [], "coding_time_seconds": 52, "coding_time_seconds_today": 0, "balance": "You need to have a pocket watcher badge to view this.", "badges": [], "created_at": "2025-07-15T12:00:22.616-04:00", "updated_at": "2025-07-15T15:22:57.453-04:00", "avatar": "https://avatars.slack-edge.com/2025-07-15/9195531712547_8bd3ac7678afd9b1a3b9_original.jpg", "custom_css": null}, {"id": 15688, "slack_id": "U095W4WDG05", "display_name": "Shivank", "bio": null, "projects_count": 0, "devlogs_count": 0, "votes_count": 0, "ships_count": 0, "projects": [], "coding_time_seconds": 0, "coding_time_seconds_today": 0, "balance": "You need to have a pocket watcher badge to view this.", "badges": [], "created_at": "2025-07-15T12:11:55.713-04:00", "updated_at": "2025-07-15T15:22:57.526-04:00", "avatar": "https://secure.gravatar.com/avatar/924f5372e36cc004755ca36e38108195.jpg?s=512&d=https%3A%2F%2Fa.slack-edge.com%2Fdf10d%2Fimg%2Favatars%2Fava_0004-512.png", "custom_css": null}, {"id": 15689, "slack_id": "U095GNER5M5", "display_name": "sawan", "bio": null, "projects_count": 0, "devlogs_count": 0, "votes_count": 0, "ships_count": 0, "projects": [], "coding_time_seconds": 0, "coding_time_seconds_today": 0, "balance": "You need to have a pocket watcher badge to view this.", "badges": [], "created_at": "2025-07-15T12:21:40.090-04:00", "updated_at": "2025-07-15T15:22:57.600-04:00", "avatar": "https://secure.gravatar.com/avatar/6030a7f08a1301433eab00a62340c588.jpg?s=512&d=https%3A%2F%2Fa.slack-edge.com%2Fdf10d%2Fimg%2Favatars%2Fava_0008-512.png", "custom_css": null}, {"id": 15690, "slack_id": "U096KQPS508", "display_name": "\u0639\u0645\u0631\u0648 \u062e\u0644\u064a\u0641\u0647 \u0627\u0644\u0634\u0631\u064a\u0641", "bio": null, "projects_count": 0, "devlogs_count": 0, "votes_count": 0, "ships_count": 0, "projects": [], "coding_time_seconds": 0, "coding_time_seconds_today": 0, "balance": "You need to have a pocket watcher badge to view this.", "badges": [], "created_at": "2025-07-15T12:23:29.461-04:00", "updated_at": "2025-07-15T15:23:01.733-04:00", "avatar": "https://avatars.slack-edge.com/2025-07-15/9195680592291_92c32d86082b27f3ba90_original.png", "custom_css": null}, {"id": 15691, "slack_id": "U095U3S606S", "display_name": "Sadan Mian", "bio": null, "projects_count": 0, "devlogs_count": 0, "votes_count": 0, "ships_count": 0, "projects": [], "coding_time_seconds": 0, "coding_time_seconds_today": 0, "balance": "You need to have a pocket watcher badge to view this.", "badges": [], "created_at": "2025-07-15T12:23:46.402-04:00", "updated_at": "2025-07-15T15:23:01.821-04:00", "avatar": "https://avatars.slack-edge.com/2025-07-15/9200245869653_a414b740d01cfccd8d4b_original.jpg", "custom_css": null}, {"id": 15692, "slack_id": "U095RMUR2M9", "display_name": "Rohan Timalsina", "bio": null, "projects_count": 0, "devlogs_count": 0, "votes_count": 0, "ships_count": 0, "projects": [], "coding_time_seconds": 99910, "coding_time_seconds_today": 0, "balance": "You need to have a pocket watcher badge to view this.", "badges": [], "created_at": "2025-07-15T12:35:41.599-04:00", "updated_at": "2025-07-15T15:23:01.919-04:00", "avatar": "https://avatars.slack-edge.com/2025-07-15/9223945766272_4dbd760126b19b7e5e17_original.jpg", "custom_css": null}, {"id": 15693, "slack_id": "U094CFQF4Q3", "display_name": "Sophia Luo", "bio": null, "projects_count": 0, "devlogs_count": 0, "votes_count": 0, "ships_count": 0, "projects": [], "coding_time_seconds": 132, "coding_time_seconds_today": 0, "balance": "You need to have a pocket watcher badge to view this.", "badges": [], "created_at": "2025-07-15T12:55:12.568-04:00", "updated_at": "2025-07-15T15:23:01.998-04:00", "avatar": "https://avatars.slack-edge.com/2025-07-15/9201313349506_7841eda966eaa842baa5_original.jpg", "custom_css": null}, {"id": 15694, "slack_id": "U09593BT8R5", "display_name": "Domanick", "bio": null, "projects_count": 0, "devlogs_count": 0, "votes_count": 0, "ships_count": 0, "projects": [], "coding_time_seconds": 0, "coding_time_seconds_today": 0, "balance": "You need to have a pocket watcher badge to view this.", "badges": [], "created_at": "2025-07-15T12:57:43.903-04:00", "updated_at": "2025-07-15T15:23:02.087-04:00", "avatar": "https://secure.gravatar.com/avatar/8f0cd9655d5b1754e302821aa3ba2e68.jpg?s=512&d=https%3A%2F%2Fa.slack-edge.com%2Fdf10d%2Fimg%2Favatars%2Fava_0026-512.png", "custom_css": null}, {"id": 15695, "slack_id": "U095H1V82S3", "display_name": "Davut", "bio": null, "projects_count": 0, "devlogs_count": 0, "votes_count": 0, "ships_count": 0, "projects": [], "coding_time_seconds": 0, "coding_time_seconds_today": 0, "balance": "You need to have a pocket watcher badge to view this.", "badges": [], "created_at": "2025-07-15T13:04:26.347-04:00", "updated_at": "2025-07-15T15:23:02.180-04:00", "avatar": "https://secure.gravatar.com/avatar/8c6c817067dd923c6b7464b5aa26e9d6.jpg?s=512&d=https%3A%2F%2Fa.slack-edge.com%2Fdf10d%2Fimg%2Favatars%2Fava_0000-512.png", "custom_css": null}, {"id": 15696, "slack_id": "U095UBLT894", "display_name": "Ehsan", "bio": null, "projects_count": 0, "devlogs_count": 0, "votes_count": 0, "ships_count": 0, "projects": [], "coding_time_seconds": 0, "coding_time_seconds_today": 0, "balance": "You need to have a pocket watcher badge to view this.", "badges": [], "created_at": "2025-07-15T13:10:09.601-04:00", "updated_at": "2025-07-16T05:31:16.959-04:00", "avatar": "https://secure.gravatar.com/avatar/405ded9b2b2c80f3e8e2be523ddcbb29.jpg?s=512&d=https%3A%2F%2Fa.slack-edge.com%2Fdf10d%2Fimg%2Favatars%2Fava_0021-512.png", "custom_css": null}, {"id": 15697, "slack_id": "U095Z6346UC", "display_name": "Vidhi Agarwal", "bio": null, "projects_count": 0, "devlogs_count": 0, "votes_count": 0, "ships_count": 0, "projects": [], "coding_time_seconds": 0, "coding_time_seconds_today": 0, "balance": "You need to have a pocket watcher badge to view this.", "badges": [], "created_at": "2025-07-15T13:25:17.382-04:00", "updated_at": "2025-07-15T15:23:02.390-04:00", "avatar": "https://secure.gravatar.com/avatar/5470fdb2016eefd8f83fc0c46b5ac5e7.jpg?s=512&d=https%3A%2F%2Fa.slack-edge.com%2Fdf10d%2Fimg%2Favatars%2Fava_0026-512.png", "custom_css": null}, {"id": 15698, "slack_id": "U095XEX5P34", "display_name": "kj", "bio": null, "projects_count": 2, "devlogs_count": 0, "votes_count": 1, "ships_count": 0, "projects": [{"id": 6789, "title": "calendar with AI assistant", "devlogs_count": 0, "created_at": "2025-07-16T07:20:09.046-04:00"}, {"id": 8442, "title": "sudoku solver", "devlogs_count": 0, "created_at": "2025-07-27T07:58:31.778-04:00"}], "coding_time_seconds": 64301, "coding_time_seconds_today": 0, "balance": "You need to have a pocket watcher badge to view this.", "badges": [], "created_at": "2025-07-15T13:29:39.430-04:00", "updated_at": "2025-07-15T15:23:02.496-04:00", "avatar": "https://avatars.slack-edge.com/2025-07-15/9187227066247_fdcbeb860c7257ad2365_original.png", "custom_css": null}, {"id": 15699, "slack_id": "U096L7BB2EL", "display_name": "Benedict", "bio": null, "projects_count": 1, "devlogs_count": 1, "votes_count": 1, "ships_count": 0, "projects": [{"id": 12233, "title": "Cassava Processing", "devlogs_count": 1, "created_at": "2025-08-24T16:45:47.831-04:00"}], "coding_time_seconds": 15428, "coding_time_seconds_today": 0, "balance": "You need to have a pocket watcher badge to view this.", "badges": [], "created_at": "2025-07-15T13:39:01.986-04:00", "updated_at": "2025-08-24T16:32:54.902-04:00", "avatar": "https://avatars.slack-edge.com/2025-07-15/9224331483168_5ff4b4c73d14e68fcc7a_original.png", "custom_css": null}, {"id": 15700, "slack_id": "U096LB3R248", "display_name": "Tanishq Gomasta", "bio": null, "projects_count": 0, "devlogs_count": 0, "votes_count": 0, "ships_count": 0, "projects": [], "coding_time_seconds": 0, "coding_time_seconds_today": 0, "balance": "You need to have a pocket watcher badge to view this.", "badges": [], "created_at": "2025-07-15T13:49:38.927-04:00", "updated_at": "2025-07-15T15:23:02.782-04:00", "avatar": "https://secure.gravatar.com/avatar/7f57068b407aac2d26841df9311aa59c.jpg?s=512&d=https%3A%2F%2Fa.slack-edge.com%2Fdf10d%2Fimg%2Favatars%2Fava_0024-512.png", "custom_css": null}, {"id": 15701, "slack_id": "U09623Z9S6M", "display_name": "Vinit Singh", "bio": null, "projects_count": 0, "devlogs_count": 0, "votes_count": 0, "ships_count": 0, "projects": [], "coding_time_seconds": 0, "coding_time_seconds_today": 0, "balance": "You need to have a pocket watcher badge to view this.", "badges": [], "created_at": "2025-07-15T13:56:43.194-04:00", "updated_at": "2025-07-15T15:23:02.866-04:00", "avatar": "https://secure.gravatar.com/avatar/5f3e84533dad6d09dfb2098dfb136a6d.jpg?s=512&d=https%3A%2F%2Fa.slack-edge.com%2Fdf10d%2Fimg%2Favatars%2Fava_0017-512.png", "custom_css": null}, {"id": 15702, "slack_id": "U07FEJE920J", "display_name": "Lexdrane", "bio": null, "projects_count": 0, "devlogs_count": 0, "votes_count": 0, "ships_count": 0, "projects": [], "coding_time_seconds": 4615, "coding_time_seconds_today": 0, "balance": "You need to have a pocket watcher badge to view this.", "badges": [], "created_at": "2025-07-15T14:15:10.804-04:00", "updated_at": "2025-07-17T04:01:03.953-04:00", "avatar": "https://avatars.slack-edge.com/2024-08-04/7547527811440_d9f80f1aaaffb4063992_original.png", "custom_css": null}, {"id": 15703, "slack_id": "U091P1G776Z", "display_name": "Bhushan asati", "bio": null, "projects_count": 0, "devlogs_count": 0, "votes_count": 0, "ships_count": 0, "projects": [], "coding_time_seconds": 0, "coding_time_seconds_today": 0, "balance": "You need to have a pocket watcher badge to view this.", "badges": [], "created_at": "2025-07-15T14:18:12.547-04:00", "updated_at": "2025-07-15T15:23:03.003-04:00", "avatar": "https://secure.gravatar.com/avatar/14c3d23b30caee358976df7ff53c8181.jpg?s=512&d=https%3A%2F%2Fa.slack-edge.com%2Fdf10d%2Fimg%2Favatars%2Fava_0023-512.png", "custom_css": null}, {"id": 15704, "slack_id": "U095UP75SSJ", "display_name": "Adrija", "bio": null, "projects_count": 0, "devlogs_count": 0, "votes_count": 0, "ships_count": 0, "projects": [], "coding_time_seconds": 0, "coding_time_seconds_today": 0, "balance": "You need to have a pocket watcher badge to view this.", "badges": [], "created_at": "2025-07-15T14:18:54.092-04:00", "updated_at": "2025-07-15T15:23:03.085-04:00", "avatar": "https://secure.gravatar.com/avatar/e3e3bead946d778f78957bc68456f0c5.jpg?s=512&d=https%3A%2F%2Fa.slack-edge.com%2Fdf10d%2Fimg%2Favatars%2Fava_0018-512.png", "custom_css": null}, {"id": 15705, "slack_id": "U096LH7LHNC", "display_name": "Nandhini", "bio": null, "projects_count": 0, "devlogs_count": 0, "votes_count": 0, "ships_count": 0, "projects": [], "coding_time_seconds": 0, "coding_time_seconds_today": 0, "balance": "You need to have a pocket watcher badge to view this.", "badges": [], "created_at": "2025-07-15T14:26:04.667-04:00", "updated_at": "2025-07-15T15:23:03.180-04:00", "avatar": "https://secure.gravatar.com/avatar/4a6857e631a18e658d0b29aee52f37d4.jpg?s=512&d=https%3A%2F%2Fa.slack-edge.com%2Fdf10d%2Fimg%2Favatars%2Fava_0026-512.png", "custom_css": null}], "pagination": {"page": 781, "pages": 1192, "count": 23828, "items": 20}}