{"users": [{"id": 15706, "slack_id": "U095ZHFG4KE", "display_name": "Ehaan", "bio": null, "projects_count": 0, "devlogs_count": 0, "votes_count": 0, "ships_count": 0, "projects": [], "coding_time_seconds": 106, "coding_time_seconds_today": 0, "balance": "You need to have a pocket watcher badge to view this.", "badges": [], "created_at": "2025-07-15T14:28:31.289-04:00", "updated_at": "2025-07-15T15:23:03.257-04:00", "avatar": "https://secure.gravatar.com/avatar/cfc879ce1749363d3593cf79c0656e44.jpg?s=512&d=https%3A%2F%2Fa.slack-edge.com%2Fdf10d%2Fimg%2Favatars%2Fava_0020-512.png", "custom_css": null}, {"id": 15707, "slack_id": "U092DB8SZ08", "display_name": "umair", "bio": null, "projects_count": 0, "devlogs_count": 0, "votes_count": 0, "ships_count": 0, "projects": [], "coding_time_seconds": 0, "coding_time_seconds_today": 0, "balance": "You need to have a pocket watcher badge to view this.", "badges": [], "created_at": "2025-07-15T14:29:53.959-04:00", "updated_at": "2025-07-15T15:23:03.363-04:00", "avatar": "https://secure.gravatar.com/avatar/bd32e783b631a9a02501605b22a02364.jpg?s=512&d=https%3A%2F%2Fa.slack-edge.com%2Fdf10d%2Fimg%2Favatars%2Fava_0007-512.png", "custom_css": null}, {"id": 15708, "slack_id": "U092CKUBCUQ", "display_name": "precious", "bio": null, "projects_count": 0, "devlogs_count": 0, "votes_count": 0, "ships_count": 0, "projects": [], "coding_time_seconds": 0, "coding_time_seconds_today": 0, "balance": "You need to have a pocket watcher badge to view this.", "badges": [], "created_at": "2025-07-15T14:30:52.696-04:00", "updated_at": "2025-07-15T15:23:03.457-04:00", "avatar": "https://secure.gravatar.com/avatar/d1a65c1899938640f0b98926fb72f2d7.jpg?s=512&d=https%3A%2F%2Fa.slack-edge.com%2Fdf10d%2Fimg%2Favatars%2Fava_0012-512.png", "custom_css": null}, {"id": 15709, "slack_id": "U09221LJ8BT", "display_name": "8148_SHUBHAM KUMAR", "bio": null, "projects_count": 0, "devlogs_count": 0, "votes_count": 0, "ships_count": 0, "projects": [], "coding_time_seconds": 0, "coding_time_seconds_today": 0, "balance": "You need to have a pocket watcher badge to view this.", "badges": [], "created_at": "2025-07-15T14:33:05.695-04:00", "updated_at": "2025-07-15T15:23:03.536-04:00", "avatar": "https://avatars.slack-edge.com/2025-07-15/9198886197302_6fd921addd5514e13de4_original.jpg", "custom_css": null}, {"id": 15710, "slack_id": "U091Q3AUY5S", "display_name": "Raul Ulises Garcia Moreno", "bio": null, "projects_count": 0, "devlogs_count": 0, "votes_count": 0, "ships_count": 0, "projects": [], "coding_time_seconds": 0, "coding_time_seconds_today": 0, "balance": "You need to have a pocket watcher badge to view this.", "badges": [], "created_at": "2025-07-15T14:33:53.984-04:00", "updated_at": "2025-07-15T15:23:03.619-04:00", "avatar": "https://avatars.slack-edge.com/2025-07-15/9187604411719_e1c8c934aee427eb6790_original.png", "custom_css": null}, {"id": 15711, "slack_id": "U092CKJKZU0", "display_name": "soonu", "bio": null, "projects_count": 0, "devlogs_count": 0, "votes_count": 0, "ships_count": 0, "projects": [], "coding_time_seconds": 0, "coding_time_seconds_today": 0, "balance": "You need to have a pocket watcher badge to view this.", "badges": [], "created_at": "2025-07-15T14:34:57.403-04:00", "updated_at": "2025-07-15T15:23:03.704-04:00", "avatar": "https://secure.gravatar.com/avatar/e49813a5d33c67cc573d66df5ac67f6f.jpg?s=512&d=https%3A%2F%2Fa.slack-edge.com%2Fdf10d%2Fimg%2Favatars%2Fava_0011-512.png", "custom_css": null}, {"id": 15712, "slack_id": "U095URANQR4", "display_name": "Rajni N", "bio": null, "projects_count": 3, "devlogs_count": 3, "votes_count": 0, "ships_count": 0, "projects": [{"id": 7029, "title": "Mathematical Theorem Personality Quiz", "devlogs_count": 0, "created_at": "2025-07-18T12:19:02.859-04:00"}, {"id": 7071, "title": "Hangman", "devlogs_count": 1, "created_at": "2025-07-18T17:56:43.023-04:00"}, {"id": 7458, "title": "Planner Website", "devlogs_count": 2, "created_at": "2025-07-21T21:25:41.987-04:00"}], "coding_time_seconds": 40977, "coding_time_seconds_today": 0, "balance": "You need to have a pocket watcher badge to view this.", "badges": [], "created_at": "2025-07-15T14:40:58.662-04:00", "updated_at": "2025-08-06T21:50:16.468-04:00", "avatar": "https://secure.gravatar.com/avatar/e6c91480f6859a320b963e40967a2222.jpg?s=512&d=https%3A%2F%2Fa.slack-edge.com%2Fdf10d%2Fimg%2Favatars%2Fava_0006-512.png", "custom_css": null}, {"id": 15713, "slack_id": "U091QRG5H2N", "display_name": "N.Kevin", "bio": null, "projects_count": 0, "devlogs_count": 0, "votes_count": 0, "ships_count": 0, "projects": [], "coding_time_seconds": 0, "coding_time_seconds_today": 0, "balance": "You need to have a pocket watcher badge to view this.", "badges": [], "created_at": "2025-07-15T14:44:00.474-04:00", "updated_at": "2025-07-15T15:23:03.852-04:00", "avatar": "https://secure.gravatar.com/avatar/d371b273be9cd78fad184e1c3983ce1c.jpg?s=512&d=https%3A%2F%2Fa.slack-edge.com%2Fdf10d%2Fimg%2Favatars%2Fava_0007-512.png", "custom_css": null}, {"id": 15714, "slack_id": "U0922QCBKA5", "display_name": "Sushree Biswal", "bio": null, "projects_count": 0, "devlogs_count": 0, "votes_count": 0, "ships_count": 0, "projects": [], "coding_time_seconds": 0, "coding_time_seconds_today": 0, "balance": "You need to have a pocket watcher badge to view this.", "badges": [], "created_at": "2025-07-15T14:49:33.953-04:00", "updated_at": "2025-07-15T15:23:03.950-04:00", "avatar": "https://avatars.slack-edge.com/2025-07-15/9196545939715_7055ca487ae72ed8a26a_original.png", "custom_css": null}, {"id": 15715, "slack_id": "U0918B4JC9M", "display_name": "Ash", "bio": null, "projects_count": 0, "devlogs_count": 0, "votes_count": 0, "ships_count": 0, "projects": [], "coding_time_seconds": 0, "coding_time_seconds_today": 0, "balance": "You need to have a pocket watcher badge to view this.", "badges": [], "created_at": "2025-07-15T15:19:15.241-04:00", "updated_at": "2025-07-15T15:23:04.034-04:00", "avatar": "https://secure.gravatar.com/avatar/ffa418d49276cd2550f464437925d23a.jpg?s=512&d=https%3A%2F%2Fa.slack-edge.com%2Fdf10d%2Fimg%2Favatars%2Fava_0006-512.png", "custom_css": null}, {"id": 15716, "slack_id": "U095X5C15GV", "display_name": "Trey Keipert", "bio": null, "projects_count": 0, "devlogs_count": 0, "votes_count": 0, "ships_count": 0, "projects": [], "coding_time_seconds": 0, "coding_time_seconds_today": 0, "balance": "You need to have a pocket watcher badge to view this.", "badges": [], "created_at": "2025-07-15T15:23:07.351-04:00", "updated_at": "2025-07-16T03:23:05.369-04:00", "avatar": "https://secure.gravatar.com/avatar/c745448f8e1e5700760933602f6b9062.jpg?s=512&d=https%3A%2F%2Fa.slack-edge.com%2Fdf10d%2Fimg%2Favatars%2Fava_0018-512.png", "custom_css": null}, {"id": 15717, "slack_id": "U0796DCCWAZ", "display_name": "Q52", "bio": null, "projects_count": 0, "devlogs_count": 0, "votes_count": 0, "ships_count": 0, "projects": [], "coding_time_seconds": 0, "coding_time_seconds_today": 0, "balance": "You need to have a pocket watcher badge to view this.", "badges": [], "created_at": "2025-07-15T15:31:13.484-04:00", "updated_at": "2025-07-15T15:35:36.296-04:00", "avatar": "https://avatars.slack-edge.com/2024-06-21/7315821518611_68308966b6bd2fa97adb_original.png", "custom_css": null}, {"id": 15718, "slack_id": "U091PF6PV61", "display_name": "Everett Evans", "bio": null, "projects_count": 0, "devlogs_count": 0, "votes_count": 0, "ships_count": 0, "projects": [], "coding_time_seconds": 0, "coding_time_seconds_today": 0, "balance": "You need to have a pocket watcher badge to view this.", "badges": [], "created_at": "2025-07-15T15:53:28.337-04:00", "updated_at": "2025-07-16T03:23:05.515-04:00", "avatar": "https://secure.gravatar.com/avatar/c3344c67d7bc5a5c3a4009a2dae8e79c.jpg?s=512&d=https%3A%2F%2Fa.slack-edge.com%2Fdf10d%2Fimg%2Favatars%2Fava_0017-512.png", "custom_css": null}, {"id": 15719, "slack_id": "U096M37TJJU", "display_name": "widici", "bio": null, "projects_count": 0, "devlogs_count": 0, "votes_count": 0, "ships_count": 0, "projects": [], "coding_time_seconds": 0, "coding_time_seconds_today": 0, "balance": "You need to have a pocket watcher badge to view this.", "badges": [], "created_at": "2025-07-15T15:58:19.074-04:00", "updated_at": "2025-07-16T03:23:05.607-04:00", "avatar": "https://secure.gravatar.com/avatar/f4bc27e92f60bb97bda5fe8d37b41c15.jpg?s=512&d=https%3A%2F%2Fa.slack-edge.com%2Fdf10d%2Fimg%2Favatars%2Fava_0010-512.png", "custom_css": null}, {"id": 15720, "slack_id": "U09604YUPSQ", "display_name": "Ishan Singh", "bio": null, "projects_count": 0, "devlogs_count": 0, "votes_count": 0, "ships_count": 0, "projects": [], "coding_time_seconds": 11833, "coding_time_seconds_today": 0, "balance": "You need to have a pocket watcher badge to view this.", "badges": [], "created_at": "2025-07-15T16:08:25.360-04:00", "updated_at": "2025-08-08T01:32:42.636-04:00", "avatar": "https://secure.gravatar.com/avatar/2d15d7c55971a0595fbee55c0b95b8a3.jpg?s=512&d=https%3A%2F%2Fa.slack-edge.com%2Fdf10d%2Fimg%2Favatars%2Fava_0020-512.png", "custom_css": null}, {"id": 15721, "slack_id": "U095XCE3VE1", "display_name": "Danyal Rehman", "bio": null, "projects_count": 0, "devlogs_count": 0, "votes_count": 0, "ships_count": 0, "projects": [], "coding_time_seconds": 0, "coding_time_seconds_today": 0, "balance": "You need to have a pocket watcher badge to view this.", "badges": [], "created_at": "2025-07-15T16:12:55.669-04:00", "updated_at": "2025-07-16T03:23:05.768-04:00", "avatar": "https://secure.gravatar.com/avatar/8e972e6dc5c015b489b6fd73cebb4a58.jpg?s=512&d=https%3A%2F%2Fa.slack-edge.com%2Fdf10d%2Fimg%2Favatars%2Fava_0014-512.png", "custom_css": null}, {"id": 15722, "slack_id": "U09606RN5TN", "display_name": "Rahul", "bio": null, "projects_count": 0, "devlogs_count": 0, "votes_count": 0, "ships_count": 0, "projects": [], "coding_time_seconds": 0, "coding_time_seconds_today": 0, "balance": "You need to have a pocket watcher badge to view this.", "badges": [], "created_at": "2025-07-15T16:21:08.564-04:00", "updated_at": "2025-07-16T03:23:05.856-04:00", "avatar": "https://secure.gravatar.com/avatar/f051e78f5d666ec0db3ad74fcb1ccd6b.jpg?s=512&d=https%3A%2F%2Fa.slack-edge.com%2Fdf10d%2Fimg%2Favatars%2Fava_0019-512.png", "custom_css": null}, {"id": 15723, "slack_id": "U091GGTGXHR", "display_name": "Rahul Brahma", "bio": null, "projects_count": 0, "devlogs_count": 0, "votes_count": 0, "ships_count": 0, "projects": [], "coding_time_seconds": 0, "coding_time_seconds_today": 0, "balance": "You need to have a pocket watcher badge to view this.", "badges": [], "created_at": "2025-07-15T16:38:57.594-04:00", "updated_at": "2025-07-16T03:23:05.946-04:00", "avatar": "https://avatars.slack-edge.com/2025-07-15/9188300160247_9c0cfb02d249c994689d_original.png", "custom_css": null}, {"id": 15724, "slack_id": "U091R0WA1D0", "display_name": "Aaron T", "bio": null, "projects_count": 0, "devlogs_count": 0, "votes_count": 0, "ships_count": 0, "projects": [], "coding_time_seconds": 0, "coding_time_seconds_today": 0, "balance": "You need to have a pocket watcher badge to view this.", "badges": [], "created_at": "2025-07-15T16:55:54.892-04:00", "updated_at": "2025-07-16T03:23:06.025-04:00", "avatar": "https://avatars.slack-edge.com/2025-07-15/9204444310964_2e466aa7d088e55a4152_original.jpg", "custom_css": null}, {"id": 15725, "slack_id": "U0923FP8XJ5", "display_name": "Julianne Pacheco", "bio": null, "projects_count": 0, "devlogs_count": 0, "votes_count": 0, "ships_count": 0, "projects": [], "coding_time_seconds": 0, "coding_time_seconds_today": 0, "balance": "You need to have a pocket watcher badge to view this.", "badges": [], "created_at": "2025-07-15T17:14:26.591-04:00", "updated_at": "2025-07-16T14:28:25.077-04:00", "avatar": "https://secure.gravatar.com/avatar/bcd29c0a635f3d193e8ef89853995100.jpg?s=512&d=https%3A%2F%2Fa.slack-edge.com%2Fdf10d%2Fimg%2Favatars%2Fava_0002-512.png", "custom_css": null}], "pagination": {"page": 782, "pages": 1192, "count": 23828, "items": 20}}