{"users": [{"id": 15726, "slack_id": "U092D3SUVEC", "display_name": "Fatima", "bio": null, "projects_count": 0, "devlogs_count": 0, "votes_count": 0, "ships_count": 0, "projects": [], "coding_time_seconds": 0, "coding_time_seconds_today": 0, "balance": "You need to have a pocket watcher badge to view this.", "badges": [], "created_at": "2025-07-15T17:20:44.503-04:00", "updated_at": "2025-07-16T03:23:06.182-04:00", "avatar": "https://secure.gravatar.com/avatar/130557eedf7b318db7233c19765f8db3.jpg?s=512&d=https%3A%2F%2Fa.slack-edge.com%2Fdf10d%2Fimg%2Favatars%2Fava_0011-512.png", "custom_css": null}, {"id": 15727, "slack_id": "U095JD05Q5D", "display_name": "ini", "bio": null, "projects_count": 0, "devlogs_count": 0, "votes_count": 0, "ships_count": 0, "projects": [], "coding_time_seconds": 0, "coding_time_seconds_today": 0, "balance": "You need to have a pocket watcher badge to view this.", "badges": [], "created_at": "2025-07-15T17:23:06.788-04:00", "updated_at": "2025-07-16T03:23:06.284-04:00", "avatar": "https://secure.gravatar.com/avatar/f003d10024b661405d9e66bfe334ddfe.jpg?s=512&d=https%3A%2F%2Fa.slack-edge.com%2Fdf10d%2Fimg%2Favatars%2Fava_0026-512.png", "custom_css": null}, {"id": 15728, "slack_id": "U092365MA65", "display_name": "Samuel Rivero Luna", "bio": null, "projects_count": 1, "devlogs_count": 4, "votes_count": 20, "ships_count": 1, "projects": [{"id": 6752, "title": "Nova Music", "devlogs_count": 4, "created_at": "2025-07-15T19:47:56.508-04:00"}], "coding_time_seconds": 301196, "coding_time_seconds_today": 0, "balance": "You need to have a pocket watcher badge to view this.", "badges": [{"name": "Maiden Voyage", "text": "you shipped your first project! the journey begins...", "icon": "\ud83d\udea2"}], "created_at": "2025-07-15T17:23:58.072-04:00", "updated_at": "2025-09-10T22:58:55.124-04:00", "avatar": "https://secure.gravatar.com/avatar/3c5a4f4382184bc010c896ed66790800.jpg?s=512&d=https%3A%2F%2Fa.slack-edge.com%2Fdf10d%2Fimg%2Favatars%2Fava_0015-512.png", "custom_css": null}, {"id": 15729, "slack_id": "U095VMNHYBG", "display_name": "ryu", "bio": null, "projects_count": 0, "devlogs_count": 0, "votes_count": 0, "ships_count": 0, "projects": [], "coding_time_seconds": 0, "coding_time_seconds_today": 0, "balance": "You need to have a pocket watcher badge to view this.", "badges": [], "created_at": "2025-07-15T17:38:04.782-04:00", "updated_at": "2025-07-16T03:23:06.477-04:00", "avatar": "https://secure.gravatar.com/avatar/1ff1c76377f1187ef866567d54e5dd34.jpg?s=512&d=https%3A%2F%2Fa.slack-edge.com%2Fdf10d%2Fimg%2Favatars%2Fava_0001-512.png", "custom_css": null}, {"id": 15730, "slack_id": "U092C5DKMNU", "display_name": "carlitos", "bio": null, "projects_count": 0, "devlogs_count": 0, "votes_count": 0, "ships_count": 0, "projects": [], "coding_time_seconds": 0, "coding_time_seconds_today": 0, "balance": "You need to have a pocket watcher badge to view this.", "badges": [], "created_at": "2025-07-15T17:39:13.216-04:00", "updated_at": "2025-07-16T03:23:06.582-04:00", "avatar": "https://secure.gravatar.com/avatar/68056aca0a30ef98acc2880c6658f523.jpg?s=512&d=https%3A%2F%2Fa.slack-edge.com%2Fdf10d%2Fimg%2Favatars%2Fava_0012-512.png", "custom_css": null}, {"id": 15731, "slack_id": "U095XQA6E2Z", "display_name": "Kavi", "bio": null, "projects_count": 0, "devlogs_count": 0, "votes_count": 0, "ships_count": 0, "projects": [], "coding_time_seconds": 108016, "coding_time_seconds_today": 0, "balance": "You need to have a pocket watcher badge to view this.", "badges": [], "created_at": "2025-07-15T17:39:52.298-04:00", "updated_at": "2025-07-16T03:23:06.689-04:00", "avatar": "https://secure.gravatar.com/avatar/1c21cc6a1c270fe0e48dc92bcdb9187f.jpg?s=512&d=https%3A%2F%2Fa.slack-edge.com%2Fdf10d%2Fimg%2Favatars%2Fava_0022-512.png", "custom_css": null}, {"id": 15732, "slack_id": "U093RT4UPCG", "display_name": "Stas Kycia", "bio": null, "projects_count": 0, "devlogs_count": 0, "votes_count": 0, "ships_count": 0, "projects": [], "coding_time_seconds": 0, "coding_time_seconds_today": 0, "balance": "You need to have a pocket watcher badge to view this.", "badges": [], "created_at": "2025-07-15T18:35:51.236-04:00", "updated_at": "2025-07-16T03:23:06.795-04:00", "avatar": "https://avatars.slack-edge.com/2025-07-15/9188835197671_fac22fc54b2140da86df_original.png", "custom_css": null}, {"id": 15733, "slack_id": "U096MTM8B7S", "display_name": "Liam", "bio": null, "projects_count": 0, "devlogs_count": 0, "votes_count": 0, "ships_count": 0, "projects": [], "coding_time_seconds": 0, "coding_time_seconds_today": 0, "balance": "You need to have a pocket watcher badge to view this.", "badges": [], "created_at": "2025-07-15T18:46:01.982-04:00", "updated_at": "2025-07-16T03:23:06.894-04:00", "avatar": "https://secure.gravatar.com/avatar/35ecc4e1cc67ed862cc3a09446084431.jpg?s=512&d=https%3A%2F%2Fa.slack-edge.com%2Fdf10d%2Fimg%2Favatars%2Fava_0007-512.png", "custom_css": null}, {"id": 15734, "slack_id": "U095W3GM5SS", "display_name": "Stefan Manea", "bio": "", "projects_count": 2, "devlogs_count": 5, "votes_count": 20, "ships_count": 1, "projects": [{"id": 6799, "title": "Minecraft Skin Customizer", "devlogs_count": 4, "created_at": "2025-07-16T10:24:39.159-04:00"}, {"id": 7713, "title": "Gatekeeper", "devlogs_count": 1, "created_at": "2025-07-22T16:51:25.664-04:00"}], "coding_time_seconds": 50568, "coding_time_seconds_today": 0, "balance": "You need to have a pocket watcher badge to view this.", "badges": [{"name": "Maiden Voyage", "text": "you shipped your first project! the journey begins...", "icon": "\ud83d\udea2"}], "created_at": "2025-07-15T18:47:51.729-04:00", "updated_at": "2025-09-10T22:58:55.301-04:00", "avatar": "https://secure.gravatar.com/avatar/7b543fba46bd425a09f8d7f8c49b768b.jpg?s=512&d=https%3A%2F%2Fa.slack-edge.com%2Fdf10d%2Fimg%2Favatars%2Fava_0009-512.png", "custom_css": null}, {"id": 15735, "slack_id": "U095SSM356Z", "display_name": "Dashun Feng", "bio": null, "projects_count": 2, "devlogs_count": 0, "votes_count": 1, "ships_count": 0, "projects": [{"id": 6753, "title": "PODIUM Timer", "devlogs_count": 0, "created_at": "2025-07-15T20:14:15.691-04:00"}, {"id": 10971, "title": "Project TILT", "devlogs_count": 0, "created_at": "2025-08-12T05:38:23.123-04:00"}], "coding_time_seconds": 9584, "coding_time_seconds_today": 0, "balance": "You need to have a pocket watcher badge to view this.", "badges": [], "created_at": "2025-07-15T18:48:52.552-04:00", "updated_at": "2025-08-19T21:22:44.213-04:00", "avatar": "https://avatars.slack-edge.com/2025-08-19/9377212266933_cb20e3f00bc5b5884ec6_original.png", "custom_css": null}, {"id": 15736, "slack_id": "U09611EP46Q", "display_name": "Oscar C", "bio": null, "projects_count": 0, "devlogs_count": 0, "votes_count": 0, "ships_count": 0, "projects": [], "coding_time_seconds": 0, "coding_time_seconds_today": 0, "balance": "You need to have a pocket watcher badge to view this.", "badges": [], "created_at": "2025-07-15T19:10:46.967-04:00", "updated_at": "2025-07-16T03:23:11.187-04:00", "avatar": "https://secure.gravatar.com/avatar/9d9e25ca2978838680cf943ffad68bea.jpg?s=512&d=https%3A%2F%2Fa.slack-edge.com%2Fdf10d%2Fimg%2Favatars%2Fava_0015-512.png", "custom_css": null}, {"id": 15737, "slack_id": "U091R0PQY2W", "display_name": "Nathan", "bio": null, "projects_count": 5, "devlogs_count": 18, "votes_count": 95, "ships_count": 5, "projects": [{"id": 11340, "title": "Button Library", "devlogs_count": 1, "created_at": "2025-08-15T02:49:52.575-04:00"}, {"id": 11341, "title": "NAU7802 Library", "devlogs_count": 1, "created_at": "2025-08-15T03:02:14.615-04:00"}, {"id": 12388, "title": "Moving Average Library", "devlogs_count": 2, "created_at": "2025-08-26T15:40:13.782-04:00"}, {"id": 8689, "title": "Torquemeter", "devlogs_count": 10, "created_at": "2025-07-28T22:50:24.483-04:00"}, {"id": 7106, "title": "ESP32 IoT Clock", "devlogs_count": 4, "created_at": "2025-07-19T03:45:40.692-04:00"}], "coding_time_seconds": 179269, "coding_time_seconds_today": 0, "balance": "You need to have a pocket watcher badge to view this.", "badges": [{"name": "Maiden Voyage", "text": "you shipped your first project! the journey begins...", "icon": "\ud83d\udea2"}], "created_at": "2025-07-15T19:46:02.192-04:00", "updated_at": "2025-09-10T22:58:55.389-04:00", "avatar": "https://secure.gravatar.com/avatar/2e5b006f09971531d7595cb0108f1616.jpg?s=512&d=https%3A%2F%2Fa.slack-edge.com%2Fdf10d%2Fimg%2Favatars%2Fava_0001-512.png", "custom_css": null}, {"id": 15738, "slack_id": "U095Y8184G5", "display_name": "Amy", "bio": null, "projects_count": 0, "devlogs_count": 0, "votes_count": 0, "ships_count": 0, "projects": [], "coding_time_seconds": 0, "coding_time_seconds_today": 0, "balance": "You need to have a pocket watcher badge to view this.", "badges": [], "created_at": "2025-07-15T19:53:07.044-04:00", "updated_at": "2025-07-16T03:23:11.348-04:00", "avatar": "https://secure.gravatar.com/avatar/cebeceb60653e2f7b6ad2b0e2beab09b.jpg?s=512&d=https%3A%2F%2Fa.slack-edge.com%2Fdf10d%2Fimg%2Favatars%2Fava_0015-512.png", "custom_css": null}, {"id": 15739, "slack_id": "U092BV5QCN4", "display_name": "Nurjahan", "bio": null, "projects_count": 0, "devlogs_count": 0, "votes_count": 0, "ships_count": 0, "projects": [], "coding_time_seconds": 0, "coding_time_seconds_today": 0, "balance": "You need to have a pocket watcher badge to view this.", "badges": [], "created_at": "2025-07-15T19:57:46.054-04:00", "updated_at": "2025-07-16T14:28:25.827-04:00", "avatar": "https://secure.gravatar.com/avatar/aa0d626c953530e14382bdcdcfb3920a.jpg?s=512&d=https%3A%2F%2Fa.slack-edge.com%2Fdf10d%2Fimg%2Favatars%2Fava_0014-512.png", "custom_css": null}, {"id": 15740, "slack_id": "U091JB1RYRH", "display_name": "andy", "bio": null, "projects_count": 0, "devlogs_count": 0, "votes_count": 0, "ships_count": 0, "projects": [], "coding_time_seconds": 0, "coding_time_seconds_today": 0, "balance": "You need to have a pocket watcher badge to view this.", "badges": [], "created_at": "2025-07-15T20:38:29.104-04:00", "updated_at": "2025-07-16T03:23:11.521-04:00", "avatar": "https://secure.gravatar.com/avatar/95720ae07ada890289d808e8b7cf3a2b.jpg?s=512&d=https%3A%2F%2Fa.slack-edge.com%2Fdf10d%2Fimg%2Favatars%2Fava_0021-512.png", "custom_css": null}, {"id": 15741, "slack_id": "U095U61PLTV", "display_name": "baltazar lee", "bio": null, "projects_count": 0, "devlogs_count": 0, "votes_count": 0, "ships_count": 0, "projects": [], "coding_time_seconds": 0, "coding_time_seconds_today": 0, "balance": "You need to have a pocket watcher badge to view this.", "badges": [], "created_at": "2025-07-15T21:08:08.249-04:00", "updated_at": "2025-07-16T03:23:11.628-04:00", "avatar": "https://secure.gravatar.com/avatar/cf9bbc526bdd23b8fb7d55a5b41008ab.jpg?s=512&d=https%3A%2F%2Fa.slack-edge.com%2Fdf10d%2Fimg%2Favatars%2Fava_0021-512.png", "custom_css": null}, {"id": 15742, "slack_id": "U0961ETGA5A", "display_name": "Daniel Cifuentes", "bio": null, "projects_count": 0, "devlogs_count": 0, "votes_count": 0, "ships_count": 0, "projects": [], "coding_time_seconds": 0, "coding_time_seconds_today": 0, "balance": "You need to have a pocket watcher badge to view this.", "badges": [], "created_at": "2025-07-15T21:31:48.151-04:00", "updated_at": "2025-07-16T03:23:11.708-04:00", "avatar": "https://secure.gravatar.com/avatar/746d916ef4faf54a32a083917af65634.jpg?s=512&d=https%3A%2F%2Fa.slack-edge.com%2Fdf10d%2Fimg%2Favatars%2Fava_0005-512.png", "custom_css": null}, {"id": 15743, "slack_id": "U095YMDS69K", "display_name": "Emilio Calderon Ruiz", "bio": null, "projects_count": 0, "devlogs_count": 0, "votes_count": 0, "ships_count": 0, "projects": [], "coding_time_seconds": 0, "coding_time_seconds_today": 0, "balance": "You need to have a pocket watcher badge to view this.", "badges": [], "created_at": "2025-07-15T22:26:43.229-04:00", "updated_at": "2025-07-16T03:23:11.787-04:00", "avatar": "https://secure.gravatar.com/avatar/1c4a8a05b7d19edaacb586ae2bbe8dd9.jpg?s=512&d=https%3A%2F%2Fa.slack-edge.com%2Fdf10d%2Fimg%2Favatars%2Fava_0000-512.png", "custom_css": null}, {"id": 15744, "slack_id": "U0919KBJ3U7", "display_name": "Saksham Goyal", "bio": null, "projects_count": 0, "devlogs_count": 0, "votes_count": 0, "ships_count": 0, "projects": [], "coding_time_seconds": 0, "coding_time_seconds_today": 0, "balance": "You need to have a pocket watcher badge to view this.", "badges": [], "created_at": "2025-07-15T22:45:36.231-04:00", "updated_at": "2025-07-16T03:23:11.877-04:00", "avatar": "https://avatars.slack-edge.com/2025-07-15/9200848756038_16b613f434c92a87de6a_original.png", "custom_css": null}, {"id": 15745, "slack_id": "U091G7KG4DC", "display_name": "Sangam", "bio": null, "projects_count": 0, "devlogs_count": 0, "votes_count": 0, "ships_count": 0, "projects": [], "coding_time_seconds": 0, "coding_time_seconds_today": 0, "balance": "You need to have a pocket watcher badge to view this.", "badges": [], "created_at": "2025-07-15T23:14:54.376-04:00", "updated_at": "2025-07-16T03:23:12.006-04:00", "avatar": "https://secure.gravatar.com/avatar/1502e4392042391f272967285a34e986.jpg?s=512&d=https%3A%2F%2Fa.slack-edge.com%2Fdf10d%2Fimg%2Favatars%2Fava_0003-512.png", "custom_css": null}], "pagination": {"page": 783, "pages": 1192, "count": 23828, "items": 20}}