{"users": [{"id": 15746, "slack_id": "U096NP7CBNU", "display_name": "muna", "bio": null, "projects_count": 0, "devlogs_count": 0, "votes_count": 0, "ships_count": 0, "projects": [], "coding_time_seconds": 0, "coding_time_seconds_today": 0, "balance": "You need to have a pocket watcher badge to view this.", "badges": [], "created_at": "2025-07-15T23:20:03.074-04:00", "updated_at": "2025-07-17T01:37:01.909-04:00", "avatar": "https://secure.gravatar.com/avatar/d72ed4f737131777049fd7bd1d9cc6c4.jpg?s=512&d=https%3A%2F%2Fa.slack-edge.com%2Fdf10d%2Fimg%2Favatars%2Fava_0007-512.png", "custom_css": null}, {"id": 15747, "slack_id": "U0892D3UK17", "display_name": "Shreya", "bio": null, "projects_count": 0, "devlogs_count": 0, "votes_count": 0, "ships_count": 0, "projects": [], "coding_time_seconds": 0, "coding_time_seconds_today": 0, "balance": "You need to have a pocket watcher badge to view this.", "badges": [], "created_at": "2025-07-16T00:19:06.007-04:00", "updated_at": "2025-07-16T00:19:15.198-04:00", "avatar": "https://secure.gravatar.com/avatar/3ee77197341369d51a1d6eaa2cfe9431.jpg?s=512&d=https%3A%2F%2Fa.slack-edge.com%2Fdf10d%2Fimg%2Favatars%2Fava_0013-512.png", "custom_css": null}, {"id": 15748, "slack_id": "U0856EARK7W", "display_name": "junh", "bio": null, "projects_count": 0, "devlogs_count": 0, "votes_count": 0, "ships_count": 0, "projects": [], "coding_time_seconds": 0, "coding_time_seconds_today": 0, "balance": "You need to have a pocket watcher badge to view this.", "badges": [], "created_at": "2025-07-16T00:44:23.695-04:00", "updated_at": "2025-07-18T22:43:02.325-04:00", "avatar": "https://avatars.slack-edge.com/2024-12-13/8186668355809_497a040fe84cc9f89b68_original.png", "custom_css": null}, {"id": 15749, "slack_id": "U096DSHTGSD", "display_name": "testing", "bio": null, "projects_count": 0, "devlogs_count": 0, "votes_count": 0, "ships_count": 0, "projects": [], "coding_time_seconds": 0, "coding_time_seconds_today": 0, "balance": "You need to have a pocket watcher badge to view this.", "badges": [], "created_at": "2025-07-16T00:49:59.591-04:00", "updated_at": "2025-07-16T03:23:16.450-04:00", "avatar": "https://secure.gravatar.com/avatar/21dc0ead1296a2b421fe6659e0f4ee80.jpg?s=512&d=https%3A%2F%2Fa.slack-edge.com%2Fdf10d%2Fimg%2Favatars%2Fava_0022-512.png", "custom_css": null}, {"id": 15750, "slack_id": "U08T43WFW80", "display_name": "zara", "bio": null, "projects_count": 0, "devlogs_count": 0, "votes_count": 0, "ships_count": 0, "projects": [], "coding_time_seconds": 100789, "coding_time_seconds_today": 0, "balance": "You need to have a pocket watcher badge to view this.", "badges": [], "created_at": "2025-07-16T00:54:07.046-04:00", "updated_at": "2025-09-03T20:06:26.343-04:00", "avatar": "https://avatars.slack-edge.com/2025-07-25/9280341068560_43184c4f17a6453ff483_original.jpg", "custom_css": null}, {"id": 15751, "slack_id": "U095PD4E6AY", "display_name": "Anish_nags", "bio": null, "projects_count": 0, "devlogs_count": 0, "votes_count": 0, "ships_count": 0, "projects": [], "coding_time_seconds": 0, "coding_time_seconds_today": 0, "balance": "You need to have a pocket watcher badge to view this.", "badges": [], "created_at": "2025-07-16T00:56:57.825-04:00", "updated_at": "2025-08-03T09:19:05.775-04:00", "avatar": "https://secure.gravatar.com/avatar/dce7d0c34ca18ccff67e695538a39b18.jpg?s=512&d=https%3A%2F%2Fa.slack-edge.com%2Fdf10d%2Fimg%2Favatars%2Fava_0017-512.png", "custom_css": null}, {"id": 15752, "slack_id": "U07GLA0TF9Q", "display_name": "Solane", "bio": null, "projects_count": 0, "devlogs_count": 0, "votes_count": 1, "ships_count": 0, "projects": [], "coding_time_seconds": 188299, "coding_time_seconds_today": 0, "balance": "You need to have a pocket watcher badge to view this.", "badges": [], "created_at": "2025-07-16T00:58:31.585-04:00", "updated_at": "2025-09-08T03:22:22.791-04:00", "avatar": "https://avatars.slack-edge.com/2025-09-07/9480649168084_01f8fe1c1659ccbc37c1_original.png", "custom_css": null}, {"id": 15753, "slack_id": "U095UTDS2R1", "display_name": "nghiant", "bio": null, "projects_count": 0, "devlogs_count": 0, "votes_count": 0, "ships_count": 0, "projects": [], "coding_time_seconds": 0, "coding_time_seconds_today": 0, "balance": "You need to have a pocket watcher badge to view this.", "badges": [], "created_at": "2025-07-16T01:01:41.612-04:00", "updated_at": "2025-07-16T03:23:16.847-04:00", "avatar": "https://secure.gravatar.com/avatar/84e567305ee842607499842a9bf33bd2.jpg?s=512&d=https%3A%2F%2Fa.slack-edge.com%2Fdf10d%2Fimg%2Favatars%2Fava_0009-512.png", "custom_css": null}, {"id": 15754, "slack_id": "U0968SQ23JM", "display_name": "Mathesvaran J", "bio": null, "projects_count": 0, "devlogs_count": 0, "votes_count": 0, "ships_count": 0, "projects": [], "coding_time_seconds": 77234, "coding_time_seconds_today": 0, "balance": "You need to have a pocket watcher badge to view this.", "badges": [], "created_at": "2025-07-16T01:16:10.935-04:00", "updated_at": "2025-07-16T03:23:16.944-04:00", "avatar": "https://secure.gravatar.com/avatar/626e5e8d3c69d686753b434106c71691.jpg?s=512&d=https%3A%2F%2Fa.slack-edge.com%2Fdf10d%2Fimg%2Favatars%2Fava_0002-512.png", "custom_css": null}, {"id": 15755, "slack_id": "U08A6G3MF5K", "display_name": "Abinav Gopi", "bio": null, "projects_count": 0, "devlogs_count": 0, "votes_count": 0, "ships_count": 0, "projects": [], "coding_time_seconds": 28490, "coding_time_seconds_today": 432, "balance": "You need to have a pocket watcher badge to view this.", "badges": [], "created_at": "2025-07-16T01:36:42.297-04:00", "updated_at": "2025-07-25T15:51:36.535-04:00", "avatar": "https://secure.gravatar.com/avatar/b22aefd86f72201c4c774ee389ffc9c6.jpg?s=512&d=https%3A%2F%2Fa.slack-edge.com%2Fdf10d%2Fimg%2Favatars%2Fava_0000-512.png", "custom_css": null}, {"id": 15756, "slack_id": "U07EY4R990C", "display_name": "F\u0131rat", "bio": null, "projects_count": 0, "devlogs_count": 0, "votes_count": 0, "ships_count": 0, "projects": [], "coding_time_seconds": 0, "coding_time_seconds_today": 0, "balance": "You need to have a pocket watcher badge to view this.", "badges": [], "created_at": "2025-07-16T01:58:21.825-04:00", "updated_at": "2025-07-16T02:02:32.720-04:00", "avatar": "https://secure.gravatar.com/avatar/42ba964d81f63e9202dd142a394368b8.jpg?s=512&d=https%3A%2F%2Fa.slack-edge.com%2Fdf10d%2Fimg%2Favatars%2Fava_0003-512.png", "custom_css": null}, {"id": 15757, "slack_id": "U096E46G09F", "display_name": "keishore", "bio": null, "projects_count": 1, "devlogs_count": 0, "votes_count": 0, "ships_count": 0, "projects": [{"id": 11860, "title": "AgriEase: Smart Solutions for Sustainable Farming", "devlogs_count": 0, "created_at": "2025-08-20T11:47:39.432-04:00"}], "coding_time_seconds": 29229, "coding_time_seconds_today": 0, "balance": "You need to have a pocket watcher badge to view this.", "badges": [], "created_at": "2025-07-16T02:12:37.526-04:00", "updated_at": "2025-08-20T11:36:17.830-04:00", "avatar": "https://secure.gravatar.com/avatar/816eeb86640ff9a36f41a5516fcc95d1.jpg?s=512&d=https%3A%2F%2Fa.slack-edge.com%2Fdf10d%2Fimg%2Favatars%2Fava_0001-512.png", "custom_css": null}, {"id": 15758, "slack_id": "U095V5TBTL3", "display_name": "Salik Wachkoo", "bio": null, "projects_count": 0, "devlogs_count": 0, "votes_count": 1, "ships_count": 0, "projects": [], "coding_time_seconds": 116989, "coding_time_seconds_today": 0, "balance": "You need to have a pocket watcher badge to view this.", "badges": [], "created_at": "2025-07-16T02:17:08.774-04:00", "updated_at": "2025-08-23T17:29:12.432-04:00", "avatar": "https://avatars.slack-edge.com/2025-07-15/9218207154177_340ed8116ff4a85e0aea_original.jpg", "custom_css": null}, {"id": 15759, "slack_id": "U079MBNSCTB", "display_name": "James", "bio": null, "projects_count": 1, "devlogs_count": 3, "votes_count": 0, "ships_count": 0, "projects": [{"id": 10081, "title": "WaywardExpeditions", "devlogs_count": 3, "created_at": "2025-08-03T23:16:31.827-04:00"}], "coding_time_seconds": 477851, "coding_time_seconds_today": 0, "balance": "You need to have a pocket watcher badge to view this.", "badges": [], "created_at": "2025-07-16T02:18:17.968-04:00", "updated_at": "2025-08-06T14:37:53.690-04:00", "avatar": "https://secure.gravatar.com/avatar/541dfb46a1dc7a8bc8b76d7e58d5cb24.jpg?s=512&d=https%3A%2F%2Fa.slack-edge.com%2Fdf10d%2Fimg%2Favatars%2Fava_0016-512.png", "custom_css": null}, {"id": 15760, "slack_id": "U095ZF76ZNH", "display_name": "morke", "bio": null, "projects_count": 0, "devlogs_count": 0, "votes_count": 0, "ships_count": 0, "projects": [], "coding_time_seconds": 0, "coding_time_seconds_today": 0, "balance": "You need to have a pocket watcher badge to view this.", "badges": [], "created_at": "2025-07-16T02:55:50.227-04:00", "updated_at": "2025-07-16T03:23:17.435-04:00", "avatar": "https://secure.gravatar.com/avatar/bcefe7671b95f972de21a8ecd4ee65ef.jpg?s=512&d=https%3A%2F%2Fa.slack-edge.com%2Fdf10d%2Fimg%2Favatars%2Fava_0003-512.png", "custom_css": null}, {"id": 15761, "slack_id": "U096PJ4PKAL", "display_name": "Birla Ojasvi", "bio": null, "projects_count": 0, "devlogs_count": 0, "votes_count": 0, "ships_count": 0, "projects": [], "coding_time_seconds": 0, "coding_time_seconds_today": 0, "balance": "You need to have a pocket watcher badge to view this.", "badges": [], "created_at": "2025-07-16T03:18:36.693-04:00", "updated_at": "2025-07-16T03:23:17.529-04:00", "avatar": "https://avatars.slack-edge.com/2025-07-16/9199484920083_9ef2737b49d91d0f114d_original.png", "custom_css": null}, {"id": 15762, "slack_id": "U0960EY2DFC", "display_name": "Rakesh Prabhugowda Gowdra", "bio": null, "projects_count": 0, "devlogs_count": 0, "votes_count": 0, "ships_count": 0, "projects": [], "coding_time_seconds": 0, "coding_time_seconds_today": 0, "balance": "You need to have a pocket watcher badge to view this.", "badges": [], "created_at": "2025-07-16T03:34:01.668-04:00", "updated_at": "2025-07-16T09:23:34.086-04:00", "avatar": "https://secure.gravatar.com/avatar/1cc66bc9a19fd534bc632a8ef7d5cd8d.jpg?s=512&d=https%3A%2F%2Fa.slack-edge.com%2Fdf10d%2Fimg%2Favatars%2Fava_0009-512.png", "custom_css": null}, {"id": 15763, "slack_id": "U096PMT0U1E", "display_name": "Ngoc Phuong Anh Nguyen", "bio": null, "projects_count": 1, "devlogs_count": 0, "votes_count": 0, "ships_count": 0, "projects": [{"id": 6787, "title": "Email Apology Generator", "devlogs_count": 0, "created_at": "2025-07-16T07:10:17.910-04:00"}], "coding_time_seconds": 6223, "coding_time_seconds_today": 0, "balance": "You need to have a pocket watcher badge to view this.", "badges": [], "created_at": "2025-07-16T03:47:48.022-04:00", "updated_at": "2025-07-17T07:53:39.632-04:00", "avatar": "https://avatars.slack-edge.com/2025-07-16/9205147345298_7a17151bb2b36670c711_original.jpg", "custom_css": null}, {"id": 15764, "slack_id": "U0962QRUG5A", "display_name": "emarr", "bio": null, "projects_count": 0, "devlogs_count": 0, "votes_count": 0, "ships_count": 0, "projects": [], "coding_time_seconds": 0, "coding_time_seconds_today": 0, "balance": "You need to have a pocket watcher badge to view this.", "badges": [], "created_at": "2025-07-16T03:59:15.378-04:00", "updated_at": "2025-07-16T09:23:34.260-04:00", "avatar": "https://secure.gravatar.com/avatar/3c7b7cee7245ba478f25e1b4eda0b305.jpg?s=512&d=https%3A%2F%2Fa.slack-edge.com%2Fdf10d%2Fimg%2Favatars%2Fava_0014-512.png", "custom_css": null}, {"id": 15765, "slack_id": "U096N4ZAPEU", "display_name": "Lucerys", "bio": null, "projects_count": 0, "devlogs_count": 0, "votes_count": 0, "ships_count": 0, "projects": [], "coding_time_seconds": 0, "coding_time_seconds_today": 0, "balance": "You need to have a pocket watcher badge to view this.", "badges": [], "created_at": "2025-07-16T04:00:05.501-04:00", "updated_at": "2025-07-16T09:23:34.346-04:00", "avatar": "https://secure.gravatar.com/avatar/c48f9a5d322a4442ee60b4089e240f2d.jpg?s=512&d=https%3A%2F%2Fa.slack-edge.com%2Fdf10d%2Fimg%2Favatars%2Fava_0003-512.png", "custom_css": null}], "pagination": {"page": 784, "pages": 1192, "count": 23828, "items": 20}}