{"users": [{"id": 15766, "slack_id": "U096PS1HWGG", "display_name": "Ndayizera Pascal", "bio": null, "projects_count": 0, "devlogs_count": 0, "votes_count": 0, "ships_count": 0, "projects": [], "coding_time_seconds": 0, "coding_time_seconds_today": 0, "balance": "You need to have a pocket watcher badge to view this.", "badges": [], "created_at": "2025-07-16T04:13:36.762-04:00", "updated_at": "2025-07-16T09:23:34.424-04:00", "avatar": "https://secure.gravatar.com/avatar/9d79cbc74b8712cbd003e8699c09374e.jpg?s=512&d=https%3A%2F%2Fa.slack-edge.com%2Fdf10d%2Fimg%2Favatars%2Fava_0007-512.png", "custom_css": null}, {"id": 15767, "slack_id": "U07AC38G2B0", "display_name": "Jachym", "bio": "No", "projects_count": 5, "devlogs_count": 17, "votes_count": 69, "ships_count": 3, "projects": [{"id": 6793, "title": "Weather Station", "devlogs_count": 8, "created_at": "2025-07-16T09:08:41.864-04:00"}, {"id": 8570, "title": "Soft body physics game", "devlogs_count": 1, "created_at": "2025-07-28T07:47:51.825-04:00"}, {"id": 13075, "title": "TicTacToe Terminal Game in C#", "devlogs_count": 1, "created_at": "2025-09-08T05:56:19.634-04:00"}, {"id": 8711, "title": "Memory Game", "devlogs_count": 4, "created_at": "2025-07-29T02:13:16.277-04:00"}, {"id": 8315, "title": "Personal Website", "devlogs_count": 3, "created_at": "2025-07-26T06:39:21.641-04:00"}], "coding_time_seconds": 111815, "coding_time_seconds_today": 0, "balance": "You need to have a pocket watcher badge to view this.", "badges": [{"name": "Maiden Voyage", "text": "you shipped your first project! the journey begins...", "icon": "\ud83d\udea2"}], "created_at": "2025-07-16T04:25:35.373-04:00", "updated_at": "2025-09-10T22:58:56.210-04:00", "avatar": "https://secure.gravatar.com/avatar/07c4642547160bce574c75d564d8b527.jpg?s=512&d=https%3A%2F%2Fa.slack-edge.com%2Fdf10d%2Fimg%2Favatars%2Fava_0002-512.png", "custom_css": null}, {"id": 15768, "slack_id": "U095DLTNKEX", "display_name": "Ha N", "bio": null, "projects_count": 0, "devlogs_count": 0, "votes_count": 0, "ships_count": 0, "projects": [], "coding_time_seconds": 0, "coding_time_seconds_today": 0, "balance": "You need to have a pocket watcher badge to view this.", "badges": [], "created_at": "2025-07-16T04:25:42.071-04:00", "updated_at": "2025-07-16T09:23:34.584-04:00", "avatar": "https://secure.gravatar.com/avatar/b08eca1c51ba34aee254b7602a52498c.jpg?s=512&d=https%3A%2F%2Fa.slack-edge.com%2Fdf10d%2Fimg%2Favatars%2Fava_0005-512.png", "custom_css": null}, {"id": 15769, "slack_id": "U0963134KU4", "display_name": "tina", "bio": null, "projects_count": 1, "devlogs_count": 1, "votes_count": 6, "ships_count": 1, "projects": [{"id": 7577, "title": "Stamps", "devlogs_count": 1, "created_at": "2025-07-22T07:05:30.215-04:00"}], "coding_time_seconds": 132215, "coding_time_seconds_today": 0, "balance": "You need to have a pocket watcher badge to view this.", "badges": [{"name": "Maiden Voyage", "text": "you shipped your first project! the journey begins...", "icon": "\ud83d\udea2"}], "created_at": "2025-07-16T04:30:59.645-04:00", "updated_at": "2025-09-10T22:58:56.271-04:00", "avatar": "https://secure.gravatar.com/avatar/4b8c837f455ee67bd856ef86a6186297.jpg?s=512&d=https%3A%2F%2Fa.slack-edge.com%2Fdf10d%2Fimg%2Favatars%2Fava_0004-512.png", "custom_css": null}, {"id": 15770, "slack_id": "U06GEGEHX16", "display_name": "cosmin", "bio": null, "projects_count": 0, "devlogs_count": 0, "votes_count": 0, "ships_count": 0, "projects": [], "coding_time_seconds": 77385, "coding_time_seconds_today": 0, "balance": "You need to have a pocket watcher badge to view this.", "badges": [], "created_at": "2025-07-16T04:37:49.596-04:00", "updated_at": "2025-07-16T09:23:34.750-04:00", "avatar": "https://avatars.slack-edge.com/2025-05-26/8956951783492_cb9273e3fd5333a546b6_original.png", "custom_css": null}, {"id": 15771, "slack_id": "U096Q37MNQG", "display_name": "RastaGuy", "bio": null, "projects_count": 0, "devlogs_count": 0, "votes_count": 0, "ships_count": 0, "projects": [], "coding_time_seconds": 0, "coding_time_seconds_today": 0, "balance": "You need to have a pocket watcher badge to view this.", "badges": [], "created_at": "2025-07-16T04:59:07.629-04:00", "updated_at": "2025-07-16T09:23:34.858-04:00", "avatar": "https://secure.gravatar.com/avatar/18db827c3725fcc7baa5c99a7fee6a26.jpg?s=512&d=https%3A%2F%2Fa.slack-edge.com%2Fdf10d%2Fimg%2Favatars%2Fava_0002-512.png", "custom_css": null}, {"id": 15772, "slack_id": "U091SLPF7N1", "display_name": "Sijan Panta", "bio": null, "projects_count": 0, "devlogs_count": 0, "votes_count": 0, "ships_count": 0, "projects": [], "coding_time_seconds": 0, "coding_time_seconds_today": 0, "balance": "You need to have a pocket watcher badge to view this.", "badges": [], "created_at": "2025-07-16T05:11:32.357-04:00", "updated_at": "2025-07-16T14:28:27.676-04:00", "avatar": "https://secure.gravatar.com/avatar/cbf70d79f98f844418c343d90b53ecf8.jpg?s=512&d=https%3A%2F%2Fa.slack-edge.com%2Fdf10d%2Fimg%2Favatars%2Fava_0024-512.png", "custom_css": null}, {"id": 15773, "slack_id": "U095M526Y4X", "display_name": "Revole", "bio": null, "projects_count": 0, "devlogs_count": 0, "votes_count": 0, "ships_count": 0, "projects": [], "coding_time_seconds": 0, "coding_time_seconds_today": 0, "balance": "You need to have a pocket watcher badge to view this.", "badges": [], "created_at": "2025-07-16T05:27:42.336-04:00", "updated_at": "2025-07-16T09:23:35.055-04:00", "avatar": "https://secure.gravatar.com/avatar/c9b88ea9f335f4c5488ec1df7ad2b6b3.jpg?s=512&d=https%3A%2F%2Fa.slack-edge.com%2Fdf10d%2Fimg%2Favatars%2Fava_0025-512.png", "custom_css": null}, {"id": 15774, "slack_id": "U096QC15H7S", "display_name": "kareem khaled", "bio": null, "projects_count": 0, "devlogs_count": 0, "votes_count": 0, "ships_count": 0, "projects": [], "coding_time_seconds": 0, "coding_time_seconds_today": 0, "balance": "You need to have a pocket watcher badge to view this.", "badges": [], "created_at": "2025-07-16T05:59:57.211-04:00", "updated_at": "2025-07-24T10:06:18.524-04:00", "avatar": "https://avatars.slack-edge.com/2025-07-16/9202527301446_4ef8ce273f40bd7ccca9_original.jpg", "custom_css": null}, {"id": 15775, "slack_id": "U096FFK63H7", "display_name": "gio", "bio": null, "projects_count": 0, "devlogs_count": 1, "votes_count": 18, "ships_count": 0, "projects": [], "coding_time_seconds": 56985, "coding_time_seconds_today": 0, "balance": "You need to have a pocket watcher badge to view this.", "badges": [{"name": "Maiden Voyage", "text": "you shipped your first project! the journey begins...", "icon": "\ud83d\udea2"}], "created_at": "2025-07-16T07:01:54.182-04:00", "updated_at": "2025-09-17T13:22:30.658-04:00", "avatar": "https://secure.gravatar.com/avatar/bc515bed5e26ac3b631a8cc7e6b53934.jpg?s=512&d=https%3A%2F%2Fa.slack-edge.com%2Fdf10d%2Fimg%2Favatars%2Fava_0009-512.png", "custom_css": null}, {"id": 15776, "slack_id": "U08S7HFHAAD", "display_name": "Priyanshu", "bio": null, "projects_count": 0, "devlogs_count": 0, "votes_count": 0, "ships_count": 0, "projects": [], "coding_time_seconds": 0, "coding_time_seconds_today": 0, "balance": "You need to have a pocket watcher badge to view this.", "badges": [], "created_at": "2025-07-16T07:09:28.637-04:00", "updated_at": "2025-07-16T09:23:35.284-04:00", "avatar": "https://secure.gravatar.com/avatar/33be0a326c7b187e17eb89c383160b08.jpg?s=512&d=https%3A%2F%2Fa.slack-edge.com%2Fdf10d%2Fimg%2Favatars%2Fava_0023-512.png", "custom_css": null}, {"id": 15777, "slack_id": "U07UBJD5RML", "display_name": "Sapphire", "bio": "", "projects_count": 5, "devlogs_count": 109, "votes_count": 91, "ships_count": 5, "projects": [{"id": 7924, "title": "Minimacro for Debian Linux (and derivatives) and not in a Windows 11 VM", "devlogs_count": 5, "created_at": "2025-07-23T16:43:46.465-04:00"}, {"id": 8568, "title": "The White Room", "devlogs_count": 57, "created_at": "2025-07-28T07:17:57.987-04:00"}, {"id": 7597, "title": "My first website", "devlogs_count": 1, "created_at": "2025-07-22T08:15:51.941-04:00"}, {"id": 6790, "title": "Anti-to-do list", "devlogs_count": 3, "created_at": "2025-07-16T07:41:47.292-04:00"}, {"id": 10723, "title": "Trixie Timer - (It's a working title)", "devlogs_count": 43, "created_at": "2025-08-10T04:05:02.221-04:00"}], "coding_time_seconds": 399812, "coding_time_seconds_today": 0, "balance": "You need to have a pocket watcher badge to view this.", "badges": [{"name": "Maiden Voyage", "text": "you shipped your first project! the journey begins...", "icon": "\ud83d\udea2"}, {"name": "Ballot Stuffer", "text": "vote 100 times.", "icon": "https://summer.hackclub.com/assets/i_voted-bf851b48.png"}], "created_at": "2025-07-16T07:24:40.947-04:00", "updated_at": "2025-09-10T22:58:56.495-04:00", "avatar": "https://secure.gravatar.com/avatar/54d73f1b726b83294e9ee599749a146a.jpg?s=512&d=https%3A%2F%2Fa.slack-edge.com%2Fdf10d%2Fimg%2Favatars%2Fava_0011-512.png", "custom_css": null}, {"id": 15778, "slack_id": "U091Z60704U", "display_name": "Sahin", "bio": null, "projects_count": 0, "devlogs_count": 0, "votes_count": 0, "ships_count": 0, "projects": [], "coding_time_seconds": 0, "coding_time_seconds_today": 0, "balance": "You need to have a pocket watcher badge to view this.", "badges": [], "created_at": "2025-07-16T07:36:20.234-04:00", "updated_at": "2025-07-16T09:23:35.464-04:00", "avatar": "https://secure.gravatar.com/avatar/0f8d4eeefb1e5ed40ca99ab448d2b529.jpg?s=512&d=https%3A%2F%2Fa.slack-edge.com%2Fdf10d%2Fimg%2Favatars%2Fava_0024-512.png", "custom_css": null}, {"id": 15779, "slack_id": "U096FTYBGP3", "display_name": "DragonzaS", "bio": null, "projects_count": 1, "devlogs_count": 1, "votes_count": 13, "ships_count": 0, "projects": [{"id": 12353, "title": "Filafryer", "devlogs_count": 1, "created_at": "2025-08-26T06:13:43.796-04:00"}], "coding_time_seconds": 9009, "coding_time_seconds_today": 0, "balance": "You need to have a pocket watcher badge to view this.", "badges": [], "created_at": "2025-07-16T08:48:49.492-04:00", "updated_at": "2025-08-11T16:43:29.438-04:00", "avatar": "https://avatars.slack-edge.com/2025-07-17/9235854826336_ea55a6516131adcc59b4_original.png", "custom_css": null}, {"id": 15780, "slack_id": "U08SZQDTX1S", "display_name": "coder35", "bio": null, "projects_count": 0, "devlogs_count": 0, "votes_count": 0, "ships_count": 0, "projects": [], "coding_time_seconds": 0, "coding_time_seconds_today": 0, "balance": "You need to have a pocket watcher badge to view this.", "badges": [], "created_at": "2025-07-16T09:40:14.558-04:00", "updated_at": "2025-07-16T21:23:49.831-04:00", "avatar": "https://secure.gravatar.com/avatar/b57d7a4ba8c25643aee111d2a85fadab.jpg?s=512&d=https%3A%2F%2Fa.slack-edge.com%2Fdf10d%2Fimg%2Favatars%2Fava_0010-512.png", "custom_css": null}, {"id": 15781, "slack_id": "U095XEF8MFD", "display_name": "Om Keswani", "bio": null, "projects_count": 0, "devlogs_count": 0, "votes_count": 0, "ships_count": 0, "projects": [], "coding_time_seconds": 0, "coding_time_seconds_today": 0, "balance": "You need to have a pocket watcher badge to view this.", "badges": [], "created_at": "2025-07-16T09:54:53.767-04:00", "updated_at": "2025-07-16T21:23:49.926-04:00", "avatar": "https://secure.gravatar.com/avatar/97ed9cbb582db2b6b52c3b0cb6162955.jpg?s=512&d=https%3A%2F%2Fa.slack-edge.com%2Fdf10d%2Fimg%2Favatars%2Fava_0006-512.png", "custom_css": null}, {"id": 15782, "slack_id": "U0964LMSETW", "display_name": "Pham Ngoc", "bio": null, "projects_count": 0, "devlogs_count": 0, "votes_count": 0, "ships_count": 0, "projects": [], "coding_time_seconds": 0, "coding_time_seconds_today": 0, "balance": "You need to have a pocket watcher badge to view this.", "badges": [], "created_at": "2025-07-16T10:06:05.615-04:00", "updated_at": "2025-07-17T12:27:01.996-04:00", "avatar": "https://secure.gravatar.com/avatar/2e72dbaa9d2adbd34ed549ec3949245b.jpg?s=512&d=https%3A%2F%2Fa.slack-edge.com%2Fdf10d%2Fimg%2Favatars%2Fava_0010-512.png", "custom_css": null}, {"id": 15783, "slack_id": "U0799FZ4SQM", "display_name": "IceGoalie31", "bio": null, "projects_count": 0, "devlogs_count": 0, "votes_count": 0, "ships_count": 0, "projects": [], "coding_time_seconds": 0, "coding_time_seconds_today": 0, "balance": "You need to have a pocket watcher badge to view this.", "badges": [], "created_at": "2025-07-16T10:47:50.437-04:00", "updated_at": "2025-07-17T12:48:11.770-04:00", "avatar": "https://secure.gravatar.com/avatar/df356ab924cf4cfed0183bbca9d93af7.jpg?s=512&d=https%3A%2F%2Fa.slack-edge.com%2Fdf10d%2Fimg%2Favatars%2Fava_0000-512.png", "custom_css": null}, {"id": 15784, "slack_id": "U096RT1MC0Y", "display_name": "Simon Yi", "bio": null, "projects_count": 0, "devlogs_count": 0, "votes_count": 0, "ships_count": 0, "projects": [], "coding_time_seconds": 0, "coding_time_seconds_today": 0, "balance": "You need to have a pocket watcher badge to view this.", "badges": [], "created_at": "2025-07-16T10:50:25.242-04:00", "updated_at": "2025-07-16T21:23:50.164-04:00", "avatar": "https://secure.gravatar.com/avatar/c2f88eba04748206ae622a1a20cd6e32.jpg?s=512&d=https%3A%2F%2Fa.slack-edge.com%2Fdf10d%2Fimg%2Favatars%2Fava_0002-512.png", "custom_css": null}, {"id": 15785, "slack_id": "U0963GKP02W", "display_name": "Dhivagar D", "bio": null, "projects_count": 0, "devlogs_count": 0, "votes_count": 0, "ships_count": 0, "projects": [], "coding_time_seconds": 0, "coding_time_seconds_today": 0, "balance": "You need to have a pocket watcher badge to view this.", "badges": [], "created_at": "2025-07-16T11:03:34.788-04:00", "updated_at": "2025-07-16T21:23:50.241-04:00", "avatar": "https://secure.gravatar.com/avatar/43d5eb89a87697bfb421e0d6fd9f4f06.jpg?s=512&d=https%3A%2F%2Fa.slack-edge.com%2Fdf10d%2Fimg%2Favatars%2Fava_0016-512.png", "custom_css": null}], "pagination": {"page": 785, "pages": 1192, "count": 23828, "items": 20}}