{"users": [{"id": 15806, "slack_id": "U092DS8HDT2", "display_name": "Soham R", "bio": null, "projects_count": 0, "devlogs_count": 0, "votes_count": 0, "ships_count": 0, "projects": [], "coding_time_seconds": 0, "coding_time_seconds_today": 0, "balance": "You need to have a pocket watcher badge to view this.", "badges": [], "created_at": "2025-07-16T14:58:24.441-04:00", "updated_at": "2025-07-16T21:24:00.154-04:00", "avatar": "https://avatars.slack-edge.com/2025-07-16/9203424449091_3ec44f6eb5878eaf5efd_original.jpg", "custom_css": null}, {"id": 15807, "slack_id": "U09634PQMB7", "display_name": "rayane_thn", "bio": null, "projects_count": 1, "devlogs_count": 2, "votes_count": 21, "ships_count": 1, "projects": [{"id": 6943, "title": "TimeScroll ", "devlogs_count": 2, "created_at": "2025-07-17T14:31:04.406-04:00"}], "coding_time_seconds": 6737, "coding_time_seconds_today": 0, "balance": "You need to have a pocket watcher badge to view this.", "badges": [{"name": "Maiden Voyage", "text": "you shipped your first project! the journey begins...", "icon": "\ud83d\udea2"}], "created_at": "2025-07-16T15:00:18.538-04:00", "updated_at": "2025-09-10T22:58:57.253-04:00", "avatar": "https://secure.gravatar.com/avatar/f71e58e5ceda2986db911350dd855816.jpg?s=512&d=https%3A%2F%2Fa.slack-edge.com%2Fdf10d%2Fimg%2Favatars%2Fava_0003-512.png", "custom_css": null}, {"id": 15808, "slack_id": "U08PK1ZEBRS", "display_name": "Muhammad El-Sayed", "bio": null, "projects_count": 0, "devlogs_count": 0, "votes_count": 0, "ships_count": 0, "projects": [], "coding_time_seconds": 1676, "coding_time_seconds_today": 0, "balance": "You need to have a pocket watcher badge to view this.", "badges": [], "created_at": "2025-07-16T15:02:16.589-04:00", "updated_at": "2025-07-16T15:06:25.821-04:00", "avatar": "https://secure.gravatar.com/avatar/6e3a56388148e357131ff4e5f2f9dbcd.jpg?s=512&d=https%3A%2F%2Fa.slack-edge.com%2Fdf10d%2Fimg%2Favatars%2Fava_0013-512.png", "custom_css": null}, {"id": 15809, "slack_id": "U0966FE5GS0", "display_name": "Shosan", "bio": null, "projects_count": 0, "devlogs_count": 0, "votes_count": 0, "ships_count": 0, "projects": [], "coding_time_seconds": 35006, "coding_time_seconds_today": 0, "balance": "You need to have a pocket watcher badge to view this.", "badges": [], "created_at": "2025-07-16T15:03:47.488-04:00", "updated_at": "2025-07-17T11:17:15.953-04:00", "avatar": "https://avatars.slack-edge.com/2025-07-16/9222461600513_e64e8d5ce5a25728bd0b_original.png", "custom_css": null}, {"id": 15810, "slack_id": "U095QF9KYUX", "display_name": "Nicolas", "bio": null, "projects_count": 0, "devlogs_count": 0, "votes_count": 0, "ships_count": 0, "projects": [], "coding_time_seconds": 1215, "coding_time_seconds_today": 0, "balance": "You need to have a pocket watcher badge to view this.", "badges": [], "created_at": "2025-07-16T15:14:42.432-04:00", "updated_at": "2025-07-16T21:24:00.511-04:00", "avatar": "https://secure.gravatar.com/avatar/a5bf04bc10f009e43a75bb6546b7b320.jpg?s=512&d=https%3A%2F%2Fa.slack-edge.com%2Fdf10d%2Fimg%2Favatars%2Fava_0014-512.png", "custom_css": null}, {"id": 15811, "slack_id": "U091CLZ6GQP", "display_name": "Surya Parida", "bio": null, "projects_count": 0, "devlogs_count": 0, "votes_count": 0, "ships_count": 0, "projects": [], "coding_time_seconds": 0, "coding_time_seconds_today": 0, "balance": "You need to have a pocket watcher badge to view this.", "badges": [], "created_at": "2025-07-16T15:33:10.191-04:00", "updated_at": "2025-07-16T21:24:00.590-04:00", "avatar": "https://secure.gravatar.com/avatar/ddac0e790542a8da113b7bc989f25b08.jpg?s=512&d=https%3A%2F%2Fa.slack-edge.com%2Fdf10d%2Fimg%2Favatars%2Fava_0006-512.png", "custom_css": null}, {"id": 15812, "slack_id": "U095QK9HADD", "display_name": "Ramansh", "bio": null, "projects_count": 2, "devlogs_count": 5, "votes_count": 19, "ships_count": 1, "projects": [{"id": 6910, "title": "LockBlog", "devlogs_count": 1, "created_at": "2025-07-17T09:34:25.114-04:00"}, {"id": 9895, "title": "biopoll", "devlogs_count": 4, "created_at": "2025-08-02T18:08:47.445-04:00"}], "coding_time_seconds": 68848, "coding_time_seconds_today": 0, "balance": "You need to have a pocket watcher badge to view this.", "badges": [{"name": "Maiden Voyage", "text": "you shipped your first project! the journey begins...", "icon": "\ud83d\udea2"}], "created_at": "2025-07-16T15:41:31.722-04:00", "updated_at": "2025-09-10T22:58:57.394-04:00", "avatar": "https://avatars.slack-edge.com/2025-07-17/9213328644468_1ae37334449904a6c609_original.jpg", "custom_css": null}, {"id": 15813, "slack_id": "U08S6N39JDN", "display_name": "AleksanderGPL", "bio": null, "projects_count": 0, "devlogs_count": 0, "votes_count": 0, "ships_count": 0, "projects": [], "coding_time_seconds": 185575, "coding_time_seconds_today": 0, "balance": "You need to have a pocket watcher badge to view this.", "badges": [], "created_at": "2025-07-16T15:49:10.484-04:00", "updated_at": "2025-07-16T21:24:00.759-04:00", "avatar": "https://avatars.slack-edge.com/2025-05-09/8893240006752_9609d6f2547843198025_original.jpg", "custom_css": null}, {"id": 15814, "slack_id": "U0961NG792S", "display_name": "tmrx", "bio": "adhd included with my code", "projects_count": 2, "devlogs_count": 3, "votes_count": 27, "ships_count": 2, "projects": [{"id": 9766, "title": "Awesome Gradients", "devlogs_count": 2, "created_at": "2025-08-02T07:53:52.163-04:00"}, {"id": 9844, "title": "Crazifier", "devlogs_count": 1, "created_at": "2025-08-02T12:41:00.829-04:00"}], "coding_time_seconds": 21605, "coding_time_seconds_today": 0, "balance": "You need to have a pocket watcher badge to view this.", "badges": [{"name": "Maiden Voyage", "text": "you shipped your first project! the journey begins...", "icon": "\ud83d\udea2"}], "created_at": "2025-07-16T15:53:13.652-04:00", "updated_at": "2025-09-10T22:58:57.444-04:00", "avatar": "https://avatars.slack-edge.com/2025-07-22/9222756095879_3205c449268513ff4c38_original.jpg", "custom_css": null}, {"id": 15815, "slack_id": "U091B1BN363", "display_name": "Ankit Choubey", "bio": null, "projects_count": 0, "devlogs_count": 0, "votes_count": 0, "ships_count": 0, "projects": [], "coding_time_seconds": 0, "coding_time_seconds_today": 0, "balance": "You need to have a pocket watcher badge to view this.", "badges": [], "created_at": "2025-07-16T16:21:10.813-04:00", "updated_at": "2025-07-16T21:24:00.912-04:00", "avatar": "https://secure.gravatar.com/avatar/64b99cc692779c59da4d0049d0a2d185.jpg?s=512&d=https%3A%2F%2Fa.slack-edge.com%2Fdf10d%2Fimg%2Favatars%2Fava_0013-512.png", "custom_css": null}, {"id": 15816, "slack_id": "U081ENVL1K2", "display_name": "Thomas R", "bio": null, "projects_count": 1, "devlogs_count": 1, "votes_count": 4, "ships_count": 1, "projects": [{"id": 10597, "title": "Mass Transit", "devlogs_count": 1, "created_at": "2025-08-08T15:40:15.458-04:00"}], "coding_time_seconds": 103392, "coding_time_seconds_today": 0, "balance": "You need to have a pocket watcher badge to view this.", "badges": [{"name": "Maiden Voyage", "text": "you shipped your first project! the journey begins...", "icon": "\ud83d\udea2"}], "created_at": "2025-07-16T16:24:51.118-04:00", "updated_at": "2025-09-10T22:58:57.497-04:00", "avatar": "https://avatars.slack-edge.com/2025-07-30/9278293059046_2eeee4363fb4203dbdff_original.jpg", "custom_css": null}, {"id": 15817, "slack_id": "U091PRSNLAZ", "display_name": "Liphip", "bio": null, "projects_count": 0, "devlogs_count": 0, "votes_count": 0, "ships_count": 0, "projects": [], "coding_time_seconds": 0, "coding_time_seconds_today": 0, "balance": "You need to have a pocket watcher badge to view this.", "badges": [], "created_at": "2025-07-16T16:29:08.504-04:00", "updated_at": "2025-07-16T21:24:01.083-04:00", "avatar": "https://secure.gravatar.com/avatar/fca145540b908791859919aeb8b78c94.jpg?s=512&d=https%3A%2F%2Fa.slack-edge.com%2Fdf10d%2Fimg%2Favatars%2Fava_0007-512.png", "custom_css": null}, {"id": 15818, "slack_id": "U096U0TSGKS", "display_name": "Cristian", "bio": null, "projects_count": 0, "devlogs_count": 0, "votes_count": 0, "ships_count": 0, "projects": [], "coding_time_seconds": 0, "coding_time_seconds_today": 0, "balance": "You need to have a pocket watcher badge to view this.", "badges": [], "created_at": "2025-07-16T16:39:10.074-04:00", "updated_at": "2025-07-16T21:24:01.157-04:00", "avatar": "https://secure.gravatar.com/avatar/bd775141964a8e733879aa67b2de73d9.jpg?s=512&d=https%3A%2F%2Fa.slack-edge.com%2Fdf10d%2Fimg%2Favatars%2Fava_0006-512.png", "custom_css": null}, {"id": 15819, "slack_id": "U096U29PJN4", "display_name": "Hetvi", "bio": null, "projects_count": 0, "devlogs_count": 0, "votes_count": 0, "ships_count": 0, "projects": [], "coding_time_seconds": 0, "coding_time_seconds_today": 0, "balance": "You need to have a pocket watcher badge to view this.", "badges": [], "created_at": "2025-07-16T16:52:44.028-04:00", "updated_at": "2025-07-16T21:24:01.282-04:00", "avatar": "https://secure.gravatar.com/avatar/ce178d2698107db3fe5a8d32394f2d40.jpg?s=512&d=https%3A%2F%2Fa.slack-edge.com%2Fdf10d%2Fimg%2Favatars%2Fava_0013-512.png", "custom_css": null}, {"id": 15820, "slack_id": "U091HQBU8JX", "display_name": "Shashikant Gupta", "bio": null, "projects_count": 0, "devlogs_count": 0, "votes_count": 0, "ships_count": 0, "projects": [], "coding_time_seconds": 0, "coding_time_seconds_today": 0, "balance": "You need to have a pocket watcher badge to view this.", "badges": [], "created_at": "2025-07-16T16:53:39.831-04:00", "updated_at": "2025-07-16T21:24:01.375-04:00", "avatar": "https://avatars.slack-edge.com/2025-07-17/9204031361603_ac78517d2fed4aa0d9af_original.jpg", "custom_css": null}, {"id": 15821, "slack_id": "U0965QQB94J", "display_name": "Kende", "bio": null, "projects_count": 0, "devlogs_count": 0, "votes_count": 0, "ships_count": 0, "projects": [], "coding_time_seconds": 1376, "coding_time_seconds_today": 0, "balance": "You need to have a pocket watcher badge to view this.", "badges": [], "created_at": "2025-07-16T17:32:53.935-04:00", "updated_at": "2025-07-16T21:24:01.460-04:00", "avatar": "https://secure.gravatar.com/avatar/76b9ada528a76f08fd9269b2ea0b05c6.jpg?s=512&d=https%3A%2F%2Fa.slack-edge.com%2Fdf10d%2Fimg%2Favatars%2Fava_0024-512.png", "custom_css": null}, {"id": 15822, "slack_id": "U0960626Z0B", "display_name": "Oleg Zh", "bio": null, "projects_count": 0, "devlogs_count": 0, "votes_count": 0, "ships_count": 0, "projects": [], "coding_time_seconds": 0, "coding_time_seconds_today": 0, "balance": "You need to have a pocket watcher badge to view this.", "badges": [], "created_at": "2025-07-16T17:38:44.010-04:00", "updated_at": "2025-07-16T21:24:01.557-04:00", "avatar": "https://secure.gravatar.com/avatar/3acee91ae8b481fc2b1aab57cdf2d37a.jpg?s=512&d=https%3A%2F%2Fa.slack-edge.com%2Fdf10d%2Fimg%2Favatars%2Fava_0005-512.png", "custom_css": null}, {"id": 15823, "slack_id": "U07U654UPRD", "display_name": "Eileen", "bio": null, "projects_count": 0, "devlogs_count": 0, "votes_count": 0, "ships_count": 0, "projects": [], "coding_time_seconds": 9647, "coding_time_seconds_today": 0, "balance": "You need to have a pocket watcher badge to view this.", "badges": [], "created_at": "2025-07-16T17:39:17.114-04:00", "updated_at": "2025-08-26T17:37:39.149-04:00", "avatar": "https://secure.gravatar.com/avatar/50f32cf3831fcba93afeea319d391d69.jpg?s=512&d=https%3A%2F%2Fa.slack-edge.com%2Fdf10d%2Fimg%2Favatars%2Fava_0002-512.png", "custom_css": null}, {"id": 15824, "slack_id": "U08AFE26AA3", "display_name": "Alex", "bio": "", "projects_count": 2, "devlogs_count": 5, "votes_count": 20, "ships_count": 2, "projects": [{"id": 6841, "title": "Addiction Recovery App", "devlogs_count": 4, "created_at": "2025-07-16T19:11:07.657-04:00"}, {"id": 10040, "title": "WhoIsAlx Website", "devlogs_count": 1, "created_at": "2025-08-03T16:20:50.343-04:00"}], "coding_time_seconds": 37685, "coding_time_seconds_today": 0, "balance": "You need to have a pocket watcher badge to view this.", "badges": [{"name": "Maiden Voyage", "text": "you shipped your first project! the journey begins...", "icon": "\ud83d\udea2"}], "created_at": "2025-07-16T17:46:11.927-04:00", "updated_at": "2025-09-10T22:58:57.727-04:00", "avatar": "https://avatars.slack-edge.com/2025-09-03/9471044593985_5e8256c40f94b0c87e70_original.jpg", "custom_css": null}, {"id": 15825, "slack_id": "U09349TT879", "display_name": "Zac Ni", "bio": null, "projects_count": 0, "devlogs_count": 0, "votes_count": 0, "ships_count": 0, "projects": [], "coding_time_seconds": 0, "coding_time_seconds_today": 0, "balance": "You need to have a pocket watcher badge to view this.", "badges": [], "created_at": "2025-07-16T19:08:29.472-04:00", "updated_at": "2025-07-16T21:24:01.785-04:00", "avatar": "https://avatars.slack-edge.com/2025-06-28/9121617194164_fd37a28bb87b21f6c110_original.png", "custom_css": null}], "pagination": {"page": 787, "pages": 1192, "count": 23828, "items": 20}}