{"users": [{"id": 15826, "slack_id": "U09665017CJ", "display_name": "me-is-dumb", "bio": null, "projects_count": 5, "devlogs_count": 1, "votes_count": 0, "ships_count": 0, "projects": [{"id": 7662, "title": "Svensson attractor", "devlogs_count": 0, "created_at": "2025-07-22T12:35:57.839-04:00"}, {"id": 7670, "title": "Tinkerbell attractor", "devlogs_count": 0, "created_at": "2025-07-22T13:13:37.249-04:00"}, {"id": 7748, "title": "e", "devlogs_count": 1, "created_at": "2025-07-22T21:04:39.474-04:00"}, {"id": 7651, "title": "Lorenz attractor", "devlogs_count": 0, "created_at": "2025-07-22T12:18:32.813-04:00"}, {"id": 7661, "title": "Snake", "devlogs_count": 0, "created_at": "2025-07-22T12:34:39.530-04:00"}], "coding_time_seconds": 14532, "coding_time_seconds_today": 0, "balance": "You need to have a pocket watcher badge to view this.", "badges": [], "created_at": "2025-07-16T19:10:08.126-04:00", "updated_at": "2025-07-22T12:32:40.941-04:00", "avatar": "https://secure.gravatar.com/avatar/aba1cb9540ed889052e7d53a309129ec.jpg?s=512&d=https%3A%2F%2Fa.slack-edge.com%2Fdf10d%2Fimg%2Favatars%2Fava_0008-512.png", "custom_css": null}, {"id": 15827, "slack_id": "U095RH0FQBZ", "display_name": "kynguyen007", "bio": null, "projects_count": 0, "devlogs_count": 0, "votes_count": 0, "ships_count": 0, "projects": [], "coding_time_seconds": 0, "coding_time_seconds_today": 0, "balance": "You need to have a pocket watcher badge to view this.", "badges": [], "created_at": "2025-07-16T19:21:06.558-04:00", "updated_at": "2025-07-16T21:24:01.951-04:00", "avatar": "https://secure.gravatar.com/avatar/10089b4a2079ce95cb41d78eda2f37f2.jpg?s=512&d=https%3A%2F%2Fa.slack-edge.com%2Fdf10d%2Fimg%2Favatars%2Fava_0023-512.png", "custom_css": null}, {"id": 15828, "slack_id": "U0967HLMVTN", "display_name": "Nathan Liu", "bio": null, "projects_count": 1, "devlogs_count": 2, "votes_count": 3, "ships_count": 1, "projects": [{"id": 10283, "title": "Lipid Nanoparticle Machine Learning ", "devlogs_count": 2, "created_at": "2025-08-05T14:20:25.936-04:00"}], "coding_time_seconds": 125419, "coding_time_seconds_today": 0, "balance": "You need to have a pocket watcher badge to view this.", "badges": [{"name": "Maiden Voyage", "text": "you shipped your first project! the journey begins...", "icon": "\ud83d\udea2"}], "created_at": "2025-07-16T19:21:38.986-04:00", "updated_at": "2025-09-10T22:58:57.867-04:00", "avatar": "https://secure.gravatar.com/avatar/c8607dd579ee6f9dda2556e7298b27b4.jpg?s=512&d=https%3A%2F%2Fa.slack-edge.com%2Fdf10d%2Fimg%2Favatars%2Fava_0009-512.png", "custom_css": null}, {"id": 15829, "slack_id": "U091JKQ2X62", "display_name": "nillkabbo", "bio": null, "projects_count": 0, "devlogs_count": 0, "votes_count": 0, "ships_count": 0, "projects": [], "coding_time_seconds": 0, "coding_time_seconds_today": 0, "balance": "You need to have a pocket watcher badge to view this.", "badges": [], "created_at": "2025-07-16T19:48:20.101-04:00", "updated_at": "2025-07-16T21:24:02.134-04:00", "avatar": "https://secure.gravatar.com/avatar/803f8bd139a13328b0bf0c80284abdcf.jpg?s=512&d=https%3A%2F%2Fa.slack-edge.com%2Fdf10d%2Fimg%2Favatars%2Fava_0008-512.png", "custom_css": null}, {"id": 15830, "slack_id": "U0823QXHKMG", "display_name": "Neo", "bio": null, "projects_count": 3, "devlogs_count": 4, "votes_count": 6, "ships_count": 1, "projects": [{"id": 7959, "title": "My personal website!", "devlogs_count": 0, "created_at": "2025-07-23T20:58:04.491-04:00"}, {"id": 7963, "title": "OBS Quiz overlay (Inspired by \"The Chase\")", "devlogs_count": 0, "created_at": "2025-07-23T21:02:01.966-04:00"}, {"id": 7439, "title": "Subscription Tracker", "devlogs_count": 4, "created_at": "2025-07-21T18:58:41.271-04:00"}], "coding_time_seconds": 21970, "coding_time_seconds_today": 0, "balance": "You need to have a pocket watcher badge to view this.", "badges": [{"name": "Maiden Voyage", "text": "you shipped your first project! the journey begins...", "icon": "\ud83d\udea2"}], "created_at": "2025-07-16T19:55:38.665-04:00", "updated_at": "2025-09-10T22:58:57.930-04:00", "avatar": "https://avatars.slack-edge.com/2025-07-22/9217824048759_8cecec57d3cd9736ac8d_original.png", "custom_css": null}, {"id": 15831, "slack_id": "U095QUKVBEK", "display_name": "sameena", "bio": null, "projects_count": 0, "devlogs_count": 0, "votes_count": 0, "ships_count": 0, "projects": [], "coding_time_seconds": 0, "coding_time_seconds_today": 0, "balance": "You need to have a pocket watcher badge to view this.", "badges": [], "created_at": "2025-07-16T20:01:34.013-04:00", "updated_at": "2025-07-16T21:24:02.290-04:00", "avatar": "https://secure.gravatar.com/avatar/4e2e402671729191221fedb2516d50e2.jpg?s=512&d=https%3A%2F%2Fa.slack-edge.com%2Fdf10d%2Fimg%2Favatars%2Fava_0007-512.png", "custom_css": null}, {"id": 15832, "slack_id": "U091JSHCCDR", "display_name": "Guy", "bio": null, "projects_count": 0, "devlogs_count": 0, "votes_count": 0, "ships_count": 0, "projects": [], "coding_time_seconds": 0, "coding_time_seconds_today": 0, "balance": "You need to have a pocket watcher badge to view this.", "badges": [], "created_at": "2025-07-16T20:46:27.185-04:00", "updated_at": "2025-07-16T21:24:02.388-04:00", "avatar": "https://secure.gravatar.com/avatar/8d7beb5ff8327357a76e396d259ac98e.jpg?s=512&d=https%3A%2F%2Fa.slack-edge.com%2Fdf10d%2Fimg%2Favatars%2Fava_0023-512.png", "custom_css": null}, {"id": 15833, "slack_id": "U094QQ75YP4", "display_name": "TheTechBoy", "bio": null, "projects_count": 0, "devlogs_count": 0, "votes_count": 0, "ships_count": 0, "projects": [], "coding_time_seconds": 0, "coding_time_seconds_today": 0, "balance": "You need to have a pocket watcher badge to view this.", "badges": [], "created_at": "2025-07-16T21:31:47.980-04:00", "updated_at": "2025-07-17T03:23:44.619-04:00", "avatar": "https://secure.gravatar.com/avatar/79d3fbb817a86e25c6f8cee769f64ecc.jpg?s=512&d=https%3A%2F%2Fa.slack-edge.com%2Fdf10d%2Fimg%2Favatars%2Fava_0016-512.png", "custom_css": null}, {"id": 15834, "slack_id": "U096V673316", "display_name": "Daniel", "bio": null, "projects_count": 0, "devlogs_count": 0, "votes_count": 0, "ships_count": 0, "projects": [], "coding_time_seconds": 0, "coding_time_seconds_today": 0, "balance": "You need to have a pocket watcher badge to view this.", "badges": [], "created_at": "2025-07-16T22:09:50.432-04:00", "updated_at": "2025-07-17T03:23:44.711-04:00", "avatar": "https://secure.gravatar.com/avatar/7ecfe290f686f74732a64aae51bd899f.jpg?s=512&d=https%3A%2F%2Fa.slack-edge.com%2Fdf10d%2Fimg%2Favatars%2Fava_0010-512.png", "custom_css": null}, {"id": 15835, "slack_id": "U091SJ6HX26", "display_name": "Jeremy Guo", "bio": null, "projects_count": 0, "devlogs_count": 0, "votes_count": 0, "ships_count": 0, "projects": [], "coding_time_seconds": 0, "coding_time_seconds_today": 0, "balance": "You need to have a pocket watcher badge to view this.", "badges": [], "created_at": "2025-07-16T22:18:46.276-04:00", "updated_at": "2025-07-17T03:23:44.797-04:00", "avatar": "https://secure.gravatar.com/avatar/493c40d69663cdbe4c981092edcada3b.jpg?s=512&d=https%3A%2F%2Fa.slack-edge.com%2Fdf10d%2Fimg%2Favatars%2Fava_0008-512.png", "custom_css": null}, {"id": 15836, "slack_id": "U096EPX5064", "display_name": "Maximus Adeola", "bio": null, "projects_count": 2, "devlogs_count": 12, "votes_count": 21, "ships_count": 1, "projects": [{"id": 11996, "title": "AI Shopper", "devlogs_count": 0, "created_at": "2025-08-22T00:22:54.051-04:00"}, {"id": 7144, "title": "FlashySurf", "devlogs_count": 12, "created_at": "2025-07-19T12:40:14.625-04:00"}], "coding_time_seconds": 322261, "coding_time_seconds_today": 4754, "balance": "You need to have a pocket watcher badge to view this.", "badges": [{"name": "Maiden Voyage", "text": "you shipped your first project! the journey begins...", "icon": "\ud83d\udea2"}], "created_at": "2025-07-16T22:30:41.716-04:00", "updated_at": "2025-09-10T22:58:58.145-04:00", "avatar": "https://avatars.slack-edge.com/2025-07-16/9224238947457_92ee903ab834564459c0_original.png", "custom_css": null}, {"id": 15837, "slack_id": "U09637NF82J", "display_name": "Shubham Kesarwani", "bio": null, "projects_count": 0, "devlogs_count": 0, "votes_count": 0, "ships_count": 0, "projects": [], "coding_time_seconds": 0, "coding_time_seconds_today": 0, "balance": "You need to have a pocket watcher badge to view this.", "badges": [], "created_at": "2025-07-16T22:30:45.168-04:00", "updated_at": "2025-07-17T03:23:44.962-04:00", "avatar": "https://avatars.slack-edge.com/2025-07-16/9210802349762_d9d67544322ebe357009_original.jpg", "custom_css": null}, {"id": 15838, "slack_id": "U09685GUN20", "display_name": "Guru Velivelli", "bio": null, "projects_count": 0, "devlogs_count": 0, "votes_count": 0, "ships_count": 0, "projects": [], "coding_time_seconds": 0, "coding_time_seconds_today": 0, "balance": "You need to have a pocket watcher badge to view this.", "badges": [], "created_at": "2025-07-16T22:40:02.220-04:00", "updated_at": "2025-07-17T03:23:45.052-04:00", "avatar": "https://secure.gravatar.com/avatar/cddb2292b969a834341943e467ca8b95.jpg?s=512&d=https%3A%2F%2Fa.slack-edge.com%2Fdf10d%2Fimg%2Favatars%2Fava_0016-512.png", "custom_css": null}, {"id": 15839, "slack_id": "U091SQLP1NW", "display_name": "Ankit Raj", "bio": "just developing", "projects_count": 0, "devlogs_count": 0, "votes_count": 0, "ships_count": 0, "projects": [], "coding_time_seconds": 93020, "coding_time_seconds_today": 0, "balance": "You need to have a pocket watcher badge to view this.", "badges": [], "created_at": "2025-07-16T22:49:23.816-04:00", "updated_at": "2025-07-17T03:23:45.140-04:00", "avatar": "https://avatars.slack-edge.com/2025-07-16/9224295928305_f5507389918deab3eac1_original.gif", "custom_css": null}, {"id": 15840, "slack_id": "U076F3XPU2D", "display_name": "Alex Lopez", "bio": null, "projects_count": 0, "devlogs_count": 0, "votes_count": 0, "ships_count": 0, "projects": [], "coding_time_seconds": 0, "coding_time_seconds_today": 0, "balance": "You need to have a pocket watcher badge to view this.", "badges": [], "created_at": "2025-07-16T23:39:42.842-04:00", "updated_at": "2025-07-26T00:37:09.248-04:00", "avatar": "https://avatars.slack-edge.com/2025-07-25/9258631271492_d53578a0ed926903408c_original.png", "custom_css": null}, {"id": 15841, "slack_id": "U091XC6UFM2", "display_name": "Mehribon", "bio": null, "projects_count": 0, "devlogs_count": 0, "votes_count": 0, "ships_count": 0, "projects": [], "coding_time_seconds": 0, "coding_time_seconds_today": 0, "balance": "You need to have a pocket watcher badge to view this.", "badges": [], "created_at": "2025-07-16T23:42:05.222-04:00", "updated_at": "2025-07-17T03:23:45.330-04:00", "avatar": "https://secure.gravatar.com/avatar/46fcaf06b17baefed8ea9f2c86e2beb2.jpg?s=512&d=https%3A%2F%2Fa.slack-edge.com%2Fdf10d%2Fimg%2Favatars%2Fava_0009-512.png", "custom_css": null}, {"id": 15842, "slack_id": "U092G3UGD88", "display_name": "Michael Amissah", "bio": null, "projects_count": 0, "devlogs_count": 0, "votes_count": 0, "ships_count": 0, "projects": [], "coding_time_seconds": 0, "coding_time_seconds_today": 0, "balance": "You need to have a pocket watcher badge to view this.", "badges": [], "created_at": "2025-07-16T23:44:42.667-04:00", "updated_at": "2025-07-17T03:23:45.414-04:00", "avatar": "https://avatars.slack-edge.com/2025-07-16/9196396514855_5f486820a254fc1ae232_original.jpg", "custom_css": null}, {"id": 15843, "slack_id": "U091RB80ABF", "display_name": "Raden", "bio": null, "projects_count": 0, "devlogs_count": 0, "votes_count": 0, "ships_count": 0, "projects": [], "coding_time_seconds": 0, "coding_time_seconds_today": 0, "balance": "You need to have a pocket watcher badge to view this.", "badges": [], "created_at": "2025-07-16T23:58:17.952-04:00", "updated_at": "2025-07-17T03:23:45.508-04:00", "avatar": "https://secure.gravatar.com/avatar/3142f03053b29f2e367f2f5c4a871015.jpg?s=512&d=https%3A%2F%2Fa.slack-edge.com%2Fdf10d%2Fimg%2Favatars%2Fava_0021-512.png", "custom_css": null}, {"id": 15844, "slack_id": "U09674KU44A", "display_name": "Nikhitha", "bio": null, "projects_count": 0, "devlogs_count": 0, "votes_count": 0, "ships_count": 0, "projects": [], "coding_time_seconds": 10560, "coding_time_seconds_today": 0, "balance": "You need to have a pocket watcher badge to view this.", "badges": [], "created_at": "2025-07-17T00:39:18.332-04:00", "updated_at": "2025-07-18T03:09:01.806-04:00", "avatar": "https://secure.gravatar.com/avatar/1cf68395012d4fef7468bac2e5c7ea96.jpg?s=512&d=https%3A%2F%2Fa.slack-edge.com%2Fdf10d%2Fimg%2Favatars%2Fava_0022-512.png", "custom_css": null}, {"id": 15845, "slack_id": "U0963N6SY3G", "display_name": "Damian Grainger", "bio": null, "projects_count": 0, "devlogs_count": 0, "votes_count": 0, "ships_count": 0, "projects": [], "coding_time_seconds": 0, "coding_time_seconds_today": 0, "balance": "You need to have a pocket watcher badge to view this.", "badges": [], "created_at": "2025-07-17T01:13:30.298-04:00", "updated_at": "2025-07-17T03:23:45.686-04:00", "avatar": "https://secure.gravatar.com/avatar/f7cfb160cf84876f76b7f513b619a434.jpg?s=512&d=https%3A%2F%2Fa.slack-edge.com%2Fdf10d%2Fimg%2Favatars%2Fava_0008-512.png", "custom_css": null}], "pagination": {"page": 788, "pages": 1192, "count": 23828, "items": 20}}