{"users": [{"id": 15846, "slack_id": "U091QVC102Z", "display_name": "Vishavjeet Singh", "bio": null, "projects_count": 0, "devlogs_count": 0, "votes_count": 0, "ships_count": 0, "projects": [], "coding_time_seconds": 0, "coding_time_seconds_today": 0, "balance": "You need to have a pocket watcher badge to view this.", "badges": [], "created_at": "2025-07-17T01:20:21.665-04:00", "updated_at": "2025-07-17T03:23:45.763-04:00", "avatar": "https://avatars.slack-edge.com/2025-07-16/9205660662275_915d0f5793ec208d268e_original.jpg", "custom_css": null}, {"id": 15847, "slack_id": "U091SPAGW3W", "display_name": "Sujal Bhattarai", "bio": null, "projects_count": 0, "devlogs_count": 0, "votes_count": 0, "ships_count": 0, "projects": [], "coding_time_seconds": 0, "coding_time_seconds_today": 0, "balance": "You need to have a pocket watcher badge to view this.", "badges": [], "created_at": "2025-07-17T01:35:28.996-04:00", "updated_at": "2025-07-17T03:23:45.850-04:00", "avatar": "https://avatars.slack-edge.com/2025-07-16/9209310431077_83f8044ba426603e6256_original.jpg", "custom_css": null}, {"id": 15848, "slack_id": "U091LHFEXRU", "display_name": "Vaughan Milliman", "bio": null, "projects_count": 2, "devlogs_count": 6, "votes_count": 23, "ships_count": 1, "projects": [{"id": 6975, "title": "FreeMessage", "devlogs_count": 1, "created_at": "2025-07-17T21:05:46.233-04:00"}, {"id": 10924, "title": "College App Hub", "devlogs_count": 5, "created_at": "2025-08-11T20:59:20.752-04:00"}], "coding_time_seconds": 194395, "coding_time_seconds_today": 0, "balance": "You need to have a pocket watcher badge to view this.", "badges": [{"name": "Maiden Voyage", "text": "you shipped your first project! the journey begins...", "icon": "\ud83d\udea2"}], "created_at": "2025-07-17T02:08:30.441-04:00", "updated_at": "2025-09-10T22:58:58.561-04:00", "avatar": "https://secure.gravatar.com/avatar/1c403216306d50680cf4db4d3ca1d07b.jpg?s=512&d=https%3A%2F%2Fa.slack-edge.com%2Fdf10d%2Fimg%2Favatars%2Fava_0008-512.png", "custom_css": null}, {"id": 15849, "slack_id": "U091AUK03K9", "display_name": "Aditya Yadav", "bio": null, "projects_count": 0, "devlogs_count": 0, "votes_count": 0, "ships_count": 0, "projects": [], "coding_time_seconds": 0, "coding_time_seconds_today": 0, "balance": "You need to have a pocket watcher badge to view this.", "badges": [], "created_at": "2025-07-17T02:32:31.398-04:00", "updated_at": "2025-07-17T03:23:46.020-04:00", "avatar": "https://avatars.slack-edge.com/2025-07-16/9212889698292_1a56c899cac1bfc95d2f_original.png", "custom_css": null}, {"id": 15850, "slack_id": "U09645JS9BQ", "display_name": "Priyanshu Paikra", "bio": null, "projects_count": 1, "devlogs_count": 0, "votes_count": 0, "ships_count": 0, "projects": [{"id": 6881, "title": "finance_tracker", "devlogs_count": 0, "created_at": "2025-07-17T03:41:01.070-04:00"}], "coding_time_seconds": 86850, "coding_time_seconds_today": 0, "balance": "You need to have a pocket watcher badge to view this.", "badges": [], "created_at": "2025-07-17T03:05:04.805-04:00", "updated_at": "2025-07-17T03:37:23.771-04:00", "avatar": "https://secure.gravatar.com/avatar/7c8c6ad752a1876685340ec94da159a7.jpg?s=512&d=https%3A%2F%2Fa.slack-edge.com%2Fdf10d%2Fimg%2Favatars%2Fava_0022-512.png", "custom_css": null}, {"id": 15851, "slack_id": "U0967RJD62W", "display_name": "Arif", "bio": null, "projects_count": 0, "devlogs_count": 0, "votes_count": 0, "ships_count": 0, "projects": [], "coding_time_seconds": 0, "coding_time_seconds_today": 0, "balance": "You need to have a pocket watcher badge to view this.", "badges": [], "created_at": "2025-07-17T03:52:56.414-04:00", "updated_at": "2025-07-17T15:23:56.054-04:00", "avatar": "https://secure.gravatar.com/avatar/06bdac2d95fd6c07d0d326bc0d8621e3.jpg?s=512&d=https%3A%2F%2Fa.slack-edge.com%2Fdf10d%2Fimg%2Favatars%2Fava_0006-512.png", "custom_css": null}, {"id": 15852, "slack_id": "U091KNS5LJ2", "display_name": "Ayush mishra", "bio": null, "projects_count": 0, "devlogs_count": 0, "votes_count": 0, "ships_count": 0, "projects": [], "coding_time_seconds": 0, "coding_time_seconds_today": 0, "balance": "You need to have a pocket watcher badge to view this.", "badges": [], "created_at": "2025-07-17T03:53:54.022-04:00", "updated_at": "2025-07-17T15:23:56.134-04:00", "avatar": "https://secure.gravatar.com/avatar/406712d494a71bcc12af976826f40ebc.jpg?s=512&d=https%3A%2F%2Fa.slack-edge.com%2Fdf10d%2Fimg%2Favatars%2Fava_0021-512.png", "custom_css": null}, {"id": 15853, "slack_id": "U096WAG1CTS", "display_name": "gil", "bio": null, "projects_count": 0, "devlogs_count": 0, "votes_count": 0, "ships_count": 0, "projects": [], "coding_time_seconds": 0, "coding_time_seconds_today": 0, "balance": "You need to have a pocket watcher badge to view this.", "badges": [], "created_at": "2025-07-17T04:53:36.386-04:00", "updated_at": "2025-07-17T15:23:56.244-04:00", "avatar": "https://secure.gravatar.com/avatar/3afb0dedbb637125799938c518842836.jpg?s=512&d=https%3A%2F%2Fa.slack-edge.com%2Fdf10d%2Fimg%2Favatars%2Fava_0018-512.png", "custom_css": null}, {"id": 15854, "slack_id": "U091DRLUYEB", "display_name": "Emmanuel Ayelabola", "bio": null, "projects_count": 0, "devlogs_count": 0, "votes_count": 0, "ships_count": 0, "projects": [], "coding_time_seconds": 0, "coding_time_seconds_today": 0, "balance": "You need to have a pocket watcher badge to view this.", "badges": [], "created_at": "2025-07-17T04:57:56.426-04:00", "updated_at": "2025-07-17T15:23:56.386-04:00", "avatar": "https://secure.gravatar.com/avatar/3004e25e4ed8c0c7b7febf786e7a8873.jpg?s=512&d=https%3A%2F%2Fa.slack-edge.com%2Fdf10d%2Fimg%2Favatars%2Fava_0013-512.png", "custom_css": null}, {"id": 15855, "slack_id": "U0964T1EP3Q", "display_name": "Bolaji", "bio": null, "projects_count": 0, "devlogs_count": 0, "votes_count": 0, "ships_count": 0, "projects": [], "coding_time_seconds": 0, "coding_time_seconds_today": 0, "balance": "You need to have a pocket watcher badge to view this.", "badges": [], "created_at": "2025-07-17T05:33:23.898-04:00", "updated_at": "2025-07-17T15:23:56.477-04:00", "avatar": "https://secure.gravatar.com/avatar/8f2133298d4a4d1ec912bd67a2ba4921.jpg?s=512&d=https%3A%2F%2Fa.slack-edge.com%2Fdf10d%2Fimg%2Favatars%2Fava_0004-512.png", "custom_css": null}, {"id": 15856, "slack_id": "U091N0QGP0B", "display_name": "Godly", "bio": null, "projects_count": 0, "devlogs_count": 0, "votes_count": 0, "ships_count": 0, "projects": [], "coding_time_seconds": 0, "coding_time_seconds_today": 0, "balance": "You need to have a pocket watcher badge to view this.", "badges": [], "created_at": "2025-07-17T05:37:22.612-04:00", "updated_at": "2025-07-17T15:24:00.584-04:00", "avatar": "https://secure.gravatar.com/avatar/854e3a93db19fdd112562e391cba0d63.jpg?s=512&d=https%3A%2F%2Fa.slack-edge.com%2Fdf10d%2Fimg%2Favatars%2Fava_0011-512.png", "custom_css": null}, {"id": 15857, "slack_id": "U095U06KX27", "display_name": "SirWorksalot", "bio": null, "projects_count": 0, "devlogs_count": 0, "votes_count": 0, "ships_count": 0, "projects": [], "coding_time_seconds": 0, "coding_time_seconds_today": 0, "balance": "You need to have a pocket watcher badge to view this.", "badges": [], "created_at": "2025-07-17T05:51:33.588-04:00", "updated_at": "2025-07-17T15:24:00.659-04:00", "avatar": "https://secure.gravatar.com/avatar/38e641d279c05a705ff131a47fc1a4cf.jpg?s=512&d=https%3A%2F%2Fa.slack-edge.com%2Fdf10d%2Fimg%2Favatars%2Fava_0023-512.png", "custom_css": null}, {"id": 15858, "slack_id": "U096N5B22NM", "display_name": "Mohammed Ayaan Adil Ahmed", "bio": null, "projects_count": 0, "devlogs_count": 0, "votes_count": 0, "ships_count": 0, "projects": [], "coding_time_seconds": 10968, "coding_time_seconds_today": 0, "balance": "You need to have a pocket watcher badge to view this.", "badges": [], "created_at": "2025-07-17T06:32:35.537-04:00", "updated_at": "2025-07-17T15:24:00.742-04:00", "avatar": "https://secure.gravatar.com/avatar/e7df97124054050936fea3fc187f4891.jpg?s=512&d=https%3A%2F%2Fa.slack-edge.com%2Fdf10d%2Fimg%2Favatars%2Fava_0002-512.png", "custom_css": null}, {"id": 15859, "slack_id": "U091PMGE5NE", "display_name": "kaushal", "bio": null, "projects_count": 0, "devlogs_count": 0, "votes_count": 0, "ships_count": 0, "projects": [], "coding_time_seconds": 356, "coding_time_seconds_today": 0, "balance": "You need to have a pocket watcher badge to view this.", "badges": [], "created_at": "2025-07-17T06:47:52.753-04:00", "updated_at": "2025-08-03T15:18:35.006-04:00", "avatar": "https://secure.gravatar.com/avatar/aca3a83409ceb0ba9c244829857e0322.jpg?s=512&d=https%3A%2F%2Fa.slack-edge.com%2Fdf10d%2Fimg%2Favatars%2Fava_0001-512.png", "custom_css": null}, {"id": 15860, "slack_id": "U096NBE52JD", "display_name": "Momina Nadeem", "bio": null, "projects_count": 0, "devlogs_count": 0, "votes_count": 0, "ships_count": 0, "projects": [], "coding_time_seconds": 8690, "coding_time_seconds_today": 0, "balance": "You need to have a pocket watcher badge to view this.", "badges": [], "created_at": "2025-07-17T07:19:06.051-04:00", "updated_at": "2025-07-17T15:24:00.909-04:00", "avatar": "https://secure.gravatar.com/avatar/c35ce5ed40e695e54e539dd28defff2b.jpg?s=512&d=https%3A%2F%2Fa.slack-edge.com%2Fdf10d%2Fimg%2Favatars%2Fava_0014-512.png", "custom_css": null}, {"id": 15861, "slack_id": "U08NJ42KD9A", "display_name": "Cal", "bio": null, "projects_count": 0, "devlogs_count": 0, "votes_count": 0, "ships_count": 0, "projects": [], "coding_time_seconds": 0, "coding_time_seconds_today": 0, "balance": "You need to have a pocket watcher badge to view this.", "badges": [], "created_at": "2025-07-17T07:22:07.162-04:00", "updated_at": "2025-07-17T12:47:46.163-04:00", "avatar": "https://avatars.slack-edge.com/2025-04-18/8784729265793_9cf8a1c256f617019e67_original.jpg", "custom_css": null}, {"id": 15862, "slack_id": "U0966SKR40M", "display_name": "Jon Spahiu", "bio": "Has 2 years of Python Expierence Since 10 years old\r\nHas 3 years of HTML and CSS Expierence since 9 years old\r\n\r\nCreates AI Projects!\r\nCreates Cool Styling in CSS!", "projects_count": 3, "devlogs_count": 13, "votes_count": 64, "ships_count": 2, "projects": [{"id": 9136, "title": "Bank Staff App Python", "devlogs_count": 7, "created_at": "2025-07-30T18:23:59.699-04:00"}, {"id": 7286, "title": "AI Smart Learning Assistant", "devlogs_count": 2, "created_at": "2025-07-20T15:55:04.671-04:00"}, {"id": 7469, "title": "Notepad Python", "devlogs_count": 4, "created_at": "2025-07-21T22:48:10.182-04:00"}], "coding_time_seconds": 82484, "coding_time_seconds_today": 0, "balance": "You need to have a pocket watcher badge to view this.", "badges": [{"name": "Maiden Voyage", "text": "you shipped your first project! the journey begins...", "icon": "\ud83d\udea2"}], "created_at": "2025-07-17T07:33:31.276-04:00", "updated_at": "2025-09-10T22:58:58.986-04:00", "avatar": "https://avatars.slack-edge.com/2025-07-30/9295907545329_e32712c8ede18b155f59_original.jpg", "custom_css": null}, {"id": 15863, "slack_id": "U096NLABMKK", "display_name": "RUCHITHA", "bio": null, "projects_count": 0, "devlogs_count": 0, "votes_count": 0, "ships_count": 0, "projects": [], "coding_time_seconds": 0, "coding_time_seconds_today": 0, "balance": "You need to have a pocket watcher badge to view this.", "badges": [], "created_at": "2025-07-17T08:24:59.494-04:00", "updated_at": "2025-07-17T15:24:01.170-04:00", "avatar": "https://avatars.slack-edge.com/2025-07-17/9211140991813_dd16c8400663a7e19f45_original.png", "custom_css": null}, {"id": 15864, "slack_id": "U0965EUE02J", "display_name": "Avneesh Singh", "bio": null, "projects_count": 0, "devlogs_count": 0, "votes_count": 0, "ships_count": 0, "projects": [], "coding_time_seconds": 0, "coding_time_seconds_today": 0, "balance": "You need to have a pocket watcher badge to view this.", "badges": [], "created_at": "2025-07-17T08:25:20.056-04:00", "updated_at": "2025-07-17T15:24:01.252-04:00", "avatar": "https://secure.gravatar.com/avatar/5f787e8c9f079696592cf4238a70f7e7.jpg?s=512&d=https%3A%2F%2Fa.slack-edge.com%2Fdf10d%2Fimg%2Favatars%2Fava_0022-512.png", "custom_css": null}, {"id": 15865, "slack_id": "U09673S0QBF", "display_name": "Samuel", "bio": null, "projects_count": 0, "devlogs_count": 0, "votes_count": 0, "ships_count": 0, "projects": [], "coding_time_seconds": 22781, "coding_time_seconds_today": 0, "balance": "You need to have a pocket watcher badge to view this.", "badges": [], "created_at": "2025-07-17T08:25:27.006-04:00", "updated_at": "2025-07-17T15:24:01.330-04:00", "avatar": "https://secure.gravatar.com/avatar/7cd7770af049240a525b67ecc7d4634c.jpg?s=512&d=https%3A%2F%2Fa.slack-edge.com%2Fdf10d%2Fimg%2Favatars%2Fava_0008-512.png", "custom_css": null}], "pagination": {"page": 789, "pages": 1192, "count": 23828, "items": 20}}