{"users": [{"id": 1561, "slack_id": "U086DTRRNSV", "display_name": "snehasish", "bio": null, "projects_count": 2, "devlogs_count": 7, "votes_count": 9, "ships_count": 1, "projects": [{"id": 331, "title": "Workatime", "devlogs_count": 6, "created_at": "2025-06-16T18:13:00.875-04:00"}, {"id": 4177, "title": "gurt.party", "devlogs_count": 1, "created_at": "2025-06-28T03:25:06.192-04:00"}], "coding_time_seconds": 226807, "coding_time_seconds_today": 0, "balance": "You need to have a pocket watcher badge to view this.", "badges": [{"name": "Maiden Voyage", "text": "you shipped your first project! the journey begins...", "icon": "\ud83d\udea2"}], "created_at": "2025-06-16T13:31:14.852-04:00", "updated_at": "2025-09-10T22:51:55.658-04:00", "avatar": "https://avatars.slack-edge.com/2024-12-20/8199441226230_2cc77ec0b60a343f48fb_original.png", "custom_css": null}, {"id": 1562, "slack_id": "U091MRX84AZ", "display_name": "MightBeHuman", "bio": null, "projects_count": 1, "devlogs_count": 1, "votes_count": 0, "ships_count": 0, "projects": [{"id": 1872, "title": "LockArithm", "devlogs_count": 1, "created_at": "2025-06-19T13:38:22.262-04:00"}], "coding_time_seconds": 35029, "coding_time_seconds_today": 0, "balance": "You need to have a pocket watcher badge to view this.", "badges": [], "created_at": "2025-06-16T13:31:16.485-04:00", "updated_at": "2025-07-03T19:18:12.496-04:00", "avatar": "https://secure.gravatar.com/avatar/b3a28c91ac9b192d3516d4bb82372edb.jpg?s=512&d=https%3A%2F%2Fa.slack-edge.com%2Fdf10d%2Fimg%2Favatars%2Fava_0001-512.png", "custom_css": null}, {"id": 1563, "slack_id": "U091PKQP9UJ", "display_name": "Faizan Anwar Khan", "bio": null, "projects_count": 0, "devlogs_count": 0, "votes_count": 0, "ships_count": 0, "projects": [], "coding_time_seconds": 0, "coding_time_seconds_today": 0, "balance": "You need to have a pocket watcher badge to view this.", "badges": [], "created_at": "2025-06-16T13:31:18.616-04:00", "updated_at": "2025-07-03T19:18:12.760-04:00", "avatar": "https://secure.gravatar.com/avatar/9ef338c319ded08eedfd06779a520310.jpg?s=512&d=https%3A%2F%2Fa.slack-edge.com%2Fdf10d%2Fimg%2Favatars%2Fava_0006-512.png", "custom_css": null}, {"id": 1564, "slack_id": "U07H764N3D5", "display_name": "Laila", "bio": null, "projects_count": 0, "devlogs_count": 0, "votes_count": 0, "ships_count": 0, "projects": [], "coding_time_seconds": 0, "coding_time_seconds_today": 0, "balance": "You need to have a pocket watcher badge to view this.", "badges": [], "created_at": "2025-06-16T13:31:21.953-04:00", "updated_at": "2025-07-03T19:18:13.066-04:00", "avatar": "https://avatars.slack-edge.com/2024-11-14/8032421443219_fdb86ac99258d6811505_original.jpg", "custom_css": null}, {"id": 1565, "slack_id": "U07DUKEMKPH", "display_name": "spageektti", "bio": null, "projects_count": 0, "devlogs_count": 0, "votes_count": 0, "ships_count": 0, "projects": [], "coding_time_seconds": 39989, "coding_time_seconds_today": 0, "balance": "You need to have a pocket watcher badge to view this.", "badges": [], "created_at": "2025-06-16T13:31:32.481-04:00", "updated_at": "2025-07-03T19:18:13.328-04:00", "avatar": "https://secure.gravatar.com/avatar/961a56acfdf23afdd901d97818b9f5cd.jpg?s=512&d=https%3A%2F%2Fa.slack-edge.com%2Fdf10d%2Fimg%2Favatars%2Fava_0020-512.png", "custom_css": null}, {"id": 1566, "slack_id": "U091MSEMYTF", "display_name": "axis99", "bio": null, "projects_count": 0, "devlogs_count": 0, "votes_count": 0, "ships_count": 0, "projects": [], "coding_time_seconds": 56568, "coding_time_seconds_today": 0, "balance": "You need to have a pocket watcher badge to view this.", "badges": [], "created_at": "2025-06-16T13:32:05.284-04:00", "updated_at": "2025-07-03T19:18:13.604-04:00", "avatar": "https://secure.gravatar.com/avatar/50d4e18935bfe452f573a030c7221787.jpg?s=512&d=https%3A%2F%2Fa.slack-edge.com%2Fdf10d%2Fimg%2Favatars%2Fava_0005-512.png", "custom_css": null}, {"id": 1567, "slack_id": "U09220984E5", "display_name": "Sora", "bio": null, "projects_count": 0, "devlogs_count": 0, "votes_count": 0, "ships_count": 0, "projects": [], "coding_time_seconds": 0, "coding_time_seconds_today": 0, "balance": "You need to have a pocket watcher badge to view this.", "badges": [], "created_at": "2025-06-16T13:32:16.488-04:00", "updated_at": "2025-07-03T19:18:13.887-04:00", "avatar": "https://secure.gravatar.com/avatar/e3fc3f40c1690f9b8d21b600311dca00.jpg?s=512&d=https%3A%2F%2Fa.slack-edge.com%2Fdf10d%2Fimg%2Favatars%2Fava_0001-512.png", "custom_css": null}, {"id": 1568, "slack_id": "U092C49U7K2", "display_name": "Andrew", "bio": null, "projects_count": 3, "devlogs_count": 6, "votes_count": 39, "ships_count": 2, "projects": [{"id": 4448, "title": "VoiceKey", "devlogs_count": 1, "created_at": "2025-06-29T23:59:16.226-04:00"}, {"id": 6870, "title": "Voice Glider", "devlogs_count": 4, "created_at": "2025-07-17T01:30:30.400-04:00"}, {"id": 480, "title": "Unnecessary Encryptor", "devlogs_count": 1, "created_at": "2025-06-16T23:12:19.120-04:00"}], "coding_time_seconds": 65478, "coding_time_seconds_today": 0, "balance": "You need to have a pocket watcher badge to view this.", "badges": [{"name": "Maiden Voyage", "text": "you shipped your first project! the journey begins...", "icon": "\ud83d\udea2"}], "created_at": "2025-06-16T13:32:27.677-04:00", "updated_at": "2025-09-10T22:51:55.859-04:00", "avatar": "https://avatars.slack-edge.com/2025-07-01/9126890810518_f7c074cdaa831c0ee3f9_original.jpg", "custom_css": null}, {"id": 1569, "slack_id": "U091PL3MUH0", "display_name": "dipner", "bio": null, "projects_count": 0, "devlogs_count": 0, "votes_count": 0, "ships_count": 0, "projects": [], "coding_time_seconds": 0, "coding_time_seconds_today": 0, "balance": "You need to have a pocket watcher badge to view this.", "badges": [], "created_at": "2025-06-16T13:32:45.952-04:00", "updated_at": "2025-07-03T19:18:14.442-04:00", "avatar": "https://secure.gravatar.com/avatar/925893bd5796df8c9f92ab5f43968152.jpg?s=512&d=https%3A%2F%2Fa.slack-edge.com%2Fdf10d%2Fimg%2Favatars%2Fava_0024-512.png", "custom_css": null}, {"id": 1570, "slack_id": "U0917J69XLP", "display_name": "Mohtashim Ali", "bio": null, "projects_count": 0, "devlogs_count": 0, "votes_count": 0, "ships_count": 0, "projects": [], "coding_time_seconds": 0, "coding_time_seconds_today": 0, "balance": "You need to have a pocket watcher badge to view this.", "badges": [], "created_at": "2025-06-16T13:32:48.865-04:00", "updated_at": "2025-07-03T19:18:14.705-04:00", "avatar": "https://avatars.slack-edge.com/2025-06-16/9050843649942_1f5f0180a648937da62b_original.png", "custom_css": null}, {"id": 1571, "slack_id": "U07D01SEFFV", "display_name": "Mustafa Ali", "bio": "", "projects_count": 9, "devlogs_count": 49, "votes_count": 64, "ships_count": 4, "projects": [{"id": 1050, "title": "Fast tracking app", "devlogs_count": 0, "created_at": "2025-06-17T14:28:41.623-04:00"}, {"id": 3268, "title": "Portfolio", "devlogs_count": 11, "created_at": "2025-06-23T16:08:33.150-04:00"}, {"id": 6704, "title": "Beyblade", "devlogs_count": 0, "created_at": "2025-07-15T09:29:12.427-04:00"}, {"id": 7134, "title": "Book Corp", "devlogs_count": 0, "created_at": "2025-07-19T10:51:06.304-04:00"}, {"id": 1078, "title": "Platform Panic", "devlogs_count": 24, "created_at": "2025-06-17T15:33:05.787-04:00"}, {"id": 13393, "title": "Sandtopia", "devlogs_count": 1, "created_at": "2025-09-15T07:38:43.517-04:00"}, {"id": 13298, "title": "Rooster Run", "devlogs_count": 2, "created_at": "2025-09-13T16:21:53.193-04:00"}, {"id": 4280, "title": "Wave Rider", "devlogs_count": 10, "created_at": "2025-06-28T16:27:04.972-04:00"}, {"id": 7733, "title": "Scoopy", "devlogs_count": 3, "created_at": "2025-07-22T18:23:01.353-04:00"}], "coding_time_seconds": 159821, "coding_time_seconds_today": 0, "balance": "You need to have a pocket watcher badge to view this.", "badges": [{"name": "Maiden Voyage", "text": "you shipped your first project! the journey begins...", "icon": "\ud83d\udea2"}], "created_at": "2025-06-16T13:32:51.174-04:00", "updated_at": "2025-09-13T01:12:53.048-04:00", "avatar": "https://avatars.slack-edge.com/2025-08-06/9311394112725_8828bf29de95af0b3b39_original.png", "custom_css": null}, {"id": 1572, "slack_id": "U091MSJ6VRB", "display_name": "JK", "bio": null, "projects_count": 0, "devlogs_count": 0, "votes_count": 0, "ships_count": 0, "projects": [], "coding_time_seconds": 0, "coding_time_seconds_today": 0, "balance": "You need to have a pocket watcher badge to view this.", "badges": [], "created_at": "2025-06-16T13:32:51.377-04:00", "updated_at": "2025-07-03T19:18:15.131-04:00", "avatar": "https://secure.gravatar.com/avatar/bfbcfa60536c7acf24c647950a42c6bb.jpg?s=512&d=https%3A%2F%2Fa.slack-edge.com%2Fdf10d%2Fimg%2Favatars%2Fava_0014-512.png", "custom_css": null}, {"id": 1573, "slack_id": "U091PL158TC", "display_name": "Atul Kumar Singh", "bio": null, "projects_count": 1, "devlogs_count": 0, "votes_count": 0, "ships_count": 0, "projects": [{"id": 150, "title": "Health-Assistant", "devlogs_count": 0, "created_at": "2025-06-16T14:32:48.058-04:00"}], "coding_time_seconds": 1, "coding_time_seconds_today": 0, "balance": "You need to have a pocket watcher badge to view this.", "badges": [], "created_at": "2025-06-16T13:32:51.949-04:00", "updated_at": "2025-07-03T19:18:15.404-04:00", "avatar": "https://secure.gravatar.com/avatar/4134b70663e64bb574728a5ff77af007.jpg?s=512&d=https%3A%2F%2Fa.slack-edge.com%2Fdf10d%2Fimg%2Favatars%2Fava_0001-512.png", "custom_css": null}, {"id": 1574, "slack_id": "U091MM6RUMT", "display_name": "Abhishek Sangule", "bio": null, "projects_count": 0, "devlogs_count": 0, "votes_count": 0, "ships_count": 0, "projects": [], "coding_time_seconds": 477862, "coding_time_seconds_today": 0, "balance": "You need to have a pocket watcher badge to view this.", "badges": [], "created_at": "2025-06-16T13:32:52.550-04:00", "updated_at": "2025-07-07T05:41:11.281-04:00", "avatar": "https://secure.gravatar.com/avatar/de22e30aa72973f9a7169835b45c49d7.jpg?s=512&d=https%3A%2F%2Fa.slack-edge.com%2Fdf10d%2Fimg%2Favatars%2Fava_0026-512.png", "custom_css": null}, {"id": 1575, "slack_id": "U092C4GM0AC", "display_name": "Allain", "bio": null, "projects_count": 0, "devlogs_count": 0, "votes_count": 0, "ships_count": 0, "projects": [], "coding_time_seconds": 26436, "coding_time_seconds_today": 0, "balance": "You need to have a pocket watcher badge to view this.", "badges": [], "created_at": "2025-06-16T13:32:53.884-04:00", "updated_at": "2025-07-03T19:18:15.952-04:00", "avatar": "https://secure.gravatar.com/avatar/a6f1fc8776966fbd34c10175c1822bb4.jpg?s=512&d=https%3A%2F%2Fa.slack-edge.com%2Fdf10d%2Fimg%2Favatars%2Fava_0013-512.png", "custom_css": null}, {"id": 1576, "slack_id": "U091Q2SGKLL", "display_name": "Anisha Madivala", "bio": null, "projects_count": 0, "devlogs_count": 0, "votes_count": 0, "ships_count": 0, "projects": [], "coding_time_seconds": 0, "coding_time_seconds_today": 0, "balance": "You need to have a pocket watcher badge to view this.", "badges": [], "created_at": "2025-06-16T13:32:58.595-04:00", "updated_at": "2025-07-03T19:18:16.234-04:00", "avatar": "https://avatars.slack-edge.com/2025-06-16/9057700268530_3bf15da331994987c3d9_original.png", "custom_css": null}, {"id": 1577, "slack_id": "U04FATFRE6T", "display_name": "Sean", "bio": null, "projects_count": 2, "devlogs_count": 4, "votes_count": 0, "ships_count": 0, "projects": [{"id": 1882, "title": "Photo Uploader", "devlogs_count": 4, "created_at": "2025-06-19T14:14:13.314-04:00"}, {"id": 13586, "title": "Candid2", "devlogs_count": 0, "created_at": "2025-09-20T06:16:10.584-04:00"}], "coding_time_seconds": 307564, "coding_time_seconds_today": 0, "balance": "You need to have a pocket watcher badge to view this.", "badges": [], "created_at": "2025-06-16T13:32:59.663-04:00", "updated_at": "2025-08-01T07:08:02.144-04:00", "avatar": "https://avatars.slack-edge.com/2024-10-07/7861100845120_79e5927a192d6a914add_original.jpg", "custom_css": null}, {"id": 1578, "slack_id": "U091GM5JL6P", "display_name": "Charith", "bio": null, "projects_count": 0, "devlogs_count": 0, "votes_count": 0, "ships_count": 0, "projects": [], "coding_time_seconds": 0, "coding_time_seconds_today": 0, "balance": "You need to have a pocket watcher badge to view this.", "badges": [], "created_at": "2025-06-16T13:33:06.267-04:00", "updated_at": "2025-07-03T19:18:16.766-04:00", "avatar": "https://secure.gravatar.com/avatar/199c4160cb63e0b2c1639f04f1fc42c5.jpg?s=512&d=https%3A%2F%2Fa.slack-edge.com%2Fdf10d%2Fimg%2Favatars%2Fava_0022-512.png", "custom_css": null}, {"id": 1579, "slack_id": "U09226U9WM7", "display_name": "Rebika Parajuli", "bio": null, "projects_count": 1, "devlogs_count": 1, "votes_count": 0, "ships_count": 1, "projects": [{"id": 518, "title": "Minesweeper", "devlogs_count": 1, "created_at": "2025-06-17T00:10:51.724-04:00"}], "coding_time_seconds": 2175, "coding_time_seconds_today": 0, "balance": "You need to have a pocket watcher badge to view this.", "badges": [{"name": "Maiden Voyage", "text": "you shipped your first project! the journey begins...", "icon": "\ud83d\udea2"}], "created_at": "2025-06-16T13:33:10.111-04:00", "updated_at": "2025-09-10T22:51:56.129-04:00", "avatar": "https://secure.gravatar.com/avatar/6d21195c25c1e65f4931a6c0b0ddd935.jpg?s=512&d=https%3A%2F%2Fa.slack-edge.com%2Fdf10d%2Fimg%2Favatars%2Fava_0004-512.png", "custom_css": null}, {"id": 1580, "slack_id": "U091P1QKN4A", "display_name": "Rishi Sadu", "bio": "", "projects_count": 3, "devlogs_count": 10, "votes_count": 2, "ships_count": 0, "projects": [{"id": 1185, "title": "NCLcracker", "devlogs_count": 1, "created_at": "2025-06-17T21:00:19.703-04:00"}, {"id": 1228, "title": "BhavinUnderTheDesk", "devlogs_count": 9, "created_at": "2025-06-18T00:22:06.050-04:00"}, {"id": 411, "title": "Some fun rust tests", "devlogs_count": 0, "created_at": "2025-06-16T20:32:26.836-04:00"}], "coding_time_seconds": 95829, "coding_time_seconds_today": 0, "balance": "You need to have a pocket watcher badge to view this.", "badges": [{"name": "Yapper I", "text": "Posted 10 comments on devlogs.", "icon": "\ud83d\udcac"}], "created_at": "2025-06-16T13:33:13.361-04:00", "updated_at": "2025-09-10T22:51:56.159-04:00", "avatar": "https://secure.gravatar.com/avatar/d58a82fc9ce9ada76dcc8dbe0424e9d4.jpg?s=512&d=https%3A%2F%2Fa.slack-edge.com%2Fdf10d%2Fimg%2Favatars%2Fava_0004-512.png", "custom_css": null}], "pagination": {"page": 79, "pages": 1192, "count": 23827, "items": 20}}