{"users": [{"id": 15866, "slack_id": "U08EYPB2W3F", "display_name": "Matei sHomePage (No.1 Snail Lover)", "bio": null, "projects_count": 0, "devlogs_count": 0, "votes_count": 0, "ships_count": 0, "projects": [], "coding_time_seconds": 95892, "coding_time_seconds_today": 0, "balance": "You need to have a pocket watcher badge to view this.", "badges": [], "created_at": "2025-07-17T08:35:23.272-04:00", "updated_at": "2025-08-13T15:24:08.970-04:00", "avatar": "https://avatars.slack-edge.com/2025-08-13/9375602323776_6917d88d84e1de07ef93_original.png", "custom_css": null}, {"id": 15867, "slack_id": "U07G8B0EUHM", "display_name": "M\u00e5lingen", "bio": null, "projects_count": 1, "devlogs_count": 1, "votes_count": 2, "ships_count": 0, "projects": [{"id": 8607, "title": "Blog for Germany", "devlogs_count": 1, "created_at": "2025-07-28T15:02:35.900-04:00"}], "coding_time_seconds": 4699, "coding_time_seconds_today": 0, "balance": "You need to have a pocket watcher badge to view this.", "badges": [], "created_at": "2025-07-17T08:44:37.900-04:00", "updated_at": "2025-08-11T13:19:58.378-04:00", "avatar": "https://avatars.slack-edge.com/2024-08-13/7555226503783_7c1133e4079af2ba69e5_original.png", "custom_css": null}, {"id": 15868, "slack_id": "U0965TWRQPQ", "display_name": "Chetan Chauhan", "bio": null, "projects_count": 0, "devlogs_count": 0, "votes_count": 0, "ships_count": 0, "projects": [], "coding_time_seconds": 0, "coding_time_seconds_today": 0, "balance": "You need to have a pocket watcher badge to view this.", "badges": [], "created_at": "2025-07-17T09:08:08.708-04:00", "updated_at": "2025-07-18T09:23:57.363-04:00", "avatar": "https://avatars.slack-edge.com/2025-07-18/9241862850400_5bae81a50bd13c6e5068_original.jpg", "custom_css": null}, {"id": 15869, "slack_id": "U094FCWTXKR", "display_name": "kaushik N", "bio": null, "projects_count": 0, "devlogs_count": 0, "votes_count": 0, "ships_count": 0, "projects": [], "coding_time_seconds": 0, "coding_time_seconds_today": 0, "balance": "You need to have a pocket watcher badge to view this.", "badges": [], "created_at": "2025-07-17T09:17:17.569-04:00", "updated_at": "2025-07-17T15:24:01.682-04:00", "avatar": "https://secure.gravatar.com/avatar/2e23b0dd53e02c45819a5ade3fb8075b.jpg?s=512&d=https%3A%2F%2Fa.slack-edge.com%2Fdf10d%2Fimg%2Favatars%2Fava_0000-512.png", "custom_css": null}, {"id": 15870, "slack_id": "U078KN78YHJ", "display_name": "luxkatana", "bio": null, "projects_count": 1, "devlogs_count": 0, "votes_count": 2, "ships_count": 0, "projects": [{"id": 8323, "title": "Is it christmas?", "devlogs_count": 0, "created_at": "2025-07-26T07:34:50.850-04:00"}], "coding_time_seconds": 51621, "coding_time_seconds_today": 0, "balance": "You need to have a pocket watcher badge to view this.", "badges": [], "created_at": "2025-07-17T09:18:56.558-04:00", "updated_at": "2025-07-17T12:47:53.839-04:00", "avatar": "https://avatars.slack-edge.com/2024-11-19/8053698657284_658f557d5f39f0e320f5_original.png", "custom_css": null}, {"id": 15871, "slack_id": "U091S2JEMSQ", "display_name": "Nhut Tran", "bio": null, "projects_count": 0, "devlogs_count": 0, "votes_count": 0, "ships_count": 0, "projects": [], "coding_time_seconds": 0, "coding_time_seconds_today": 0, "balance": "You need to have a pocket watcher badge to view this.", "badges": [], "created_at": "2025-07-17T09:23:04.194-04:00", "updated_at": "2025-07-17T15:24:05.904-04:00", "avatar": "https://secure.gravatar.com/avatar/57554b191c49866d2a9083d5ffa011bd.jpg?s=512&d=https%3A%2F%2Fa.slack-edge.com%2Fdf10d%2Fimg%2Favatars%2Fava_0001-512.png", "custom_css": null}, {"id": 15872, "slack_id": "U0969DZ9D42", "display_name": "Yash", "bio": null, "projects_count": 0, "devlogs_count": 0, "votes_count": 0, "ships_count": 0, "projects": [], "coding_time_seconds": 0, "coding_time_seconds_today": 0, "balance": "You need to have a pocket watcher badge to view this.", "badges": [], "created_at": "2025-07-17T09:35:20.124-04:00", "updated_at": "2025-09-04T03:10:11.163-04:00", "avatar": "https://secure.gravatar.com/avatar/d38aaddd61627f5ccccfab11c9b40694.jpg?s=512&d=https%3A%2F%2Fa.slack-edge.com%2Fdf10d%2Fimg%2Favatars%2Fava_0025-512.png", "custom_css": null}, {"id": 15873, "slack_id": "U09663UQCH4", "display_name": "TotallyMaverick", "bio": null, "projects_count": 1, "devlogs_count": 5, "votes_count": 1, "ships_count": 0, "projects": [{"id": 7240, "title": "Pokev1", "devlogs_count": 5, "created_at": "2025-07-20T08:10:41.354-04:00"}], "coding_time_seconds": 181643, "coding_time_seconds_today": 0, "balance": "You need to have a pocket watcher badge to view this.", "badges": [], "created_at": "2025-07-17T09:38:22.008-04:00", "updated_at": "2025-07-21T09:58:41.383-04:00", "avatar": "https://avatars.slack-edge.com/2025-07-17/9236197981712_66a7d289a21775efcbd7_original.jpg", "custom_css": null}, {"id": 15874, "slack_id": "U096AQULNSY", "display_name": "keval pattani", "bio": null, "projects_count": 0, "devlogs_count": 0, "votes_count": 0, "ships_count": 0, "projects": [], "coding_time_seconds": 0, "coding_time_seconds_today": 0, "balance": "You need to have a pocket watcher badge to view this.", "badges": [], "created_at": "2025-07-17T09:39:51.790-04:00", "updated_at": "2025-07-17T15:24:06.155-04:00", "avatar": "https://avatars.slack-edge.com/2025-07-17/9198995063447_45bfa8e2f5c682079598_original.png", "custom_css": null}, {"id": 15875, "slack_id": "U0967GXGN85", "display_name": "Amit Askof", "bio": null, "projects_count": 0, "devlogs_count": 0, "votes_count": 0, "ships_count": 0, "projects": [], "coding_time_seconds": 90338, "coding_time_seconds_today": 0, "balance": "You need to have a pocket watcher badge to view this.", "badges": [], "created_at": "2025-07-17T09:45:21.353-04:00", "updated_at": "2025-07-17T15:24:06.255-04:00", "avatar": "https://avatars.slack-edge.com/2025-07-17/9236211635072_f6c04efbe3b553838338_original.jpg", "custom_css": null}, {"id": 15876, "slack_id": "U091KAY8JNA", "display_name": "Raja", "bio": null, "projects_count": 0, "devlogs_count": 0, "votes_count": 0, "ships_count": 0, "projects": [], "coding_time_seconds": 0, "coding_time_seconds_today": 0, "balance": "You need to have a pocket watcher badge to view this.", "badges": [], "created_at": "2025-07-17T10:11:01.185-04:00", "updated_at": "2025-07-17T15:24:06.334-04:00", "avatar": "https://secure.gravatar.com/avatar/2e51514ba15a0e1bbdfb92c69737b5cf.jpg?s=512&d=https%3A%2F%2Fa.slack-edge.com%2Fdf10d%2Fimg%2Favatars%2Fava_0022-512.png", "custom_css": null}, {"id": 15877, "slack_id": "U0966CLHWAJ", "display_name": "S Jayanth Kumar Reddy", "bio": null, "projects_count": 0, "devlogs_count": 0, "votes_count": 0, "ships_count": 0, "projects": [], "coding_time_seconds": 0, "coding_time_seconds_today": 0, "balance": "You need to have a pocket watcher badge to view this.", "badges": [], "created_at": "2025-07-17T10:24:52.167-04:00", "updated_at": "2025-07-17T15:24:06.413-04:00", "avatar": "https://secure.gravatar.com/avatar/1a6de5c79146d458858ba8dfc8c89746.jpg?s=512&d=https%3A%2F%2Fa.slack-edge.com%2Fdf10d%2Fimg%2Favatars%2Fava_0021-512.png", "custom_css": null}, {"id": 15878, "slack_id": "U0966FSCWRL", "display_name": "Sathvik Tumpudi", "bio": null, "projects_count": 0, "devlogs_count": 0, "votes_count": 0, "ships_count": 0, "projects": [], "coding_time_seconds": 6132, "coding_time_seconds_today": 0, "balance": "You need to have a pocket watcher badge to view this.", "badges": [], "created_at": "2025-07-17T10:40:00.685-04:00", "updated_at": "2025-07-19T15:53:01.578-04:00", "avatar": "https://secure.gravatar.com/avatar/8eae14f9eadfab89a25133c1b0d54c1f.jpg?s=512&d=https%3A%2F%2Fa.slack-edge.com%2Fdf10d%2Fimg%2Favatars%2Fava_0012-512.png", "custom_css": null}, {"id": 15879, "slack_id": "U09681SVATF", "display_name": "Aarush Srivastava", "bio": null, "projects_count": 0, "devlogs_count": 0, "votes_count": 0, "ships_count": 0, "projects": [], "coding_time_seconds": 0, "coding_time_seconds_today": 0, "balance": "You need to have a pocket watcher badge to view this.", "badges": [], "created_at": "2025-07-17T11:02:32.025-04:00", "updated_at": "2025-07-17T15:24:06.595-04:00", "avatar": "https://avatars.slack-edge.com/2025-07-17/9214083571378_b9c2c74c6fbbb61c2df1_original.png", "custom_css": null}, {"id": 15880, "slack_id": "U078L22LHB6", "display_name": "jesse.", "bio": null, "projects_count": 0, "devlogs_count": 0, "votes_count": 0, "ships_count": 0, "projects": [], "coding_time_seconds": 0, "coding_time_seconds_today": 0, "balance": "You need to have a pocket watcher badge to view this.", "badges": [], "created_at": "2025-07-17T11:23:15.278-04:00", "updated_at": "2025-08-31T03:22:42.813-04:00", "avatar": "https://avatars.slack-edge.com/2025-08-30/9435630100658_e8bc8e7f87da1c0a76dd_original.png", "custom_css": null}, {"id": 15881, "slack_id": "U0828FY3C4U", "display_name": "Ritesh Bonthalakoti", "bio": null, "projects_count": 1, "devlogs_count": 1, "votes_count": 0, "ships_count": 1, "projects": [{"id": 7139, "title": "Student Portfolio", "devlogs_count": 1, "created_at": "2025-07-19T12:07:52.862-04:00"}], "coding_time_seconds": 16031, "coding_time_seconds_today": 0, "balance": "You need to have a pocket watcher badge to view this.", "badges": [{"name": "Maiden Voyage", "text": "you shipped your first project! the journey begins...", "icon": "\ud83d\udea2"}], "created_at": "2025-07-17T11:28:03.234-04:00", "updated_at": "2025-09-10T22:58:59.517-04:00", "avatar": "https://avatars.slack-edge.com/2024-11-23/8072179553445_091d16afcb982d22ac02_original.jpg", "custom_css": null}, {"id": 15882, "slack_id": "U095VQ4GEDD", "display_name": "netanel", "bio": "", "projects_count": 1, "devlogs_count": 0, "votes_count": 0, "ships_count": 0, "projects": [{"id": 7019, "title": "Smart File Organizer", "devlogs_count": 0, "created_at": "2025-07-18T09:44:36.062-04:00"}], "coding_time_seconds": 44172, "coding_time_seconds_today": 0, "balance": "You need to have a pocket watcher badge to view this.", "badges": [], "created_at": "2025-07-17T11:45:39.043-04:00", "updated_at": "2025-07-18T07:39:12.710-04:00", "avatar": "https://secure.gravatar.com/avatar/593b41d1fcca95c8105079b7909c50c6.jpg?s=512&d=https%3A%2F%2Fa.slack-edge.com%2Fdf10d%2Fimg%2Favatars%2Fava_0014-512.png", "custom_css": null}, {"id": 15883, "slack_id": "U095VGEAEG7", "display_name": "Timothy Chang", "bio": null, "projects_count": 1, "devlogs_count": 0, "votes_count": 2, "ships_count": 0, "projects": [{"id": 7347, "title": "Terminal Tycoon", "devlogs_count": 0, "created_at": "2025-07-21T06:31:53.042-04:00"}], "coding_time_seconds": 11583, "coding_time_seconds_today": 0, "balance": "You need to have a pocket watcher badge to view this.", "badges": [], "created_at": "2025-07-17T11:47:35.260-04:00", "updated_at": "2025-07-21T06:28:06.454-04:00", "avatar": "https://secure.gravatar.com/avatar/0e35f1b5bd8f6249e404e74ede9d8d26.jpg?s=512&d=https%3A%2F%2Fa.slack-edge.com%2Fdf10d%2Fimg%2Favatars%2Fava_0014-512.png", "custom_css": null}, {"id": 15884, "slack_id": "U096Z05QRJ4", "display_name": "Aarif", "bio": null, "projects_count": 0, "devlogs_count": 0, "votes_count": 0, "ships_count": 0, "projects": [], "coding_time_seconds": 0, "coding_time_seconds_today": 0, "balance": "You need to have a pocket watcher badge to view this.", "badges": [], "created_at": "2025-07-17T11:52:11.582-04:00", "updated_at": "2025-07-17T15:24:11.032-04:00", "avatar": "https://avatars.slack-edge.com/2025-07-17/9211037436166_c790e54a7e67d94d23c0_original.png", "custom_css": null}, {"id": 15885, "slack_id": "U0964PNB2UB", "display_name": "Zach", "bio": null, "projects_count": 0, "devlogs_count": 0, "votes_count": 0, "ships_count": 0, "projects": [], "coding_time_seconds": 0, "coding_time_seconds_today": 0, "balance": "You need to have a pocket watcher badge to view this.", "badges": [], "created_at": "2025-07-17T11:57:35.997-04:00", "updated_at": "2025-07-17T15:24:11.115-04:00", "avatar": "https://avatars.slack-edge.com/2025-07-17/9208831186547_94c817acbfbfce52fd5e_original.gif", "custom_css": null}], "pagination": {"page": 790, "pages": 1192, "count": 23828, "items": 20}}