{"users": [{"id": 15906, "slack_id": "U08QNLME3TL", "display_name": "David", "bio": null, "projects_count": 0, "devlogs_count": 0, "votes_count": 0, "ships_count": 0, "projects": [], "coding_time_seconds": 218960, "coding_time_seconds_today": 0, "balance": "You need to have a pocket watcher badge to view this.", "badges": [], "created_at": "2025-07-17T15:18:40.804-04:00", "updated_at": "2025-07-23T03:24:14.171-04:00", "avatar": "https://avatars.slack-edge.com/2025-07-22/9237884740117_26876e67ae4871ff301b_original.png", "custom_css": null}, {"id": 15907, "slack_id": "U0968CJABFG", "display_name": "Ameera", "bio": "i make things", "projects_count": 0, "devlogs_count": 2, "votes_count": 0, "ships_count": 0, "projects": [], "coding_time_seconds": 244637, "coding_time_seconds_today": 0, "balance": "You need to have a pocket watcher badge to view this.", "badges": [], "created_at": "2025-07-17T16:05:53.355-04:00", "updated_at": "2025-09-07T21:23:05.574-04:00", "avatar": "https://avatars.slack-edge.com/2025-09-07/9471624671299_dcbb388c3679082fedeb_original.png", "custom_css": null}, {"id": 15908, "slack_id": "U096A33KX7F", "display_name": "Vera Qian", "bio": null, "projects_count": 0, "devlogs_count": 0, "votes_count": 0, "ships_count": 0, "projects": [], "coding_time_seconds": 74068, "coding_time_seconds_today": 0, "balance": "You need to have a pocket watcher badge to view this.", "badges": [], "created_at": "2025-07-17T17:06:47.608-04:00", "updated_at": "2025-07-20T21:24:36.301-04:00", "avatar": "https://avatars.slack-edge.com/2025-07-20/9221608021459_b38ab07eba6c5af1b4ce_original.jpg", "custom_css": null}, {"id": 15909, "slack_id": "U08QF0E8N2K", "display_name": "Vladislav", "bio": null, "projects_count": 1, "devlogs_count": 13, "votes_count": 20, "ships_count": 1, "projects": [{"id": 8390, "title": "TripWeaver", "devlogs_count": 13, "created_at": "2025-07-26T19:08:18.537-04:00"}], "coding_time_seconds": 263141, "coding_time_seconds_today": 0, "balance": "You need to have a pocket watcher badge to view this.", "badges": [{"name": "Maiden Voyage", "text": "you shipped your first project! the journey begins...", "icon": "\ud83d\udea2"}], "created_at": "2025-07-17T17:26:26.351-04:00", "updated_at": "2025-09-10T22:59:00.493-04:00", "avatar": "https://secure.gravatar.com/avatar/5b3eadb82c4d2f75e881d216c8a3fa3c.jpg?s=512&d=https%3A%2F%2Fa.slack-edge.com%2Fdf10d%2Fimg%2Favatars%2Fava_0003-512.png", "custom_css": null}, {"id": 15910, "slack_id": "U0966VDTZAP", "display_name": "Timmy Chang", "bio": null, "projects_count": 0, "devlogs_count": 0, "votes_count": 0, "ships_count": 0, "projects": [], "coding_time_seconds": 0, "coding_time_seconds_today": 0, "balance": "You need to have a pocket watcher badge to view this.", "badges": [], "created_at": "2025-07-17T19:05:04.619-04:00", "updated_at": "2025-07-18T03:24:23.450-04:00", "avatar": "https://secure.gravatar.com/avatar/d371fd624539709b62493598d3eea100.jpg?s=512&d=https%3A%2F%2Fa.slack-edge.com%2Fdf10d%2Fimg%2Favatars%2Fava_0018-512.png", "custom_css": null}, {"id": 15911, "slack_id": "U0929JP0RA5", "display_name": "Karson", "bio": null, "projects_count": 0, "devlogs_count": 0, "votes_count": 0, "ships_count": 0, "projects": [], "coding_time_seconds": 0, "coding_time_seconds_today": 0, "balance": "You need to have a pocket watcher badge to view this.", "badges": [], "created_at": "2025-07-17T19:29:33.690-04:00", "updated_at": "2025-07-18T03:24:23.532-04:00", "avatar": "https://secure.gravatar.com/avatar/1dd8f0bd549b048ef388f834d678667e.jpg?s=512&d=https%3A%2F%2Fa.slack-edge.com%2Fdf10d%2Fimg%2Favatars%2Fava_0019-512.png", "custom_css": null}, {"id": 15912, "slack_id": "U096CJZMWTC", "display_name": "Otabek", "bio": null, "projects_count": 0, "devlogs_count": 0, "votes_count": 0, "ships_count": 0, "projects": [], "coding_time_seconds": 0, "coding_time_seconds_today": 0, "balance": "You need to have a pocket watcher badge to view this.", "badges": [], "created_at": "2025-07-17T19:59:02.697-04:00", "updated_at": "2025-07-18T03:24:23.644-04:00", "avatar": "https://secure.gravatar.com/avatar/905386b8acd4051c82330144109cdfb7.jpg?s=512&d=https%3A%2F%2Fa.slack-edge.com%2Fdf10d%2Fimg%2Favatars%2Fava_0000-512.png", "custom_css": null}, {"id": 15913, "slack_id": "U095Y8H24ET", "display_name": "Logan Donner", "bio": null, "projects_count": 1, "devlogs_count": 0, "votes_count": 0, "ships_count": 0, "projects": [{"id": 7072, "title": "Dashing Game", "devlogs_count": 0, "created_at": "2025-07-18T18:00:45.205-04:00"}], "coding_time_seconds": 2499, "coding_time_seconds_today": 0, "balance": "You need to have a pocket watcher badge to view this.", "badges": [], "created_at": "2025-07-17T20:05:50.377-04:00", "updated_at": "2025-07-19T17:32:52.298-04:00", "avatar": "https://secure.gravatar.com/avatar/d8dc3172f2e725af594e8de365be127c.jpg?s=512&d=https%3A%2F%2Fa.slack-edge.com%2Fdf10d%2Fimg%2Favatars%2Fava_0008-512.png", "custom_css": null}, {"id": 15914, "slack_id": "U096SANQUBT", "display_name": "Marcos Felipe dos Santos", "bio": null, "projects_count": 0, "devlogs_count": 0, "votes_count": 0, "ships_count": 0, "projects": [], "coding_time_seconds": 0, "coding_time_seconds_today": 0, "balance": "You need to have a pocket watcher badge to view this.", "badges": [], "created_at": "2025-07-17T20:20:38.949-04:00", "updated_at": "2025-07-18T03:24:27.951-04:00", "avatar": "https://secure.gravatar.com/avatar/c5b0aa0907dff706035c7f74a181c7ab.jpg?s=512&d=https%3A%2F%2Fa.slack-edge.com%2Fdf10d%2Fimg%2Favatars%2Fava_0003-512.png", "custom_css": null}, {"id": 15915, "slack_id": "U096CMLFTQA", "display_name": "Sophia Lin", "bio": null, "projects_count": 0, "devlogs_count": 0, "votes_count": 0, "ships_count": 0, "projects": [], "coding_time_seconds": 0, "coding_time_seconds_today": 0, "balance": "You need to have a pocket watcher badge to view this.", "badges": [], "created_at": "2025-07-17T20:33:01.403-04:00", "updated_at": "2025-07-18T03:24:28.037-04:00", "avatar": "https://avatars.slack-edge.com/2025-07-17/9218042216644_7733bec104a2e753975b_original.jpg", "custom_css": null}, {"id": 15916, "slack_id": "U09678WLD7D", "display_name": "Sadhana", "bio": null, "projects_count": 0, "devlogs_count": 0, "votes_count": 0, "ships_count": 0, "projects": [], "coding_time_seconds": 0, "coding_time_seconds_today": 0, "balance": "You need to have a pocket watcher badge to view this.", "badges": [], "created_at": "2025-07-17T20:40:42.425-04:00", "updated_at": "2025-07-18T03:24:28.132-04:00", "avatar": "https://secure.gravatar.com/avatar/6a2177eeed20d69905ba6725e911793c.jpg?s=512&d=https%3A%2F%2Fa.slack-edge.com%2Fdf10d%2Fimg%2Favatars%2Fava_0026-512.png", "custom_css": null}, {"id": 15917, "slack_id": "U09679CN9M1", "display_name": "Lucy Zhao", "bio": null, "projects_count": 0, "devlogs_count": 0, "votes_count": 1, "ships_count": 0, "projects": [], "coding_time_seconds": 0, "coding_time_seconds_today": 0, "balance": "You need to have a pocket watcher badge to view this.", "badges": [], "created_at": "2025-07-17T20:46:29.077-04:00", "updated_at": "2025-07-25T05:30:48.186-04:00", "avatar": "https://secure.gravatar.com/avatar/916599b8ce0d0f877a551d79ca400a65.jpg?s=512&d=https%3A%2F%2Fa.slack-edge.com%2Fdf10d%2Fimg%2Favatars%2Fava_0014-512.png", "custom_css": null}, {"id": 15918, "slack_id": "U096E42PM5J", "display_name": "Timothy Stepanus", "bio": null, "projects_count": 0, "devlogs_count": 0, "votes_count": 0, "ships_count": 0, "projects": [], "coding_time_seconds": 0, "coding_time_seconds_today": 0, "balance": "You need to have a pocket watcher badge to view this.", "badges": [], "created_at": "2025-07-17T21:06:56.543-04:00", "updated_at": "2025-07-18T23:41:01.688-04:00", "avatar": "https://secure.gravatar.com/avatar/83e591b7936466db11bac10ab7a265c8.jpg?s=512&d=https%3A%2F%2Fa.slack-edge.com%2Fdf10d%2Fimg%2Favatars%2Fava_0019-512.png", "custom_css": null}, {"id": 15919, "slack_id": "U096CP13BEW", "display_name": "Markan Ayele", "bio": "strange critter...", "projects_count": 0, "devlogs_count": 0, "votes_count": 0, "ships_count": 0, "projects": [], "coding_time_seconds": 5886, "coding_time_seconds_today": 0, "balance": "You need to have a pocket watcher badge to view this.", "badges": [], "created_at": "2025-07-17T21:22:06.681-04:00", "updated_at": "2025-07-18T03:24:28.419-04:00", "avatar": "https://avatars.slack-edge.com/2025-07-17/9240015214256_a8355a2fd95acf90dece_original.png", "custom_css": null}, {"id": 15920, "slack_id": "U091ZJ7ANP7", "display_name": "Om", "bio": null, "projects_count": 0, "devlogs_count": 0, "votes_count": 0, "ships_count": 0, "projects": [], "coding_time_seconds": 0, "coding_time_seconds_today": 0, "balance": "You need to have a pocket watcher badge to view this.", "badges": [], "created_at": "2025-07-17T21:49:31.001-04:00", "updated_at": "2025-07-18T03:24:28.499-04:00", "avatar": "https://secure.gravatar.com/avatar/c95472e7aec5117d5211167feb404139.jpg?s=512&d=https%3A%2F%2Fa.slack-edge.com%2Fdf10d%2Fimg%2Favatars%2Fava_0017-512.png", "custom_css": null}, {"id": 15921, "slack_id": "U091A2JU9C7", "display_name": "Plate", "bio": null, "projects_count": 0, "devlogs_count": 0, "votes_count": 0, "ships_count": 0, "projects": [], "coding_time_seconds": 0, "coding_time_seconds_today": 0, "balance": "You need to have a pocket watcher badge to view this.", "badges": [], "created_at": "2025-07-17T22:24:44.343-04:00", "updated_at": "2025-07-18T03:24:28.578-04:00", "avatar": "https://secure.gravatar.com/avatar/98077766cb564b8af053e649d7422e65.jpg?s=512&d=https%3A%2F%2Fa.slack-edge.com%2Fdf10d%2Fimg%2Favatars%2Fava_0026-512.png", "custom_css": null}, {"id": 15922, "slack_id": "U091X5GCEFM", "display_name": "vamsi krishna", "bio": null, "projects_count": 0, "devlogs_count": 0, "votes_count": 0, "ships_count": 0, "projects": [], "coding_time_seconds": 0, "coding_time_seconds_today": 0, "balance": "You need to have a pocket watcher badge to view this.", "badges": [], "created_at": "2025-07-17T22:35:07.600-04:00", "updated_at": "2025-07-18T03:24:28.667-04:00", "avatar": "https://secure.gravatar.com/avatar/07475caa7f823bcb6f16dcb5bacdae09.jpg?s=512&d=https%3A%2F%2Fa.slack-edge.com%2Fdf10d%2Fimg%2Favatars%2Fava_0008-512.png", "custom_css": null}, {"id": 15923, "slack_id": "U092F2G7DRP", "display_name": "vivek vardhan", "bio": null, "projects_count": 0, "devlogs_count": 0, "votes_count": 0, "ships_count": 0, "projects": [], "coding_time_seconds": 0, "coding_time_seconds_today": 0, "balance": "You need to have a pocket watcher badge to view this.", "badges": [], "created_at": "2025-07-17T22:36:55.124-04:00", "updated_at": "2025-07-19T16:28:49.034-04:00", "avatar": "https://avatars.slack-edge.com/2025-07-17/9213820867782_bdb732dd08a6093e817f_original.gif", "custom_css": null}, {"id": 15924, "slack_id": "U091Y2X9KL5", "display_name": "Sanskar Dewangan", "bio": null, "projects_count": 0, "devlogs_count": 0, "votes_count": 0, "ships_count": 0, "projects": [], "coding_time_seconds": 0, "coding_time_seconds_today": 0, "balance": "You need to have a pocket watcher badge to view this.", "badges": [], "created_at": "2025-07-17T23:10:24.973-04:00", "updated_at": "2025-07-18T03:24:32.977-04:00", "avatar": "https://secure.gravatar.com/avatar/953d052c7c249afeee4e2a1290c26493.jpg?s=512&d=https%3A%2F%2Fa.slack-edge.com%2Fdf10d%2Fimg%2Favatars%2Fava_0011-512.png", "custom_css": null}, {"id": 15925, "slack_id": "U092394BH98", "display_name": "Prateek", "bio": null, "projects_count": 0, "devlogs_count": 0, "votes_count": 0, "ships_count": 0, "projects": [], "coding_time_seconds": 0, "coding_time_seconds_today": 0, "balance": "You need to have a pocket watcher badge to view this.", "badges": [], "created_at": "2025-07-17T23:18:23.671-04:00", "updated_at": "2025-07-18T03:24:33.076-04:00", "avatar": "https://secure.gravatar.com/avatar/d468e065d26463c0ceac187e0f89d27f.jpg?s=512&d=https%3A%2F%2Fa.slack-edge.com%2Fdf10d%2Fimg%2Favatars%2Fava_0003-512.png", "custom_css": null}], "pagination": {"page": 792, "pages": 1192, "count": 23828, "items": 20}}