{"users": [{"id": 15926, "slack_id": "U079CBA81A6", "display_name": "AzurusTheFirst", "bio": null, "projects_count": 0, "devlogs_count": 0, "votes_count": 0, "ships_count": 0, "projects": [], "coding_time_seconds": 0, "coding_time_seconds_today": 0, "balance": "You need to have a pocket watcher badge to view this.", "badges": [], "created_at": "2025-07-17T23:25:57.061-04:00", "updated_at": "2025-07-17T23:28:00.610-04:00", "avatar": "https://secure.gravatar.com/avatar/50acf44445dcb901f7daddb4549ed887.jpg?s=512&d=https%3A%2F%2Fa.slack-edge.com%2Fdf10d%2Fimg%2Favatars%2Fava_0025-512.png", "custom_css": null}, {"id": 15927, "slack_id": "U095YTU1Q15", "display_name": "Raybibi", "bio": null, "projects_count": 0, "devlogs_count": 0, "votes_count": 0, "ships_count": 0, "projects": [], "coding_time_seconds": 0, "coding_time_seconds_today": 0, "balance": "You need to have a pocket watcher badge to view this.", "badges": [], "created_at": "2025-07-17T23:46:30.526-04:00", "updated_at": "2025-07-18T03:24:33.241-04:00", "avatar": "https://secure.gravatar.com/avatar/f7a04dd98290e98a595c67cf682e6f9a.jpg?s=512&d=https%3A%2F%2Fa.slack-edge.com%2Fdf10d%2Fimg%2Favatars%2Fava_0016-512.png", "custom_css": null}, {"id": 15928, "slack_id": "U091H814AT1", "display_name": "Sarina Shrestha", "bio": null, "projects_count": 0, "devlogs_count": 0, "votes_count": 0, "ships_count": 0, "projects": [], "coding_time_seconds": 0, "coding_time_seconds_today": 0, "balance": "You need to have a pocket watcher badge to view this.", "badges": [], "created_at": "2025-07-18T00:09:18.644-04:00", "updated_at": "2025-07-18T03:24:33.324-04:00", "avatar": "https://avatars.slack-edge.com/2025-07-17/9215418984677_dacdbf295603be08ce09_original.png", "custom_css": null}, {"id": 15929, "slack_id": "U096DBCDW4S", "display_name": "ItsHotdogFred", "bio": null, "projects_count": 3, "devlogs_count": 9, "votes_count": 74, "ships_count": 3, "projects": [{"id": 13425, "title": "Funny Reviews API", "devlogs_count": 1, "created_at": "2025-09-16T05:16:35.728-04:00"}, {"id": 7102, "title": "ItsFred.dev cli", "devlogs_count": 3, "created_at": "2025-07-19T02:17:32.552-04:00"}, {"id": 8009, "title": "Cli GO Projects", "devlogs_count": 3, "created_at": "2025-07-24T02:26:22.024-04:00"}], "coding_time_seconds": 252398, "coding_time_seconds_today": 14025, "balance": "You need to have a pocket watcher badge to view this.", "badges": [{"name": "Maiden Voyage", "text": "you shipped your first project! the journey begins...", "icon": "\ud83d\udea2"}], "created_at": "2025-07-18T00:12:31.998-04:00", "updated_at": "2025-09-10T22:59:01.000-04:00", "avatar": "https://avatars.slack-edge.com/2025-07-17/9218683291236_eca2420676f1c6e4044a_original.png", "custom_css": null}, {"id": 15930, "slack_id": "U0967ULH76F", "display_name": "Voiding", "bio": null, "projects_count": 0, "devlogs_count": 0, "votes_count": 0, "ships_count": 0, "projects": [], "coding_time_seconds": 2224, "coding_time_seconds_today": 0, "balance": "You need to have a pocket watcher badge to view this.", "badges": [], "created_at": "2025-07-18T00:21:21.494-04:00", "updated_at": "2025-07-18T03:24:33.475-04:00", "avatar": "https://secure.gravatar.com/avatar/bdb81bac7422c5c501ddb8d4ab985507.jpg?s=512&d=https%3A%2F%2Fa.slack-edge.com%2Fdf10d%2Fimg%2Favatars%2Fava_0021-512.png", "custom_css": null}, {"id": 15931, "slack_id": "U09726W5XCG", "display_name": "Prince", "bio": null, "projects_count": 0, "devlogs_count": 0, "votes_count": 0, "ships_count": 0, "projects": [], "coding_time_seconds": 93684, "coding_time_seconds_today": 0, "balance": "You need to have a pocket watcher badge to view this.", "badges": [], "created_at": "2025-07-18T00:25:17.735-04:00", "updated_at": "2025-07-22T04:43:44.416-04:00", "avatar": "https://secure.gravatar.com/avatar/b0a88701952b6e80fc645d599a84a585.jpg?s=512&d=https%3A%2F%2Fa.slack-edge.com%2Fdf10d%2Fimg%2Favatars%2Fava_0004-512.png", "custom_css": null}, {"id": 15932, "slack_id": "U06AEJ7BXN2", "display_name": "Tejayaswanth", "bio": "", "projects_count": 0, "devlogs_count": 0, "votes_count": 0, "ships_count": 0, "projects": [], "coding_time_seconds": 2080, "coding_time_seconds_today": 0, "balance": "You need to have a pocket watcher badge to view this.", "badges": [], "created_at": "2025-07-18T00:27:47.181-04:00", "updated_at": "2025-08-01T06:41:09.937-04:00", "avatar": "https://secure.gravatar.com/avatar/738be59b348953171c77fdd9d0e3a3d5.jpg?s=512&d=https%3A%2F%2Fa.slack-edge.com%2Fdf10d%2Fimg%2Favatars%2Fava_0021-512.png", "custom_css": null}, {"id": 15933, "slack_id": "U096DB6BAP4", "display_name": "Diptendu Giri (Dip)", "bio": null, "projects_count": 0, "devlogs_count": 0, "votes_count": 1, "ships_count": 0, "projects": [], "coding_time_seconds": 7831, "coding_time_seconds_today": 0, "balance": "You need to have a pocket watcher badge to view this.", "badges": [], "created_at": "2025-07-18T00:28:04.252-04:00", "updated_at": "2025-08-18T12:49:05.214-04:00", "avatar": "https://avatars.slack-edge.com/2025-07-17/9218724831428_bfd8e036766bd068a995_original.jpg", "custom_css": null}, {"id": 15934, "slack_id": "U096DD8GJ1G", "display_name": "Krishna Bahadur Gurung", "bio": null, "projects_count": 0, "devlogs_count": 0, "votes_count": 0, "ships_count": 0, "projects": [], "coding_time_seconds": 0, "coding_time_seconds_today": 0, "balance": "You need to have a pocket watcher badge to view this.", "badges": [], "created_at": "2025-07-18T00:35:13.471-04:00", "updated_at": "2025-07-18T03:24:33.795-04:00", "avatar": "https://avatars.slack-edge.com/2025-07-17/9217463524914_26de9c6b219f1bb98917_original.png", "custom_css": null}, {"id": 15935, "slack_id": "U0929UA5EQJ", "display_name": "yeeeeeeeeeeeeee", "bio": null, "projects_count": 0, "devlogs_count": 0, "votes_count": 0, "ships_count": 0, "projects": [], "coding_time_seconds": 0, "coding_time_seconds_today": 0, "balance": "You need to have a pocket watcher badge to view this.", "badges": [], "created_at": "2025-07-18T00:40:50.011-04:00", "updated_at": "2025-07-18T03:24:33.881-04:00", "avatar": "https://secure.gravatar.com/avatar/7632e3071862f811e8e32192008efebb.jpg?s=512&d=https%3A%2F%2Fa.slack-edge.com%2Fdf10d%2Fimg%2Favatars%2Fava_0019-512.png", "custom_css": null}, {"id": 15936, "slack_id": "U095VKHT1R8", "display_name": "MEDHA NAAVYA", "bio": null, "projects_count": 0, "devlogs_count": 0, "votes_count": 0, "ships_count": 0, "projects": [], "coding_time_seconds": 0, "coding_time_seconds_today": 0, "balance": "You need to have a pocket watcher badge to view this.", "badges": [], "created_at": "2025-07-18T00:42:31.311-04:00", "updated_at": "2025-07-18T03:24:38.016-04:00", "avatar": "https://secure.gravatar.com/avatar/8e2a2f664e81d8bfe43b6534921f091e.jpg?s=512&d=https%3A%2F%2Fa.slack-edge.com%2Fdf10d%2Fimg%2Favatars%2Fava_0022-512.png", "custom_css": null}, {"id": 15937, "slack_id": "U096T4B8265", "display_name": "Saltorious", "bio": null, "projects_count": 0, "devlogs_count": 0, "votes_count": 0, "ships_count": 0, "projects": [], "coding_time_seconds": 0, "coding_time_seconds_today": 0, "balance": "You need to have a pocket watcher badge to view this.", "badges": [], "created_at": "2025-07-18T00:58:06.111-04:00", "updated_at": "2025-07-18T03:24:38.110-04:00", "avatar": "https://secure.gravatar.com/avatar/def8f2dea8c1dc5f7cdce58e0ccb7021.jpg?s=512&d=https%3A%2F%2Fa.slack-edge.com%2Fdf10d%2Fimg%2Favatars%2Fava_0024-512.png", "custom_css": null}, {"id": 15938, "slack_id": "U096A7ED3B8", "display_name": "Swathi SHEKHARAPPA GADED", "bio": null, "projects_count": 0, "devlogs_count": 0, "votes_count": 0, "ships_count": 0, "projects": [], "coding_time_seconds": 0, "coding_time_seconds_today": 0, "balance": "You need to have a pocket watcher badge to view this.", "badges": [], "created_at": "2025-07-18T01:09:33.586-04:00", "updated_at": "2025-07-18T03:24:38.207-04:00", "avatar": "https://secure.gravatar.com/avatar/16281dbacd0d471f3f3cf6dcbee07231.jpg?s=512&d=https%3A%2F%2Fa.slack-edge.com%2Fdf10d%2Fimg%2Favatars%2Fava_0017-512.png", "custom_css": null}, {"id": 15939, "slack_id": "U096BH5CJE9", "display_name": "S M", "bio": null, "projects_count": 0, "devlogs_count": 0, "votes_count": 0, "ships_count": 0, "projects": [], "coding_time_seconds": 0, "coding_time_seconds_today": 0, "balance": "You need to have a pocket watcher badge to view this.", "badges": [], "created_at": "2025-07-18T01:14:33.022-04:00", "updated_at": "2025-07-18T03:24:38.296-04:00", "avatar": "https://avatars.slack-edge.com/2025-07-17/9214277581382_748c4096bbcbeb87cea4_original.png", "custom_css": null}, {"id": 15940, "slack_id": "U091WPNNVSR", "display_name": "Shubham Kumar", "bio": null, "projects_count": 0, "devlogs_count": 0, "votes_count": 0, "ships_count": 0, "projects": [], "coding_time_seconds": 0, "coding_time_seconds_today": 0, "balance": "You need to have a pocket watcher badge to view this.", "badges": [], "created_at": "2025-07-18T01:22:50.277-04:00", "updated_at": "2025-07-18T03:24:38.403-04:00", "avatar": "https://secure.gravatar.com/avatar/73c639d46205bebf2791e1a9fde6e1e8.jpg?s=512&d=https%3A%2F%2Fa.slack-edge.com%2Fdf10d%2Fimg%2Favatars%2Fava_0012-512.png", "custom_css": null}, {"id": 15941, "slack_id": "U092RDPUQN4", "display_name": "Caleb", "bio": null, "projects_count": 0, "devlogs_count": 0, "votes_count": 0, "ships_count": 0, "projects": [], "coding_time_seconds": 2493, "coding_time_seconds_today": 0, "balance": "You need to have a pocket watcher badge to view this.", "badges": [], "created_at": "2025-07-18T01:42:49.203-04:00", "updated_at": "2025-07-18T03:24:38.491-04:00", "avatar": "https://avatars.slack-edge.com/2025-07-18/9215735575205_78d1b98ffabdc8bceb75_original.jpg", "custom_css": null}, {"id": 15942, "slack_id": "U0968AGA6E7", "display_name": "Mingeon Kim", "bio": null, "projects_count": 0, "devlogs_count": 0, "votes_count": 0, "ships_count": 0, "projects": [], "coding_time_seconds": 0, "coding_time_seconds_today": 0, "balance": "You need to have a pocket watcher badge to view this.", "badges": [], "created_at": "2025-07-18T02:12:12.732-04:00", "updated_at": "2025-07-18T03:24:38.571-04:00", "avatar": "https://avatars.slack-edge.com/2025-07-18/9215806499397_5881fcbbd13fa57e31e4_original.png", "custom_css": null}, {"id": 15943, "slack_id": "U091ZRC3PC4", "display_name": "love", "bio": null, "projects_count": 0, "devlogs_count": 0, "votes_count": 0, "ships_count": 0, "projects": [], "coding_time_seconds": 0, "coding_time_seconds_today": 0, "balance": "You need to have a pocket watcher badge to view this.", "badges": [], "created_at": "2025-07-18T02:51:00.172-04:00", "updated_at": "2025-07-18T03:24:38.673-04:00", "avatar": "https://secure.gravatar.com/avatar/bd51f02a3283680339cd8cabaf20c73a.jpg?s=512&d=https%3A%2F%2Fa.slack-edge.com%2Fdf10d%2Fimg%2Favatars%2Fava_0024-512.png", "custom_css": null}, {"id": 15944, "slack_id": "U0972M44RG8", "display_name": "Aaron Chadha", "bio": null, "projects_count": 0, "devlogs_count": 0, "votes_count": 0, "ships_count": 0, "projects": [], "coding_time_seconds": 0, "coding_time_seconds_today": 0, "balance": "You need to have a pocket watcher badge to view this.", "badges": [], "created_at": "2025-07-18T02:56:26.542-04:00", "updated_at": "2025-07-18T03:24:38.765-04:00", "avatar": "https://secure.gravatar.com/avatar/1b437eeadf6a43df6c99629a2770561c.jpg?s=512&d=https%3A%2F%2Fa.slack-edge.com%2Fdf10d%2Fimg%2Favatars%2Fava_0011-512.png", "custom_css": null}, {"id": 15945, "slack_id": "U0968J13YR1", "display_name": "Monil", "bio": null, "projects_count": 0, "devlogs_count": 0, "votes_count": 0, "ships_count": 0, "projects": [], "coding_time_seconds": 0, "coding_time_seconds_today": 0, "balance": "You need to have a pocket watcher badge to view this.", "badges": [], "created_at": "2025-07-18T03:10:23.780-04:00", "updated_at": "2025-07-18T03:28:54.597-04:00", "avatar": "https://secure.gravatar.com/avatar/095d405eb22a68eda019a0f6490b9937.jpg?s=512&d=https%3A%2F%2Fa.slack-edge.com%2Fdf10d%2Fimg%2Favatars%2Fava_0013-512.png", "custom_css": null}], "pagination": {"page": 793, "pages": 1192, "count": 23828, "items": 20}}