{"users": [{"id": 15986, "slack_id": "U09269A7V0A", "display_name": "sageboy", "bio": null, "projects_count": 0, "devlogs_count": 0, "votes_count": 0, "ships_count": 0, "projects": [], "coding_time_seconds": 0, "coding_time_seconds_today": 0, "balance": "You need to have a pocket watcher badge to view this.", "badges": [], "created_at": "2025-07-18T14:24:55.606-04:00", "updated_at": "2025-07-19T01:07:50.712-04:00", "avatar": "https://secure.gravatar.com/avatar/215a89a8055d78e70c07eef6b32900bb.jpg?s=512&d=https%3A%2F%2Fa.slack-edge.com%2Fdf10d%2Fimg%2Favatars%2Fava_0007-512.png", "custom_css": null}, {"id": 15987, "slack_id": "U096DSC3WS2", "display_name": "Mevy Eryan", "bio": null, "projects_count": 0, "devlogs_count": 0, "votes_count": 0, "ships_count": 0, "projects": [], "coding_time_seconds": 0, "coding_time_seconds_today": 0, "balance": "You need to have a pocket watcher badge to view this.", "badges": [], "created_at": "2025-07-18T14:25:32.845-04:00", "updated_at": "2025-07-18T14:33:34.434-04:00", "avatar": "https://secure.gravatar.com/avatar/0629924b10dfe67b62f3699ba748b87b.jpg?s=512&d=https%3A%2F%2Fa.slack-edge.com%2Fdf10d%2Fimg%2Favatars%2Fava_0019-512.png", "custom_css": null}, {"id": 15988, "slack_id": "U096H9MB8F4", "display_name": "GOURAV PANDEY", "bio": null, "projects_count": 0, "devlogs_count": 0, "votes_count": 0, "ships_count": 0, "projects": [], "coding_time_seconds": 0, "coding_time_seconds_today": 0, "balance": "You need to have a pocket watcher badge to view this.", "badges": [], "created_at": "2025-07-18T14:37:47.161-04:00", "updated_at": "2025-07-18T21:25:00.292-04:00", "avatar": "https://secure.gravatar.com/avatar/fb5a16748982cd3c11030853cec02cab.jpg?s=512&d=https%3A%2F%2Fa.slack-edge.com%2Fdf10d%2Fimg%2Favatars%2Fava_0005-512.png", "custom_css": null}, {"id": 15989, "slack_id": "U096X4285G9", "display_name": "Marvin Estrada", "bio": "hola,soy Marvin", "projects_count": 0, "devlogs_count": 0, "votes_count": 0, "ships_count": 0, "projects": [], "coding_time_seconds": 0, "coding_time_seconds_today": 0, "balance": "You need to have a pocket watcher badge to view this.", "badges": [], "created_at": "2025-07-18T15:18:13.730-04:00", "updated_at": "2025-08-06T14:35:24.892-04:00", "avatar": "https://secure.gravatar.com/avatar/be9674332dacccc7a8eff0cec9f0528f.jpg?s=512&d=https%3A%2F%2Fa.slack-edge.com%2Fdf10d%2Fimg%2Favatars%2Fava_0020-512.png", "custom_css": null}, {"id": 15990, "slack_id": "U08PL5RF7C0", "display_name": "Mohsin", "bio": null, "projects_count": 0, "devlogs_count": 0, "votes_count": 0, "ships_count": 0, "projects": [], "coding_time_seconds": 17715, "coding_time_seconds_today": 0, "balance": "You need to have a pocket watcher badge to view this.", "badges": [], "created_at": "2025-07-18T15:18:53.060-04:00", "updated_at": "2025-08-09T05:42:44.166-04:00", "avatar": "https://avatars.slack-edge.com/2025-06-02/9007679893296_b64f6eb77a7b7a53a786_original.png", "custom_css": null}, {"id": 15991, "slack_id": "U096CD6J52P", "display_name": "Mohid Rana", "bio": null, "projects_count": 0, "devlogs_count": 0, "votes_count": 0, "ships_count": 0, "projects": [], "coding_time_seconds": 0, "coding_time_seconds_today": 0, "balance": "You need to have a pocket watcher badge to view this.", "badges": [], "created_at": "2025-07-18T15:23:01.706-04:00", "updated_at": "2025-07-18T21:25:00.514-04:00", "avatar": "https://avatars.slack-edge.com/2025-07-18/9244451648432_8ca93462e18d474d67a2_original.png", "custom_css": null}, {"id": 15992, "slack_id": "U096X6D10V7", "display_name": "Trisha Mehta", "bio": null, "projects_count": 0, "devlogs_count": 0, "votes_count": 0, "ships_count": 0, "projects": [], "coding_time_seconds": 0, "coding_time_seconds_today": 0, "balance": "You need to have a pocket watcher badge to view this.", "badges": [], "created_at": "2025-07-18T15:45:19.475-04:00", "updated_at": "2025-07-18T21:25:00.597-04:00", "avatar": "https://secure.gravatar.com/avatar/b0a783e37164d715fe316384357fe153.jpg?s=512&d=https%3A%2F%2Fa.slack-edge.com%2Fdf10d%2Fimg%2Favatars%2Fava_0001-512.png", "custom_css": null}, {"id": 15993, "slack_id": "U0976GBQN0Y", "display_name": "Mo Eneh (mo)", "bio": null, "projects_count": 0, "devlogs_count": 0, "votes_count": 0, "ships_count": 0, "projects": [], "coding_time_seconds": 0, "coding_time_seconds_today": 0, "balance": "You need to have a pocket watcher badge to view this.", "badges": [], "created_at": "2025-07-18T15:52:19.574-04:00", "updated_at": "2025-07-31T10:29:53.504-04:00", "avatar": "https://secure.gravatar.com/avatar/d60e437f0276bae26d3529cff4079090.jpg?s=512&d=https%3A%2F%2Fa.slack-edge.com%2Fdf10d%2Fimg%2Favatars%2Fava_0006-512.png", "custom_css": null}, {"id": 15994, "slack_id": "U096JT9N0BE", "display_name": "Bindi Escutia", "bio": null, "projects_count": 0, "devlogs_count": 0, "votes_count": 0, "ships_count": 0, "projects": [], "coding_time_seconds": 0, "coding_time_seconds_today": 0, "balance": "You need to have a pocket watcher badge to view this.", "badges": [], "created_at": "2025-07-18T15:54:32.290-04:00", "updated_at": "2025-07-22T02:58:07.187-04:00", "avatar": "https://secure.gravatar.com/avatar/056a974aadeecf966af27a61c2e9c660.jpg?s=512&d=https%3A%2F%2Fa.slack-edge.com%2Fdf10d%2Fimg%2Favatars%2Fava_0002-512.png", "custom_css": null}, {"id": 15995, "slack_id": "U087FDBBGS2", "display_name": "thispythonjs", "bio": null, "projects_count": 0, "devlogs_count": 0, "votes_count": 0, "ships_count": 0, "projects": [], "coding_time_seconds": 0, "coding_time_seconds_today": 0, "balance": "You need to have a pocket watcher badge to view this.", "badges": [], "created_at": "2025-07-18T16:08:17.271-04:00", "updated_at": "2025-07-28T19:56:55.884-04:00", "avatar": "https://avatars.slack-edge.com/2025-07-28/9267569085826_9ab4701222efad156a62_original.png", "custom_css": null}, {"id": 15996, "slack_id": "U09620MPL1L", "display_name": "Tony", "bio": null, "projects_count": 1, "devlogs_count": 2, "votes_count": 0, "ships_count": 0, "projects": [{"id": 7719, "title": "F-91Web", "devlogs_count": 2, "created_at": "2025-07-22T17:29:14.327-04:00"}], "coding_time_seconds": 52970, "coding_time_seconds_today": 0, "balance": "You need to have a pocket watcher badge to view this.", "badges": [], "created_at": "2025-07-18T16:42:35.875-04:00", "updated_at": "2025-07-22T06:46:08.495-04:00", "avatar": "https://secure.gravatar.com/avatar/a381afdd4868b75be0a9b9fd93f13a0a.jpg?s=512&d=https%3A%2F%2Fa.slack-edge.com%2Fdf10d%2Fimg%2Favatars%2Fava_0019-512.png", "custom_css": null}, {"id": 15997, "slack_id": "U0976RV2PMW", "display_name": "r m", "bio": null, "projects_count": 0, "devlogs_count": 0, "votes_count": 0, "ships_count": 0, "projects": [], "coding_time_seconds": 0, "coding_time_seconds_today": 0, "balance": "You need to have a pocket watcher badge to view this.", "badges": [], "created_at": "2025-07-18T17:05:30.997-04:00", "updated_at": "2025-07-18T21:25:00.978-04:00", "avatar": "https://secure.gravatar.com/avatar/c483681b8fe001ec32573a52255be0da.jpg?s=512&d=https%3A%2F%2Fa.slack-edge.com%2Fdf10d%2Fimg%2Favatars%2Fava_0025-512.png", "custom_css": null}, {"id": 15998, "slack_id": "U096HTUQV8S", "display_name": "K116", "bio": null, "projects_count": 4, "devlogs_count": 16, "votes_count": 33, "ships_count": 3, "projects": [{"id": 7109, "title": "Newton's Apples", "devlogs_count": 2, "created_at": "2025-07-19T04:28:40.040-04:00"}, {"id": 10963, "title": "Space Mania", "devlogs_count": 2, "created_at": "2025-08-12T04:18:09.609-04:00"}, {"id": 7987, "title": "Personal website", "devlogs_count": 8, "created_at": "2025-07-23T23:32:28.406-04:00"}, {"id": 10030, "title": "Fox runner", "devlogs_count": 4, "created_at": "2025-08-03T15:01:17.170-04:00"}], "coding_time_seconds": 166198, "coding_time_seconds_today": 0, "balance": "You need to have a pocket watcher badge to view this.", "badges": [{"name": "Maiden Voyage", "text": "you shipped your first project! the journey begins...", "icon": "\ud83d\udea2"}], "created_at": "2025-07-18T17:11:08.587-04:00", "updated_at": "2025-09-10T22:59:02.798-04:00", "avatar": "https://avatars.slack-edge.com/2025-08-26/9412759552645_36a949eb082954c062f5_original.jpg", "custom_css": null}, {"id": 15999, "slack_id": "U0963K1FGUF", "display_name": "j", "bio": null, "projects_count": 0, "devlogs_count": 0, "votes_count": 0, "ships_count": 0, "projects": [], "coding_time_seconds": 0, "coding_time_seconds_today": 0, "balance": "You need to have a pocket watcher badge to view this.", "badges": [], "created_at": "2025-07-18T17:54:14.250-04:00", "updated_at": "2025-07-18T21:25:01.159-04:00", "avatar": "https://secure.gravatar.com/avatar/73d45f98d3e3adfa5ec77fc74bec92c6.jpg?s=512&d=https%3A%2F%2Fa.slack-edge.com%2Fdf10d%2Fimg%2Favatars%2Fava_0008-512.png", "custom_css": null}, {"id": 16000, "slack_id": "U0927RS2A3U", "display_name": "Justin Stark", "bio": null, "projects_count": 0, "devlogs_count": 0, "votes_count": 0, "ships_count": 0, "projects": [], "coding_time_seconds": 0, "coding_time_seconds_today": 0, "balance": "You need to have a pocket watcher badge to view this.", "badges": [], "created_at": "2025-07-18T18:01:51.632-04:00", "updated_at": "2025-07-18T21:25:01.255-04:00", "avatar": "https://avatars.slack-edge.com/2025-07-18/9220198741253_f7c6044c583df5250570_original.png", "custom_css": null}, {"id": 16001, "slack_id": "U096G64CWN9", "display_name": "Barbara", "bio": "I know absolutely nothing about coding except a 2-week class of SIP/Javascript...but for this I'll be coding in Python, so. . .yeah. I'm pretty much guaranteed success (help) >:)", "projects_count": 0, "devlogs_count": 0, "votes_count": 0, "ships_count": 0, "projects": [], "coding_time_seconds": 1150, "coding_time_seconds_today": 0, "balance": "You need to have a pocket watcher badge to view this.", "badges": [], "created_at": "2025-07-18T18:13:25.261-04:00", "updated_at": "2025-07-19T03:24:48.355-04:00", "avatar": "https://avatars.slack-edge.com/2025-07-19/9221101770021_c0e035d1fe0ac4174193_original.jpg", "custom_css": null}, {"id": 16002, "slack_id": "U09774BHMCY", "display_name": "Angel Ong", "bio": "Rising Sophomore student based in Houston, Texas", "projects_count": 1, "devlogs_count": 4, "votes_count": 8, "ships_count": 1, "projects": [{"id": 7212, "title": "Tutor Corps", "devlogs_count": 4, "created_at": "2025-07-20T00:37:26.237-04:00"}], "coding_time_seconds": 19354, "coding_time_seconds_today": 0, "balance": "You need to have a pocket watcher badge to view this.", "badges": [{"name": "Maiden Voyage", "text": "you shipped your first project! the journey begins...", "icon": "\ud83d\udea2"}], "created_at": "2025-07-18T18:28:22.432-04:00", "updated_at": "2025-09-10T22:59:02.902-04:00", "avatar": "https://secure.gravatar.com/avatar/9f7dfc87d7a780152aa7a378cb85301c.jpg?s=512&d=https%3A%2F%2Fa.slack-edge.com%2Fdf10d%2Fimg%2Favatars%2Fava_0013-512.png", "custom_css": null}, {"id": 16003, "slack_id": "U096RC616PK", "display_name": "kagi", "bio": null, "projects_count": 0, "devlogs_count": 0, "votes_count": 0, "ships_count": 0, "projects": [], "coding_time_seconds": 0, "coding_time_seconds_today": 0, "balance": "You need to have a pocket watcher badge to view this.", "badges": [], "created_at": "2025-07-18T19:29:57.823-04:00", "updated_at": "2025-07-18T21:25:01.529-04:00", "avatar": "https://secure.gravatar.com/avatar/0c58c0384b816aadaaf79616e12cc069.jpg?s=512&d=https%3A%2F%2Fa.slack-edge.com%2Fdf10d%2Fimg%2Favatars%2Fava_0004-512.png", "custom_css": null}, {"id": 16004, "slack_id": "U096KLEJAQ4", "display_name": "Tina Uy\u00ean \u0110\u1eb7ng", "bio": null, "projects_count": 0, "devlogs_count": 0, "votes_count": 0, "ships_count": 0, "projects": [], "coding_time_seconds": 12765, "coding_time_seconds_today": 0, "balance": "You need to have a pocket watcher badge to view this.", "badges": [], "created_at": "2025-07-18T20:05:56.759-04:00", "updated_at": "2025-09-08T03:23:35.610-04:00", "avatar": "https://avatars.slack-edge.com/2025-09-07/9502977439984_4db164eb3838f48b02af_original.png", "custom_css": null}, {"id": 16005, "slack_id": "U0971P68XB2", "display_name": "Evelyn", "bio": null, "projects_count": 0, "devlogs_count": 0, "votes_count": 0, "ships_count": 0, "projects": [], "coding_time_seconds": 127194, "coding_time_seconds_today": 0, "balance": "You need to have a pocket watcher badge to view this.", "badges": [], "created_at": "2025-07-18T20:21:20.822-04:00", "updated_at": "2025-07-19T11:15:18.548-04:00", "avatar": "https://secure.gravatar.com/avatar/464a4d4f39a09a20397ee302983b7ca8.jpg?s=512&d=https%3A%2F%2Fa.slack-edge.com%2Fdf10d%2Fimg%2Favatars%2Fava_0004-512.png", "custom_css": null}], "pagination": {"page": 796, "pages": 1192, "count": 23828, "items": 20}}