{"users": [{"id": 16006, "slack_id": "U096GFJ0RA9", "display_name": "Laurina To", "bio": null, "projects_count": 3, "devlogs_count": 4, "votes_count": 21, "ships_count": 1, "projects": [{"id": 7735, "title": "Big Boss or Naive Noob", "devlogs_count": 2, "created_at": "2025-07-22T18:58:15.512-04:00"}, {"id": 11876, "title": "Serenading Stand", "devlogs_count": 0, "created_at": "2025-08-20T14:58:59.867-04:00"}, {"id": 9607, "title": "Aural Assessment", "devlogs_count": 2, "created_at": "2025-08-01T20:54:47.603-04:00"}], "coding_time_seconds": 71038, "coding_time_seconds_today": 0, "balance": "You need to have a pocket watcher badge to view this.", "badges": [{"name": "Maiden Voyage", "text": "you shipped your first project! the journey begins...", "icon": "\ud83d\udea2"}], "created_at": "2025-07-18T20:34:03.186-04:00", "updated_at": "2025-09-10T22:59:02.997-04:00", "avatar": "https://avatars.slack-edge.com/2025-07-18/9219175062502_e07cf6f452afaf295918_original.png", "custom_css": null}, {"id": 16007, "slack_id": "U0785D5VDEK", "display_name": "Xanderath", "bio": null, "projects_count": 3, "devlogs_count": 20, "votes_count": 47, "ships_count": 2, "projects": [{"id": 7082, "title": "Power Surge", "devlogs_count": 1, "created_at": "2025-07-18T21:14:50.758-04:00"}, {"id": 12204, "title": "The Climb", "devlogs_count": 11, "created_at": "2025-08-24T10:30:21.157-04:00"}, {"id": 12949, "title": "Shrubs of Mystery", "devlogs_count": 8, "created_at": "2025-09-06T00:28:11.939-04:00"}], "coding_time_seconds": 206895, "coding_time_seconds_today": 0, "balance": "You need to have a pocket watcher badge to view this.", "badges": [{"name": "Maiden Voyage", "text": "you shipped your first project! the journey begins...", "icon": "\ud83d\udea2"}], "created_at": "2025-07-18T20:39:43.760-04:00", "updated_at": "2025-09-10T22:59:03.024-04:00", "avatar": "https://secure.gravatar.com/avatar/a467b357f4a3fd58c84ba33d7048c1d8.jpg?s=512&d=https%3A%2F%2Fa.slack-edge.com%2Fdf10d%2Fimg%2Favatars%2Fava_0009-512.png", "custom_css": null}, {"id": 16008, "slack_id": "U096F7WLXV4", "display_name": "Nahush", "bio": null, "projects_count": 0, "devlogs_count": 0, "votes_count": 0, "ships_count": 0, "projects": [], "coding_time_seconds": 0, "coding_time_seconds_today": 0, "balance": "You need to have a pocket watcher badge to view this.", "badges": [], "created_at": "2025-07-18T21:33:14.091-04:00", "updated_at": "2025-07-19T03:24:56.951-04:00", "avatar": "https://secure.gravatar.com/avatar/e446b59ab77b05d1f4e5e9f439e12bcb.jpg?s=512&d=https%3A%2F%2Fa.slack-edge.com%2Fdf10d%2Fimg%2Favatars%2Fava_0000-512.png", "custom_css": null}, {"id": 16009, "slack_id": "U08SXH88QN6", "display_name": "Patrick Schneider", "bio": null, "projects_count": 0, "devlogs_count": 0, "votes_count": 0, "ships_count": 0, "projects": [], "coding_time_seconds": 0, "coding_time_seconds_today": 0, "balance": "You need to have a pocket watcher badge to view this.", "badges": [], "created_at": "2025-07-18T21:45:08.310-04:00", "updated_at": "2025-07-18T21:45:14.083-04:00", "avatar": "https://secure.gravatar.com/avatar/c93e4c5930e0c012521e026b1a88b61c.jpg?s=512&d=https%3A%2F%2Fa.slack-edge.com%2Fdf10d%2Fimg%2Favatars%2Fava_0024-512.png", "custom_css": null}, {"id": 16010, "slack_id": "U09348RD18T", "display_name": "Kritav", "bio": null, "projects_count": 0, "devlogs_count": 0, "votes_count": 0, "ships_count": 0, "projects": [], "coding_time_seconds": 35853, "coding_time_seconds_today": 0, "balance": "You need to have a pocket watcher badge to view this.", "badges": [], "created_at": "2025-07-18T22:04:32.101-04:00", "updated_at": "2025-07-19T03:24:57.111-04:00", "avatar": "https://secure.gravatar.com/avatar/f749bbc3b0ba89b70f3abfd8b186c4e7.jpg?s=512&d=https%3A%2F%2Fa.slack-edge.com%2Fdf10d%2Fimg%2Favatars%2Fava_0013-512.png", "custom_css": null}, {"id": 16011, "slack_id": "U096GKZAQDB", "display_name": "xrayian", "bio": null, "projects_count": 0, "devlogs_count": 0, "votes_count": 0, "ships_count": 0, "projects": [], "coding_time_seconds": 0, "coding_time_seconds_today": 0, "balance": "You need to have a pocket watcher badge to view this.", "badges": [], "created_at": "2025-07-18T22:07:32.364-04:00", "updated_at": "2025-07-19T03:24:57.194-04:00", "avatar": "https://secure.gravatar.com/avatar/d6162b2461b2d6b28888f243793ff5fa.jpg?s=512&d=https%3A%2F%2Fa.slack-edge.com%2Fdf10d%2Fimg%2Favatars%2Fava_0007-512.png", "custom_css": null}, {"id": 16012, "slack_id": "U09644W7UET", "display_name": "SK", "bio": null, "projects_count": 0, "devlogs_count": 0, "votes_count": 0, "ships_count": 0, "projects": [], "coding_time_seconds": 0, "coding_time_seconds_today": 0, "balance": "You need to have a pocket watcher badge to view this.", "badges": [], "created_at": "2025-07-18T22:09:35.672-04:00", "updated_at": "2025-07-19T03:24:57.282-04:00", "avatar": "https://secure.gravatar.com/avatar/55f033bcb741dc13bef582e3cd0a1c87.jpg?s=512&d=https%3A%2F%2Fa.slack-edge.com%2Fdf10d%2Fimg%2Favatars%2Fava_0013-512.png", "custom_css": null}, {"id": 16013, "slack_id": "U096Y7NJ0DP", "display_name": "Zayanah mahmud", "bio": null, "projects_count": 1, "devlogs_count": 0, "votes_count": 0, "ships_count": 0, "projects": [{"id": 7736, "title": "Late Night Queue", "devlogs_count": 0, "created_at": "2025-07-22T19:07:36.207-04:00"}], "coding_time_seconds": 16287, "coding_time_seconds_today": 0, "balance": "You need to have a pocket watcher badge to view this.", "badges": [], "created_at": "2025-07-18T22:24:04.766-04:00", "updated_at": "2025-07-20T01:09:01.577-04:00", "avatar": "https://avatars.slack-edge.com/2025-07-18/9208192665511_3ca8c96f5ee3f16e1361_original.png", "custom_css": null}, {"id": 16014, "slack_id": "U096KTS6UMA", "display_name": "Sushmita", "bio": null, "projects_count": 1, "devlogs_count": 2, "votes_count": 3, "ships_count": 1, "projects": [{"id": 9996, "title": "Number Guessing Game in Python", "devlogs_count": 2, "created_at": "2025-08-03T11:19:43.083-04:00"}], "coding_time_seconds": 78708, "coding_time_seconds_today": 0, "balance": "You need to have a pocket watcher badge to view this.", "badges": [{"name": "Maiden Voyage", "text": "you shipped your first project! the journey begins...", "icon": "\ud83d\udea2"}], "created_at": "2025-07-18T22:24:52.494-04:00", "updated_at": "2025-09-10T22:59:03.202-04:00", "avatar": "https://secure.gravatar.com/avatar/5dfc2c0b6834300675bcab105f5d2ad4.jpg?s=512&d=https%3A%2F%2Fa.slack-edge.com%2Fdf10d%2Fimg%2Favatars%2Fava_0011-512.png", "custom_css": null}, {"id": 16015, "slack_id": "U096FBFMARL", "display_name": "Cin", "bio": null, "projects_count": 0, "devlogs_count": 0, "votes_count": 0, "ships_count": 0, "projects": [], "coding_time_seconds": 0, "coding_time_seconds_today": 0, "balance": "You need to have a pocket watcher badge to view this.", "badges": [], "created_at": "2025-07-18T22:51:44.996-04:00", "updated_at": "2025-07-19T03:24:57.513-04:00", "avatar": "https://secure.gravatar.com/avatar/d2ae634d05287daac4e931318f8e7786.jpg?s=512&d=https%3A%2F%2Fa.slack-edge.com%2Fdf10d%2Fimg%2Favatars%2Fava_0001-512.png", "custom_css": null}, {"id": 16016, "slack_id": "U0920EZSZCK", "display_name": "ANSHDEEP THAKUR", "bio": null, "projects_count": 0, "devlogs_count": 0, "votes_count": 0, "ships_count": 0, "projects": [], "coding_time_seconds": 0, "coding_time_seconds_today": 0, "balance": "You need to have a pocket watcher badge to view this.", "badges": [], "created_at": "2025-07-18T23:06:13.696-04:00", "updated_at": "2025-07-19T03:24:57.605-04:00", "avatar": "https://secure.gravatar.com/avatar/4acdf80e7a5544b9dac884a2d74ae029.jpg?s=512&d=https%3A%2F%2Fa.slack-edge.com%2Fdf10d%2Fimg%2Favatars%2Fava_0021-512.png", "custom_css": null}, {"id": 16017, "slack_id": "U096473SFMM", "display_name": "Ian", "bio": null, "projects_count": 0, "devlogs_count": 0, "votes_count": 0, "ships_count": 0, "projects": [], "coding_time_seconds": 0, "coding_time_seconds_today": 0, "balance": "You need to have a pocket watcher badge to view this.", "badges": [], "created_at": "2025-07-18T23:07:57.338-04:00", "updated_at": "2025-07-19T03:24:57.685-04:00", "avatar": "https://secure.gravatar.com/avatar/579dfaec9caad5d8aeacde4d9c6da978.jpg?s=512&d=https%3A%2F%2Fa.slack-edge.com%2Fdf10d%2Fimg%2Favatars%2Fava_0014-512.png", "custom_css": null}, {"id": 16018, "slack_id": "U09647FNC23", "display_name": "Eunice", "bio": null, "projects_count": 0, "devlogs_count": 0, "votes_count": 0, "ships_count": 0, "projects": [], "coding_time_seconds": 0, "coding_time_seconds_today": 0, "balance": "You need to have a pocket watcher badge to view this.", "badges": [], "created_at": "2025-07-18T23:16:53.154-04:00", "updated_at": "2025-07-19T03:24:57.770-04:00", "avatar": "https://secure.gravatar.com/avatar/3010bf396625e20deff6a27d0f476354.jpg?s=512&d=https%3A%2F%2Fa.slack-edge.com%2Fdf10d%2Fimg%2Favatars%2Fava_0021-512.png", "custom_css": null}, {"id": 16019, "slack_id": "U0977LY25MW", "display_name": "Oksana Dolgopolova", "bio": null, "projects_count": 0, "devlogs_count": 0, "votes_count": 0, "ships_count": 0, "projects": [], "coding_time_seconds": 0, "coding_time_seconds_today": 0, "balance": "You need to have a pocket watcher badge to view this.", "badges": [], "created_at": "2025-07-18T23:38:51.575-04:00", "updated_at": "2025-07-19T03:24:57.860-04:00", "avatar": "https://avatars.slack-edge.com/2025-07-18/9224057098948_6f5016b495c0e9b2a935_original.png", "custom_css": null}, {"id": 16020, "slack_id": "U096488UM8X", "display_name": "Bay2Bay Hacks", "bio": null, "projects_count": 0, "devlogs_count": 0, "votes_count": 0, "ships_count": 0, "projects": [], "coding_time_seconds": 0, "coding_time_seconds_today": 0, "balance": "You need to have a pocket watcher badge to view this.", "badges": [], "created_at": "2025-07-18T23:40:32.055-04:00", "updated_at": "2025-07-19T03:24:57.931-04:00", "avatar": "https://secure.gravatar.com/avatar/c1f3e7e98ba093a527c1654da883bf43.jpg?s=512&d=https%3A%2F%2Fa.slack-edge.com%2Fdf10d%2Fimg%2Favatars%2Fava_0007-512.png", "custom_css": null}, {"id": 16021, "slack_id": "U096L22F9HA", "display_name": "kumu", "bio": null, "projects_count": 0, "devlogs_count": 0, "votes_count": 0, "ships_count": 0, "projects": [], "coding_time_seconds": 0, "coding_time_seconds_today": 0, "balance": "You need to have a pocket watcher badge to view this.", "badges": [], "created_at": "2025-07-18T23:58:09.662-04:00", "updated_at": "2025-07-19T03:24:58.028-04:00", "avatar": "https://secure.gravatar.com/avatar/06a9abddd21d11ef977e2391b8e8b5d8.jpg?s=512&d=https%3A%2F%2Fa.slack-edge.com%2Fdf10d%2Fimg%2Favatars%2Fava_0000-512.png", "custom_css": null}, {"id": 16022, "slack_id": "U0977NTFG1W", "display_name": "momo", "bio": null, "projects_count": 0, "devlogs_count": 0, "votes_count": 0, "ships_count": 0, "projects": [], "coding_time_seconds": 0, "coding_time_seconds_today": 0, "balance": "You need to have a pocket watcher badge to view this.", "badges": [], "created_at": "2025-07-19T00:26:05.352-04:00", "updated_at": "2025-07-22T01:23:42.720-04:00", "avatar": "https://secure.gravatar.com/avatar/6dc69d6a31e07e9d574a0f5e948859de.jpg?s=512&d=https%3A%2F%2Fa.slack-edge.com%2Fdf10d%2Fimg%2Favatars%2Fava_0023-512.png", "custom_css": null}, {"id": 16023, "slack_id": "U096DPP30N7", "display_name": "Nishant", "bio": null, "projects_count": 0, "devlogs_count": 0, "votes_count": 0, "ships_count": 0, "projects": [], "coding_time_seconds": 0, "coding_time_seconds_today": 0, "balance": "You need to have a pocket watcher badge to view this.", "badges": [], "created_at": "2025-07-19T00:30:49.535-04:00", "updated_at": "2025-08-10T03:24:46.096-04:00", "avatar": "https://avatars.slack-edge.com/2025-08-10/9330944554774_c476a6863098064c8c6d_original.png", "custom_css": null}, {"id": 16024, "slack_id": "U091YK9QCAX", "display_name": "sai", "bio": null, "projects_count": 0, "devlogs_count": 0, "votes_count": 0, "ships_count": 0, "projects": [], "coding_time_seconds": 0, "coding_time_seconds_today": 0, "balance": "You need to have a pocket watcher badge to view this.", "badges": [], "created_at": "2025-07-19T00:34:15.747-04:00", "updated_at": "2025-07-19T16:28:54.098-04:00", "avatar": "https://secure.gravatar.com/avatar/b47d8d430f7eaf5f281299c7da811e37.jpg?s=512&d=https%3A%2F%2Fa.slack-edge.com%2Fdf10d%2Fimg%2Favatars%2Fava_0011-512.png", "custom_css": null}, {"id": 16025, "slack_id": "U0977R7Q6UQ", "display_name": "kartik Goyal", "bio": null, "projects_count": 0, "devlogs_count": 0, "votes_count": 0, "ships_count": 0, "projects": [], "coding_time_seconds": 0, "coding_time_seconds_today": 0, "balance": "You need to have a pocket watcher badge to view this.", "badges": [], "created_at": "2025-07-19T01:33:56.915-04:00", "updated_at": "2025-07-19T16:28:54.160-04:00", "avatar": "https://secure.gravatar.com/avatar/c2ebc698900643d9b3a2793dac60ffef.jpg?s=512&d=https%3A%2F%2Fa.slack-edge.com%2Fdf10d%2Fimg%2Favatars%2Fava_0016-512.png", "custom_css": null}], "pagination": {"page": 797, "pages": 1192, "count": 23828, "items": 20}}