{"users": [{"id": 16046, "slack_id": "U096HKUBVAR", "display_name": "Pratik", "bio": null, "projects_count": 0, "devlogs_count": 10, "votes_count": 25, "ships_count": 0, "projects": [], "coding_time_seconds": 147398, "coding_time_seconds_today": 0, "balance": "You need to have a pocket watcher badge to view this.", "badges": [{"name": "Maiden Voyage", "text": "you shipped your first project! the journey begins...", "icon": "\ud83d\udea2"}, {"name": "Ballot Stuffer", "text": "vote 100 times.", "icon": "https://summer.hackclub.com/assets/i_voted-bf851b48.png"}], "created_at": "2025-07-19T09:45:16.776-04:00", "updated_at": "2025-09-10T22:59:03.933-04:00", "avatar": "https://avatars.slack-edge.com/2025-08-01/9291526413316_7714ee2ffcd5fb48aa91_original.jpg", "custom_css": null}, {"id": 16047, "slack_id": "U096Z5SEP09", "display_name": "philo", "bio": null, "projects_count": 0, "devlogs_count": 0, "votes_count": 0, "ships_count": 0, "projects": [], "coding_time_seconds": 149570, "coding_time_seconds_today": 0, "balance": "You need to have a pocket watcher badge to view this.", "badges": [], "created_at": "2025-07-19T10:00:33.209-04:00", "updated_at": "2025-07-19T15:24:50.712-04:00", "avatar": "https://secure.gravatar.com/avatar/a1aa976056cdd997458ab08f4de36343.jpg?s=512&d=https%3A%2F%2Fa.slack-edge.com%2Fdf10d%2Fimg%2Favatars%2Fava_0022-512.png", "custom_css": null}, {"id": 16048, "slack_id": "U096KJM1S6N", "display_name": "Szymon", "bio": null, "projects_count": 0, "devlogs_count": 0, "votes_count": 0, "ships_count": 0, "projects": [], "coding_time_seconds": 0, "coding_time_seconds_today": 0, "balance": "You need to have a pocket watcher badge to view this.", "badges": [], "created_at": "2025-07-19T10:05:49.251-04:00", "updated_at": "2025-07-20T10:51:56.657-04:00", "avatar": "https://secure.gravatar.com/avatar/127b96bd33eb949e6992ca89982cbafe.jpg?s=512&d=https%3A%2F%2Fa.slack-edge.com%2Fdf10d%2Fimg%2Favatars%2Fava_0016-512.png", "custom_css": null}, {"id": 16049, "slack_id": "U096LTTJDLL", "display_name": "Riju", "bio": null, "projects_count": 0, "devlogs_count": 0, "votes_count": 2, "ships_count": 0, "projects": [], "coding_time_seconds": 0, "coding_time_seconds_today": 0, "balance": "You need to have a pocket watcher badge to view this.", "badges": [], "created_at": "2025-07-19T10:12:22.615-04:00", "updated_at": "2025-07-19T15:24:50.897-04:00", "avatar": "https://secure.gravatar.com/avatar/3821120e8444de0d84c023078ee41aa7.jpg?s=512&d=https%3A%2F%2Fa.slack-edge.com%2Fdf10d%2Fimg%2Favatars%2Fava_0002-512.png", "custom_css": null}, {"id": 16050, "slack_id": "U091T4DUUJ3", "display_name": "Hardik", "bio": null, "projects_count": 0, "devlogs_count": 0, "votes_count": 0, "ships_count": 0, "projects": [], "coding_time_seconds": 0, "coding_time_seconds_today": 0, "balance": "You need to have a pocket watcher badge to view this.", "badges": [], "created_at": "2025-07-19T10:24:57.999-04:00", "updated_at": "2025-07-19T15:24:50.986-04:00", "avatar": "https://secure.gravatar.com/avatar/e28d9640c582f732111f7d45c86082c0.jpg?s=512&d=https%3A%2F%2Fa.slack-edge.com%2Fdf10d%2Fimg%2Favatars%2Fava_0002-512.png", "custom_css": null}, {"id": 16051, "slack_id": "U09654SMXRD", "display_name": "Abhilasha", "bio": null, "projects_count": 0, "devlogs_count": 0, "votes_count": 0, "ships_count": 0, "projects": [], "coding_time_seconds": 0, "coding_time_seconds_today": 0, "balance": "You need to have a pocket watcher badge to view this.", "badges": [], "created_at": "2025-07-19T10:33:02.854-04:00", "updated_at": "2025-08-31T08:50:23.687-04:00", "avatar": "https://secure.gravatar.com/avatar/47f9721d60ec7ae1bce4c53156d5cbdd.jpg?s=512&d=https%3A%2F%2Fa.slack-edge.com%2Fdf10d%2Fimg%2Favatars%2Fava_0015-512.png", "custom_css": null}, {"id": 16052, "slack_id": "U096M0GMDS8", "display_name": "Korbinian Glanz", "bio": null, "projects_count": 0, "devlogs_count": 0, "votes_count": 0, "ships_count": 0, "projects": [], "coding_time_seconds": 0, "coding_time_seconds_today": 0, "balance": "You need to have a pocket watcher badge to view this.", "badges": [], "created_at": "2025-07-19T10:58:34.685-04:00", "updated_at": "2025-07-19T15:24:51.165-04:00", "avatar": "https://secure.gravatar.com/avatar/005ee259dab08b50378cef2716975f4d.jpg?s=512&d=https%3A%2F%2Fa.slack-edge.com%2Fdf10d%2Fimg%2Favatars%2Fava_0026-512.png", "custom_css": null}, {"id": 16053, "slack_id": "U096EM4FE4B", "display_name": "samriddha poudel", "bio": null, "projects_count": 0, "devlogs_count": 0, "votes_count": 0, "ships_count": 0, "projects": [], "coding_time_seconds": 0, "coding_time_seconds_today": 0, "balance": "You need to have a pocket watcher badge to view this.", "badges": [], "created_at": "2025-07-19T10:58:48.542-04:00", "updated_at": "2025-07-26T00:38:24.433-04:00", "avatar": "https://avatars.slack-edge.com/2025-07-25/9252325458150_6bdd57b02fc463becfe8_original.jpg", "custom_css": null}, {"id": 16054, "slack_id": "U096KNMAQ7L", "display_name": "Enjoy", "bio": null, "projects_count": 0, "devlogs_count": 0, "votes_count": 0, "ships_count": 0, "projects": [], "coding_time_seconds": 0, "coding_time_seconds_today": 0, "balance": "You need to have a pocket watcher badge to view this.", "badges": [], "created_at": "2025-07-19T11:00:41.850-04:00", "updated_at": "2025-07-19T15:24:51.337-04:00", "avatar": "https://avatars.slack-edge.com/2025-07-19/9225031717380_23172a869b5b9f761c32_original.png", "custom_css": null}, {"id": 16055, "slack_id": "U08AC4E66EM", "display_name": "Shebbel", "bio": null, "projects_count": 0, "devlogs_count": 0, "votes_count": 1, "ships_count": 0, "projects": [], "coding_time_seconds": 3104, "coding_time_seconds_today": 0, "balance": "You need to have a pocket watcher badge to view this.", "badges": [], "created_at": "2025-07-19T11:16:13.265-04:00", "updated_at": "2025-08-13T08:41:39.299-04:00", "avatar": "https://secure.gravatar.com/avatar/c11344449aeafaefbe33403f19078559.jpg?s=512&d=https%3A%2F%2Fa.slack-edge.com%2Fdf10d%2Fimg%2Favatars%2Fava_0005-512.png", "custom_css": null}, {"id": 16056, "slack_id": "U096HQPLA6R", "display_name": "Maciek Ni\u017cy\u0144ski", "bio": null, "projects_count": 0, "devlogs_count": 0, "votes_count": 5, "ships_count": 0, "projects": [], "coding_time_seconds": 3981, "coding_time_seconds_today": 0, "balance": "You need to have a pocket watcher badge to view this.", "badges": [], "created_at": "2025-07-19T11:17:00.676-04:00", "updated_at": "2025-07-19T15:24:51.537-04:00", "avatar": "https://avatars.slack-edge.com/2025-07-19/9220549985110_8b284afcdf0100c9f67d_original.png", "custom_css": null}, {"id": 16057, "slack_id": "U096GG4LS94", "display_name": "Arnav Rawat", "bio": null, "projects_count": 0, "devlogs_count": 0, "votes_count": 0, "ships_count": 0, "projects": [], "coding_time_seconds": 0, "coding_time_seconds_today": 0, "balance": "You need to have a pocket watcher badge to view this.", "badges": [], "created_at": "2025-07-19T11:20:55.790-04:00", "updated_at": "2025-07-19T15:24:55.720-04:00", "avatar": "https://secure.gravatar.com/avatar/6add6e5e0c720b7788b4b238f90f1576.jpg?s=512&d=https%3A%2F%2Fa.slack-edge.com%2Fdf10d%2Fimg%2Favatars%2Fava_0017-512.png", "custom_css": null}, {"id": 16058, "slack_id": "U096KPZH6E6", "display_name": "Harun Reha Pako\u011flu", "bio": null, "projects_count": 0, "devlogs_count": 0, "votes_count": 0, "ships_count": 0, "projects": [], "coding_time_seconds": 0, "coding_time_seconds_today": 0, "balance": "You need to have a pocket watcher badge to view this.", "badges": [], "created_at": "2025-07-19T11:31:31.399-04:00", "updated_at": "2025-07-19T15:24:55.808-04:00", "avatar": "https://secure.gravatar.com/avatar/bc18a6ecadb13c29a64e0f64f8b7b142.jpg?s=512&d=https%3A%2F%2Fa.slack-edge.com%2Fdf10d%2Fimg%2Favatars%2Fava_0013-512.png", "custom_css": null}, {"id": 16059, "slack_id": "U08H27FUJTB", "display_name": "Sofia Rosenburg", "bio": null, "projects_count": 2, "devlogs_count": 3, "votes_count": 5, "ships_count": 1, "projects": [{"id": 12507, "title": "Astronomy timeline", "devlogs_count": 1, "created_at": "2025-08-28T15:18:08.471-04:00"}, {"id": 7156, "title": "Space Law", "devlogs_count": 2, "created_at": "2025-07-19T14:40:06.080-04:00"}], "coding_time_seconds": 75665, "coding_time_seconds_today": 0, "balance": "You need to have a pocket watcher badge to view this.", "badges": [{"name": "Maiden Voyage", "text": "you shipped your first project! the journey begins...", "icon": "\ud83d\udea2"}], "created_at": "2025-07-19T11:31:39.792-04:00", "updated_at": "2025-09-10T22:59:04.314-04:00", "avatar": "https://secure.gravatar.com/avatar/e15e9b8e91ade3fd55c0281889bf864d.jpg?s=512&d=https%3A%2F%2Fa.slack-edge.com%2Fdf10d%2Fimg%2Favatars%2Fava_0009-512.png", "custom_css": null}, {"id": 16060, "slack_id": "U0978L4L6QY", "display_name": "Aryan Gore", "bio": null, "projects_count": 0, "devlogs_count": 0, "votes_count": 0, "ships_count": 0, "projects": [], "coding_time_seconds": 0, "coding_time_seconds_today": 0, "balance": "You need to have a pocket watcher badge to view this.", "badges": [], "created_at": "2025-07-19T11:54:02.776-04:00", "updated_at": "2025-07-19T15:24:55.943-04:00", "avatar": "https://avatars.slack-edge.com/2025-07-19/9220609692134_afa77ab684810f9e967d_original.png", "custom_css": null}, {"id": 16061, "slack_id": "U096ZAUHEU9", "display_name": "Nash Vogeltanz", "bio": null, "projects_count": 0, "devlogs_count": 0, "votes_count": 0, "ships_count": 0, "projects": [], "coding_time_seconds": 7175, "coding_time_seconds_today": 0, "balance": "You need to have a pocket watcher badge to view this.", "badges": [], "created_at": "2025-07-19T11:55:12.433-04:00", "updated_at": "2025-07-19T15:24:56.020-04:00", "avatar": "https://secure.gravatar.com/avatar/23ed72c9c0bd70d1fb122958e492400a.jpg?s=512&d=https%3A%2F%2Fa.slack-edge.com%2Fdf10d%2Fimg%2Favatars%2Fava_0014-512.png", "custom_css": null}, {"id": 16062, "slack_id": "U096EPSG78B", "display_name": "Mason Braden", "bio": null, "projects_count": 0, "devlogs_count": 0, "votes_count": 0, "ships_count": 0, "projects": [], "coding_time_seconds": 0, "coding_time_seconds_today": 0, "balance": "You need to have a pocket watcher badge to view this.", "badges": [], "created_at": "2025-07-19T11:55:53.217-04:00", "updated_at": "2025-07-19T15:24:56.105-04:00", "avatar": "https://avatars.slack-edge.com/2025-07-19/9221904863765_49993b9ddf53289f1226_original.jpg", "custom_css": null}, {"id": 16063, "slack_id": "U0978LA8JV6", "display_name": "cael", "bio": null, "projects_count": 0, "devlogs_count": 0, "votes_count": 0, "ships_count": 0, "projects": [], "coding_time_seconds": 0, "coding_time_seconds_today": 0, "balance": "You need to have a pocket watcher badge to view this.", "badges": [], "created_at": "2025-07-19T11:59:49.379-04:00", "updated_at": "2025-07-19T15:24:56.183-04:00", "avatar": "https://secure.gravatar.com/avatar/17978e95f40f830a362bd000360c8506.jpg?s=512&d=https%3A%2F%2Fa.slack-edge.com%2Fdf10d%2Fimg%2Favatars%2Fava_0013-512.png", "custom_css": null}, {"id": 16064, "slack_id": "U096KS1KD0A", "display_name": "Aniket Tank", "bio": null, "projects_count": 0, "devlogs_count": 0, "votes_count": 0, "ships_count": 0, "projects": [], "coding_time_seconds": 0, "coding_time_seconds_today": 0, "balance": "You need to have a pocket watcher badge to view this.", "badges": [], "created_at": "2025-07-19T12:12:50.290-04:00", "updated_at": "2025-07-19T17:40:50.826-04:00", "avatar": "https://secure.gravatar.com/avatar/6fe7e77d1439ce4ece1e049e0acc296e.jpg?s=512&d=https%3A%2F%2Fa.slack-edge.com%2Fdf10d%2Fimg%2Favatars%2Fava_0021-512.png", "custom_css": null}, {"id": 16065, "slack_id": "U09659UEN15", "display_name": "Anika Dande", "bio": null, "projects_count": 0, "devlogs_count": 0, "votes_count": 0, "ships_count": 0, "projects": [], "coding_time_seconds": 0, "coding_time_seconds_today": 0, "balance": "You need to have a pocket watcher badge to view this.", "badges": [], "created_at": "2025-07-19T12:22:17.106-04:00", "updated_at": "2025-07-21T19:47:01.645-04:00", "avatar": "https://secure.gravatar.com/avatar/6c0d52962ed9840ecdf37eb7004abaa3.jpg?s=512&d=https%3A%2F%2Fa.slack-edge.com%2Fdf10d%2Fimg%2Favatars%2Fava_0024-512.png", "custom_css": null}], "pagination": {"page": 799, "pages": 1192, "count": 23828, "items": 20}}