{"users": [{"id": 141, "slack_id": "U06R0A1KHD0", "display_name": "Dhruv Tiwari", "bio": null, "projects_count": 1, "devlogs_count": 1, "votes_count": 1, "ships_count": 0, "projects": [{"id": 8459, "title": "Realr", "devlogs_count": 1, "created_at": "2025-07-27T10:28:07.863-04:00"}], "coding_time_seconds": 364304, "coding_time_seconds_today": 1138, "balance": "You need to have a pocket watcher badge to view this.", "badges": [], "created_at": "2025-06-16T01:42:48.053-04:00", "updated_at": "2025-07-03T19:11:36.717-04:00", "avatar": "https://avatars.slack-edge.com/2025-01-11/8301499075536_de5a40ae331fd37b9b5d_original.png", "custom_css": null}, {"id": 142, "slack_id": "U082GTRTR5X", "display_name": "Cyteon", "bio": "KABOOM", "projects_count": 7, "devlogs_count": 24, "votes_count": 43, "ships_count": 3, "projects": [{"id": 8572, "title": "The Watcher V2", "devlogs_count": 2, "created_at": "2025-07-28T08:11:54.741-04:00"}, {"id": 12375, "title": "Battery Invaders", "devlogs_count": 1, "created_at": "2025-08-26T11:41:38.139-04:00"}, {"id": 2816, "title": "Neobrutalism Svelte", "devlogs_count": 5, "created_at": "2025-06-22T06:21:55.658-04:00"}, {"id": 30, "title": "discord_gleam", "devlogs_count": 7, "created_at": "2025-06-16T03:06:24.258-04:00"}, {"id": 11796, "title": "Plen - Flight Tracking", "devlogs_count": 2, "created_at": "2025-08-19T15:40:13.217-04:00"}, {"id": 4120, "title": "SoM Leaderboard", "devlogs_count": 4, "created_at": "2025-06-27T15:46:25.490-04:00"}, {"id": 4794, "title": "Website Rewrite", "devlogs_count": 3, "created_at": "2025-07-01T14:40:51.556-04:00"}], "coding_time_seconds": 381018, "coding_time_seconds_today": 0, "balance": "You need to have a pocket watcher badge to view this.", "badges": [{"name": "Maiden Voyage", "text": "you shipped your first project! the journey begins...", "icon": "\ud83d\udea2"}], "created_at": "2025-06-16T01:44:08.581-04:00", "updated_at": "2025-09-10T22:51:10.319-04:00", "avatar": "https://avatars.slack-edge.com/2025-04-05/8722129902817_bed15dc712f97108332d_original.png", "custom_css": null}, {"id": 143, "slack_id": "U08T4JQJRJA", "display_name": "Zoe", "bio": "Meow :3", "projects_count": 9, "devlogs_count": 57, "votes_count": 96, "ships_count": 6, "projects": [{"id": 2066, "title": "Decode", "devlogs_count": 3, "created_at": "2025-06-20T03:42:38.136-04:00"}, {"id": 3867, "title": "readitt", "devlogs_count": 4, "created_at": "2025-06-26T04:06:29.968-04:00"}, {"id": 6951, "title": "Neeter Browser", "devlogs_count": 1, "created_at": "2025-07-17T15:04:15.387-04:00"}, {"id": 10958, "title": "Wayline", "devlogs_count": 9, "created_at": "2025-08-12T03:30:26.943-04:00"}, {"id": 12496, "title": "Tail & Ears", "devlogs_count": 1, "created_at": "2025-08-28T11:42:33.065-04:00"}, {"id": 664, "title": "Dimensity", "devlogs_count": 10, "created_at": "2025-06-17T04:33:34.294-04:00"}, {"id": 5280, "title": "Midnight Cabin (v2!!!)", "devlogs_count": 25, "created_at": "2025-07-04T07:02:46.120-04:00"}, {"id": 1392, "title": "RuthArm", "devlogs_count": 0, "created_at": "2025-06-18T13:26:30.111-04:00"}, {"id": 4090, "title": "about://me", "devlogs_count": 4, "created_at": "2025-06-27T12:18:02.274-04:00"}], "coding_time_seconds": 325397, "coding_time_seconds_today": 0, "balance": "You need to have a pocket watcher badge to view this.", "badges": [{"name": "Maiden Voyage", "text": "you shipped your first project! the journey begins...", "icon": "\ud83d\udea2"}, {"name": "Ballot Stuffer", "text": "vote 100 times.", "icon": "https://summer.hackclub.com/assets/i_voted-bf851b48.png"}], "created_at": "2025-06-16T01:51:57.222-04:00", "updated_at": "2025-09-10T22:51:10.362-04:00", "avatar": "https://avatars.slack-edge.com/2025-07-31/9285883784194_b851e6ab9b7bb9a4e7e3_original.png", "custom_css": null}, {"id": 144, "slack_id": "U091L1CNPM0", "display_name": "Niranjan Janardhanan", "bio": null, "projects_count": 2, "devlogs_count": 1, "votes_count": 1, "ships_count": 0, "projects": [{"id": 549, "title": "LiveAuto", "devlogs_count": 0, "created_at": "2025-06-17T00:55:34.545-04:00"}, {"id": 1218, "title": "Diffuser Challenge", "devlogs_count": 1, "created_at": "2025-06-17T23:32:40.052-04:00"}], "coding_time_seconds": 85451, "coding_time_seconds_today": 0, "balance": "You need to have a pocket watcher badge to view this.", "badges": [], "created_at": "2025-06-16T01:54:29.306-04:00", "updated_at": "2025-07-03T19:11:37.547-04:00", "avatar": "https://secure.gravatar.com/avatar/1469fba0f2f1dd7a9c29d1b8a9fcaaff.jpg?s=512&d=https%3A%2F%2Fa.slack-edge.com%2Fdf10d%2Fimg%2Favatars%2Fava_0000-512.png", "custom_css": null}, {"id": 145, "slack_id": "U0842GMRJKC", "display_name": "Hridya", "bio": "", "projects_count": 14, "devlogs_count": 131, "votes_count": 185, "ships_count": 5, "projects": [{"id": 2834, "title": "Undead Courier", "devlogs_count": 0, "created_at": "2025-06-22T07:42:38.480-04:00"}, {"id": 2842, "title": "Memora", "devlogs_count": 0, "created_at": "2025-06-22T08:03:41.458-04:00"}, {"id": 2843, "title": "Cardistry", "devlogs_count": 0, "created_at": "2025-06-22T08:03:58.525-04:00"}, {"id": 2846, "title": "Newster", "devlogs_count": 0, "created_at": "2025-06-22T08:05:13.055-04:00"}, {"id": 4223, "title": "Neurobits", "devlogs_count": 5, "created_at": "2025-06-28T09:24:04.683-04:00"}, {"id": 4232, "title": "Lattice", "devlogs_count": 5, "created_at": "2025-06-28T11:00:11.914-04:00"}, {"id": 10815, "title": "Summer of making PRs", "devlogs_count": 7, "created_at": "2025-08-11T04:23:51.018-04:00"}, {"id": 11151, "title": "Velocity", "devlogs_count": 2, "created_at": "2025-08-13T14:48:12.685-04:00"}, {"id": 12410, "title": "Shiba Utils", "devlogs_count": 5, "created_at": "2025-08-27T04:40:36.009-04:00"}, {"id": 7236, "title": "SOM Utils", "devlogs_count": 78, "created_at": "2025-07-20T08:05:35.715-04:00"}, {"id": 2841, "title": "Deepstride", "devlogs_count": 0, "created_at": "2025-06-22T08:02:52.435-04:00"}, {"id": 7554, "title": "Optimize", "devlogs_count": 4, "created_at": "2025-07-22T05:05:55.301-04:00"}, {"id": 6353, "title": "Commandant", "devlogs_count": 9, "created_at": "2025-07-12T15:58:17.455-04:00"}, {"id": 7832, "title": "Evalico", "devlogs_count": 11, "created_at": "2025-07-23T07:51:11.378-04:00"}], "coding_time_seconds": 1086341, "coding_time_seconds_today": 0, "balance": "You need to have a pocket watcher badge to view this.", "badges": [{"name": "Maiden Voyage", "text": "you shipped your first project! the journey begins...", "icon": "\ud83d\udea2"}, {"name": "Ballot Stuffer", "text": "vote 100 times.", "icon": "https://summer.hackclub.com/assets/i_voted-bf851b48.png"}, {"name": "Yapper I", "text": "Posted 10 comments on devlogs.", "icon": "\ud83d\udcac"}], "created_at": "2025-06-16T01:54:33.850-04:00", "updated_at": "2025-09-19T12:00:25.900-04:00", "avatar": "https://secure.gravatar.com/avatar/5b54a7a1c2382dea03b98bd77e571f92.jpg?s=512&d=https%3A%2F%2Fa.slack-edge.com%2Fdf10d%2Fimg%2Favatars%2Fava_0014-512.png", "custom_css": null}, {"id": 146, "slack_id": "U0914KE9GP9", "display_name": "e", "bio": null, "projects_count": 0, "devlogs_count": 0, "votes_count": 0, "ships_count": 0, "projects": [], "coding_time_seconds": 0, "coding_time_seconds_today": 0, "balance": "You need to have a pocket watcher badge to view this.", "badges": [], "created_at": "2025-06-16T01:58:29.726-04:00", "updated_at": "2025-07-03T19:11:38.087-04:00", "avatar": "https://secure.gravatar.com/avatar/983e8c13396392ab0c0a5cd92e5c5ab4.jpg?s=512&d=https%3A%2F%2Fa.slack-edge.com%2Fdf10d%2Fimg%2Favatars%2Fava_0006-512.png", "custom_css": null}, {"id": 147, "slack_id": "U078H10Q3MZ", "display_name": "Tuinboon", "bio": null, "projects_count": 0, "devlogs_count": 0, "votes_count": 0, "ships_count": 0, "projects": [], "coding_time_seconds": 42551, "coding_time_seconds_today": 0, "balance": "You need to have a pocket watcher badge to view this.", "badges": [], "created_at": "2025-06-16T02:00:47.314-04:00", "updated_at": "2025-07-03T19:11:38.410-04:00", "avatar": "https://avatars.slack-edge.com/2024-06-17/7282519858262_55a31b7f62a8072ec52d_original.jpg", "custom_css": null}, {"id": 148, "slack_id": "U07V5RDRSL8", "display_name": "Codelife", "bio": null, "projects_count": 0, "devlogs_count": 0, "votes_count": 0, "ships_count": 0, "projects": [], "coding_time_seconds": 102188, "coding_time_seconds_today": 0, "balance": "You need to have a pocket watcher badge to view this.", "badges": [], "created_at": "2025-06-16T02:05:39.988-04:00", "updated_at": "2025-09-05T13:17:12.162-04:00", "avatar": "https://secure.gravatar.com/avatar/697f7988670b06978b63c83c52468eed.jpg?s=512&d=https%3A%2F%2Fa.slack-edge.com%2Fdf10d%2Fimg%2Favatars%2Fava_0025-512.png", "custom_css": null}, {"id": 149, "slack_id": "U0928JF6M96", "display_name": "meow", "bio": null, "projects_count": 0, "devlogs_count": 0, "votes_count": 0, "ships_count": 0, "projects": [], "coding_time_seconds": 0, "coding_time_seconds_today": 0, "balance": "You need to have a pocket watcher badge to view this.", "badges": [], "created_at": "2025-06-16T02:10:57.654-04:00", "updated_at": "2025-07-03T19:11:38.986-04:00", "avatar": "https://secure.gravatar.com/avatar/fc598649b7cd40f5fd28fc5b4d52af82.jpg?s=512&d=https%3A%2F%2Fa.slack-edge.com%2Fdf10d%2Fimg%2Favatars%2Fava_0024-512.png", "custom_css": null}, {"id": 150, "slack_id": "U079VBNLTPD", "display_name": "Bartosz", "bio": "A", "projects_count": 2, "devlogs_count": 2, "votes_count": 23, "ships_count": 1, "projects": [{"id": 12237, "title": "Reason", "devlogs_count": 0, "created_at": "2025-08-24T17:19:23.919-04:00"}, {"id": 42, "title": "Fraud department tool", "devlogs_count": 2, "created_at": "2025-06-16T08:02:54.866-04:00"}], "coding_time_seconds": 158720, "coding_time_seconds_today": 0, "balance": "You need to have a pocket watcher badge to view this.", "badges": [{"name": "<%= admin_tool do %>", "text": "with great power comes great responsibility... and a ban hammer.", "icon": "\ud83d\udd28"}, {"name": "Maiden Voyage", "text": "you shipped your first project! the journey begins...", "icon": "\ud83d\udea2"}], "created_at": "2025-06-16T02:12:20.584-04:00", "updated_at": "2025-09-10T22:51:10.546-04:00", "avatar": "https://avatars.slack-edge.com/2025-06-19/9087799420497_c59112a219381d070cac_original.png", "custom_css": null}, {"id": 151, "slack_id": "U07EQJY9YDD", "display_name": "Cyao", "bio": "", "projects_count": 6, "devlogs_count": 72, "votes_count": 111, "ships_count": 5, "projects": [{"id": 1279, "title": "Undercity badges! (Official merch build by Cyao - Undercity organizer)", "devlogs_count": 16, "created_at": "2025-06-18T04:53:29.861-04:00"}, {"id": 2496, "title": "Super simple 3d model", "devlogs_count": 1, "created_at": "2025-06-21T06:30:58.706-04:00"}, {"id": 29, "title": "Icepi Zero - The portable FPGA development board", "devlogs_count": 43, "created_at": "2025-06-16T02:42:40.528-04:00"}, {"id": 3101, "title": "Leptosis - Ultraflat PG1316 split keyboard", "devlogs_count": 9, "created_at": "2025-06-23T05:16:56.860-04:00"}, {"id": 8891, "title": "Animated Loading Screen", "devlogs_count": 2, "created_at": "2025-07-29T15:19:02.785-04:00"}, {"id": 5004, "title": "ESP USB", "devlogs_count": 1, "created_at": "2025-07-02T17:11:16.132-04:00"}], "coding_time_seconds": 1035959, "coding_time_seconds_today": 0, "balance": "You need to have a pocket watcher badge to view this.", "badges": [{"name": "Verified", "text": "this user is verified (i.e. gave us $8)", "icon": "https://summer.hackclub.com/assets/verified-c9457a9f.png"}, {"name": "Maiden Voyage", "text": "you shipped your first project! the journey begins...", "icon": "\ud83d\udea2"}, {"name": "Graphic Design is My Passion", "text": "Oh God How Did This Get Here I Am Not Good With Computer", "icon": "\ud83c\udfa8"}, {"name": "Lived Mas", "text": "you know what you did.", "icon": "https://summer.hackclub.com/assets/bong-2a18e50d.png"}, {"name": "Ballot Stuffer", "text": "vote 100 times.", "icon": "https://summer.hackclub.com/assets/i_voted-bf851b48.png"}], "created_at": "2025-06-16T02:13:21.285-04:00", "updated_at": "2025-09-10T22:51:10.586-04:00", "avatar": "https://avatars.slack-edge.com/2025-08-17/9363788463973_f276d477dbfb3203bf45_original.jpg", "custom_css": ".profile-header {background-color: green;}"}, {"id": 152, "slack_id": "U04FMKCVASJ", "display_name": "marios", "bio": null, "projects_count": 5, "devlogs_count": 8, "votes_count": 17, "ships_count": 1, "projects": [{"id": 5992, "title": "Flappy Bird using XNA Framework", "devlogs_count": 0, "created_at": "2025-07-09T18:42:22.053-04:00"}, {"id": 5995, "title": "PDF Visual Toolkit based on QPDF", "devlogs_count": 6, "created_at": "2025-07-09T19:27:49.763-04:00"}, {"id": 7881, "title": "Hack: Tower Defense", "devlogs_count": 0, "created_at": "2025-07-23T12:16:03.427-04:00"}, {"id": 11222, "title": "Slack Channel Subscription Manager", "devlogs_count": 1, "created_at": "2025-08-14T05:54:18.333-04:00"}, {"id": 11396, "title": "Slack 3Ds", "devlogs_count": 1, "created_at": "2025-08-15T13:11:54.103-04:00"}], "coding_time_seconds": 331758, "coding_time_seconds_today": 0, "balance": "You need to have a pocket watcher badge to view this.", "badges": [{"name": "Maiden Voyage", "text": "you shipped your first project! the journey begins...", "icon": "\ud83d\udea2"}], "created_at": "2025-06-16T02:13:40.560-04:00", "updated_at": "2025-09-10T22:51:10.722-04:00", "avatar": "https://avatars.slack-edge.com/2025-04-01/8673297275879_50c978d677d75ffd2c26_original.png", "custom_css": null}, {"id": 153, "slack_id": "U073M5L9U13", "display_name": "Mish", "bio": "I make stuff, and try to make cool stuff! Currently leaning tRPC, weird JavaScript frameworks, and Rust", "projects_count": 14, "devlogs_count": 47, "votes_count": 90, "ships_count": 5, "projects": [{"id": 156, "title": "Capitalisation Fixes", "devlogs_count": 6, "created_at": "2025-06-16T14:39:24.268-04:00"}, {"id": 2646, "title": "Capitalisation Fixes", "devlogs_count": 0, "created_at": "2025-06-21T14:51:59.545-04:00"}, {"id": 2986, "title": "wackatime-tldraw", "devlogs_count": 2, "created_at": "2025-06-22T16:43:41.404-04:00"}, {"id": 2996, "title": "Statsapp", "devlogs_count": 1, "created_at": "2025-06-22T17:01:52.183-04:00"}, {"id": 3920, "title": "Mish's Marvellous Mapping Machine", "devlogs_count": 1, "created_at": "2025-06-26T10:41:22.394-04:00"}, {"id": 4585, "title": "Hide and Squeak", "devlogs_count": 13, "created_at": "2025-06-30T19:12:02.095-04:00"}, {"id": 5290, "title": "Hack Hub", "devlogs_count": 2, "created_at": "2025-07-04T08:59:53.560-04:00"}, {"id": 11981, "title": "Daydream Watcher", "devlogs_count": 3, "created_at": "2025-08-21T19:48:35.795-04:00"}, {"id": 13515, "title": "Slack canvas exporter", "devlogs_count": 1, "created_at": "2025-09-18T09:53:26.806-04:00"}, {"id": 13307, "title": "GOV.UK watcher", "devlogs_count": 2, "created_at": "2025-09-13T17:23:55.229-04:00"}, {"id": 6359, "title": "C", "devlogs_count": 5, "created_at": "2025-07-12T17:03:11.792-04:00"}, {"id": 9600, "title": "Core watcher", "devlogs_count": 5, "created_at": "2025-08-01T19:27:14.213-04:00"}, {"id": 10250, "title": "Support Watcher", "devlogs_count": 5, "created_at": "2025-08-05T11:29:41.603-04:00"}, {"id": 86, "title": "Paint 2D", "devlogs_count": 1, "created_at": "2025-06-16T12:29:38.730-04:00"}], "coding_time_seconds": 405849, "coding_time_seconds_today": 0, "balance": "You need to have a pocket watcher badge to view this.", "badges": [{"name": "Maiden Voyage", "text": "you shipped your first project! the journey begins...", "icon": "\ud83d\udea2"}], "created_at": "2025-06-16T02:56:30.542-04:00", "updated_at": "2025-09-10T22:51:10.758-04:00", "avatar": "https://avatars.slack-edge.com/2025-06-02/8985528237266_d5f9ec0da853a1155f84_original.png", "custom_css": null}, {"id": 154, "slack_id": "U07FCTJULVD", "display_name": "alarm", "bio": null, "projects_count": 0, "devlogs_count": 0, "votes_count": 0, "ships_count": 0, "projects": [], "coding_time_seconds": 226503, "coding_time_seconds_today": 0, "balance": "You need to have a pocket watcher badge to view this.", "badges": [], "created_at": "2025-06-16T02:58:55.427-04:00", "updated_at": "2025-07-03T19:11:40.344-04:00", "avatar": "https://secure.gravatar.com/avatar/b12b72542146ec8917f2e1bfd4a5eac2.jpg?s=512&d=https%3A%2F%2Fa.slack-edge.com%2Fdf10d%2Fimg%2Favatars%2Fava_0000-512.png", "custom_css": null}, {"id": 155, "slack_id": "U07UK4S94KC", "display_name": "Aarav J", "bio": null, "projects_count": 1, "devlogs_count": 1, "votes_count": 0, "ships_count": 0, "projects": [{"id": 12751, "title": "Groundplane!!", "devlogs_count": 1, "created_at": "2025-09-02T00:27:41.838-04:00"}], "coding_time_seconds": 104008, "coding_time_seconds_today": 0, "balance": "You need to have a pocket watcher badge to view this.", "badges": [{"name": "<%= admin_tool do %>", "text": "with great power comes great responsibility... and a ban hammer.", "icon": "\ud83d\udd28"}], "created_at": "2025-06-16T03:08:19.677-04:00", "updated_at": "2025-09-16T19:58:13.439-04:00", "avatar": "https://avatars.slack-edge.com/2025-09-04/9459559534386_578dd02028fc1d64e569_original.jpg", "custom_css": null}, {"id": 156, "slack_id": "U078Y4EG4PN", "display_name": "isobel-p", "bio": null, "projects_count": 1, "devlogs_count": 0, "votes_count": 0, "ships_count": 0, "projects": [{"id": 4769, "title": "Oscillart", "devlogs_count": 0, "created_at": "2025-07-01T12:33:41.663-04:00"}], "coding_time_seconds": 64893, "coding_time_seconds_today": 0, "balance": "You need to have a pocket watcher badge to view this.", "badges": [], "created_at": "2025-06-16T03:28:15.099-04:00", "updated_at": "2025-08-07T16:09:47.361-04:00", "avatar": "https://avatars.slack-edge.com/2024-09-26/7804027806001_226c40e4b9d94520e591_original.webp", "custom_css": null}, {"id": 157, "slack_id": "U081TQNJ8F9", "display_name": "rvys", "bio": null, "projects_count": 0, "devlogs_count": 32, "votes_count": 32, "ships_count": 0, "projects": [], "coding_time_seconds": 708215, "coding_time_seconds_today": 0, "balance": "You need to have a pocket watcher badge to view this.", "badges": [{"name": "Maiden Voyage", "text": "you shipped your first project! the journey begins...", "icon": "\ud83d\udea2"}, {"name": "Graphic Design is My Passion", "text": "Oh God How Did This Get Here I Am Not Good With Computer", "icon": "\ud83c\udfa8"}], "created_at": "2025-06-16T03:29:49.724-04:00", "updated_at": "2025-09-10T22:51:10.905-04:00", "avatar": "https://avatars.slack-edge.com/2025-07-04/9144290552934_df146699ce88413254fb_original.jpg", "custom_css": null}, {"id": 158, "slack_id": "U06T15XTC2Z", "display_name": "max", "bio": null, "projects_count": 0, "devlogs_count": 0, "votes_count": 0, "ships_count": 0, "projects": [], "coding_time_seconds": 169835, "coding_time_seconds_today": 0, "balance": "You need to have a pocket watcher badge to view this.", "badges": [], "created_at": "2025-06-16T03:36:41.252-04:00", "updated_at": "2025-08-19T08:00:28.696-04:00", "avatar": "https://avatars.slack-edge.com/2025-08-19/9362417824503_c8942c3d3a429bd4e109_original.jpg", "custom_css": null}, {"id": 159, "slack_id": "U082L8CRQ4R", "display_name": "Prabhav", "bio": null, "projects_count": 2, "devlogs_count": 2, "votes_count": 0, "ships_count": 1, "projects": [{"id": 1284, "title": "trohacks: added a sponsor", "devlogs_count": 1, "created_at": "2025-06-18T05:27:18.766-04:00"}, {"id": 3121, "title": "HushWeb", "devlogs_count": 1, "created_at": "2025-06-23T06:45:13.241-04:00"}], "coding_time_seconds": 7259, "coding_time_seconds_today": 0, "balance": "You need to have a pocket watcher badge to view this.", "badges": [{"name": "Maiden Voyage", "text": "you shipped your first project! the journey begins...", "icon": "\ud83d\udea2"}], "created_at": "2025-06-16T03:45:36.642-04:00", "updated_at": "2025-09-10T22:51:10.974-04:00", "avatar": "https://avatars.slack-edge.com/2025-01-03/8242919477954_7e04e14b1886a0edb8bc_original.jpg", "custom_css": null}, {"id": 160, "slack_id": "U07GSGF3Y1L", "display_name": "Afonso", "bio": "", "projects_count": 1, "devlogs_count": 22, "votes_count": 13, "ships_count": 0, "projects": [{"id": 80, "title": "Helpers", "devlogs_count": 23, "created_at": "2025-06-16T12:20:44.867-04:00"}], "coding_time_seconds": 292920, "coding_time_seconds_today": 0, "balance": "You need to have a pocket watcher badge to view this.", "badges": [], "created_at": "2025-06-16T03:55:29.899-04:00", "updated_at": "2025-08-26T20:34:09.430-04:00", "avatar": "https://avatars.slack-edge.com/2025-06-30/9126331353621_3cb0a47672681a8aed87_original.jpg", "custom_css": null}], "pagination": {"page": 8, "pages": 1192, "count": 23827, "items": 20}}