{"users": [{"id": 16066, "slack_id": "U096ZBLTZ97", "display_name": "Shiv", "bio": null, "projects_count": 0, "devlogs_count": 0, "votes_count": 1, "ships_count": 0, "projects": [], "coding_time_seconds": 491, "coding_time_seconds_today": 0, "balance": "You need to have a pocket watcher badge to view this.", "badges": [], "created_at": "2025-07-19T12:23:39.316-04:00", "updated_at": "2025-07-20T17:00:58.477-04:00", "avatar": "https://secure.gravatar.com/avatar/1831cfd40914ff4befac9af1c24cf85d.jpg?s=512&d=https%3A%2F%2Fa.slack-edge.com%2Fdf10d%2Fimg%2Favatars%2Fava_0022-512.png", "custom_css": null}, {"id": 16067, "slack_id": "U0978MKKAN4", "display_name": "Sineth Induwara", "bio": null, "projects_count": 0, "devlogs_count": 0, "votes_count": 0, "ships_count": 0, "projects": [], "coding_time_seconds": 0, "coding_time_seconds_today": 0, "balance": "You need to have a pocket watcher badge to view this.", "badges": [], "created_at": "2025-07-19T12:30:37.451-04:00", "updated_at": "2025-07-20T21:25:20.943-04:00", "avatar": "https://avatars.slack-edge.com/2025-07-21/9224154122821_a7a29e4fba8543b571a1_original.jpg", "custom_css": null}, {"id": 16068, "slack_id": "U07GHQ7R56W", "display_name": "RePlay_260", "bio": null, "projects_count": 1, "devlogs_count": 0, "votes_count": 0, "ships_count": 0, "projects": [{"id": 7223, "title": "MP3 Player", "devlogs_count": 0, "created_at": "2025-07-20T04:01:04.094-04:00"}], "coding_time_seconds": 6492, "coding_time_seconds_today": 0, "balance": "You need to have a pocket watcher badge to view this.", "badges": [], "created_at": "2025-07-19T12:35:40.709-04:00", "updated_at": "2025-07-20T15:24:00.428-04:00", "avatar": "https://avatars.slack-edge.com/2024-08-12/7547285148759_094e68743aa902bc1867_original.png", "custom_css": null}, {"id": 16069, "slack_id": "U0968L1S6DC", "display_name": "TheChadOne", "bio": null, "projects_count": 0, "devlogs_count": 0, "votes_count": 0, "ships_count": 0, "projects": [], "coding_time_seconds": 0, "coding_time_seconds_today": 0, "balance": "You need to have a pocket watcher badge to view this.", "badges": [], "created_at": "2025-07-19T12:55:39.028-04:00", "updated_at": "2025-07-20T15:46:01.959-04:00", "avatar": "https://secure.gravatar.com/avatar/2f09138be76f723b246da7441651ea19.jpg?s=512&d=https%3A%2F%2Fa.slack-edge.com%2Fdf10d%2Fimg%2Favatars%2Fava_0021-512.png", "custom_css": null}, {"id": 16070, "slack_id": "U096LV2GTA8", "display_name": "Devin", "bio": null, "projects_count": 2, "devlogs_count": 1, "votes_count": 9, "ships_count": 1, "projects": [{"id": 7164, "title": "Basic Genetics Tool", "devlogs_count": 0, "created_at": "2025-07-19T15:28:13.384-04:00"}, {"id": 10745, "title": "Python Genetics Tool", "devlogs_count": 1, "created_at": "2025-08-10T10:21:29.986-04:00"}], "coding_time_seconds": 19104, "coding_time_seconds_today": 0, "balance": "You need to have a pocket watcher badge to view this.", "badges": [{"name": "Maiden Voyage", "text": "you shipped your first project! the journey begins...", "icon": "\ud83d\udea2"}], "created_at": "2025-07-19T12:56:14.024-04:00", "updated_at": "2025-09-10T22:59:04.692-04:00", "avatar": "https://secure.gravatar.com/avatar/5ac9822b3fa311cc5659c060e6f7e582.jpg?s=512&d=https%3A%2F%2Fa.slack-edge.com%2Fdf10d%2Fimg%2Favatars%2Fava_0001-512.png", "custom_css": null}, {"id": 16071, "slack_id": "U0978NKEK5W", "display_name": "Prabhanjan", "bio": null, "projects_count": 0, "devlogs_count": 0, "votes_count": 0, "ships_count": 0, "projects": [], "coding_time_seconds": 0, "coding_time_seconds_today": 0, "balance": "You need to have a pocket watcher badge to view this.", "badges": [], "created_at": "2025-07-19T12:56:56.935-04:00", "updated_at": "2025-07-19T15:25:00.972-04:00", "avatar": "https://secure.gravatar.com/avatar/5502943e2b4502e766520eeb6c369ae3.jpg?s=512&d=https%3A%2F%2Fa.slack-edge.com%2Fdf10d%2Fimg%2Favatars%2Fava_0020-512.png", "custom_css": null}, {"id": 16072, "slack_id": "U096KU9HC66", "display_name": "kushal49", "bio": null, "projects_count": 0, "devlogs_count": 0, "votes_count": 0, "ships_count": 0, "projects": [], "coding_time_seconds": 27337, "coding_time_seconds_today": 0, "balance": "You need to have a pocket watcher badge to view this.", "badges": [], "created_at": "2025-07-19T13:05:07.851-04:00", "updated_at": "2025-07-19T15:25:01.058-04:00", "avatar": "https://secure.gravatar.com/avatar/ae31e2696e3ae774cf91f2885ef02fcc.jpg?s=512&d=https%3A%2F%2Fa.slack-edge.com%2Fdf10d%2Fimg%2Favatars%2Fava_0017-512.png", "custom_css": null}, {"id": 16073, "slack_id": "U0965D006HM", "display_name": "Yarne Meuris", "bio": "", "projects_count": 2, "devlogs_count": 8, "votes_count": 18, "ships_count": 1, "projects": [{"id": 13094, "title": "mini launchpad", "devlogs_count": 3, "created_at": "2025-09-08T12:53:03.201-04:00"}, {"id": 7176, "title": "guess the smurf", "devlogs_count": 5, "created_at": "2025-07-19T16:29:12.083-04:00"}], "coding_time_seconds": 208386, "coding_time_seconds_today": 0, "balance": "You need to have a pocket watcher badge to view this.", "badges": [{"name": "Maiden Voyage", "text": "you shipped your first project! the journey begins...", "icon": "\ud83d\udea2"}], "created_at": "2025-07-19T13:38:09.521-04:00", "updated_at": "2025-09-10T22:59:04.774-04:00", "avatar": "https://secure.gravatar.com/avatar/84ac949b0a0ce3a3350c9b196f09aaea.jpg?s=512&d=https%3A%2F%2Fa.slack-edge.com%2Fdf10d%2Fimg%2Favatars%2Fava_0011-512.png", "custom_css": null}, {"id": 16074, "slack_id": "U096ZFGQB3K", "display_name": "Aakash Vishnuvarth", "bio": null, "projects_count": 0, "devlogs_count": 0, "votes_count": 0, "ships_count": 0, "projects": [], "coding_time_seconds": 0, "coding_time_seconds_today": 0, "balance": "You need to have a pocket watcher badge to view this.", "badges": [], "created_at": "2025-07-19T13:44:02.383-04:00", "updated_at": "2025-07-19T15:25:01.237-04:00", "avatar": "https://avatars.slack-edge.com/2025-07-19/9218978515763_c2396f8d3907a1b9d90c_original.jpg", "custom_css": null}, {"id": 16075, "slack_id": "U0978QLDXS4", "display_name": "Emil Hakala", "bio": null, "projects_count": 1, "devlogs_count": 20, "votes_count": 75, "ships_count": 1, "projects": [{"id": 7172, "title": "Among Pale Limbs", "devlogs_count": 20, "created_at": "2025-07-19T15:59:03.547-04:00"}], "coding_time_seconds": 123230, "coding_time_seconds_today": 0, "balance": "You need to have a pocket watcher badge to view this.", "badges": [{"name": "Maiden Voyage", "text": "you shipped your first project! the journey begins...", "icon": "\ud83d\udea2"}], "created_at": "2025-07-19T13:48:05.748-04:00", "updated_at": "2025-09-10T22:59:04.834-04:00", "avatar": "https://avatars.slack-edge.com/2025-07-19/9246842421040_ff52e3e14d76c5242722_original.jpg", "custom_css": null}, {"id": 16076, "slack_id": "U0828FGUYCC", "display_name": "Anu", "bio": null, "projects_count": 0, "devlogs_count": 0, "votes_count": 0, "ships_count": 0, "projects": [], "coding_time_seconds": 76, "coding_time_seconds_today": 0, "balance": "You need to have a pocket watcher badge to view this.", "badges": [], "created_at": "2025-07-19T13:49:03.565-04:00", "updated_at": "2025-07-19T15:25:01.407-04:00", "avatar": "https://secure.gravatar.com/avatar/72b2a2a41249344feacdfbd4dbfb5528.jpg?s=512&d=https%3A%2F%2Fa.slack-edge.com%2Fdf10d%2Fimg%2Favatars%2Fava_0000-512.png", "custom_css": null}, {"id": 16077, "slack_id": "U09654NJ9N3", "display_name": "D-Jay", "bio": "", "projects_count": 0, "devlogs_count": 0, "votes_count": 0, "ships_count": 0, "projects": [], "coding_time_seconds": 0, "coding_time_seconds_today": 0, "balance": "You need to have a pocket watcher badge to view this.", "badges": [], "created_at": "2025-07-19T13:56:10.517-04:00", "updated_at": "2025-07-19T15:25:01.496-04:00", "avatar": "https://avatars.slack-edge.com/2025-07-19/9224059231442_fb9231b3da0c7f89cba2_original.png", "custom_css": null}, {"id": 16078, "slack_id": "U096ZG0MCC9", "display_name": "nil2002", "bio": null, "projects_count": 1, "devlogs_count": 0, "votes_count": 0, "ships_count": 0, "projects": [{"id": 7154, "title": "AI Agent for a company ", "devlogs_count": 0, "created_at": "2025-07-19T14:24:53.307-04:00"}], "coding_time_seconds": 185317, "coding_time_seconds_today": 0, "balance": "You need to have a pocket watcher badge to view this.", "badges": [], "created_at": "2025-07-19T14:00:00.684-04:00", "updated_at": "2025-07-20T07:05:10.558-04:00", "avatar": "https://secure.gravatar.com/avatar/2c65e168f0bd5af203e9c7aaef57e8c3.jpg?s=512&d=https%3A%2F%2Fa.slack-edge.com%2Fdf10d%2Fimg%2Favatars%2Fava_0009-512.png", "custom_css": null}, {"id": 16079, "slack_id": "U0978Q5ST8Q", "display_name": "Silas Meneux", "bio": null, "projects_count": 0, "devlogs_count": 0, "votes_count": 2, "ships_count": 0, "projects": [], "coding_time_seconds": 436, "coding_time_seconds_today": 0, "balance": "You need to have a pocket watcher badge to view this.", "badges": [], "created_at": "2025-07-19T14:01:49.151-04:00", "updated_at": "2025-07-19T16:19:07.996-04:00", "avatar": "https://secure.gravatar.com/avatar/0bae98a89deeb6a5eb9faeb8c616834c.jpg?s=512&d=https%3A%2F%2Fa.slack-edge.com%2Fdf10d%2Fimg%2Favatars%2Fava_0019-512.png", "custom_css": null}, {"id": 16080, "slack_id": "U092PAFHN9F", "display_name": "Ankit", "bio": null, "projects_count": 0, "devlogs_count": 0, "votes_count": 0, "ships_count": 0, "projects": [], "coding_time_seconds": 0, "coding_time_seconds_today": 0, "balance": "You need to have a pocket watcher badge to view this.", "badges": [], "created_at": "2025-07-19T14:03:58.131-04:00", "updated_at": "2025-07-22T21:25:05.162-04:00", "avatar": "https://avatars.slack-edge.com/2025-07-23/9232503282035_49fc9324706965ec6841_original.jpg", "custom_css": null}, {"id": 16081, "slack_id": "U0978S67108", "display_name": "Aditya Tripathi", "bio": "Just Building the things I want to use !\r\n\r\nHigh school student from India | Founder of VibeCode \u2014 a cloud\u2011native AI IDE that turns ideas into running code in minutes | Also developing an assistive device that enables blind users to \u201csee\u201d & navigate the world independently.", "projects_count": 1, "devlogs_count": 0, "votes_count": 1, "ships_count": 1, "projects": [{"id": 7337, "title": "Blind Sight", "devlogs_count": 0, "created_at": "2025-07-21T03:27:18.118-04:00"}], "coding_time_seconds": 14381, "coding_time_seconds_today": 0, "balance": "You need to have a pocket watcher badge to view this.", "badges": [{"name": "Maiden Voyage", "text": "you shipped your first project! the journey begins...", "icon": "\ud83d\udea2"}], "created_at": "2025-07-19T14:30:32.368-04:00", "updated_at": "2025-09-10T22:59:05.113-04:00", "avatar": "https://secure.gravatar.com/avatar/28423d7ce3a6713bea88df1bf421645b.jpg?s=512&d=https%3A%2F%2Fa.slack-edge.com%2Fdf10d%2Fimg%2Favatars%2Fava_0004-512.png", "custom_css": null}, {"id": 16082, "slack_id": "U081P3Q6YHM", "display_name": "Caleb Kitt", "bio": null, "projects_count": 0, "devlogs_count": 0, "votes_count": 0, "ships_count": 0, "projects": [], "coding_time_seconds": 0, "coding_time_seconds_today": 0, "balance": "You need to have a pocket watcher badge to view this.", "badges": [], "created_at": "2025-07-19T14:35:58.943-04:00", "updated_at": "2025-07-19T14:36:57.961-04:00", "avatar": "https://secure.gravatar.com/avatar/601ce809424ae350addbd2c56d6593c9.jpg?s=512&d=https%3A%2F%2Fa.slack-edge.com%2Fdf10d%2Fimg%2Favatars%2Fava_0025-512.png", "custom_css": null}, {"id": 16083, "slack_id": "U0978SETQ56", "display_name": "Lucy", "bio": null, "projects_count": 0, "devlogs_count": 0, "votes_count": 0, "ships_count": 0, "projects": [], "coding_time_seconds": 0, "coding_time_seconds_today": 0, "balance": "You need to have a pocket watcher badge to view this.", "badges": [], "created_at": "2025-07-19T14:37:57.056-04:00", "updated_at": "2025-07-19T15:25:06.079-04:00", "avatar": "https://secure.gravatar.com/avatar/a1ac04001f0c04bb0e1720770bd14639.jpg?s=512&d=https%3A%2F%2Fa.slack-edge.com%2Fdf10d%2Fimg%2Favatars%2Fava_0011-512.png", "custom_css": null}, {"id": 16084, "slack_id": "U0965FHNYMV", "display_name": "Hack Cat", "bio": null, "projects_count": 1, "devlogs_count": 4, "votes_count": 10, "ships_count": 0, "projects": [{"id": 8432, "title": "Password Manager", "devlogs_count": 4, "created_at": "2025-07-27T04:04:29.727-04:00"}], "coding_time_seconds": 55034, "coding_time_seconds_today": 0, "balance": "You need to have a pocket watcher badge to view this.", "badges": [], "created_at": "2025-07-19T14:38:53.945-04:00", "updated_at": "2025-07-25T10:05:02.493-04:00", "avatar": "https://secure.gravatar.com/avatar/63b91f7c615e512d76c4128bb25151f6.jpg?s=512&d=https%3A%2F%2Fa.slack-edge.com%2Fdf10d%2Fimg%2Favatars%2Fava_0011-512.png", "custom_css": null}, {"id": 16085, "slack_id": "U0978U7A68G", "display_name": "Pro gamer Yat", "bio": null, "projects_count": 0, "devlogs_count": 0, "votes_count": 0, "ships_count": 0, "projects": [], "coding_time_seconds": 0, "coding_time_seconds_today": 0, "balance": "You need to have a pocket watcher badge to view this.", "badges": [], "created_at": "2025-07-19T15:25:18.743-04:00", "updated_at": "2025-09-14T10:04:46.599-04:00", "avatar": "https://avatars.slack-edge.com/2025-07-19/9222210205333_eff78263db0cab291f0b_original.png", "custom_css": null}], "pagination": {"page": 800, "pages": 1192, "count": 23828, "items": 20}}