{"users": [{"id": 16086, "slack_id": "U096L7CLUCS", "display_name": "Daud", "bio": null, "projects_count": 2, "devlogs_count": 1, "votes_count": 3, "ships_count": 1, "projects": [{"id": 7764, "title": "I hate when i can find files  - Solving Desktop Chaos", "devlogs_count": 0, "created_at": "2025-07-22T23:13:40.461-04:00"}, {"id": 11744, "title": "Drone swarms are used for taking life how about we reverse that ", "devlogs_count": 1, "created_at": "2025-08-19T04:06:38.805-04:00"}], "coding_time_seconds": 70453, "coding_time_seconds_today": 0, "balance": "You need to have a pocket watcher badge to view this.", "badges": [{"name": "Maiden Voyage", "text": "you shipped your first project! the journey begins...", "icon": "\ud83d\udea2"}], "created_at": "2025-07-19T16:29:02.057-04:00", "updated_at": "2025-09-10T22:59:05.266-04:00", "avatar": "https://secure.gravatar.com/avatar/9aca137c2b5698f432eeb94bb23b88c1.jpg?s=512&d=https%3A%2F%2Fa.slack-edge.com%2Fdf10d%2Fimg%2Favatars%2Fava_0008-512.png", "custom_css": null}, {"id": 16087, "slack_id": "U09778P1HQQ", "display_name": "Grace Ji", "bio": null, "projects_count": 0, "devlogs_count": 0, "votes_count": 0, "ships_count": 0, "projects": [], "coding_time_seconds": 0, "coding_time_seconds_today": 0, "balance": "You need to have a pocket watcher badge to view this.", "badges": [], "created_at": "2025-07-19T16:46:12.709-04:00", "updated_at": "2025-07-20T03:25:30.703-04:00", "avatar": "https://avatars.slack-edge.com/2025-07-19/9209705339559_1e498f30a34f8957d9d8_original.jpg", "custom_css": null}, {"id": 16088, "slack_id": "U096F8AECR1", "display_name": "Arnav Gyanani", "bio": null, "projects_count": 1, "devlogs_count": 2, "votes_count": 0, "ships_count": 1, "projects": [{"id": 7402, "title": "One Hour Left", "devlogs_count": 2, "created_at": "2025-07-21T16:15:27.048-04:00"}], "coding_time_seconds": 96707, "coding_time_seconds_today": 0, "balance": "You need to have a pocket watcher badge to view this.", "badges": [{"name": "Maiden Voyage", "text": "you shipped your first project! the journey begins...", "icon": "\ud83d\udea2"}], "created_at": "2025-07-19T17:27:06.245-04:00", "updated_at": "2025-09-10T22:59:05.330-04:00", "avatar": "https://secure.gravatar.com/avatar/2d101be9015264af710c8b6a2e80c7e4.jpg?s=512&d=https%3A%2F%2Fa.slack-edge.com%2Fdf10d%2Fimg%2Favatars%2Fava_0016-512.png", "custom_css": null}, {"id": 16089, "slack_id": "U096MHW1FEY", "display_name": "Aiden Buchanan", "bio": null, "projects_count": 0, "devlogs_count": 0, "votes_count": 0, "ships_count": 0, "projects": [], "coding_time_seconds": 0, "coding_time_seconds_today": 0, "balance": "You need to have a pocket watcher badge to view this.", "badges": [], "created_at": "2025-07-19T18:09:33.128-04:00", "updated_at": "2025-07-20T09:30:24.316-04:00", "avatar": "https://secure.gravatar.com/avatar/6d5b0131de51f429d71cc9cf79c722aa.jpg?s=512&d=https%3A%2F%2Fa.slack-edge.com%2Fdf10d%2Fimg%2Favatars%2Fava_0017-512.png", "custom_css": null}, {"id": 16090, "slack_id": "U0965QBHJA3", "display_name": "Samik Mookherjee", "bio": null, "projects_count": 1, "devlogs_count": 0, "votes_count": 0, "ships_count": 0, "projects": [{"id": 7185, "title": "Kenney Jam 2025", "devlogs_count": 0, "created_at": "2025-07-19T19:01:57.603-04:00"}], "coding_time_seconds": 26424, "coding_time_seconds_today": 0, "balance": "You need to have a pocket watcher badge to view this.", "badges": [], "created_at": "2025-07-19T18:28:12.384-04:00", "updated_at": "2025-08-28T15:53:32.605-04:00", "avatar": "https://secure.gravatar.com/avatar/360431b3914fc7e2b79d4a6defc426ca.jpg?s=512&d=https%3A%2F%2Fa.slack-edge.com%2Fdf10d%2Fimg%2Favatars%2Fava_0021-512.png", "custom_css": null}, {"id": 16091, "slack_id": "U097957BWV6", "display_name": "Zach", "bio": "NZ, Sometimes making something ", "projects_count": 0, "devlogs_count": 1, "votes_count": 0, "ships_count": 0, "projects": [], "coding_time_seconds": 824059, "coding_time_seconds_today": 0, "balance": "You need to have a pocket watcher badge to view this.", "badges": [], "created_at": "2025-07-19T18:30:25.303-04:00", "updated_at": "2025-07-25T09:45:19.644-04:00", "avatar": "https://secure.gravatar.com/avatar/97f3f85d34e53bc981b2302f6dafddd6.jpg?s=512&d=https%3A%2F%2Fa.slack-edge.com%2Fdf10d%2Fimg%2Favatars%2Fava_0019-512.png", "custom_css": null}, {"id": 16092, "slack_id": "U096FBAG3FV", "display_name": "james o'sullivan", "bio": null, "projects_count": 0, "devlogs_count": 0, "votes_count": 0, "ships_count": 0, "projects": [], "coding_time_seconds": 272, "coding_time_seconds_today": 0, "balance": "You need to have a pocket watcher badge to view this.", "badges": [], "created_at": "2025-07-19T18:47:01.431-04:00", "updated_at": "2025-07-20T07:29:46.023-04:00", "avatar": "https://secure.gravatar.com/avatar/4a312240918acbea5fed2abe4ea7c1ac.jpg?s=512&d=https%3A%2F%2Fa.slack-edge.com%2Fdf10d%2Fimg%2Favatars%2Fava_0006-512.png", "custom_css": null}, {"id": 16093, "slack_id": "U096JQF7VQU", "display_name": "BooleanBunny14", "bio": null, "projects_count": 0, "devlogs_count": 0, "votes_count": 0, "ships_count": 0, "projects": [], "coding_time_seconds": 186449, "coding_time_seconds_today": 0, "balance": "You need to have a pocket watcher badge to view this.", "badges": [], "created_at": "2025-07-19T19:11:45.649-04:00", "updated_at": "2025-07-20T03:25:31.236-04:00", "avatar": "https://secure.gravatar.com/avatar/020115739d2791c1426fe1c1bc274e8c.jpg?s=512&d=https%3A%2F%2Fa.slack-edge.com%2Fdf10d%2Fimg%2Favatars%2Fava_0004-512.png", "custom_css": null}, {"id": 16094, "slack_id": "U096MMSBD36", "display_name": "Rusty", "bio": null, "projects_count": 0, "devlogs_count": 0, "votes_count": 0, "ships_count": 0, "projects": [], "coding_time_seconds": 0, "coding_time_seconds_today": 0, "balance": "You need to have a pocket watcher badge to view this.", "badges": [], "created_at": "2025-07-19T19:29:16.164-04:00", "updated_at": "2025-07-20T03:25:31.340-04:00", "avatar": "https://secure.gravatar.com/avatar/21a36bd5c7846d002ad96515f5764108.jpg?s=512&d=https%3A%2F%2Fa.slack-edge.com%2Fdf10d%2Fimg%2Favatars%2Fava_0009-512.png", "custom_css": null}, {"id": 16095, "slack_id": "U096ZUYQKDX", "display_name": "Aly Elnahas", "bio": null, "projects_count": 0, "devlogs_count": 0, "votes_count": 0, "ships_count": 0, "projects": [], "coding_time_seconds": 0, "coding_time_seconds_today": 0, "balance": "You need to have a pocket watcher badge to view this.", "badges": [], "created_at": "2025-07-19T19:40:56.435-04:00", "updated_at": "2025-07-20T03:25:31.412-04:00", "avatar": "https://avatars.slack-edge.com/2025-07-19/9247269829008_07cd59a7809a4c2d0ae5_original.png", "custom_css": null}, {"id": 16096, "slack_id": "U096FE8LAD9", "display_name": "HIAM", "bio": null, "projects_count": 0, "devlogs_count": 0, "votes_count": 0, "ships_count": 0, "projects": [], "coding_time_seconds": 9918, "coding_time_seconds_today": 0, "balance": "You need to have a pocket watcher badge to view this.", "badges": [], "created_at": "2025-07-19T20:08:16.580-04:00", "updated_at": "2025-07-23T02:39:20.262-04:00", "avatar": "https://secure.gravatar.com/avatar/32cccbc5996f1b2c5909ec4050db3375.jpg?s=512&d=https%3A%2F%2Fa.slack-edge.com%2Fdf10d%2Fimg%2Favatars%2Fava_0007-512.png", "custom_css": null}, {"id": 16097, "slack_id": "U09701S9JCR", "display_name": "Ruibo", "bio": null, "projects_count": 2, "devlogs_count": 0, "votes_count": 0, "ships_count": 0, "projects": [{"id": 7211, "title": "Hungry Hamsters board game sim for future ai training", "devlogs_count": 0, "created_at": "2025-07-20T00:36:50.126-04:00"}, {"id": 10523, "title": "Project type learning", "devlogs_count": 0, "created_at": "2025-08-07T19:39:17.362-04:00"}], "coding_time_seconds": 4210, "coding_time_seconds_today": 0, "balance": "You need to have a pocket watcher badge to view this.", "badges": [], "created_at": "2025-07-19T20:40:36.498-04:00", "updated_at": "2025-08-07T14:09:26.461-04:00", "avatar": "https://secure.gravatar.com/avatar/fd5683ac899794656208fd2d191c092d.jpg?s=512&d=https%3A%2F%2Fa.slack-edge.com%2Fdf10d%2Fimg%2Favatars%2Fava_0001-512.png", "custom_css": null}, {"id": 16098, "slack_id": "U0965V5TJLF", "display_name": "Aanya", "bio": null, "projects_count": 0, "devlogs_count": 0, "votes_count": 0, "ships_count": 0, "projects": [], "coding_time_seconds": 0, "coding_time_seconds_today": 0, "balance": "You need to have a pocket watcher badge to view this.", "badges": [], "created_at": "2025-07-19T20:42:47.273-04:00", "updated_at": "2025-07-20T03:25:31.674-04:00", "avatar": "https://secure.gravatar.com/avatar/6165817828439a107a85397fd07550f7.jpg?s=512&d=https%3A%2F%2Fa.slack-edge.com%2Fdf10d%2Fimg%2Favatars%2Fava_0011-512.png", "custom_css": null}, {"id": 16099, "slack_id": "U096HAM5Z0W", "display_name": "Brayan Ace", "bio": null, "projects_count": 0, "devlogs_count": 0, "votes_count": 0, "ships_count": 0, "projects": [], "coding_time_seconds": 14282, "coding_time_seconds_today": 0, "balance": "You need to have a pocket watcher badge to view this.", "badges": [], "created_at": "2025-07-19T20:45:15.198-04:00", "updated_at": "2025-07-20T03:25:35.809-04:00", "avatar": "https://secure.gravatar.com/avatar/481e70bac7fb95dda8d01e216b393734.jpg?s=512&d=https%3A%2F%2Fa.slack-edge.com%2Fdf10d%2Fimg%2Favatars%2Fava_0017-512.png", "custom_css": null}, {"id": 16100, "slack_id": "U096JKAL7M3", "display_name": "Miint", "bio": null, "projects_count": 0, "devlogs_count": 0, "votes_count": 0, "ships_count": 0, "projects": [], "coding_time_seconds": 0, "coding_time_seconds_today": 0, "balance": "You need to have a pocket watcher badge to view this.", "badges": [], "created_at": "2025-07-19T20:57:53.171-04:00", "updated_at": "2025-07-20T03:25:35.902-04:00", "avatar": "https://secure.gravatar.com/avatar/2ebba30ee7ea62f31ed37f1551774857.jpg?s=512&d=https%3A%2F%2Fa.slack-edge.com%2Fdf10d%2Fimg%2Favatars%2Fava_0000-512.png", "custom_css": null}, {"id": 16101, "slack_id": "U09662RBE7R", "display_name": "Osamede Agho", "bio": null, "projects_count": 0, "devlogs_count": 0, "votes_count": 0, "ships_count": 0, "projects": [], "coding_time_seconds": 0, "coding_time_seconds_today": 0, "balance": "You need to have a pocket watcher badge to view this.", "badges": [], "created_at": "2025-07-19T22:02:33.383-04:00", "updated_at": "2025-07-20T03:25:36.040-04:00", "avatar": "https://secure.gravatar.com/avatar/48f41257bb53a75912c85130dd2c204b.jpg?s=512&d=https%3A%2F%2Fa.slack-edge.com%2Fdf10d%2Fimg%2Favatars%2Fava_0003-512.png", "custom_css": null}, {"id": 16102, "slack_id": "U096FKTK2LT", "display_name": "balls", "bio": null, "projects_count": 0, "devlogs_count": 0, "votes_count": 0, "ships_count": 0, "projects": [], "coding_time_seconds": 0, "coding_time_seconds_today": 0, "balance": "You need to have a pocket watcher badge to view this.", "badges": [], "created_at": "2025-07-19T22:34:58.054-04:00", "updated_at": "2025-07-20T03:25:36.126-04:00", "avatar": "https://avatars.slack-edge.com/2025-07-19/9210139778583_34c2714366173f6ca01b_original.png", "custom_css": null}, {"id": 16103, "slack_id": "U096649F25D", "display_name": "ChenYue", "bio": null, "projects_count": 1, "devlogs_count": 3, "votes_count": 0, "ships_count": 1, "projects": [{"id": 7227, "title": "Better ShinHer project", "devlogs_count": 3, "created_at": "2025-07-20T06:16:17.692-04:00"}], "coding_time_seconds": 15236, "coding_time_seconds_today": 0, "balance": "You need to have a pocket watcher badge to view this.", "badges": [{"name": "Maiden Voyage", "text": "you shipped your first project! the journey begins...", "icon": "\ud83d\udea2"}], "created_at": "2025-07-19T22:45:02.708-04:00", "updated_at": "2025-09-10T22:59:05.845-04:00", "avatar": "https://secure.gravatar.com/avatar/4a248b69d97b4ade658a4382d90446cc.jpg?s=512&d=https%3A%2F%2Fa.slack-edge.com%2Fdf10d%2Fimg%2Favatars%2Fava_0020-512.png", "custom_css": null}, {"id": 16104, "slack_id": "U0979G021K2", "display_name": "mackcreator", "bio": null, "projects_count": 0, "devlogs_count": 0, "votes_count": 0, "ships_count": 0, "projects": [], "coding_time_seconds": 0, "coding_time_seconds_today": 0, "balance": "You need to have a pocket watcher badge to view this.", "badges": [], "created_at": "2025-07-19T23:34:35.692-04:00", "updated_at": "2025-07-20T14:39:04.154-04:00", "avatar": "https://secure.gravatar.com/avatar/7640a8a2351d092dc07b91d07a48983e.jpg?s=512&d=https%3A%2F%2Fa.slack-edge.com%2Fdf10d%2Fimg%2Favatars%2Fava_0015-512.png", "custom_css": null}, {"id": 16105, "slack_id": "U097089RQMP", "display_name": "Aarav", "bio": null, "projects_count": 0, "devlogs_count": 20, "votes_count": 18, "ships_count": 0, "projects": [], "coding_time_seconds": 417595, "coding_time_seconds_today": 0, "balance": "You need to have a pocket watcher badge to view this.", "badges": [{"name": "Maiden Voyage", "text": "you shipped your first project! the journey begins...", "icon": "\ud83d\udea2"}], "created_at": "2025-07-19T23:41:46.044-04:00", "updated_at": "2025-09-10T22:59:05.903-04:00", "avatar": "https://secure.gravatar.com/avatar/6242e6571edeb0683135abece4e59de5.jpg?s=512&d=https%3A%2F%2Fa.slack-edge.com%2Fdf10d%2Fimg%2Favatars%2Fava_0018-512.png", "custom_css": null}], "pagination": {"page": 801, "pages": 1192, "count": 23828, "items": 20}}