{"users": [{"id": 16106, "slack_id": "U096LQE4WD8", "display_name": "thomas", "bio": null, "projects_count": 0, "devlogs_count": 0, "votes_count": 0, "ships_count": 0, "projects": [], "coding_time_seconds": 147216, "coding_time_seconds_today": 0, "balance": "You need to have a pocket watcher badge to view this.", "badges": [], "created_at": "2025-07-19T23:50:10.736-04:00", "updated_at": "2025-07-20T03:25:36.507-04:00", "avatar": "https://secure.gravatar.com/avatar/5e60beec493f13a429bd770a70d8e85d.jpg?s=512&d=https%3A%2F%2Fa.slack-edge.com%2Fdf10d%2Fimg%2Favatars%2Fava_0022-512.png", "custom_css": null}, {"id": 16107, "slack_id": "U096N2KPJKW", "display_name": "EBENEZER S CSE", "bio": null, "projects_count": 0, "devlogs_count": 0, "votes_count": 0, "ships_count": 0, "projects": [], "coding_time_seconds": 0, "coding_time_seconds_today": 0, "balance": "You need to have a pocket watcher badge to view this.", "badges": [], "created_at": "2025-07-20T00:00:40.210-04:00", "updated_at": "2025-07-20T03:25:36.597-04:00", "avatar": "https://avatars.slack-edge.com/2025-07-19/9222897559637_897cad7f33db83b6a958_original.png", "custom_css": null}, {"id": 16108, "slack_id": "U096L7T2YQ2", "display_name": "Monset Estevez", "bio": null, "projects_count": 0, "devlogs_count": 0, "votes_count": 0, "ships_count": 0, "projects": [], "coding_time_seconds": 0, "coding_time_seconds_today": 0, "balance": "You need to have a pocket watcher badge to view this.", "badges": [], "created_at": "2025-07-20T00:32:27.414-04:00", "updated_at": "2025-07-20T14:39:04.356-04:00", "avatar": "https://secure.gravatar.com/avatar/d3225b2df7c5c662781d4db7b5804bfc.jpg?s=512&d=https%3A%2F%2Fa.slack-edge.com%2Fdf10d%2Fimg%2Favatars%2Fava_0000-512.png", "custom_css": null}, {"id": 16109, "slack_id": "U096JTH7JS1", "display_name": "Ujjawal", "bio": null, "projects_count": 0, "devlogs_count": 0, "votes_count": 0, "ships_count": 0, "projects": [], "coding_time_seconds": 0, "coding_time_seconds_today": 0, "balance": "You need to have a pocket watcher badge to view this.", "badges": [], "created_at": "2025-07-20T00:33:07.998-04:00", "updated_at": "2025-07-20T03:25:36.765-04:00", "avatar": "https://secure.gravatar.com/avatar/410efb693758d86c2a11dc5473d866e3.jpg?s=512&d=https%3A%2F%2Fa.slack-edge.com%2Fdf10d%2Fimg%2Favatars%2Fava_0007-512.png", "custom_css": null}, {"id": 16110, "slack_id": "U0979HGQTDE", "display_name": "Komi", "bio": null, "projects_count": 0, "devlogs_count": 0, "votes_count": 0, "ships_count": 0, "projects": [], "coding_time_seconds": 0, "coding_time_seconds_today": 0, "balance": "You need to have a pocket watcher badge to view this.", "badges": [], "created_at": "2025-07-20T00:33:52.295-04:00", "updated_at": "2025-07-21T03:26:01.850-04:00", "avatar": "https://avatars.slack-edge.com/2025-07-21/9222575521238_a625511bfa209975d61a_original.png", "custom_css": null}, {"id": 16111, "slack_id": "U096N432XT6", "display_name": "unique", "bio": "I am a passionate MERN Stack Developer who loves coding and constantly learning new skills.\r\nMy expertise includes:\r\n\u270c\ufe0fMERN (MongoDB, Express, React, Node.js)\r\n\u270c\ufe0fFrontend: HTML, CSS, JavaScript,Tailwind CSS, Bootstrap\r\n\u270c\ufe0fBackend & APIs: PHP, Laravel, RESTful APIs\r\n\u270c\ufe0fDatabases: PostgreSQL, MongoDB, MySQL\r\nI enjoy building real-world projects and sharing my code on GitHub. I am always eager to grow and contribute to scalable and efficient web applications.", "projects_count": 0, "devlogs_count": 0, "votes_count": 0, "ships_count": 0, "projects": [], "coding_time_seconds": 0, "coding_time_seconds_today": 0, "balance": "You need to have a pocket watcher badge to view this.", "badges": [], "created_at": "2025-07-20T00:41:56.623-04:00", "updated_at": "2025-07-20T03:25:36.924-04:00", "avatar": "https://secure.gravatar.com/avatar/b68ddba654dd2dcf136dd3f3cd832a1e.jpg?s=512&d=https%3A%2F%2Fa.slack-edge.com%2Fdf10d%2Fimg%2Favatars%2Fava_0024-512.png", "custom_css": null}, {"id": 16112, "slack_id": "U096HMS1LP8", "display_name": "Nick", "bio": null, "projects_count": 0, "devlogs_count": 0, "votes_count": 0, "ships_count": 0, "projects": [], "coding_time_seconds": 0, "coding_time_seconds_today": 0, "balance": "You need to have a pocket watcher badge to view this.", "badges": [], "created_at": "2025-07-20T01:14:51.048-04:00", "updated_at": "2025-07-20T03:25:36.998-04:00", "avatar": "https://secure.gravatar.com/avatar/233d6964cbbee85cf00c3c72c7385e37.jpg?s=512&d=https%3A%2F%2Fa.slack-edge.com%2Fdf10d%2Fimg%2Favatars%2Fava_0007-512.png", "custom_css": null}, {"id": 16113, "slack_id": "U096DHV4QLT", "display_name": "Paul", "bio": null, "projects_count": 0, "devlogs_count": 0, "votes_count": 0, "ships_count": 0, "projects": [], "coding_time_seconds": 0, "coding_time_seconds_today": 0, "balance": "You need to have a pocket watcher badge to view this.", "badges": [], "created_at": "2025-07-20T01:43:56.076-04:00", "updated_at": "2025-07-20T03:25:37.075-04:00", "avatar": "https://secure.gravatar.com/avatar/110b9260b797c055c1f027648dab7b76.jpg?s=512&d=https%3A%2F%2Fa.slack-edge.com%2Fdf10d%2Fimg%2Favatars%2Fava_0003-512.png", "custom_css": null}, {"id": 16114, "slack_id": "U0979M6G6MN", "display_name": "AbdulAzeez", "bio": null, "projects_count": 0, "devlogs_count": 0, "votes_count": 0, "ships_count": 0, "projects": [], "coding_time_seconds": 120, "coding_time_seconds_today": 0, "balance": "You need to have a pocket watcher badge to view this.", "badges": [], "created_at": "2025-07-20T02:07:47.484-04:00", "updated_at": "2025-07-25T13:27:33.293-04:00", "avatar": "https://secure.gravatar.com/avatar/5232994cd29072f47a483621a5a0b060.jpg?s=512&d=https%3A%2F%2Fa.slack-edge.com%2Fdf10d%2Fimg%2Favatars%2Fava_0017-512.png", "custom_css": null}, {"id": 16115, "slack_id": "U0979NS82KA", "display_name": "Jacinta", "bio": null, "projects_count": 0, "devlogs_count": 0, "votes_count": 0, "ships_count": 0, "projects": [], "coding_time_seconds": 39859, "coding_time_seconds_today": 0, "balance": "You need to have a pocket watcher badge to view this.", "badges": [], "created_at": "2025-07-20T02:53:30.320-04:00", "updated_at": "2025-07-20T03:25:37.234-04:00", "avatar": "https://secure.gravatar.com/avatar/16a36a21447ab21330acca04aa74e495.jpg?s=512&d=https%3A%2F%2Fa.slack-edge.com%2Fdf10d%2Fimg%2Favatars%2Fava_0012-512.png", "custom_css": null}, {"id": 16116, "slack_id": "U096HSE3UKY", "display_name": "Jaydev Parmar", "bio": null, "projects_count": 0, "devlogs_count": 0, "votes_count": 0, "ships_count": 0, "projects": [], "coding_time_seconds": 26, "coding_time_seconds_today": 0, "balance": "You need to have a pocket watcher badge to view this.", "badges": [], "created_at": "2025-07-20T03:11:42.913-04:00", "updated_at": "2025-08-03T08:16:18.985-04:00", "avatar": "https://avatars.slack-edge.com/2025-07-20/9238549316913_9e71f0fc5667eb533328_original.png", "custom_css": null}, {"id": 16117, "slack_id": "U07A2UV8R55", "display_name": "LucasPK", "bio": null, "projects_count": 0, "devlogs_count": 0, "votes_count": 1, "ships_count": 0, "projects": [], "coding_time_seconds": 22154, "coding_time_seconds_today": 0, "balance": "You need to have a pocket watcher badge to view this.", "badges": [], "created_at": "2025-07-20T03:31:09.015-04:00", "updated_at": "2025-07-21T06:25:00.405-04:00", "avatar": "https://secure.gravatar.com/avatar/7a34468dd8e506c4c4240e592fb0b72b.jpg?s=512&d=https%3A%2F%2Fa.slack-edge.com%2Fdf10d%2Fimg%2Favatars%2Fava_0013-512.png", "custom_css": null}, {"id": 16118, "slack_id": "U0979QKS2C8", "display_name": "Zach Latta", "bio": null, "projects_count": 0, "devlogs_count": 0, "votes_count": 0, "ships_count": 0, "projects": [], "coding_time_seconds": 0, "coding_time_seconds_today": 0, "balance": "You need to have a pocket watcher badge to view this.", "badges": [], "created_at": "2025-07-20T03:44:53.164-04:00", "updated_at": "2025-07-20T09:25:19.967-04:00", "avatar": "https://secure.gravatar.com/avatar/ca6f51551c6e8f653e553de89227fcf6.jpg?s=512&d=https%3A%2F%2Fa.slack-edge.com%2Fdf10d%2Fimg%2Favatars%2Fava_0006-512.png", "custom_css": null}, {"id": 16119, "slack_id": "U04GV7XQ10F", "display_name": "Rishiiiiii", "bio": null, "projects_count": 0, "devlogs_count": 0, "votes_count": 0, "ships_count": 0, "projects": [], "coding_time_seconds": 0, "coding_time_seconds_today": 0, "balance": "You need to have a pocket watcher badge to view this.", "badges": [], "created_at": "2025-07-20T03:59:53.272-04:00", "updated_at": "2025-09-09T10:11:29.975-04:00", "avatar": "https://avatars.slack-edge.com/2025-07-20/9226400744116_ba8438de89671c2729a2_original.jpg", "custom_css": null}, {"id": 16120, "slack_id": "U0966G6G08P", "display_name": "Mystical Gud", "bio": null, "projects_count": 0, "devlogs_count": 0, "votes_count": 0, "ships_count": 0, "projects": [], "coding_time_seconds": 0, "coding_time_seconds_today": 0, "balance": "You need to have a pocket watcher badge to view this.", "badges": [], "created_at": "2025-07-20T04:22:51.679-04:00", "updated_at": "2025-07-31T11:34:59.412-04:00", "avatar": "https://avatars.slack-edge.com/2025-07-20/9225194633026_5ef9c9679afad16fa2af_original.png", "custom_css": null}, {"id": 16121, "slack_id": "U0979S8HX6U", "display_name": "Ellis", "bio": null, "projects_count": 0, "devlogs_count": 0, "votes_count": 0, "ships_count": 0, "projects": [], "coding_time_seconds": 3661, "coding_time_seconds_today": 0, "balance": "You need to have a pocket watcher badge to view this.", "badges": [], "created_at": "2025-07-20T04:29:51.841-04:00", "updated_at": "2025-07-20T09:25:20.228-04:00", "avatar": "https://secure.gravatar.com/avatar/901d8b45ffa78db4fe6ae02c3f6815bb.jpg?s=512&d=https%3A%2F%2Fa.slack-edge.com%2Fdf10d%2Fimg%2Favatars%2Fava_0004-512.png", "custom_css": null}, {"id": 16122, "slack_id": "U096M677KKL", "display_name": "60itamas", "bio": null, "projects_count": 2, "devlogs_count": 1, "votes_count": 1, "ships_count": 0, "projects": [{"id": 9803, "title": "Bank-O-Poly", "devlogs_count": 0, "created_at": "2025-08-02T10:31:23.768-04:00"}, {"id": 10654, "title": "Dignitas", "devlogs_count": 1, "created_at": "2025-08-09T10:29:07.066-04:00"}], "coding_time_seconds": 93896, "coding_time_seconds_today": 0, "balance": "You need to have a pocket watcher badge to view this.", "badges": [], "created_at": "2025-07-20T04:41:40.647-04:00", "updated_at": "2025-08-09T10:19:10.421-04:00", "avatar": "https://secure.gravatar.com/avatar/e4da3c190d55720138467501963df893.jpg?s=512&d=https%3A%2F%2Fa.slack-edge.com%2Fdf10d%2Fimg%2Favatars%2Fava_0005-512.png", "custom_css": null}, {"id": 16123, "slack_id": "U08DKTU2QRL", "display_name": "Ava Grace", "bio": null, "projects_count": 0, "devlogs_count": 0, "votes_count": 0, "ships_count": 0, "projects": [], "coding_time_seconds": 16553, "coding_time_seconds_today": 0, "balance": "You need to have a pocket watcher badge to view this.", "badges": [], "created_at": "2025-07-20T04:54:30.897-04:00", "updated_at": "2025-09-10T09:24:47.219-04:00", "avatar": "https://avatars.slack-edge.com/2025-09-10/9489667903923_74cb11d60960f3b673ef_original.jpg", "custom_css": null}, {"id": 16124, "slack_id": "U096K93F7JR", "display_name": "Abilash", "bio": null, "projects_count": 0, "devlogs_count": 0, "votes_count": 0, "ships_count": 0, "projects": [], "coding_time_seconds": 0, "coding_time_seconds_today": 0, "balance": "You need to have a pocket watcher badge to view this.", "badges": [], "created_at": "2025-07-20T05:19:47.297-04:00", "updated_at": "2025-07-20T14:39:05.098-04:00", "avatar": "https://secure.gravatar.com/avatar/b4e8f0e3a84dfabef88f2cabb5ec08f1.jpg?s=512&d=https%3A%2F%2Fa.slack-edge.com%2Fdf10d%2Fimg%2Favatars%2Fava_0020-512.png", "custom_css": null}, {"id": 16125, "slack_id": "U09791KC4EL", "display_name": "S vm", "bio": null, "projects_count": 0, "devlogs_count": 0, "votes_count": 0, "ships_count": 0, "projects": [], "coding_time_seconds": 0, "coding_time_seconds_today": 0, "balance": "You need to have a pocket watcher badge to view this.", "badges": [], "created_at": "2025-07-20T05:28:39.610-04:00", "updated_at": "2025-07-20T09:25:20.526-04:00", "avatar": "https://avatars.slack-edge.com/2025-07-20/9238732032353_836ea882f612bee62501_original.png", "custom_css": null}], "pagination": {"page": 802, "pages": 1192, "count": 23828, "items": 20}}