{"users": [{"id": 16126, "slack_id": "U096KBU0GLD", "display_name": "sawan Nayak", "bio": null, "projects_count": 0, "devlogs_count": 0, "votes_count": 0, "ships_count": 0, "projects": [], "coding_time_seconds": 0, "coding_time_seconds_today": 0, "balance": "You need to have a pocket watcher badge to view this.", "badges": [], "created_at": "2025-07-20T06:31:43.168-04:00", "updated_at": "2025-07-20T09:25:20.607-04:00", "avatar": "https://secure.gravatar.com/avatar/ab74dbc8faeafc5a8e43708b0861168e.jpg?s=512&d=https%3A%2F%2Fa.slack-edge.com%2Fdf10d%2Fimg%2Favatars%2Fava_0007-512.png", "custom_css": null}, {"id": 16127, "slack_id": "U096NJGCB9A", "display_name": "Alvin Alford", "bio": null, "projects_count": 2, "devlogs_count": 12, "votes_count": 51, "ships_count": 1, "projects": [{"id": 8697, "title": "Sunshine Trails: A Summer Adventure", "devlogs_count": 0, "created_at": "2025-07-29T00:06:04.924-04:00"}, {"id": 7313, "title": "Nova A web story", "devlogs_count": 12, "created_at": "2025-07-20T20:49:51.846-04:00"}], "coding_time_seconds": 90788, "coding_time_seconds_today": 0, "balance": "You need to have a pocket watcher badge to view this.", "badges": [{"name": "Maiden Voyage", "text": "you shipped your first project! the journey begins...", "icon": "\ud83d\udea2"}, {"name": "Spider", "text": "this user has a pet!", "icon": "\ud83d\udd77\ufe0f"}, {"name": "Graphic Design is My Passion", "text": "Oh God How Did This Get Here I Am Not Good With Computer", "icon": "\ud83c\udfa8"}], "created_at": "2025-07-20T06:49:56.006-04:00", "updated_at": "2025-09-10T22:59:06.527-04:00", "avatar": "https://secure.gravatar.com/avatar/21635dbfc36a7937a3706f9698b18b07.jpg?s=512&d=https%3A%2F%2Fa.slack-edge.com%2Fdf10d%2Fimg%2Favatars%2Fava_0006-512.png", "custom_css": null}, {"id": 16128, "slack_id": "U096G8US0Q3", "display_name": "Bhuwan Saretia", "bio": null, "projects_count": 0, "devlogs_count": 0, "votes_count": 0, "ships_count": 0, "projects": [], "coding_time_seconds": 0, "coding_time_seconds_today": 0, "balance": "You need to have a pocket watcher badge to view this.", "badges": [], "created_at": "2025-07-20T07:01:39.143-04:00", "updated_at": "2025-08-03T01:18:37.632-04:00", "avatar": "https://avatars.slack-edge.com/2025-07-20/9220334389187_4f45f40ebfc45efa2362_original.jpg", "custom_css": null}, {"id": 16129, "slack_id": "U096MDJ6M6E", "display_name": "Shaurya Vikram singh", "bio": null, "projects_count": 0, "devlogs_count": 0, "votes_count": 0, "ships_count": 0, "projects": [], "coding_time_seconds": 0, "coding_time_seconds_today": 0, "balance": "You need to have a pocket watcher badge to view this.", "badges": [], "created_at": "2025-07-20T07:52:38.233-04:00", "updated_at": "2025-07-20T09:25:24.871-04:00", "avatar": "https://secure.gravatar.com/avatar/cac01944425fd44c49f18390dffef09d.jpg?s=512&d=https%3A%2F%2Fa.slack-edge.com%2Fdf10d%2Fimg%2Favatars%2Fava_0011-512.png", "custom_css": null}, {"id": 16130, "slack_id": "U096MDLQ798", "display_name": "Pusterr", "bio": null, "projects_count": 0, "devlogs_count": 0, "votes_count": 0, "ships_count": 0, "projects": [], "coding_time_seconds": 0, "coding_time_seconds_today": 0, "balance": "You need to have a pocket watcher badge to view this.", "badges": [], "created_at": "2025-07-20T07:53:54.863-04:00", "updated_at": "2025-07-20T09:25:24.956-04:00", "avatar": "https://secure.gravatar.com/avatar/c648788d80b6724fab69099d81025e4a.jpg?s=512&d=https%3A%2F%2Fa.slack-edge.com%2Fdf10d%2Fimg%2Favatars%2Fava_0003-512.png", "custom_css": null}, {"id": 16131, "slack_id": "U096GD63TK5", "display_name": "haikeyi", "bio": null, "projects_count": 0, "devlogs_count": 0, "votes_count": 0, "ships_count": 0, "projects": [], "coding_time_seconds": 88048, "coding_time_seconds_today": 0, "balance": "You need to have a pocket watcher badge to view this.", "badges": [], "created_at": "2025-07-20T08:13:03.944-04:00", "updated_at": "2025-07-20T14:39:05.416-04:00", "avatar": "https://avatars.slack-edge.com/2025-07-20/9210855510215_d3f3d8cd038f2cff9c15_original.png", "custom_css": null}, {"id": 16132, "slack_id": "U096KHEQD0D", "display_name": "Benjamin Carroll", "bio": null, "projects_count": 0, "devlogs_count": 0, "votes_count": 0, "ships_count": 0, "projects": [], "coding_time_seconds": 0, "coding_time_seconds_today": 0, "balance": "You need to have a pocket watcher badge to view this.", "badges": [], "created_at": "2025-07-20T08:48:00.444-04:00", "updated_at": "2025-07-20T09:25:25.129-04:00", "avatar": "https://secure.gravatar.com/avatar/196ab1ca6d052c081d8d8972a2cd0cec.jpg?s=512&d=https%3A%2F%2Fa.slack-edge.com%2Fdf10d%2Fimg%2Favatars%2Fava_0005-512.png", "custom_css": null}, {"id": 16133, "slack_id": "U096NQKKW6Q", "display_name": "Pravashar Sangroula", "bio": null, "projects_count": 0, "devlogs_count": 0, "votes_count": 0, "ships_count": 0, "projects": [], "coding_time_seconds": 0, "coding_time_seconds_today": 0, "balance": "You need to have a pocket watcher badge to view this.", "badges": [], "created_at": "2025-07-20T09:18:49.843-04:00", "updated_at": "2025-07-20T09:25:25.203-04:00", "avatar": "https://secure.gravatar.com/avatar/b19681729de7aef31aa0670239a0cf08.jpg?s=512&d=https%3A%2F%2Fa.slack-edge.com%2Fdf10d%2Fimg%2Favatars%2Fava_0013-512.png", "custom_css": null}, {"id": 16134, "slack_id": "U09712FDF5X", "display_name": "keerthibalan g", "bio": null, "projects_count": 0, "devlogs_count": 0, "votes_count": 0, "ships_count": 0, "projects": [], "coding_time_seconds": 0, "coding_time_seconds_today": 0, "balance": "You need to have a pocket watcher badge to view this.", "badges": [], "created_at": "2025-07-20T09:53:37.998-04:00", "updated_at": "2025-07-20T21:25:45.661-04:00", "avatar": "https://secure.gravatar.com/avatar/b8b2ce23da9c4493a0765b874594ef40.jpg?s=512&d=https%3A%2F%2Fa.slack-edge.com%2Fdf10d%2Fimg%2Favatars%2Fava_0010-512.png", "custom_css": null}, {"id": 16135, "slack_id": "U0966V33TSB", "display_name": "SHIV", "bio": null, "projects_count": 0, "devlogs_count": 0, "votes_count": 0, "ships_count": 0, "projects": [], "coding_time_seconds": 0, "coding_time_seconds_today": 0, "balance": "You need to have a pocket watcher badge to view this.", "badges": [], "created_at": "2025-07-20T09:58:25.455-04:00", "updated_at": "2025-07-20T21:25:45.739-04:00", "avatar": "https://secure.gravatar.com/avatar/82a5902f3b237e05a81731ce4916cc1a.jpg?s=512&d=https%3A%2F%2Fa.slack-edge.com%2Fdf10d%2Fimg%2Favatars%2Fava_0025-512.png", "custom_css": null}, {"id": 16136, "slack_id": "U096NT470H2", "display_name": "Logerys", "bio": null, "projects_count": 0, "devlogs_count": 0, "votes_count": 0, "ships_count": 0, "projects": [], "coding_time_seconds": 0, "coding_time_seconds_today": 0, "balance": "You need to have a pocket watcher badge to view this.", "badges": [], "created_at": "2025-07-20T10:16:18.843-04:00", "updated_at": "2025-07-20T21:25:45.819-04:00", "avatar": "https://secure.gravatar.com/avatar/3244ca6191040bb433d49b186bc7c0db.jpg?s=512&d=https%3A%2F%2Fa.slack-edge.com%2Fdf10d%2Fimg%2Favatars%2Fava_0008-512.png", "custom_css": null}, {"id": 16137, "slack_id": "U096GJM216F", "display_name": "Adam Nguyen", "bio": null, "projects_count": 1, "devlogs_count": 1, "votes_count": 6, "ships_count": 1, "projects": [{"id": 7789, "title": "My 3x3+1 Macropad", "devlogs_count": 1, "created_at": "2025-07-23T03:48:03.569-04:00"}], "coding_time_seconds": 2241, "coding_time_seconds_today": 0, "balance": "You need to have a pocket watcher badge to view this.", "badges": [{"name": "Maiden Voyage", "text": "you shipped your first project! the journey begins...", "icon": "\ud83d\udea2"}], "created_at": "2025-07-20T10:22:49.689-04:00", "updated_at": "2025-09-10T22:59:06.770-04:00", "avatar": "https://secure.gravatar.com/avatar/267cb098593b4a109d4b02946de574f5.jpg?s=512&d=https%3A%2F%2Fa.slack-edge.com%2Fdf10d%2Fimg%2Favatars%2Fava_0018-512.png", "custom_css": null}, {"id": 16138, "slack_id": "U08NY2HEZ45", "display_name": "Lone Warrior", "bio": null, "projects_count": 0, "devlogs_count": 0, "votes_count": 0, "ships_count": 0, "projects": [], "coding_time_seconds": 0, "coding_time_seconds_today": 0, "balance": "You need to have a pocket watcher badge to view this.", "badges": [], "created_at": "2025-07-20T10:33:46.943-04:00", "updated_at": "2025-07-20T14:39:05.822-04:00", "avatar": "https://avatars.slack-edge.com/2025-04-21/8780121384453_94a5c62a3970a0cb8652_original.jpg", "custom_css": null}, {"id": 16139, "slack_id": "U09714P7S73", "display_name": "ed", "bio": null, "projects_count": 0, "devlogs_count": 0, "votes_count": 0, "ships_count": 0, "projects": [], "coding_time_seconds": 0, "coding_time_seconds_today": 0, "balance": "You need to have a pocket watcher badge to view this.", "badges": [], "created_at": "2025-07-20T10:47:30.114-04:00", "updated_at": "2025-07-20T21:25:46.043-04:00", "avatar": "https://secure.gravatar.com/avatar/cdc9b5ab91702f6c94797c4c8ec38e4a.jpg?s=512&d=https%3A%2F%2Fa.slack-edge.com%2Fdf10d%2Fimg%2Favatars%2Fava_0019-512.png", "custom_css": null}, {"id": 16140, "slack_id": "U096JGVRKPG", "display_name": "Seiya", "bio": null, "projects_count": 0, "devlogs_count": 0, "votes_count": 0, "ships_count": 0, "projects": [], "coding_time_seconds": 8806, "coding_time_seconds_today": 0, "balance": "You need to have a pocket watcher badge to view this.", "badges": [], "created_at": "2025-07-20T10:51:47.308-04:00", "updated_at": "2025-07-20T21:25:46.124-04:00", "avatar": "https://secure.gravatar.com/avatar/14da8ca5f33ca276836fb38ff9b965c6.jpg?s=512&d=https%3A%2F%2Fa.slack-edge.com%2Fdf10d%2Fimg%2Favatars%2Fava_0020-512.png", "custom_css": null}, {"id": 16141, "slack_id": "U07A8VB2J2X", "display_name": "Landon Bayer", "bio": null, "projects_count": 0, "devlogs_count": 0, "votes_count": 0, "ships_count": 0, "projects": [], "coding_time_seconds": 0, "coding_time_seconds_today": 0, "balance": "You need to have a pocket watcher badge to view this.", "badges": [], "created_at": "2025-07-20T10:56:01.126-04:00", "updated_at": "2025-07-20T10:56:07.758-04:00", "avatar": "https://avatars.slack-edge.com/2024-07-07/7371070498775_406a2c8b05330b4ef0da_original.png", "custom_css": null}, {"id": 16142, "slack_id": "U092E6UATPX", "display_name": "Athulya", "bio": null, "projects_count": 0, "devlogs_count": 0, "votes_count": 0, "ships_count": 0, "projects": [], "coding_time_seconds": 0, "coding_time_seconds_today": 0, "balance": "You need to have a pocket watcher badge to view this.", "badges": [], "created_at": "2025-07-20T11:51:14.930-04:00", "updated_at": "2025-07-20T21:25:46.265-04:00", "avatar": "https://secure.gravatar.com/avatar/009a7050bdd9afc46d1e4f760a5e2531.jpg?s=512&d=https%3A%2F%2Fa.slack-edge.com%2Fdf10d%2Fimg%2Favatars%2Fava_0019-512.png", "custom_css": null}, {"id": 16143, "slack_id": "U09717QS89F", "display_name": "Piyush Garg", "bio": null, "projects_count": 0, "devlogs_count": 0, "votes_count": 0, "ships_count": 0, "projects": [], "coding_time_seconds": 0, "coding_time_seconds_today": 0, "balance": "You need to have a pocket watcher badge to view this.", "badges": [], "created_at": "2025-07-20T12:00:49.051-04:00", "updated_at": "2025-07-20T21:25:46.343-04:00", "avatar": "https://secure.gravatar.com/avatar/a38c221d670f5b7a050d93e9339096ec.jpg?s=512&d=https%3A%2F%2Fa.slack-edge.com%2Fdf10d%2Fimg%2Favatars%2Fava_0025-512.png", "custom_css": null}, {"id": 16144, "slack_id": "U09208K28G7", "display_name": "mamo", "bio": null, "projects_count": 0, "devlogs_count": 0, "votes_count": 0, "ships_count": 0, "projects": [], "coding_time_seconds": 0, "coding_time_seconds_today": 0, "balance": "You need to have a pocket watcher badge to view this.", "badges": [], "created_at": "2025-07-20T12:04:31.865-04:00", "updated_at": "2025-07-20T21:25:46.418-04:00", "avatar": "https://secure.gravatar.com/avatar/5d029377d96ea438c96e7b2585c06dc7.jpg?s=512&d=https%3A%2F%2Fa.slack-edge.com%2Fdf10d%2Fimg%2Favatars%2Fava_0006-512.png", "custom_css": null}, {"id": 16145, "slack_id": "U0915TRKB6U", "display_name": "Emma", "bio": "", "projects_count": 3, "devlogs_count": 5, "votes_count": 5, "ships_count": 1, "projects": [{"id": 7391, "title": "meowImages", "devlogs_count": 0, "created_at": "2025-07-21T14:22:26.602-04:00"}, {"id": 12068, "title": "HealthChanger", "devlogs_count": 1, "created_at": "2025-08-22T16:28:44.575-04:00"}, {"id": 7345, "title": "meow bot", "devlogs_count": 4, "created_at": "2025-07-21T05:16:00.786-04:00"}], "coding_time_seconds": 13563, "coding_time_seconds_today": 0, "balance": "You need to have a pocket watcher badge to view this.", "badges": [{"name": "Maiden Voyage", "text": "you shipped your first project! the journey begins...", "icon": "\ud83d\udea2"}], "created_at": "2025-07-20T12:08:10.975-04:00", "updated_at": "2025-09-10T22:59:07.090-04:00", "avatar": "https://avatars.slack-edge.com/2025-08-22/9386298870163_62bd786767041a7421e4_original.png", "custom_css": null}], "pagination": {"page": 803, "pages": 1192, "count": 23828, "items": 20}}