{"users": [{"id": 16146, "slack_id": "U0929H9D3GB", "display_name": "Shantanu", "bio": null, "projects_count": 0, "devlogs_count": 0, "votes_count": 0, "ships_count": 0, "projects": [], "coding_time_seconds": 0, "coding_time_seconds_today": 0, "balance": "You need to have a pocket watcher badge to view this.", "badges": [], "created_at": "2025-07-20T12:15:05.208-04:00", "updated_at": "2025-07-20T21:25:50.614-04:00", "avatar": "https://secure.gravatar.com/avatar/d15835d28158eee9fe2d381155e838a9.jpg?s=512&d=https%3A%2F%2Fa.slack-edge.com%2Fdf10d%2Fimg%2Favatars%2Fava_0001-512.png", "custom_css": null}, {"id": 16147, "slack_id": "U09718MNH3K", "display_name": "Coby Williams", "bio": null, "projects_count": 0, "devlogs_count": 0, "votes_count": 0, "ships_count": 0, "projects": [], "coding_time_seconds": 0, "coding_time_seconds_today": 0, "balance": "You need to have a pocket watcher badge to view this.", "badges": [], "created_at": "2025-07-20T12:25:30.446-04:00", "updated_at": "2025-07-20T21:25:50.703-04:00", "avatar": "https://secure.gravatar.com/avatar/af2fb4469f01f45d5b688a3d8abc2920.jpg?s=512&d=https%3A%2F%2Fa.slack-edge.com%2Fdf10d%2Fimg%2Favatars%2Fava_0022-512.png", "custom_css": null}, {"id": 16148, "slack_id": "U096KSY7C05", "display_name": "Joo", "bio": null, "projects_count": 0, "devlogs_count": 0, "votes_count": 0, "ships_count": 0, "projects": [], "coding_time_seconds": 0, "coding_time_seconds_today": 0, "balance": "You need to have a pocket watcher badge to view this.", "badges": [], "created_at": "2025-07-20T12:27:35.763-04:00", "updated_at": "2025-07-20T21:25:50.787-04:00", "avatar": "https://avatars.slack-edge.com/2025-07-20/9223929007029_d48bd7992ce348dbe4d6_original.png", "custom_css": null}, {"id": 16149, "slack_id": "U09295QHBV4", "display_name": "Saksham", "bio": null, "projects_count": 0, "devlogs_count": 0, "votes_count": 0, "ships_count": 0, "projects": [], "coding_time_seconds": 0, "coding_time_seconds_today": 0, "balance": "You need to have a pocket watcher badge to view this.", "badges": [], "created_at": "2025-07-20T12:58:06.973-04:00", "updated_at": "2025-07-20T21:25:50.876-04:00", "avatar": "https://secure.gravatar.com/avatar/631230f102583140ea2cedddbe4f0248.jpg?s=512&d=https%3A%2F%2Fa.slack-edge.com%2Fdf10d%2Fimg%2Favatars%2Fava_0013-512.png", "custom_css": null}, {"id": 16150, "slack_id": "U092U2Z2WLR", "display_name": "Chinmay J", "bio": null, "projects_count": 0, "devlogs_count": 0, "votes_count": 0, "ships_count": 0, "projects": [], "coding_time_seconds": 0, "coding_time_seconds_today": 0, "balance": "You need to have a pocket watcher badge to view this.", "badges": [], "created_at": "2025-07-20T13:01:59.768-04:00", "updated_at": "2025-07-20T21:25:50.967-04:00", "avatar": "https://secure.gravatar.com/avatar/8f7e657ac39e531f3e8d6b9e69809b19.jpg?s=512&d=https%3A%2F%2Fa.slack-edge.com%2Fdf10d%2Fimg%2Favatars%2Fava_0020-512.png", "custom_css": null}, {"id": 16151, "slack_id": "U096KQFESSZ", "display_name": "Alex", "bio": null, "projects_count": 0, "devlogs_count": 0, "votes_count": 0, "ships_count": 0, "projects": [], "coding_time_seconds": 0, "coding_time_seconds_today": 0, "balance": "You need to have a pocket watcher badge to view this.", "badges": [], "created_at": "2025-07-20T13:11:59.446-04:00", "updated_at": "2025-07-20T21:25:51.061-04:00", "avatar": "https://secure.gravatar.com/avatar/874f629ff990b605cd7acd7355d1a9dc.jpg?s=512&d=https%3A%2F%2Fa.slack-edge.com%2Fdf10d%2Fimg%2Favatars%2Fava_0015-512.png", "custom_css": null}, {"id": 16152, "slack_id": "U096MSC7RD0", "display_name": "Tanushree Mohite", "bio": null, "projects_count": 0, "devlogs_count": 0, "votes_count": 0, "ships_count": 0, "projects": [], "coding_time_seconds": 0, "coding_time_seconds_today": 0, "balance": "You need to have a pocket watcher badge to view this.", "badges": [], "created_at": "2025-07-20T13:33:14.827-04:00", "updated_at": "2025-07-20T21:25:51.144-04:00", "avatar": "https://secure.gravatar.com/avatar/1b1393f047a05a0a3e72033dee8f1914.jpg?s=512&d=https%3A%2F%2Fa.slack-edge.com%2Fdf10d%2Fimg%2Favatars%2Fava_0003-512.png", "custom_css": null}, {"id": 16153, "slack_id": "U096L0KEX0V", "display_name": "Willow Lee", "bio": null, "projects_count": 0, "devlogs_count": 0, "votes_count": 0, "ships_count": 0, "projects": [], "coding_time_seconds": 0, "coding_time_seconds_today": 0, "balance": "You need to have a pocket watcher badge to view this.", "badges": [], "created_at": "2025-07-20T13:37:12.154-04:00", "updated_at": "2025-07-20T21:25:51.237-04:00", "avatar": "https://secure.gravatar.com/avatar/50ef9f4acfa1bfc2c9397491b30f96a1.jpg?s=512&d=https%3A%2F%2Fa.slack-edge.com%2Fdf10d%2Fimg%2Favatars%2Fava_0023-512.png", "custom_css": null}, {"id": 16154, "slack_id": "U09678WM25V", "display_name": "Perry Morton", "bio": null, "projects_count": 0, "devlogs_count": 0, "votes_count": 0, "ships_count": 0, "projects": [], "coding_time_seconds": 880, "coding_time_seconds_today": 0, "balance": "You need to have a pocket watcher badge to view this.", "badges": [], "created_at": "2025-07-20T13:49:55.356-04:00", "updated_at": "2025-07-20T21:25:51.339-04:00", "avatar": "https://avatars.slack-edge.com/2025-07-20/9222918866838_2ad5d036abdc2e11fcfa_original.jpg", "custom_css": null}, {"id": 16155, "slack_id": "U096P7UV0UC", "display_name": "Ben", "bio": null, "projects_count": 0, "devlogs_count": 0, "votes_count": 0, "ships_count": 0, "projects": [], "coding_time_seconds": 0, "coding_time_seconds_today": 0, "balance": "You need to have a pocket watcher badge to view this.", "badges": [], "created_at": "2025-07-20T14:08:23.654-04:00", "updated_at": "2025-07-20T21:25:51.427-04:00", "avatar": "https://secure.gravatar.com/avatar/e1dfb176c7bf07ef81ca7f69727c8efc.jpg?s=512&d=https%3A%2F%2Fa.slack-edge.com%2Fdf10d%2Fimg%2Favatars%2Fava_0006-512.png", "custom_css": null}, {"id": 16156, "slack_id": "U096L24BBJ9", "display_name": "Amro Aladghem", "bio": null, "projects_count": 0, "devlogs_count": 0, "votes_count": 0, "ships_count": 0, "projects": [], "coding_time_seconds": 0, "coding_time_seconds_today": 0, "balance": "You need to have a pocket watcher badge to view this.", "badges": [], "created_at": "2025-07-20T14:14:44.263-04:00", "updated_at": "2025-07-20T21:25:51.507-04:00", "avatar": "https://secure.gravatar.com/avatar/f894417c79f7c16b9ac069f39fa8826e.jpg?s=512&d=https%3A%2F%2Fa.slack-edge.com%2Fdf10d%2Fimg%2Favatars%2Fava_0007-512.png", "custom_css": null}, {"id": 16157, "slack_id": "U0971DSC049", "display_name": "Aakash Gorai", "bio": null, "projects_count": 0, "devlogs_count": 0, "votes_count": 0, "ships_count": 0, "projects": [], "coding_time_seconds": 0, "coding_time_seconds_today": 0, "balance": "You need to have a pocket watcher badge to view this.", "badges": [], "created_at": "2025-07-20T14:29:58.946-04:00", "updated_at": "2025-07-20T21:25:51.586-04:00", "avatar": "https://avatars.slack-edge.com/2025-07-20/9220995782179_741c232ba0d2ef92ea20_original.jpg", "custom_css": null}, {"id": 16158, "slack_id": "U096N1C0JMQ", "display_name": "Mohamed Hesham", "bio": null, "projects_count": 2, "devlogs_count": 4, "votes_count": 4, "ships_count": 2, "projects": [{"id": 7344, "title": "Taiyaki Restaurant Website", "devlogs_count": 3, "created_at": "2025-07-21T05:15:04.380-04:00"}, {"id": 10893, "title": "Portfolio website", "devlogs_count": 1, "created_at": "2025-08-11T15:48:39.548-04:00"}], "coding_time_seconds": 112010, "coding_time_seconds_today": 0, "balance": "You need to have a pocket watcher badge to view this.", "badges": [{"name": "Maiden Voyage", "text": "you shipped your first project! the journey begins...", "icon": "\ud83d\udea2"}], "created_at": "2025-07-20T14:43:40.923-04:00", "updated_at": "2025-09-10T22:59:07.489-04:00", "avatar": "https://secure.gravatar.com/avatar/b7d677b451b154e76d4b0d226c0965eb.jpg?s=512&d=https%3A%2F%2Fa.slack-edge.com%2Fdf10d%2Fimg%2Favatars%2Fava_0000-512.png", "custom_css": null}, {"id": 16159, "slack_id": "U093KS2L1AP", "display_name": "Muhammad Atif Latif", "bio": null, "projects_count": 0, "devlogs_count": 0, "votes_count": 0, "ships_count": 0, "projects": [], "coding_time_seconds": 0, "coding_time_seconds_today": 0, "balance": "You need to have a pocket watcher badge to view this.", "badges": [], "created_at": "2025-07-20T14:46:37.550-04:00", "updated_at": "2025-07-21T17:45:25.069-04:00", "avatar": "https://avatars.slack-edge.com/2025-07-20/9211388499255_aca40995445b5bf2b4a5_original.jpg", "custom_css": null}, {"id": 16160, "slack_id": "U0967BABA2K", "display_name": "SergioMasaki BeltranNevarez", "bio": null, "projects_count": 1, "devlogs_count": 0, "votes_count": 0, "ships_count": 0, "projects": [{"id": 11729, "title": "W hub", "devlogs_count": 0, "created_at": "2025-08-18T23:21:47.784-04:00"}], "coding_time_seconds": 80432, "coding_time_seconds_today": 0, "balance": "You need to have a pocket watcher badge to view this.", "badges": [], "created_at": "2025-07-20T14:53:46.228-04:00", "updated_at": "2025-08-19T06:18:01.567-04:00", "avatar": "https://avatars.slack-edge.com/2025-07-20/9239511680097_d093361138d39107b789_original.jpg", "custom_css": null}, {"id": 16161, "slack_id": "U0967CKN679", "display_name": "Harry Edwards", "bio": null, "projects_count": 0, "devlogs_count": 0, "votes_count": 0, "ships_count": 0, "projects": [], "coding_time_seconds": 576, "coding_time_seconds_today": 0, "balance": "You need to have a pocket watcher badge to view this.", "badges": [], "created_at": "2025-07-20T15:27:31.400-04:00", "updated_at": "2025-07-21T15:02:17.462-04:00", "avatar": "https://secure.gravatar.com/avatar/62c81da078ef732484a152ddbfed3a67.jpg?s=512&d=https%3A%2F%2Fa.slack-edge.com%2Fdf10d%2Fimg%2Favatars%2Fava_0002-512.png", "custom_css": null}, {"id": 16162, "slack_id": "U0967CSAPRV", "display_name": "Bob", "bio": null, "projects_count": 0, "devlogs_count": 0, "votes_count": 0, "ships_count": 0, "projects": [], "coding_time_seconds": 0, "coding_time_seconds_today": 0, "balance": "You need to have a pocket watcher badge to view this.", "badges": [], "created_at": "2025-07-20T15:29:18.151-04:00", "updated_at": "2025-07-20T21:25:52.001-04:00", "avatar": "https://secure.gravatar.com/avatar/bce8ff2977130c18afbb8d7d80d627f0.jpg?s=512&d=https%3A%2F%2Fa.slack-edge.com%2Fdf10d%2Fimg%2Favatars%2Fava_0000-512.png", "custom_css": null}, {"id": 16163, "slack_id": "U078H09DPNX", "display_name": "Frederik", "bio": null, "projects_count": 1, "devlogs_count": 0, "votes_count": 0, "ships_count": 0, "projects": [{"id": 7301, "title": "AktivGrid ", "devlogs_count": 0, "created_at": "2025-07-20T18:20:18.240-04:00"}], "coding_time_seconds": 10513, "coding_time_seconds_today": 0, "balance": "You need to have a pocket watcher badge to view this.", "badges": [], "created_at": "2025-07-20T16:12:58.253-04:00", "updated_at": "2025-07-21T12:31:17.252-04:00", "avatar": "https://secure.gravatar.com/avatar/4500552ea13dd739e1789c0e7efc4be0.jpg?s=512&d=https%3A%2F%2Fa.slack-edge.com%2Fdf10d%2Fimg%2Favatars%2Fava_0002-512.png", "custom_css": null}, {"id": 16164, "slack_id": "U0971J71D0R", "display_name": "Nagy-Koll\u00e1r Vince", "bio": null, "projects_count": 0, "devlogs_count": 0, "votes_count": 0, "ships_count": 0, "projects": [], "coding_time_seconds": 35727, "coding_time_seconds_today": 0, "balance": "You need to have a pocket watcher badge to view this.", "badges": [], "created_at": "2025-07-20T16:17:43.757-04:00", "updated_at": "2025-07-20T21:25:52.141-04:00", "avatar": "https://secure.gravatar.com/avatar/9eb471ab78c27115a3942cab4e678fe1.jpg?s=512&d=https%3A%2F%2Fa.slack-edge.com%2Fdf10d%2Fimg%2Favatars%2Fava_0018-512.png", "custom_css": null}, {"id": 16165, "slack_id": "U097APUCN7J", "display_name": "Aaron Aslan", "bio": null, "projects_count": 0, "devlogs_count": 0, "votes_count": 0, "ships_count": 0, "projects": [], "coding_time_seconds": 27815, "coding_time_seconds_today": 0, "balance": "You need to have a pocket watcher badge to view this.", "badges": [], "created_at": "2025-07-20T16:22:51.441-04:00", "updated_at": "2025-07-20T21:25:56.267-04:00", "avatar": "https://avatars.slack-edge.com/2025-07-20/9223077598054_7ee43dce2924c307febc_original.png", "custom_css": null}], "pagination": {"page": 804, "pages": 1192, "count": 23828, "items": 20}}