{"users": [{"id": 16166, "slack_id": "U0971KFLQRX", "display_name": "Phil", "bio": null, "projects_count": 0, "devlogs_count": 0, "votes_count": 0, "ships_count": 0, "projects": [], "coding_time_seconds": 0, "coding_time_seconds_today": 0, "balance": "You need to have a pocket watcher badge to view this.", "badges": [], "created_at": "2025-07-20T16:56:27.564-04:00", "updated_at": "2025-07-20T21:25:56.349-04:00", "avatar": "https://secure.gravatar.com/avatar/7fce8ba161f727b66326282fc782fc54.jpg?s=512&d=https%3A%2F%2Fa.slack-edge.com%2Fdf10d%2Fimg%2Favatars%2Fava_0019-512.png", "custom_css": null}, {"id": 16167, "slack_id": "U0929RH1EAJ", "display_name": "Salman", "bio": null, "projects_count": 0, "devlogs_count": 0, "votes_count": 0, "ships_count": 0, "projects": [], "coding_time_seconds": 0, "coding_time_seconds_today": 0, "balance": "You need to have a pocket watcher badge to view this.", "badges": [], "created_at": "2025-07-20T17:04:49.008-04:00", "updated_at": "2025-07-20T21:25:56.436-04:00", "avatar": "https://avatars.slack-edge.com/2025-07-20/9224317387925_bbf89c5512197357bc3c_original.jpg", "custom_css": null}, {"id": 16168, "slack_id": "U096LAK0UJZ", "display_name": "Mo nasr", "bio": null, "projects_count": 0, "devlogs_count": 0, "votes_count": 0, "ships_count": 0, "projects": [], "coding_time_seconds": 0, "coding_time_seconds_today": 0, "balance": "You need to have a pocket watcher badge to view this.", "badges": [], "created_at": "2025-07-20T17:42:11.207-04:00", "updated_at": "2025-07-21T14:57:23.720-04:00", "avatar": "https://secure.gravatar.com/avatar/7a72c8ea981f84fddadbc0a7565176ee.jpg?s=512&d=https%3A%2F%2Fa.slack-edge.com%2Fdf10d%2Fimg%2Favatars%2Fava_0025-512.png", "custom_css": null}, {"id": 16169, "slack_id": "U09673VV7T9", "display_name": "Anush", "bio": null, "projects_count": 0, "devlogs_count": 0, "votes_count": 0, "ships_count": 0, "projects": [], "coding_time_seconds": 0, "coding_time_seconds_today": 0, "balance": "You need to have a pocket watcher badge to view this.", "badges": [], "created_at": "2025-07-20T17:45:39.239-04:00", "updated_at": "2025-07-20T21:25:56.591-04:00", "avatar": "https://secure.gravatar.com/avatar/b256b9669aa50df9a8ec31ae89d80c6c.jpg?s=512&d=https%3A%2F%2Fa.slack-edge.com%2Fdf10d%2Fimg%2Favatars%2Fava_0003-512.png", "custom_css": null}, {"id": 16170, "slack_id": "U08SWBK3G64", "display_name": "Maya", "bio": null, "projects_count": 4, "devlogs_count": 0, "votes_count": 0, "ships_count": 0, "projects": [{"id": 9311, "title": "dashboard w/ tauri", "devlogs_count": 0, "created_at": "2025-07-31T14:07:39.331-04:00"}, {"id": 9313, "title": "calender", "devlogs_count": 0, "created_at": "2025-07-31T14:08:51.418-04:00"}, {"id": 9314, "title": "favorite books", "devlogs_count": 0, "created_at": "2025-07-31T14:09:46.991-04:00"}, {"id": 9315, "title": "favorite books", "devlogs_count": 0, "created_at": "2025-07-31T14:09:47.006-04:00"}], "coding_time_seconds": 74808, "coding_time_seconds_today": 0, "balance": "You need to have a pocket watcher badge to view this.", "badges": [], "created_at": "2025-07-20T17:52:59.463-04:00", "updated_at": "2025-07-21T22:48:00.394-04:00", "avatar": "https://secure.gravatar.com/avatar/af661919036ba99dc58dd760ace340ca.jpg?s=512&d=https%3A%2F%2Fa.slack-edge.com%2Fdf10d%2Fimg%2Favatars%2Fava_0002-512.png", "custom_css": null}, {"id": 16171, "slack_id": "U097B06A12L", "display_name": "Juan", "bio": null, "projects_count": 1, "devlogs_count": 1, "votes_count": 2, "ships_count": 1, "projects": [{"id": 9921, "title": "My personal website", "devlogs_count": 1, "created_at": "2025-08-02T23:15:21.665-04:00"}], "coding_time_seconds": 22117, "coding_time_seconds_today": 0, "balance": "You need to have a pocket watcher badge to view this.", "badges": [{"name": "Maiden Voyage", "text": "you shipped your first project! the journey begins...", "icon": "\ud83d\udea2"}], "created_at": "2025-07-20T19:01:12.794-04:00", "updated_at": "2025-09-10T22:59:07.822-04:00", "avatar": "https://secure.gravatar.com/avatar/7fdc2e920a0ddfbd79644d576961da38.jpg?s=512&d=https%3A%2F%2Fa.slack-edge.com%2Fdf10d%2Fimg%2Favatars%2Fava_0024-512.png", "custom_css": null}, {"id": 16172, "slack_id": "U096PLDP6NQ", "display_name": "Zane K", "bio": null, "projects_count": 0, "devlogs_count": 0, "votes_count": 0, "ships_count": 0, "projects": [], "coding_time_seconds": 0, "coding_time_seconds_today": 0, "balance": "You need to have a pocket watcher badge to view this.", "badges": [], "created_at": "2025-07-20T19:28:14.007-04:00", "updated_at": "2025-07-20T21:25:56.832-04:00", "avatar": "https://secure.gravatar.com/avatar/c750eb3f41f1aa51f0ce4d99cd855167.jpg?s=512&d=https%3A%2F%2Fa.slack-edge.com%2Fdf10d%2Fimg%2Favatars%2Fava_0021-512.png", "custom_css": null}, {"id": 16173, "slack_id": "U096PM40SRJ", "display_name": "Ayan Sayyed", "bio": null, "projects_count": 0, "devlogs_count": 0, "votes_count": 0, "ships_count": 0, "projects": [], "coding_time_seconds": 0, "coding_time_seconds_today": 0, "balance": "You need to have a pocket watcher badge to view this.", "badges": [], "created_at": "2025-07-20T19:41:10.487-04:00", "updated_at": "2025-07-20T21:25:56.911-04:00", "avatar": "https://avatars.slack-edge.com/2025-07-20/9239903634385_26bc8ec6900b0894423d_original.png", "custom_css": null}, {"id": 16174, "slack_id": "U093G03TL7P", "display_name": "awesomeosep", "bio": null, "projects_count": 1, "devlogs_count": 4, "votes_count": 8, "ships_count": 1, "projects": [{"id": 7970, "title": "vibecheck", "devlogs_count": 4, "created_at": "2025-07-23T22:02:20.307-04:00"}], "coding_time_seconds": 279555, "coding_time_seconds_today": 0, "balance": "You need to have a pocket watcher badge to view this.", "badges": [{"name": "Maiden Voyage", "text": "you shipped your first project! the journey begins...", "icon": "\ud83d\udea2"}], "created_at": "2025-07-20T20:11:18.239-04:00", "updated_at": "2025-09-11T18:54:30.913-04:00", "avatar": "https://secure.gravatar.com/avatar/e82b19b9b462ebdc0ee18e1898664b69.jpg?s=512&d=https%3A%2F%2Fa.slack-edge.com%2Fdf10d%2Fimg%2Favatars%2Fava_0011-512.png", "custom_css": null}, {"id": 16175, "slack_id": "U096LHA03FF", "display_name": "Pooms", "bio": null, "projects_count": 1, "devlogs_count": 0, "votes_count": 0, "ships_count": 0, "projects": [{"id": 8099, "title": "DeepDark", "devlogs_count": 0, "created_at": "2025-07-24T15:50:56.361-04:00"}], "coding_time_seconds": 31366, "coding_time_seconds_today": 0, "balance": "You need to have a pocket watcher badge to view this.", "badges": [], "created_at": "2025-07-20T20:12:09.076-04:00", "updated_at": "2025-08-26T19:51:41.039-04:00", "avatar": "https://avatars.slack-edge.com/2025-07-22/9230845601779_7f5295ab594d2b959a22_original.png", "custom_css": null}, {"id": 16176, "slack_id": "U096KC4EEBG", "display_name": "Griffin Taylor", "bio": null, "projects_count": 0, "devlogs_count": 0, "votes_count": 0, "ships_count": 0, "projects": [], "coding_time_seconds": 0, "coding_time_seconds_today": 0, "balance": "You need to have a pocket watcher badge to view this.", "badges": [], "created_at": "2025-07-20T20:16:58.343-04:00", "updated_at": "2025-07-20T21:25:57.164-04:00", "avatar": "https://secure.gravatar.com/avatar/f625ea957000f99a0e07c79a875d3570.jpg?s=512&d=https%3A%2F%2Fa.slack-edge.com%2Fdf10d%2Fimg%2Favatars%2Fava_0016-512.png", "custom_css": null}, {"id": 16177, "slack_id": "U097B5ZTWE4", "display_name": "Forest Robertson", "bio": null, "projects_count": 0, "devlogs_count": 0, "votes_count": 0, "ships_count": 0, "projects": [], "coding_time_seconds": 0, "coding_time_seconds_today": 0, "balance": "You need to have a pocket watcher badge to view this.", "badges": [], "created_at": "2025-07-20T21:00:03.942-04:00", "updated_at": "2025-07-20T21:25:57.255-04:00", "avatar": "https://secure.gravatar.com/avatar/fd3fd7573e529806e97f90e6e5db2ef6.jpg?s=512&d=https%3A%2F%2Fa.slack-edge.com%2Fdf10d%2Fimg%2Favatars%2Fava_0024-512.png", "custom_css": null}, {"id": 16178, "slack_id": "U096KG0SWES", "display_name": "Ellie Bonilla", "bio": "", "projects_count": 1, "devlogs_count": 1, "votes_count": 21, "ships_count": 1, "projects": [{"id": 9933, "title": "Mac And Cheese IS Amazing", "devlogs_count": 1, "created_at": "2025-08-03T01:54:07.558-04:00"}], "coding_time_seconds": 185123, "coding_time_seconds_today": 0, "balance": "You need to have a pocket watcher badge to view this.", "badges": [{"name": "Maiden Voyage", "text": "you shipped your first project! the journey begins...", "icon": "\ud83d\udea2"}], "created_at": "2025-07-20T21:15:25.932-04:00", "updated_at": "2025-09-10T22:59:08.001-04:00", "avatar": "https://avatars.slack-edge.com/2025-09-07/9472052987283_7a25fbcf24d00e64267e_original.png", "custom_css": null}, {"id": 16179, "slack_id": "U097B80FBG8", "display_name": "Grady", "bio": null, "projects_count": 0, "devlogs_count": 0, "votes_count": 0, "ships_count": 0, "projects": [], "coding_time_seconds": 16439, "coding_time_seconds_today": 0, "balance": "You need to have a pocket watcher badge to view this.", "badges": [], "created_at": "2025-07-20T21:34:49.326-04:00", "updated_at": "2025-07-22T03:05:01.928-04:00", "avatar": "https://secure.gravatar.com/avatar/f16cfccac143aacf72f8115561de31f3.jpg?s=512&d=https%3A%2F%2Fa.slack-edge.com%2Fdf10d%2Fimg%2Favatars%2Fava_0020-512.png", "custom_css": null}, {"id": 16180, "slack_id": "U097B843QHE", "display_name": "Tanmayi M", "bio": null, "projects_count": 0, "devlogs_count": 0, "votes_count": 0, "ships_count": 0, "projects": [], "coding_time_seconds": 41033, "coding_time_seconds_today": 0, "balance": "You need to have a pocket watcher badge to view this.", "badges": [], "created_at": "2025-07-20T21:35:25.648-04:00", "updated_at": "2025-07-21T03:25:38.463-04:00", "avatar": "https://secure.gravatar.com/avatar/be81b88ea451616f0b23ca8f1441e20d.jpg?s=512&d=https%3A%2F%2Fa.slack-edge.com%2Fdf10d%2Fimg%2Favatars%2Fava_0016-512.png", "custom_css": null}, {"id": 16181, "slack_id": "U09680SLVKR", "display_name": "clair", "bio": "competitive coder \ud83c\udf38 trying to get into web dev \ud83c\udf38 acsl senior finalist '25 (47/48)", "projects_count": 5, "devlogs_count": 62, "votes_count": 57, "ships_count": 3, "projects": [{"id": 11686, "title": "ducks svelte", "devlogs_count": 10, "created_at": "2025-08-18T12:33:45.872-04:00"}, {"id": 12203, "title": "momento", "devlogs_count": 17, "created_at": "2025-08-24T10:04:31.808-04:00"}, {"id": 9123, "title": "404-path-not-found", "devlogs_count": 5, "created_at": "2025-07-30T17:16:50.655-04:00"}, {"id": 11402, "title": "clair's personal website", "devlogs_count": 15, "created_at": "2025-08-15T14:18:27.956-04:00"}, {"id": 12297, "title": "bunbougu ysws", "devlogs_count": 3, "created_at": "2025-08-25T11:06:19.630-04:00"}], "coding_time_seconds": 254239, "coding_time_seconds_today": 0, "balance": "You need to have a pocket watcher badge to view this.", "badges": [{"name": "Maiden Voyage", "text": "you shipped your first project! the journey begins...", "icon": "\ud83d\udea2"}, {"name": "Ballot Stuffer", "text": "vote 100 times.", "icon": "https://summer.hackclub.com/assets/i_voted-bf851b48.png"}], "created_at": "2025-07-20T22:09:33.338-04:00", "updated_at": "2025-09-10T22:59:08.091-04:00", "avatar": "https://avatars.slack-edge.com/2025-08-29/9420305030631_4e0dff69bc3511c3778c_original.png", "custom_css": null}, {"id": 16182, "slack_id": "U096Q3UL01J", "display_name": "Nguy\u1ec5n Tu\u1ea5n Nguy\u1ec5n", "bio": null, "projects_count": 0, "devlogs_count": 0, "votes_count": 0, "ships_count": 0, "projects": [], "coding_time_seconds": 0, "coding_time_seconds_today": 0, "balance": "You need to have a pocket watcher badge to view this.", "badges": [], "created_at": "2025-07-20T23:01:22.444-04:00", "updated_at": "2025-07-21T03:25:38.639-04:00", "avatar": "https://avatars.slack-edge.com/2025-07-20/9249457765984_2b9ce478a90bc4e28628_original.jpg", "custom_css": null}, {"id": 16183, "slack_id": "U096LV3HL4D", "display_name": "Rahul", "bio": null, "projects_count": 0, "devlogs_count": 0, "votes_count": 0, "ships_count": 0, "projects": [], "coding_time_seconds": 0, "coding_time_seconds_today": 0, "balance": "You need to have a pocket watcher badge to view this.", "badges": [], "created_at": "2025-07-20T23:27:53.414-04:00", "updated_at": "2025-07-21T03:25:38.733-04:00", "avatar": "https://secure.gravatar.com/avatar/4abe2895120f2582de11bfd5e5f28c81.jpg?s=512&d=https%3A%2F%2Fa.slack-edge.com%2Fdf10d%2Fimg%2Favatars%2Fava_0018-512.png", "custom_css": null}, {"id": 16184, "slack_id": "U097BHQH7NU", "display_name": "Logan Hebig", "bio": null, "projects_count": 0, "devlogs_count": 0, "votes_count": 0, "ships_count": 0, "projects": [], "coding_time_seconds": 0, "coding_time_seconds_today": 0, "balance": "You need to have a pocket watcher badge to view this.", "badges": [], "created_at": "2025-07-21T00:21:33.889-04:00", "updated_at": "2025-07-21T19:14:38.621-04:00", "avatar": "https://avatars.slack-edge.com/2025-07-20/9249621643904_3430010e2183c6d69e7c_original.png", "custom_css": null}, {"id": 16185, "slack_id": "U097BJ4D6D6", "display_name": "Mai V\u0103n T\u00e0i", "bio": null, "projects_count": 0, "devlogs_count": 0, "votes_count": 0, "ships_count": 0, "projects": [], "coding_time_seconds": 0, "coding_time_seconds_today": 0, "balance": "You need to have a pocket watcher badge to view this.", "badges": [], "created_at": "2025-07-21T00:22:50.451-04:00", "updated_at": "2025-07-21T03:25:38.894-04:00", "avatar": "https://secure.gravatar.com/avatar/376e669f2b287f09b18f89dffdef459e.jpg?s=512&d=https%3A%2F%2Fa.slack-edge.com%2Fdf10d%2Fimg%2Favatars%2Fava_0005-512.png", "custom_css": null}], "pagination": {"page": 805, "pages": 1192, "count": 23828, "items": 20}}