{"users": [{"id": 16186, "slack_id": "U0972EE2UUR", "display_name": "Joel", "bio": null, "projects_count": 0, "devlogs_count": 0, "votes_count": 12, "ships_count": 0, "projects": [], "coding_time_seconds": 6382, "coding_time_seconds_today": 0, "balance": "You need to have a pocket watcher badge to view this.", "badges": [], "created_at": "2025-07-21T00:35:10.679-04:00", "updated_at": "2025-08-10T23:08:58.151-04:00", "avatar": "https://secure.gravatar.com/avatar/e57f4ed0eec28d4ae3a321bb03778672.jpg?s=512&d=https%3A%2F%2Fa.slack-edge.com%2Fdf10d%2Fimg%2Favatars%2Fava_0020-512.png", "custom_css": null}, {"id": 16187, "slack_id": "U096G870JH1", "display_name": "Samiul Muztaba", "bio": "Excited in full stack app/web development and Electrical Engineering stuffs. . . .Also have some feelings for game dev :)", "projects_count": 2, "devlogs_count": 12, "votes_count": 42, "ships_count": 2, "projects": [{"id": 10804, "title": "Lucidraft ", "devlogs_count": 8, "created_at": "2025-08-11T01:29:11.822-04:00"}, {"id": 8072, "title": "Multi-Step Form Wizard ", "devlogs_count": 4, "created_at": "2025-07-24T11:38:48.260-04:00"}], "coding_time_seconds": 199369, "coding_time_seconds_today": 0, "balance": "You need to have a pocket watcher badge to view this.", "badges": [{"name": "Maiden Voyage", "text": "you shipped your first project! the journey begins...", "icon": "\ud83d\udea2"}], "created_at": "2025-07-21T00:37:52.623-04:00", "updated_at": "2025-09-10T22:59:08.264-04:00", "avatar": "https://secure.gravatar.com/avatar/5c3a87acde6bf6d3923aeb9f4fede3de.jpg?s=512&d=https%3A%2F%2Fa.slack-edge.com%2Fdf10d%2Fimg%2Favatars%2Fava_0003-512.png", "custom_css": null}, {"id": 16188, "slack_id": "U0972JFP8SD", "display_name": "Alec", "bio": null, "projects_count": 1, "devlogs_count": 0, "votes_count": 0, "ships_count": 0, "projects": [{"id": 7328, "title": "Audio Tool", "devlogs_count": 0, "created_at": "2025-07-21T01:48:34.380-04:00"}], "coding_time_seconds": 65, "coding_time_seconds_today": 0, "balance": "You need to have a pocket watcher badge to view this.", "badges": [], "created_at": "2025-07-21T01:33:21.610-04:00", "updated_at": "2025-07-21T03:25:43.193-04:00", "avatar": "https://secure.gravatar.com/avatar/b172d3658cd2fe7d542559f5b72d6feb.jpg?s=512&d=https%3A%2F%2Fa.slack-edge.com%2Fdf10d%2Fimg%2Favatars%2Fava_0013-512.png", "custom_css": null}, {"id": 16189, "slack_id": "U0968DJHUT1", "display_name": "wirofa", "bio": null, "projects_count": 0, "devlogs_count": 0, "votes_count": 0, "ships_count": 0, "projects": [], "coding_time_seconds": 0, "coding_time_seconds_today": 0, "balance": "You need to have a pocket watcher badge to view this.", "badges": [], "created_at": "2025-07-21T01:40:34.229-04:00", "updated_at": "2025-07-21T03:25:43.288-04:00", "avatar": "https://secure.gravatar.com/avatar/8699e9f1f15e4b84a208d149658fd799.jpg?s=512&d=https%3A%2F%2Fa.slack-edge.com%2Fdf10d%2Fimg%2Favatars%2Fava_0013-512.png", "custom_css": null}, {"id": 16190, "slack_id": "U096L4N0J7Q", "display_name": "Charik Malik", "bio": null, "projects_count": 0, "devlogs_count": 0, "votes_count": 0, "ships_count": 0, "projects": [], "coding_time_seconds": 0, "coding_time_seconds_today": 0, "balance": "You need to have a pocket watcher badge to view this.", "badges": [], "created_at": "2025-07-21T01:42:55.655-04:00", "updated_at": "2025-07-21T03:25:43.372-04:00", "avatar": "https://avatars.slack-edge.com/2025-07-20/9222167311043_c2d95c345b1067f6169e_original.jpg", "custom_css": null}, {"id": 16191, "slack_id": "U096QGKNYTW", "display_name": "Kenny Lau", "bio": null, "projects_count": 0, "devlogs_count": 0, "votes_count": 0, "ships_count": 0, "projects": [], "coding_time_seconds": 102915, "coding_time_seconds_today": 0, "balance": "You need to have a pocket watcher badge to view this.", "badges": [], "created_at": "2025-07-21T02:02:14.904-04:00", "updated_at": "2025-08-02T03:34:32.794-04:00", "avatar": "https://avatars.slack-edge.com/2025-07-20/9224231397926_a744a2541ba9af30d4ac_original.jpg", "custom_css": null}, {"id": 16192, "slack_id": "U096JDWD267", "display_name": "Shabad Vashisht", "bio": null, "projects_count": 0, "devlogs_count": 0, "votes_count": 0, "ships_count": 0, "projects": [], "coding_time_seconds": 0, "coding_time_seconds_today": 0, "balance": "You need to have a pocket watcher badge to view this.", "badges": [], "created_at": "2025-07-21T03:22:24.400-04:00", "updated_at": "2025-07-23T16:37:01.666-04:00", "avatar": "https://secure.gravatar.com/avatar/b153ad07980c7f1b8b6be4713029fc60.jpg?s=512&d=https%3A%2F%2Fa.slack-edge.com%2Fdf10d%2Fimg%2Favatars%2Fava_0007-512.png", "custom_css": null}, {"id": 16193, "slack_id": "U079EA658A3", "display_name": "Lafcadia", "bio": null, "projects_count": 2, "devlogs_count": 2, "votes_count": 24, "ships_count": 2, "projects": [{"id": 7349, "title": "Parsifal", "devlogs_count": 1, "created_at": "2025-07-21T07:04:35.119-04:00"}, {"id": 7584, "title": "Mujica Engine", "devlogs_count": 1, "created_at": "2025-07-22T07:28:34.607-04:00"}], "coding_time_seconds": 13312, "coding_time_seconds_today": 0, "balance": "You need to have a pocket watcher badge to view this.", "badges": [{"name": "Maiden Voyage", "text": "you shipped your first project! the journey begins...", "icon": "\ud83d\udea2"}], "created_at": "2025-07-21T03:42:31.888-04:00", "updated_at": "2025-09-10T22:59:08.496-04:00", "avatar": "https://secure.gravatar.com/avatar/57ff1222a81493a0e72782530e77b269.jpg?s=512&d=https%3A%2F%2Fa.slack-edge.com%2Fdf10d%2Fimg%2Favatars%2Fava_0008-512.png", "custom_css": null}, {"id": 16194, "slack_id": "U0968SH56BH", "display_name": "aviano", "bio": null, "projects_count": 0, "devlogs_count": 0, "votes_count": 0, "ships_count": 0, "projects": [], "coding_time_seconds": 86642, "coding_time_seconds_today": 0, "balance": "You need to have a pocket watcher badge to view this.", "badges": [], "created_at": "2025-07-21T03:53:23.938-04:00", "updated_at": "2025-07-21T09:25:30.145-04:00", "avatar": "https://secure.gravatar.com/avatar/71055a9f0e25950ad13016d196014a4f.jpg?s=512&d=https%3A%2F%2Fa.slack-edge.com%2Fdf10d%2Fimg%2Favatars%2Fava_0000-512.png", "custom_css": null}, {"id": 16195, "slack_id": "U096PL8F9LJ", "display_name": "Nirush Man Shrestha", "bio": null, "projects_count": 0, "devlogs_count": 0, "votes_count": 0, "ships_count": 0, "projects": [], "coding_time_seconds": 0, "coding_time_seconds_today": 0, "balance": "You need to have a pocket watcher badge to view this.", "badges": [], "created_at": "2025-07-21T04:08:26.211-04:00", "updated_at": "2025-07-21T09:25:30.224-04:00", "avatar": "https://secure.gravatar.com/avatar/9eacbfb4d2bfe83f3e113b33ccc75a53.jpg?s=512&d=https%3A%2F%2Fa.slack-edge.com%2Fdf10d%2Fimg%2Favatars%2Fava_0002-512.png", "custom_css": null}, {"id": 16196, "slack_id": "U096PN6A78A", "display_name": "Rilzz Play's", "bio": null, "projects_count": 0, "devlogs_count": 0, "votes_count": 0, "ships_count": 0, "projects": [], "coding_time_seconds": 9733, "coding_time_seconds_today": 0, "balance": "You need to have a pocket watcher badge to view this.", "badges": [], "created_at": "2025-07-21T04:22:57.525-04:00", "updated_at": "2025-07-21T09:25:30.305-04:00", "avatar": "https://avatars.slack-edge.com/2025-07-21/9227766147218_973687eed960acb4dab8_original.jpg", "custom_css": null}, {"id": 16197, "slack_id": "U096MTP3L0M", "display_name": "Rishav", "bio": null, "projects_count": 0, "devlogs_count": 0, "votes_count": 0, "ships_count": 0, "projects": [], "coding_time_seconds": 52775, "coding_time_seconds_today": 0, "balance": "You need to have a pocket watcher badge to view this.", "badges": [], "created_at": "2025-07-21T04:28:24.351-04:00", "updated_at": "2025-07-21T09:25:30.397-04:00", "avatar": "https://secure.gravatar.com/avatar/e05544a44804d9551d8e07e24d922916.jpg?s=512&d=https%3A%2F%2Fa.slack-edge.com%2Fdf10d%2Fimg%2Favatars%2Fava_0008-512.png", "custom_css": null}, {"id": 16198, "slack_id": "U0928FDKNJF", "display_name": "jenna", "bio": null, "projects_count": 0, "devlogs_count": 0, "votes_count": 0, "ships_count": 0, "projects": [], "coding_time_seconds": 0, "coding_time_seconds_today": 0, "balance": "You need to have a pocket watcher badge to view this.", "badges": [], "created_at": "2025-07-21T04:54:35.655-04:00", "updated_at": "2025-07-21T09:25:30.472-04:00", "avatar": "https://secure.gravatar.com/avatar/2a74545d09d9ce83dfaa2a1363beee5b.jpg?s=512&d=https%3A%2F%2Fa.slack-edge.com%2Fdf10d%2Fimg%2Favatars%2Fava_0026-512.png", "custom_css": null}, {"id": 16199, "slack_id": "U096JREGFMH", "display_name": "Satyam", "bio": null, "projects_count": 0, "devlogs_count": 0, "votes_count": 0, "ships_count": 0, "projects": [], "coding_time_seconds": 0, "coding_time_seconds_today": 0, "balance": "You need to have a pocket watcher badge to view this.", "badges": [], "created_at": "2025-07-21T04:59:30.409-04:00", "updated_at": "2025-07-21T09:25:30.548-04:00", "avatar": "https://secure.gravatar.com/avatar/092052565d6c85005899db1396700fb9.jpg?s=512&d=https%3A%2F%2Fa.slack-edge.com%2Fdf10d%2Fimg%2Favatars%2Fava_0021-512.png", "custom_css": null}, {"id": 16200, "slack_id": "U097CKHJ0FJ", "display_name": "James Douglas", "bio": null, "projects_count": 0, "devlogs_count": 0, "votes_count": 0, "ships_count": 0, "projects": [], "coding_time_seconds": 453, "coding_time_seconds_today": 0, "balance": "You need to have a pocket watcher badge to view this.", "badges": [], "created_at": "2025-07-21T05:23:28.032-04:00", "updated_at": "2025-07-21T09:25:30.643-04:00", "avatar": "https://secure.gravatar.com/avatar/7ca758eb6ea14831ce1aa0668b3cce77.jpg?s=512&d=https%3A%2F%2Fa.slack-edge.com%2Fdf10d%2Fimg%2Favatars%2Fava_0006-512.png", "custom_css": null}, {"id": 16201, "slack_id": "U096M2ANUNS", "display_name": "Sampreeti Mohapatra", "bio": null, "projects_count": 0, "devlogs_count": 0, "votes_count": 0, "ships_count": 0, "projects": [], "coding_time_seconds": 0, "coding_time_seconds_today": 0, "balance": "You need to have a pocket watcher badge to view this.", "badges": [], "created_at": "2025-07-21T05:36:06.204-04:00", "updated_at": "2025-07-21T09:25:30.725-04:00", "avatar": "https://avatars.slack-edge.com/2025-07-21/9225096640886_5db151517edd5d5cca0d_original.jpg", "custom_css": null}, {"id": 16202, "slack_id": "U096K490KC3", "display_name": "Alex", "bio": null, "projects_count": 1, "devlogs_count": 0, "votes_count": 0, "ships_count": 0, "projects": [{"id": 7348, "title": "Rift client", "devlogs_count": 0, "created_at": "2025-07-21T06:43:00.434-04:00"}], "coding_time_seconds": 17, "coding_time_seconds_today": 0, "balance": "You need to have a pocket watcher badge to view this.", "badges": [], "created_at": "2025-07-21T06:04:43.499-04:00", "updated_at": "2025-07-22T05:40:44.204-04:00", "avatar": "https://secure.gravatar.com/avatar/439957658f7b18dabf309ab97fad63d1.jpg?s=512&d=https%3A%2F%2Fa.slack-edge.com%2Fdf10d%2Fimg%2Favatars%2Fava_0025-512.png", "custom_css": null}, {"id": 16203, "slack_id": "U096Q8GE34J", "display_name": "cess", "bio": null, "projects_count": 0, "devlogs_count": 0, "votes_count": 0, "ships_count": 0, "projects": [], "coding_time_seconds": 0, "coding_time_seconds_today": 0, "balance": "You need to have a pocket watcher badge to view this.", "badges": [], "created_at": "2025-07-21T06:28:14.188-04:00", "updated_at": "2025-07-21T09:25:34.933-04:00", "avatar": "https://secure.gravatar.com/avatar/a1a65af4ac62754683bcfe6c4e3368db.jpg?s=512&d=https%3A%2F%2Fa.slack-edge.com%2Fdf10d%2Fimg%2Favatars%2Fava_0012-512.png", "custom_css": null}, {"id": 16204, "slack_id": "U096H4AM7B5", "display_name": "userofpiskot", "bio": null, "projects_count": 0, "devlogs_count": 0, "votes_count": 0, "ships_count": 0, "projects": [], "coding_time_seconds": 178, "coding_time_seconds_today": 0, "balance": "You need to have a pocket watcher badge to view this.", "badges": [], "created_at": "2025-07-21T06:48:29.280-04:00", "updated_at": "2025-07-22T13:19:01.728-04:00", "avatar": "https://secure.gravatar.com/avatar/45b7b2acfd908801174fdb0fcc416460.jpg?s=512&d=https%3A%2F%2Fa.slack-edge.com%2Fdf10d%2Fimg%2Favatars%2Fava_0020-512.png", "custom_css": null}, {"id": 16205, "slack_id": "U097D3F09RN", "display_name": "Jeremy", "bio": null, "projects_count": 0, "devlogs_count": 0, "votes_count": 0, "ships_count": 0, "projects": [], "coding_time_seconds": 0, "coding_time_seconds_today": 0, "balance": "You need to have a pocket watcher badge to view this.", "badges": [], "created_at": "2025-07-21T07:12:05.432-04:00", "updated_at": "2025-07-21T09:25:35.094-04:00", "avatar": "https://secure.gravatar.com/avatar/8310bd1ac38d262a4b6a57223c576b74.jpg?s=512&d=https%3A%2F%2Fa.slack-edge.com%2Fdf10d%2Fimg%2Favatars%2Fava_0017-512.png", "custom_css": null}], "pagination": {"page": 806, "pages": 1192, "count": 23828, "items": 20}}