{"users": [{"id": 16206, "slack_id": "U078M1GLR34", "display_name": "pratyush.", "bio": null, "projects_count": 0, "devlogs_count": 0, "votes_count": 0, "ships_count": 0, "projects": [], "coding_time_seconds": 0, "coding_time_seconds_today": 0, "balance": "You need to have a pocket watcher badge to view this.", "badges": [], "created_at": "2025-07-21T07:13:23.676-04:00", "updated_at": "2025-07-21T09:25:35.200-04:00", "avatar": "https://avatars.slack-edge.com/2024-09-19/7765254953889_79ceb0ce115ba88043d5_original.jpg", "custom_css": null}, {"id": 16207, "slack_id": "U096QEHAQDQ", "display_name": "Haolin Qin", "bio": null, "projects_count": 3, "devlogs_count": 10, "votes_count": 52, "ships_count": 2, "projects": [{"id": 7355, "title": "pencil_api", "devlogs_count": 7, "created_at": "2025-07-21T07:54:53.816-04:00"}, {"id": 9776, "title": "pencil_app", "devlogs_count": 2, "created_at": "2025-08-02T08:47:32.687-04:00"}, {"id": 12173, "title": "json2savefile", "devlogs_count": 1, "created_at": "2025-08-23T23:48:03.776-04:00"}], "coding_time_seconds": 181072, "coding_time_seconds_today": 0, "balance": "You need to have a pocket watcher badge to view this.", "badges": [{"name": "Maiden Voyage", "text": "you shipped your first project! the journey begins...", "icon": "\ud83d\udea2"}], "created_at": "2025-07-21T07:18:22.195-04:00", "updated_at": "2025-09-10T22:59:08.939-04:00", "avatar": "https://secure.gravatar.com/avatar/0908945d202583992c93ef5729c7d1d2.jpg?s=512&d=https%3A%2F%2Fa.slack-edge.com%2Fdf10d%2Fimg%2Favatars%2Fava_0020-512.png", "custom_css": null}, {"id": 16208, "slack_id": "U096KCYNRQB", "display_name": "Abhishek", "bio": null, "projects_count": 0, "devlogs_count": 0, "votes_count": 0, "ships_count": 0, "projects": [], "coding_time_seconds": 0, "coding_time_seconds_today": 0, "balance": "You need to have a pocket watcher badge to view this.", "badges": [], "created_at": "2025-07-21T07:31:19.251-04:00", "updated_at": "2025-07-21T09:25:35.384-04:00", "avatar": "https://secure.gravatar.com/avatar/0dc19c1c94887aabd5c0a133a0b33b57.jpg?s=512&d=https%3A%2F%2Fa.slack-edge.com%2Fdf10d%2Fimg%2Favatars%2Fava_0007-512.png", "custom_css": null}, {"id": 16209, "slack_id": "U097DA8BRGQ", "display_name": "ChenYue", "bio": null, "projects_count": 1, "devlogs_count": 3, "votes_count": 0, "ships_count": 1, "projects": [{"id": 9939, "title": "Shin Her Project", "devlogs_count": 2, "created_at": "2025-08-03T02:47:48.437-04:00"}], "coding_time_seconds": 52147, "coding_time_seconds_today": 0, "balance": "You need to have a pocket watcher badge to view this.", "badges": [{"name": "Maiden Voyage", "text": "you shipped your first project! the journey begins...", "icon": "\ud83d\udea2"}], "created_at": "2025-07-21T08:06:19.729-04:00", "updated_at": "2025-09-10T22:59:08.994-04:00", "avatar": "https://secure.gravatar.com/avatar/3b159d8f980ee4cfed25060870f0d208.jpg?s=512&d=https%3A%2F%2Fa.slack-edge.com%2Fdf10d%2Fimg%2Favatars%2Fava_0022-512.png", "custom_css": null}, {"id": 16210, "slack_id": "U096A41FQK1", "display_name": "Pain", "bio": null, "projects_count": 1, "devlogs_count": 0, "votes_count": 0, "ships_count": 0, "projects": [{"id": 7362, "title": "SafeDrive++", "devlogs_count": 0, "created_at": "2025-07-21T10:16:25.221-04:00"}], "coding_time_seconds": 3973, "coding_time_seconds_today": 0, "balance": "You need to have a pocket watcher badge to view this.", "badges": [], "created_at": "2025-07-21T08:45:39.008-04:00", "updated_at": "2025-07-21T12:54:43.002-04:00", "avatar": "https://secure.gravatar.com/avatar/020b3b6d5dec0ef966cd30cdda007e2c.jpg?s=512&d=https%3A%2F%2Fa.slack-edge.com%2Fdf10d%2Fimg%2Favatars%2Fava_0020-512.png", "custom_css": null}, {"id": 16211, "slack_id": "U0974H165GR", "display_name": "Aarav Gaur", "bio": null, "projects_count": 0, "devlogs_count": 0, "votes_count": 0, "ships_count": 0, "projects": [], "coding_time_seconds": 0, "coding_time_seconds_today": 0, "balance": "You need to have a pocket watcher badge to view this.", "badges": [], "created_at": "2025-07-21T09:31:38.142-04:00", "updated_at": "2025-07-22T03:27:45.512-04:00", "avatar": "https://secure.gravatar.com/avatar/d7ed87f97b2f407b2e18213e975e153c.jpg?s=512&d=https%3A%2F%2Fa.slack-edge.com%2Fdf10d%2Fimg%2Favatars%2Fava_0022-512.png", "custom_css": null}, {"id": 16212, "slack_id": "U097DRPKJN4", "display_name": "Anil Kumar Yadav", "bio": "Software Engineer", "projects_count": 2, "devlogs_count": 0, "votes_count": 0, "ships_count": 0, "projects": [{"id": 7364, "title": "To do list", "devlogs_count": 0, "created_at": "2025-07-21T10:25:20.329-04:00"}, {"id": 7366, "title": "Calculator", "devlogs_count": 0, "created_at": "2025-07-21T10:29:20.159-04:00"}], "coding_time_seconds": 37432, "coding_time_seconds_today": 0, "balance": "You need to have a pocket watcher badge to view this.", "badges": [], "created_at": "2025-07-21T09:45:25.803-04:00", "updated_at": "2025-07-24T10:59:19.598-04:00", "avatar": "https://secure.gravatar.com/avatar/48d842fd960e409e6e6d42844e28aac6.jpg?s=512&d=https%3A%2F%2Fa.slack-edge.com%2Fdf10d%2Fimg%2Favatars%2Fava_0012-512.png", "custom_css": null}, {"id": 16213, "slack_id": "U096AG0NRHV", "display_name": "Nico", "bio": null, "projects_count": 0, "devlogs_count": 0, "votes_count": 0, "ships_count": 0, "projects": [], "coding_time_seconds": 161, "coding_time_seconds_today": 0, "balance": "You need to have a pocket watcher badge to view this.", "badges": [], "created_at": "2025-07-21T09:52:40.336-04:00", "updated_at": "2025-07-22T03:27:45.687-04:00", "avatar": "https://secure.gravatar.com/avatar/1a1a36116ad5c89c949aa44f0cbc2802.jpg?s=512&d=https%3A%2F%2Fa.slack-edge.com%2Fdf10d%2Fimg%2Favatars%2Fava_0003-512.png", "custom_css": null}, {"id": 16214, "slack_id": "U07LAUR4G2C", "display_name": "zwecc", "bio": "Blablablabla Bleblebleble\r\n", "projects_count": 3, "devlogs_count": 5, "votes_count": 3, "ships_count": 1, "projects": [{"id": 7621, "title": "sukaOS", "devlogs_count": 1, "created_at": "2025-07-22T10:06:25.784-04:00"}, {"id": 12959, "title": "TaiwanRailwayData", "devlogs_count": 0, "created_at": "2025-09-06T06:08:33.044-04:00"}, {"id": 8730, "title": "fossTRA (FOSS Taiwan Railway App)", "devlogs_count": 4, "created_at": "2025-07-29T03:49:01.535-04:00"}], "coding_time_seconds": 157248, "coding_time_seconds_today": 0, "balance": "You need to have a pocket watcher badge to view this.", "badges": [{"name": "Maiden Voyage", "text": "you shipped your first project! the journey begins...", "icon": "\ud83d\udea2"}], "created_at": "2025-07-21T09:53:12.557-04:00", "updated_at": "2025-09-16T08:43:04.894-04:00", "avatar": "https://secure.gravatar.com/avatar/71bb9637eef43cd794f5bbbaf3de8e6b.jpg?s=512&d=https%3A%2F%2Fa.slack-edge.com%2Fdf10d%2Fimg%2Favatars%2Fava_0016-512.png", "custom_css": null}, {"id": 16215, "slack_id": "U096PCRK93P", "display_name": "Shivam Kumar", "bio": null, "projects_count": 0, "devlogs_count": 0, "votes_count": 0, "ships_count": 0, "projects": [], "coding_time_seconds": 0, "coding_time_seconds_today": 0, "balance": "You need to have a pocket watcher badge to view this.", "badges": [], "created_at": "2025-07-21T09:54:00.387-04:00", "updated_at": "2025-07-22T03:27:45.835-04:00", "avatar": "https://avatars.slack-edge.com/2025-07-21/9230602149988_90efb7cbe725b5e9d5c5_original.png", "custom_css": null}, {"id": 16216, "slack_id": "U0974GCQ8PK", "display_name": "Ledger Fernandez (Rockahara97)", "bio": null, "projects_count": 0, "devlogs_count": 0, "votes_count": 0, "ships_count": 0, "projects": [], "coding_time_seconds": 0, "coding_time_seconds_today": 0, "balance": "You need to have a pocket watcher badge to view this.", "badges": [], "created_at": "2025-07-21T09:58:35.900-04:00", "updated_at": "2025-07-22T03:27:45.917-04:00", "avatar": "https://avatars.slack-edge.com/2025-07-21/9214599976903_775e0e989f74d182f148_original.jpg", "custom_css": null}, {"id": 16217, "slack_id": "U084F8E7UGZ", "display_name": "Samarth Goyal", "bio": "", "projects_count": 2, "devlogs_count": 4, "votes_count": 8, "ships_count": 1, "projects": [{"id": 8449, "title": "Portfolio Website", "devlogs_count": 2, "created_at": "2025-07-27T09:25:35.114-04:00"}, {"id": 7828, "title": "What to Wear", "devlogs_count": 2, "created_at": "2025-07-23T07:25:09.474-04:00"}], "coding_time_seconds": 96593, "coding_time_seconds_today": 0, "balance": "You need to have a pocket watcher badge to view this.", "badges": [{"name": "Maiden Voyage", "text": "you shipped your first project! the journey begins...", "icon": "\ud83d\udea2"}], "created_at": "2025-07-21T10:43:00.726-04:00", "updated_at": "2025-09-10T22:59:09.186-04:00", "avatar": "https://avatars.slack-edge.com/2024-12-06/8136382179829_214ed735608160c48d66_original.png", "custom_css": null}, {"id": 16218, "slack_id": "U09684LEK2B", "display_name": "Joseph", "bio": null, "projects_count": 0, "devlogs_count": 0, "votes_count": 0, "ships_count": 0, "projects": [], "coding_time_seconds": 0, "coding_time_seconds_today": 0, "balance": "You need to have a pocket watcher badge to view this.", "badges": [], "created_at": "2025-07-21T10:43:57.197-04:00", "updated_at": "2025-07-22T13:40:46.327-04:00", "avatar": "https://secure.gravatar.com/avatar/84b10317ae165e5760a8b7534f7441c9.jpg?s=512&d=https%3A%2F%2Fa.slack-edge.com%2Fdf10d%2Fimg%2Favatars%2Fava_0007-512.png", "custom_css": null}, {"id": 16219, "slack_id": "U096AS31DFH", "display_name": "Karthikeya", "bio": null, "projects_count": 1, "devlogs_count": 1, "votes_count": 0, "ships_count": 0, "projects": [{"id": 10577, "title": "Clipboard Clash!", "devlogs_count": 1, "created_at": "2025-08-08T10:59:01.567-04:00"}], "coding_time_seconds": 10922, "coding_time_seconds_today": 0, "balance": "You need to have a pocket watcher badge to view this.", "badges": [], "created_at": "2025-07-21T10:44:19.423-04:00", "updated_at": "2025-08-08T10:54:27.390-04:00", "avatar": "https://secure.gravatar.com/avatar/b1a0ee8923b926d766d998fceec1216a.jpg?s=512&d=https%3A%2F%2Fa.slack-edge.com%2Fdf10d%2Fimg%2Favatars%2Fava_0007-512.png", "custom_css": null}, {"id": 16220, "slack_id": "U096RL363B4", "display_name": "jai ganesh G", "bio": null, "projects_count": 0, "devlogs_count": 0, "votes_count": 0, "ships_count": 0, "projects": [], "coding_time_seconds": 101995, "coding_time_seconds_today": 0, "balance": "You need to have a pocket watcher badge to view this.", "badges": [], "created_at": "2025-07-21T10:49:33.264-04:00", "updated_at": "2025-07-22T03:27:50.284-04:00", "avatar": "https://secure.gravatar.com/avatar/1f15a9bdd7ad12cd61b2e3291e708d2b.jpg?s=512&d=https%3A%2F%2Fa.slack-edge.com%2Fdf10d%2Fimg%2Favatars%2Fava_0018-512.png", "custom_css": null}, {"id": 16221, "slack_id": "U097E8ZT73J", "display_name": "Jimmy", "bio": null, "projects_count": 1, "devlogs_count": 0, "votes_count": 0, "ships_count": 0, "projects": [{"id": 7368, "title": "Riddlio", "devlogs_count": 0, "created_at": "2025-07-21T11:13:34.970-04:00"}], "coding_time_seconds": 0, "coding_time_seconds_today": 0, "balance": "You need to have a pocket watcher badge to view this.", "badges": [], "created_at": "2025-07-21T10:54:37.176-04:00", "updated_at": "2025-07-22T03:27:50.379-04:00", "avatar": "https://avatars.slack-edge.com/2025-07-21/9252321324480_fa2b473c3448e200dcd8_original.jpg", "custom_css": null}, {"id": 16222, "slack_id": "U096T04BNF6", "display_name": "Bhabishwor Gurung", "bio": null, "projects_count": 0, "devlogs_count": 0, "votes_count": 0, "ships_count": 0, "projects": [], "coding_time_seconds": 0, "coding_time_seconds_today": 0, "balance": "You need to have a pocket watcher badge to view this.", "badges": [], "created_at": "2025-07-21T10:59:47.699-04:00", "updated_at": "2025-07-22T03:27:50.459-04:00", "avatar": "https://avatars.slack-edge.com/2025-07-21/9227901279765_d57ab7f39f40f8e3e000_original.png", "custom_css": null}, {"id": 16223, "slack_id": "U092UC0GEPK", "display_name": "Anthony John C. Hinay", "bio": null, "projects_count": 0, "devlogs_count": 0, "votes_count": 0, "ships_count": 0, "projects": [], "coding_time_seconds": 0, "coding_time_seconds_today": 0, "balance": "You need to have a pocket watcher badge to view this.", "badges": [], "created_at": "2025-07-21T11:00:59.930-04:00", "updated_at": "2025-07-22T03:27:50.536-04:00", "avatar": "https://secure.gravatar.com/avatar/839fb644cbca133cd24db6e000883d19.jpg?s=512&d=https%3A%2F%2Fa.slack-edge.com%2Fdf10d%2Fimg%2Favatars%2Fava_0009-512.png", "custom_css": null}, {"id": 16224, "slack_id": "U096B0LSJQP", "display_name": "Pujan Silwal", "bio": null, "projects_count": 0, "devlogs_count": 0, "votes_count": 0, "ships_count": 0, "projects": [], "coding_time_seconds": 0, "coding_time_seconds_today": 0, "balance": "You need to have a pocket watcher badge to view this.", "badges": [], "created_at": "2025-07-21T11:03:41.339-04:00", "updated_at": "2025-07-22T03:27:50.624-04:00", "avatar": "https://secure.gravatar.com/avatar/97948be1eccdead4ed79465371e6f441.jpg?s=512&d=https%3A%2F%2Fa.slack-edge.com%2Fdf10d%2Fimg%2Favatars%2Fava_0013-512.png", "custom_css": null}, {"id": 16225, "slack_id": "U096T2XELJY", "display_name": "samliu (alt sdfvx)", "bio": null, "projects_count": 1, "devlogs_count": 0, "votes_count": 0, "ships_count": 0, "projects": [{"id": 7369, "title": "Test projec", "devlogs_count": 0, "created_at": "2025-07-21T11:17:28.706-04:00"}], "coding_time_seconds": 14669, "coding_time_seconds_today": 0, "balance": "You need to have a pocket watcher badge to view this.", "badges": [], "created_at": "2025-07-21T11:11:56.812-04:00", "updated_at": "2025-07-22T03:27:50.710-04:00", "avatar": "https://secure.gravatar.com/avatar/e2156c181a0dbde186d43c48d314ad1a.jpg?s=512&d=https%3A%2F%2Fa.slack-edge.com%2Fdf10d%2Fimg%2Favatars%2Fava_0006-512.png", "custom_css": null}], "pagination": {"page": 807, "pages": 1192, "count": 23828, "items": 20}}