{"users": [{"id": 16226, "slack_id": "U096T70FR6Y", "display_name": "Tunmise", "bio": null, "projects_count": 0, "devlogs_count": 0, "votes_count": 0, "ships_count": 0, "projects": [], "coding_time_seconds": 37779, "coding_time_seconds_today": 0, "balance": "You need to have a pocket watcher badge to view this.", "badges": [], "created_at": "2025-07-21T11:34:20.329-04:00", "updated_at": "2025-07-22T03:27:50.794-04:00", "avatar": "https://secure.gravatar.com/avatar/b0f7c40084e2accc01bd8a68947c1fd3.jpg?s=512&d=https%3A%2F%2Fa.slack-edge.com%2Fdf10d%2Fimg%2Favatars%2Fava_0015-512.png", "custom_css": null}, {"id": 16227, "slack_id": "U096LQWNQTD", "display_name": "Kamil", "bio": null, "projects_count": 0, "devlogs_count": 0, "votes_count": 0, "ships_count": 0, "projects": [], "coding_time_seconds": 0, "coding_time_seconds_today": 0, "balance": "You need to have a pocket watcher badge to view this.", "badges": [], "created_at": "2025-07-21T11:43:49.616-04:00", "updated_at": "2025-09-11T03:24:57.543-04:00", "avatar": "https://avatars.slack-edge.com/2025-09-10/9510193108673_16c3f4f4688b8e86e6ec_original.jpg", "custom_css": null}, {"id": 16228, "slack_id": "U096T9L74PN", "display_name": "Neeraj", "bio": null, "projects_count": 0, "devlogs_count": 0, "votes_count": 0, "ships_count": 0, "projects": [], "coding_time_seconds": 1226, "coding_time_seconds_today": 0, "balance": "You need to have a pocket watcher badge to view this.", "badges": [], "created_at": "2025-07-21T11:49:57.870-04:00", "updated_at": "2025-07-26T07:50:34.458-04:00", "avatar": "https://avatars.slack-edge.com/2025-07-21/9215723815175_d7e4b655557270c333ff_original.png", "custom_css": null}, {"id": 16229, "slack_id": "U0975DP3E2D", "display_name": "Hadia", "bio": null, "projects_count": 0, "devlogs_count": 0, "votes_count": 0, "ships_count": 0, "projects": [], "coding_time_seconds": 0, "coding_time_seconds_today": 0, "balance": "You need to have a pocket watcher badge to view this.", "badges": [], "created_at": "2025-07-21T11:52:53.853-04:00", "updated_at": "2025-07-22T03:27:51.051-04:00", "avatar": "https://secure.gravatar.com/avatar/f8806658ee74f5339b5b46e5f0317ee6.jpg?s=512&d=https%3A%2F%2Fa.slack-edge.com%2Fdf10d%2Fimg%2Favatars%2Fava_0008-512.png", "custom_css": null}, {"id": 16230, "slack_id": "U092X588ZS5", "display_name": "sharpX", "bio": null, "projects_count": 0, "devlogs_count": 0, "votes_count": 0, "ships_count": 0, "projects": [], "coding_time_seconds": 0, "coding_time_seconds_today": 0, "balance": "You need to have a pocket watcher badge to view this.", "badges": [], "created_at": "2025-07-21T12:20:04.536-04:00", "updated_at": "2025-07-22T03:27:51.132-04:00", "avatar": "https://secure.gravatar.com/avatar/f52c75fe307d17d2270930471a22812c.jpg?s=512&d=https%3A%2F%2Fa.slack-edge.com%2Fdf10d%2Fimg%2Favatars%2Fava_0006-512.png", "custom_css": null}, {"id": 16231, "slack_id": "U092AT8AMUK", "display_name": "FrostVT", "bio": null, "projects_count": 0, "devlogs_count": 0, "votes_count": 0, "ships_count": 0, "projects": [], "coding_time_seconds": 13596, "coding_time_seconds_today": 0, "balance": "You need to have a pocket watcher badge to view this.", "badges": [], "created_at": "2025-07-21T12:34:02.164-04:00", "updated_at": "2025-07-22T03:27:51.231-04:00", "avatar": "https://avatars.slack-edge.com/2025-07-21/9225544906675_076eea96ef127bb82eeb_original.png", "custom_css": null}, {"id": 16232, "slack_id": "U096SBPV78S", "display_name": "sarah", "bio": null, "projects_count": 0, "devlogs_count": 0, "votes_count": 0, "ships_count": 0, "projects": [], "coding_time_seconds": 0, "coding_time_seconds_today": 0, "balance": "You need to have a pocket watcher badge to view this.", "badges": [], "created_at": "2025-07-21T12:35:55.455-04:00", "updated_at": "2025-07-22T12:43:54.448-04:00", "avatar": "https://avatars.slack-edge.com/2025-07-21/9228523473893_0cbd57d2f9c6cf80a1de_original.png", "custom_css": null}, {"id": 16233, "slack_id": "U092X6Q80JV", "display_name": "MOHD AFTAAB", "bio": null, "projects_count": 1, "devlogs_count": 0, "votes_count": 0, "ships_count": 0, "projects": [{"id": 7616, "title": "PATENT IDEA CHECK", "devlogs_count": 0, "created_at": "2025-07-22T09:59:38.445-04:00"}], "coding_time_seconds": 4294, "coding_time_seconds_today": 0, "balance": "You need to have a pocket watcher badge to view this.", "badges": [], "created_at": "2025-07-21T12:42:16.707-04:00", "updated_at": "2025-07-22T09:59:58.363-04:00", "avatar": "https://secure.gravatar.com/avatar/37eeab0700e13bb2746f284ef8ce1712.jpg?s=512&d=https%3A%2F%2Fa.slack-edge.com%2Fdf10d%2Fimg%2Favatars%2Fava_0022-512.png", "custom_css": null}, {"id": 16234, "slack_id": "U096M792X3M", "display_name": "Aayush Gupta", "bio": null, "projects_count": 0, "devlogs_count": 0, "votes_count": 0, "ships_count": 0, "projects": [], "coding_time_seconds": 0, "coding_time_seconds_today": 0, "balance": "You need to have a pocket watcher badge to view this.", "badges": [], "created_at": "2025-07-21T12:50:22.666-04:00", "updated_at": "2025-07-22T03:27:51.480-04:00", "avatar": "https://secure.gravatar.com/avatar/d7d1fd67090dadc1ae41ea0bb2912cc8.jpg?s=512&d=https%3A%2F%2Fa.slack-edge.com%2Fdf10d%2Fimg%2Favatars%2Fava_0006-512.png", "custom_css": null}, {"id": 16235, "slack_id": "U096526SU79", "display_name": "MAYY8ACHHFUCKU", "bio": null, "projects_count": 0, "devlogs_count": 0, "votes_count": 0, "ships_count": 0, "projects": [], "coding_time_seconds": 0, "coding_time_seconds_today": 0, "balance": "You need to have a pocket watcher badge to view this.", "badges": [], "created_at": "2025-07-21T12:52:56.900-04:00", "updated_at": "2025-07-22T03:27:51.559-04:00", "avatar": "https://secure.gravatar.com/avatar/9b9db1616bc446efe4cfa469a84aa9c1.jpg?s=512&d=https%3A%2F%2Fa.slack-edge.com%2Fdf10d%2Fimg%2Favatars%2Fava_0025-512.png", "custom_css": null}, {"id": 16236, "slack_id": "U096BN9J5CP", "display_name": "CMH_Stem_Club_Leaders", "bio": null, "projects_count": 0, "devlogs_count": 0, "votes_count": 0, "ships_count": 0, "projects": [], "coding_time_seconds": 170, "coding_time_seconds_today": 0, "balance": "You need to have a pocket watcher badge to view this.", "badges": [], "created_at": "2025-07-21T13:01:45.891-04:00", "updated_at": "2025-07-22T23:29:25.854-04:00", "avatar": "https://avatars.slack-edge.com/2025-07-21/9226293944867_26bc57c39b8da750aa15_original.jpg", "custom_css": null}, {"id": 16237, "slack_id": "U096SGJ4K8S", "display_name": "Henry", "bio": null, "projects_count": 0, "devlogs_count": 0, "votes_count": 0, "ships_count": 0, "projects": [], "coding_time_seconds": 0, "coding_time_seconds_today": 0, "balance": "You need to have a pocket watcher badge to view this.", "badges": [], "created_at": "2025-07-21T13:02:09.620-04:00", "updated_at": "2025-07-22T03:27:51.747-04:00", "avatar": "https://secure.gravatar.com/avatar/4ceb4132eb861f13c92812baea529ebf.jpg?s=512&d=https%3A%2F%2Fa.slack-edge.com%2Fdf10d%2Fimg%2Favatars%2Fava_0021-512.png", "custom_css": null}, {"id": 16238, "slack_id": "U0975SKDVUZ", "display_name": "Imagineee", "bio": "A small developer, with big ambitious dreams.", "projects_count": 6, "devlogs_count": 1, "votes_count": 1, "ships_count": 0, "projects": [{"id": 8197, "title": "Hyprland rice", "devlogs_count": 0, "created_at": "2025-07-25T07:16:25.039-04:00"}, {"id": 8198, "title": "Dot files", "devlogs_count": 0, "created_at": "2025-07-25T07:17:15.646-04:00"}, {"id": 8201, "title": "Bento", "devlogs_count": 0, "created_at": "2025-07-25T07:29:00.598-04:00"}, {"id": 8206, "title": "Lychee", "devlogs_count": 1, "created_at": "2025-07-25T07:55:41.379-04:00"}, {"id": 8267, "title": "Hanabi", "devlogs_count": 0, "created_at": "2025-07-25T19:49:45.151-04:00"}, {"id": 8329, "title": "beans.space", "devlogs_count": 0, "created_at": "2025-07-26T09:12:45.192-04:00"}], "coding_time_seconds": 290552, "coding_time_seconds_today": 0, "balance": "You need to have a pocket watcher badge to view this.", "badges": [], "created_at": "2025-07-21T13:10:45.294-04:00", "updated_at": "2025-08-08T08:00:00.656-04:00", "avatar": "https://secure.gravatar.com/avatar/2a2bc6ad9a4723d6f733a64b24f86b6f.jpg?s=512&d=https%3A%2F%2Fa.slack-edge.com%2Fdf10d%2Fimg%2Favatars%2Fava_0025-512.png", "custom_css": null}, {"id": 16239, "slack_id": "U0975T7GHS5", "display_name": "Dariane", "bio": null, "projects_count": 0, "devlogs_count": 0, "votes_count": 0, "ships_count": 0, "projects": [], "coding_time_seconds": 0, "coding_time_seconds_today": 0, "balance": "You need to have a pocket watcher badge to view this.", "badges": [], "created_at": "2025-07-21T13:10:59.981-04:00", "updated_at": "2025-07-22T03:27:51.915-04:00", "avatar": "https://secure.gravatar.com/avatar/1b90be5d63b84505727463ebcbaea0b1.jpg?s=512&d=https%3A%2F%2Fa.slack-edge.com%2Fdf10d%2Fimg%2Favatars%2Fava_0019-512.png", "custom_css": null}, {"id": 16240, "slack_id": "U0808EPP150", "display_name": "Mrbingo", "bio": null, "projects_count": 0, "devlogs_count": 0, "votes_count": 0, "ships_count": 0, "projects": [], "coding_time_seconds": 5246, "coding_time_seconds_today": 0, "balance": "You need to have a pocket watcher badge to view this.", "badges": [], "created_at": "2025-07-21T13:21:23.761-04:00", "updated_at": "2025-07-22T16:22:08.047-04:00", "avatar": "https://secure.gravatar.com/avatar/e99a0e45fa6f667984e5dd36a0311717.jpg?s=512&d=https%3A%2F%2Fa.slack-edge.com%2Fdf10d%2Fimg%2Favatars%2Fava_0008-512.png", "custom_css": null}, {"id": 16241, "slack_id": "U096SNZ0K7U", "display_name": "Rohit", "bio": null, "projects_count": 0, "devlogs_count": 0, "votes_count": 0, "ships_count": 0, "projects": [], "coding_time_seconds": 197304, "coding_time_seconds_today": 7380, "balance": "You need to have a pocket watcher badge to view this.", "badges": [], "created_at": "2025-07-21T13:42:19.140-04:00", "updated_at": "2025-08-25T03:03:26.820-04:00", "avatar": "https://secure.gravatar.com/avatar/d7b83e56baeb4fef0d27b6883a8f285f.jpg?s=512&d=https%3A%2F%2Fa.slack-edge.com%2Fdf10d%2Fimg%2Favatars%2Fava_0015-512.png", "custom_css": null}, {"id": 16242, "slack_id": "U096SU4230S", "display_name": "Paul S", "bio": null, "projects_count": 0, "devlogs_count": 0, "votes_count": 0, "ships_count": 0, "projects": [], "coding_time_seconds": 0, "coding_time_seconds_today": 0, "balance": "You need to have a pocket watcher badge to view this.", "badges": [], "created_at": "2025-07-21T14:11:05.128-04:00", "updated_at": "2025-07-22T03:27:52.154-04:00", "avatar": "https://secure.gravatar.com/avatar/05a02ff89ea98bbce4617f36e1536ef8.jpg?s=512&d=https%3A%2F%2Fa.slack-edge.com%2Fdf10d%2Fimg%2Favatars%2Fava_0016-512.png", "custom_css": null}, {"id": 16243, "slack_id": "U096PRH36CE", "display_name": "Soleil", "bio": null, "projects_count": 0, "devlogs_count": 0, "votes_count": 0, "ships_count": 0, "projects": [], "coding_time_seconds": 0, "coding_time_seconds_today": 0, "balance": "You need to have a pocket watcher badge to view this.", "badges": [], "created_at": "2025-07-21T14:16:51.937-04:00", "updated_at": "2025-07-22T03:27:52.248-04:00", "avatar": "https://secure.gravatar.com/avatar/b64852cab2478bda43e6fcd9bbd3aca5.jpg?s=512&d=https%3A%2F%2Fa.slack-edge.com%2Fdf10d%2Fimg%2Favatars%2Fava_0017-512.png", "custom_css": null}, {"id": 16244, "slack_id": "U097FH8FVB2", "display_name": "Maneesh Gollapudi", "bio": "", "projects_count": 1, "devlogs_count": 2, "votes_count": 14, "ships_count": 1, "projects": [{"id": 7440, "title": "SciOly Resources Website", "devlogs_count": 2, "created_at": "2025-07-21T18:59:08.457-04:00"}], "coding_time_seconds": 9328, "coding_time_seconds_today": 0, "balance": "You need to have a pocket watcher badge to view this.", "badges": [{"name": "Maiden Voyage", "text": "you shipped your first project! the journey begins...", "icon": "\ud83d\udea2"}], "created_at": "2025-07-21T14:35:37.292-04:00", "updated_at": "2025-09-10T22:59:10.049-04:00", "avatar": "https://secure.gravatar.com/avatar/3bae24699ea15b34900c1786d17bd9bc.jpg?s=512&d=https%3A%2F%2Fa.slack-edge.com%2Fdf10d%2Fimg%2Favatars%2Fava_0024-512.png", "custom_css": null}, {"id": 16245, "slack_id": "U097FLN9KA4", "display_name": "Aaron", "bio": null, "projects_count": 0, "devlogs_count": 0, "votes_count": 0, "ships_count": 0, "projects": [], "coding_time_seconds": 0, "coding_time_seconds_today": 0, "balance": "You need to have a pocket watcher badge to view this.", "badges": [], "created_at": "2025-07-21T14:57:05.716-04:00", "updated_at": "2025-07-22T03:27:52.413-04:00", "avatar": "https://secure.gravatar.com/avatar/47d26ddcfe53472a5c14bfb963938a7d.jpg?s=512&d=https%3A%2F%2Fa.slack-edge.com%2Fdf10d%2Fimg%2Favatars%2Fava_0021-512.png", "custom_css": null}], "pagination": {"page": 808, "pages": 1192, "count": 23828, "items": 20}}