{"users": [{"id": 16266, "slack_id": "U096T7CPXFC", "display_name": "Vivaan N", "bio": null, "projects_count": 0, "devlogs_count": 0, "votes_count": 0, "ships_count": 0, "projects": [], "coding_time_seconds": 0, "coding_time_seconds_today": 0, "balance": "You need to have a pocket watcher badge to view this.", "badges": [], "created_at": "2025-07-21T15:05:22.588-04:00", "updated_at": "2025-07-22T03:27:58.247-04:00", "avatar": "https://secure.gravatar.com/avatar/f2847a1052c0c0f891d6720b50599f33.jpg?s=512&d=https%3A%2F%2Fa.slack-edge.com%2Fdf10d%2Fimg%2Favatars%2Fava_0012-512.png", "custom_css": null}, {"id": 16267, "slack_id": "U096R9P8TS9", "display_name": "Jakov", "bio": "Hello, I'm 13 years old and I'm a fullstack web developer using Next.js.\r\n\r\nI love Convex as the backend for my Next app, and I'm building Canvas Flow Studio which uses it.\r\n\r\nIt's a site where you can drag & drop nodes onto the whiteboard, connect them and create an AI workflow.\r\n\r\nAI... such a popular concept these days. ", "projects_count": 0, "devlogs_count": 18, "votes_count": 61, "ships_count": 0, "projects": [], "coding_time_seconds": 332707, "coding_time_seconds_today": 0, "balance": "You need to have a pocket watcher badge to view this.", "badges": [], "created_at": "2025-07-21T15:05:24.993-04:00", "updated_at": "2025-08-18T08:28:42.226-04:00", "avatar": "https://avatars.slack-edge.com/2025-08-02/9310619131169_78447555cc09bd9787ce_original.png", "custom_css": null}, {"id": 16268, "slack_id": "U0976F97HPB", "display_name": "Dashrath", "bio": null, "projects_count": 0, "devlogs_count": 0, "votes_count": 0, "ships_count": 0, "projects": [], "coding_time_seconds": 0, "coding_time_seconds_today": 0, "balance": "You need to have a pocket watcher badge to view this.", "badges": [], "created_at": "2025-07-21T15:05:26.312-04:00", "updated_at": "2025-07-22T03:27:58.427-04:00", "avatar": "https://secure.gravatar.com/avatar/d1a2f0dbf4d6db6bc8b5728cc6fb98ac.jpg?s=512&d=https%3A%2F%2Fa.slack-edge.com%2Fdf10d%2Fimg%2Favatars%2Fava_0022-512.png", "custom_css": null}, {"id": 16269, "slack_id": "U096Q4MCMK8", "display_name": "Harsh Verma", "bio": null, "projects_count": 0, "devlogs_count": 0, "votes_count": 0, "ships_count": 0, "projects": [], "coding_time_seconds": 38973, "coding_time_seconds_today": 0, "balance": "You need to have a pocket watcher badge to view this.", "badges": [], "created_at": "2025-07-21T15:05:26.877-04:00", "updated_at": "2025-07-22T04:21:38.944-04:00", "avatar": "https://secure.gravatar.com/avatar/a532df951c6f2f4d0741abd80fc26527.jpg?s=512&d=https%3A%2F%2Fa.slack-edge.com%2Fdf10d%2Fimg%2Favatars%2Fava_0003-512.png", "custom_css": null}, {"id": 16270, "slack_id": "U097FMYMA2U", "display_name": "SkyDev", "bio": null, "projects_count": 0, "devlogs_count": 0, "votes_count": 0, "ships_count": 0, "projects": [], "coding_time_seconds": 0, "coding_time_seconds_today": 0, "balance": "You need to have a pocket watcher badge to view this.", "badges": [], "created_at": "2025-07-21T15:05:35.140-04:00", "updated_at": "2025-07-22T03:27:58.611-04:00", "avatar": "https://secure.gravatar.com/avatar/d4cf5698a60225b45bc2603725c2b6a9.jpg?s=512&d=https%3A%2F%2Fa.slack-edge.com%2Fdf10d%2Fimg%2Favatars%2Fava_0010-512.png", "custom_css": null}, {"id": 16271, "slack_id": "U096MV23VH9", "display_name": "Joseph John", "bio": null, "projects_count": 0, "devlogs_count": 0, "votes_count": 0, "ships_count": 0, "projects": [], "coding_time_seconds": 0, "coding_time_seconds_today": 0, "balance": "You need to have a pocket watcher badge to view this.", "badges": [], "created_at": "2025-07-21T15:05:40.156-04:00", "updated_at": "2025-07-22T03:27:58.691-04:00", "avatar": "https://secure.gravatar.com/avatar/244385d93688b3ab66726a815be691b5.jpg?s=512&d=https%3A%2F%2Fa.slack-edge.com%2Fdf10d%2Fimg%2Favatars%2Fava_0016-512.png", "custom_css": null}, {"id": 16272, "slack_id": "U096Q4UDMT8", "display_name": "Brian Wei", "bio": null, "projects_count": 0, "devlogs_count": 0, "votes_count": 0, "ships_count": 0, "projects": [], "coding_time_seconds": 0, "coding_time_seconds_today": 0, "balance": "You need to have a pocket watcher badge to view this.", "badges": [], "created_at": "2025-07-21T15:05:46.291-04:00", "updated_at": "2025-07-22T03:27:58.787-04:00", "avatar": "https://secure.gravatar.com/avatar/5740ff858079db63391316841a43a8a3.jpg?s=512&d=https%3A%2F%2Fa.slack-edge.com%2Fdf10d%2Fimg%2Favatars%2Fava_0012-512.png", "custom_css": null}, {"id": 16273, "slack_id": "U096R9USULD", "display_name": "Jimmy Badr", "bio": null, "projects_count": 0, "devlogs_count": 0, "votes_count": 0, "ships_count": 0, "projects": [], "coding_time_seconds": 0, "coding_time_seconds_today": 0, "balance": "You need to have a pocket watcher badge to view this.", "badges": [], "created_at": "2025-07-21T15:05:48.389-04:00", "updated_at": "2025-07-22T03:27:58.867-04:00", "avatar": "https://avatars.slack-edge.com/2025-07-21/9244543459937_b5f646462d088dd7aa36_original.png", "custom_css": null}, {"id": 16274, "slack_id": "U096UE2UNDS", "display_name": "Conqueror", "bio": null, "projects_count": 0, "devlogs_count": 0, "votes_count": 0, "ships_count": 0, "projects": [], "coding_time_seconds": 0, "coding_time_seconds_today": 0, "balance": "You need to have a pocket watcher badge to view this.", "badges": [], "created_at": "2025-07-21T15:05:48.904-04:00", "updated_at": "2025-07-22T03:27:58.955-04:00", "avatar": "https://secure.gravatar.com/avatar/1aad1e2966919f8b541d40cc63fb7eab.jpg?s=512&d=https%3A%2F%2Fa.slack-edge.com%2Fdf10d%2Fimg%2Favatars%2Fava_0011-512.png", "custom_css": null}, {"id": 16275, "slack_id": "U0976FMQVS5", "display_name": "Abhi", "bio": null, "projects_count": 0, "devlogs_count": 0, "votes_count": 0, "ships_count": 0, "projects": [], "coding_time_seconds": 0, "coding_time_seconds_today": 0, "balance": "You need to have a pocket watcher badge to view this.", "badges": [], "created_at": "2025-07-21T15:05:50.010-04:00", "updated_at": "2025-07-22T03:27:59.047-04:00", "avatar": "https://secure.gravatar.com/avatar/dd776c54b51c1172901ae4fcfe945602.jpg?s=512&d=https%3A%2F%2Fa.slack-edge.com%2Fdf10d%2Fimg%2Favatars%2Fava_0006-512.png", "custom_css": null}, {"id": 16276, "slack_id": "U096Q4W9UHL", "display_name": "Adham", "bio": null, "projects_count": 0, "devlogs_count": 0, "votes_count": 0, "ships_count": 0, "projects": [], "coding_time_seconds": 0, "coding_time_seconds_today": 0, "balance": "You need to have a pocket watcher badge to view this.", "badges": [], "created_at": "2025-07-21T15:05:52.223-04:00", "updated_at": "2025-07-22T03:27:59.124-04:00", "avatar": "https://secure.gravatar.com/avatar/1db66d2b6854ad406ba08f2c226a49a9.jpg?s=512&d=https%3A%2F%2Fa.slack-edge.com%2Fdf10d%2Fimg%2Favatars%2Fava_0014-512.png", "custom_css": null}, {"id": 16277, "slack_id": "U07FSKMEJN4", "display_name": "Paillat", "bio": "Doing things on the internet", "projects_count": 2, "devlogs_count": 2, "votes_count": 0, "ships_count": 1, "projects": [{"id": 7421, "title": "pycord", "devlogs_count": 1, "created_at": "2025-07-21T17:54:26.316-04:00"}, {"id": 8178, "title": "Colorful Scala hello world", "devlogs_count": 1, "created_at": "2025-07-25T04:39:02.553-04:00"}], "coding_time_seconds": 179245, "coding_time_seconds_today": 0, "balance": "You need to have a pocket watcher badge to view this.", "badges": [], "created_at": "2025-07-21T15:05:55.692-04:00", "updated_at": "2025-07-21T17:53:18.976-04:00", "avatar": "https://avatars.slack-edge.com/2025-06-30/9111097000791_5d69c95fad2e44c21eae_original.jpg", "custom_css": null}, {"id": 16278, "slack_id": "U096CE9KJCX", "display_name": "Nathan Hoffman", "bio": null, "projects_count": 1, "devlogs_count": 1, "votes_count": 2, "ships_count": 0, "projects": [{"id": 7438, "title": "Rubik's Cube Simulator (from scratch, in Python)", "devlogs_count": 1, "created_at": "2025-07-21T18:57:21.349-04:00"}], "coding_time_seconds": 40427, "coding_time_seconds_today": 0, "balance": "You need to have a pocket watcher badge to view this.", "badges": [], "created_at": "2025-07-21T15:05:56.036-04:00", "updated_at": "2025-07-22T03:27:59.290-04:00", "avatar": "https://avatars.slack-edge.com/2025-07-21/9228178591894_f6a33fbf4f8c2946d9da_original.jpg", "custom_css": null}, {"id": 16279, "slack_id": "U096MV1L4JX", "display_name": "Rashi", "bio": null, "projects_count": 0, "devlogs_count": 0, "votes_count": 0, "ships_count": 0, "projects": [], "coding_time_seconds": 0, "coding_time_seconds_today": 0, "balance": "You need to have a pocket watcher badge to view this.", "badges": [], "created_at": "2025-07-21T15:06:00.200-04:00", "updated_at": "2025-07-22T03:28:03.401-04:00", "avatar": "https://secure.gravatar.com/avatar/413e684e79486b7a41271687e61bfd35.jpg?s=512&d=https%3A%2F%2Fa.slack-edge.com%2Fdf10d%2Fimg%2Favatars%2Fava_0004-512.png", "custom_css": null}, {"id": 16280, "slack_id": "U096T7EFE7L", "display_name": "Zhenyu Bu", "bio": null, "projects_count": 0, "devlogs_count": 0, "votes_count": 0, "ships_count": 0, "projects": [], "coding_time_seconds": 0, "coding_time_seconds_today": 0, "balance": "You need to have a pocket watcher badge to view this.", "badges": [], "created_at": "2025-07-21T15:06:01.707-04:00", "updated_at": "2025-07-22T03:28:03.482-04:00", "avatar": "https://secure.gravatar.com/avatar/ee5eb34109d59ad306a84d66aad5eb9d.jpg?s=512&d=https%3A%2F%2Fa.slack-edge.com%2Fdf10d%2Fimg%2Favatars%2Fava_0026-512.png", "custom_css": null}, {"id": 16281, "slack_id": "U096MUVTUM9", "display_name": "Egloris", "bio": "Hey there! I'm Egloris, founder of Loris Games. I've been making games on Roblox since I was nine, and my current big project is Pet City, a cozy life sim where you adopt and raise unique pets. I'm all about building warm, community-focused games, and right now I'm diving deep into Roblox TypeScript, Flamework, and React to make Pet City the best it can be. When I'm not coding, you can probably find me on the tennis court!", "projects_count": 1, "devlogs_count": 19, "votes_count": 2, "ships_count": 0, "projects": [{"id": 7414, "title": "Pet City!", "devlogs_count": 18, "created_at": "2025-07-21T17:36:55.202-04:00"}], "coding_time_seconds": 669042, "coding_time_seconds_today": 0, "balance": "You need to have a pocket watcher badge to view this.", "badges": [], "created_at": "2025-07-21T15:06:06.535-04:00", "updated_at": "2025-08-08T18:19:44.901-04:00", "avatar": "https://avatars.slack-edge.com/2025-07-23/9239408990693_9e71130484b78ae4fdc8_original.jpg", "custom_css": null}, {"id": 16282, "slack_id": "U096CE52W5V", "display_name": "S. M. Mehebub Ul Haque Mukut", "bio": null, "projects_count": 0, "devlogs_count": 0, "votes_count": 0, "ships_count": 0, "projects": [], "coding_time_seconds": 0, "coding_time_seconds_today": 0, "balance": "You need to have a pocket watcher badge to view this.", "badges": [], "created_at": "2025-07-21T15:06:17.592-04:00", "updated_at": "2025-08-01T16:14:43.190-04:00", "avatar": "https://avatars.slack-edge.com/2025-07-21/9253765551360_bda34730f6dcd89178b1_original.jpg", "custom_css": null}, {"id": 16283, "slack_id": "U097FM2E3T2", "display_name": "Emil Krebs", "bio": null, "projects_count": 0, "devlogs_count": 0, "votes_count": 0, "ships_count": 0, "projects": [], "coding_time_seconds": 0, "coding_time_seconds_today": 0, "balance": "You need to have a pocket watcher badge to view this.", "badges": [], "created_at": "2025-07-21T15:06:21.511-04:00", "updated_at": "2025-07-22T03:28:03.760-04:00", "avatar": "https://secure.gravatar.com/avatar/a3417a09a3f41c56b00f46ac3530e3ad.jpg?s=512&d=https%3A%2F%2Fa.slack-edge.com%2Fdf10d%2Fimg%2Favatars%2Fava_0022-512.png", "custom_css": null}, {"id": 16284, "slack_id": "U096Q4ZGAS2", "display_name": "Danny Nguyen", "bio": null, "projects_count": 0, "devlogs_count": 0, "votes_count": 0, "ships_count": 0, "projects": [], "coding_time_seconds": 0, "coding_time_seconds_today": 0, "balance": "You need to have a pocket watcher badge to view this.", "badges": [], "created_at": "2025-07-21T15:06:26.431-04:00", "updated_at": "2025-07-22T03:28:03.871-04:00", "avatar": "https://avatars.slack-edge.com/2025-07-21/9232497806996_9d61fb50cfa87084e65f_original.png", "custom_css": null}, {"id": 16285, "slack_id": "U096R8VF4MT", "display_name": "Simone", "bio": null, "projects_count": 0, "devlogs_count": 0, "votes_count": 0, "ships_count": 0, "projects": [], "coding_time_seconds": 0, "coding_time_seconds_today": 0, "balance": "You need to have a pocket watcher badge to view this.", "badges": [], "created_at": "2025-07-21T15:06:28.509-04:00", "updated_at": "2025-07-31T01:26:02.040-04:00", "avatar": "https://secure.gravatar.com/avatar/e91cb6ac446c2b9c025b4ee0894fa6c3.jpg?s=512&d=https%3A%2F%2Fa.slack-edge.com%2Fdf10d%2Fimg%2Favatars%2Fava_0013-512.png", "custom_css": null}], "pagination": {"page": 810, "pages": 1192, "count": 23828, "items": 20}}