{"users": [{"id": 16286, "slack_id": "U096Q3QFB4N", "display_name": "Khyati Dhawan", "bio": null, "projects_count": 0, "devlogs_count": 0, "votes_count": 0, "ships_count": 0, "projects": [], "coding_time_seconds": 24333, "coding_time_seconds_today": 0, "balance": "You need to have a pocket watcher badge to view this.", "badges": [], "created_at": "2025-07-21T15:06:30.292-04:00", "updated_at": "2025-07-24T11:35:42.655-04:00", "avatar": "https://secure.gravatar.com/avatar/0bec2ae6bda8e54420e3ea779e4a8ea2.jpg?s=512&d=https%3A%2F%2Fa.slack-edge.com%2Fdf10d%2Fimg%2Favatars%2Fava_0004-512.png", "custom_css": null}, {"id": 16287, "slack_id": "U096MUR4ML3", "display_name": "Jeneel Kachhadiya", "bio": null, "projects_count": 0, "devlogs_count": 0, "votes_count": 0, "ships_count": 0, "projects": [], "coding_time_seconds": 0, "coding_time_seconds_today": 0, "balance": "You need to have a pocket watcher badge to view this.", "badges": [], "created_at": "2025-07-21T15:06:30.756-04:00", "updated_at": "2025-07-22T03:28:04.126-04:00", "avatar": "https://secure.gravatar.com/avatar/31b2a924a4c6bfbb9fb4ce92e4cb4c14.jpg?s=512&d=https%3A%2F%2Fa.slack-edge.com%2Fdf10d%2Fimg%2Favatars%2Fava_0003-512.png", "custom_css": null}, {"id": 16288, "slack_id": "U097FN2ET2L", "display_name": "EnjoySun", "bio": null, "projects_count": 0, "devlogs_count": 0, "votes_count": 0, "ships_count": 0, "projects": [], "coding_time_seconds": 0, "coding_time_seconds_today": 0, "balance": "You need to have a pocket watcher badge to view this.", "badges": [], "created_at": "2025-07-21T15:06:30.760-04:00", "updated_at": "2025-07-22T03:28:04.210-04:00", "avatar": "https://secure.gravatar.com/avatar/fbc9bec3e4295a5308c36418b2042bbd.jpg?s=512&d=https%3A%2F%2Fa.slack-edge.com%2Fdf10d%2Fimg%2Favatars%2Fava_0024-512.png", "custom_css": null}, {"id": 16289, "slack_id": "U096Q4WV2QN", "display_name": "Ali \u015een", "bio": null, "projects_count": 0, "devlogs_count": 0, "votes_count": 0, "ships_count": 0, "projects": [], "coding_time_seconds": 0, "coding_time_seconds_today": 0, "balance": "You need to have a pocket watcher badge to view this.", "badges": [], "created_at": "2025-07-21T15:06:32.710-04:00", "updated_at": "2025-07-22T03:28:04.293-04:00", "avatar": "https://secure.gravatar.com/avatar/85151a4c3266d491971628bc9b1308f1.jpg?s=512&d=https%3A%2F%2Fa.slack-edge.com%2Fdf10d%2Fimg%2Favatars%2Fava_0017-512.png", "custom_css": null}, {"id": 16290, "slack_id": "U097FN1KBDW", "display_name": "bgn-dev", "bio": null, "projects_count": 0, "devlogs_count": 0, "votes_count": 0, "ships_count": 0, "projects": [], "coding_time_seconds": 0, "coding_time_seconds_today": 0, "balance": "You need to have a pocket watcher badge to view this.", "badges": [], "created_at": "2025-07-21T15:06:33.597-04:00", "updated_at": "2025-07-22T03:28:04.369-04:00", "avatar": "https://secure.gravatar.com/avatar/196a6da534cbff32747c7472de701852.jpg?s=512&d=https%3A%2F%2Fa.slack-edge.com%2Fdf10d%2Fimg%2Favatars%2Fava_0022-512.png", "custom_css": null}, {"id": 16291, "slack_id": "U096Q3QQJK0", "display_name": "arsh kaur", "bio": null, "projects_count": 0, "devlogs_count": 0, "votes_count": 0, "ships_count": 0, "projects": [], "coding_time_seconds": 10393, "coding_time_seconds_today": 0, "balance": "You need to have a pocket watcher badge to view this.", "badges": [], "created_at": "2025-07-21T15:06:34.796-04:00", "updated_at": "2025-07-28T15:37:21.567-04:00", "avatar": "https://secure.gravatar.com/avatar/e1278aaecb75d8939096f5aadbaa888a.jpg?s=512&d=https%3A%2F%2Fa.slack-edge.com%2Fdf10d%2Fimg%2Favatars%2Fava_0022-512.png", "custom_css": null}, {"id": 16292, "slack_id": "U096MU1A059", "display_name": "Ahmed", "bio": null, "projects_count": 0, "devlogs_count": 0, "votes_count": 0, "ships_count": 0, "projects": [], "coding_time_seconds": 0, "coding_time_seconds_today": 0, "balance": "You need to have a pocket watcher badge to view this.", "badges": [], "created_at": "2025-07-21T15:06:38.662-04:00", "updated_at": "2025-07-22T03:28:04.535-04:00", "avatar": "https://secure.gravatar.com/avatar/88e75bcd9a468d12b2ed0ae128a084f8.jpg?s=512&d=https%3A%2F%2Fa.slack-edge.com%2Fdf10d%2Fimg%2Favatars%2Fava_0006-512.png", "custom_css": null}, {"id": 16293, "slack_id": "U097FN2EBTJ", "display_name": "sangam", "bio": null, "projects_count": 0, "devlogs_count": 0, "votes_count": 0, "ships_count": 0, "projects": [], "coding_time_seconds": 0, "coding_time_seconds_today": 0, "balance": "You need to have a pocket watcher badge to view this.", "badges": [], "created_at": "2025-07-21T15:06:39.193-04:00", "updated_at": "2025-07-22T03:28:04.622-04:00", "avatar": "https://secure.gravatar.com/avatar/c26e78deb592d4ee2c419f4493ac2f43.jpg?s=512&d=https%3A%2F%2Fa.slack-edge.com%2Fdf10d%2Fimg%2Favatars%2Fava_0019-512.png", "custom_css": null}, {"id": 16294, "slack_id": "U096UE8LFEY", "display_name": "Devish Mittal", "bio": null, "projects_count": 0, "devlogs_count": 0, "votes_count": 0, "ships_count": 0, "projects": [], "coding_time_seconds": 369999, "coding_time_seconds_today": 0, "balance": "You need to have a pocket watcher badge to view this.", "badges": [], "created_at": "2025-07-21T15:06:39.981-04:00", "updated_at": "2025-07-22T15:12:35.581-04:00", "avatar": "https://avatars.slack-edge.com/2025-07-21/9226006806819_6eff6d98a1b686c3a822_original.png", "custom_css": null}, {"id": 16295, "slack_id": "U096Q5198TY", "display_name": "Jacky", "bio": null, "projects_count": 0, "devlogs_count": 0, "votes_count": 0, "ships_count": 0, "projects": [], "coding_time_seconds": 0, "coding_time_seconds_today": 0, "balance": "You need to have a pocket watcher badge to view this.", "badges": [], "created_at": "2025-07-21T15:06:53.882-04:00", "updated_at": "2025-07-22T03:28:04.803-04:00", "avatar": "https://secure.gravatar.com/avatar/51362d5a35d068dcc4b621c2c0238605.jpg?s=512&d=https%3A%2F%2Fa.slack-edge.com%2Fdf10d%2Fimg%2Favatars%2Fava_0022-512.png", "custom_css": null}, {"id": 16296, "slack_id": "U097FN2BTT2", "display_name": "Ushmita Dutta", "bio": null, "projects_count": 0, "devlogs_count": 0, "votes_count": 0, "ships_count": 0, "projects": [], "coding_time_seconds": 0, "coding_time_seconds_today": 0, "balance": "You need to have a pocket watcher badge to view this.", "badges": [], "created_at": "2025-07-21T15:06:55.243-04:00", "updated_at": "2025-07-22T03:28:04.902-04:00", "avatar": "https://avatars.slack-edge.com/2025-07-21/9232499817412_4f3f453bb0c125c70dad_original.png", "custom_css": null}, {"id": 16297, "slack_id": "U0976EK2VKK", "display_name": "abby", "bio": null, "projects_count": 0, "devlogs_count": 0, "votes_count": 0, "ships_count": 0, "projects": [], "coding_time_seconds": 19206, "coding_time_seconds_today": 0, "balance": "You need to have a pocket watcher badge to view this.", "badges": [], "created_at": "2025-07-21T15:06:57.626-04:00", "updated_at": "2025-07-22T03:28:04.993-04:00", "avatar": "https://secure.gravatar.com/avatar/866f6ad41e7e87601b6b4ad0a72c7ae3.jpg?s=512&d=https%3A%2F%2Fa.slack-edge.com%2Fdf10d%2Fimg%2Favatars%2Fava_0006-512.png", "custom_css": null}, {"id": 16298, "slack_id": "U096UE751E0", "display_name": "jizel", "bio": null, "projects_count": 0, "devlogs_count": 0, "votes_count": 0, "ships_count": 0, "projects": [], "coding_time_seconds": 0, "coding_time_seconds_today": 0, "balance": "You need to have a pocket watcher badge to view this.", "badges": [], "created_at": "2025-07-21T15:06:59.830-04:00", "updated_at": "2025-07-22T03:28:05.084-04:00", "avatar": "https://secure.gravatar.com/avatar/9b2af655ce386b2af2f6da3e389ebfff.jpg?s=512&d=https%3A%2F%2Fa.slack-edge.com%2Fdf10d%2Fimg%2Favatars%2Fava_0026-512.png", "custom_css": null}, {"id": 16299, "slack_id": "U096Q4V582J", "display_name": "Abhijeet Solanki", "bio": null, "projects_count": 0, "devlogs_count": 0, "votes_count": 0, "ships_count": 0, "projects": [], "coding_time_seconds": 0, "coding_time_seconds_today": 0, "balance": "You need to have a pocket watcher badge to view this.", "badges": [], "created_at": "2025-07-21T15:07:03.916-04:00", "updated_at": "2025-07-22T03:28:05.173-04:00", "avatar": "https://secure.gravatar.com/avatar/386cd7445ee9f501a3d118616e302d9a.jpg?s=512&d=https%3A%2F%2Fa.slack-edge.com%2Fdf10d%2Fimg%2Favatars%2Fava_0021-512.png", "custom_css": null}, {"id": 16300, "slack_id": "U096Q53B1ML", "display_name": "Luna Moon", "bio": null, "projects_count": 2, "devlogs_count": 5, "votes_count": 19, "ships_count": 1, "projects": [{"id": 7408, "title": "Custom Minecraft Knockback", "devlogs_count": 1, "created_at": "2025-07-21T17:02:59.510-04:00"}, {"id": 7504, "title": "Celeste movement in Minecraft", "devlogs_count": 4, "created_at": "2025-07-22T01:12:10.470-04:00"}], "coding_time_seconds": 45558, "coding_time_seconds_today": 0, "balance": "You need to have a pocket watcher badge to view this.", "badges": [], "created_at": "2025-07-21T15:07:10.225-04:00", "updated_at": "2025-07-26T00:39:34.569-04:00", "avatar": "https://avatars.slack-edge.com/2025-07-25/9258009064820_f0cc9fdc2446a4f9c0a2_original.png", "custom_css": null}, {"id": 16301, "slack_id": "U096MV48G59", "display_name": "Dulanga", "bio": null, "projects_count": 0, "devlogs_count": 0, "votes_count": 0, "ships_count": 0, "projects": [], "coding_time_seconds": 0, "coding_time_seconds_today": 0, "balance": "You need to have a pocket watcher badge to view this.", "badges": [], "created_at": "2025-07-21T15:07:12.351-04:00", "updated_at": "2025-07-22T03:28:09.366-04:00", "avatar": "https://secure.gravatar.com/avatar/8eb1c8f7c7fa602465affe62994f003d.jpg?s=512&d=https%3A%2F%2Fa.slack-edge.com%2Fdf10d%2Fimg%2Favatars%2Fava_0008-512.png", "custom_css": null}, {"id": 16302, "slack_id": "U096RADDGE9", "display_name": "Ishara Shan", "bio": null, "projects_count": 0, "devlogs_count": 0, "votes_count": 0, "ships_count": 0, "projects": [], "coding_time_seconds": 0, "coding_time_seconds_today": 0, "balance": "You need to have a pocket watcher badge to view this.", "badges": [], "created_at": "2025-07-21T15:07:17.915-04:00", "updated_at": "2025-07-22T03:28:09.449-04:00", "avatar": "https://avatars.slack-edge.com/2025-07-21/9244550333601_1fb275afaace80dff0d1_original.png", "custom_css": null}, {"id": 16303, "slack_id": "U096RAKSNKF", "display_name": "Burak", "bio": null, "projects_count": 0, "devlogs_count": 0, "votes_count": 0, "ships_count": 0, "projects": [], "coding_time_seconds": 0, "coding_time_seconds_today": 0, "balance": "You need to have a pocket watcher badge to view this.", "badges": [], "created_at": "2025-07-21T15:07:30.572-04:00", "updated_at": "2025-07-22T03:28:09.528-04:00", "avatar": "https://secure.gravatar.com/avatar/6ab23d0853e6cc6c6a15026e72503fdb.jpg?s=512&d=https%3A%2F%2Fa.slack-edge.com%2Fdf10d%2Fimg%2Favatars%2Fava_0001-512.png", "custom_css": null}, {"id": 16304, "slack_id": "U097FNCCTBJ", "display_name": "Utkarsh Singh", "bio": null, "projects_count": 0, "devlogs_count": 0, "votes_count": 0, "ships_count": 0, "projects": [], "coding_time_seconds": 0, "coding_time_seconds_today": 0, "balance": "You need to have a pocket watcher badge to view this.", "badges": [], "created_at": "2025-07-21T15:07:33.884-04:00", "updated_at": "2025-07-22T03:28:09.616-04:00", "avatar": "https://secure.gravatar.com/avatar/a82803dbb889c3a91b853e3be7b6da72.jpg?s=512&d=https%3A%2F%2Fa.slack-edge.com%2Fdf10d%2Fimg%2Favatars%2Fava_0017-512.png", "custom_css": null}, {"id": 16305, "slack_id": "U096Q4ZLXC6", "display_name": "Abbadon", "bio": null, "projects_count": 0, "devlogs_count": 0, "votes_count": 0, "ships_count": 0, "projects": [], "coding_time_seconds": 0, "coding_time_seconds_today": 0, "balance": "You need to have a pocket watcher badge to view this.", "badges": [], "created_at": "2025-07-21T15:07:34.451-04:00", "updated_at": "2025-07-22T03:28:09.696-04:00", "avatar": "https://secure.gravatar.com/avatar/8c3975ac8a1269ad181f7b4dfff4a700.jpg?s=512&d=https%3A%2F%2Fa.slack-edge.com%2Fdf10d%2Fimg%2Favatars%2Fava_0018-512.png", "custom_css": null}], "pagination": {"page": 811, "pages": 1192, "count": 23828, "items": 20}}