{"users": [{"id": 16306, "slack_id": "U096MVDR7L3", "display_name": "Manish-KT", "bio": null, "projects_count": 0, "devlogs_count": 0, "votes_count": 0, "ships_count": 0, "projects": [], "coding_time_seconds": 12270, "coding_time_seconds_today": 0, "balance": "You need to have a pocket watcher badge to view this.", "badges": [], "created_at": "2025-07-21T15:07:34.820-04:00", "updated_at": "2025-07-22T13:32:19.257-04:00", "avatar": "https://secure.gravatar.com/avatar/3585b6aa10b9d41ee02dc5ac48ea8289.jpg?s=512&d=https%3A%2F%2Fa.slack-edge.com%2Fdf10d%2Fimg%2Favatars%2Fava_0001-512.png", "custom_css": null}, {"id": 16307, "slack_id": "U096UEENKS8", "display_name": "Viktor", "bio": null, "projects_count": 0, "devlogs_count": 0, "votes_count": 0, "ships_count": 0, "projects": [], "coding_time_seconds": 0, "coding_time_seconds_today": 0, "balance": "You need to have a pocket watcher badge to view this.", "badges": [], "created_at": "2025-07-21T15:07:41.721-04:00", "updated_at": "2025-07-22T03:28:13.891-04:00", "avatar": "https://secure.gravatar.com/avatar/136674d9449464bfaf4f02a61e4851a2.jpg?s=512&d=https%3A%2F%2Fa.slack-edge.com%2Fdf10d%2Fimg%2Favatars%2Fava_0012-512.png", "custom_css": null}, {"id": 16308, "slack_id": "U096CE2TJQ7", "display_name": "Enis", "bio": null, "projects_count": 0, "devlogs_count": 0, "votes_count": 0, "ships_count": 0, "projects": [], "coding_time_seconds": 0, "coding_time_seconds_today": 0, "balance": "You need to have a pocket watcher badge to view this.", "badges": [], "created_at": "2025-07-21T15:07:43.223-04:00", "updated_at": "2025-07-22T03:28:13.979-04:00", "avatar": "https://secure.gravatar.com/avatar/bcab4d512c2449e454ba1f1abfe9787a.jpg?s=512&d=https%3A%2F%2Fa.slack-edge.com%2Fdf10d%2Fimg%2Favatars%2Fava_0004-512.png", "custom_css": null}, {"id": 16309, "slack_id": "U096Q54SPSA", "display_name": "Matt Chamberlain", "bio": null, "projects_count": 0, "devlogs_count": 0, "votes_count": 0, "ships_count": 0, "projects": [], "coding_time_seconds": 0, "coding_time_seconds_today": 0, "balance": "You need to have a pocket watcher badge to view this.", "badges": [], "created_at": "2025-07-21T15:07:45.409-04:00", "updated_at": "2025-07-22T22:02:01.725-04:00", "avatar": "https://secure.gravatar.com/avatar/c8add6c3ee4d0166ca8a32eba3cde7f5.jpg?s=512&d=https%3A%2F%2Fa.slack-edge.com%2Fdf10d%2Fimg%2Favatars%2Fava_0019-512.png", "custom_css": null}, {"id": 16310, "slack_id": "U096RACHYJ1", "display_name": "TG", "bio": null, "projects_count": 0, "devlogs_count": 0, "votes_count": 0, "ships_count": 0, "projects": [], "coding_time_seconds": 0, "coding_time_seconds_today": 0, "balance": "You need to have a pocket watcher badge to view this.", "badges": [], "created_at": "2025-07-21T15:07:52.854-04:00", "updated_at": "2025-07-22T03:28:14.151-04:00", "avatar": "https://secure.gravatar.com/avatar/67f33b28ea6187adde8bb3b82cb023cb.jpg?s=512&d=https%3A%2F%2Fa.slack-edge.com%2Fdf10d%2Fimg%2Favatars%2Fava_0008-512.png", "custom_css": null}, {"id": 16311, "slack_id": "U096T803VCJ", "display_name": "Deera Wijesundara", "bio": null, "projects_count": 0, "devlogs_count": 0, "votes_count": 0, "ships_count": 0, "projects": [], "coding_time_seconds": 0, "coding_time_seconds_today": 0, "balance": "You need to have a pocket watcher badge to view this.", "badges": [], "created_at": "2025-07-21T15:07:54.606-04:00", "updated_at": "2025-07-22T03:28:14.236-04:00", "avatar": "https://avatars.slack-edge.com/2025-07-21/9244554269105_4578421a8ee6aef7befb_original.jpg", "custom_css": null}, {"id": 16312, "slack_id": "U097FND8TQ8", "display_name": "Emily", "bio": null, "projects_count": 0, "devlogs_count": 0, "votes_count": 0, "ships_count": 0, "projects": [], "coding_time_seconds": 0, "coding_time_seconds_today": 0, "balance": "You need to have a pocket watcher badge to view this.", "badges": [], "created_at": "2025-07-21T15:07:57.100-04:00", "updated_at": "2025-07-22T03:28:14.322-04:00", "avatar": "https://secure.gravatar.com/avatar/c1521913da55d87466274ce3b5235609.jpg?s=512&d=https%3A%2F%2Fa.slack-edge.com%2Fdf10d%2Fimg%2Favatars%2Fava_0016-512.png", "custom_css": null}, {"id": 16313, "slack_id": "U096RA7F70D", "display_name": "Leonardo Waclawovsky", "bio": null, "projects_count": 0, "devlogs_count": 0, "votes_count": 0, "ships_count": 0, "projects": [], "coding_time_seconds": 0, "coding_time_seconds_today": 0, "balance": "You need to have a pocket watcher badge to view this.", "badges": [], "created_at": "2025-07-21T15:07:59.600-04:00", "updated_at": "2025-07-22T03:28:14.412-04:00", "avatar": "https://avatars.slack-edge.com/2025-07-21/9232505655716_4e0271910466aca4be0a_original.jpg", "custom_css": null}, {"id": 16314, "slack_id": "U096CENS539", "display_name": "Vishrut", "bio": null, "projects_count": 0, "devlogs_count": 0, "votes_count": 0, "ships_count": 0, "projects": [], "coding_time_seconds": 0, "coding_time_seconds_today": 0, "balance": "You need to have a pocket watcher badge to view this.", "badges": [], "created_at": "2025-07-21T15:08:01.288-04:00", "updated_at": "2025-07-22T03:28:14.500-04:00", "avatar": "https://secure.gravatar.com/avatar/99aa50437162ddd65560b034cb1802be.jpg?s=512&d=https%3A%2F%2Fa.slack-edge.com%2Fdf10d%2Fimg%2Favatars%2Fava_0001-512.png", "custom_css": null}, {"id": 16315, "slack_id": "U097FNFA1S4", "display_name": "AltMans", "bio": null, "projects_count": 0, "devlogs_count": 0, "votes_count": 0, "ships_count": 0, "projects": [], "coding_time_seconds": 0, "coding_time_seconds_today": 0, "balance": "You need to have a pocket watcher badge to view this.", "badges": [], "created_at": "2025-07-21T15:08:01.457-04:00", "updated_at": "2025-07-22T03:28:14.621-04:00", "avatar": "https://secure.gravatar.com/avatar/577fac7bc891307df05eb5718ef6b36d.jpg?s=512&d=https%3A%2F%2Fa.slack-edge.com%2Fdf10d%2Fimg%2Favatars%2Fava_0014-512.png", "custom_css": null}, {"id": 16316, "slack_id": "U0976FYELBT", "display_name": "iaacornus", "bio": null, "projects_count": 0, "devlogs_count": 0, "votes_count": 0, "ships_count": 0, "projects": [], "coding_time_seconds": 0, "coding_time_seconds_today": 0, "balance": "You need to have a pocket watcher badge to view this.", "badges": [], "created_at": "2025-07-21T15:08:14.335-04:00", "updated_at": "2025-07-22T03:28:14.707-04:00", "avatar": "https://secure.gravatar.com/avatar/5dd9acdd3cb84bdb3890ebc04bb92eef.jpg?s=512&d=https%3A%2F%2Fa.slack-edge.com%2Fdf10d%2Fimg%2Favatars%2Fava_0006-512.png", "custom_css": null}, {"id": 16317, "slack_id": "U096N02EUMR", "display_name": "Uday Singh", "bio": null, "projects_count": 0, "devlogs_count": 0, "votes_count": 0, "ships_count": 0, "projects": [], "coding_time_seconds": 0, "coding_time_seconds_today": 0, "balance": "You need to have a pocket watcher badge to view this.", "badges": [], "created_at": "2025-07-21T15:08:18.140-04:00", "updated_at": "2025-07-22T03:28:14.795-04:00", "avatar": "https://secure.gravatar.com/avatar/bbc11f7de7114bb8fb0b05d50d54725d.jpg?s=512&d=https%3A%2F%2Fa.slack-edge.com%2Fdf10d%2Fimg%2Favatars%2Fava_0001-512.png", "custom_css": null}, {"id": 16318, "slack_id": "U097FNE668G", "display_name": "dubeyjiii", "bio": null, "projects_count": 0, "devlogs_count": 0, "votes_count": 0, "ships_count": 0, "projects": [], "coding_time_seconds": 0, "coding_time_seconds_today": 0, "balance": "You need to have a pocket watcher badge to view this.", "badges": [], "created_at": "2025-07-21T15:08:22.230-04:00", "updated_at": "2025-07-22T16:58:06.198-04:00", "avatar": "https://secure.gravatar.com/avatar/f2c4405c66ce0e0a3a9851fe811d692d.jpg?s=512&d=https%3A%2F%2Fa.slack-edge.com%2Fdf10d%2Fimg%2Favatars%2Fava_0012-512.png", "custom_css": null}, {"id": 16319, "slack_id": "U096N00Q2RH", "display_name": "p\u0142o\u0107rzeczna", "bio": null, "projects_count": 0, "devlogs_count": 0, "votes_count": 0, "ships_count": 0, "projects": [], "coding_time_seconds": 0, "coding_time_seconds_today": 0, "balance": "You need to have a pocket watcher badge to view this.", "badges": [], "created_at": "2025-07-21T15:08:41.859-04:00", "updated_at": "2025-07-22T03:28:14.957-04:00", "avatar": "https://secure.gravatar.com/avatar/0fa9f5bd0ec85421497628a0427ebf3b.jpg?s=512&d=https%3A%2F%2Fa.slack-edge.com%2Fdf10d%2Fimg%2Favatars%2Fava_0011-512.png", "custom_css": null}, {"id": 16320, "slack_id": "U096MV67GE7", "display_name": "Bobby", "bio": null, "projects_count": 0, "devlogs_count": 0, "votes_count": 0, "ships_count": 0, "projects": [], "coding_time_seconds": 0, "coding_time_seconds_today": 0, "balance": "You need to have a pocket watcher badge to view this.", "badges": [], "created_at": "2025-07-21T15:08:43.291-04:00", "updated_at": "2025-07-22T03:28:15.050-04:00", "avatar": "https://secure.gravatar.com/avatar/1cc9d85b283dd0aa7a7b6608079d00c5.jpg?s=512&d=https%3A%2F%2Fa.slack-edge.com%2Fdf10d%2Fimg%2Favatars%2Fava_0008-512.png", "custom_css": null}, {"id": 16321, "slack_id": "U096N017BTM", "display_name": "Ravi", "bio": null, "projects_count": 0, "devlogs_count": 0, "votes_count": 0, "ships_count": 0, "projects": [], "coding_time_seconds": 0, "coding_time_seconds_today": 0, "balance": "You need to have a pocket watcher badge to view this.", "badges": [], "created_at": "2025-07-21T15:08:44.492-04:00", "updated_at": "2025-07-22T03:28:15.142-04:00", "avatar": "https://secure.gravatar.com/avatar/9f45f353198cd5153162f4df34c8c3b2.jpg?s=512&d=https%3A%2F%2Fa.slack-edge.com%2Fdf10d%2Fimg%2Favatars%2Fava_0000-512.png", "custom_css": null}, {"id": 16322, "slack_id": "U096N00U0RH", "display_name": "Alan Geinraert", "bio": null, "projects_count": 0, "devlogs_count": 0, "votes_count": 0, "ships_count": 0, "projects": [], "coding_time_seconds": 0, "coding_time_seconds_today": 0, "balance": "You need to have a pocket watcher badge to view this.", "badges": [], "created_at": "2025-07-21T15:08:44.933-04:00", "updated_at": "2025-07-22T03:28:15.225-04:00", "avatar": "https://secure.gravatar.com/avatar/821df6ecd4be6f5f4e654c6c1fe11ee5.jpg?s=512&d=https%3A%2F%2Fa.slack-edge.com%2Fdf10d%2Fimg%2Favatars%2Fava_0010-512.png", "custom_css": null}, {"id": 16323, "slack_id": "U07EW2X0GT1", "display_name": "Jack Laffin", "bio": null, "projects_count": 0, "devlogs_count": 0, "votes_count": 0, "ships_count": 0, "projects": [], "coding_time_seconds": 0, "coding_time_seconds_today": 0, "balance": "You need to have a pocket watcher badge to view this.", "badges": [], "created_at": "2025-07-21T15:08:56.709-04:00", "updated_at": "2025-07-22T03:28:15.311-04:00", "avatar": "https://secure.gravatar.com/avatar/9004d1c96ef2195b32c9a60b42db36e5.jpg?s=512&d=https%3A%2F%2Fa.slack-edge.com%2Fdf10d%2Fimg%2Favatars%2Fava_0017-512.png", "custom_css": null}, {"id": 16324, "slack_id": "U096RAS2WS1", "display_name": "Krxnkos", "bio": null, "projects_count": 1, "devlogs_count": 1, "votes_count": 2, "ships_count": 0, "projects": [{"id": 7840, "title": "404: Cards Not Found", "devlogs_count": 1, "created_at": "2025-07-23T08:44:24.829-04:00"}], "coding_time_seconds": 7809, "coding_time_seconds_today": 0, "balance": "You need to have a pocket watcher badge to view this.", "badges": [], "created_at": "2025-07-21T15:09:03.681-04:00", "updated_at": "2025-08-08T12:59:22.828-04:00", "avatar": "https://avatars.slack-edge.com/2025-07-21/9244732297681_99381205606b898bef4b_original.jpg", "custom_css": null}, {"id": 16325, "slack_id": "U0976FZ00LR", "display_name": "Khs", "bio": null, "projects_count": 0, "devlogs_count": 0, "votes_count": 0, "ships_count": 0, "projects": [], "coding_time_seconds": 899, "coding_time_seconds_today": 0, "balance": "You need to have a pocket watcher badge to view this.", "badges": [], "created_at": "2025-07-21T15:09:05.051-04:00", "updated_at": "2025-07-22T03:28:15.458-04:00", "avatar": "https://secure.gravatar.com/avatar/9669f33f984f2293ec9b5462baf561bd.jpg?s=512&d=https%3A%2F%2Fa.slack-edge.com%2Fdf10d%2Fimg%2Favatars%2Fava_0003-512.png", "custom_css": null}], "pagination": {"page": 812, "pages": 1192, "count": 23828, "items": 20}}