{"users": [{"id": 16326, "slack_id": "U096UEPRCF6", "display_name": "Ammar Shaffy", "bio": null, "projects_count": 0, "devlogs_count": 0, "votes_count": 0, "ships_count": 0, "projects": [], "coding_time_seconds": 0, "coding_time_seconds_today": 0, "balance": "You need to have a pocket watcher badge to view this.", "badges": [], "created_at": "2025-07-21T15:09:16.219-04:00", "updated_at": "2025-07-22T03:28:15.530-04:00", "avatar": "https://secure.gravatar.com/avatar/d1aa930ee31adc4b3502890dd8c418d4.jpg?s=512&d=https%3A%2F%2Fa.slack-edge.com%2Fdf10d%2Fimg%2Favatars%2Fava_0001-512.png", "custom_css": null}, {"id": 16327, "slack_id": "U096RAK6W0M", "display_name": "Priyanshu", "bio": null, "projects_count": 0, "devlogs_count": 0, "votes_count": 0, "ships_count": 0, "projects": [], "coding_time_seconds": 66848, "coding_time_seconds_today": 0, "balance": "You need to have a pocket watcher badge to view this.", "badges": [], "created_at": "2025-07-21T15:09:21.515-04:00", "updated_at": "2025-07-22T07:53:51.129-04:00", "avatar": "https://avatars.slack-edge.com/2025-07-21/9216517558999_e02cdc3ea2b5e1e0e4e1_original.jpg", "custom_css": null}, {"id": 16328, "slack_id": "U096RANARLM", "display_name": "zena", "bio": null, "projects_count": 0, "devlogs_count": 0, "votes_count": 0, "ships_count": 0, "projects": [], "coding_time_seconds": 0, "coding_time_seconds_today": 0, "balance": "You need to have a pocket watcher badge to view this.", "badges": [], "created_at": "2025-07-21T15:09:23.249-04:00", "updated_at": "2025-07-22T03:28:15.711-04:00", "avatar": "https://secure.gravatar.com/avatar/63effe8e8faad0942d120592e9af88f5.jpg?s=512&d=https%3A%2F%2Fa.slack-edge.com%2Fdf10d%2Fimg%2Favatars%2Fava_0013-512.png", "custom_css": null}, {"id": 16329, "slack_id": "U096Q4B0RBQ", "display_name": "Till Mettler", "bio": null, "projects_count": 0, "devlogs_count": 0, "votes_count": 0, "ships_count": 0, "projects": [], "coding_time_seconds": 0, "coding_time_seconds_today": 0, "balance": "You need to have a pocket watcher badge to view this.", "badges": [], "created_at": "2025-07-21T15:09:35.395-04:00", "updated_at": "2025-07-22T03:28:15.796-04:00", "avatar": "https://secure.gravatar.com/avatar/9dc306724c28c7e92aa4d575faeddab9.jpg?s=512&d=https%3A%2F%2Fa.slack-edge.com%2Fdf10d%2Fimg%2Favatars%2Fava_0018-512.png", "custom_css": null}, {"id": 16330, "slack_id": "U096Q5E9DT8", "display_name": "gy", "bio": null, "projects_count": 0, "devlogs_count": 0, "votes_count": 0, "ships_count": 0, "projects": [], "coding_time_seconds": 0, "coding_time_seconds_today": 0, "balance": "You need to have a pocket watcher badge to view this.", "badges": [], "created_at": "2025-07-21T15:09:43.826-04:00", "updated_at": "2025-07-22T03:28:15.887-04:00", "avatar": "https://secure.gravatar.com/avatar/fcf6ac289a9e1423eab795d9a6e7be02.jpg?s=512&d=https%3A%2F%2Fa.slack-edge.com%2Fdf10d%2Fimg%2Favatars%2Fava_0003-512.png", "custom_css": null}, {"id": 16331, "slack_id": "U096Q5BARRU", "display_name": "Zden\u011bk Hrouda", "bio": null, "projects_count": 0, "devlogs_count": 0, "votes_count": 0, "ships_count": 0, "projects": [], "coding_time_seconds": 0, "coding_time_seconds_today": 0, "balance": "You need to have a pocket watcher badge to view this.", "badges": [], "created_at": "2025-07-21T15:09:55.553-04:00", "updated_at": "2025-07-22T03:28:15.983-04:00", "avatar": "https://secure.gravatar.com/avatar/dc9def91ca9ed71ecd96f6a85f915b03.jpg?s=512&d=https%3A%2F%2Fa.slack-edge.com%2Fdf10d%2Fimg%2Favatars%2Fava_0001-512.png", "custom_css": null}, {"id": 16332, "slack_id": "U096UEU71K6", "display_name": "Elwan", "bio": null, "projects_count": 0, "devlogs_count": 0, "votes_count": 0, "ships_count": 0, "projects": [], "coding_time_seconds": 0, "coding_time_seconds_today": 0, "balance": "You need to have a pocket watcher badge to view this.", "badges": [], "created_at": "2025-07-21T15:10:00.510-04:00", "updated_at": "2025-07-22T03:28:16.069-04:00", "avatar": "https://secure.gravatar.com/avatar/6b9d8ba35b3f0527d916fe4dfa2e806d.jpg?s=512&d=https%3A%2F%2Fa.slack-edge.com%2Fdf10d%2Fimg%2Favatars%2Fava_0000-512.png", "custom_css": null}, {"id": 16333, "slack_id": "U0976G7PZEV", "display_name": "Matt", "bio": null, "projects_count": 0, "devlogs_count": 0, "votes_count": 0, "ships_count": 0, "projects": [], "coding_time_seconds": 0, "coding_time_seconds_today": 0, "balance": "You need to have a pocket watcher badge to view this.", "badges": [], "created_at": "2025-07-21T15:10:03.736-04:00", "updated_at": "2025-07-22T03:28:20.210-04:00", "avatar": "https://secure.gravatar.com/avatar/d2cb1f7a860ed5505645c815cd294baf.jpg?s=512&d=https%3A%2F%2Fa.slack-edge.com%2Fdf10d%2Fimg%2Favatars%2Fava_0024-512.png", "custom_css": null}, {"id": 16334, "slack_id": "U096UENT1K6", "display_name": "Anshuman", "bio": null, "projects_count": 0, "devlogs_count": 0, "votes_count": 0, "ships_count": 0, "projects": [], "coding_time_seconds": 0, "coding_time_seconds_today": 0, "balance": "You need to have a pocket watcher badge to view this.", "badges": [], "created_at": "2025-07-21T15:10:04.362-04:00", "updated_at": "2025-07-22T04:21:18.271-04:00", "avatar": "https://secure.gravatar.com/avatar/3b9c89dbb4f2135d93ab91c553cbe97f.jpg?s=512&d=https%3A%2F%2Fa.slack-edge.com%2Fdf10d%2Fimg%2Favatars%2Fava_0005-512.png", "custom_css": null}, {"id": 16335, "slack_id": "U096T7Z89S6", "display_name": "Unruly Rigid Lilac", "bio": null, "projects_count": 0, "devlogs_count": 0, "votes_count": 4, "ships_count": 0, "projects": [], "coding_time_seconds": 222, "coding_time_seconds_today": 0, "balance": "You need to have a pocket watcher badge to view this.", "badges": [], "created_at": "2025-07-21T15:10:06.636-04:00", "updated_at": "2025-07-22T14:58:14.434-04:00", "avatar": "https://secure.gravatar.com/avatar/6186f8cbb9093b30ca1561c2b8b2a506.jpg?s=512&d=https%3A%2F%2Fa.slack-edge.com%2Fdf10d%2Fimg%2Favatars%2Fava_0010-512.png", "custom_css": null}, {"id": 16336, "slack_id": "U0498TGUX0B", "display_name": "Stephen King", "bio": null, "projects_count": 0, "devlogs_count": 0, "votes_count": 0, "ships_count": 0, "projects": [], "coding_time_seconds": 0, "coding_time_seconds_today": 0, "balance": "You need to have a pocket watcher badge to view this.", "badges": [], "created_at": "2025-07-21T15:10:07.719-04:00", "updated_at": "2025-07-21T15:46:15.357-04:00", "avatar": "https://avatars.slack-edge.com/2025-03-25/8657704954979_d797a973b39ce2070aed_original.png", "custom_css": null}, {"id": 16337, "slack_id": "U096UENS476", "display_name": "Evaan Chowdhry", "bio": null, "projects_count": 1, "devlogs_count": 1, "votes_count": 0, "ships_count": 1, "projects": [{"id": 9345, "title": "Specters", "devlogs_count": 1, "created_at": "2025-07-31T17:05:25.951-04:00"}], "coding_time_seconds": 24276, "coding_time_seconds_today": 0, "balance": "You need to have a pocket watcher badge to view this.", "badges": [], "created_at": "2025-07-21T15:10:10.825-04:00", "updated_at": "2025-08-14T22:45:31.930-04:00", "avatar": "https://secure.gravatar.com/avatar/886f83aa0c3691bd008bb7234c5ba29c.jpg?s=512&d=https%3A%2F%2Fa.slack-edge.com%2Fdf10d%2Fimg%2Favatars%2Fava_0025-512.png", "custom_css": null}, {"id": 16338, "slack_id": "U096UER34PN", "display_name": "Temmiie", "bio": null, "projects_count": 0, "devlogs_count": 0, "votes_count": 0, "ships_count": 0, "projects": [], "coding_time_seconds": 0, "coding_time_seconds_today": 0, "balance": "You need to have a pocket watcher badge to view this.", "badges": [], "created_at": "2025-07-21T15:10:21.372-04:00", "updated_at": "2025-07-22T03:28:20.624-04:00", "avatar": "https://secure.gravatar.com/avatar/87cdacae957df35b2b5603c58fd8086b.jpg?s=512&d=https%3A%2F%2Fa.slack-edge.com%2Fdf10d%2Fimg%2Favatars%2Fava_0019-512.png", "custom_css": null}, {"id": 16339, "slack_id": "U096RANEKMK", "display_name": "Devanshu Raghav", "bio": null, "projects_count": 0, "devlogs_count": 0, "votes_count": 0, "ships_count": 0, "projects": [], "coding_time_seconds": 0, "coding_time_seconds_today": 0, "balance": "You need to have a pocket watcher badge to view this.", "badges": [], "created_at": "2025-07-21T15:10:31.592-04:00", "updated_at": "2025-07-22T03:28:20.711-04:00", "avatar": "https://secure.gravatar.com/avatar/d28da7fd5359540ad2e677d869d3ed7f.jpg?s=512&d=https%3A%2F%2Fa.slack-edge.com%2Fdf10d%2Fimg%2Favatars%2Fava_0013-512.png", "custom_css": null}, {"id": 16340, "slack_id": "U096T86R4AE", "display_name": "Aakash Rao", "bio": null, "projects_count": 0, "devlogs_count": 0, "votes_count": 0, "ships_count": 0, "projects": [], "coding_time_seconds": 0, "coding_time_seconds_today": 0, "balance": "You need to have a pocket watcher badge to view this.", "badges": [], "created_at": "2025-07-21T15:10:32.058-04:00", "updated_at": "2025-07-22T03:28:20.794-04:00", "avatar": "https://avatars.slack-edge.com/2025-07-21/9231293586482_6515cc9b5bb5e80a5d31_original.png", "custom_css": null}, {"id": 16341, "slack_id": "U097FNCFLPJ", "display_name": "Preetham A A", "bio": null, "projects_count": 0, "devlogs_count": 0, "votes_count": 0, "ships_count": 0, "projects": [], "coding_time_seconds": 0, "coding_time_seconds_today": 0, "balance": "You need to have a pocket watcher badge to view this.", "badges": [], "created_at": "2025-07-21T15:10:33.541-04:00", "updated_at": "2025-07-22T03:28:20.873-04:00", "avatar": "https://secure.gravatar.com/avatar/d82fffab4d66a4f08e315152f9de6912.jpg?s=512&d=https%3A%2F%2Fa.slack-edge.com%2Fdf10d%2Fimg%2Favatars%2Fava_0007-512.png", "custom_css": null}, {"id": 16342, "slack_id": "U096RA4S2KX", "display_name": "DharshanPrakash", "bio": null, "projects_count": 2, "devlogs_count": 0, "votes_count": 0, "ships_count": 1, "projects": [{"id": 9771, "title": "My Own Discord Bot", "devlogs_count": 0, "created_at": "2025-08-02T08:34:26.832-04:00"}, {"id": 9772, "title": "My Own Discord Bot", "devlogs_count": 0, "created_at": "2025-08-02T08:34:26.842-04:00"}], "coding_time_seconds": 7397, "coding_time_seconds_today": 0, "balance": "You need to have a pocket watcher badge to view this.", "badges": [], "created_at": "2025-07-21T15:10:48.638-04:00", "updated_at": "2025-08-02T11:44:58.582-04:00", "avatar": "https://secure.gravatar.com/avatar/9502ec30732275131190004412f61195.jpg?s=512&d=https%3A%2F%2Fa.slack-edge.com%2Fdf10d%2Fimg%2Favatars%2Fava_0024-512.png", "custom_css": null}, {"id": 16343, "slack_id": "U096CEUF0KZ", "display_name": "prabhash", "bio": null, "projects_count": 0, "devlogs_count": 0, "votes_count": 0, "ships_count": 0, "projects": [], "coding_time_seconds": 91, "coding_time_seconds_today": 0, "balance": "You need to have a pocket watcher badge to view this.", "badges": [], "created_at": "2025-07-21T15:10:54.238-04:00", "updated_at": "2025-07-22T03:28:21.037-04:00", "avatar": "https://secure.gravatar.com/avatar/b8c9ede926d01f471f3d1b3d5ad738cb.jpg?s=512&d=https%3A%2F%2Fa.slack-edge.com%2Fdf10d%2Fimg%2Favatars%2Fava_0001-512.png", "custom_css": null}, {"id": 16344, "slack_id": "U096UEU5RDJ", "display_name": "Auston McDaniel", "bio": null, "projects_count": 0, "devlogs_count": 0, "votes_count": 0, "ships_count": 0, "projects": [], "coding_time_seconds": 0, "coding_time_seconds_today": 0, "balance": "You need to have a pocket watcher badge to view this.", "badges": [], "created_at": "2025-07-21T15:10:55.145-04:00", "updated_at": "2025-07-22T03:28:21.140-04:00", "avatar": "https://avatars.slack-edge.com/2025-07-21/9229382910565_0a7b0788f6b3ab582e9d_original.png", "custom_css": null}, {"id": 16345, "slack_id": "U096T8E9QNN", "display_name": "Cherry", "bio": null, "projects_count": 0, "devlogs_count": 0, "votes_count": 0, "ships_count": 0, "projects": [], "coding_time_seconds": 0, "coding_time_seconds_today": 0, "balance": "You need to have a pocket watcher badge to view this.", "badges": [], "created_at": "2025-07-21T15:11:00.036-04:00", "updated_at": "2025-07-22T13:05:30.090-04:00", "avatar": "https://avatars.slack-edge.com/2025-07-21/9231305764530_f6ad9d721a0da7c95cd6_original.jpg", "custom_css": null}], "pagination": {"page": 813, "pages": 1192, "count": 23828, "items": 20}}