{"users": [{"id": 16346, "slack_id": "U096CF5FXRD", "display_name": "Zappy", "bio": null, "projects_count": 0, "devlogs_count": 13, "votes_count": 39, "ships_count": 0, "projects": [], "coding_time_seconds": 220655, "coding_time_seconds_today": 0, "balance": "You need to have a pocket watcher badge to view this.", "badges": [], "created_at": "2025-07-21T15:11:00.971-04:00", "updated_at": "2025-08-14T19:29:56.456-04:00", "avatar": "https://secure.gravatar.com/avatar/49061c64732324844fc3df625e3b54fa.jpg?s=512&d=https%3A%2F%2Fa.slack-edge.com%2Fdf10d%2Fimg%2Favatars%2Fava_0000-512.png", "custom_css": null}, {"id": 16347, "slack_id": "U0976GAU4PK", "display_name": "ramzzle", "bio": null, "projects_count": 0, "devlogs_count": 0, "votes_count": 0, "ships_count": 0, "projects": [], "coding_time_seconds": 0, "coding_time_seconds_today": 0, "balance": "You need to have a pocket watcher badge to view this.", "badges": [], "created_at": "2025-07-21T15:11:17.676-04:00", "updated_at": "2025-07-22T03:28:21.381-04:00", "avatar": "https://secure.gravatar.com/avatar/4ed016be138412d3104b929586ed461d.jpg?s=512&d=https%3A%2F%2Fa.slack-edge.com%2Fdf10d%2Fimg%2Favatars%2Fava_0002-512.png", "custom_css": null}, {"id": 16348, "slack_id": "U0976G8TYSV", "display_name": "Mohith Vennu", "bio": null, "projects_count": 0, "devlogs_count": 0, "votes_count": 0, "ships_count": 0, "projects": [], "coding_time_seconds": 0, "coding_time_seconds_today": 0, "balance": "You need to have a pocket watcher badge to view this.", "badges": [], "created_at": "2025-07-21T15:11:23.669-04:00", "updated_at": "2025-07-22T03:28:21.455-04:00", "avatar": "https://secure.gravatar.com/avatar/79faba5bbbe59992993d26b8ec1baf5e.jpg?s=512&d=https%3A%2F%2Fa.slack-edge.com%2Fdf10d%2Fimg%2Favatars%2Fava_0000-512.png", "custom_css": null}, {"id": 16349, "slack_id": "U0976G43KJM", "display_name": "Marie", "bio": null, "projects_count": 0, "devlogs_count": 0, "votes_count": 0, "ships_count": 0, "projects": [], "coding_time_seconds": 0, "coding_time_seconds_today": 0, "balance": "You need to have a pocket watcher badge to view this.", "badges": [], "created_at": "2025-07-21T15:11:27.954-04:00", "updated_at": "2025-07-22T03:28:21.541-04:00", "avatar": "https://secure.gravatar.com/avatar/d040879caead9ed1d31eb22838a45d7c.jpg?s=512&d=https%3A%2F%2Fa.slack-edge.com%2Fdf10d%2Fimg%2Favatars%2Fava_0025-512.png", "custom_css": null}, {"id": 16350, "slack_id": "U096N0D296X", "display_name": "Santiago", "bio": null, "projects_count": 0, "devlogs_count": 0, "votes_count": 0, "ships_count": 0, "projects": [], "coding_time_seconds": 75141, "coding_time_seconds_today": 0, "balance": "You need to have a pocket watcher badge to view this.", "badges": [], "created_at": "2025-07-21T15:11:30.480-04:00", "updated_at": "2025-07-22T10:32:39.669-04:00", "avatar": "https://secure.gravatar.com/avatar/6eb04be84c9ba6c979eb034655708934.jpg?s=512&d=https%3A%2F%2Fa.slack-edge.com%2Fdf10d%2Fimg%2Favatars%2Fava_0015-512.png", "custom_css": null}, {"id": 16351, "slack_id": "U097FNYV60G", "display_name": "Evan Kroz", "bio": "", "projects_count": 0, "devlogs_count": 0, "votes_count": 0, "ships_count": 0, "projects": [], "coding_time_seconds": 25581, "coding_time_seconds_today": 0, "balance": "You need to have a pocket watcher badge to view this.", "badges": [], "created_at": "2025-07-21T15:11:41.732-04:00", "updated_at": "2025-07-22T17:37:40.752-04:00", "avatar": "https://secure.gravatar.com/avatar/2463aa70121195c2a7d28c196014a440.jpg?s=512&d=https%3A%2F%2Fa.slack-edge.com%2Fdf10d%2Fimg%2Favatars%2Fava_0009-512.png", "custom_css": null}, {"id": 16352, "slack_id": "U096N03LY4B", "display_name": "Jairo Cogollo", "bio": null, "projects_count": 0, "devlogs_count": 0, "votes_count": 0, "ships_count": 0, "projects": [], "coding_time_seconds": 24509, "coding_time_seconds_today": 0, "balance": "You need to have a pocket watcher badge to view this.", "badges": [], "created_at": "2025-07-21T15:11:42.050-04:00", "updated_at": "2025-07-22T03:28:25.861-04:00", "avatar": "https://avatars.slack-edge.com/2025-07-21/9232524260324_2c3f6c11c0f3f60f2e9b_original.png", "custom_css": null}, {"id": 16353, "slack_id": "U096UEW5LG4", "display_name": "Davide Piccione", "bio": null, "projects_count": 0, "devlogs_count": 0, "votes_count": 0, "ships_count": 0, "projects": [], "coding_time_seconds": 0, "coding_time_seconds_today": 0, "balance": "You need to have a pocket watcher badge to view this.", "badges": [], "created_at": "2025-07-21T15:11:43.402-04:00", "updated_at": "2025-07-22T03:28:25.945-04:00", "avatar": "https://secure.gravatar.com/avatar/8edb509ead6a025fe39294762bac8c8b.jpg?s=512&d=https%3A%2F%2Fa.slack-edge.com%2Fdf10d%2Fimg%2Favatars%2Fava_0009-512.png", "custom_css": null}, {"id": 16354, "slack_id": "U096T8FU2MQ", "display_name": "Jens", "bio": null, "projects_count": 0, "devlogs_count": 0, "votes_count": 0, "ships_count": 0, "projects": [], "coding_time_seconds": 0, "coding_time_seconds_today": 0, "balance": "You need to have a pocket watcher badge to view this.", "badges": [], "created_at": "2025-07-21T15:12:02.483-04:00", "updated_at": "2025-07-22T03:28:26.039-04:00", "avatar": "https://secure.gravatar.com/avatar/dcc0f5a8c6d647aff77dcadba34595c6.jpg?s=512&d=https%3A%2F%2Fa.slack-edge.com%2Fdf10d%2Fimg%2Favatars%2Fava_0018-512.png", "custom_css": null}, {"id": 16355, "slack_id": "U096RB2V085", "display_name": "Adityaa", "bio": null, "projects_count": 0, "devlogs_count": 0, "votes_count": 0, "ships_count": 0, "projects": [], "coding_time_seconds": 0, "coding_time_seconds_today": 0, "balance": "You need to have a pocket watcher badge to view this.", "badges": [], "created_at": "2025-07-21T15:12:17.857-04:00", "updated_at": "2025-07-22T03:28:26.134-04:00", "avatar": "https://secure.gravatar.com/avatar/dd8d181e5296095a559867e503cb3af8.jpg?s=512&d=https%3A%2F%2Fa.slack-edge.com%2Fdf10d%2Fimg%2Favatars%2Fava_0021-512.png", "custom_css": null}, {"id": 16356, "slack_id": "U096UF3F60L", "display_name": "hiroki", "bio": null, "projects_count": 0, "devlogs_count": 0, "votes_count": 0, "ships_count": 0, "projects": [], "coding_time_seconds": 0, "coding_time_seconds_today": 0, "balance": "You need to have a pocket watcher badge to view this.", "badges": [], "created_at": "2025-07-21T15:12:18.811-04:00", "updated_at": "2025-07-22T03:28:26.210-04:00", "avatar": "https://secure.gravatar.com/avatar/ba4503dbb81f7790b8997b0622602a39.jpg?s=512&d=https%3A%2F%2Fa.slack-edge.com%2Fdf10d%2Fimg%2Favatars%2Fava_0023-512.png", "custom_css": null}, {"id": 16357, "slack_id": "U096Q5R5UQ6", "display_name": "R\u00f4mulo Ribeiro", "bio": null, "projects_count": 0, "devlogs_count": 0, "votes_count": 0, "ships_count": 0, "projects": [], "coding_time_seconds": 0, "coding_time_seconds_today": 0, "balance": "You need to have a pocket watcher badge to view this.", "badges": [], "created_at": "2025-07-21T15:12:20.414-04:00", "updated_at": "2025-07-22T03:28:26.282-04:00", "avatar": "https://secure.gravatar.com/avatar/4f242ad9293b86498e4e7d1577ccd588.jpg?s=512&d=https%3A%2F%2Fa.slack-edge.com%2Fdf10d%2Fimg%2Favatars%2Fava_0021-512.png", "custom_css": null}, {"id": 16358, "slack_id": "U096Q5NCUG6", "display_name": "Andrea Gomez Perez", "bio": null, "projects_count": 0, "devlogs_count": 0, "votes_count": 0, "ships_count": 0, "projects": [], "coding_time_seconds": 0, "coding_time_seconds_today": 0, "balance": "You need to have a pocket watcher badge to view this.", "badges": [], "created_at": "2025-07-21T15:12:23.279-04:00", "updated_at": "2025-07-22T03:28:26.362-04:00", "avatar": "https://avatars.slack-edge.com/2025-07-21/9232527340148_4f78ca70683cb42b1f56_original.png", "custom_css": null}, {"id": 16359, "slack_id": "U096CEN3Z7Z", "display_name": "Apex", "bio": null, "projects_count": 0, "devlogs_count": 0, "votes_count": 0, "ships_count": 0, "projects": [], "coding_time_seconds": 0, "coding_time_seconds_today": 0, "balance": "You need to have a pocket watcher badge to view this.", "badges": [], "created_at": "2025-07-21T15:12:38.836-04:00", "updated_at": "2025-08-01T15:51:16.213-04:00", "avatar": "https://secure.gravatar.com/avatar/d84bb109ee59388a71b730f409240da4.jpg?s=512&d=https%3A%2F%2Fa.slack-edge.com%2Fdf10d%2Fimg%2Favatars%2Fava_0001-512.png", "custom_css": null}, {"id": 16360, "slack_id": "U096T8D156E", "display_name": "Jinbin", "bio": null, "projects_count": 0, "devlogs_count": 0, "votes_count": 0, "ships_count": 0, "projects": [], "coding_time_seconds": 0, "coding_time_seconds_today": 0, "balance": "You need to have a pocket watcher badge to view this.", "badges": [], "created_at": "2025-07-21T15:12:45.213-04:00", "updated_at": "2025-07-22T03:28:26.536-04:00", "avatar": "https://secure.gravatar.com/avatar/0cacefd9f7f01d757bdb1f5091e5ec71.jpg?s=512&d=https%3A%2F%2Fa.slack-edge.com%2Fdf10d%2Fimg%2Favatars%2Fava_0014-512.png", "custom_css": null}, {"id": 16361, "slack_id": "U096CEZEM1V", "display_name": "Sneha Ghosh", "bio": null, "projects_count": 0, "devlogs_count": 0, "votes_count": 0, "ships_count": 0, "projects": [], "coding_time_seconds": 0, "coding_time_seconds_today": 0, "balance": "You need to have a pocket watcher badge to view this.", "badges": [], "created_at": "2025-07-21T15:12:54.470-04:00", "updated_at": "2025-07-26T02:05:39.802-04:00", "avatar": "https://secure.gravatar.com/avatar/0e39c49aef38619a2f560f9d25f956ef.jpg?s=512&d=https%3A%2F%2Fa.slack-edge.com%2Fdf10d%2Fimg%2Favatars%2Fava_0020-512.png", "custom_css": null}, {"id": 16362, "slack_id": "U097FNVES6L", "display_name": "Kolassrexon", "bio": null, "projects_count": 0, "devlogs_count": 0, "votes_count": 0, "ships_count": 0, "projects": [], "coding_time_seconds": 115077, "coding_time_seconds_today": 8818, "balance": "You need to have a pocket watcher badge to view this.", "badges": [], "created_at": "2025-07-21T15:12:58.980-04:00", "updated_at": "2025-07-22T03:28:26.700-04:00", "avatar": "https://secure.gravatar.com/avatar/36fbb6605720781a8da8a3a62ab161a0.jpg?s=512&d=https%3A%2F%2Fa.slack-edge.com%2Fdf10d%2Fimg%2Favatars%2Fava_0024-512.png", "custom_css": null}, {"id": 16363, "slack_id": "U096Q5SC5E2", "display_name": "Daniel Caro", "bio": null, "projects_count": 0, "devlogs_count": 0, "votes_count": 0, "ships_count": 0, "projects": [], "coding_time_seconds": 0, "coding_time_seconds_today": 0, "balance": "You need to have a pocket watcher badge to view this.", "badges": [], "created_at": "2025-07-21T15:13:08.118-04:00", "updated_at": "2025-07-22T03:28:26.787-04:00", "avatar": "https://secure.gravatar.com/avatar/a8323a884dbaf4b97768295ac2ffb891.jpg?s=512&d=https%3A%2F%2Fa.slack-edge.com%2Fdf10d%2Fimg%2Favatars%2Fava_0000-512.png", "custom_css": null}, {"id": 16364, "slack_id": "U096N0JE4HZ", "display_name": "Zrinszki \u00c1rmin", "bio": null, "projects_count": 0, "devlogs_count": 0, "votes_count": 0, "ships_count": 0, "projects": [], "coding_time_seconds": 0, "coding_time_seconds_today": 0, "balance": "You need to have a pocket watcher badge to view this.", "badges": [], "created_at": "2025-07-21T15:13:09.867-04:00", "updated_at": "2025-07-22T03:28:26.872-04:00", "avatar": "https://secure.gravatar.com/avatar/6b1766eb903fd84b1dd99836ff777ea1.jpg?s=512&d=https%3A%2F%2Fa.slack-edge.com%2Fdf10d%2Fimg%2Favatars%2Fava_0011-512.png", "custom_css": null}, {"id": 16365, "slack_id": "U096CFAP0SK", "display_name": "Sophia", "bio": null, "projects_count": 0, "devlogs_count": 0, "votes_count": 0, "ships_count": 0, "projects": [], "coding_time_seconds": 0, "coding_time_seconds_today": 0, "balance": "You need to have a pocket watcher badge to view this.", "badges": [], "created_at": "2025-07-21T15:13:21.040-04:00", "updated_at": "2025-07-22T03:28:26.956-04:00", "avatar": "https://secure.gravatar.com/avatar/0c24cdd8a323ed8900f8c9f575f90cad.jpg?s=512&d=https%3A%2F%2Fa.slack-edge.com%2Fdf10d%2Fimg%2Favatars%2Fava_0011-512.png", "custom_css": null}], "pagination": {"page": 814, "pages": 1192, "count": 23828, "items": 20}}