{"users": [{"id": 16386, "slack_id": "U097FP21RDW", "display_name": "Aditya Khamait", "bio": null, "projects_count": 0, "devlogs_count": 0, "votes_count": 0, "ships_count": 0, "projects": [], "coding_time_seconds": 0, "coding_time_seconds_today": 0, "balance": "You need to have a pocket watcher badge to view this.", "badges": [], "created_at": "2025-07-21T15:16:54.190-04:00", "updated_at": "2025-07-22T03:28:36.788-04:00", "avatar": "https://avatars.slack-edge.com/2025-07-21/9216555192151_8a1df1c7c7da1a070de3_original.png", "custom_css": null}, {"id": 16387, "slack_id": "U096UFD0ZGU", "display_name": "Richard", "bio": null, "projects_count": 0, "devlogs_count": 0, "votes_count": 0, "ships_count": 0, "projects": [], "coding_time_seconds": 0, "coding_time_seconds_today": 0, "balance": "You need to have a pocket watcher badge to view this.", "badges": [], "created_at": "2025-07-21T15:16:56.690-04:00", "updated_at": "2025-07-22T03:28:36.882-04:00", "avatar": "https://secure.gravatar.com/avatar/0dcb307276a06981300a425686c13529.jpg?s=512&d=https%3A%2F%2Fa.slack-edge.com%2Fdf10d%2Fimg%2Favatars%2Fava_0011-512.png", "custom_css": null}, {"id": 16388, "slack_id": "U06BECD9HK4", "display_name": "abhijay", "bio": null, "projects_count": 0, "devlogs_count": 0, "votes_count": 0, "ships_count": 0, "projects": [], "coding_time_seconds": 0, "coding_time_seconds_today": 0, "balance": "You need to have a pocket watcher badge to view this.", "badges": [], "created_at": "2025-07-21T15:16:57.596-04:00", "updated_at": "2025-07-22T03:28:36.981-04:00", "avatar": "https://avatars.slack-edge.com/2023-12-29/6407545247220_eb1f632337b78130d05a_original.png", "custom_css": null}, {"id": 16389, "slack_id": "U097FPQRTS4", "display_name": "Christopher Woods", "bio": null, "projects_count": 0, "devlogs_count": 0, "votes_count": 0, "ships_count": 0, "projects": [], "coding_time_seconds": 0, "coding_time_seconds_today": 0, "balance": "You need to have a pocket watcher badge to view this.", "badges": [], "created_at": "2025-07-21T15:17:02.293-04:00", "updated_at": "2025-07-22T03:28:37.058-04:00", "avatar": "https://secure.gravatar.com/avatar/74f7036cf5fdcf17c78c64e417d9ffa6.jpg?s=512&d=https%3A%2F%2Fa.slack-edge.com%2Fdf10d%2Fimg%2Favatars%2Fava_0010-512.png", "custom_css": null}, {"id": 16390, "slack_id": "U0976H6TL65", "display_name": "Guilherme Zanchetta", "bio": null, "projects_count": 0, "devlogs_count": 0, "votes_count": 0, "ships_count": 0, "projects": [], "coding_time_seconds": 801, "coding_time_seconds_today": 0, "balance": "You need to have a pocket watcher badge to view this.", "badges": [], "created_at": "2025-07-21T15:17:04.667-04:00", "updated_at": "2025-07-25T14:13:32.071-04:00", "avatar": "https://avatars.slack-edge.com/2025-07-21/9244597508657_f5955d2cd6770e8e508a_original.jpg", "custom_css": null}, {"id": 16391, "slack_id": "U096N1C06JX", "display_name": "\u041a\u0438\u0440\u0438\u043b\u043b \u0410\u043d\u043e\u0441\u043e\u0432", "bio": null, "projects_count": 0, "devlogs_count": 0, "votes_count": 0, "ships_count": 0, "projects": [], "coding_time_seconds": 0, "coding_time_seconds_today": 0, "balance": "You need to have a pocket watcher badge to view this.", "badges": [], "created_at": "2025-07-21T15:17:05.841-04:00", "updated_at": "2025-07-22T03:28:37.239-04:00", "avatar": "https://avatars.slack-edge.com/2025-07-21/9228233971782_83cd5adadb4b7ca71092_original.png", "custom_css": null}, {"id": 16392, "slack_id": "U096CFUAJGP", "display_name": "Patrick", "bio": null, "projects_count": 0, "devlogs_count": 0, "votes_count": 0, "ships_count": 0, "projects": [], "coding_time_seconds": 0, "coding_time_seconds_today": 0, "balance": "You need to have a pocket watcher badge to view this.", "badges": [], "created_at": "2025-07-21T15:17:10.560-04:00", "updated_at": "2025-07-22T03:28:37.325-04:00", "avatar": "https://secure.gravatar.com/avatar/47a56123722c59120d73abf9fd6a6410.jpg?s=512&d=https%3A%2F%2Fa.slack-edge.com%2Fdf10d%2Fimg%2Favatars%2Fava_0007-512.png", "custom_css": null}, {"id": 16393, "slack_id": "U096RBQDQ2H", "display_name": "Haashir Masroor", "bio": null, "projects_count": 0, "devlogs_count": 0, "votes_count": 0, "ships_count": 0, "projects": [], "coding_time_seconds": 0, "coding_time_seconds_today": 0, "balance": "You need to have a pocket watcher badge to view this.", "badges": [], "created_at": "2025-07-21T15:17:21.085-04:00", "updated_at": "2025-07-22T03:28:37.417-04:00", "avatar": "https://secure.gravatar.com/avatar/7b200d1f95340617571babe24cd03145.jpg?s=512&d=https%3A%2F%2Fa.slack-edge.com%2Fdf10d%2Fimg%2Favatars%2Fava_0011-512.png", "custom_css": null}, {"id": 16394, "slack_id": "U096CG26JR5", "display_name": "jeevan joshi", "bio": null, "projects_count": 0, "devlogs_count": 0, "votes_count": 0, "ships_count": 0, "projects": [], "coding_time_seconds": 0, "coding_time_seconds_today": 0, "balance": "You need to have a pocket watcher badge to view this.", "badges": [], "created_at": "2025-07-21T15:17:27.215-04:00", "updated_at": "2025-07-22T03:28:37.503-04:00", "avatar": "https://secure.gravatar.com/avatar/fcee3b6b5e16bd10818df431ba0e8471.jpg?s=512&d=https%3A%2F%2Fa.slack-edge.com%2Fdf10d%2Fimg%2Favatars%2Fava_0024-512.png", "custom_css": null}, {"id": 16395, "slack_id": "U097FPNDE5N", "display_name": "Bhargav Joshi", "bio": null, "projects_count": 0, "devlogs_count": 0, "votes_count": 0, "ships_count": 0, "projects": [], "coding_time_seconds": 0, "coding_time_seconds_today": 0, "balance": "You need to have a pocket watcher badge to view this.", "badges": [], "created_at": "2025-07-21T15:17:34.204-04:00", "updated_at": "2025-07-22T03:28:37.581-04:00", "avatar": "https://secure.gravatar.com/avatar/375d692500448fa7d57ae8024d52e4ec.jpg?s=512&d=https%3A%2F%2Fa.slack-edge.com%2Fdf10d%2Fimg%2Favatars%2Fava_0000-512.png", "custom_css": null}, {"id": 16396, "slack_id": "U097FPKJ1K2", "display_name": "SUNDAR RATHINAVEL", "bio": null, "projects_count": 0, "devlogs_count": 0, "votes_count": 0, "ships_count": 0, "projects": [], "coding_time_seconds": 0, "coding_time_seconds_today": 0, "balance": "You need to have a pocket watcher badge to view this.", "badges": [], "created_at": "2025-07-21T15:17:34.239-04:00", "updated_at": "2025-07-22T03:28:37.667-04:00", "avatar": "https://avatars.slack-edge.com/2025-07-21/9216558113111_04e50a3d34ddba8c9556_original.jpg", "custom_css": null}, {"id": 16397, "slack_id": "U096CFW2F9D", "display_name": "Holly Xue", "bio": null, "projects_count": 0, "devlogs_count": 0, "votes_count": 0, "ships_count": 0, "projects": [], "coding_time_seconds": 0, "coding_time_seconds_today": 0, "balance": "You need to have a pocket watcher badge to view this.", "badges": [], "created_at": "2025-07-21T15:17:38.129-04:00", "updated_at": "2025-07-22T03:28:37.757-04:00", "avatar": "https://avatars.slack-edge.com/2025-07-21/9253819668224_2d4cddbfa5d0feabcbe3_original.png", "custom_css": null}, {"id": 16398, "slack_id": "U0976GJAEPK", "display_name": "Jayant Soni", "bio": null, "projects_count": 2, "devlogs_count": 0, "votes_count": 0, "ships_count": 1, "projects": [{"id": 7697, "title": "Spam Event Invite Blocker", "devlogs_count": 0, "created_at": "2025-07-22T15:37:35.004-04:00"}, {"id": 7707, "title": "BoxFox", "devlogs_count": 0, "created_at": "2025-07-22T16:19:51.026-04:00"}], "coding_time_seconds": 2917, "coding_time_seconds_today": 0, "balance": "You need to have a pocket watcher badge to view this.", "badges": [], "created_at": "2025-07-21T15:17:38.235-04:00", "updated_at": "2025-07-22T13:11:43.967-04:00", "avatar": "https://secure.gravatar.com/avatar/96792b801095e562b57c6820274d7e2e.jpg?s=512&d=https%3A%2F%2Fa.slack-edge.com%2Fdf10d%2Fimg%2Favatars%2Fava_0021-512.png", "custom_css": null}, {"id": 16399, "slack_id": "U096RBVMNRK", "display_name": "MW", "bio": null, "projects_count": 0, "devlogs_count": 0, "votes_count": 0, "ships_count": 0, "projects": [], "coding_time_seconds": 0, "coding_time_seconds_today": 0, "balance": "You need to have a pocket watcher badge to view this.", "badges": [], "created_at": "2025-07-21T15:17:38.257-04:00", "updated_at": "2025-07-22T03:28:37.906-04:00", "avatar": "https://secure.gravatar.com/avatar/aeb1ba31703363a5373b4a89cb06c02c.jpg?s=512&d=https%3A%2F%2Fa.slack-edge.com%2Fdf10d%2Fimg%2Favatars%2Fava_0012-512.png", "custom_css": null}, {"id": 16400, "slack_id": "U097FPKV4EL", "display_name": "Abhishek", "bio": null, "projects_count": 0, "devlogs_count": 0, "votes_count": 0, "ships_count": 0, "projects": [], "coding_time_seconds": 0, "coding_time_seconds_today": 0, "balance": "You need to have a pocket watcher badge to view this.", "badges": [], "created_at": "2025-07-21T15:17:39.807-04:00", "updated_at": "2025-07-22T03:28:37.985-04:00", "avatar": "https://secure.gravatar.com/avatar/6fdfcd327f7e0b43c025c31656404bd8.jpg?s=512&d=https%3A%2F%2Fa.slack-edge.com%2Fdf10d%2Fimg%2Favatars%2Fava_0001-512.png", "custom_css": null}, {"id": 16401, "slack_id": "U096RBU7DA9", "display_name": "Atharva Ralegankar", "bio": null, "projects_count": 0, "devlogs_count": 0, "votes_count": 0, "ships_count": 0, "projects": [], "coding_time_seconds": 84063, "coding_time_seconds_today": 0, "balance": "You need to have a pocket watcher badge to view this.", "badges": [], "created_at": "2025-07-21T15:17:42.436-04:00", "updated_at": "2025-07-22T03:28:42.099-04:00", "avatar": "https://avatars.slack-edge.com/2025-07-21/9232553388788_ff434b9479ff60bb7794_original.webp", "custom_css": null}, {"id": 16402, "slack_id": "U096Q6K1D3Q", "display_name": "Lurk", "bio": "Your average software engineer from Ohio. Lol :3", "projects_count": 0, "devlogs_count": 0, "votes_count": 1, "ships_count": 0, "projects": [], "coding_time_seconds": 0, "coding_time_seconds_today": 0, "balance": "You need to have a pocket watcher badge to view this.", "badges": [], "created_at": "2025-07-21T15:17:57.231-04:00", "updated_at": "2025-07-22T03:28:42.195-04:00", "avatar": "https://avatars.slack-edge.com/2025-07-21/9228254659798_728536654c48e861e93a_original.png", "custom_css": null}, {"id": 16403, "slack_id": "U0976H7P333", "display_name": "Ayan Ahmed Khan", "bio": null, "projects_count": 0, "devlogs_count": 0, "votes_count": 0, "ships_count": 0, "projects": [], "coding_time_seconds": 53958, "coding_time_seconds_today": 0, "balance": "You need to have a pocket watcher badge to view this.", "badges": [], "created_at": "2025-07-21T15:18:01.429-04:00", "updated_at": "2025-07-22T13:49:16.547-04:00", "avatar": "https://avatars.slack-edge.com/2025-07-21/9229417239989_bab347d27b572c26797e_original.png", "custom_css": null}, {"id": 16404, "slack_id": "U096Q5RRW4W", "display_name": "Hamish", "bio": null, "projects_count": 0, "devlogs_count": 0, "votes_count": 0, "ships_count": 0, "projects": [], "coding_time_seconds": 0, "coding_time_seconds_today": 0, "balance": "You need to have a pocket watcher badge to view this.", "badges": [], "created_at": "2025-07-21T15:18:01.453-04:00", "updated_at": "2025-07-22T03:28:42.361-04:00", "avatar": "https://secure.gravatar.com/avatar/dd5fdd46ea08e94947c1617bbfb54f8f.jpg?s=512&d=https%3A%2F%2Fa.slack-edge.com%2Fdf10d%2Fimg%2Favatars%2Fava_0020-512.png", "custom_css": null}, {"id": 16405, "slack_id": "U096UG074BW", "display_name": "Aneeq", "bio": null, "projects_count": 0, "devlogs_count": 0, "votes_count": 0, "ships_count": 0, "projects": [], "coding_time_seconds": 0, "coding_time_seconds_today": 0, "balance": "You need to have a pocket watcher badge to view this.", "badges": [], "created_at": "2025-07-21T15:18:05.473-04:00", "updated_at": "2025-07-22T03:28:42.449-04:00", "avatar": "https://secure.gravatar.com/avatar/d716cb4ec0015c64aca8d6db76539bae.jpg?s=512&d=https%3A%2F%2Fa.slack-edge.com%2Fdf10d%2Fimg%2Favatars%2Fava_0025-512.png", "custom_css": null}], "pagination": {"page": 816, "pages": 1192, "count": 23828, "items": 20}}