{"users": [{"id": 16406, "slack_id": "U092YKLCKL0", "display_name": "likesh", "bio": null, "projects_count": 0, "devlogs_count": 0, "votes_count": 0, "ships_count": 0, "projects": [], "coding_time_seconds": 0, "coding_time_seconds_today": 0, "balance": "You need to have a pocket watcher badge to view this.", "badges": [], "created_at": "2025-07-21T15:18:05.780-04:00", "updated_at": "2025-07-23T21:28:23.248-04:00", "avatar": "https://avatars.slack-edge.com/2025-07-23/9244673917396_ccb669904d09075bda78_original.jpg", "custom_css": null}, {"id": 16407, "slack_id": "U096RBTV1C5", "display_name": "Andrei", "bio": null, "projects_count": 0, "devlogs_count": 0, "votes_count": 0, "ships_count": 0, "projects": [], "coding_time_seconds": 0, "coding_time_seconds_today": 0, "balance": "You need to have a pocket watcher badge to view this.", "badges": [], "created_at": "2025-07-21T15:18:07.218-04:00", "updated_at": "2025-07-22T03:28:42.620-04:00", "avatar": "https://secure.gravatar.com/avatar/c432dfc623a065670cee0c9477ccc4f1.jpg?s=512&d=https%3A%2F%2Fa.slack-edge.com%2Fdf10d%2Fimg%2Favatars%2Fava_0023-512.png", "custom_css": null}, {"id": 16408, "slack_id": "U096Q6APJ4E", "display_name": "Shahzan", "bio": null, "projects_count": 0, "devlogs_count": 0, "votes_count": 0, "ships_count": 0, "projects": [], "coding_time_seconds": 0, "coding_time_seconds_today": 0, "balance": "You need to have a pocket watcher badge to view this.", "badges": [], "created_at": "2025-07-21T15:18:09.184-04:00", "updated_at": "2025-07-22T03:28:42.703-04:00", "avatar": "https://secure.gravatar.com/avatar/de6e838a9ffc3c13c433ff4b79ba583b.jpg?s=512&d=https%3A%2F%2Fa.slack-edge.com%2Fdf10d%2Fimg%2Favatars%2Fava_0005-512.png", "custom_css": null}, {"id": 16409, "slack_id": "U096UG0BZ8U", "display_name": "Amit Anand", "bio": null, "projects_count": 0, "devlogs_count": 0, "votes_count": 0, "ships_count": 0, "projects": [], "coding_time_seconds": 0, "coding_time_seconds_today": 0, "balance": "You need to have a pocket watcher badge to view this.", "badges": [], "created_at": "2025-07-21T15:18:18.176-04:00", "updated_at": "2025-07-22T03:28:46.813-04:00", "avatar": "https://secure.gravatar.com/avatar/777a5a33597a3fa5163d3e42e57ab668.jpg?s=512&d=https%3A%2F%2Fa.slack-edge.com%2Fdf10d%2Fimg%2Favatars%2Fava_0005-512.png", "custom_css": null}, {"id": 16410, "slack_id": "U096UFUQKJ8", "display_name": "Abhijay Rana", "bio": null, "projects_count": 0, "devlogs_count": 0, "votes_count": 0, "ships_count": 0, "projects": [], "coding_time_seconds": 47058, "coding_time_seconds_today": 0, "balance": "You need to have a pocket watcher badge to view this.", "badges": [], "created_at": "2025-07-21T15:18:22.825-04:00", "updated_at": "2025-07-28T11:47:04.944-04:00", "avatar": "https://secure.gravatar.com/avatar/a454ef7e9c16fe62bf9247049e46226f.jpg?s=512&d=https%3A%2F%2Fa.slack-edge.com%2Fdf10d%2Fimg%2Favatars%2Fava_0024-512.png", "custom_css": null}, {"id": 16411, "slack_id": "U097FPSK3PA", "display_name": "Frkri", "bio": null, "projects_count": 0, "devlogs_count": 0, "votes_count": 0, "ships_count": 0, "projects": [], "coding_time_seconds": 0, "coding_time_seconds_today": 0, "balance": "You need to have a pocket watcher badge to view this.", "badges": [], "created_at": "2025-07-21T15:18:33.959-04:00", "updated_at": "2025-07-22T03:28:47.017-04:00", "avatar": "https://secure.gravatar.com/avatar/fdc29926c7e783a79d897a3bada821d0.jpg?s=512&d=https%3A%2F%2Fa.slack-edge.com%2Fdf10d%2Fimg%2Favatars%2Fava_0010-512.png", "custom_css": null}, {"id": 16412, "slack_id": "U097FPTLSMN", "display_name": "Jan-Hendrik", "bio": null, "projects_count": 0, "devlogs_count": 0, "votes_count": 0, "ships_count": 0, "projects": [], "coding_time_seconds": 0, "coding_time_seconds_today": 0, "balance": "You need to have a pocket watcher badge to view this.", "badges": [], "created_at": "2025-07-21T15:18:42.114-04:00", "updated_at": "2025-07-22T03:28:47.093-04:00", "avatar": "https://secure.gravatar.com/avatar/3df584c7ec26f4dc22203d4c8176d005.jpg?s=512&d=https%3A%2F%2Fa.slack-edge.com%2Fdf10d%2Fimg%2Favatars%2Fava_0011-512.png", "custom_css": null}, {"id": 16413, "slack_id": "U096Q6S6JFQ", "display_name": "Subrato Mandal", "bio": null, "projects_count": 0, "devlogs_count": 0, "votes_count": 0, "ships_count": 0, "projects": [], "coding_time_seconds": 0, "coding_time_seconds_today": 0, "balance": "You need to have a pocket watcher badge to view this.", "badges": [], "created_at": "2025-07-21T15:18:54.467-04:00", "updated_at": "2025-07-22T03:28:47.180-04:00", "avatar": "https://avatars.slack-edge.com/2025-07-21/9232559188900_28d85aa8b574a9f79ab8_original.jpg", "custom_css": null}, {"id": 16414, "slack_id": "U096CFP340P", "display_name": "Zo\u00e9 Osmani", "bio": null, "projects_count": 0, "devlogs_count": 0, "votes_count": 0, "ships_count": 0, "projects": [], "coding_time_seconds": 0, "coding_time_seconds_today": 0, "balance": "You need to have a pocket watcher badge to view this.", "badges": [], "created_at": "2025-07-21T15:19:26.266-04:00", "updated_at": "2025-07-22T03:28:47.255-04:00", "avatar": "https://avatars.slack-edge.com/2025-07-21/9244617138049_36a620b86e95a4abe309_original.png", "custom_css": null}, {"id": 16415, "slack_id": "U07L330JY00", "display_name": "Averious", "bio": null, "projects_count": 0, "devlogs_count": 0, "votes_count": 0, "ships_count": 0, "projects": [], "coding_time_seconds": 0, "coding_time_seconds_today": 0, "balance": "You need to have a pocket watcher badge to view this.", "badges": [], "created_at": "2025-07-21T15:19:38.182-04:00", "updated_at": "2025-07-24T06:31:48.575-04:00", "avatar": "https://secure.gravatar.com/avatar/acd77612453029fab3e9af0969e75311.jpg?s=512&d=https%3A%2F%2Fa.slack-edge.com%2Fdf10d%2Fimg%2Favatars%2Fava_0023-512.png", "custom_css": null}, {"id": 16416, "slack_id": "U096RC5UVB7", "display_name": "Rohit", "bio": null, "projects_count": 0, "devlogs_count": 0, "votes_count": 0, "ships_count": 0, "projects": [], "coding_time_seconds": 0, "coding_time_seconds_today": 0, "balance": "You need to have a pocket watcher badge to view this.", "badges": [], "created_at": "2025-07-21T15:19:42.175-04:00", "updated_at": "2025-07-22T03:28:47.389-04:00", "avatar": "https://secure.gravatar.com/avatar/d5e64bbbf3f2bc1762ced090a4459f77.jpg?s=512&d=https%3A%2F%2Fa.slack-edge.com%2Fdf10d%2Fimg%2Favatars%2Fava_0012-512.png", "custom_css": null}, {"id": 16417, "slack_id": "U096UEU4UN8", "display_name": "Sean Liu", "bio": null, "projects_count": 0, "devlogs_count": 0, "votes_count": 0, "ships_count": 0, "projects": [], "coding_time_seconds": 0, "coding_time_seconds_today": 0, "balance": "You need to have a pocket watcher badge to view this.", "badges": [], "created_at": "2025-07-21T15:19:46.410-04:00", "updated_at": "2025-07-22T11:06:56.682-04:00", "avatar": "https://secure.gravatar.com/avatar/eec1ce73c9df9a21ddfe84929ae0625b.jpg?s=512&d=https%3A%2F%2Fa.slack-edge.com%2Fdf10d%2Fimg%2Favatars%2Fava_0002-512.png", "custom_css": null}, {"id": 16418, "slack_id": "U096RBY4K1T", "display_name": "KEERTHIVASAN S V", "bio": null, "projects_count": 1, "devlogs_count": 0, "votes_count": 0, "ships_count": 0, "projects": [{"id": 7514, "title": "Sentimentalyst", "devlogs_count": 0, "created_at": "2025-07-22T02:12:43.003-04:00"}], "coding_time_seconds": 66285, "coding_time_seconds_today": 0, "balance": "You need to have a pocket watcher badge to view this.", "badges": [], "created_at": "2025-07-21T15:19:54.196-04:00", "updated_at": "2025-08-22T12:10:28.616-04:00", "avatar": "https://secure.gravatar.com/avatar/abda0421e609a32588f4c2edae888b60.jpg?s=512&d=https%3A%2F%2Fa.slack-edge.com%2Fdf10d%2Fimg%2Favatars%2Fava_0000-512.png", "custom_css": null}, {"id": 16419, "slack_id": "U096CBDMNNB", "display_name": "FANGUARD", "bio": null, "projects_count": 0, "devlogs_count": 0, "votes_count": 0, "ships_count": 0, "projects": [], "coding_time_seconds": 0, "coding_time_seconds_today": 0, "balance": "You need to have a pocket watcher badge to view this.", "badges": [], "created_at": "2025-07-21T15:20:40.246-04:00", "updated_at": "2025-07-22T03:28:51.679-04:00", "avatar": "https://avatars.slack-edge.com/2025-07-21/9254153844624_afaebb18b6088da7e69d_original.png", "custom_css": null}, {"id": 16420, "slack_id": "U096MVDVD99", "display_name": "Max", "bio": null, "projects_count": 0, "devlogs_count": 0, "votes_count": 0, "ships_count": 0, "projects": [], "coding_time_seconds": 0, "coding_time_seconds_today": 0, "balance": "You need to have a pocket watcher badge to view this.", "badges": [], "created_at": "2025-07-21T15:20:42.994-04:00", "updated_at": "2025-07-22T03:28:51.766-04:00", "avatar": "https://secure.gravatar.com/avatar/1e5eb053b8f5788c3d0a667c9165097c.jpg?s=512&d=https%3A%2F%2Fa.slack-edge.com%2Fdf10d%2Fimg%2Favatars%2Fava_0018-512.png", "custom_css": null}, {"id": 16421, "slack_id": "U096CFY8YP9", "display_name": "Abhinav", "bio": null, "projects_count": 0, "devlogs_count": 0, "votes_count": 0, "ships_count": 0, "projects": [], "coding_time_seconds": 0, "coding_time_seconds_today": 0, "balance": "You need to have a pocket watcher badge to view this.", "badges": [], "created_at": "2025-07-21T15:21:05.215-04:00", "updated_at": "2025-07-22T03:28:51.847-04:00", "avatar": "https://secure.gravatar.com/avatar/0664861e45176c224dd5f5865f399321.jpg?s=512&d=https%3A%2F%2Fa.slack-edge.com%2Fdf10d%2Fimg%2Favatars%2Fava_0015-512.png", "custom_css": null}, {"id": 16422, "slack_id": "U097FQ67PFS", "display_name": "Deprave", "bio": null, "projects_count": 0, "devlogs_count": 0, "votes_count": 0, "ships_count": 0, "projects": [], "coding_time_seconds": 0, "coding_time_seconds_today": 0, "balance": "You need to have a pocket watcher badge to view this.", "badges": [], "created_at": "2025-07-21T15:21:10.643-04:00", "updated_at": "2025-07-22T03:28:51.936-04:00", "avatar": "https://secure.gravatar.com/avatar/b587b197d410fa524abd3b24ec4517ab.jpg?s=512&d=https%3A%2F%2Fa.slack-edge.com%2Fdf10d%2Fimg%2Favatars%2Fava_0014-512.png", "custom_css": null}, {"id": 16423, "slack_id": "U096CFWDY3H", "display_name": "SR Java", "bio": null, "projects_count": 0, "devlogs_count": 0, "votes_count": 0, "ships_count": 0, "projects": [], "coding_time_seconds": 0, "coding_time_seconds_today": 0, "balance": "You need to have a pocket watcher badge to view this.", "badges": [], "created_at": "2025-07-21T15:21:12.048-04:00", "updated_at": "2025-07-22T03:28:52.025-04:00", "avatar": "https://secure.gravatar.com/avatar/d5ca648fa5215f0e338b43768547c68a.jpg?s=512&d=https%3A%2F%2Fa.slack-edge.com%2Fdf10d%2Fimg%2Favatars%2Fava_0026-512.png", "custom_css": null}, {"id": 16424, "slack_id": "U096CG4BX0X", "display_name": "Josh Samadder", "bio": null, "projects_count": 0, "devlogs_count": 0, "votes_count": 0, "ships_count": 0, "projects": [], "coding_time_seconds": 0, "coding_time_seconds_today": 0, "balance": "You need to have a pocket watcher badge to view this.", "badges": [], "created_at": "2025-07-21T15:21:12.517-04:00", "updated_at": "2025-07-22T03:28:52.123-04:00", "avatar": "https://secure.gravatar.com/avatar/c817971b2f457c253256b7503d886450.jpg?s=512&d=https%3A%2F%2Fa.slack-edge.com%2Fdf10d%2Fimg%2Favatars%2Fava_0004-512.png", "custom_css": null}, {"id": 16425, "slack_id": "U097FQ5DRK2", "display_name": "Omar Mohamud", "bio": null, "projects_count": 0, "devlogs_count": 0, "votes_count": 0, "ships_count": 0, "projects": [], "coding_time_seconds": 0, "coding_time_seconds_today": 0, "balance": "You need to have a pocket watcher badge to view this.", "badges": [], "created_at": "2025-07-21T15:21:18.080-04:00", "updated_at": "2025-07-22T03:28:52.208-04:00", "avatar": "https://avatars.slack-edge.com/2025-07-21/9232570977108_2624c94adca6250c00e4_original.png", "custom_css": null}], "pagination": {"page": 817, "pages": 1192, "count": 23828, "items": 20}}