{"users": [{"id": 16426, "slack_id": "U096Q70RANA", "display_name": "Ula\u015f", "bio": null, "projects_count": 0, "devlogs_count": 0, "votes_count": 0, "ships_count": 0, "projects": [], "coding_time_seconds": 0, "coding_time_seconds_today": 0, "balance": "You need to have a pocket watcher badge to view this.", "badges": [], "created_at": "2025-07-21T15:21:53.324-04:00", "updated_at": "2025-07-22T03:28:52.291-04:00", "avatar": "https://secure.gravatar.com/avatar/0d315e3c1c9026ecdb10b1ab08e3dc04.jpg?s=512&d=https%3A%2F%2Fa.slack-edge.com%2Fdf10d%2Fimg%2Favatars%2Fava_0025-512.png", "custom_css": null}, {"id": 16427, "slack_id": "U096Q6XLC6S", "display_name": "AlexF99", "bio": null, "projects_count": 3, "devlogs_count": 11, "votes_count": 31, "ships_count": 3, "projects": [{"id": 8347, "title": "NotesApp", "devlogs_count": 1, "created_at": "2025-07-26T11:25:45.586-04:00"}, {"id": 7620, "title": "ChatApp", "devlogs_count": 5, "created_at": "2025-07-22T10:03:54.060-04:00"}, {"id": 7698, "title": "ChatApp - Server", "devlogs_count": 5, "created_at": "2025-07-22T15:39:07.000-04:00"}], "coding_time_seconds": 107732, "coding_time_seconds_today": 0, "balance": "You need to have a pocket watcher badge to view this.", "badges": [], "created_at": "2025-07-21T15:22:07.107-04:00", "updated_at": "2025-08-07T12:10:52.400-04:00", "avatar": "https://secure.gravatar.com/avatar/40a4d9fcfad326460df32f72b8254a1f.jpg?s=512&d=https%3A%2F%2Fa.slack-edge.com%2Fdf10d%2Fimg%2Favatars%2Fava_0004-512.png", "custom_css": null}, {"id": 16428, "slack_id": "U096UGJHCE8", "display_name": "Jose M. Gama", "bio": null, "projects_count": 0, "devlogs_count": 0, "votes_count": 0, "ships_count": 0, "projects": [], "coding_time_seconds": 0, "coding_time_seconds_today": 0, "balance": "You need to have a pocket watcher badge to view this.", "badges": [], "created_at": "2025-07-21T15:22:12.935-04:00", "updated_at": "2025-07-22T03:28:52.488-04:00", "avatar": "https://secure.gravatar.com/avatar/af7873f12d97ac6d37615ff69a03a75b.jpg?s=512&d=https%3A%2F%2Fa.slack-edge.com%2Fdf10d%2Fimg%2Favatars%2Fava_0021-512.png", "custom_css": null}, {"id": 16429, "slack_id": "U096T9RN3A6", "display_name": "Vladislav Shorodok", "bio": null, "projects_count": 0, "devlogs_count": 0, "votes_count": 0, "ships_count": 0, "projects": [], "coding_time_seconds": 0, "coding_time_seconds_today": 0, "balance": "You need to have a pocket watcher badge to view this.", "badges": [], "created_at": "2025-07-21T15:22:19.917-04:00", "updated_at": "2025-07-22T04:48:07.570-04:00", "avatar": "https://secure.gravatar.com/avatar/26859f1262f8751085d7d3b2edc57299.jpg?s=512&d=https%3A%2F%2Fa.slack-edge.com%2Fdf10d%2Fimg%2Favatars%2Fava_0017-512.png", "custom_css": null}, {"id": 16430, "slack_id": "U0976HX1KMX", "display_name": "11CT1-20- Ph\u1ea1m Ph\u01b0\u01a1ng Nam", "bio": null, "projects_count": 0, "devlogs_count": 0, "votes_count": 0, "ships_count": 0, "projects": [], "coding_time_seconds": 0, "coding_time_seconds_today": 0, "balance": "You need to have a pocket watcher badge to view this.", "badges": [], "created_at": "2025-07-21T15:22:36.591-04:00", "updated_at": "2025-07-22T03:28:52.649-04:00", "avatar": "https://avatars.slack-edge.com/2025-07-21/9231354036002_c4cee933f7072552b470_original.jpg", "custom_css": null}, {"id": 16431, "slack_id": "U096RCA22HK", "display_name": "Amol Devidas Rakh", "bio": null, "projects_count": 0, "devlogs_count": 0, "votes_count": 0, "ships_count": 0, "projects": [], "coding_time_seconds": 0, "coding_time_seconds_today": 0, "balance": "You need to have a pocket watcher badge to view this.", "badges": [], "created_at": "2025-07-21T15:22:38.014-04:00", "updated_at": "2025-07-22T03:28:56.769-04:00", "avatar": "https://secure.gravatar.com/avatar/35618313363c47cd6165781c6f377b93.jpg?s=512&d=https%3A%2F%2Fa.slack-edge.com%2Fdf10d%2Fimg%2Favatars%2Fava_0019-512.png", "custom_css": null}, {"id": 16432, "slack_id": "U097FQCA2CQ", "display_name": "Nadhif", "bio": null, "projects_count": 0, "devlogs_count": 0, "votes_count": 0, "ships_count": 0, "projects": [], "coding_time_seconds": 0, "coding_time_seconds_today": 0, "balance": "You need to have a pocket watcher badge to view this.", "badges": [], "created_at": "2025-07-21T15:22:42.863-04:00", "updated_at": "2025-07-22T03:28:56.863-04:00", "avatar": "https://secure.gravatar.com/avatar/146b813dff04c1e0c6a7146af0d62d3c.jpg?s=512&d=https%3A%2F%2Fa.slack-edge.com%2Fdf10d%2Fimg%2Favatars%2Fava_0018-512.png", "custom_css": null}, {"id": 16433, "slack_id": "U096T92SKTL", "display_name": "Kanak Verma", "bio": "Vibing with code\r\n", "projects_count": 3, "devlogs_count": 5, "votes_count": 2, "ships_count": 2, "projects": [{"id": 7920, "title": "Okara", "devlogs_count": 0, "created_at": "2025-07-23T15:51:27.487-04:00"}, {"id": 8809, "title": "RepoReaper", "devlogs_count": 2, "created_at": "2025-07-29T10:37:16.253-04:00"}, {"id": 7919, "title": "ConvoSync", "devlogs_count": 3, "created_at": "2025-07-23T15:48:51.781-04:00"}], "coding_time_seconds": 168372, "coding_time_seconds_today": 0, "balance": "You need to have a pocket watcher badge to view this.", "badges": [], "created_at": "2025-07-21T15:22:43.234-04:00", "updated_at": "2025-07-22T05:44:31.806-04:00", "avatar": "https://avatars.slack-edge.com/2025-07-21/9244624619137_e26d900e3e88ae1cb0f3_original.jpg", "custom_css": null}, {"id": 16434, "slack_id": "U096Q79510W", "display_name": "Potatoes", "bio": null, "projects_count": 6, "devlogs_count": 3, "votes_count": 20, "ships_count": 1, "projects": [{"id": 7417, "title": "100x", "devlogs_count": 0, "created_at": "2025-07-21T17:51:16.817-04:00"}, {"id": 8662, "title": "Speech Dataset Pipeline", "devlogs_count": 0, "created_at": "2025-07-28T20:27:50.732-04:00"}, {"id": 10952, "title": "Kitty-Radio", "devlogs_count": 0, "created_at": "2025-08-12T02:12:15.242-04:00"}, {"id": 8272, "title": "Waifu", "devlogs_count": 0, "created_at": "2025-07-25T23:00:26.718-04:00"}, {"id": 10175, "title": "Glasses", "devlogs_count": 0, "created_at": "2025-08-04T16:27:54.742-04:00"}, {"id": 8187, "title": "Soundis", "devlogs_count": 3, "created_at": "2025-07-25T06:33:01.049-04:00"}], "coding_time_seconds": 155752, "coding_time_seconds_today": 0, "balance": "You need to have a pocket watcher badge to view this.", "badges": [], "created_at": "2025-07-21T15:22:43.967-04:00", "updated_at": "2025-08-06T15:28:32.777-04:00", "avatar": "https://avatars.slack-edge.com/2025-07-21/9228261416358_c05f7a08a2ff23ce6771_original.jpg", "custom_css": null}, {"id": 16435, "slack_id": "U096N21EA7M", "display_name": "Ben Braun", "bio": null, "projects_count": 0, "devlogs_count": 0, "votes_count": 0, "ships_count": 0, "projects": [], "coding_time_seconds": 0, "coding_time_seconds_today": 0, "balance": "You need to have a pocket watcher badge to view this.", "badges": [], "created_at": "2025-07-21T15:22:48.520-04:00", "updated_at": "2025-07-22T03:28:57.139-04:00", "avatar": "https://secure.gravatar.com/avatar/8ff9b5d96eae5fb71a49ff3181b202e1.jpg?s=512&d=https%3A%2F%2Fa.slack-edge.com%2Fdf10d%2Fimg%2Favatars%2Fava_0016-512.png", "custom_css": null}, {"id": 16436, "slack_id": "U096UG00CAY", "display_name": "Julius Hell", "bio": null, "projects_count": 0, "devlogs_count": 0, "votes_count": 0, "ships_count": 0, "projects": [], "coding_time_seconds": 0, "coding_time_seconds_today": 0, "balance": "You need to have a pocket watcher badge to view this.", "badges": [], "created_at": "2025-07-21T15:22:54.756-04:00", "updated_at": "2025-07-22T03:28:57.213-04:00", "avatar": "https://secure.gravatar.com/avatar/6e29d9fbd2fe21102d43d27582fba46f.jpg?s=512&d=https%3A%2F%2Fa.slack-edge.com%2Fdf10d%2Fimg%2Favatars%2Fava_0006-512.png", "custom_css": null}, {"id": 16437, "slack_id": "U097FQEER4G", "display_name": "natec", "bio": null, "projects_count": 0, "devlogs_count": 0, "votes_count": 0, "ships_count": 0, "projects": [], "coding_time_seconds": 0, "coding_time_seconds_today": 0, "balance": "You need to have a pocket watcher badge to view this.", "badges": [], "created_at": "2025-07-21T15:23:00.474-04:00", "updated_at": "2025-07-22T03:28:57.291-04:00", "avatar": "https://secure.gravatar.com/avatar/c5e6128621ff513cc755d18e3ff195c1.jpg?s=512&d=https%3A%2F%2Fa.slack-edge.com%2Fdf10d%2Fimg%2Favatars%2Fava_0005-512.png", "custom_css": null}, {"id": 16438, "slack_id": "U096UGK0CUU", "display_name": "Anil", "bio": null, "projects_count": 0, "devlogs_count": 0, "votes_count": 0, "ships_count": 0, "projects": [], "coding_time_seconds": 0, "coding_time_seconds_today": 0, "balance": "You need to have a pocket watcher badge to view this.", "badges": [], "created_at": "2025-07-21T15:23:02.726-04:00", "updated_at": "2025-07-22T03:28:57.372-04:00", "avatar": "https://secure.gravatar.com/avatar/570af4b426fef3369440455e47c6d1d1.jpg?s=512&d=https%3A%2F%2Fa.slack-edge.com%2Fdf10d%2Fimg%2Favatars%2Fava_0020-512.png", "custom_css": null}, {"id": 16439, "slack_id": "U096N21SF43", "display_name": "Hexy", "bio": null, "projects_count": 0, "devlogs_count": 0, "votes_count": 0, "ships_count": 0, "projects": [], "coding_time_seconds": 871, "coding_time_seconds_today": 0, "balance": "You need to have a pocket watcher badge to view this.", "badges": [], "created_at": "2025-07-21T15:23:03.826-04:00", "updated_at": "2025-07-23T02:50:17.700-04:00", "avatar": "https://secure.gravatar.com/avatar/5d2c143fb770fc2f4cd0f37e5b11ae0d.jpg?s=512&d=https%3A%2F%2Fa.slack-edge.com%2Fdf10d%2Fimg%2Favatars%2Fava_0012-512.png", "custom_css": null}, {"id": 16440, "slack_id": "U096T9RRNG2", "display_name": "primus852", "bio": null, "projects_count": 0, "devlogs_count": 0, "votes_count": 0, "ships_count": 0, "projects": [], "coding_time_seconds": 0, "coding_time_seconds_today": 0, "balance": "You need to have a pocket watcher badge to view this.", "badges": [], "created_at": "2025-07-21T15:23:15.758-04:00", "updated_at": "2025-07-22T03:28:57.550-04:00", "avatar": "https://secure.gravatar.com/avatar/c690fdeefbe626c49bdd3f00f8e59acc.jpg?s=512&d=https%3A%2F%2Fa.slack-edge.com%2Fdf10d%2Fimg%2Favatars%2Fava_0014-512.png", "custom_css": null}, {"id": 16441, "slack_id": "U096CGTAZ0F", "display_name": "Leon", "bio": null, "projects_count": 0, "devlogs_count": 0, "votes_count": 0, "ships_count": 0, "projects": [], "coding_time_seconds": 0, "coding_time_seconds_today": 0, "balance": "You need to have a pocket watcher badge to view this.", "badges": [], "created_at": "2025-07-21T15:23:17.459-04:00", "updated_at": "2025-07-22T22:12:01.921-04:00", "avatar": "https://secure.gravatar.com/avatar/5a029fc451ea3b67b9939820b2b49bab.jpg?s=512&d=https%3A%2F%2Fa.slack-edge.com%2Fdf10d%2Fimg%2Favatars%2Fava_0010-512.png", "custom_css": null}, {"id": 16442, "slack_id": "U0976J3BCMP", "display_name": "Sandeep Kumar", "bio": null, "projects_count": 0, "devlogs_count": 0, "votes_count": 0, "ships_count": 0, "projects": [], "coding_time_seconds": 0, "coding_time_seconds_today": 0, "balance": "You need to have a pocket watcher badge to view this.", "badges": [], "created_at": "2025-07-21T15:23:17.984-04:00", "updated_at": "2025-07-22T03:28:57.759-04:00", "avatar": "https://secure.gravatar.com/avatar/7af44b522cb101ed9a9da0786319c452.jpg?s=512&d=https%3A%2F%2Fa.slack-edge.com%2Fdf10d%2Fimg%2Favatars%2Fava_0016-512.png", "custom_css": null}, {"id": 16443, "slack_id": "U096UH0BYH2", "display_name": "Muhammad Mehdy", "bio": null, "projects_count": 0, "devlogs_count": 0, "votes_count": 0, "ships_count": 0, "projects": [], "coding_time_seconds": 1062, "coding_time_seconds_today": 0, "balance": "You need to have a pocket watcher badge to view this.", "badges": [], "created_at": "2025-07-21T15:23:36.703-04:00", "updated_at": "2025-07-22T06:02:53.034-04:00", "avatar": "https://avatars.slack-edge.com/2025-07-21/9216588271687_b3a72cbeea742a7e91a5_original.jpg", "custom_css": null}, {"id": 16444, "slack_id": "U096UGPBKGU", "display_name": "Emliy", "bio": null, "projects_count": 0, "devlogs_count": 0, "votes_count": 0, "ships_count": 0, "projects": [], "coding_time_seconds": 0, "coding_time_seconds_today": 0, "balance": "You need to have a pocket watcher badge to view this.", "badges": [], "created_at": "2025-07-21T15:23:54.683-04:00", "updated_at": "2025-07-22T03:28:57.934-04:00", "avatar": "https://secure.gravatar.com/avatar/60fdb2512946a552b5ea19925701560e.jpg?s=512&d=https%3A%2F%2Fa.slack-edge.com%2Fdf10d%2Fimg%2Favatars%2Fava_0020-512.png", "custom_css": null}, {"id": 16445, "slack_id": "U0976J9C117", "display_name": "Aandishah", "bio": null, "projects_count": 0, "devlogs_count": 0, "votes_count": 0, "ships_count": 0, "projects": [], "coding_time_seconds": 0, "coding_time_seconds_today": 0, "balance": "You need to have a pocket watcher badge to view this.", "badges": [], "created_at": "2025-07-21T15:24:00.797-04:00", "updated_at": "2025-07-22T03:28:58.025-04:00", "avatar": "https://secure.gravatar.com/avatar/03eeb9fe2803066bbaf227adfc6b949a.jpg?s=512&d=https%3A%2F%2Fa.slack-edge.com%2Fdf10d%2Fimg%2Favatars%2Fava_0018-512.png", "custom_css": null}], "pagination": {"page": 818, "pages": 1192, "count": 23828, "items": 20}}