{"users": [{"id": 1621, "slack_id": "U091G6UP8F8", "display_name": "Nishith Jain", "bio": null, "projects_count": 0, "devlogs_count": 0, "votes_count": 0, "ships_count": 0, "projects": [], "coding_time_seconds": 540790, "coding_time_seconds_today": 0, "balance": "You need to have a pocket watcher badge to view this.", "badges": [], "created_at": "2025-06-16T13:38:24.022-04:00", "updated_at": "2025-07-03T19:18:28.624-04:00", "avatar": "https://secure.gravatar.com/avatar/49e8b842cf2804f22798419ed8d47819.jpg?s=512&d=https%3A%2F%2Fa.slack-edge.com%2Fdf10d%2Fimg%2Favatars%2Fava_0012-512.png", "custom_css": null}, {"id": 1622, "slack_id": "U091GBF6BNX", "display_name": "ovi", "bio": null, "projects_count": 0, "devlogs_count": 0, "votes_count": 0, "ships_count": 0, "projects": [], "coding_time_seconds": 0, "coding_time_seconds_today": 0, "balance": "You need to have a pocket watcher badge to view this.", "badges": [], "created_at": "2025-06-16T13:38:24.317-04:00", "updated_at": "2025-07-03T19:18:28.905-04:00", "avatar": "https://secure.gravatar.com/avatar/03289235b49aad0faacea2b5c8452335.jpg?s=512&d=https%3A%2F%2Fa.slack-edge.com%2Fdf10d%2Fimg%2Favatars%2Fava_0022-512.png", "custom_css": null}, {"id": 1623, "slack_id": "U091GGJ8475", "display_name": "kija", "bio": null, "projects_count": 0, "devlogs_count": 0, "votes_count": 0, "ships_count": 0, "projects": [], "coding_time_seconds": 135552, "coding_time_seconds_today": 0, "balance": "You need to have a pocket watcher badge to view this.", "badges": [], "created_at": "2025-06-16T13:38:26.838-04:00", "updated_at": "2025-07-03T19:18:29.178-04:00", "avatar": "https://secure.gravatar.com/avatar/a4857ddc9deab54e615a7b03b0c3f4f0.jpg?s=512&d=https%3A%2F%2Fa.slack-edge.com%2Fdf10d%2Fimg%2Favatars%2Fava_0006-512.png", "custom_css": null}, {"id": 1624, "slack_id": "U091PECE7C2", "display_name": "harperawl", "bio": null, "projects_count": 3, "devlogs_count": 3, "votes_count": 0, "ships_count": 0, "projects": [{"id": 2348, "title": "My personal website", "devlogs_count": 0, "created_at": "2025-06-20T18:59:06.842-04:00"}, {"id": 2980, "title": "MTG deckbuilding app", "devlogs_count": 1, "created_at": "2025-06-22T16:19:24.424-04:00"}, {"id": 2318, "title": "Various MLB baseball data projects", "devlogs_count": 2, "created_at": "2025-06-20T17:20:46.524-04:00"}], "coding_time_seconds": 72192, "coding_time_seconds_today": 0, "balance": "You need to have a pocket watcher badge to view this.", "badges": [], "created_at": "2025-06-16T13:38:34.264-04:00", "updated_at": "2025-07-03T19:18:29.454-04:00", "avatar": "https://secure.gravatar.com/avatar/ae9e0a76b1cf2b62018dc8f326387e89.jpg?s=512&d=https%3A%2F%2Fa.slack-edge.com%2Fdf10d%2Fimg%2Favatars%2Fava_0002-512.png", "custom_css": null}, {"id": 1625, "slack_id": "U07981R1140", "display_name": "koeg", "bio": null, "projects_count": 1, "devlogs_count": 5, "votes_count": 16, "ships_count": 1, "projects": [{"id": 12020, "title": "Ironing board replacement part", "devlogs_count": 1, "created_at": "2025-08-22T08:34:15.506-04:00"}], "coding_time_seconds": 439806, "coding_time_seconds_today": 0, "balance": "You need to have a pocket watcher badge to view this.", "badges": [{"name": "Maiden Voyage", "text": "you shipped your first project! the journey begins...", "icon": "\ud83d\udea2"}], "created_at": "2025-06-16T13:38:36.180-04:00", "updated_at": "2025-09-10T22:51:57.459-04:00", "avatar": "https://avatars.slack-edge.com/2025-08-30/9447157676977_125d8c7c295e12bf3f13_original.jpg", "custom_css": null}, {"id": 1626, "slack_id": "U091PM4BTMG", "display_name": "Zaid Amin", "bio": null, "projects_count": 0, "devlogs_count": 0, "votes_count": 0, "ships_count": 0, "projects": [], "coding_time_seconds": 0, "coding_time_seconds_today": 0, "balance": "You need to have a pocket watcher badge to view this.", "badges": [], "created_at": "2025-06-16T13:38:46.607-04:00", "updated_at": "2025-07-03T19:18:30.000-04:00", "avatar": "https://secure.gravatar.com/avatar/2606543e86019b838c60af6247cd467b.jpg?s=512&d=https%3A%2F%2Fa.slack-edge.com%2Fdf10d%2Fimg%2Favatars%2Fava_0024-512.png", "custom_css": null}, {"id": 1627, "slack_id": "U092C5ELBQ8", "display_name": "Gozde", "bio": null, "projects_count": 0, "devlogs_count": 0, "votes_count": 0, "ships_count": 0, "projects": [], "coding_time_seconds": 0, "coding_time_seconds_today": 0, "balance": "You need to have a pocket watcher badge to view this.", "badges": [], "created_at": "2025-06-16T13:38:47.798-04:00", "updated_at": "2025-07-03T19:18:30.274-04:00", "avatar": "https://secure.gravatar.com/avatar/9f3b242e2d55576b12f30fd3f5151d56.jpg?s=512&d=https%3A%2F%2Fa.slack-edge.com%2Fdf10d%2Fimg%2Favatars%2Fava_0003-512.png", "custom_css": null}, {"id": 1628, "slack_id": "U080TNP8STF", "display_name": "Luca Ferrario", "bio": null, "projects_count": 0, "devlogs_count": 0, "votes_count": 0, "ships_count": 0, "projects": [], "coding_time_seconds": 78, "coding_time_seconds_today": 0, "balance": "You need to have a pocket watcher badge to view this.", "badges": [], "created_at": "2025-06-16T13:38:51.329-04:00", "updated_at": "2025-07-03T19:18:30.546-04:00", "avatar": "https://avatars.slack-edge.com/2024-11-14/8024009918118_93d0454be78d35d48349_original.png", "custom_css": null}, {"id": 1629, "slack_id": "U091GQ3KM62", "display_name": "Aaryan Choudhary", "bio": null, "projects_count": 0, "devlogs_count": 0, "votes_count": 0, "ships_count": 0, "projects": [], "coding_time_seconds": 99270, "coding_time_seconds_today": 0, "balance": "You need to have a pocket watcher badge to view this.", "badges": [], "created_at": "2025-06-16T13:38:51.829-04:00", "updated_at": "2025-07-16T01:01:35.174-04:00", "avatar": "https://secure.gravatar.com/avatar/44c9ad49a1fbc483ebfa6a991a3c0267.jpg?s=512&d=https%3A%2F%2Fa.slack-edge.com%2Fdf10d%2Fimg%2Favatars%2Fava_0009-512.png", "custom_css": null}, {"id": 1630, "slack_id": "U091Q3GT6TE", "display_name": "Anmol", "bio": null, "projects_count": 2, "devlogs_count": 1, "votes_count": 20, "ships_count": 1, "projects": [{"id": 120, "title": "Sign a Shirt", "devlogs_count": 0, "created_at": "2025-06-16T14:04:35.122-04:00"}, {"id": 116, "title": "Word Unscrambler", "devlogs_count": 1, "created_at": "2025-06-16T13:58:04.582-04:00"}], "coding_time_seconds": 22094, "coding_time_seconds_today": 0, "balance": "You need to have a pocket watcher badge to view this.", "badges": [{"name": "Maiden Voyage", "text": "you shipped your first project! the journey begins...", "icon": "\ud83d\udea2"}], "created_at": "2025-06-16T13:38:52.458-04:00", "updated_at": "2025-09-10T22:51:57.627-04:00", "avatar": "https://secure.gravatar.com/avatar/988ce1a6cfca55cd56a6a6283029f0a3.jpg?s=512&d=https%3A%2F%2Fa.slack-edge.com%2Fdf10d%2Fimg%2Favatars%2Fava_0020-512.png", "custom_css": null}, {"id": 1631, "slack_id": "U091GR9M2BG", "display_name": "xylina", "bio": null, "projects_count": 0, "devlogs_count": 0, "votes_count": 0, "ships_count": 0, "projects": [], "coding_time_seconds": 0, "coding_time_seconds_today": 0, "balance": "You need to have a pocket watcher badge to view this.", "badges": [], "created_at": "2025-06-16T13:39:03.012-04:00", "updated_at": "2025-07-03T19:18:31.458-04:00", "avatar": "https://secure.gravatar.com/avatar/d28fbf3f1e8f018ec8092fc4176bbcac.jpg?s=512&d=https%3A%2F%2Fa.slack-edge.com%2Fdf10d%2Fimg%2Favatars%2Fava_0026-512.png", "custom_css": null}, {"id": 1632, "slack_id": "U09227WMFFB", "display_name": "Aadi Sood", "bio": null, "projects_count": 0, "devlogs_count": 0, "votes_count": 0, "ships_count": 0, "projects": [], "coding_time_seconds": 11167, "coding_time_seconds_today": 0, "balance": "You need to have a pocket watcher badge to view this.", "badges": [], "created_at": "2025-06-16T13:39:03.261-04:00", "updated_at": "2025-08-24T22:10:29.801-04:00", "avatar": "https://secure.gravatar.com/avatar/eea264313036a5c69ca96a272709d1a2.jpg?s=512&d=https%3A%2F%2Fa.slack-edge.com%2Fdf10d%2Fimg%2Favatars%2Fava_0008-512.png", "custom_css": null}, {"id": 1633, "slack_id": "U091GNJDKB5", "display_name": "ikniz", "bio": null, "projects_count": 0, "devlogs_count": 0, "votes_count": 0, "ships_count": 0, "projects": [], "coding_time_seconds": 183507, "coding_time_seconds_today": 0, "balance": "You need to have a pocket watcher badge to view this.", "badges": [], "created_at": "2025-06-16T13:39:11.125-04:00", "updated_at": "2025-07-03T19:18:32.026-04:00", "avatar": "https://secure.gravatar.com/avatar/dcffa4dbc1005e50e503400403894420.jpg?s=512&d=https%3A%2F%2Fa.slack-edge.com%2Fdf10d%2Fimg%2Favatars%2Fava_0003-512.png", "custom_css": null}, {"id": 1634, "slack_id": "U091GRGNEHL", "display_name": "wish", "bio": null, "projects_count": 0, "devlogs_count": 0, "votes_count": 0, "ships_count": 0, "projects": [], "coding_time_seconds": 0, "coding_time_seconds_today": 0, "balance": "You need to have a pocket watcher badge to view this.", "badges": [], "created_at": "2025-06-16T13:39:24.705-04:00", "updated_at": "2025-07-03T19:18:32.303-04:00", "avatar": "https://secure.gravatar.com/avatar/288809afddfdb4ed0f2e4c77f86b6c06.jpg?s=512&d=https%3A%2F%2Fa.slack-edge.com%2Fdf10d%2Fimg%2Favatars%2Fava_0010-512.png", "custom_css": null}, {"id": 1635, "slack_id": "U091Q3KKXGC", "display_name": "Muhammadamin", "bio": null, "projects_count": 1, "devlogs_count": 2, "votes_count": 0, "ships_count": 1, "projects": [{"id": 715, "title": "Books Shop", "devlogs_count": 2, "created_at": "2025-06-17T06:15:46.981-04:00"}], "coding_time_seconds": 170582, "coding_time_seconds_today": 0, "balance": "You need to have a pocket watcher badge to view this.", "badges": [{"name": "Maiden Voyage", "text": "you shipped your first project! the journey begins...", "icon": "\ud83d\udea2"}], "created_at": "2025-06-16T13:39:26.412-04:00", "updated_at": "2025-09-10T22:51:57.742-04:00", "avatar": "https://secure.gravatar.com/avatar/877845c3819ba29f83d504622b82fee9.jpg?s=512&d=https%3A%2F%2Fa.slack-edge.com%2Fdf10d%2Fimg%2Favatars%2Fava_0018-512.png", "custom_css": null}, {"id": 1636, "slack_id": "U091PMADNHY", "display_name": "Jose Dhonatas", "bio": null, "projects_count": 0, "devlogs_count": 0, "votes_count": 0, "ships_count": 0, "projects": [], "coding_time_seconds": 118524, "coding_time_seconds_today": 0, "balance": "You need to have a pocket watcher badge to view this.", "badges": [], "created_at": "2025-06-16T13:39:28.235-04:00", "updated_at": "2025-07-03T19:18:32.843-04:00", "avatar": "https://secure.gravatar.com/avatar/ef6819307863c8085adf8594d9d21bd6.jpg?s=512&d=https%3A%2F%2Fa.slack-edge.com%2Fdf10d%2Fimg%2Favatars%2Fava_0021-512.png", "custom_css": null}, {"id": 1637, "slack_id": "U07LK6JJ9DE", "display_name": "Aris", "bio": "", "projects_count": 5, "devlogs_count": 22, "votes_count": 26, "ships_count": 2, "projects": [{"id": 972, "title": "LogLynx", "devlogs_count": 1, "created_at": "2025-06-17T12:40:39.203-04:00"}, {"id": 9455, "title": "StreamDeck MusicManager", "devlogs_count": 0, "created_at": "2025-08-01T09:30:30.936-04:00"}, {"id": 12428, "title": "Digital Postcards", "devlogs_count": 6, "created_at": "2025-08-27T09:11:58.834-04:00"}, {"id": 13484, "title": "The Shrimp-Encoder", "devlogs_count": 8, "created_at": "2025-09-17T14:08:29.216-04:00"}, {"id": 13073, "title": "The Cave", "devlogs_count": 7, "created_at": "2025-09-08T04:22:38.768-04:00"}], "coding_time_seconds": 158800, "coding_time_seconds_today": 2044, "balance": "You need to have a pocket watcher badge to view this.", "badges": [{"name": "Maiden Voyage", "text": "you shipped your first project! the journey begins...", "icon": "\ud83d\udea2"}], "created_at": "2025-06-16T13:39:38.256-04:00", "updated_at": "2025-09-10T22:51:57.787-04:00", "avatar": "https://avatars.slack-edge.com/2025-08-27/9431652990881_fecf20fc2a6353e6d588_original.jpg", "custom_css": null}, {"id": 1638, "slack_id": "U09227X1EKB", "display_name": "Huy Nguyen", "bio": null, "projects_count": 0, "devlogs_count": 0, "votes_count": 0, "ships_count": 0, "projects": [], "coding_time_seconds": 0, "coding_time_seconds_today": 0, "balance": "You need to have a pocket watcher badge to view this.", "badges": [], "created_at": "2025-06-16T13:39:48.022-04:00", "updated_at": "2025-07-03T19:18:33.377-04:00", "avatar": "https://secure.gravatar.com/avatar/d6086f306c05bc198dbb6664fdac44d0.jpg?s=512&d=https%3A%2F%2Fa.slack-edge.com%2Fdf10d%2Fimg%2Favatars%2Fava_0003-512.png", "custom_css": null}, {"id": 1639, "slack_id": "U092C5L03NU", "display_name": "Tiazzz", "bio": "Heyo, I'm Tiazzz, I'm passionate about MC-modding and developing other bits and gags. I mainly use Java/Kotlin, Dart and Python, but can easily adapt to other langs!", "projects_count": 2, "devlogs_count": 15, "votes_count": 4, "ships_count": 0, "projects": [{"id": 7153, "title": "Chat To Discord Bot Mode", "devlogs_count": 3, "created_at": "2025-07-19T13:56:51.722-04:00"}, {"id": 616, "title": "Leejw", "devlogs_count": 12, "created_at": "2025-06-17T02:58:42.544-04:00"}], "coding_time_seconds": 427155, "coding_time_seconds_today": 0, "balance": "You need to have a pocket watcher badge to view this.", "badges": [], "created_at": "2025-06-16T13:39:55.532-04:00", "updated_at": "2025-08-08T14:40:08.035-04:00", "avatar": "https://avatars.slack-edge.com/2025-06-16/9055963797557_6917787e25d886583c7a_original.png", "custom_css": null}, {"id": 1640, "slack_id": "U092C5M2G8Y", "display_name": "Thinh Le", "bio": null, "projects_count": 0, "devlogs_count": 0, "votes_count": 0, "ships_count": 0, "projects": [], "coding_time_seconds": 0, "coding_time_seconds_today": 0, "balance": "You need to have a pocket watcher badge to view this.", "badges": [], "created_at": "2025-06-16T13:40:06.905-04:00", "updated_at": "2025-07-03T19:18:33.927-04:00", "avatar": "https://avatars.slack-edge.com/2025-06-16/9080206718528_894ff13eac23b32c0f26_original.jpg", "custom_css": null}], "pagination": {"page": 82, "pages": 1192, "count": 23827, "items": 20}}