{"users": [{"id": 16466, "slack_id": "U096RCYHUER", "display_name": "SR", "bio": null, "projects_count": 0, "devlogs_count": 0, "votes_count": 0, "ships_count": 0, "projects": [], "coding_time_seconds": 8662, "coding_time_seconds_today": 0, "balance": "You need to have a pocket watcher badge to view this.", "badges": [], "created_at": "2025-07-21T15:27:05.748-04:00", "updated_at": "2025-07-28T15:59:19.931-04:00", "avatar": "https://secure.gravatar.com/avatar/02b80dda02d095c511898d523baf7f89.jpg?s=512&d=https%3A%2F%2Fa.slack-edge.com%2Fdf10d%2Fimg%2Favatars%2Fava_0000-512.png", "custom_css": null}, {"id": 16467, "slack_id": "U096R9UN9HB", "display_name": "Sessi", "bio": null, "projects_count": 0, "devlogs_count": 0, "votes_count": 0, "ships_count": 0, "projects": [], "coding_time_seconds": 0, "coding_time_seconds_today": 0, "balance": "You need to have a pocket watcher badge to view this.", "badges": [], "created_at": "2025-07-21T15:27:09.520-04:00", "updated_at": "2025-07-22T09:31:27.159-04:00", "avatar": "https://secure.gravatar.com/avatar/ff169440bc38606b21018f27e9447400.jpg?s=512&d=https%3A%2F%2Fa.slack-edge.com%2Fdf10d%2Fimg%2Favatars%2Fava_0023-512.png", "custom_css": null}, {"id": 16468, "slack_id": "U096RD9FCMT", "display_name": "R. Li", "bio": null, "projects_count": 0, "devlogs_count": 0, "votes_count": 0, "ships_count": 0, "projects": [], "coding_time_seconds": 0, "coding_time_seconds_today": 0, "balance": "You need to have a pocket watcher badge to view this.", "badges": [], "created_at": "2025-07-21T15:27:17.390-04:00", "updated_at": "2025-07-22T03:29:12.335-04:00", "avatar": "https://secure.gravatar.com/avatar/347cbce3a7219565ea965343f258b9d8.jpg?s=512&d=https%3A%2F%2Fa.slack-edge.com%2Fdf10d%2Fimg%2Favatars%2Fava_0021-512.png", "custom_css": null}, {"id": 16469, "slack_id": "U097FQZ223S", "display_name": "Tu\u011fra Demirel", "bio": null, "projects_count": 0, "devlogs_count": 0, "votes_count": 0, "ships_count": 0, "projects": [], "coding_time_seconds": 8008, "coding_time_seconds_today": 0, "balance": "You need to have a pocket watcher badge to view this.", "badges": [], "created_at": "2025-07-21T15:27:37.699-04:00", "updated_at": "2025-07-25T06:44:15.561-04:00", "avatar": "https://secure.gravatar.com/avatar/8003968494b2aaca9761529ee5bfd0bb.jpg?s=512&d=https%3A%2F%2Fa.slack-edge.com%2Fdf10d%2Fimg%2Favatars%2Fava_0009-512.png", "custom_css": null}, {"id": 16470, "slack_id": "U096UGTBHHA", "display_name": "Jad Alhakim", "bio": null, "projects_count": 0, "devlogs_count": 0, "votes_count": 0, "ships_count": 0, "projects": [], "coding_time_seconds": 0, "coding_time_seconds_today": 0, "balance": "You need to have a pocket watcher badge to view this.", "badges": [], "created_at": "2025-07-21T15:27:50.561-04:00", "updated_at": "2025-07-22T03:29:12.510-04:00", "avatar": "https://secure.gravatar.com/avatar/1326f49dea053d2f9583947db40a6713.jpg?s=512&d=https%3A%2F%2Fa.slack-edge.com%2Fdf10d%2Fimg%2Favatars%2Fava_0007-512.png", "custom_css": null}, {"id": 16471, "slack_id": "U096Q7PBRF0", "display_name": "Houston", "bio": null, "projects_count": 0, "devlogs_count": 0, "votes_count": 0, "ships_count": 0, "projects": [], "coding_time_seconds": 0, "coding_time_seconds_today": 0, "balance": "You need to have a pocket watcher badge to view this.", "badges": [], "created_at": "2025-07-21T15:27:58.305-04:00", "updated_at": "2025-07-22T22:20:01.937-04:00", "avatar": "https://secure.gravatar.com/avatar/7d6c0ba3c085d9b1aaf1db831b49247c.jpg?s=512&d=https%3A%2F%2Fa.slack-edge.com%2Fdf10d%2Fimg%2Favatars%2Fava_0018-512.png", "custom_css": null}, {"id": 16472, "slack_id": "U050GHWVAR4", "display_name": "Daniel", "bio": null, "projects_count": 0, "devlogs_count": 0, "votes_count": 0, "ships_count": 0, "projects": [], "coding_time_seconds": 0, "coding_time_seconds_today": 0, "balance": "You need to have a pocket watcher badge to view this.", "badges": [], "created_at": "2025-07-21T15:28:04.275-04:00", "updated_at": "2025-07-22T03:29:12.676-04:00", "avatar": "https://avatars.slack-edge.com/2025-07-21/9253866240944_296e9ea42d4d9a901523_original.jpg", "custom_css": null}, {"id": 16473, "slack_id": "U096RD9NCG5", "display_name": "Fraj", "bio": null, "projects_count": 0, "devlogs_count": 0, "votes_count": 0, "ships_count": 0, "projects": [], "coding_time_seconds": 0, "coding_time_seconds_today": 0, "balance": "You need to have a pocket watcher badge to view this.", "badges": [], "created_at": "2025-07-21T15:28:06.288-04:00", "updated_at": "2025-07-22T03:29:16.808-04:00", "avatar": "https://secure.gravatar.com/avatar/3b1f4f4909c24b8cd2b7ab269b35859a.jpg?s=512&d=https%3A%2F%2Fa.slack-edge.com%2Fdf10d%2Fimg%2Favatars%2Fava_0013-512.png", "custom_css": null}, {"id": 16474, "slack_id": "U096TAWJLJW", "display_name": "Edwin", "bio": null, "projects_count": 0, "devlogs_count": 0, "votes_count": 0, "ships_count": 0, "projects": [], "coding_time_seconds": 11060, "coding_time_seconds_today": 0, "balance": "You need to have a pocket watcher badge to view this.", "badges": [], "created_at": "2025-07-21T15:29:01.709-04:00", "updated_at": "2025-07-22T03:29:16.916-04:00", "avatar": "https://secure.gravatar.com/avatar/b0df36f55040e7497e8a60375a5ce244.jpg?s=512&d=https%3A%2F%2Fa.slack-edge.com%2Fdf10d%2Fimg%2Favatars%2Fava_0005-512.png", "custom_css": null}, {"id": 16475, "slack_id": "U096CHN6DSB", "display_name": "mini", "bio": null, "projects_count": 0, "devlogs_count": 0, "votes_count": 0, "ships_count": 0, "projects": [], "coding_time_seconds": 0, "coding_time_seconds_today": 0, "balance": "You need to have a pocket watcher badge to view this.", "badges": [], "created_at": "2025-07-21T15:29:15.560-04:00", "updated_at": "2025-07-22T03:29:16.999-04:00", "avatar": "https://secure.gravatar.com/avatar/9547ed0f060cb151c3e16770777b14fd.jpg?s=512&d=https%3A%2F%2Fa.slack-edge.com%2Fdf10d%2Fimg%2Favatars%2Fava_0005-512.png", "custom_css": null}, {"id": 16476, "slack_id": "U0976JV23MX", "display_name": "csharkey", "bio": null, "projects_count": 0, "devlogs_count": 0, "votes_count": 0, "ships_count": 0, "projects": [], "coding_time_seconds": 0, "coding_time_seconds_today": 0, "balance": "You need to have a pocket watcher badge to view this.", "badges": [], "created_at": "2025-07-21T15:29:58.705-04:00", "updated_at": "2025-07-22T03:29:17.077-04:00", "avatar": "https://secure.gravatar.com/avatar/b896d3ca9ef5912a2747a896bc20a237.jpg?s=512&d=https%3A%2F%2Fa.slack-edge.com%2Fdf10d%2Fimg%2Favatars%2Fava_0006-512.png", "custom_css": null}, {"id": 16477, "slack_id": "U096UH59WEQ", "display_name": "aditi", "bio": null, "projects_count": 0, "devlogs_count": 0, "votes_count": 0, "ships_count": 0, "projects": [], "coding_time_seconds": 0, "coding_time_seconds_today": 0, "balance": "You need to have a pocket watcher badge to view this.", "badges": [], "created_at": "2025-07-21T15:30:24.462-04:00", "updated_at": "2025-07-22T03:29:17.163-04:00", "avatar": "https://secure.gravatar.com/avatar/5d5f9f029a06289074cf114c7c7319f1.jpg?s=512&d=https%3A%2F%2Fa.slack-edge.com%2Fdf10d%2Fimg%2Favatars%2Fava_0026-512.png", "custom_css": null}, {"id": 16478, "slack_id": "U096TAW98GJ", "display_name": "Nicholas", "bio": null, "projects_count": 0, "devlogs_count": 0, "votes_count": 1, "ships_count": 0, "projects": [], "coding_time_seconds": 0, "coding_time_seconds_today": 0, "balance": "You need to have a pocket watcher badge to view this.", "badges": [], "created_at": "2025-07-21T15:30:25.448-04:00", "updated_at": "2025-07-22T03:29:17.243-04:00", "avatar": "https://secure.gravatar.com/avatar/216053f24210d8866c51c15d87b51225.jpg?s=512&d=https%3A%2F%2Fa.slack-edge.com%2Fdf10d%2Fimg%2Favatars%2Fava_0012-512.png", "custom_css": null}, {"id": 16479, "slack_id": "U096TB49REW", "display_name": "Tyago", "bio": null, "projects_count": 0, "devlogs_count": 0, "votes_count": 0, "ships_count": 0, "projects": [], "coding_time_seconds": 0, "coding_time_seconds_today": 0, "balance": "You need to have a pocket watcher badge to view this.", "badges": [], "created_at": "2025-07-21T15:30:30.464-04:00", "updated_at": "2025-07-22T03:29:17.328-04:00", "avatar": "https://secure.gravatar.com/avatar/c5f1175cc0defd8c46db357fb1f4a872.jpg?s=512&d=https%3A%2F%2Fa.slack-edge.com%2Fdf10d%2Fimg%2Favatars%2Fava_0000-512.png", "custom_css": null}, {"id": 16480, "slack_id": "U096CHHS0K1", "display_name": "Tom Skora", "bio": null, "projects_count": 0, "devlogs_count": 0, "votes_count": 0, "ships_count": 0, "projects": [], "coding_time_seconds": 2122, "coding_time_seconds_today": 0, "balance": "You need to have a pocket watcher badge to view this.", "badges": [], "created_at": "2025-07-21T15:30:37.369-04:00", "updated_at": "2025-07-22T05:32:50.570-04:00", "avatar": "https://secure.gravatar.com/avatar/c85b34556ca2e528b15a6377742cc8ee.jpg?s=512&d=https%3A%2F%2Fa.slack-edge.com%2Fdf10d%2Fimg%2Favatars%2Fava_0019-512.png", "custom_css": null}, {"id": 16481, "slack_id": "U096CHPDVC7", "display_name": "anjana784", "bio": null, "projects_count": 0, "devlogs_count": 0, "votes_count": 0, "ships_count": 0, "projects": [], "coding_time_seconds": 0, "coding_time_seconds_today": 0, "balance": "You need to have a pocket watcher badge to view this.", "badges": [], "created_at": "2025-07-21T15:30:37.918-04:00", "updated_at": "2025-07-22T03:29:17.498-04:00", "avatar": "https://secure.gravatar.com/avatar/c8632aaa094f53b284acc14c36745dba.jpg?s=512&d=https%3A%2F%2Fa.slack-edge.com%2Fdf10d%2Fimg%2Favatars%2Fava_0022-512.png", "custom_css": null}, {"id": 16482, "slack_id": "U096CG4PWCF", "display_name": "Messo", "bio": null, "projects_count": 0, "devlogs_count": 0, "votes_count": 0, "ships_count": 0, "projects": [], "coding_time_seconds": 0, "coding_time_seconds_today": 0, "balance": "You need to have a pocket watcher badge to view this.", "badges": [], "created_at": "2025-07-21T15:31:01.653-04:00", "updated_at": "2025-07-22T03:29:17.595-04:00", "avatar": "https://secure.gravatar.com/avatar/e4da8a07b57c6ab25cb2127d0d4831a8.jpg?s=512&d=https%3A%2F%2Fa.slack-edge.com%2Fdf10d%2Fimg%2Favatars%2Fava_0020-512.png", "custom_css": null}, {"id": 16483, "slack_id": "U096UHPHEUC", "display_name": "Jenish Togadiya", "bio": null, "projects_count": 0, "devlogs_count": 0, "votes_count": 0, "ships_count": 0, "projects": [], "coding_time_seconds": 0, "coding_time_seconds_today": 0, "balance": "You need to have a pocket watcher badge to view this.", "badges": [], "created_at": "2025-07-21T15:31:03.999-04:00", "updated_at": "2025-07-22T03:29:17.679-04:00", "avatar": "https://secure.gravatar.com/avatar/00668fccbb40126422dc56d09b55282f.jpg?s=512&d=https%3A%2F%2Fa.slack-edge.com%2Fdf10d%2Fimg%2Favatars%2Fava_0017-512.png", "custom_css": null}, {"id": 16484, "slack_id": "U096UFZB3T6", "display_name": "Anika Thakur", "bio": null, "projects_count": 0, "devlogs_count": 0, "votes_count": 0, "ships_count": 0, "projects": [], "coding_time_seconds": 0, "coding_time_seconds_today": 0, "balance": "You need to have a pocket watcher badge to view this.", "badges": [], "created_at": "2025-07-21T15:31:24.766-04:00", "updated_at": "2025-07-22T22:24:01.816-04:00", "avatar": "https://avatars.slack-edge.com/2025-07-21/9232623031684_e3dc3ba79e4ecfb89c24_original.png", "custom_css": null}, {"id": 16485, "slack_id": "U096N2R0CNP", "display_name": "Sneha", "bio": null, "projects_count": 0, "devlogs_count": 0, "votes_count": 0, "ships_count": 0, "projects": [], "coding_time_seconds": 0, "coding_time_seconds_today": 0, "balance": "You need to have a pocket watcher badge to view this.", "badges": [], "created_at": "2025-07-21T15:31:31.853-04:00", "updated_at": "2025-07-22T03:29:17.840-04:00", "avatar": "https://secure.gravatar.com/avatar/5682e81150cb0932fa1479416d11b562.jpg?s=512&d=https%3A%2F%2Fa.slack-edge.com%2Fdf10d%2Fimg%2Favatars%2Fava_0000-512.png", "custom_css": null}], "pagination": {"page": 820, "pages": 1192, "count": 23828, "items": 20}}