{"users": [{"id": 16486, "slack_id": "U096RDNAZFF", "display_name": "Sushant Pangeni", "bio": null, "projects_count": 4, "devlogs_count": 5, "votes_count": 0, "ships_count": 0, "projects": [{"id": 7775, "title": "DeliverooBypass", "devlogs_count": 1, "created_at": "2025-07-23T01:36:46.173-04:00"}, {"id": 7777, "title": "Anti-Xray", "devlogs_count": 1, "created_at": "2025-07-23T01:52:26.169-04:00"}, {"id": 8552, "title": "DonutSMP Suspicious Plugin!", "devlogs_count": 2, "created_at": "2025-07-28T06:14:20.803-04:00"}, {"id": 8553, "title": "Transfer Plugin", "devlogs_count": 1, "created_at": "2025-07-28T06:17:16.399-04:00"}], "coding_time_seconds": 258000, "coding_time_seconds_today": 0, "balance": "You need to have a pocket watcher badge to view this.", "badges": [], "created_at": "2025-07-21T15:31:32.950-04:00", "updated_at": "2025-07-22T03:29:17.914-04:00", "avatar": "https://avatars.slack-edge.com/2025-07-21/9228306897686_313e4cd40bce473bc4ec_original.png", "custom_css": null}, {"id": 16487, "slack_id": "U096CHW3VF1", "display_name": "Branislav Juh\u00e1s", "bio": "2024 Champion of Slovakia in Academic Debate, a skilled software engineer, and an avid cyclist exploring EU's picturesque landscapes.", "projects_count": 2, "devlogs_count": 2, "votes_count": 0, "ships_count": 1, "projects": [{"id": 7532, "title": "DN Cascade", "devlogs_count": 0, "created_at": "2025-07-22T03:40:55.271-04:00"}, {"id": 7544, "title": "DN Juhaas", "devlogs_count": 2, "created_at": "2025-07-22T04:28:10.197-04:00"}], "coding_time_seconds": 94256, "coding_time_seconds_today": 0, "balance": "You need to have a pocket watcher badge to view this.", "badges": [], "created_at": "2025-07-21T15:31:34.567-04:00", "updated_at": "2025-07-22T08:07:59.986-04:00", "avatar": "https://avatars.slack-edge.com/2025-07-21/9229485246949_bde7e2c566bbb2c3e4e6_original.webp", "custom_css": null}, {"id": 16488, "slack_id": "U0976K28U2V", "display_name": "Irene Ryan", "bio": null, "projects_count": 0, "devlogs_count": 0, "votes_count": 0, "ships_count": 0, "projects": [], "coding_time_seconds": 0, "coding_time_seconds_today": 0, "balance": "You need to have a pocket watcher badge to view this.", "badges": [], "created_at": "2025-07-21T15:31:42.199-04:00", "updated_at": "2025-07-22T03:29:18.068-04:00", "avatar": "https://secure.gravatar.com/avatar/f6023a34c4e4383c5fe48a6d31c2e07d.jpg?s=512&d=https%3A%2F%2Fa.slack-edge.com%2Fdf10d%2Fimg%2Favatars%2Fava_0019-512.png", "custom_css": null}, {"id": 16489, "slack_id": "U097FRJDJQG", "display_name": "SKS", "bio": null, "projects_count": 0, "devlogs_count": 0, "votes_count": 0, "ships_count": 0, "projects": [], "coding_time_seconds": 0, "coding_time_seconds_today": 0, "balance": "You need to have a pocket watcher badge to view this.", "badges": [], "created_at": "2025-07-21T15:31:46.871-04:00", "updated_at": "2025-07-22T03:29:18.151-04:00", "avatar": "https://secure.gravatar.com/avatar/3713ff53b8292763b9974888646a3917.jpg?s=512&d=https%3A%2F%2Fa.slack-edge.com%2Fdf10d%2Fimg%2Favatars%2Fava_0023-512.png", "custom_css": null}, {"id": 16490, "slack_id": "U097FRMQ1GQ", "display_name": "Songhui Zhen", "bio": null, "projects_count": 0, "devlogs_count": 0, "votes_count": 0, "ships_count": 0, "projects": [], "coding_time_seconds": 0, "coding_time_seconds_today": 0, "balance": "You need to have a pocket watcher badge to view this.", "badges": [], "created_at": "2025-07-21T15:31:48.948-04:00", "updated_at": "2025-07-22T03:29:18.230-04:00", "avatar": "https://avatars.slack-edge.com/2025-07-21/9244668698161_d16338ba3ee31b8dfcf3_original.jpg", "custom_css": null}, {"id": 16491, "slack_id": "U096Q8KJD4N", "display_name": "Jhony R. de Souza", "bio": null, "projects_count": 0, "devlogs_count": 0, "votes_count": 0, "ships_count": 0, "projects": [], "coding_time_seconds": 0, "coding_time_seconds_today": 0, "balance": "You need to have a pocket watcher badge to view this.", "badges": [], "created_at": "2025-07-21T15:31:53.016-04:00", "updated_at": "2025-07-22T03:29:18.307-04:00", "avatar": "https://secure.gravatar.com/avatar/1712281d7a83564745fbc3316eac02e0.jpg?s=512&d=https%3A%2F%2Fa.slack-edge.com%2Fdf10d%2Fimg%2Favatars%2Fava_0000-512.png", "custom_css": null}, {"id": 16492, "slack_id": "U096RDT7XNZ", "display_name": "Juan Jos\u00e9 Arango", "bio": null, "projects_count": 0, "devlogs_count": 0, "votes_count": 0, "ships_count": 0, "projects": [], "coding_time_seconds": 0, "coding_time_seconds_today": 0, "balance": "You need to have a pocket watcher badge to view this.", "badges": [], "created_at": "2025-07-21T15:32:12.445-04:00", "updated_at": "2025-07-22T03:29:18.400-04:00", "avatar": "https://secure.gravatar.com/avatar/8f1a9acdfa29e4743a3e1b6e480fe897.jpg?s=512&d=https%3A%2F%2Fa.slack-edge.com%2Fdf10d%2Fimg%2Favatars%2Fava_0024-512.png", "custom_css": null}, {"id": 16493, "slack_id": "U096CJ6E4NT", "display_name": "Panteleimon Angelidis", "bio": null, "projects_count": 0, "devlogs_count": 0, "votes_count": 0, "ships_count": 0, "projects": [], "coding_time_seconds": 49615, "coding_time_seconds_today": 0, "balance": "You need to have a pocket watcher badge to view this.", "badges": [], "created_at": "2025-07-21T15:32:19.829-04:00", "updated_at": "2025-07-22T07:13:29.243-04:00", "avatar": "https://avatars.slack-edge.com/2025-07-21/9228310953158_5c64b61284d39865097f_original.jpg", "custom_css": null}, {"id": 16494, "slack_id": "U096RBTCKN1", "display_name": "Yuan Aora", "bio": null, "projects_count": 0, "devlogs_count": 0, "votes_count": 0, "ships_count": 0, "projects": [], "coding_time_seconds": 0, "coding_time_seconds_today": 0, "balance": "You need to have a pocket watcher badge to view this.", "badges": [], "created_at": "2025-07-21T15:32:20.367-04:00", "updated_at": "2025-07-22T03:29:18.584-04:00", "avatar": "https://secure.gravatar.com/avatar/e6871509e9bebcef87d700e920508697.jpg?s=512&d=https%3A%2F%2Fa.slack-edge.com%2Fdf10d%2Fimg%2Favatars%2Fava_0015-512.png", "custom_css": null}, {"id": 16495, "slack_id": "U096UHXDKMJ", "display_name": "Pritika", "bio": null, "projects_count": 0, "devlogs_count": 0, "votes_count": 0, "ships_count": 0, "projects": [], "coding_time_seconds": 0, "coding_time_seconds_today": 0, "balance": "You need to have a pocket watcher badge to view this.", "badges": [], "created_at": "2025-07-21T15:32:20.408-04:00", "updated_at": "2025-07-22T03:29:18.664-04:00", "avatar": "https://secure.gravatar.com/avatar/fe27926f905c15120461afec6b2ccc57.jpg?s=512&d=https%3A%2F%2Fa.slack-edge.com%2Fdf10d%2Fimg%2Favatars%2Fava_0005-512.png", "custom_css": null}, {"id": 16496, "slack_id": "U096N3JGZ3M", "display_name": "Anirudh", "bio": null, "projects_count": 0, "devlogs_count": 0, "votes_count": 0, "ships_count": 0, "projects": [], "coding_time_seconds": 0, "coding_time_seconds_today": 0, "balance": "You need to have a pocket watcher badge to view this.", "badges": [], "created_at": "2025-07-21T15:32:44.542-04:00", "updated_at": "2025-08-02T09:18:30.439-04:00", "avatar": "https://secure.gravatar.com/avatar/e3348cbdf8d6c8dc2a6e19d7c9e1f68e.jpg?s=512&d=https%3A%2F%2Fa.slack-edge.com%2Fdf10d%2Fimg%2Favatars%2Fava_0025-512.png", "custom_css": null}, {"id": 16497, "slack_id": "U096Q8J4Q86", "display_name": "Rak", "bio": null, "projects_count": 0, "devlogs_count": 0, "votes_count": 0, "ships_count": 0, "projects": [], "coding_time_seconds": 0, "coding_time_seconds_today": 0, "balance": "You need to have a pocket watcher badge to view this.", "badges": [], "created_at": "2025-07-21T15:32:48.549-04:00", "updated_at": "2025-07-22T03:29:18.844-04:00", "avatar": "https://secure.gravatar.com/avatar/578367e832b5c87d448c9b36bf800366.jpg?s=512&d=https%3A%2F%2Fa.slack-edge.com%2Fdf10d%2Fimg%2Favatars%2Fava_0006-512.png", "custom_css": null}, {"id": 16498, "slack_id": "U096TBESUEN", "display_name": "saad srabon", "bio": null, "projects_count": 0, "devlogs_count": 0, "votes_count": 0, "ships_count": 0, "projects": [], "coding_time_seconds": 0, "coding_time_seconds_today": 0, "balance": "You need to have a pocket watcher badge to view this.", "badges": [], "created_at": "2025-07-21T15:32:49.269-04:00", "updated_at": "2025-07-22T03:29:18.933-04:00", "avatar": "https://avatars.slack-edge.com/2025-07-21/9226135187443_195a4ff497cce57f857b_original.jpg", "custom_css": null}, {"id": 16499, "slack_id": "U0976KGBM6D", "display_name": "Renato Tavares", "bio": null, "projects_count": 0, "devlogs_count": 0, "votes_count": 0, "ships_count": 0, "projects": [], "coding_time_seconds": 0, "coding_time_seconds_today": 0, "balance": "You need to have a pocket watcher badge to view this.", "badges": [], "created_at": "2025-07-21T15:32:50.368-04:00", "updated_at": "2025-07-22T03:29:19.016-04:00", "avatar": "https://avatars.slack-edge.com/2025-07-21/9226134573347_f5121bf8c7d9c404d654_original.jpg", "custom_css": null}, {"id": 16500, "slack_id": "U096RDPP6RK", "display_name": "Giovani", "bio": null, "projects_count": 0, "devlogs_count": 0, "votes_count": 0, "ships_count": 0, "projects": [], "coding_time_seconds": 0, "coding_time_seconds_today": 0, "balance": "You need to have a pocket watcher badge to view this.", "badges": [], "created_at": "2025-07-21T15:32:58.935-04:00", "updated_at": "2025-07-22T03:29:19.101-04:00", "avatar": "https://secure.gravatar.com/avatar/c089c040ab1b1ad962bebde3f4d98cf7.jpg?s=512&d=https%3A%2F%2Fa.slack-edge.com%2Fdf10d%2Fimg%2Favatars%2Fava_0010-512.png", "custom_css": null}, {"id": 16501, "slack_id": "U096CJH1RP1", "display_name": "EmmanuelML", "bio": null, "projects_count": 0, "devlogs_count": 0, "votes_count": 0, "ships_count": 0, "projects": [], "coding_time_seconds": 0, "coding_time_seconds_today": 0, "balance": "You need to have a pocket watcher badge to view this.", "badges": [], "created_at": "2025-07-21T15:33:27.701-04:00", "updated_at": "2025-07-22T03:29:19.187-04:00", "avatar": "https://secure.gravatar.com/avatar/7ad6c102ad9630e649c2b1d4c5593648.jpg?s=512&d=https%3A%2F%2Fa.slack-edge.com%2Fdf10d%2Fimg%2Favatars%2Fava_0005-512.png", "custom_css": null}, {"id": 16502, "slack_id": "U096RE332A1", "display_name": "Tom Helmbrecht", "bio": null, "projects_count": 0, "devlogs_count": 0, "votes_count": 0, "ships_count": 0, "projects": [], "coding_time_seconds": 0, "coding_time_seconds_today": 0, "balance": "You need to have a pocket watcher badge to view this.", "badges": [], "created_at": "2025-07-21T15:34:09.628-04:00", "updated_at": "2025-07-22T03:29:19.285-04:00", "avatar": "https://secure.gravatar.com/avatar/53da4ed3ca8d6f8cd883baa7d9588525.jpg?s=512&d=https%3A%2F%2Fa.slack-edge.com%2Fdf10d%2Fimg%2Favatars%2Fava_0013-512.png", "custom_css": null}, {"id": 16503, "slack_id": "U096CJF28KZ", "display_name": "kousai Ghaouari", "bio": null, "projects_count": 0, "devlogs_count": 0, "votes_count": 0, "ships_count": 0, "projects": [], "coding_time_seconds": 0, "coding_time_seconds_today": 0, "balance": "You need to have a pocket watcher badge to view this.", "badges": [], "created_at": "2025-07-21T15:34:12.701-04:00", "updated_at": "2025-07-22T03:29:19.388-04:00", "avatar": "https://secure.gravatar.com/avatar/78a3b9d3cd6bffe42e124ddcf5cd27d3.jpg?s=512&d=https%3A%2F%2Fa.slack-edge.com%2Fdf10d%2Fimg%2Favatars%2Fava_0026-512.png", "custom_css": null}, {"id": 16504, "slack_id": "U096TBL5Q3U", "display_name": "Muhammad Uzair Abbasi", "bio": null, "projects_count": 0, "devlogs_count": 0, "votes_count": 0, "ships_count": 0, "projects": [], "coding_time_seconds": 0, "coding_time_seconds_today": 0, "balance": "You need to have a pocket watcher badge to view this.", "badges": [], "created_at": "2025-07-21T15:34:21.610-04:00", "updated_at": "2025-07-22T03:29:19.464-04:00", "avatar": "https://secure.gravatar.com/avatar/2b630cde3a83df7c358f0664896d2654.jpg?s=512&d=https%3A%2F%2Fa.slack-edge.com%2Fdf10d%2Fimg%2Favatars%2Fava_0000-512.png", "custom_css": null}, {"id": 16505, "slack_id": "U096RE417FX", "display_name": "Argel", "bio": null, "projects_count": 0, "devlogs_count": 0, "votes_count": 0, "ships_count": 0, "projects": [], "coding_time_seconds": 0, "coding_time_seconds_today": 0, "balance": "You need to have a pocket watcher badge to view this.", "badges": [], "created_at": "2025-07-21T15:34:28.899-04:00", "updated_at": "2025-07-22T03:29:19.569-04:00", "avatar": "https://secure.gravatar.com/avatar/7303793dcbc392c2c923d3431c1b6b64.jpg?s=512&d=https%3A%2F%2Fa.slack-edge.com%2Fdf10d%2Fimg%2Favatars%2Fava_0015-512.png", "custom_css": null}], "pagination": {"page": 821, "pages": 1192, "count": 23828, "items": 20}}