{"users": [{"id": 16506, "slack_id": "U096CH99LNT", "display_name": "Franzkier", "bio": null, "projects_count": 0, "devlogs_count": 0, "votes_count": 0, "ships_count": 0, "projects": [], "coding_time_seconds": 0, "coding_time_seconds_today": 0, "balance": "You need to have a pocket watcher badge to view this.", "badges": [], "created_at": "2025-07-21T15:34:32.463-04:00", "updated_at": "2025-07-22T03:29:19.660-04:00", "avatar": "https://secure.gravatar.com/avatar/0d8d336ea30ecc91eaa10e06199a7dd5.jpg?s=512&d=https%3A%2F%2Fa.slack-edge.com%2Fdf10d%2Fimg%2Favatars%2Fava_0021-512.png", "custom_css": null}, {"id": 16507, "slack_id": "U096CJK47B9", "display_name": "Harihar Gupta", "bio": null, "projects_count": 0, "devlogs_count": 0, "votes_count": 0, "ships_count": 0, "projects": [], "coding_time_seconds": 0, "coding_time_seconds_today": 0, "balance": "You need to have a pocket watcher badge to view this.", "badges": [], "created_at": "2025-07-21T15:34:40.740-04:00", "updated_at": "2025-07-22T03:29:19.747-04:00", "avatar": "https://secure.gravatar.com/avatar/15b7a7772e3b295aece2a22940a09a0c.jpg?s=512&d=https%3A%2F%2Fa.slack-edge.com%2Fdf10d%2Fimg%2Favatars%2Fava_0013-512.png", "custom_css": null}, {"id": 16508, "slack_id": "U096CJLBFPH", "display_name": "Ketan", "bio": null, "projects_count": 0, "devlogs_count": 0, "votes_count": 0, "ships_count": 0, "projects": [], "coding_time_seconds": 0, "coding_time_seconds_today": 0, "balance": "You need to have a pocket watcher badge to view this.", "badges": [], "created_at": "2025-07-21T15:34:47.231-04:00", "updated_at": "2025-07-22T03:29:19.840-04:00", "avatar": "https://secure.gravatar.com/avatar/15cfa2032010684e0a2ba09a59b11ea9.jpg?s=512&d=https%3A%2F%2Fa.slack-edge.com%2Fdf10d%2Fimg%2Favatars%2Fava_0000-512.png", "custom_css": null}, {"id": 16509, "slack_id": "U096CJA2Z39", "display_name": "M Abdullah Aamir", "bio": null, "projects_count": 0, "devlogs_count": 0, "votes_count": 0, "ships_count": 0, "projects": [], "coding_time_seconds": 0, "coding_time_seconds_today": 0, "balance": "You need to have a pocket watcher badge to view this.", "badges": [], "created_at": "2025-07-21T15:34:49.351-04:00", "updated_at": "2025-07-22T03:29:19.932-04:00", "avatar": "https://secure.gravatar.com/avatar/038cd9a8f9cd655702287131b83c3d41.jpg?s=512&d=https%3A%2F%2Fa.slack-edge.com%2Fdf10d%2Fimg%2Favatars%2Fava_0023-512.png", "custom_css": null}, {"id": 16510, "slack_id": "U096Q93QR0W", "display_name": "NickolasDaniel", "bio": null, "projects_count": 0, "devlogs_count": 0, "votes_count": 0, "ships_count": 0, "projects": [], "coding_time_seconds": 0, "coding_time_seconds_today": 0, "balance": "You need to have a pocket watcher badge to view this.", "badges": [], "created_at": "2025-07-21T15:34:57.412-04:00", "updated_at": "2025-07-22T03:29:20.011-04:00", "avatar": "https://secure.gravatar.com/avatar/37fb37549bc11feb91bd82209362dc26.jpg?s=512&d=https%3A%2F%2Fa.slack-edge.com%2Fdf10d%2Fimg%2Favatars%2Fava_0007-512.png", "custom_css": null}, {"id": 16511, "slack_id": "U096RE78TAR", "display_name": "Vanshika Gyanchandani", "bio": null, "projects_count": 0, "devlogs_count": 0, "votes_count": 0, "ships_count": 0, "projects": [], "coding_time_seconds": 31190, "coding_time_seconds_today": 0, "balance": "You need to have a pocket watcher badge to view this.", "badges": [], "created_at": "2025-07-21T15:35:00.986-04:00", "updated_at": "2025-07-22T08:49:40.057-04:00", "avatar": "https://secure.gravatar.com/avatar/ff62f57840c38a916e6a44b312d58c9a.jpg?s=512&d=https%3A%2F%2Fa.slack-edge.com%2Fdf10d%2Fimg%2Favatars%2Fava_0016-512.png", "custom_css": null}, {"id": 16512, "slack_id": "U096Q85QJKY", "display_name": "Helene Delaunay", "bio": null, "projects_count": 0, "devlogs_count": 0, "votes_count": 0, "ships_count": 0, "projects": [], "coding_time_seconds": 0, "coding_time_seconds_today": 0, "balance": "You need to have a pocket watcher badge to view this.", "badges": [], "created_at": "2025-07-21T15:35:36.865-04:00", "updated_at": "2025-07-22T03:29:20.167-04:00", "avatar": "https://avatars.slack-edge.com/2025-07-21/9229505373461_a34d54d5af032a8111c4_original.jpg", "custom_css": null}, {"id": 16513, "slack_id": "U096UEMH9EY", "display_name": "GingerEdition", "bio": null, "projects_count": 0, "devlogs_count": 0, "votes_count": 0, "ships_count": 0, "projects": [], "coding_time_seconds": 0, "coding_time_seconds_today": 0, "balance": "You need to have a pocket watcher badge to view this.", "badges": [], "created_at": "2025-07-21T15:35:54.187-04:00", "updated_at": "2025-07-22T03:29:20.269-04:00", "avatar": "https://secure.gravatar.com/avatar/3f085fd02eb2f408c70756f36318b26f.jpg?s=512&d=https%3A%2F%2Fa.slack-edge.com%2Fdf10d%2Fimg%2Favatars%2Fava_0015-512.png", "custom_css": null}, {"id": 16514, "slack_id": "U096RDHTL4V", "display_name": "ADITYA UPADHYAY", "bio": null, "projects_count": 0, "devlogs_count": 0, "votes_count": 0, "ships_count": 0, "projects": [], "coding_time_seconds": 0, "coding_time_seconds_today": 0, "balance": "You need to have a pocket watcher badge to view this.", "badges": [], "created_at": "2025-07-21T15:36:05.900-04:00", "updated_at": "2025-07-22T03:29:24.396-04:00", "avatar": "https://avatars.slack-edge.com/2025-07-21/9216655143591_bf82b58d99fbe82b9a19_original.png", "custom_css": null}, {"id": 16515, "slack_id": "U096RDVCZUM", "display_name": "Izuna", "bio": null, "projects_count": 0, "devlogs_count": 0, "votes_count": 0, "ships_count": 0, "projects": [], "coding_time_seconds": 0, "coding_time_seconds_today": 0, "balance": "You need to have a pocket watcher badge to view this.", "badges": [], "created_at": "2025-07-21T15:36:44.573-04:00", "updated_at": "2025-07-22T03:29:24.485-04:00", "avatar": "https://secure.gravatar.com/avatar/bb81078e9392fa6779d576313ff11d0d.jpg?s=512&d=https%3A%2F%2Fa.slack-edge.com%2Fdf10d%2Fimg%2Favatars%2Fava_0010-512.png", "custom_css": null}, {"id": 16516, "slack_id": "U096REL8URK", "display_name": "Pedro Elias", "bio": null, "projects_count": 0, "devlogs_count": 0, "votes_count": 0, "ships_count": 0, "projects": [], "coding_time_seconds": 0, "coding_time_seconds_today": 0, "balance": "You need to have a pocket watcher badge to view this.", "badges": [], "created_at": "2025-07-21T15:36:46.005-04:00", "updated_at": "2025-07-22T03:29:24.573-04:00", "avatar": "https://secure.gravatar.com/avatar/cb5539d5e4a2d4e86b4301fb5cc677de.jpg?s=512&d=https%3A%2F%2Fa.slack-edge.com%2Fdf10d%2Fimg%2Favatars%2Fava_0008-512.png", "custom_css": null}, {"id": 16517, "slack_id": "U0976L1M5L1", "display_name": "lucas", "bio": null, "projects_count": 0, "devlogs_count": 0, "votes_count": 0, "ships_count": 0, "projects": [], "coding_time_seconds": 507526, "coding_time_seconds_today": 0, "balance": "You need to have a pocket watcher badge to view this.", "badges": [], "created_at": "2025-07-21T15:37:14.290-04:00", "updated_at": "2025-07-22T04:42:36.253-04:00", "avatar": "https://avatars.slack-edge.com/2025-07-21/9244693368017_f7c4410c5427ace9aa0a_original.jpg", "custom_css": null}, {"id": 16518, "slack_id": "U096CK1BU4X", "display_name": "Dominik Mas\u00e1r", "bio": null, "projects_count": 0, "devlogs_count": 0, "votes_count": 0, "ships_count": 0, "projects": [], "coding_time_seconds": 0, "coding_time_seconds_today": 0, "balance": "You need to have a pocket watcher badge to view this.", "badges": [], "created_at": "2025-07-21T15:37:40.037-04:00", "updated_at": "2025-07-22T03:29:24.750-04:00", "avatar": "https://avatars.slack-edge.com/2025-07-21/9253916237776_dc7a28eb99031acab2d1_original.png", "custom_css": null}, {"id": 16519, "slack_id": "U096UK1FPEG", "display_name": "Fkhan", "bio": null, "projects_count": 0, "devlogs_count": 0, "votes_count": 0, "ships_count": 0, "projects": [], "coding_time_seconds": 0, "coding_time_seconds_today": 0, "balance": "You need to have a pocket watcher badge to view this.", "badges": [], "created_at": "2025-07-21T15:39:31.559-04:00", "updated_at": "2025-07-22T03:29:24.831-04:00", "avatar": "https://secure.gravatar.com/avatar/2700fa8187b0e9d69ab759856c9d25d7.jpg?s=512&d=https%3A%2F%2Fa.slack-edge.com%2Fdf10d%2Fimg%2Favatars%2Fava_0026-512.png", "custom_css": null}, {"id": 16520, "slack_id": "U097FSLE0BA", "display_name": "Ridwan Farhan Abdullahi", "bio": null, "projects_count": 0, "devlogs_count": 0, "votes_count": 0, "ships_count": 0, "projects": [], "coding_time_seconds": 145565, "coding_time_seconds_today": 0, "balance": "You need to have a pocket watcher badge to view this.", "badges": [], "created_at": "2025-07-21T15:39:31.994-04:00", "updated_at": "2025-07-23T01:59:08.805-04:00", "avatar": "https://secure.gravatar.com/avatar/379c1b3c18d3ad4e59fcb6f5badd11cf.jpg?s=512&d=https%3A%2F%2Fa.slack-edge.com%2Fdf10d%2Fimg%2Favatars%2Fava_0023-512.png", "custom_css": null}, {"id": 16521, "slack_id": "U096Q99GW9L", "display_name": "WenBin Lin", "bio": null, "projects_count": 0, "devlogs_count": 0, "votes_count": 0, "ships_count": 0, "projects": [], "coding_time_seconds": 0, "coding_time_seconds_today": 0, "balance": "You need to have a pocket watcher badge to view this.", "badges": [], "created_at": "2025-07-21T15:39:50.643-04:00", "updated_at": "2025-07-22T03:29:25.015-04:00", "avatar": "https://secure.gravatar.com/avatar/7c2dd3e989e4deb768672ef3d7abebcb.jpg?s=512&d=https%3A%2F%2Fa.slack-edge.com%2Fdf10d%2Fimg%2Favatars%2Fava_0009-512.png", "custom_css": null}, {"id": 16522, "slack_id": "U0976L473G9", "display_name": "Nicholas Mittelstadt", "bio": null, "projects_count": 0, "devlogs_count": 0, "votes_count": 0, "ships_count": 0, "projects": [], "coding_time_seconds": 3378, "coding_time_seconds_today": 0, "balance": "You need to have a pocket watcher badge to view this.", "badges": [], "created_at": "2025-07-21T15:39:52.127-04:00", "updated_at": "2025-07-22T03:29:25.104-04:00", "avatar": "https://secure.gravatar.com/avatar/4da47d71e2c0b91363aae49fa437066e.jpg?s=512&d=https%3A%2F%2Fa.slack-edge.com%2Fdf10d%2Fimg%2Favatars%2Fava_0011-512.png", "custom_css": null}, {"id": 16523, "slack_id": "U096CK4NVMM", "display_name": "Oscar Lee-Vermeren", "bio": null, "projects_count": 0, "devlogs_count": 0, "votes_count": 0, "ships_count": 0, "projects": [], "coding_time_seconds": 0, "coding_time_seconds_today": 0, "balance": "You need to have a pocket watcher badge to view this.", "badges": [], "created_at": "2025-07-21T15:39:52.553-04:00", "updated_at": "2025-07-22T03:29:25.186-04:00", "avatar": "https://avatars.slack-edge.com/2025-07-21/9253926766208_cafe5e1118360a452413_original.jpg", "custom_css": null}, {"id": 16524, "slack_id": "U096N3RU6Q3", "display_name": "aymenboufe", "bio": null, "projects_count": 0, "devlogs_count": 0, "votes_count": 0, "ships_count": 0, "projects": [], "coding_time_seconds": 0, "coding_time_seconds_today": 0, "balance": "You need to have a pocket watcher badge to view this.", "badges": [], "created_at": "2025-07-21T15:40:13.205-04:00", "updated_at": "2025-07-22T03:29:25.285-04:00", "avatar": "https://secure.gravatar.com/avatar/8ae1ab88ff821025486d4777eb54d800.jpg?s=512&d=https%3A%2F%2Fa.slack-edge.com%2Fdf10d%2Fimg%2Favatars%2Fava_0022-512.png", "custom_css": null}, {"id": 16525, "slack_id": "U0976LD3X1P", "display_name": "kaelyn", "bio": null, "projects_count": 0, "devlogs_count": 0, "votes_count": 0, "ships_count": 0, "projects": [], "coding_time_seconds": 0, "coding_time_seconds_today": 0, "balance": "You need to have a pocket watcher badge to view this.", "badges": [], "created_at": "2025-07-21T15:40:36.784-04:00", "updated_at": "2025-07-22T03:29:25.363-04:00", "avatar": "https://secure.gravatar.com/avatar/6c73a144d1a535fbac6a82fa16fd73d5.jpg?s=512&d=https%3A%2F%2Fa.slack-edge.com%2Fdf10d%2Fimg%2Favatars%2Fava_0001-512.png", "custom_css": null}], "pagination": {"page": 822, "pages": 1192, "count": 23828, "items": 20}}