{"users": [{"id": 16526, "slack_id": "U096REVBQSH", "display_name": "Robin Angles", "bio": null, "projects_count": 1, "devlogs_count": 1, "votes_count": 14, "ships_count": 0, "projects": [{"id": 7649, "title": "Graphing Calculator game", "devlogs_count": 1, "created_at": "2025-07-22T12:01:44.656-04:00"}], "coding_time_seconds": 131523, "coding_time_seconds_today": 2677, "balance": "You need to have a pocket watcher badge to view this.", "badges": [], "created_at": "2025-07-21T15:40:43.730-04:00", "updated_at": "2025-07-22T11:23:29.602-04:00", "avatar": "https://secure.gravatar.com/avatar/dafcf57a8e6945563db1a772484033f7.jpg?s=512&d=https%3A%2F%2Fa.slack-edge.com%2Fdf10d%2Fimg%2Favatars%2Fava_0003-512.png", "custom_css": null}, {"id": 16527, "slack_id": "U096CK7FCDV", "display_name": "Zowx", "bio": null, "projects_count": 0, "devlogs_count": 0, "votes_count": 0, "ships_count": 0, "projects": [], "coding_time_seconds": 0, "coding_time_seconds_today": 0, "balance": "You need to have a pocket watcher badge to view this.", "badges": [], "created_at": "2025-07-21T15:40:48.496-04:00", "updated_at": "2025-07-22T03:29:25.545-04:00", "avatar": "https://secure.gravatar.com/avatar/e7ecb365fe5aa7e6e7bbeb364a09602b.jpg?s=512&d=https%3A%2F%2Fa.slack-edge.com%2Fdf10d%2Fimg%2Favatars%2Fava_0021-512.png", "custom_css": null}, {"id": 16528, "slack_id": "U096CKF5SPR", "display_name": "Edcleryton Silva", "bio": null, "projects_count": 0, "devlogs_count": 0, "votes_count": 0, "ships_count": 0, "projects": [], "coding_time_seconds": 0, "coding_time_seconds_today": 0, "balance": "You need to have a pocket watcher badge to view this.", "badges": [], "created_at": "2025-07-21T15:40:50.155-04:00", "updated_at": "2025-07-22T03:29:25.626-04:00", "avatar": "https://secure.gravatar.com/avatar/c3733e58dff7e689071557c4d93bd4ac.jpg?s=512&d=https%3A%2F%2Fa.slack-edge.com%2Fdf10d%2Fimg%2Favatars%2Fava_0004-512.png", "custom_css": null}, {"id": 16529, "slack_id": "U096CKFDXEK", "display_name": "Animesh", "bio": null, "projects_count": 0, "devlogs_count": 0, "votes_count": 0, "ships_count": 0, "projects": [], "coding_time_seconds": 0, "coding_time_seconds_today": 0, "balance": "You need to have a pocket watcher badge to view this.", "badges": [], "created_at": "2025-07-21T15:40:52.112-04:00", "updated_at": "2025-07-22T03:29:25.712-04:00", "avatar": "https://secure.gravatar.com/avatar/37782d732b926de8dbdd9a7ec6048236.jpg?s=512&d=https%3A%2F%2Fa.slack-edge.com%2Fdf10d%2Fimg%2Favatars%2Fava_0023-512.png", "custom_css": null}, {"id": 16530, "slack_id": "U097FSXN7Q8", "display_name": "Abhineeth Pasam", "bio": null, "projects_count": 1, "devlogs_count": 0, "votes_count": 1, "ships_count": 0, "projects": [{"id": 7875, "title": "AppTrack.ai", "devlogs_count": 0, "created_at": "2025-07-23T11:47:03.665-04:00"}], "coding_time_seconds": 15849, "coding_time_seconds_today": 0, "balance": "You need to have a pocket watcher badge to view this.", "badges": [], "created_at": "2025-07-21T15:40:53.545-04:00", "updated_at": "2025-07-23T11:46:01.367-04:00", "avatar": "https://avatars.slack-edge.com/2025-07-21/9244710946881_bdaf57fc367d707dbe5a_original.jpg", "custom_css": null}, {"id": 16531, "slack_id": "U096CKK7RNK", "display_name": "Jerson Z\u00fa\u00f1iga", "bio": null, "projects_count": 0, "devlogs_count": 0, "votes_count": 0, "ships_count": 0, "projects": [], "coding_time_seconds": 0, "coding_time_seconds_today": 0, "balance": "You need to have a pocket watcher badge to view this.", "badges": [], "created_at": "2025-07-21T15:41:11.972-04:00", "updated_at": "2025-07-22T03:29:25.915-04:00", "avatar": "https://secure.gravatar.com/avatar/5bc0caa2941103c41b20f62ddc36fe82.jpg?s=512&d=https%3A%2F%2Fa.slack-edge.com%2Fdf10d%2Fimg%2Favatars%2Fava_0004-512.png", "custom_css": null}, {"id": 16532, "slack_id": "U096N4SBTUK", "display_name": "Kieran", "bio": null, "projects_count": 0, "devlogs_count": 0, "votes_count": 0, "ships_count": 0, "projects": [], "coding_time_seconds": 0, "coding_time_seconds_today": 0, "balance": "You need to have a pocket watcher badge to view this.", "badges": [], "created_at": "2025-07-21T15:41:26.202-04:00", "updated_at": "2025-07-22T03:29:26.007-04:00", "avatar": "https://secure.gravatar.com/avatar/111f9d5519f3663af96885985ad25a83.jpg?s=512&d=https%3A%2F%2Fa.slack-edge.com%2Fdf10d%2Fimg%2Favatars%2Fava_0022-512.png", "custom_css": null}, {"id": 16533, "slack_id": "U097FT14HHN", "display_name": "Aryan Singh Negi", "bio": "", "projects_count": 0, "devlogs_count": 0, "votes_count": 0, "ships_count": 0, "projects": [], "coding_time_seconds": 0, "coding_time_seconds_today": 0, "balance": "You need to have a pocket watcher badge to view this.", "badges": [], "created_at": "2025-07-21T15:41:34.214-04:00", "updated_at": "2025-07-22T03:29:26.099-04:00", "avatar": "https://secure.gravatar.com/avatar/cee0f20128dc23b3e7aea96f88784553.jpg?s=512&d=https%3A%2F%2Fa.slack-edge.com%2Fdf10d%2Fimg%2Favatars%2Fava_0024-512.png", "custom_css": null}, {"id": 16534, "slack_id": "U096CKGTZM5", "display_name": "Jon", "bio": "", "projects_count": 0, "devlogs_count": 0, "votes_count": 3, "ships_count": 0, "projects": [], "coding_time_seconds": 7158, "coding_time_seconds_today": 0, "balance": "You need to have a pocket watcher badge to view this.", "badges": [], "created_at": "2025-07-21T15:41:39.668-04:00", "updated_at": "2025-07-24T10:22:15.449-04:00", "avatar": "https://avatars.slack-edge.com/2025-07-24/9248703321730_ae07c9674539b9a699d7_original.gif", "custom_css": null}, {"id": 16535, "slack_id": "U096Q9YN1KQ", "display_name": "Philipp Wiesner", "bio": null, "projects_count": 0, "devlogs_count": 0, "votes_count": 0, "ships_count": 0, "projects": [], "coding_time_seconds": 0, "coding_time_seconds_today": 0, "balance": "You need to have a pocket watcher badge to view this.", "badges": [], "created_at": "2025-07-21T15:41:40.209-04:00", "updated_at": "2025-07-22T03:29:26.249-04:00", "avatar": "https://secure.gravatar.com/avatar/e3351e3473403fcde8e7d2e00b6477de.jpg?s=512&d=https%3A%2F%2Fa.slack-edge.com%2Fdf10d%2Fimg%2Favatars%2Fava_0015-512.png", "custom_css": null}, {"id": 16536, "slack_id": "U096CKM0J23", "display_name": "Grace", "bio": null, "projects_count": 0, "devlogs_count": 0, "votes_count": 0, "ships_count": 0, "projects": [], "coding_time_seconds": 0, "coding_time_seconds_today": 0, "balance": "You need to have a pocket watcher badge to view this.", "badges": [], "created_at": "2025-07-21T15:41:41.800-04:00", "updated_at": "2025-07-22T03:29:26.337-04:00", "avatar": "https://secure.gravatar.com/avatar/9fcd4541d348068cec9285592ec2da03.jpg?s=512&d=https%3A%2F%2Fa.slack-edge.com%2Fdf10d%2Fimg%2Favatars%2Fava_0008-512.png", "custom_css": null}, {"id": 16537, "slack_id": "U096Q9UKLEA", "display_name": "vip3245", "bio": null, "projects_count": 0, "devlogs_count": 0, "votes_count": 0, "ships_count": 0, "projects": [], "coding_time_seconds": 0, "coding_time_seconds_today": 0, "balance": "You need to have a pocket watcher badge to view this.", "badges": [], "created_at": "2025-07-21T15:41:48.124-04:00", "updated_at": "2025-07-22T03:29:26.427-04:00", "avatar": "https://secure.gravatar.com/avatar/fbaf1240257f0c8364d07644e63a8899.jpg?s=512&d=https%3A%2F%2Fa.slack-edge.com%2Fdf10d%2Fimg%2Favatars%2Fava_0018-512.png", "custom_css": null}, {"id": 16538, "slack_id": "U096UKBJ5E0", "display_name": "Pranjal Chaurasia", "bio": null, "projects_count": 0, "devlogs_count": 0, "votes_count": 0, "ships_count": 0, "projects": [], "coding_time_seconds": 22007, "coding_time_seconds_today": 0, "balance": "You need to have a pocket watcher badge to view this.", "badges": [], "created_at": "2025-07-21T15:41:55.512-04:00", "updated_at": "2025-08-01T15:49:22.814-04:00", "avatar": "https://secure.gravatar.com/avatar/84f9ed9869bed3eb7380983fd727045b.jpg?s=512&d=https%3A%2F%2Fa.slack-edge.com%2Fdf10d%2Fimg%2Favatars%2Fava_0013-512.png", "custom_css": null}, {"id": 16539, "slack_id": "U096CKE7LRM", "display_name": "zhengqingyuan zhang", "bio": null, "projects_count": 0, "devlogs_count": 0, "votes_count": 0, "ships_count": 0, "projects": [], "coding_time_seconds": 0, "coding_time_seconds_today": 0, "balance": "You need to have a pocket watcher badge to view this.", "badges": [], "created_at": "2025-07-21T15:42:01.037-04:00", "updated_at": "2025-07-22T03:29:26.591-04:00", "avatar": "https://secure.gravatar.com/avatar/9415b7e56bb14a8067a38806f174837d.jpg?s=512&d=https%3A%2F%2Fa.slack-edge.com%2Fdf10d%2Fimg%2Favatars%2Fava_0022-512.png", "custom_css": null}, {"id": 16540, "slack_id": "U096N4X0ZPD", "display_name": "Shaun Wang", "bio": null, "projects_count": 0, "devlogs_count": 0, "votes_count": 0, "ships_count": 0, "projects": [], "coding_time_seconds": 0, "coding_time_seconds_today": 0, "balance": "You need to have a pocket watcher badge to view this.", "badges": [], "created_at": "2025-07-21T15:42:11.191-04:00", "updated_at": "2025-07-22T03:29:26.695-04:00", "avatar": "https://avatars.slack-edge.com/2025-07-21/9228358516230_2f4755ed2d1282427f96_original.png", "custom_css": null}, {"id": 16541, "slack_id": "U096CKSC59V", "display_name": "Anup", "bio": null, "projects_count": 0, "devlogs_count": 0, "votes_count": 0, "ships_count": 0, "projects": [], "coding_time_seconds": 0, "coding_time_seconds_today": 0, "balance": "You need to have a pocket watcher badge to view this.", "badges": [], "created_at": "2025-07-21T15:42:22.972-04:00", "updated_at": "2025-07-22T03:29:26.773-04:00", "avatar": "https://secure.gravatar.com/avatar/6f9adcaa396b4e6eaf64f7b9c2400af4.jpg?s=512&d=https%3A%2F%2Fa.slack-edge.com%2Fdf10d%2Fimg%2Favatars%2Fava_0019-512.png", "custom_css": null}, {"id": 16542, "slack_id": "U097FT6QZ6C", "display_name": "Milad", "bio": null, "projects_count": 0, "devlogs_count": 0, "votes_count": 0, "ships_count": 0, "projects": [], "coding_time_seconds": 0, "coding_time_seconds_today": 0, "balance": "You need to have a pocket watcher badge to view this.", "badges": [], "created_at": "2025-07-21T15:42:30.283-04:00", "updated_at": "2025-07-22T03:29:26.853-04:00", "avatar": "https://avatars.slack-edge.com/2025-07-21/9231453907922_753426a4cfdb714567de_original.jpg", "custom_css": null}, {"id": 16543, "slack_id": "U096QA490QN", "display_name": "Gus", "bio": null, "projects_count": 0, "devlogs_count": 0, "votes_count": 0, "ships_count": 0, "projects": [], "coding_time_seconds": 0, "coding_time_seconds_today": 0, "balance": "You need to have a pocket watcher badge to view this.", "badges": [], "created_at": "2025-07-21T15:42:40.069-04:00", "updated_at": "2025-07-22T03:29:26.939-04:00", "avatar": "https://secure.gravatar.com/avatar/ba8c09dd45c5320cfc29b9891b033e7e.jpg?s=512&d=https%3A%2F%2Fa.slack-edge.com%2Fdf10d%2Fimg%2Favatars%2Fava_0010-512.png", "custom_css": null}, {"id": 16544, "slack_id": "U097FT2MW4Q", "display_name": "Sarra", "bio": null, "projects_count": 0, "devlogs_count": 0, "votes_count": 0, "ships_count": 0, "projects": [], "coding_time_seconds": 0, "coding_time_seconds_today": 0, "balance": "You need to have a pocket watcher badge to view this.", "badges": [], "created_at": "2025-07-21T15:42:43.911-04:00", "updated_at": "2025-07-22T03:29:31.064-04:00", "avatar": "https://secure.gravatar.com/avatar/d895698ae90709dd0cf99c95f105e2de.jpg?s=512&d=https%3A%2F%2Fa.slack-edge.com%2Fdf10d%2Fimg%2Favatars%2Fava_0013-512.png", "custom_css": null}, {"id": 16545, "slack_id": "U096N4NJ6BD", "display_name": "Lars", "bio": null, "projects_count": 0, "devlogs_count": 0, "votes_count": 0, "ships_count": 0, "projects": [], "coding_time_seconds": 0, "coding_time_seconds_today": 0, "balance": "You need to have a pocket watcher badge to view this.", "badges": [], "created_at": "2025-07-21T15:42:45.642-04:00", "updated_at": "2025-07-22T07:32:11.511-04:00", "avatar": "https://secure.gravatar.com/avatar/2b0ae344f121984b0206c1e79e167bc4.jpg?s=512&d=https%3A%2F%2Fa.slack-edge.com%2Fdf10d%2Fimg%2Favatars%2Fava_0006-512.png", "custom_css": null}], "pagination": {"page": 823, "pages": 1192, "count": 23828, "items": 20}}