{"users": [{"id": 16546, "slack_id": "U096RFEQ7FF", "display_name": "Rami Janini", "bio": null, "projects_count": 0, "devlogs_count": 0, "votes_count": 0, "ships_count": 0, "projects": [], "coding_time_seconds": 0, "coding_time_seconds_today": 0, "balance": "You need to have a pocket watcher badge to view this.", "badges": [], "created_at": "2025-07-21T15:42:52.463-04:00", "updated_at": "2025-07-22T03:29:31.231-04:00", "avatar": "https://secure.gravatar.com/avatar/455da5b7dc8224a431ba375e6fb65fc0.jpg?s=512&d=https%3A%2F%2Fa.slack-edge.com%2Fdf10d%2Fimg%2Favatars%2Fava_0025-512.png", "custom_css": null}, {"id": 16547, "slack_id": "U096UKKGAKE", "display_name": "Sourodip Kar", "bio": null, "projects_count": 0, "devlogs_count": 0, "votes_count": 0, "ships_count": 0, "projects": [], "coding_time_seconds": 524, "coding_time_seconds_today": 0, "balance": "You need to have a pocket watcher badge to view this.", "badges": [], "created_at": "2025-07-21T15:42:56.021-04:00", "updated_at": "2025-07-22T03:29:31.316-04:00", "avatar": "https://secure.gravatar.com/avatar/d2b6c976f016fef3002b0a7f3f655d22.jpg?s=512&d=https%3A%2F%2Fa.slack-edge.com%2Fdf10d%2Fimg%2Favatars%2Fava_0026-512.png", "custom_css": null}, {"id": 16548, "slack_id": "U096QA3NQ06", "display_name": "Gafie", "bio": null, "projects_count": 0, "devlogs_count": 0, "votes_count": 0, "ships_count": 0, "projects": [], "coding_time_seconds": 0, "coding_time_seconds_today": 0, "balance": "You need to have a pocket watcher badge to view this.", "badges": [], "created_at": "2025-07-21T15:42:58.788-04:00", "updated_at": "2025-07-22T03:29:31.414-04:00", "avatar": "https://secure.gravatar.com/avatar/7fad8e4873fd70a598a57b764eee84ba.jpg?s=512&d=https%3A%2F%2Fa.slack-edge.com%2Fdf10d%2Fimg%2Favatars%2Fava_0022-512.png", "custom_css": null}, {"id": 16549, "slack_id": "U097FR82ENL", "display_name": "Freddy", "bio": null, "projects_count": 0, "devlogs_count": 0, "votes_count": 0, "ships_count": 0, "projects": [], "coding_time_seconds": 0, "coding_time_seconds_today": 0, "balance": "You need to have a pocket watcher badge to view this.", "badges": [], "created_at": "2025-07-21T15:43:06.051-04:00", "updated_at": "2025-07-22T03:29:31.495-04:00", "avatar": "https://secure.gravatar.com/avatar/6d0fd4ac1d8fbf19756912f70c896db8.jpg?s=512&d=https%3A%2F%2Fa.slack-edge.com%2Fdf10d%2Fimg%2Favatars%2Fava_0013-512.png", "custom_css": null}, {"id": 16550, "slack_id": "U08004V1Z7T", "display_name": "NullClock", "bio": null, "projects_count": 0, "devlogs_count": 0, "votes_count": 0, "ships_count": 0, "projects": [], "coding_time_seconds": 1747, "coding_time_seconds_today": 0, "balance": "You need to have a pocket watcher badge to view this.", "badges": [], "created_at": "2025-07-21T15:43:35.736-04:00", "updated_at": "2025-07-22T13:29:38.165-04:00", "avatar": "https://avatars.slack-edge.com/2024-11-05/7984677650117_22fb789a90c6ba270a05_original.png", "custom_css": null}, {"id": 16551, "slack_id": "U096UKMNMU4", "display_name": "Seyed Mostafa Hashemian", "bio": null, "projects_count": 0, "devlogs_count": 0, "votes_count": 0, "ships_count": 0, "projects": [], "coding_time_seconds": 0, "coding_time_seconds_today": 0, "balance": "You need to have a pocket watcher badge to view this.", "badges": [], "created_at": "2025-07-21T15:43:52.333-04:00", "updated_at": "2025-07-22T03:29:31.631-04:00", "avatar": "https://secure.gravatar.com/avatar/85d774c3b1d8fea8886d62cd1226472c.jpg?s=512&d=https%3A%2F%2Fa.slack-edge.com%2Fdf10d%2Fimg%2Favatars%2Fava_0024-512.png", "custom_css": null}, {"id": 16552, "slack_id": "U096UHTQKL4", "display_name": "Tix", "bio": null, "projects_count": 0, "devlogs_count": 0, "votes_count": 0, "ships_count": 0, "projects": [], "coding_time_seconds": 0, "coding_time_seconds_today": 0, "balance": "You need to have a pocket watcher badge to view this.", "badges": [], "created_at": "2025-07-21T15:44:00.961-04:00", "updated_at": "2025-07-22T03:29:31.724-04:00", "avatar": "https://secure.gravatar.com/avatar/0dc94b026610da75650ee48d7d226705.jpg?s=512&d=https%3A%2F%2Fa.slack-edge.com%2Fdf10d%2Fimg%2Favatars%2Fava_0007-512.png", "custom_css": null}, {"id": 16553, "slack_id": "U096CKX0NQP", "display_name": "Hack Bot", "bio": null, "projects_count": 0, "devlogs_count": 0, "votes_count": 0, "ships_count": 0, "projects": [], "coding_time_seconds": 470482, "coding_time_seconds_today": 0, "balance": "You need to have a pocket watcher badge to view this.", "badges": [], "created_at": "2025-07-21T15:44:22.698-04:00", "updated_at": "2025-08-10T14:30:36.381-04:00", "avatar": "https://secure.gravatar.com/avatar/0c7a8f070388b19ad550aa3ea40eefcf.jpg?s=512&d=https%3A%2F%2Fa.slack-edge.com%2Fdf10d%2Fimg%2Favatars%2Fava_0024-512.png", "custom_css": null}, {"id": 16554, "slack_id": "U097FTH002C", "display_name": "Baher", "bio": null, "projects_count": 0, "devlogs_count": 0, "votes_count": 0, "ships_count": 0, "projects": [], "coding_time_seconds": 0, "coding_time_seconds_today": 0, "balance": "You need to have a pocket watcher badge to view this.", "badges": [], "created_at": "2025-07-21T15:44:29.761-04:00", "updated_at": "2025-07-22T03:29:31.901-04:00", "avatar": "https://avatars.slack-edge.com/2025-07-21/9244727440465_7100eea1f8962e9c06aa_original.png", "custom_css": null}, {"id": 16555, "slack_id": "U0976LUCAAD", "display_name": "Aditi Singla", "bio": null, "projects_count": 0, "devlogs_count": 0, "votes_count": 0, "ships_count": 0, "projects": [], "coding_time_seconds": 0, "coding_time_seconds_today": 0, "balance": "You need to have a pocket watcher badge to view this.", "badges": [], "created_at": "2025-07-21T15:44:29.809-04:00", "updated_at": "2025-07-22T03:29:32.018-04:00", "avatar": "https://avatars.slack-edge.com/2025-07-21/9216694357767_3b25b199ba30833d0e68_original.jpg", "custom_css": null}, {"id": 16556, "slack_id": "U096RFJMGP7", "display_name": "Ayush Ghosh", "bio": null, "projects_count": 0, "devlogs_count": 0, "votes_count": 0, "ships_count": 0, "projects": [], "coding_time_seconds": 0, "coding_time_seconds_today": 0, "balance": "You need to have a pocket watcher badge to view this.", "badges": [], "created_at": "2025-07-21T15:44:31.578-04:00", "updated_at": "2025-07-22T03:29:32.120-04:00", "avatar": "https://avatars.slack-edge.com/2025-07-21/9253947064080_314ff95a159a81b83672_original.jpg", "custom_css": null}, {"id": 16557, "slack_id": "U096N10SKD1", "display_name": "Tom Riddle", "bio": null, "projects_count": 0, "devlogs_count": 0, "votes_count": 0, "ships_count": 0, "projects": [], "coding_time_seconds": 0, "coding_time_seconds_today": 0, "balance": "You need to have a pocket watcher badge to view this.", "badges": [], "created_at": "2025-07-21T15:44:41.469-04:00", "updated_at": "2025-07-22T03:29:32.206-04:00", "avatar": "https://secure.gravatar.com/avatar/d3629b9022a83981b224e89d74448ba6.jpg?s=512&d=https%3A%2F%2Fa.slack-edge.com%2Fdf10d%2Fimg%2Favatars%2Fava_0023-512.png", "custom_css": null}, {"id": 16558, "slack_id": "U097FTGAE3S", "display_name": "Rajeev Atla", "bio": null, "projects_count": 0, "devlogs_count": 0, "votes_count": 0, "ships_count": 0, "projects": [], "coding_time_seconds": 0, "coding_time_seconds_today": 0, "balance": "You need to have a pocket watcher badge to view this.", "badges": [], "created_at": "2025-07-21T15:44:42.077-04:00", "updated_at": "2025-07-22T03:29:32.301-04:00", "avatar": "https://secure.gravatar.com/avatar/bf03a9baf9856fc076b76570e7ab98d0.jpg?s=512&d=https%3A%2F%2Fa.slack-edge.com%2Fdf10d%2Fimg%2Favatars%2Fava_0023-512.png", "custom_css": null}, {"id": 16559, "slack_id": "U096Q9Y3CGN", "display_name": "Sahil Dhavale", "bio": null, "projects_count": 0, "devlogs_count": 0, "votes_count": 0, "ships_count": 0, "projects": [], "coding_time_seconds": 252, "coding_time_seconds_today": 0, "balance": "You need to have a pocket watcher badge to view this.", "badges": [], "created_at": "2025-07-21T15:44:51.291-04:00", "updated_at": "2025-07-23T14:53:20.518-04:00", "avatar": "https://avatars.slack-edge.com/2025-07-21/9229548531493_8bd5a7d74e4c9a080988_original.jpg", "custom_css": null}, {"id": 16560, "slack_id": "U096N5486EP", "display_name": "Umayma Zoreet", "bio": null, "projects_count": 0, "devlogs_count": 0, "votes_count": 0, "ships_count": 0, "projects": [], "coding_time_seconds": 0, "coding_time_seconds_today": 0, "balance": "You need to have a pocket watcher badge to view this.", "badges": [], "created_at": "2025-07-21T15:45:03.947-04:00", "updated_at": "2025-07-22T03:29:32.500-04:00", "avatar": "https://secure.gravatar.com/avatar/cf8ffaa17ab88875b27d624bcb5c98c5.jpg?s=512&d=https%3A%2F%2Fa.slack-edge.com%2Fdf10d%2Fimg%2Favatars%2Fava_0021-512.png", "custom_css": null}, {"id": 16561, "slack_id": "U096TCY6RCJ", "display_name": "Carlo", "bio": null, "projects_count": 0, "devlogs_count": 0, "votes_count": 0, "ships_count": 0, "projects": [], "coding_time_seconds": 0, "coding_time_seconds_today": 0, "balance": "You need to have a pocket watcher badge to view this.", "badges": [], "created_at": "2025-07-21T15:45:08.753-04:00", "updated_at": "2025-07-22T03:29:32.591-04:00", "avatar": "https://avatars.slack-edge.com/2025-07-21/9232688677268_d7f6bba95aa92b675ea4_original.jpg", "custom_css": null}, {"id": 16562, "slack_id": "U096QAHT9CN", "display_name": "Otacilio Maia", "bio": null, "projects_count": 0, "devlogs_count": 0, "votes_count": 0, "ships_count": 0, "projects": [], "coding_time_seconds": 0, "coding_time_seconds_today": 0, "balance": "You need to have a pocket watcher badge to view this.", "badges": [], "created_at": "2025-07-21T15:45:13.326-04:00", "updated_at": "2025-07-22T03:29:32.669-04:00", "avatar": "https://secure.gravatar.com/avatar/d84ffda3cd49a831834ac76a505b5540.jpg?s=512&d=https%3A%2F%2Fa.slack-edge.com%2Fdf10d%2Fimg%2Favatars%2Fava_0007-512.png", "custom_css": null}, {"id": 16563, "slack_id": "U096RFQTM3P", "display_name": "Hans", "bio": null, "projects_count": 0, "devlogs_count": 0, "votes_count": 0, "ships_count": 0, "projects": [], "coding_time_seconds": 41309, "coding_time_seconds_today": 0, "balance": "You need to have a pocket watcher badge to view this.", "badges": [], "created_at": "2025-07-21T15:45:28.652-04:00", "updated_at": "2025-07-23T13:00:56.947-04:00", "avatar": "https://secure.gravatar.com/avatar/5203b667d19b9ee541f60ea5f27eb4fe.jpg?s=512&d=https%3A%2F%2Fa.slack-edge.com%2Fdf10d%2Fimg%2Favatars%2Fava_0011-512.png", "custom_css": null}, {"id": 16564, "slack_id": "U03T0P1KSKB", "display_name": "Pranav Shende", "bio": null, "projects_count": 0, "devlogs_count": 0, "votes_count": 0, "ships_count": 0, "projects": [], "coding_time_seconds": 0, "coding_time_seconds_today": 0, "balance": "You need to have a pocket watcher badge to view this.", "badges": [], "created_at": "2025-07-21T15:45:34.131-04:00", "updated_at": "2025-07-22T03:29:32.850-04:00", "avatar": "https://secure.gravatar.com/avatar/1d3abe6ee79720a9076096998b33d433.jpg?s=512&d=https%3A%2F%2Fa.slack-edge.com%2Fdf10d%2Fimg%2Favatars%2Fava_0006-512.png", "custom_css": null}, {"id": 16565, "slack_id": "U0976MBAVPT", "display_name": "Luciano \u00c9dipo Pereira da Silva", "bio": null, "projects_count": 0, "devlogs_count": 0, "votes_count": 0, "ships_count": 0, "projects": [], "coding_time_seconds": 0, "coding_time_seconds_today": 0, "balance": "You need to have a pocket watcher badge to view this.", "badges": [], "created_at": "2025-07-21T15:46:12.632-04:00", "updated_at": "2025-07-22T03:29:32.967-04:00", "avatar": "https://secure.gravatar.com/avatar/e3d0deac6ed1cf9658e95c311fe581fd.jpg?s=512&d=https%3A%2F%2Fa.slack-edge.com%2Fdf10d%2Fimg%2Favatars%2Fava_0017-512.png", "custom_css": null}], "pagination": {"page": 824, "pages": 1192, "count": 23828, "items": 20}}