{"users": [{"id": 16566, "slack_id": "U096QAH583G", "display_name": "lefraustoo", "bio": null, "projects_count": 0, "devlogs_count": 0, "votes_count": 0, "ships_count": 0, "projects": [], "coding_time_seconds": 3806, "coding_time_seconds_today": 0, "balance": "You need to have a pocket watcher badge to view this.", "badges": [], "created_at": "2025-07-21T15:46:28.250-04:00", "updated_at": "2025-07-30T16:03:35.711-04:00", "avatar": "https://secure.gravatar.com/avatar/becdf677b8e80735e309a29ab811e2f4.jpg?s=512&d=https%3A%2F%2Fa.slack-edge.com%2Fdf10d%2Fimg%2Favatars%2Fava_0026-512.png", "custom_css": null}, {"id": 16567, "slack_id": "U096RFT83DK", "display_name": "Alina Chen", "bio": null, "projects_count": 0, "devlogs_count": 0, "votes_count": 0, "ships_count": 0, "projects": [], "coding_time_seconds": 0, "coding_time_seconds_today": 0, "balance": "You need to have a pocket watcher badge to view this.", "badges": [], "created_at": "2025-07-21T15:46:29.909-04:00", "updated_at": "2025-07-22T03:29:37.227-04:00", "avatar": "https://secure.gravatar.com/avatar/b869bd5dfc0edadee3b717bb64bd5934.jpg?s=512&d=https%3A%2F%2Fa.slack-edge.com%2Fdf10d%2Fimg%2Favatars%2Fava_0007-512.png", "custom_css": null}, {"id": 16568, "slack_id": "U096UL37T7W", "display_name": "SergioAguilar", "bio": null, "projects_count": 0, "devlogs_count": 0, "votes_count": 0, "ships_count": 0, "projects": [], "coding_time_seconds": 1461, "coding_time_seconds_today": 0, "balance": "You need to have a pocket watcher badge to view this.", "badges": [], "created_at": "2025-07-21T15:46:37.847-04:00", "updated_at": "2025-07-22T03:29:37.307-04:00", "avatar": "https://secure.gravatar.com/avatar/472cc2ca1d6e6132c9c340f956e2fcbf.jpg?s=512&d=https%3A%2F%2Fa.slack-edge.com%2Fdf10d%2Fimg%2Favatars%2Fava_0020-512.png", "custom_css": null}, {"id": 16569, "slack_id": "U07LBFE21D3", "display_name": "Ayaan Ahmed", "bio": null, "projects_count": 1, "devlogs_count": 0, "votes_count": 4, "ships_count": 0, "projects": [{"id": 7433, "title": "emacs feature", "devlogs_count": 0, "created_at": "2025-07-21T18:37:08.259-04:00"}], "coding_time_seconds": 84059, "coding_time_seconds_today": 0, "balance": "You need to have a pocket watcher badge to view this.", "badges": [], "created_at": "2025-07-21T15:46:42.852-04:00", "updated_at": "2025-08-21T22:49:57.834-04:00", "avatar": "https://secure.gravatar.com/avatar/5b04448a5058b8b7d0eb7b3e6a8de753.jpg?s=512&d=https%3A%2F%2Fa.slack-edge.com%2Fdf10d%2Fimg%2Favatars%2Fava_0001-512.png", "custom_css": null}, {"id": 16570, "slack_id": "U096UKT8TJQ", "display_name": "muhit", "bio": null, "projects_count": 0, "devlogs_count": 0, "votes_count": 0, "ships_count": 0, "projects": [], "coding_time_seconds": 0, "coding_time_seconds_today": 0, "balance": "You need to have a pocket watcher badge to view this.", "badges": [], "created_at": "2025-07-21T15:46:44.887-04:00", "updated_at": "2025-07-22T03:29:37.464-04:00", "avatar": "https://secure.gravatar.com/avatar/bfee8a575930d3259ada3126ec1825d5.jpg?s=512&d=https%3A%2F%2Fa.slack-edge.com%2Fdf10d%2Fimg%2Favatars%2Fava_0017-512.png", "custom_css": null}, {"id": 16571, "slack_id": "U097FTS1T08", "display_name": "Logan Omelchuk", "bio": null, "projects_count": 0, "devlogs_count": 0, "votes_count": 0, "ships_count": 0, "projects": [], "coding_time_seconds": 0, "coding_time_seconds_today": 0, "balance": "You need to have a pocket watcher badge to view this.", "badges": [], "created_at": "2025-07-21T15:46:53.405-04:00", "updated_at": "2025-07-22T03:29:37.543-04:00", "avatar": "https://secure.gravatar.com/avatar/86d0d20bf536c450c6ca9d7b2ed239e1.jpg?s=512&d=https%3A%2F%2Fa.slack-edge.com%2Fdf10d%2Fimg%2Favatars%2Fava_0015-512.png", "custom_css": null}, {"id": 16572, "slack_id": "U096N5FT49H", "display_name": "Stahrick", "bio": null, "projects_count": 0, "devlogs_count": 0, "votes_count": 0, "ships_count": 0, "projects": [], "coding_time_seconds": 0, "coding_time_seconds_today": 0, "balance": "You need to have a pocket watcher badge to view this.", "badges": [], "created_at": "2025-07-21T15:47:20.727-04:00", "updated_at": "2025-07-22T03:29:37.645-04:00", "avatar": "https://secure.gravatar.com/avatar/1c1a2d30841ac4ce739cf5df68ec5858.jpg?s=512&d=https%3A%2F%2Fa.slack-edge.com%2Fdf10d%2Fimg%2Favatars%2Fava_0003-512.png", "custom_css": null}, {"id": 16573, "slack_id": "U096CL88RQF", "display_name": "Javier Paredes", "bio": null, "projects_count": 1, "devlogs_count": 0, "votes_count": 3, "ships_count": 0, "projects": [{"id": 7432, "title": "Nihilism", "devlogs_count": 0, "created_at": "2025-07-21T18:25:54.632-04:00"}], "coding_time_seconds": 54313, "coding_time_seconds_today": 0, "balance": "You need to have a pocket watcher badge to view this.", "badges": [], "created_at": "2025-07-21T15:47:40.823-04:00", "updated_at": "2025-07-22T03:29:37.738-04:00", "avatar": "https://secure.gravatar.com/avatar/369324dc2b92da08024272c97e1da030.jpg?s=512&d=https%3A%2F%2Fa.slack-edge.com%2Fdf10d%2Fimg%2Favatars%2Fava_0021-512.png", "custom_css": null}, {"id": 16574, "slack_id": "U096CLHJS4X", "display_name": "OneCheetah", "bio": null, "projects_count": 0, "devlogs_count": 0, "votes_count": 0, "ships_count": 0, "projects": [], "coding_time_seconds": 671167, "coding_time_seconds_today": 0, "balance": "You need to have a pocket watcher badge to view this.", "badges": [], "created_at": "2025-07-21T15:47:59.334-04:00", "updated_at": "2025-07-25T09:42:56.375-04:00", "avatar": "https://secure.gravatar.com/avatar/dbb916da2b969cfe0c3080fd4ffedeef.jpg?s=512&d=https%3A%2F%2Fa.slack-edge.com%2Fdf10d%2Fimg%2Favatars%2Fava_0022-512.png", "custom_css": null}, {"id": 16575, "slack_id": "U096UJFH5FE", "display_name": "Fried Egg'); DROP TABLE Students;", "bio": null, "projects_count": 0, "devlogs_count": 0, "votes_count": 0, "ships_count": 0, "projects": [], "coding_time_seconds": 0, "coding_time_seconds_today": 0, "balance": "You need to have a pocket watcher badge to view this.", "badges": [], "created_at": "2025-07-21T15:48:01.401-04:00", "updated_at": "2025-07-22T03:29:41.968-04:00", "avatar": "https://avatars.slack-edge.com/2025-07-21/9231508546578_b131f57b2a51568bddfb_original.jpg", "custom_css": null}, {"id": 16576, "slack_id": "U096N5LUWRH", "display_name": "JuanIsaac", "bio": null, "projects_count": 0, "devlogs_count": 0, "votes_count": 0, "ships_count": 0, "projects": [], "coding_time_seconds": 0, "coding_time_seconds_today": 0, "balance": "You need to have a pocket watcher badge to view this.", "badges": [], "created_at": "2025-07-21T15:48:09.403-04:00", "updated_at": "2025-07-22T03:29:42.051-04:00", "avatar": "https://secure.gravatar.com/avatar/f46c85cd8b1c05d59df290a5e683fd13.jpg?s=512&d=https%3A%2F%2Fa.slack-edge.com%2Fdf10d%2Fimg%2Favatars%2Fava_0013-512.png", "custom_css": null}, {"id": 16577, "slack_id": "U096N5Q6SJX", "display_name": "Obed", "bio": null, "projects_count": 0, "devlogs_count": 0, "votes_count": 0, "ships_count": 0, "projects": [], "coding_time_seconds": 10681, "coding_time_seconds_today": 0, "balance": "You need to have a pocket watcher badge to view this.", "badges": [], "created_at": "2025-07-21T15:48:24.483-04:00", "updated_at": "2025-07-22T03:29:42.135-04:00", "avatar": "https://secure.gravatar.com/avatar/51c853fbbe1e515f69b351ed086702c7.jpg?s=512&d=https%3A%2F%2Fa.slack-edge.com%2Fdf10d%2Fimg%2Favatars%2Fava_0009-512.png", "custom_css": null}, {"id": 16578, "slack_id": "U096CLHE9GF", "display_name": "Luana  Lins", "bio": null, "projects_count": 0, "devlogs_count": 0, "votes_count": 0, "ships_count": 0, "projects": [], "coding_time_seconds": 0, "coding_time_seconds_today": 0, "balance": "You need to have a pocket watcher badge to view this.", "badges": [], "created_at": "2025-07-21T15:48:40.698-04:00", "updated_at": "2025-07-22T03:29:42.245-04:00", "avatar": "https://secure.gravatar.com/avatar/63949b3de6e1f2225e16e8132b86626d.jpg?s=512&d=https%3A%2F%2Fa.slack-edge.com%2Fdf10d%2Fimg%2Favatars%2Fava_0018-512.png", "custom_css": null}, {"id": 16579, "slack_id": "U097FU0NMGQ", "display_name": "Tautvydas", "bio": null, "projects_count": 0, "devlogs_count": 0, "votes_count": 0, "ships_count": 0, "projects": [], "coding_time_seconds": 0, "coding_time_seconds_today": 0, "balance": "You need to have a pocket watcher badge to view this.", "badges": [], "created_at": "2025-07-21T15:48:44.471-04:00", "updated_at": "2025-07-22T03:29:42.327-04:00", "avatar": "https://secure.gravatar.com/avatar/77c93bae6a3042818a4d1663fd65f56e.jpg?s=512&d=https%3A%2F%2Fa.slack-edge.com%2Fdf10d%2Fimg%2Favatars%2Fava_0014-512.png", "custom_css": null}, {"id": 16580, "slack_id": "U096ULDRZHA", "display_name": "moundher", "bio": null, "projects_count": 0, "devlogs_count": 0, "votes_count": 0, "ships_count": 0, "projects": [], "coding_time_seconds": 0, "coding_time_seconds_today": 0, "balance": "You need to have a pocket watcher badge to view this.", "badges": [], "created_at": "2025-07-21T15:49:09.708-04:00", "updated_at": "2025-07-22T17:04:42.061-04:00", "avatar": "https://secure.gravatar.com/avatar/61d1affdb592f0d2eca956ad77297ea2.jpg?s=512&d=https%3A%2F%2Fa.slack-edge.com%2Fdf10d%2Fimg%2Favatars%2Fava_0013-512.png", "custom_css": null}, {"id": 16581, "slack_id": "U0976MLKD2M", "display_name": "Diego", "bio": null, "projects_count": 0, "devlogs_count": 0, "votes_count": 0, "ships_count": 0, "projects": [], "coding_time_seconds": 0, "coding_time_seconds_today": 0, "balance": "You need to have a pocket watcher badge to view this.", "badges": [], "created_at": "2025-07-21T15:49:24.455-04:00", "updated_at": "2025-07-22T03:29:42.498-04:00", "avatar": "https://secure.gravatar.com/avatar/91128c2ca3ce3ed2f63af45ac660b36e.jpg?s=512&d=https%3A%2F%2Fa.slack-edge.com%2Fdf10d%2Fimg%2Favatars%2Fava_0019-512.png", "custom_css": null}, {"id": 16582, "slack_id": "U097FTYV8F2", "display_name": "Luis Car", "bio": null, "projects_count": 0, "devlogs_count": 0, "votes_count": 0, "ships_count": 0, "projects": [], "coding_time_seconds": 0, "coding_time_seconds_today": 0, "balance": "You need to have a pocket watcher badge to view this.", "badges": [], "created_at": "2025-07-21T15:49:49.871-04:00", "updated_at": "2025-07-22T03:29:42.584-04:00", "avatar": "https://secure.gravatar.com/avatar/2ddc7491687bb72e9f98a14779dca13b.jpg?s=512&d=https%3A%2F%2Fa.slack-edge.com%2Fdf10d%2Fimg%2Favatars%2Fava_0021-512.png", "custom_css": null}, {"id": 16583, "slack_id": "U096RGBQUSZ", "display_name": "Alexandra", "bio": null, "projects_count": 0, "devlogs_count": 0, "votes_count": 0, "ships_count": 0, "projects": [], "coding_time_seconds": 0, "coding_time_seconds_today": 0, "balance": "You need to have a pocket watcher badge to view this.", "badges": [], "created_at": "2025-07-21T15:50:12.092-04:00", "updated_at": "2025-07-22T03:29:42.661-04:00", "avatar": "https://secure.gravatar.com/avatar/027f00d43ef53b2791bdca8be5f97f34.jpg?s=512&d=https%3A%2F%2Fa.slack-edge.com%2Fdf10d%2Fimg%2Favatars%2Fava_0006-512.png", "custom_css": null}, {"id": 16584, "slack_id": "U096TBQ2NGJ", "display_name": "NicholasNix", "bio": null, "projects_count": 0, "devlogs_count": 0, "votes_count": 0, "ships_count": 0, "projects": [], "coding_time_seconds": 0, "coding_time_seconds_today": 0, "balance": "You need to have a pocket watcher badge to view this.", "badges": [], "created_at": "2025-07-21T15:50:31.597-04:00", "updated_at": "2025-07-22T03:29:42.744-04:00", "avatar": "https://secure.gravatar.com/avatar/73e3d96c71ec379c142993564beae1e7.jpg?s=512&d=https%3A%2F%2Fa.slack-edge.com%2Fdf10d%2Fimg%2Favatars%2Fava_0004-512.png", "custom_css": null}, {"id": 16585, "slack_id": "U096N5Z8KA7", "display_name": "Shivam Agarwal", "bio": null, "projects_count": 0, "devlogs_count": 0, "votes_count": 0, "ships_count": 0, "projects": [], "coding_time_seconds": 0, "coding_time_seconds_today": 0, "balance": "You need to have a pocket watcher badge to view this.", "badges": [], "created_at": "2025-07-21T15:50:35.970-04:00", "updated_at": "2025-07-22T03:29:42.841-04:00", "avatar": "https://secure.gravatar.com/avatar/a0a2e232cf0d7fef2e111b7498bb53ea.jpg?s=512&d=https%3A%2F%2Fa.slack-edge.com%2Fdf10d%2Fimg%2Favatars%2Fava_0017-512.png", "custom_css": null}], "pagination": {"page": 825, "pages": 1192, "count": 23828, "items": 20}}