{"users": [{"id": 16606, "slack_id": "U096N6N2599", "display_name": "James Friel", "bio": null, "projects_count": 0, "devlogs_count": 0, "votes_count": 0, "ships_count": 0, "projects": [], "coding_time_seconds": 0, "coding_time_seconds_today": 0, "balance": "You need to have a pocket watcher badge to view this.", "badges": [], "created_at": "2025-07-21T15:55:57.703-04:00", "updated_at": "2025-07-22T03:29:48.770-04:00", "avatar": "https://avatars.slack-edge.com/2025-07-21/9244779777025_d4d38fa0c41da2b6f93d_original.jpg", "custom_css": null}, {"id": 16607, "slack_id": "U096UM0RTQC", "display_name": "Marc Blattmann", "bio": null, "projects_count": 1, "devlogs_count": 15, "votes_count": 22, "ships_count": 1, "projects": [{"id": 7415, "title": "Gradee", "devlogs_count": 15, "created_at": "2025-07-21T17:42:14.057-04:00"}], "coding_time_seconds": 424466, "coding_time_seconds_today": 299, "balance": "You need to have a pocket watcher badge to view this.", "badges": [{"name": "Maiden Voyage", "text": "you shipped your first project! the journey begins...", "icon": "\ud83d\udea2"}, {"name": "Spider", "text": "this user has a pet!", "icon": "\ud83d\udd77\ufe0f"}], "created_at": "2025-07-21T15:56:19.741-04:00", "updated_at": "2025-09-15T04:52:17.568-04:00", "avatar": "https://avatars.slack-edge.com/2025-07-21/9229603834149_2b3dcb3b82369c926cb7_original.jpg", "custom_css": null}, {"id": 16608, "slack_id": "U096N6NDKGB", "display_name": "Mohamed Yaakoubi", "bio": null, "projects_count": 0, "devlogs_count": 0, "votes_count": 0, "ships_count": 0, "projects": [], "coding_time_seconds": 0, "coding_time_seconds_today": 0, "balance": "You need to have a pocket watcher badge to view this.", "badges": [], "created_at": "2025-07-21T15:56:42.699-04:00", "updated_at": "2025-07-22T03:29:48.937-04:00", "avatar": "https://secure.gravatar.com/avatar/1736171bb20485887a719cf8a8c55d97.jpg?s=512&d=https%3A%2F%2Fa.slack-edge.com%2Fdf10d%2Fimg%2Favatars%2Fava_0017-512.png", "custom_css": null}, {"id": 16609, "slack_id": "U096CEEG9E3", "display_name": "Jack Matthews", "bio": null, "projects_count": 0, "devlogs_count": 0, "votes_count": 0, "ships_count": 0, "projects": [], "coding_time_seconds": 35517, "coding_time_seconds_today": 0, "balance": "You need to have a pocket watcher badge to view this.", "badges": [], "created_at": "2025-07-21T15:57:06.596-04:00", "updated_at": "2025-07-22T22:51:02.042-04:00", "avatar": "https://secure.gravatar.com/avatar/587e25320c15b824a0d6e648e6da5cfa.jpg?s=512&d=https%3A%2F%2Fa.slack-edge.com%2Fdf10d%2Fimg%2Favatars%2Fava_0006-512.png", "custom_css": null}, {"id": 16610, "slack_id": "U08RKBPCCKZ", "display_name": "Brandon Yee", "bio": null, "projects_count": 0, "devlogs_count": 0, "votes_count": 0, "ships_count": 0, "projects": [], "coding_time_seconds": 0, "coding_time_seconds_today": 0, "balance": "You need to have a pocket watcher badge to view this.", "badges": [], "created_at": "2025-07-21T15:57:09.278-04:00", "updated_at": "2025-07-22T03:29:49.106-04:00", "avatar": "https://avatars.slack-edge.com/2025-05-15/8892566110547_fa8f5020ce30542d32ed_original.jpg", "custom_css": null}, {"id": 16611, "slack_id": "U096TEX3BS6", "display_name": "JNANA RAMAKRISHNA CHODISETTI", "bio": null, "projects_count": 0, "devlogs_count": 0, "votes_count": 0, "ships_count": 0, "projects": [], "coding_time_seconds": 0, "coding_time_seconds_today": 0, "balance": "You need to have a pocket watcher badge to view this.", "badges": [], "created_at": "2025-07-21T15:57:22.744-04:00", "updated_at": "2025-07-22T03:29:49.206-04:00", "avatar": "https://avatars.slack-edge.com/2025-07-21/9232746895652_6013d243ffc0475ea511_original.jpg", "custom_css": null}, {"id": 16612, "slack_id": "U096UMN0ATE", "display_name": "Priyanka", "bio": null, "projects_count": 0, "devlogs_count": 0, "votes_count": 0, "ships_count": 0, "projects": [], "coding_time_seconds": 0, "coding_time_seconds_today": 0, "balance": "You need to have a pocket watcher badge to view this.", "badges": [], "created_at": "2025-07-21T15:57:34.011-04:00", "updated_at": "2025-07-22T03:29:49.307-04:00", "avatar": "https://secure.gravatar.com/avatar/df3e542bb4f20c62b57e602d041ec84f.jpg?s=512&d=https%3A%2F%2Fa.slack-edge.com%2Fdf10d%2Fimg%2Favatars%2Fava_0024-512.png", "custom_css": null}, {"id": 16613, "slack_id": "U097FUQG2GY", "display_name": "Prabhakaran", "bio": null, "projects_count": 0, "devlogs_count": 0, "votes_count": 0, "ships_count": 0, "projects": [], "coding_time_seconds": 0, "coding_time_seconds_today": 0, "balance": "You need to have a pocket watcher badge to view this.", "badges": [], "created_at": "2025-07-21T15:57:40.453-04:00", "updated_at": "2025-07-22T03:29:53.424-04:00", "avatar": "https://secure.gravatar.com/avatar/d2fce0d06cc0a1520f602f9a020ea603.jpg?s=512&d=https%3A%2F%2Fa.slack-edge.com%2Fdf10d%2Fimg%2Favatars%2Fava_0015-512.png", "custom_css": null}, {"id": 16614, "slack_id": "U096CMNC355", "display_name": "udeesha rukshan", "bio": null, "projects_count": 0, "devlogs_count": 0, "votes_count": 0, "ships_count": 0, "projects": [], "coding_time_seconds": 0, "coding_time_seconds_today": 0, "balance": "You need to have a pocket watcher badge to view this.", "badges": [], "created_at": "2025-07-21T15:57:59.361-04:00", "updated_at": "2025-07-22T03:29:53.524-04:00", "avatar": "https://secure.gravatar.com/avatar/b1419159390f38c76f32bc21101d9d60.jpg?s=512&d=https%3A%2F%2Fa.slack-edge.com%2Fdf10d%2Fimg%2Favatars%2Fava_0019-512.png", "custom_css": null}, {"id": 16615, "slack_id": "U096QBXH2NS", "display_name": "Vic", "bio": null, "projects_count": 1, "devlogs_count": 0, "votes_count": 0, "ships_count": 0, "projects": [{"id": 7720, "title": "Simple RPG Game", "devlogs_count": 0, "created_at": "2025-07-22T17:36:01.994-04:00"}], "coding_time_seconds": 617, "coding_time_seconds_today": 0, "balance": "You need to have a pocket watcher badge to view this.", "badges": [], "created_at": "2025-07-21T15:57:59.839-04:00", "updated_at": "2025-07-22T17:37:41.921-04:00", "avatar": "https://secure.gravatar.com/avatar/eeb94b91dfba1f2fb41d7a21fcce1a35.jpg?s=512&d=https%3A%2F%2Fa.slack-edge.com%2Fdf10d%2Fimg%2Favatars%2Fava_0004-512.png", "custom_css": null}, {"id": 16616, "slack_id": "U096RH0RKAR", "display_name": "Jason Fanger", "bio": null, "projects_count": 0, "devlogs_count": 0, "votes_count": 0, "ships_count": 0, "projects": [], "coding_time_seconds": 0, "coding_time_seconds_today": 0, "balance": "You need to have a pocket watcher badge to view this.", "badges": [], "created_at": "2025-07-21T15:58:03.492-04:00", "updated_at": "2025-07-22T03:29:53.695-04:00", "avatar": "https://secure.gravatar.com/avatar/2668d5a0ad98cc8d95ac821f3970b218.jpg?s=512&d=https%3A%2F%2Fa.slack-edge.com%2Fdf10d%2Fimg%2Favatars%2Fava_0019-512.png", "custom_css": null}, {"id": 16617, "slack_id": "U097FVB2SDN", "display_name": "Andre Gomes", "bio": null, "projects_count": 0, "devlogs_count": 0, "votes_count": 0, "ships_count": 0, "projects": [], "coding_time_seconds": 0, "coding_time_seconds_today": 0, "balance": "You need to have a pocket watcher badge to view this.", "badges": [], "created_at": "2025-07-21T15:58:28.943-04:00", "updated_at": "2025-07-22T03:29:53.788-04:00", "avatar": "https://secure.gravatar.com/avatar/01d38b15f5c628b2c0fd96e308c5b153.jpg?s=512&d=https%3A%2F%2Fa.slack-edge.com%2Fdf10d%2Fimg%2Favatars%2Fava_0018-512.png", "custom_css": null}, {"id": 16618, "slack_id": "U096TF4K04A", "display_name": "Izwel", "bio": null, "projects_count": 0, "devlogs_count": 0, "votes_count": 1, "ships_count": 0, "projects": [], "coding_time_seconds": 166, "coding_time_seconds_today": 0, "balance": "You need to have a pocket watcher badge to view this.", "badges": [], "created_at": "2025-07-21T15:59:01.495-04:00", "updated_at": "2025-07-22T03:29:53.872-04:00", "avatar": "https://secure.gravatar.com/avatar/0d99421f91b310f6053218fa5ec371f0.jpg?s=512&d=https%3A%2F%2Fa.slack-edge.com%2Fdf10d%2Fimg%2Favatars%2Fava_0009-512.png", "custom_css": null}, {"id": 16619, "slack_id": "U096RGQPEHK", "display_name": "MClem", "bio": null, "projects_count": 0, "devlogs_count": 0, "votes_count": 0, "ships_count": 0, "projects": [], "coding_time_seconds": 0, "coding_time_seconds_today": 0, "balance": "You need to have a pocket watcher badge to view this.", "badges": [], "created_at": "2025-07-21T15:59:21.347-04:00", "updated_at": "2025-07-22T03:29:53.968-04:00", "avatar": "https://secure.gravatar.com/avatar/59a3df5b709c2e460189960e36b4d45a.jpg?s=512&d=https%3A%2F%2Fa.slack-edge.com%2Fdf10d%2Fimg%2Favatars%2Fava_0016-512.png", "custom_css": null}, {"id": 16620, "slack_id": "U096RH0PD2R", "display_name": "Christopher Pettersen", "bio": null, "projects_count": 0, "devlogs_count": 0, "votes_count": 0, "ships_count": 0, "projects": [], "coding_time_seconds": 0, "coding_time_seconds_today": 0, "balance": "You need to have a pocket watcher badge to view this.", "badges": [], "created_at": "2025-07-21T16:00:51.211-04:00", "updated_at": "2025-07-22T03:29:54.105-04:00", "avatar": "https://avatars.slack-edge.com/2025-07-21/9228453103062_c6b6d466d84d21bfba2d_original.jpg", "custom_css": null}, {"id": 16621, "slack_id": "U096UMESKD2", "display_name": "SHRIMONK", "bio": null, "projects_count": 0, "devlogs_count": 0, "votes_count": 0, "ships_count": 0, "projects": [], "coding_time_seconds": 0, "coding_time_seconds_today": 0, "balance": "You need to have a pocket watcher badge to view this.", "badges": [], "created_at": "2025-07-21T16:01:23.844-04:00", "updated_at": "2025-07-22T03:29:54.190-04:00", "avatar": "https://secure.gravatar.com/avatar/095d508cf0cdd0682aee0a9dd3cff052.jpg?s=512&d=https%3A%2F%2Fa.slack-edge.com%2Fdf10d%2Fimg%2Favatars%2Fava_0024-512.png", "custom_css": null}, {"id": 16622, "slack_id": "U096CHKVBGF", "display_name": "Jimmy", "bio": null, "projects_count": 0, "devlogs_count": 0, "votes_count": 0, "ships_count": 0, "projects": [], "coding_time_seconds": 20659, "coding_time_seconds_today": 0, "balance": "You need to have a pocket watcher badge to view this.", "badges": [], "created_at": "2025-07-21T16:01:34.924-04:00", "updated_at": "2025-08-28T13:00:35.998-04:00", "avatar": "https://secure.gravatar.com/avatar/962236164bf026e623dfc6bd2213277b.jpg?s=512&d=https%3A%2F%2Fa.slack-edge.com%2Fdf10d%2Fimg%2Favatars%2Fava_0017-512.png", "custom_css": null}, {"id": 16623, "slack_id": "U096TF9DVL2", "display_name": "Cate", "bio": null, "projects_count": 1, "devlogs_count": 1, "votes_count": 0, "ships_count": 0, "projects": [{"id": 7761, "title": "Photography Portfolio", "devlogs_count": 1, "created_at": "2025-07-22T22:37:40.303-04:00"}], "coding_time_seconds": 2363, "coding_time_seconds_today": 0, "balance": "You need to have a pocket watcher badge to view this.", "badges": [], "created_at": "2025-07-21T16:01:45.445-04:00", "updated_at": "2025-07-22T22:27:07.514-04:00", "avatar": "https://secure.gravatar.com/avatar/48077cc8c182dbdb15f0981d585bd6d0.jpg?s=512&d=https%3A%2F%2Fa.slack-edge.com%2Fdf10d%2Fimg%2Favatars%2Fava_0019-512.png", "custom_css": null}, {"id": 16624, "slack_id": "U096RGRDYE9", "display_name": "Ronasca", "bio": null, "projects_count": 0, "devlogs_count": 0, "votes_count": 0, "ships_count": 0, "projects": [], "coding_time_seconds": 0, "coding_time_seconds_today": 0, "balance": "You need to have a pocket watcher badge to view this.", "badges": [], "created_at": "2025-07-21T16:02:07.168-04:00", "updated_at": "2025-07-22T03:29:54.444-04:00", "avatar": "https://secure.gravatar.com/avatar/7f51e37737eb7836ce6ba0d7a0b6b55c.jpg?s=512&d=https%3A%2F%2Fa.slack-edge.com%2Fdf10d%2Fimg%2Favatars%2Fava_0014-512.png", "custom_css": null}, {"id": 16625, "slack_id": "U096RJ3PSTX", "display_name": "Kugesan Sivasothynathan", "bio": null, "projects_count": 0, "devlogs_count": 0, "votes_count": 0, "ships_count": 0, "projects": [], "coding_time_seconds": 0, "coding_time_seconds_today": 0, "balance": "You need to have a pocket watcher badge to view this.", "badges": [], "created_at": "2025-07-21T16:02:10.827-04:00", "updated_at": "2025-07-22T03:29:54.529-04:00", "avatar": "https://avatars.slack-edge.com/2025-07-21/9231558255106_9137f27284f897e49963_original.png", "custom_css": null}], "pagination": {"page": 827, "pages": 1192, "count": 23828, "items": 20}}