{"users": [{"id": 16646, "slack_id": "U097G1BS88Y", "display_name": "Rodrigo", "bio": null, "projects_count": 0, "devlogs_count": 0, "votes_count": 0, "ships_count": 0, "projects": [], "coding_time_seconds": 0, "coding_time_seconds_today": 0, "balance": "You need to have a pocket watcher badge to view this.", "badges": [], "created_at": "2025-07-21T16:07:49.399-04:00", "updated_at": "2025-07-22T13:16:48.501-04:00", "avatar": "https://secure.gravatar.com/avatar/6fefda6a9f0195cdfb90396137a534bc.jpg?s=512&d=https%3A%2F%2Fa.slack-edge.com%2Fdf10d%2Fimg%2Favatars%2Fava_0008-512.png", "custom_css": null}, {"id": 16647, "slack_id": "U096CPNKA4F", "display_name": "kadaveru sreehitha", "bio": null, "projects_count": 0, "devlogs_count": 0, "votes_count": 0, "ships_count": 0, "projects": [], "coding_time_seconds": 0, "coding_time_seconds_today": 0, "balance": "You need to have a pocket watcher badge to view this.", "badges": [], "created_at": "2025-07-21T16:07:54.974-04:00", "updated_at": "2025-07-22T03:30:00.504-04:00", "avatar": "https://avatars.slack-edge.com/2025-07-21/9216821000775_113294c97d7ab8209838_original.png", "custom_css": null}, {"id": 16648, "slack_id": "U0976QGU9RP", "display_name": "Hermes Cortes", "bio": null, "projects_count": 0, "devlogs_count": 0, "votes_count": 0, "ships_count": 0, "projects": [], "coding_time_seconds": 0, "coding_time_seconds_today": 0, "balance": "You need to have a pocket watcher badge to view this.", "badges": [], "created_at": "2025-07-21T16:08:21.622-04:00", "updated_at": "2025-07-22T03:30:00.618-04:00", "avatar": "https://secure.gravatar.com/avatar/9c43a1519072193ca305aa324c2729b6.jpg?s=512&d=https%3A%2F%2Fa.slack-edge.com%2Fdf10d%2Fimg%2Favatars%2Fava_0025-512.png", "custom_css": null}, {"id": 16649, "slack_id": "U096UP4M3RA", "display_name": "Bryan C\u00f3rdova \u00d1ahui", "bio": null, "projects_count": 0, "devlogs_count": 0, "votes_count": 0, "ships_count": 0, "projects": [], "coding_time_seconds": 0, "coding_time_seconds_today": 0, "balance": "You need to have a pocket watcher badge to view this.", "badges": [], "created_at": "2025-07-21T16:08:24.626-04:00", "updated_at": "2025-07-22T03:30:00.718-04:00", "avatar": "https://secure.gravatar.com/avatar/cc55f9f241f098fe521c5b23f987bfdf.jpg?s=512&d=https%3A%2F%2Fa.slack-edge.com%2Fdf10d%2Fimg%2Favatars%2Fava_0011-512.png", "custom_css": null}, {"id": 16650, "slack_id": "U096UP670S0", "display_name": "Ben Binkert", "bio": null, "projects_count": 0, "devlogs_count": 0, "votes_count": 0, "ships_count": 0, "projects": [], "coding_time_seconds": 0, "coding_time_seconds_today": 0, "balance": "You need to have a pocket watcher badge to view this.", "badges": [], "created_at": "2025-07-21T16:08:35.432-04:00", "updated_at": "2025-07-22T03:30:00.800-04:00", "avatar": "https://secure.gravatar.com/avatar/104406ed2306ee721cf34dc08905ad1f.jpg?s=512&d=https%3A%2F%2Fa.slack-edge.com%2Fdf10d%2Fimg%2Favatars%2Fava_0015-512.png", "custom_css": null}, {"id": 16651, "slack_id": "U096RK9ULRK", "display_name": "Marc", "bio": null, "projects_count": 0, "devlogs_count": 0, "votes_count": 0, "ships_count": 0, "projects": [], "coding_time_seconds": 0, "coding_time_seconds_today": 0, "balance": "You need to have a pocket watcher badge to view this.", "badges": [], "created_at": "2025-07-21T16:08:39.082-04:00", "updated_at": "2025-07-22T03:30:04.951-04:00", "avatar": "https://secure.gravatar.com/avatar/2f59d09cb374250f402054f4128cd78c.jpg?s=512&d=https%3A%2F%2Fa.slack-edge.com%2Fdf10d%2Fimg%2Favatars%2Fava_0005-512.png", "custom_css": null}, {"id": 16652, "slack_id": "U097G1KBV4Y", "display_name": "Aayush Arya", "bio": null, "projects_count": 1, "devlogs_count": 2, "votes_count": 1, "ships_count": 1, "projects": [{"id": 7540, "title": "Lifeer App", "devlogs_count": 2, "created_at": "2025-07-22T04:06:06.502-04:00"}], "coding_time_seconds": 13948, "coding_time_seconds_today": 0, "balance": "You need to have a pocket watcher badge to view this.", "badges": [], "created_at": "2025-07-21T16:08:42.640-04:00", "updated_at": "2025-07-22T11:34:00.251-04:00", "avatar": "https://secure.gravatar.com/avatar/b6ab702e7003714a352aba6c6ae8155c.jpg?s=512&d=https%3A%2F%2Fa.slack-edge.com%2Fdf10d%2Fimg%2Favatars%2Fava_0004-512.png", "custom_css": null}, {"id": 16653, "slack_id": "U096RKAGUBF", "display_name": "Mukesh Kumar", "bio": null, "projects_count": 0, "devlogs_count": 0, "votes_count": 0, "ships_count": 0, "projects": [], "coding_time_seconds": 0, "coding_time_seconds_today": 0, "balance": "You need to have a pocket watcher badge to view this.", "badges": [], "created_at": "2025-07-21T16:08:58.716-04:00", "updated_at": "2025-07-22T03:30:05.144-04:00", "avatar": "https://secure.gravatar.com/avatar/49f312bf8f5a7cbd4b3da3fde3118e38.jpg?s=512&d=https%3A%2F%2Fa.slack-edge.com%2Fdf10d%2Fimg%2Favatars%2Fava_0016-512.png", "custom_css": null}, {"id": 16654, "slack_id": "U096RKEAC5B", "display_name": "Ethan Skowronski", "bio": null, "projects_count": 0, "devlogs_count": 0, "votes_count": 0, "ships_count": 0, "projects": [], "coding_time_seconds": 20690, "coding_time_seconds_today": 0, "balance": "You need to have a pocket watcher badge to view this.", "badges": [], "created_at": "2025-07-21T16:09:02.326-04:00", "updated_at": "2025-07-22T03:30:05.242-04:00", "avatar": "https://secure.gravatar.com/avatar/751adb070dcb38762b7bdc804821fc8a.jpg?s=512&d=https%3A%2F%2Fa.slack-edge.com%2Fdf10d%2Fimg%2Favatars%2Fava_0020-512.png", "custom_css": null}, {"id": 16655, "slack_id": "U097G1K6KHN", "display_name": "Philip", "bio": null, "projects_count": 0, "devlogs_count": 0, "votes_count": 0, "ships_count": 0, "projects": [], "coding_time_seconds": 0, "coding_time_seconds_today": 0, "balance": "You need to have a pocket watcher badge to view this.", "badges": [], "created_at": "2025-07-21T16:09:06.267-04:00", "updated_at": "2025-07-22T03:30:05.355-04:00", "avatar": "https://secure.gravatar.com/avatar/3e6ba5c767c315caf6be8ca7e5ac03ce.jpg?s=512&d=https%3A%2F%2Fa.slack-edge.com%2Fdf10d%2Fimg%2Favatars%2Fava_0013-512.png", "custom_css": null}, {"id": 16656, "slack_id": "U0976QJRXSM", "display_name": "Yani", "bio": null, "projects_count": 0, "devlogs_count": 0, "votes_count": 0, "ships_count": 0, "projects": [], "coding_time_seconds": 0, "coding_time_seconds_today": 0, "balance": "You need to have a pocket watcher badge to view this.", "badges": [], "created_at": "2025-07-21T16:09:12.881-04:00", "updated_at": "2025-07-22T03:30:05.503-04:00", "avatar": "https://secure.gravatar.com/avatar/6002ab6f31bbed9f32dc8d44a65670b3.jpg?s=512&d=https%3A%2F%2Fa.slack-edge.com%2Fdf10d%2Fimg%2Favatars%2Fava_0004-512.png", "custom_css": null}, {"id": 16657, "slack_id": "U097G1FQBUG", "display_name": "Manason272", "bio": null, "projects_count": 1, "devlogs_count": 1, "votes_count": 0, "ships_count": 0, "projects": [{"id": 7852, "title": "404: Cards Not Found", "devlogs_count": 1, "created_at": "2025-07-23T09:44:29.352-04:00"}], "coding_time_seconds": 3874, "coding_time_seconds_today": 0, "balance": "You need to have a pocket watcher badge to view this.", "badges": [], "created_at": "2025-07-21T16:09:28.732-04:00", "updated_at": "2025-08-08T12:55:57.218-04:00", "avatar": "https://secure.gravatar.com/avatar/51077c5bd5c2cdc27515b32363f2c2a8.jpg?s=512&d=https%3A%2F%2Fa.slack-edge.com%2Fdf10d%2Fimg%2Favatars%2Fava_0013-512.png", "custom_css": null}, {"id": 16658, "slack_id": "U096N7WHPGB", "display_name": "Levon Fischer", "bio": "", "projects_count": 0, "devlogs_count": 0, "votes_count": 0, "ships_count": 0, "projects": [], "coding_time_seconds": 0, "coding_time_seconds_today": 0, "balance": "You need to have a pocket watcher badge to view this.", "badges": [], "created_at": "2025-07-21T16:09:56.790-04:00", "updated_at": "2025-07-22T03:30:05.684-04:00", "avatar": "https://avatars.slack-edge.com/2025-07-21/9226316157267_fa95d4983459bfb02725_original.jpg", "custom_css": null}, {"id": 16659, "slack_id": "U096N8VC80K", "display_name": "Guhan", "bio": null, "projects_count": 0, "devlogs_count": 0, "votes_count": 0, "ships_count": 0, "projects": [], "coding_time_seconds": 0, "coding_time_seconds_today": 0, "balance": "You need to have a pocket watcher badge to view this.", "badges": [], "created_at": "2025-07-21T16:10:36.056-04:00", "updated_at": "2025-07-22T03:30:05.767-04:00", "avatar": "https://secure.gravatar.com/avatar/97baef7208b35dfe613f3fcbd798e3bb.jpg?s=512&d=https%3A%2F%2Fa.slack-edge.com%2Fdf10d%2Fimg%2Favatars%2Fava_0003-512.png", "custom_css": null}, {"id": 16660, "slack_id": "U096UE2GM1S", "display_name": "Ken", "bio": null, "projects_count": 0, "devlogs_count": 0, "votes_count": 0, "ships_count": 0, "projects": [], "coding_time_seconds": 0, "coding_time_seconds_today": 0, "balance": "You need to have a pocket watcher badge to view this.", "badges": [], "created_at": "2025-07-21T16:10:38.049-04:00", "updated_at": "2025-07-22T03:30:05.845-04:00", "avatar": "https://secure.gravatar.com/avatar/96445768e58421b6a64cfcce0c9e88f4.jpg?s=512&d=https%3A%2F%2Fa.slack-edge.com%2Fdf10d%2Fimg%2Favatars%2Fava_0004-512.png", "custom_css": null}, {"id": 16661, "slack_id": "U097G114YGG", "display_name": "Rishank", "bio": null, "projects_count": 0, "devlogs_count": 0, "votes_count": 0, "ships_count": 0, "projects": [], "coding_time_seconds": 26319, "coding_time_seconds_today": 0, "balance": "You need to have a pocket watcher badge to view this.", "badges": [], "created_at": "2025-07-21T16:10:43.208-04:00", "updated_at": "2025-08-10T14:40:07.769-04:00", "avatar": "https://secure.gravatar.com/avatar/79b0433548a1aba4019ca3d760a322e7.jpg?s=512&d=https%3A%2F%2Fa.slack-edge.com%2Fdf10d%2Fimg%2Favatars%2Fava_0026-512.png", "custom_css": null}, {"id": 16662, "slack_id": "U096TGA10SE", "display_name": "Mikhail", "bio": null, "projects_count": 2, "devlogs_count": 1, "votes_count": 3, "ships_count": 1, "projects": [{"id": 7846, "title": "Crooms Bell Schedule", "devlogs_count": 1, "created_at": "2025-07-23T09:02:42.559-04:00"}, {"id": 8086, "title": "SecuritySystem", "devlogs_count": 0, "created_at": "2025-07-24T13:25:40.784-04:00"}], "coding_time_seconds": 37913, "coding_time_seconds_today": 0, "balance": "You need to have a pocket watcher badge to view this.", "badges": [], "created_at": "2025-07-21T16:10:44.556-04:00", "updated_at": "2025-07-25T14:11:18.779-04:00", "avatar": "https://avatars.slack-edge.com/2025-07-23/9241348253957_59b82e61c0d7b199ddf4_original.png", "custom_css": null}, {"id": 16663, "slack_id": "U0976PE8CDP", "display_name": "Oussama Errouji", "bio": null, "projects_count": 0, "devlogs_count": 0, "votes_count": 0, "ships_count": 0, "projects": [], "coding_time_seconds": 0, "coding_time_seconds_today": 0, "balance": "You need to have a pocket watcher badge to view this.", "badges": [], "created_at": "2025-07-21T16:10:49.170-04:00", "updated_at": "2025-07-22T03:30:06.112-04:00", "avatar": "https://secure.gravatar.com/avatar/08666dddc489e4dc304b1e2cf8dcb3e8.jpg?s=512&d=https%3A%2F%2Fa.slack-edge.com%2Fdf10d%2Fimg%2Favatars%2Fava_0020-512.png", "custom_css": null}, {"id": 16664, "slack_id": "U097G1Y4XJ4", "display_name": "Ar Jay Marigondon", "bio": null, "projects_count": 0, "devlogs_count": 0, "votes_count": 0, "ships_count": 0, "projects": [], "coding_time_seconds": 0, "coding_time_seconds_today": 0, "balance": "You need to have a pocket watcher badge to view this.", "badges": [], "created_at": "2025-07-21T16:11:07.938-04:00", "updated_at": "2025-07-22T03:30:06.200-04:00", "avatar": "https://avatars.slack-edge.com/2025-07-21/9228505979910_54ec3e5d8dd7c35a75e1_original.jpg", "custom_css": null}, {"id": 16665, "slack_id": "U096RHT4213", "display_name": "Biaa", "bio": null, "projects_count": 0, "devlogs_count": 0, "votes_count": 0, "ships_count": 0, "projects": [], "coding_time_seconds": 0, "coding_time_seconds_today": 0, "balance": "You need to have a pocket watcher badge to view this.", "badges": [], "created_at": "2025-07-21T16:11:49.348-04:00", "updated_at": "2025-07-22T03:30:06.280-04:00", "avatar": "https://secure.gravatar.com/avatar/f56a36807df86f8f36706cd0a4790151.jpg?s=512&d=https%3A%2F%2Fa.slack-edge.com%2Fdf10d%2Fimg%2Favatars%2Fava_0013-512.png", "custom_css": null}], "pagination": {"page": 829, "pages": 1192, "count": 23828, "items": 20}}