{"users": [{"id": 1641, "slack_id": "U091GNHMSE7", "display_name": "Iqra", "bio": null, "projects_count": 0, "devlogs_count": 0, "votes_count": 0, "ships_count": 0, "projects": [], "coding_time_seconds": 0, "coding_time_seconds_today": 0, "balance": "You need to have a pocket watcher badge to view this.", "badges": [], "created_at": "2025-06-16T13:40:10.659-04:00", "updated_at": "2025-07-03T19:18:34.200-04:00", "avatar": "https://secure.gravatar.com/avatar/9de49ea2f5a8db73985dc02f499feb44.jpg?s=512&d=https%3A%2F%2Fa.slack-edge.com%2Fdf10d%2Fimg%2Favatars%2Fava_0008-512.png", "custom_css": null}, {"id": 1642, "slack_id": "U091GNK42CB", "display_name": "SunnyFlops", "bio": "silly goober extravaganza", "projects_count": 3, "devlogs_count": 9, "votes_count": 1, "ships_count": 0, "projects": [{"id": 262, "title": "LiScan RL", "devlogs_count": 6, "created_at": "2025-06-16T16:33:38.445-04:00"}, {"id": 6479, "title": "VolUtil", "devlogs_count": 1, "created_at": "2025-07-13T18:11:11.320-04:00"}, {"id": 6022, "title": "BoardMic", "devlogs_count": 2, "created_at": "2025-07-10T02:58:47.552-04:00"}], "coding_time_seconds": 45870, "coding_time_seconds_today": 0, "balance": "You need to have a pocket watcher badge to view this.", "badges": [], "created_at": "2025-06-16T13:40:20.993-04:00", "updated_at": "2025-08-17T16:10:49.602-04:00", "avatar": "https://avatars.slack-edge.com/2025-06-17/9057445720341_858f7f9c0aee1dfedec9_original.png", "custom_css": null}, {"id": 1643, "slack_id": "U0918C3ST9V", "display_name": "Damien Clauzel", "bio": null, "projects_count": 0, "devlogs_count": 0, "votes_count": 0, "ships_count": 0, "projects": [], "coding_time_seconds": 0, "coding_time_seconds_today": 0, "balance": "You need to have a pocket watcher badge to view this.", "badges": [], "created_at": "2025-06-16T13:40:35.936-04:00", "updated_at": "2025-07-03T19:18:34.735-04:00", "avatar": "https://secure.gravatar.com/avatar/fd1bef5234fc75931b12a2fd19bbe0dc.jpg?s=512&d=https%3A%2F%2Fa.slack-edge.com%2Fdf10d%2Fimg%2Favatars%2Fava_0004-512.png", "custom_css": null}, {"id": 1644, "slack_id": "U079EQY9X1D", "display_name": "Irtaza", "bio": "", "projects_count": 6, "devlogs_count": 32, "votes_count": 68, "ships_count": 4, "projects": [{"id": 762, "title": "Arena", "devlogs_count": 9, "created_at": "2025-06-17T07:40:12.061-04:00"}, {"id": 6619, "title": "Spyn", "devlogs_count": 0, "created_at": "2025-07-14T15:07:32.077-04:00"}, {"id": 13085, "title": "Just a Real Nice Pond", "devlogs_count": 7, "created_at": "2025-09-08T09:37:26.818-04:00"}, {"id": 13664, "title": "Sports Brackets Manager", "devlogs_count": 1, "created_at": "2025-09-22T10:01:35.425-04:00"}, {"id": 1295, "title": "Adobe WakaTime", "devlogs_count": 10, "created_at": "2025-06-18T06:40:38.008-04:00"}, {"id": 7125, "title": "Hack Club Stickers Manager", "devlogs_count": 5, "created_at": "2025-07-19T08:53:05.383-04:00"}], "coding_time_seconds": 165985, "coding_time_seconds_today": 0, "balance": "You need to have a pocket watcher badge to view this.", "badges": [{"name": "Maiden Voyage", "text": "you shipped your first project! the journey begins...", "icon": "\ud83d\udea2"}], "created_at": "2025-06-16T13:40:37.064-04:00", "updated_at": "2025-09-10T22:51:57.997-04:00", "avatar": "https://avatars.slack-edge.com/2024-09-06/7712925628192_b06f6a3e27bee2a5d86c_original.jpg", "custom_css": null}, {"id": 1645, "slack_id": "U05468GUS7J", "display_name": "phaedra", "bio": null, "projects_count": 2, "devlogs_count": 3, "votes_count": 6, "ships_count": 0, "projects": [{"id": 236, "title": "sidus - find time together", "devlogs_count": 1, "created_at": "2025-06-16T16:04:29.808-04:00"}, {"id": 6666, "title": "reqres", "devlogs_count": 2, "created_at": "2025-07-14T23:38:18.146-04:00"}], "coding_time_seconds": 186411, "coding_time_seconds_today": 0, "balance": "You need to have a pocket watcher badge to view this.", "badges": [], "created_at": "2025-06-16T13:40:53.121-04:00", "updated_at": "2025-09-06T02:04:45.747-04:00", "avatar": "https://avatars.slack-edge.com/2025-09-06/9471983580742_c390ce4587ce364df41d_original.png", "custom_css": null}, {"id": 1646, "slack_id": "U08RVA9N47L", "display_name": "Toitsu", "bio": "nuh uh", "projects_count": 2, "devlogs_count": 9, "votes_count": 40, "ships_count": 1, "projects": [{"id": 11336, "title": "Device Dashboard", "devlogs_count": 8, "created_at": "2025-08-15T01:38:27.028-04:00"}, {"id": 13072, "title": "Cursed UI", "devlogs_count": 1, "created_at": "2025-09-08T03:58:51.578-04:00"}], "coding_time_seconds": 124023, "coding_time_seconds_today": 912, "balance": "You need to have a pocket watcher badge to view this.", "badges": [{"name": "Maiden Voyage", "text": "you shipped your first project! the journey begins...", "icon": "\ud83d\udea2"}], "created_at": "2025-06-16T13:40:57.589-04:00", "updated_at": "2025-09-10T22:51:58.045-04:00", "avatar": "https://secure.gravatar.com/avatar/8b295f58fd177d2f5382e6b94d349d3a.jpg?s=512&d=https%3A%2F%2Fa.slack-edge.com%2Fdf10d%2Fimg%2Favatars%2Fava_0011-512.png", "custom_css": null}, {"id": 1647, "slack_id": "U091GRR3NNS", "display_name": "Rochelle Li", "bio": null, "projects_count": 2, "devlogs_count": 0, "votes_count": 0, "ships_count": 0, "projects": [{"id": 119, "title": "Grocery App - Backend", "devlogs_count": 0, "created_at": "2025-06-16T14:03:32.806-04:00"}, {"id": 122, "title": "Grocery App - Frontend", "devlogs_count": 0, "created_at": "2025-06-16T14:05:03.397-04:00"}], "coding_time_seconds": 54187, "coding_time_seconds_today": 0, "balance": "You need to have a pocket watcher badge to view this.", "badges": [], "created_at": "2025-06-16T13:41:07.735-04:00", "updated_at": "2025-07-03T19:18:35.819-04:00", "avatar": "https://avatars.slack-edge.com/2025-06-16/9057743426930_8058f12ea54872e26734_original.jpg", "custom_css": null}, {"id": 1648, "slack_id": "U091GRMLFCN", "display_name": "Shoyeb", "bio": null, "projects_count": 0, "devlogs_count": 0, "votes_count": 0, "ships_count": 0, "projects": [], "coding_time_seconds": 0, "coding_time_seconds_today": 0, "balance": "You need to have a pocket watcher badge to view this.", "badges": [], "created_at": "2025-06-16T13:41:12.356-04:00", "updated_at": "2025-07-03T19:18:36.088-04:00", "avatar": "https://secure.gravatar.com/avatar/d0c9113a307e040eb8c5b70f4873a91a.jpg?s=512&d=https%3A%2F%2Fa.slack-edge.com%2Fdf10d%2Fimg%2Favatars%2Fava_0018-512.png", "custom_css": null}, {"id": 1649, "slack_id": "U092C4M8VFA", "display_name": "NOT_A_ROBOT", "bio": "\r\nHey! I'm a 17-year-old space nerd who likes programming in Rust.\r\n\r\nYou can find my GitHub profile here: https://github.com/Not-A-Normal-Robot\r\n\r\nMy public email is just my GitHub username with underscores instead of hyphens, in the domain \"protonmail DOT com\".", "projects_count": 2, "devlogs_count": 80, "votes_count": 25, "ships_count": 2, "projects": [{"id": 7480, "title": "Video Previewer", "devlogs_count": 1, "created_at": "2025-07-21T23:37:17.039-04:00"}, {"id": 632, "title": "Keplerian Orbit Simulator", "devlogs_count": 79, "created_at": "2025-06-17T03:34:41.539-04:00"}], "coding_time_seconds": 742021, "coding_time_seconds_today": 8197, "balance": "You need to have a pocket watcher badge to view this.", "badges": [{"name": "Maiden Voyage", "text": "you shipped your first project! the journey begins...", "icon": "\ud83d\udea2"}, {"name": "Yapper I", "text": "Posted 10 comments on devlogs.", "icon": "\ud83d\udcac"}], "created_at": "2025-06-16T13:41:17.695-04:00", "updated_at": "2025-09-20T07:58:48.535-04:00", "avatar": "https://avatars.slack-edge.com/2025-06-17/9070519575761_258342fcfbe54ed1f4c7_original.png", "custom_css": null}, {"id": 1650, "slack_id": "U07FD8TCTGB", "display_name": "Stefan", "bio": null, "projects_count": 1, "devlogs_count": 1, "votes_count": 0, "ships_count": 0, "projects": [{"id": 5407, "title": "Instant Chess", "devlogs_count": 1, "created_at": "2025-07-05T04:30:01.200-04:00"}], "coding_time_seconds": 69807, "coding_time_seconds_today": 0, "balance": "You need to have a pocket watcher badge to view this.", "badges": [], "created_at": "2025-06-16T13:41:29.207-04:00", "updated_at": "2025-07-03T19:18:36.622-04:00", "avatar": "https://avatars.slack-edge.com/2024-08-03/7536079428897_27d553b9b0ed40ff5667_original.png", "custom_css": null}, {"id": 1651, "slack_id": "U092261RWV7", "display_name": "Teresa", "bio": "Hi, I am Teresa and haven't been really coding in ages. I am using this SoM to get back into it and make a Website for my DnD Campaign!!", "projects_count": 1, "devlogs_count": 3, "votes_count": 7, "ships_count": 0, "projects": [{"id": 175, "title": "Website for my DnD Campaign", "devlogs_count": 3, "created_at": "2025-06-16T14:58:29.824-04:00"}], "coding_time_seconds": 14648, "coding_time_seconds_today": 0, "balance": "You need to have a pocket watcher badge to view this.", "badges": [], "created_at": "2025-06-16T13:41:39.415-04:00", "updated_at": "2025-09-09T17:10:30.528-04:00", "avatar": "https://secure.gravatar.com/avatar/38659e19470231d69d88c14731a31b85.jpg?s=512&d=https%3A%2F%2Fa.slack-edge.com%2Fdf10d%2Fimg%2Favatars%2Fava_0010-512.png", "custom_css": null}, {"id": 1652, "slack_id": "U091Q3TGSS0", "display_name": "Ivole32", "bio": "I'm a young coder from Germany. I'm in 9th grade and currently enjoying my summer break. ", "projects_count": 8, "devlogs_count": 99, "votes_count": 131, "ships_count": 5, "projects": [{"id": 1395, "title": "Remote Workflow", "devlogs_count": 29, "created_at": "2025-06-18T13:30:56.696-04:00"}, {"id": 3543, "title": "Gambling Simulator", "devlogs_count": 19, "created_at": "2025-06-24T16:07:02.285-04:00"}, {"id": 6606, "title": "Status Monitor", "devlogs_count": 3, "created_at": "2025-07-14T13:49:25.445-04:00"}, {"id": 6747, "title": "PC-Info", "devlogs_count": 6, "created_at": "2025-07-15T18:38:24.204-04:00"}, {"id": 6822, "title": "Requirement Loader", "devlogs_count": 12, "created_at": "2025-07-16T15:41:31.961-04:00"}, {"id": 5189, "title": "Linux API", "devlogs_count": 13, "created_at": "2025-07-03T17:03:39.418-04:00"}, {"id": 2344, "title": "System Monitor", "devlogs_count": 14, "created_at": "2025-06-20T18:36:51.253-04:00"}, {"id": 2120, "title": "UserScripts", "devlogs_count": 3, "created_at": "2025-06-20T07:24:46.804-04:00"}], "coding_time_seconds": 339129, "coding_time_seconds_today": 0, "balance": "You need to have a pocket watcher badge to view this.", "badges": [{"name": "Maiden Voyage", "text": "you shipped your first project! the journey begins...", "icon": "\ud83d\udea2"}, {"name": "Ballot Stuffer", "text": "vote 100 times.", "icon": "https://summer.hackclub.com/assets/i_voted-bf851b48.png"}], "created_at": "2025-06-16T13:41:39.726-04:00", "updated_at": "2025-09-10T22:51:58.209-04:00", "avatar": "https://secure.gravatar.com/avatar/11d7b3c191b07f983f7a0eeea1d358fd.jpg?s=512&d=https%3A%2F%2Fa.slack-edge.com%2Fdf10d%2Fimg%2Favatars%2Fava_0023-512.png", "custom_css": null}, {"id": 1653, "slack_id": "U091PM5B1LJ", "display_name": "Shehmeer", "bio": null, "projects_count": 0, "devlogs_count": 0, "votes_count": 0, "ships_count": 0, "projects": [], "coding_time_seconds": 0, "coding_time_seconds_today": 0, "balance": "You need to have a pocket watcher badge to view this.", "badges": [], "created_at": "2025-06-16T13:41:39.909-04:00", "updated_at": "2025-07-03T19:18:37.440-04:00", "avatar": "https://secure.gravatar.com/avatar/7ea95426fdf67a8c965c6e3420890c7f.jpg?s=512&d=https%3A%2F%2Fa.slack-edge.com%2Fdf10d%2Fimg%2Favatars%2Fava_0020-512.png", "custom_css": null}, {"id": 1654, "slack_id": "U091GNLMTJ7", "display_name": "zibago", "bio": null, "projects_count": 0, "devlogs_count": 0, "votes_count": 0, "ships_count": 0, "projects": [], "coding_time_seconds": 0, "coding_time_seconds_today": 0, "balance": "You need to have a pocket watcher badge to view this.", "badges": [], "created_at": "2025-06-16T13:41:51.312-04:00", "updated_at": "2025-07-03T19:18:37.705-04:00", "avatar": "https://secure.gravatar.com/avatar/1abc3bdb0dd42317958a78e56d13cb6b.jpg?s=512&d=https%3A%2F%2Fa.slack-edge.com%2Fdf10d%2Fimg%2Favatars%2Fava_0010-512.png", "custom_css": null}, {"id": 1655, "slack_id": "U091PMC3GE6", "display_name": "Shivam deep", "bio": null, "projects_count": 1, "devlogs_count": 0, "votes_count": 0, "ships_count": 0, "projects": [{"id": 10173, "title": "Python learning files", "devlogs_count": 0, "created_at": "2025-08-04T16:11:27.757-04:00"}], "coding_time_seconds": 112443, "coding_time_seconds_today": 0, "balance": "You need to have a pocket watcher badge to view this.", "badges": [], "created_at": "2025-06-16T13:42:00.987-04:00", "updated_at": "2025-08-17T15:25:07.152-04:00", "avatar": "https://avatars.slack-edge.com/2025-08-02/9294138125044_ce1c99640013dd1a3cbd_original.jpg", "custom_css": null}, {"id": 1656, "slack_id": "U092BM4NC1W", "display_name": "Bistrean Radu", "bio": null, "projects_count": 0, "devlogs_count": 0, "votes_count": 0, "ships_count": 0, "projects": [], "coding_time_seconds": 0, "coding_time_seconds_today": 0, "balance": "You need to have a pocket watcher badge to view this.", "badges": [], "created_at": "2025-06-16T13:42:10.478-04:00", "updated_at": "2025-07-03T19:18:38.333-04:00", "avatar": "https://secure.gravatar.com/avatar/50c20459f1b63e086a09677aa0b50e36.jpg?s=512&d=https%3A%2F%2Fa.slack-edge.com%2Fdf10d%2Fimg%2Favatars%2Fava_0014-512.png", "custom_css": null}, {"id": 1657, "slack_id": "U092BV4L2D6", "display_name": "Kevin", "bio": null, "projects_count": 0, "devlogs_count": 0, "votes_count": 0, "ships_count": 0, "projects": [], "coding_time_seconds": 1390, "coding_time_seconds_today": 0, "balance": "You need to have a pocket watcher badge to view this.", "badges": [], "created_at": "2025-06-16T13:42:19.967-04:00", "updated_at": "2025-07-03T19:18:38.608-04:00", "avatar": "https://secure.gravatar.com/avatar/c6c7c371be50ad36e4baf59fe8ebbe52.jpg?s=512&d=https%3A%2F%2Fa.slack-edge.com%2Fdf10d%2Fimg%2Favatars%2Fava_0023-512.png", "custom_css": null}, {"id": 1658, "slack_id": "U05Q3GJCFL6", "display_name": "smashmaster0045", "bio": "erm erm erm lowk a bit dry", "projects_count": 3, "devlogs_count": 3, "votes_count": 1, "ships_count": 0, "projects": [{"id": 2040, "title": "Pixelhub", "devlogs_count": 0, "created_at": "2025-06-20T01:02:25.766-04:00"}, {"id": 4451, "title": "<i>test project</i>", "devlogs_count": 1, "created_at": "2025-06-30T00:46:53.473-04:00"}, {"id": 6867, "title": "rtmediaproxy", "devlogs_count": 2, "created_at": "2025-07-17T00:54:00.293-04:00"}], "coding_time_seconds": 260060, "coding_time_seconds_today": 0, "balance": "You need to have a pocket watcher badge to view this.", "badges": [], "created_at": "2025-06-16T13:42:41.038-04:00", "updated_at": "2025-07-03T17:40:36.103-04:00", "avatar": "https://avatars.slack-edge.com/2024-10-10/7886651169456_e18f3ab5e08f16b6f73e_original.png", "custom_css": null}, {"id": 1659, "slack_id": "U09228CDG3T", "display_name": "Ritul Singh", "bio": null, "projects_count": 0, "devlogs_count": 0, "votes_count": 0, "ships_count": 0, "projects": [], "coding_time_seconds": 0, "coding_time_seconds_today": 0, "balance": "You need to have a pocket watcher badge to view this.", "badges": [], "created_at": "2025-06-16T13:42:41.407-04:00", "updated_at": "2025-07-03T19:18:39.024-04:00", "avatar": "https://avatars.slack-edge.com/2025-06-16/9058155412404_25bccc307fad8f45b2a2_original.jpg", "custom_css": null}, {"id": 1660, "slack_id": "U092C61CLCQ", "display_name": "Rohit Jayanti", "bio": null, "projects_count": 0, "devlogs_count": 0, "votes_count": 0, "ships_count": 0, "projects": [], "coding_time_seconds": 0, "coding_time_seconds_today": 0, "balance": "You need to have a pocket watcher badge to view this.", "badges": [], "created_at": "2025-06-16T13:42:46.637-04:00", "updated_at": "2025-07-03T19:18:39.285-04:00", "avatar": "https://secure.gravatar.com/avatar/c40629533d9749fd6c69bb37d91ded1d.jpg?s=512&d=https%3A%2F%2Fa.slack-edge.com%2Fdf10d%2Fimg%2Favatars%2Fava_0023-512.png", "custom_css": null}], "pagination": {"page": 83, "pages": 1192, "count": 23828, "items": 20}}