{"users": [{"id": 16686, "slack_id": "U096RLS21UM", "display_name": "Highbrow", "bio": "I'm a passionate data scientist. Wanna know as much as possible", "projects_count": 0, "devlogs_count": 0, "votes_count": 0, "ships_count": 0, "projects": [], "coding_time_seconds": 0, "coding_time_seconds_today": 0, "balance": "You need to have a pocket watcher badge to view this.", "badges": [], "created_at": "2025-07-21T16:18:30.350-04:00", "updated_at": "2025-07-22T03:30:16.246-04:00", "avatar": "https://avatars.slack-edge.com/2025-07-21/9231671517330_3e9ba6f558ba2db8e6f9_original.jpg", "custom_css": null}, {"id": 16687, "slack_id": "U096UQQBKHA", "display_name": "Suraj1324", "bio": null, "projects_count": 0, "devlogs_count": 0, "votes_count": 0, "ships_count": 0, "projects": [], "coding_time_seconds": 0, "coding_time_seconds_today": 0, "balance": "You need to have a pocket watcher badge to view this.", "badges": [], "created_at": "2025-07-21T16:18:57.085-04:00", "updated_at": "2025-07-23T04:24:23.927-04:00", "avatar": "https://secure.gravatar.com/avatar/75ba483d114a78a4be6c2d810aef83ee.jpg?s=512&d=https%3A%2F%2Fa.slack-edge.com%2Fdf10d%2Fimg%2Favatars%2Fava_0009-512.png", "custom_css": null}, {"id": 16688, "slack_id": "U096RLR3T37", "display_name": "Songlin Jiang", "bio": null, "projects_count": 0, "devlogs_count": 0, "votes_count": 0, "ships_count": 0, "projects": [], "coding_time_seconds": 0, "coding_time_seconds_today": 0, "balance": "You need to have a pocket watcher badge to view this.", "badges": [], "created_at": "2025-07-21T16:19:27.118-04:00", "updated_at": "2025-07-22T03:30:20.478-04:00", "avatar": "https://secure.gravatar.com/avatar/a632d19c873f91f18660f1e970ab07cb.jpg?s=512&d=https%3A%2F%2Fa.slack-edge.com%2Fdf10d%2Fimg%2Favatars%2Fava_0022-512.png", "custom_css": null}, {"id": 16689, "slack_id": "U096RLUJKSR", "display_name": "Muhammad Hassan", "bio": null, "projects_count": 0, "devlogs_count": 0, "votes_count": 0, "ships_count": 0, "projects": [], "coding_time_seconds": 0, "coding_time_seconds_today": 0, "balance": "You need to have a pocket watcher badge to view this.", "badges": [], "created_at": "2025-07-21T16:20:01.923-04:00", "updated_at": "2025-07-22T03:30:20.589-04:00", "avatar": "https://secure.gravatar.com/avatar/215d2f4de4a240aa63b2166f39192a72.jpg?s=512&d=https%3A%2F%2Fa.slack-edge.com%2Fdf10d%2Fimg%2Favatars%2Fava_0001-512.png", "custom_css": null}, {"id": 16690, "slack_id": "U0826QLS84A", "display_name": "Kaden", "bio": null, "projects_count": 0, "devlogs_count": 0, "votes_count": 0, "ships_count": 0, "projects": [], "coding_time_seconds": 0, "coding_time_seconds_today": 0, "balance": "You need to have a pocket watcher badge to view this.", "badges": [], "created_at": "2025-07-21T16:20:34.354-04:00", "updated_at": "2025-07-21T18:25:47.092-04:00", "avatar": "https://secure.gravatar.com/avatar/1d3851901db1068ed7905ccd7c7ad539.jpg?s=512&d=https%3A%2F%2Fa.slack-edge.com%2Fdf10d%2Fimg%2Favatars%2Fava_0012-512.png", "custom_css": null}, {"id": 16691, "slack_id": "U097G36SHTJ", "display_name": "Ramesh Kumawat", "bio": null, "projects_count": 0, "devlogs_count": 0, "votes_count": 0, "ships_count": 0, "projects": [], "coding_time_seconds": 21381, "coding_time_seconds_today": 0, "balance": "You need to have a pocket watcher badge to view this.", "badges": [], "created_at": "2025-07-21T16:21:10.213-04:00", "updated_at": "2025-07-22T03:30:20.758-04:00", "avatar": "https://secure.gravatar.com/avatar/6fcf1ea73b8b681a646a1bcb650af3ea.jpg?s=512&d=https%3A%2F%2Fa.slack-edge.com%2Fdf10d%2Fimg%2Favatars%2Fava_0001-512.png", "custom_css": null}, {"id": 16692, "slack_id": "U096RM2571T", "display_name": "elliot", "bio": null, "projects_count": 0, "devlogs_count": 0, "votes_count": 0, "ships_count": 0, "projects": [], "coding_time_seconds": 0, "coding_time_seconds_today": 0, "balance": "You need to have a pocket watcher badge to view this.", "badges": [], "created_at": "2025-07-21T16:21:25.040-04:00", "updated_at": "2025-08-01T16:26:13.676-04:00", "avatar": "https://secure.gravatar.com/avatar/bb86c2cc258520db490ffd508aa82340.jpg?s=512&d=https%3A%2F%2Fa.slack-edge.com%2Fdf10d%2Fimg%2Favatars%2Fava_0022-512.png", "custom_css": null}, {"id": 16693, "slack_id": "U096CRSAFC7", "display_name": "Palash", "bio": null, "projects_count": 0, "devlogs_count": 0, "votes_count": 0, "ships_count": 0, "projects": [], "coding_time_seconds": 1152385, "coding_time_seconds_today": 0, "balance": "You need to have a pocket watcher badge to view this.", "badges": [], "created_at": "2025-07-21T16:21:53.703-04:00", "updated_at": "2025-07-22T03:30:20.949-04:00", "avatar": "https://secure.gravatar.com/avatar/69d68e807f36a80771b6338ce534c45a.jpg?s=512&d=https%3A%2F%2Fa.slack-edge.com%2Fdf10d%2Fimg%2Favatars%2Fava_0014-512.png", "custom_css": null}, {"id": 16694, "slack_id": "U096RKX5YSZ", "display_name": "Harry", "bio": null, "projects_count": 0, "devlogs_count": 0, "votes_count": 0, "ships_count": 0, "projects": [], "coding_time_seconds": 0, "coding_time_seconds_today": 0, "balance": "You need to have a pocket watcher badge to view this.", "badges": [], "created_at": "2025-07-21T16:22:22.301-04:00", "updated_at": "2025-07-22T03:30:21.051-04:00", "avatar": "https://avatars.slack-edge.com/2025-07-21/9216888751671_8d54591020d9d64d223a_original.png", "custom_css": null}, {"id": 16695, "slack_id": "U096CRGQ7U7", "display_name": "Gideon Ngetich", "bio": null, "projects_count": 0, "devlogs_count": 0, "votes_count": 0, "ships_count": 0, "projects": [], "coding_time_seconds": 0, "coding_time_seconds_today": 0, "balance": "You need to have a pocket watcher badge to view this.", "badges": [], "created_at": "2025-07-21T16:22:29.451-04:00", "updated_at": "2025-07-22T03:30:21.133-04:00", "avatar": "https://secure.gravatar.com/avatar/c6ca53bea398bb8b3f9a45b4a4c85aba.jpg?s=512&d=https%3A%2F%2Fa.slack-edge.com%2Fdf10d%2Fimg%2Favatars%2Fava_0000-512.png", "custom_css": null}, {"id": 16696, "slack_id": "U096RM35605", "display_name": "darshan", "bio": null, "projects_count": 0, "devlogs_count": 0, "votes_count": 0, "ships_count": 0, "projects": [], "coding_time_seconds": 0, "coding_time_seconds_today": 0, "balance": "You need to have a pocket watcher badge to view this.", "badges": [], "created_at": "2025-07-21T16:22:55.618-04:00", "updated_at": "2025-07-22T03:30:21.225-04:00", "avatar": "https://secure.gravatar.com/avatar/908e012abf3f510a54a3632ee8e9d16c.jpg?s=512&d=https%3A%2F%2Fa.slack-edge.com%2Fdf10d%2Fimg%2Favatars%2Fava_0019-512.png", "custom_css": null}, {"id": 16697, "slack_id": "U096QG73M3Q", "display_name": "Ethan Allen", "bio": null, "projects_count": 0, "devlogs_count": 0, "votes_count": 0, "ships_count": 0, "projects": [], "coding_time_seconds": 0, "coding_time_seconds_today": 0, "balance": "You need to have a pocket watcher badge to view this.", "badges": [], "created_at": "2025-07-21T16:23:10.422-04:00", "updated_at": "2025-07-22T03:30:21.304-04:00", "avatar": "https://secure.gravatar.com/avatar/6d29a2ce1970ed4f02d03d42535b56bb.jpg?s=512&d=https%3A%2F%2Fa.slack-edge.com%2Fdf10d%2Fimg%2Favatars%2Fava_0006-512.png", "custom_css": null}, {"id": 16698, "slack_id": "U096NASQ04B", "display_name": "arika", "bio": null, "projects_count": 0, "devlogs_count": 0, "votes_count": 0, "ships_count": 0, "projects": [], "coding_time_seconds": 0, "coding_time_seconds_today": 0, "balance": "You need to have a pocket watcher badge to view this.", "badges": [], "created_at": "2025-07-21T16:24:01.351-04:00", "updated_at": "2025-07-22T03:30:21.394-04:00", "avatar": "https://secure.gravatar.com/avatar/b2f5569aaa37f15770996677f9800ec7.jpg?s=512&d=https%3A%2F%2Fa.slack-edge.com%2Fdf10d%2Fimg%2Favatars%2Fava_0018-512.png", "custom_css": null}, {"id": 16699, "slack_id": "U096QG989F0", "display_name": "patroclo", "bio": null, "projects_count": 0, "devlogs_count": 0, "votes_count": 0, "ships_count": 0, "projects": [], "coding_time_seconds": 0, "coding_time_seconds_today": 0, "balance": "You need to have a pocket watcher badge to view this.", "badges": [], "created_at": "2025-07-21T16:24:35.742-04:00", "updated_at": "2025-07-22T03:30:21.521-04:00", "avatar": "https://secure.gravatar.com/avatar/483bbbacd54e1533a3c8d9e82d9cb8b0.jpg?s=512&d=https%3A%2F%2Fa.slack-edge.com%2Fdf10d%2Fimg%2Favatars%2Fava_0008-512.png", "custom_css": null}, {"id": 16700, "slack_id": "U096CRXSYCX", "display_name": "Noah Hester", "bio": null, "projects_count": 0, "devlogs_count": 0, "votes_count": 0, "ships_count": 0, "projects": [], "coding_time_seconds": 0, "coding_time_seconds_today": 0, "balance": "You need to have a pocket watcher badge to view this.", "badges": [], "created_at": "2025-07-21T16:24:59.956-04:00", "updated_at": "2025-07-22T03:30:21.623-04:00", "avatar": "https://avatars.slack-edge.com/2025-07-21/9232888002692_524e071681b402af2c5f_original.jpg", "custom_css": null}, {"id": 16701, "slack_id": "U096RMFMECD", "display_name": "Yusef", "bio": null, "projects_count": 0, "devlogs_count": 0, "votes_count": 0, "ships_count": 0, "projects": [], "coding_time_seconds": 0, "coding_time_seconds_today": 0, "balance": "You need to have a pocket watcher badge to view this.", "badges": [], "created_at": "2025-07-21T16:25:11.181-04:00", "updated_at": "2025-07-22T03:30:21.740-04:00", "avatar": "https://secure.gravatar.com/avatar/d2a558c74605170f23ef1b00dddd5579.jpg?s=512&d=https%3A%2F%2Fa.slack-edge.com%2Fdf10d%2Fimg%2Favatars%2Fava_0015-512.png", "custom_css": null}, {"id": 16702, "slack_id": "U096URV6QLU", "display_name": "Manav Chopra", "bio": null, "projects_count": 0, "devlogs_count": 0, "votes_count": 0, "ships_count": 0, "projects": [], "coding_time_seconds": 0, "coding_time_seconds_today": 0, "balance": "You need to have a pocket watcher badge to view this.", "badges": [], "created_at": "2025-07-21T16:25:33.880-04:00", "updated_at": "2025-07-22T03:30:21.837-04:00", "avatar": "https://avatars.slack-edge.com/2025-07-21/9232889957668_4744918a6ef7f6ecfc0d_original.png", "custom_css": null}, {"id": 16703, "slack_id": "U096CR0KCBH", "display_name": "omiii", "bio": null, "projects_count": 0, "devlogs_count": 0, "votes_count": 0, "ships_count": 0, "projects": [], "coding_time_seconds": 0, "coding_time_seconds_today": 0, "balance": "You need to have a pocket watcher badge to view this.", "badges": [], "created_at": "2025-07-21T16:26:13.874-04:00", "updated_at": "2025-07-22T03:30:25.969-04:00", "avatar": "https://secure.gravatar.com/avatar/c1c658e44c34cfab680e9ee07f2273dd.jpg?s=512&d=https%3A%2F%2Fa.slack-edge.com%2Fdf10d%2Fimg%2Favatars%2Fava_0023-512.png", "custom_css": null}, {"id": 16704, "slack_id": "U0976SY7WHX", "display_name": "Sami Yousef", "bio": null, "projects_count": 0, "devlogs_count": 0, "votes_count": 0, "ships_count": 0, "projects": [], "coding_time_seconds": 0, "coding_time_seconds_today": 0, "balance": "You need to have a pocket watcher badge to view this.", "badges": [], "created_at": "2025-07-21T16:26:48.014-04:00", "updated_at": "2025-07-22T03:30:26.062-04:00", "avatar": "https://secure.gravatar.com/avatar/22f4d5ffd394f5035fbbf3eaa96470c9.jpg?s=512&d=https%3A%2F%2Fa.slack-edge.com%2Fdf10d%2Fimg%2Favatars%2Fava_0013-512.png", "custom_css": null}, {"id": 16705, "slack_id": "U096CSC9YKH", "display_name": "Kenzo Fukuda", "bio": null, "projects_count": 0, "devlogs_count": 0, "votes_count": 0, "ships_count": 0, "projects": [], "coding_time_seconds": 0, "coding_time_seconds_today": 0, "balance": "You need to have a pocket watcher badge to view this.", "badges": [], "created_at": "2025-07-21T16:26:50.703-04:00", "updated_at": "2025-07-22T03:30:26.146-04:00", "avatar": "https://avatars.slack-edge.com/2025-07-21/9216910925143_05a7f42e736e4cd1d45d_original.png", "custom_css": null}], "pagination": {"page": 831, "pages": 1192, "count": 23828, "items": 20}}