{"users": [{"id": 16706, "slack_id": "U096QGLTJMU", "display_name": "AlexCB192", "bio": null, "projects_count": 0, "devlogs_count": 0, "votes_count": 0, "ships_count": 0, "projects": [], "coding_time_seconds": 0, "coding_time_seconds_today": 0, "balance": "You need to have a pocket watcher badge to view this.", "badges": [], "created_at": "2025-07-21T16:27:14.001-04:00", "updated_at": "2025-07-22T03:30:26.222-04:00", "avatar": "https://secure.gravatar.com/avatar/ff1f4b14cb4d6060b81248a483769cec.jpg?s=512&d=https%3A%2F%2Fa.slack-edge.com%2Fdf10d%2Fimg%2Favatars%2Fava_0004-512.png", "custom_css": null}, {"id": 16707, "slack_id": "U096NB7ELPM", "display_name": "Viraj", "bio": null, "projects_count": 1, "devlogs_count": 0, "votes_count": 0, "ships_count": 0, "projects": [{"id": 7419, "title": "Economic Policy Simulator", "devlogs_count": 0, "created_at": "2025-07-21T17:53:06.517-04:00"}], "coding_time_seconds": 105, "coding_time_seconds_today": 0, "balance": "You need to have a pocket watcher badge to view this.", "badges": [], "created_at": "2025-07-21T16:27:16.134-04:00", "updated_at": "2025-07-22T03:30:26.312-04:00", "avatar": "https://secure.gravatar.com/avatar/a008de873d443469e5e25b05474aecc4.jpg?s=512&d=https%3A%2F%2Fa.slack-edge.com%2Fdf10d%2Fimg%2Favatars%2Fava_0003-512.png", "custom_css": null}, {"id": 16708, "slack_id": "U096NBES8E7", "display_name": "Paul Martin Enano", "bio": null, "projects_count": 0, "devlogs_count": 0, "votes_count": 0, "ships_count": 0, "projects": [], "coding_time_seconds": 0, "coding_time_seconds_today": 0, "balance": "You need to have a pocket watcher badge to view this.", "badges": [], "created_at": "2025-07-21T16:28:04.041-04:00", "updated_at": "2025-07-22T03:30:26.401-04:00", "avatar": "https://avatars.slack-edge.com/2025-07-21/9232901087892_ff2623d2bc2ca2d3de5d_original.jpg", "custom_css": null}, {"id": 16709, "slack_id": "U096QGTP9E2", "display_name": "Kirlos Yousef", "bio": null, "projects_count": 0, "devlogs_count": 0, "votes_count": 0, "ships_count": 0, "projects": [], "coding_time_seconds": 0, "coding_time_seconds_today": 0, "balance": "You need to have a pocket watcher badge to view this.", "badges": [], "created_at": "2025-07-21T16:28:53.811-04:00", "updated_at": "2025-07-22T03:30:26.488-04:00", "avatar": "https://secure.gravatar.com/avatar/bf983278d40c41d3db7f0bc7df7e6733.jpg?s=512&d=https%3A%2F%2Fa.slack-edge.com%2Fdf10d%2Fimg%2Favatars%2Fava_0000-512.png", "custom_css": null}, {"id": 16710, "slack_id": "U0976T8RE9F", "display_name": "Pat Forbeck", "bio": null, "projects_count": 0, "devlogs_count": 0, "votes_count": 0, "ships_count": 0, "projects": [], "coding_time_seconds": 0, "coding_time_seconds_today": 0, "balance": "You need to have a pocket watcher badge to view this.", "badges": [], "created_at": "2025-07-21T16:29:08.672-04:00", "updated_at": "2025-07-22T03:30:26.571-04:00", "avatar": "https://avatars.slack-edge.com/2025-07-21/9244939883745_83dffc461a00760d1af8_original.png", "custom_css": null}, {"id": 16711, "slack_id": "U096US466KE", "display_name": "aloha", "bio": null, "projects_count": 0, "devlogs_count": 0, "votes_count": 0, "ships_count": 0, "projects": [], "coding_time_seconds": 0, "coding_time_seconds_today": 0, "balance": "You need to have a pocket watcher badge to view this.", "badges": [], "created_at": "2025-07-21T16:29:15.458-04:00", "updated_at": "2025-07-22T03:30:26.660-04:00", "avatar": "https://secure.gravatar.com/avatar/e15008b41667fa40ca0ffaad4e2f4a88.jpg?s=512&d=https%3A%2F%2Fa.slack-edge.com%2Fdf10d%2Fimg%2Favatars%2Fava_0006-512.png", "custom_css": null}, {"id": 16712, "slack_id": "U096RMXU9L5", "display_name": "wrestler", "bio": null, "projects_count": 0, "devlogs_count": 0, "votes_count": 0, "ships_count": 0, "projects": [], "coding_time_seconds": 0, "coding_time_seconds_today": 0, "balance": "You need to have a pocket watcher badge to view this.", "badges": [], "created_at": "2025-07-21T16:29:25.709-04:00", "updated_at": "2025-08-12T04:36:30.211-04:00", "avatar": "https://secure.gravatar.com/avatar/1737a6a4402b951f38104af58a4ac6cd.jpg?s=512&d=https%3A%2F%2Fa.slack-edge.com%2Fdf10d%2Fimg%2Favatars%2Fava_0026-512.png", "custom_css": null}, {"id": 16713, "slack_id": "U096USARXGC", "display_name": "Ranveer", "bio": null, "projects_count": 1, "devlogs_count": 1, "votes_count": 1, "ships_count": 0, "projects": [{"id": 7767, "title": "SimplyResearch", "devlogs_count": 1, "created_at": "2025-07-22T23:32:54.816-04:00"}], "coding_time_seconds": 69519, "coding_time_seconds_today": 0, "balance": "You need to have a pocket watcher badge to view this.", "badges": [], "created_at": "2025-07-21T16:30:01.966-04:00", "updated_at": "2025-08-26T01:07:14.027-04:00", "avatar": "https://secure.gravatar.com/avatar/6b6853f1d116f7f419e205780f4581f1.jpg?s=512&d=https%3A%2F%2Fa.slack-edge.com%2Fdf10d%2Fimg%2Favatars%2Fava_0006-512.png", "custom_css": null}, {"id": 16714, "slack_id": "U096RN45TD3", "display_name": "Nitchakun Saengrungrueang", "bio": null, "projects_count": 1, "devlogs_count": 0, "votes_count": 0, "ships_count": 0, "projects": [{"id": 10501, "title": "Chem Track", "devlogs_count": 0, "created_at": "2025-08-07T14:37:02.641-04:00"}], "coding_time_seconds": 66470, "coding_time_seconds_today": 0, "balance": "You need to have a pocket watcher badge to view this.", "badges": [], "created_at": "2025-07-21T16:30:56.405-04:00", "updated_at": "2025-08-07T14:35:29.318-04:00", "avatar": "https://secure.gravatar.com/avatar/b399d996eb5e0290e687c0531dd40dbf.jpg?s=512&d=https%3A%2F%2Fa.slack-edge.com%2Fdf10d%2Fimg%2Favatars%2Fava_0021-512.png", "custom_css": null}, {"id": 16715, "slack_id": "U096QHDKVB8", "display_name": "Smile249", "bio": null, "projects_count": 0, "devlogs_count": 0, "votes_count": 0, "ships_count": 0, "projects": [], "coding_time_seconds": 0, "coding_time_seconds_today": 0, "balance": "You need to have a pocket watcher badge to view this.", "badges": [], "created_at": "2025-07-21T16:31:21.035-04:00", "updated_at": "2025-07-22T23:26:01.750-04:00", "avatar": "https://secure.gravatar.com/avatar/1b661458d4a87e073e78745d66f03e35.jpg?s=512&d=https%3A%2F%2Fa.slack-edge.com%2Fdf10d%2Fimg%2Favatars%2Fava_0004-512.png", "custom_css": null}, {"id": 16716, "slack_id": "U096CT37WT1", "display_name": "Iqbal Shah", "bio": null, "projects_count": 0, "devlogs_count": 0, "votes_count": 0, "ships_count": 0, "projects": [], "coding_time_seconds": 0, "coding_time_seconds_today": 0, "balance": "You need to have a pocket watcher badge to view this.", "badges": [], "created_at": "2025-07-21T16:31:46.197-04:00", "updated_at": "2025-07-22T03:30:31.192-04:00", "avatar": "https://secure.gravatar.com/avatar/6d0390d3253aa400e4c9d1b9887fc734.jpg?s=512&d=https%3A%2F%2Fa.slack-edge.com%2Fdf10d%2Fimg%2Favatars%2Fava_0026-512.png", "custom_css": null}, {"id": 16717, "slack_id": "U096USKRGCC", "display_name": "Elliot Flint", "bio": null, "projects_count": 0, "devlogs_count": 0, "votes_count": 0, "ships_count": 0, "projects": [], "coding_time_seconds": 0, "coding_time_seconds_today": 0, "balance": "You need to have a pocket watcher badge to view this.", "badges": [], "created_at": "2025-07-21T16:32:00.249-04:00", "updated_at": "2025-07-22T03:30:31.281-04:00", "avatar": "https://avatars.slack-edge.com/2025-07-21/9232924045684_30bf43c2d6a4b437c705_original.png", "custom_css": null}, {"id": 16718, "slack_id": "U07VA8J0KD2", "display_name": "Clark Walker", "bio": null, "projects_count": 0, "devlogs_count": 0, "votes_count": 0, "ships_count": 0, "projects": [], "coding_time_seconds": 0, "coding_time_seconds_today": 0, "balance": "You need to have a pocket watcher badge to view this.", "badges": [], "created_at": "2025-07-21T16:32:05.524-04:00", "updated_at": "2025-07-22T03:30:35.407-04:00", "avatar": "https://secure.gravatar.com/avatar/189c39e22746eab933defcab7c959d6a.jpg?s=512&d=https%3A%2F%2Fa.slack-edge.com%2Fdf10d%2Fimg%2Favatars%2Fava_0004-512.png", "custom_css": null}, {"id": 16719, "slack_id": "U096QHFVB38", "display_name": "Leon Wang", "bio": null, "projects_count": 0, "devlogs_count": 0, "votes_count": 0, "ships_count": 0, "projects": [], "coding_time_seconds": 18374, "coding_time_seconds_today": 0, "balance": "You need to have a pocket watcher badge to view this.", "badges": [], "created_at": "2025-07-21T16:32:16.356-04:00", "updated_at": "2025-07-22T03:30:35.490-04:00", "avatar": "https://secure.gravatar.com/avatar/bc077c9c76d892d555ad5359e9b19ccb.jpg?s=512&d=https%3A%2F%2Fa.slack-edge.com%2Fdf10d%2Fimg%2Favatars%2Fava_0000-512.png", "custom_css": null}, {"id": 16720, "slack_id": "U097G4U8Z3J", "display_name": "Eugene", "bio": null, "projects_count": 0, "devlogs_count": 0, "votes_count": 0, "ships_count": 0, "projects": [], "coding_time_seconds": 0, "coding_time_seconds_today": 0, "balance": "You need to have a pocket watcher badge to view this.", "badges": [], "created_at": "2025-07-21T16:32:33.998-04:00", "updated_at": "2025-07-22T03:30:35.576-04:00", "avatar": "https://secure.gravatar.com/avatar/6ad4b05fdef225cecd052e818705bd3d.jpg?s=512&d=https%3A%2F%2Fa.slack-edge.com%2Fdf10d%2Fimg%2Favatars%2Fava_0020-512.png", "custom_css": null}, {"id": 16721, "slack_id": "U096TLM3VU2", "display_name": "Vitor Guilherme", "bio": null, "projects_count": 0, "devlogs_count": 0, "votes_count": 0, "ships_count": 0, "projects": [], "coding_time_seconds": 0, "coding_time_seconds_today": 0, "balance": "You need to have a pocket watcher badge to view this.", "badges": [], "created_at": "2025-07-21T16:33:57.157-04:00", "updated_at": "2025-07-22T03:30:35.661-04:00", "avatar": "https://avatars.slack-edge.com/2025-07-21/9232930517876_3817f4e1e556ee34bd08_original.jpg", "custom_css": null}, {"id": 16722, "slack_id": "U096NBRARGT", "display_name": "obiwanobie", "bio": null, "projects_count": 0, "devlogs_count": 0, "votes_count": 0, "ships_count": 0, "projects": [], "coding_time_seconds": 0, "coding_time_seconds_today": 0, "balance": "You need to have a pocket watcher badge to view this.", "badges": [], "created_at": "2025-07-21T16:36:46.185-04:00", "updated_at": "2025-07-22T03:30:35.740-04:00", "avatar": "https://secure.gravatar.com/avatar/cef058d966de52365272c43828154b14.jpg?s=512&d=https%3A%2F%2Fa.slack-edge.com%2Fdf10d%2Fimg%2Favatars%2Fava_0018-512.png", "custom_css": null}, {"id": 16723, "slack_id": "U097G5JEWN4", "display_name": "Austin Sternberg", "bio": null, "projects_count": 0, "devlogs_count": 0, "votes_count": 0, "ships_count": 0, "projects": [], "coding_time_seconds": 0, "coding_time_seconds_today": 0, "balance": "You need to have a pocket watcher badge to view this.", "badges": [], "created_at": "2025-07-21T16:37:04.673-04:00", "updated_at": "2025-07-22T03:30:35.826-04:00", "avatar": "https://avatars.slack-edge.com/2025-07-21/9226444611059_80a7f4f528403ee1689d_original.png", "custom_css": null}, {"id": 16724, "slack_id": "U0976UBLTND", "display_name": "serenitydu", "bio": null, "projects_count": 0, "devlogs_count": 0, "votes_count": 0, "ships_count": 0, "projects": [], "coding_time_seconds": 0, "coding_time_seconds_today": 0, "balance": "You need to have a pocket watcher badge to view this.", "badges": [], "created_at": "2025-07-21T16:37:19.901-04:00", "updated_at": "2025-07-22T03:30:35.915-04:00", "avatar": "https://secure.gravatar.com/avatar/49bb829d11d109a7bdb04e3568f6d72e.jpg?s=512&d=https%3A%2F%2Fa.slack-edge.com%2Fdf10d%2Fimg%2Favatars%2Fava_0010-512.png", "custom_css": null}, {"id": 16725, "slack_id": "U097G5Q1PQ8", "display_name": "Goshanraj Govindaraj", "bio": null, "projects_count": 0, "devlogs_count": 0, "votes_count": 0, "ships_count": 0, "projects": [], "coding_time_seconds": 0, "coding_time_seconds_today": 0, "balance": "You need to have a pocket watcher badge to view this.", "badges": [], "created_at": "2025-07-21T16:37:48.883-04:00", "updated_at": "2025-07-22T03:30:36.011-04:00", "avatar": "https://secure.gravatar.com/avatar/27cc6a2f5923e97dc1026f58c374ddbd.jpg?s=512&d=https%3A%2F%2Fa.slack-edge.com%2Fdf10d%2Fimg%2Favatars%2Fava_0017-512.png", "custom_css": null}], "pagination": {"page": 832, "pages": 1192, "count": 23828, "items": 20}}