{"users": [{"id": 16726, "slack_id": "U096CU4S0MV", "display_name": "B", "bio": null, "projects_count": 0, "devlogs_count": 0, "votes_count": 0, "ships_count": 0, "projects": [], "coding_time_seconds": 0, "coding_time_seconds_today": 0, "balance": "You need to have a pocket watcher badge to view this.", "badges": [], "created_at": "2025-07-21T16:37:50.597-04:00", "updated_at": "2025-07-22T10:04:52.670-04:00", "avatar": "https://avatars.slack-edge.com/2025-07-21/9228636218406_ab3755b2e9a10d979bd2_original.png", "custom_css": null}, {"id": 16727, "slack_id": "U097G5L8HNC", "display_name": "PurpleAFK", "bio": null, "projects_count": 0, "devlogs_count": 0, "votes_count": 0, "ships_count": 0, "projects": [], "coding_time_seconds": 0, "coding_time_seconds_today": 0, "balance": "You need to have a pocket watcher badge to view this.", "badges": [], "created_at": "2025-07-21T16:37:58.016-04:00", "updated_at": "2025-07-22T03:30:36.184-04:00", "avatar": "https://avatars.slack-edge.com/2025-07-21/9254206185680_3cf81eb1d3238a11d295_original.jpg", "custom_css": null}, {"id": 16728, "slack_id": "U096QJ68494", "display_name": "pandeySAN", "bio": null, "projects_count": 0, "devlogs_count": 0, "votes_count": 0, "ships_count": 0, "projects": [], "coding_time_seconds": 0, "coding_time_seconds_today": 0, "balance": "You need to have a pocket watcher badge to view this.", "badges": [], "created_at": "2025-07-21T16:38:05.197-04:00", "updated_at": "2025-07-22T03:30:36.293-04:00", "avatar": "https://secure.gravatar.com/avatar/cc14088b54996e581f881a9bd7209af2.jpg?s=512&d=https%3A%2F%2Fa.slack-edge.com%2Fdf10d%2Fimg%2Favatars%2Fava_0019-512.png", "custom_css": null}, {"id": 16729, "slack_id": "U0976UF615F", "display_name": "Sahil", "bio": null, "projects_count": 0, "devlogs_count": 0, "votes_count": 0, "ships_count": 0, "projects": [], "coding_time_seconds": 0, "coding_time_seconds_today": 0, "balance": "You need to have a pocket watcher badge to view this.", "badges": [], "created_at": "2025-07-21T16:38:11.236-04:00", "updated_at": "2025-07-22T03:30:36.386-04:00", "avatar": "https://secure.gravatar.com/avatar/5387d18b0a813a0f9b03645f61922c6b.jpg?s=512&d=https%3A%2F%2Fa.slack-edge.com%2Fdf10d%2Fimg%2Favatars%2Fava_0012-512.png", "custom_css": null}, {"id": 16730, "slack_id": "U096RN91K7X", "display_name": "Nshuti Shyaka Bruce", "bio": null, "projects_count": 0, "devlogs_count": 0, "votes_count": 0, "ships_count": 0, "projects": [], "coding_time_seconds": 0, "coding_time_seconds_today": 0, "balance": "You need to have a pocket watcher badge to view this.", "badges": [], "created_at": "2025-07-21T16:38:40.109-04:00", "updated_at": "2025-07-22T03:30:36.460-04:00", "avatar": "https://avatars.slack-edge.com/2025-07-21/9232954555188_309c5d8a83d2ee778dd8_original.png", "custom_css": null}, {"id": 16731, "slack_id": "U096UTGNTU4", "display_name": "Maxence CHAIX", "bio": null, "projects_count": 0, "devlogs_count": 0, "votes_count": 0, "ships_count": 0, "projects": [], "coding_time_seconds": 0, "coding_time_seconds_today": 0, "balance": "You need to have a pocket watcher badge to view this.", "badges": [], "created_at": "2025-07-21T16:40:01.936-04:00", "updated_at": "2025-07-22T03:30:40.586-04:00", "avatar": "https://avatars.slack-edge.com/2025-07-21/9232962244772_4bdebbe4cfe8fd914a7a_original.png", "custom_css": null}, {"id": 16732, "slack_id": "U096UTS891A", "display_name": "Francisco Zav", "bio": null, "projects_count": 0, "devlogs_count": 0, "votes_count": 0, "ships_count": 0, "projects": [], "coding_time_seconds": 0, "coding_time_seconds_today": 0, "balance": "You need to have a pocket watcher badge to view this.", "badges": [], "created_at": "2025-07-21T16:40:14.798-04:00", "updated_at": "2025-07-22T03:30:40.674-04:00", "avatar": "https://secure.gravatar.com/avatar/f968bdc701a52a8b24ca80d2485fd439.jpg?s=512&d=https%3A%2F%2Fa.slack-edge.com%2Fdf10d%2Fimg%2Favatars%2Fava_0001-512.png", "custom_css": null}, {"id": 16733, "slack_id": "U096QHUFDL6", "display_name": "Jack Hannon", "bio": null, "projects_count": 0, "devlogs_count": 0, "votes_count": 0, "ships_count": 0, "projects": [], "coding_time_seconds": 17707, "coding_time_seconds_today": 0, "balance": "You need to have a pocket watcher badge to view this.", "badges": [], "created_at": "2025-07-21T16:40:29.780-04:00", "updated_at": "2025-07-23T21:30:29.236-04:00", "avatar": "https://secure.gravatar.com/avatar/9c5303c3f28ca29d6b7f771c997ba3f2.jpg?s=512&d=https%3A%2F%2Fa.slack-edge.com%2Fdf10d%2Fimg%2Favatars%2Fava_0021-512.png", "custom_css": null}, {"id": 16734, "slack_id": "U096CUAUQEB", "display_name": "NicolasAllard", "bio": null, "projects_count": 0, "devlogs_count": 0, "votes_count": 0, "ships_count": 0, "projects": [], "coding_time_seconds": 0, "coding_time_seconds_today": 0, "balance": "You need to have a pocket watcher badge to view this.", "badges": [], "created_at": "2025-07-21T16:40:33.027-04:00", "updated_at": "2025-07-22T03:30:40.842-04:00", "avatar": "https://secure.gravatar.com/avatar/7fff7751a33aa206c2618b90315e1e13.jpg?s=512&d=https%3A%2F%2Fa.slack-edge.com%2Fdf10d%2Fimg%2Favatars%2Fava_0005-512.png", "custom_css": null}, {"id": 16735, "slack_id": "U0976UZ0GAD", "display_name": "Maya Lee", "bio": null, "projects_count": 0, "devlogs_count": 0, "votes_count": 0, "ships_count": 0, "projects": [], "coding_time_seconds": 0, "coding_time_seconds_today": 0, "balance": "You need to have a pocket watcher badge to view this.", "badges": [], "created_at": "2025-07-21T16:41:31.883-04:00", "updated_at": "2025-07-22T03:30:40.934-04:00", "avatar": "https://secure.gravatar.com/avatar/2fcb9f0999430a02f1fd68c4871c9acd.jpg?s=512&d=https%3A%2F%2Fa.slack-edge.com%2Fdf10d%2Fimg%2Favatars%2Fava_0018-512.png", "custom_css": null}, {"id": 16736, "slack_id": "U0976QL45ND", "display_name": "Alvaro", "bio": null, "projects_count": 0, "devlogs_count": 0, "votes_count": 0, "ships_count": 0, "projects": [], "coding_time_seconds": 121129, "coding_time_seconds_today": 0, "balance": "You need to have a pocket watcher badge to view this.", "badges": [], "created_at": "2025-07-21T16:41:47.546-04:00", "updated_at": "2025-08-15T16:15:03.923-04:00", "avatar": "https://secure.gravatar.com/avatar/887063f4e6473689e687e4a35cf6be0b.jpg?s=512&d=https%3A%2F%2Fa.slack-edge.com%2Fdf10d%2Fimg%2Favatars%2Fava_0011-512.png", "custom_css": null}, {"id": 16737, "slack_id": "U097G65UA5N", "display_name": "berlyn gonzales", "bio": null, "projects_count": 0, "devlogs_count": 0, "votes_count": 0, "ships_count": 0, "projects": [], "coding_time_seconds": 0, "coding_time_seconds_today": 0, "balance": "You need to have a pocket watcher badge to view this.", "badges": [], "created_at": "2025-07-21T16:42:20.803-04:00", "updated_at": "2025-07-22T03:30:41.085-04:00", "avatar": "https://secure.gravatar.com/avatar/503a651cd636b23addd332c628a18daa.jpg?s=512&d=https%3A%2F%2Fa.slack-edge.com%2Fdf10d%2Fimg%2Favatars%2Fava_0020-512.png", "custom_css": null}, {"id": 16738, "slack_id": "U097G6D36U8", "display_name": "Michael O.", "bio": null, "projects_count": 1, "devlogs_count": 3, "votes_count": 20, "ships_count": 1, "projects": [{"id": 7695, "title": "goTasks", "devlogs_count": 3, "created_at": "2025-07-22T15:16:59.411-04:00"}], "coding_time_seconds": 43653, "coding_time_seconds_today": 0, "balance": "You need to have a pocket watcher badge to view this.", "badges": [], "created_at": "2025-07-21T16:43:23.279-04:00", "updated_at": "2025-08-20T19:35:45.431-04:00", "avatar": "https://avatars.slack-edge.com/2025-07-21/9232976163508_8df4db1aa6913f67e08c_original.png", "custom_css": null}, {"id": 16739, "slack_id": "U096TMT61TL", "display_name": "Tony Rayo", "bio": null, "projects_count": 0, "devlogs_count": 0, "votes_count": 0, "ships_count": 0, "projects": [], "coding_time_seconds": 0, "coding_time_seconds_today": 0, "balance": "You need to have a pocket watcher badge to view this.", "badges": [], "created_at": "2025-07-21T16:43:24.104-04:00", "updated_at": "2025-07-22T03:30:41.251-04:00", "avatar": "https://secure.gravatar.com/avatar/c3eea6509db87c5967bf55c47319459a.jpg?s=512&d=https%3A%2F%2Fa.slack-edge.com%2Fdf10d%2Fimg%2Favatars%2Fava_0009-512.png", "custom_css": null}, {"id": 16740, "slack_id": "U096UUA45QC", "display_name": "Mahmoud Malek", "bio": null, "projects_count": 0, "devlogs_count": 0, "votes_count": 0, "ships_count": 0, "projects": [], "coding_time_seconds": 75704, "coding_time_seconds_today": 935, "balance": "You need to have a pocket watcher badge to view this.", "badges": [], "created_at": "2025-07-21T16:44:31.523-04:00", "updated_at": "2025-07-22T03:30:41.381-04:00", "avatar": "https://secure.gravatar.com/avatar/7acd2e572e0d6376ad0075fac10f48b6.jpg?s=512&d=https%3A%2F%2Fa.slack-edge.com%2Fdf10d%2Fimg%2Favatars%2Fava_0024-512.png", "custom_css": null}, {"id": 16741, "slack_id": "U096UUG88LU", "display_name": "Emil", "bio": null, "projects_count": 0, "devlogs_count": 0, "votes_count": 0, "ships_count": 0, "projects": [], "coding_time_seconds": 0, "coding_time_seconds_today": 0, "balance": "You need to have a pocket watcher badge to view this.", "badges": [], "created_at": "2025-07-21T16:44:47.286-04:00", "updated_at": "2025-07-22T03:30:41.467-04:00", "avatar": "https://secure.gravatar.com/avatar/56accfa71bac04af8cf055222094c431.jpg?s=512&d=https%3A%2F%2Fa.slack-edge.com%2Fdf10d%2Fimg%2Favatars%2Fava_0016-512.png", "custom_css": null}, {"id": 16742, "slack_id": "U097G6A4YU8", "display_name": "Matas Ambrukaitis", "bio": null, "projects_count": 0, "devlogs_count": 0, "votes_count": 0, "ships_count": 0, "projects": [], "coding_time_seconds": 103, "coding_time_seconds_today": 0, "balance": "You need to have a pocket watcher badge to view this.", "badges": [], "created_at": "2025-07-21T16:45:23.436-04:00", "updated_at": "2025-07-22T03:30:41.596-04:00", "avatar": "https://secure.gravatar.com/avatar/de81c455ab682bd835d8385986de7785.jpg?s=512&d=https%3A%2F%2Fa.slack-edge.com%2Fdf10d%2Fimg%2Favatars%2Fava_0021-512.png", "custom_css": null}, {"id": 16743, "slack_id": "U097707UU1X", "display_name": "Mansab Hashim", "bio": null, "projects_count": 0, "devlogs_count": 0, "votes_count": 0, "ships_count": 0, "projects": [], "coding_time_seconds": 0, "coding_time_seconds_today": 0, "balance": "You need to have a pocket watcher badge to view this.", "badges": [], "created_at": "2025-07-21T16:46:04.025-04:00", "updated_at": "2025-07-23T04:02:01.597-04:00", "avatar": "https://secure.gravatar.com/avatar/e7e23235768c3aa74e771317d7a98f97.jpg?s=512&d=https%3A%2F%2Fa.slack-edge.com%2Fdf10d%2Fimg%2Favatars%2Fava_0019-512.png", "custom_css": null}, {"id": 16744, "slack_id": "U096TN8US6N", "display_name": "Math", "bio": null, "projects_count": 0, "devlogs_count": 0, "votes_count": 0, "ships_count": 0, "projects": [], "coding_time_seconds": 251308, "coding_time_seconds_today": 7116, "balance": "You need to have a pocket watcher badge to view this.", "badges": [], "created_at": "2025-07-21T16:46:55.827-04:00", "updated_at": "2025-07-22T03:30:41.811-04:00", "avatar": "https://secure.gravatar.com/avatar/95bc5f34f81133688905abe1961ed5bd.jpg?s=512&d=https%3A%2F%2Fa.slack-edge.com%2Fdf10d%2Fimg%2Favatars%2Fava_0016-512.png", "custom_css": null}, {"id": 16745, "slack_id": "U096CUY6NR5", "display_name": "Swayam", "bio": null, "projects_count": 0, "devlogs_count": 0, "votes_count": 0, "ships_count": 0, "projects": [], "coding_time_seconds": 0, "coding_time_seconds_today": 0, "balance": "You need to have a pocket watcher badge to view this.", "badges": [], "created_at": "2025-07-21T16:47:09.316-04:00", "updated_at": "2025-07-22T03:30:41.895-04:00", "avatar": "https://secure.gravatar.com/avatar/14e71b3182e87aef89d319679f495a14.jpg?s=512&d=https%3A%2F%2Fa.slack-edge.com%2Fdf10d%2Fimg%2Favatars%2Fava_0001-512.png", "custom_css": null}], "pagination": {"page": 833, "pages": 1192, "count": 23828, "items": 20}}