{"users": [{"id": 16746, "slack_id": "U096UUVD9LL", "display_name": "Shivang", "bio": null, "projects_count": 0, "devlogs_count": 0, "votes_count": 0, "ships_count": 0, "projects": [], "coding_time_seconds": 0, "coding_time_seconds_today": 0, "balance": "You need to have a pocket watcher badge to view this.", "badges": [], "created_at": "2025-07-21T16:47:22.204-04:00", "updated_at": "2025-07-22T03:30:41.982-04:00", "avatar": "https://secure.gravatar.com/avatar/5eb94bf0814c05a337d8cb43edbf7cfd.jpg?s=512&d=https%3A%2F%2Fa.slack-edge.com%2Fdf10d%2Fimg%2Favatars%2Fava_0017-512.png", "custom_css": null}, {"id": 16747, "slack_id": "U096TNC3G2W", "display_name": "Evan MORVAN", "bio": null, "projects_count": 0, "devlogs_count": 0, "votes_count": 0, "ships_count": 0, "projects": [], "coding_time_seconds": 0, "coding_time_seconds_today": 0, "balance": "You need to have a pocket watcher badge to view this.", "badges": [], "created_at": "2025-07-21T16:47:38.138-04:00", "updated_at": "2025-07-22T03:30:42.062-04:00", "avatar": "https://avatars.slack-edge.com/2025-07-21/9217013222935_110b37a188417d88f8b7_original.jpg", "custom_css": null}, {"id": 16748, "slack_id": "U096UUYFX2Q", "display_name": "Ajay", "bio": null, "projects_count": 0, "devlogs_count": 0, "votes_count": 0, "ships_count": 0, "projects": [], "coding_time_seconds": 0, "coding_time_seconds_today": 0, "balance": "You need to have a pocket watcher badge to view this.", "badges": [], "created_at": "2025-07-21T16:47:59.661-04:00", "updated_at": "2025-07-22T03:30:42.145-04:00", "avatar": "https://secure.gravatar.com/avatar/8bf575e7b3abdc6311e3c6f47f4bbc5c.jpg?s=512&d=https%3A%2F%2Fa.slack-edge.com%2Fdf10d%2Fimg%2Favatars%2Fava_0012-512.png", "custom_css": null}, {"id": 16749, "slack_id": "U096CVDFK55", "display_name": "Prosper Singadi", "bio": null, "projects_count": 0, "devlogs_count": 0, "votes_count": 0, "ships_count": 0, "projects": [], "coding_time_seconds": 0, "coding_time_seconds_today": 0, "balance": "You need to have a pocket watcher badge to view this.", "badges": [], "created_at": "2025-07-21T16:48:31.094-04:00", "updated_at": "2025-07-22T03:30:46.303-04:00", "avatar": "https://secure.gravatar.com/avatar/0e4967a2a5bbbfbb9078148d88c1c5e9.jpg?s=512&d=https%3A%2F%2Fa.slack-edge.com%2Fdf10d%2Fimg%2Favatars%2Fava_0002-512.png", "custom_css": null}, {"id": 16750, "slack_id": "U096TMF8VCJ", "display_name": "Valdigleis", "bio": null, "projects_count": 0, "devlogs_count": 0, "votes_count": 0, "ships_count": 0, "projects": [], "coding_time_seconds": 0, "coding_time_seconds_today": 0, "balance": "You need to have a pocket watcher badge to view this.", "badges": [], "created_at": "2025-07-21T16:48:41.893-04:00", "updated_at": "2025-07-22T03:30:46.398-04:00", "avatar": "https://avatars.slack-edge.com/2025-07-21/9229855349653_3df7c91d0a117b44ddac_original.jpg", "custom_css": null}, {"id": 16751, "slack_id": "U096RQLSADB", "display_name": "Arjun Hejamadi", "bio": null, "projects_count": 0, "devlogs_count": 0, "votes_count": 0, "ships_count": 0, "projects": [], "coding_time_seconds": 0, "coding_time_seconds_today": 0, "balance": "You need to have a pocket watcher badge to view this.", "badges": [], "created_at": "2025-07-21T16:49:26.197-04:00", "updated_at": "2025-07-22T03:30:50.556-04:00", "avatar": "https://secure.gravatar.com/avatar/944f9fa40dc818bfe832556e9bdba245.jpg?s=512&d=https%3A%2F%2Fa.slack-edge.com%2Fdf10d%2Fimg%2Favatars%2Fava_0024-512.png", "custom_css": null}, {"id": 16752, "slack_id": "U096D081RFZ", "display_name": "Prakhar chhalotre", "bio": null, "projects_count": 0, "devlogs_count": 0, "votes_count": 0, "ships_count": 0, "projects": [], "coding_time_seconds": 242, "coding_time_seconds_today": 0, "balance": "You need to have a pocket watcher badge to view this.", "badges": [], "created_at": "2025-07-21T16:49:29.411-04:00", "updated_at": "2025-07-22T03:30:50.643-04:00", "avatar": "https://avatars.slack-edge.com/2025-07-21/9254256346704_6b6a7d7d30477777dbd5_original.png", "custom_css": null}, {"id": 16753, "slack_id": "U097G6Y27C0", "display_name": "Sceptre", "bio": null, "projects_count": 0, "devlogs_count": 0, "votes_count": 0, "ships_count": 0, "projects": [], "coding_time_seconds": 0, "coding_time_seconds_today": 0, "balance": "You need to have a pocket watcher badge to view this.", "badges": [], "created_at": "2025-07-21T16:49:37.793-04:00", "updated_at": "2025-07-22T03:30:50.739-04:00", "avatar": "https://secure.gravatar.com/avatar/06acc3ee7dabe889f3f1a924e7bf2fc3.jpg?s=512&d=https%3A%2F%2Fa.slack-edge.com%2Fdf10d%2Fimg%2Favatars%2Fava_0024-512.png", "custom_css": null}, {"id": 16754, "slack_id": "U097G77NNC8", "display_name": "OlivierL", "bio": null, "projects_count": 0, "devlogs_count": 0, "votes_count": 0, "ships_count": 0, "projects": [], "coding_time_seconds": 0, "coding_time_seconds_today": 0, "balance": "You need to have a pocket watcher badge to view this.", "badges": [], "created_at": "2025-07-21T16:49:50.437-04:00", "updated_at": "2025-07-22T04:42:50.397-04:00", "avatar": "https://secure.gravatar.com/avatar/0e223de09c22d57d8a035494e30bf90c.jpg?s=512&d=https%3A%2F%2Fa.slack-edge.com%2Fdf10d%2Fimg%2Favatars%2Fava_0025-512.png", "custom_css": null}, {"id": 16755, "slack_id": "U096D0BA7PH", "display_name": "Cael", "bio": null, "projects_count": 0, "devlogs_count": 0, "votes_count": 0, "ships_count": 0, "projects": [], "coding_time_seconds": 0, "coding_time_seconds_today": 0, "balance": "You need to have a pocket watcher badge to view this.", "badges": [], "created_at": "2025-07-21T16:50:11.778-04:00", "updated_at": "2025-07-23T22:17:24.560-04:00", "avatar": "https://secure.gravatar.com/avatar/8743e8bdf646a3dbda2b2699f5622c5f.jpg?s=512&d=https%3A%2F%2Fa.slack-edge.com%2Fdf10d%2Fimg%2Favatars%2Fava_0012-512.png", "custom_css": null}, {"id": 16756, "slack_id": "U097G5SF9JL", "display_name": "Momo", "bio": null, "projects_count": 0, "devlogs_count": 0, "votes_count": 0, "ships_count": 0, "projects": [], "coding_time_seconds": 0, "coding_time_seconds_today": 0, "balance": "You need to have a pocket watcher badge to view this.", "badges": [], "created_at": "2025-07-21T16:50:27.328-04:00", "updated_at": "2025-07-22T03:30:51.027-04:00", "avatar": "https://secure.gravatar.com/avatar/9e84fbf6935fc8ff8d3a665c45d68905.jpg?s=512&d=https%3A%2F%2Fa.slack-edge.com%2Fdf10d%2Fimg%2Favatars%2Fava_0017-512.png", "custom_css": null}, {"id": 16757, "slack_id": "U096N2XV8TV", "display_name": "Ajay Aravanan", "bio": null, "projects_count": 0, "devlogs_count": 0, "votes_count": 0, "ships_count": 0, "projects": [], "coding_time_seconds": 60264, "coding_time_seconds_today": 0, "balance": "You need to have a pocket watcher badge to view this.", "badges": [], "created_at": "2025-07-21T16:50:36.396-04:00", "updated_at": "2025-07-22T03:30:51.106-04:00", "avatar": "https://secure.gravatar.com/avatar/c695026c7b98c55fac8b8aab12bb1c8d.jpg?s=512&d=https%3A%2F%2Fa.slack-edge.com%2Fdf10d%2Fimg%2Favatars%2Fava_0024-512.png", "custom_css": null}, {"id": 16758, "slack_id": "U096QKUULLW", "display_name": "Mannu", "bio": null, "projects_count": 0, "devlogs_count": 0, "votes_count": 0, "ships_count": 0, "projects": [], "coding_time_seconds": 30220, "coding_time_seconds_today": 0, "balance": "You need to have a pocket watcher badge to view this.", "badges": [], "created_at": "2025-07-21T16:51:43.536-04:00", "updated_at": "2025-07-22T23:46:01.789-04:00", "avatar": "https://secure.gravatar.com/avatar/486a815f53134a534af707db44d04b78.jpg?s=512&d=https%3A%2F%2Fa.slack-edge.com%2Fdf10d%2Fimg%2Favatars%2Fava_0008-512.png", "custom_css": null}, {"id": 16759, "slack_id": "U096RNVB3KP", "display_name": "Jack Berstalk", "bio": null, "projects_count": 0, "devlogs_count": 0, "votes_count": 0, "ships_count": 0, "projects": [], "coding_time_seconds": 0, "coding_time_seconds_today": 0, "balance": "You need to have a pocket watcher badge to view this.", "badges": [], "created_at": "2025-07-21T16:51:45.278-04:00", "updated_at": "2025-07-22T03:30:51.281-04:00", "avatar": "https://secure.gravatar.com/avatar/3db9a05a35cd4fcc8a84c08b79a4c3e4.jpg?s=512&d=https%3A%2F%2Fa.slack-edge.com%2Fdf10d%2Fimg%2Favatars%2Fava_0020-512.png", "custom_css": null}, {"id": 16760, "slack_id": "U096QL814Q6", "display_name": "Arno Raath", "bio": null, "projects_count": 0, "devlogs_count": 0, "votes_count": 0, "ships_count": 0, "projects": [], "coding_time_seconds": 0, "coding_time_seconds_today": 0, "balance": "You need to have a pocket watcher badge to view this.", "badges": [], "created_at": "2025-07-21T16:52:23.483-04:00", "updated_at": "2025-07-22T03:30:51.355-04:00", "avatar": "https://secure.gravatar.com/avatar/11117c0a583ecf65781f03c066415799.jpg?s=512&d=https%3A%2F%2Fa.slack-edge.com%2Fdf10d%2Fimg%2Favatars%2Fava_0023-512.png", "custom_css": null}, {"id": 16761, "slack_id": "U09770YED5X", "display_name": "Pseudodice", "bio": null, "projects_count": 0, "devlogs_count": 0, "votes_count": 0, "ships_count": 0, "projects": [], "coding_time_seconds": 0, "coding_time_seconds_today": 0, "balance": "You need to have a pocket watcher badge to view this.", "badges": [], "created_at": "2025-07-21T16:52:40.383-04:00", "updated_at": "2025-07-22T03:30:51.463-04:00", "avatar": "https://secure.gravatar.com/avatar/db2c44e774c611b36c9353b4a150bba9.jpg?s=512&d=https%3A%2F%2Fa.slack-edge.com%2Fdf10d%2Fimg%2Favatars%2Fava_0015-512.png", "custom_css": null}, {"id": 16762, "slack_id": "U096NERK51R", "display_name": "Anshul", "bio": null, "projects_count": 0, "devlogs_count": 0, "votes_count": 0, "ships_count": 0, "projects": [], "coding_time_seconds": 55168, "coding_time_seconds_today": 0, "balance": "You need to have a pocket watcher badge to view this.", "badges": [], "created_at": "2025-07-21T16:53:11.715-04:00", "updated_at": "2025-07-22T10:50:17.743-04:00", "avatar": "https://secure.gravatar.com/avatar/5facbde5ae5c684f17d6137017379cec.jpg?s=512&d=https%3A%2F%2Fa.slack-edge.com%2Fdf10d%2Fimg%2Favatars%2Fava_0008-512.png", "custom_css": null}, {"id": 16763, "slack_id": "U097G7NMUQG", "display_name": "SHAIN ANDREI SAHAGUN", "bio": null, "projects_count": 0, "devlogs_count": 0, "votes_count": 0, "ships_count": 0, "projects": [], "coding_time_seconds": 0, "coding_time_seconds_today": 0, "balance": "You need to have a pocket watcher badge to view this.", "badges": [], "created_at": "2025-07-21T16:53:43.176-04:00", "updated_at": "2025-07-22T03:30:55.662-04:00", "avatar": "https://avatars.slack-edge.com/2025-07-21/9217040935543_ddc7480ab50b95c85484_original.png", "custom_css": null}, {"id": 16764, "slack_id": "U096TP8U0CS", "display_name": "Divyanshu Garg", "bio": null, "projects_count": 0, "devlogs_count": 0, "votes_count": 0, "ships_count": 0, "projects": [], "coding_time_seconds": 0, "coding_time_seconds_today": 0, "balance": "You need to have a pocket watcher badge to view this.", "badges": [], "created_at": "2025-07-21T16:54:55.290-04:00", "updated_at": "2025-07-22T03:30:55.740-04:00", "avatar": "https://secure.gravatar.com/avatar/8ab02f1ceaeb6f5fcf5467726a22d0c7.jpg?s=512&d=https%3A%2F%2Fa.slack-edge.com%2Fdf10d%2Fimg%2Favatars%2Fava_0009-512.png", "custom_css": null}, {"id": 16765, "slack_id": "U097FQXUF3J", "display_name": "Margareth", "bio": null, "projects_count": 0, "devlogs_count": 0, "votes_count": 0, "ships_count": 0, "projects": [], "coding_time_seconds": 0, "coding_time_seconds_today": 0, "balance": "You need to have a pocket watcher badge to view this.", "badges": [], "created_at": "2025-07-21T16:54:57.590-04:00", "updated_at": "2025-07-22T03:30:55.813-04:00", "avatar": "https://secure.gravatar.com/avatar/1c88be6c9aef84e7c1a89ec730c7847c.jpg?s=512&d=https%3A%2F%2Fa.slack-edge.com%2Fdf10d%2Fimg%2Favatars%2Fava_0007-512.png", "custom_css": null}], "pagination": {"page": 834, "pages": 1192, "count": 23828, "items": 20}}