{"users": [{"id": 16766, "slack_id": "U096RKZGUS1", "display_name": "Akinboyewa Iyanuoluwa", "bio": null, "projects_count": 0, "devlogs_count": 0, "votes_count": 0, "ships_count": 0, "projects": [], "coding_time_seconds": 0, "coding_time_seconds_today": 0, "balance": "You need to have a pocket watcher badge to view this.", "badges": [], "created_at": "2025-07-21T16:55:51.681-04:00", "updated_at": "2025-07-22T03:30:55.894-04:00", "avatar": "https://avatars.slack-edge.com/2025-07-21/9254284914176_ec2eba2cc02dfe24d483_original.png", "custom_css": null}, {"id": 16767, "slack_id": "U096RPLKBM3", "display_name": "Dev Mukherjee", "bio": null, "projects_count": 0, "devlogs_count": 0, "votes_count": 0, "ships_count": 0, "projects": [], "coding_time_seconds": 0, "coding_time_seconds_today": 0, "balance": "You need to have a pocket watcher badge to view this.", "badges": [], "created_at": "2025-07-21T16:56:14.202-04:00", "updated_at": "2025-07-22T03:30:55.975-04:00", "avatar": "https://secure.gravatar.com/avatar/5169864b4eea26f04e012f5042c049c7.jpg?s=512&d=https%3A%2F%2Fa.slack-edge.com%2Fdf10d%2Fimg%2Favatars%2Fava_0024-512.png", "custom_css": null}, {"id": 16768, "slack_id": "U096RRGV9CM", "display_name": "Mihaela Chirea", "bio": null, "projects_count": 0, "devlogs_count": 0, "votes_count": 0, "ships_count": 0, "projects": [], "coding_time_seconds": 0, "coding_time_seconds_today": 0, "balance": "You need to have a pocket watcher badge to view this.", "badges": [], "created_at": "2025-07-21T16:56:26.358-04:00", "updated_at": "2025-07-22T03:30:56.089-04:00", "avatar": "https://secure.gravatar.com/avatar/ac61ccb047c41ce5c12e71f789866f78.jpg?s=512&d=https%3A%2F%2Fa.slack-edge.com%2Fdf10d%2Fimg%2Favatars%2Fava_0020-512.png", "custom_css": null}, {"id": 16769, "slack_id": "U096QLVBV0E", "display_name": "Jab11n", "bio": "I'm a 16 year old developer that does developey things.", "projects_count": 2, "devlogs_count": 14, "votes_count": 92, "ships_count": 2, "projects": [{"id": 7461, "title": "Tweetof", "devlogs_count": 6, "created_at": "2025-07-21T21:45:57.350-04:00"}, {"id": 7705, "title": "OpenGuestbook", "devlogs_count": 8, "created_at": "2025-07-22T16:12:20.964-04:00"}], "coding_time_seconds": 104543, "coding_time_seconds_today": 0, "balance": "You need to have a pocket watcher badge to view this.", "badges": [], "created_at": "2025-07-21T16:57:13.315-04:00", "updated_at": "2025-08-30T18:33:41.440-04:00", "avatar": "https://avatars.slack-edge.com/2025-08-08/9315806572711_9977545c2e7119b2e968_original.png", "custom_css": null}, {"id": 16770, "slack_id": "U096NF1V8V9", "display_name": "lewis pitman", "bio": null, "projects_count": 0, "devlogs_count": 0, "votes_count": 0, "ships_count": 0, "projects": [], "coding_time_seconds": 1, "coding_time_seconds_today": 0, "balance": "You need to have a pocket watcher badge to view this.", "badges": [], "created_at": "2025-07-21T16:58:22.050-04:00", "updated_at": "2025-07-22T13:10:48.782-04:00", "avatar": "https://secure.gravatar.com/avatar/9d2432de27913b7fc3c1309987f7037a.jpg?s=512&d=https%3A%2F%2Fa.slack-edge.com%2Fdf10d%2Fimg%2Favatars%2Fava_0018-512.png", "custom_css": null}, {"id": 16771, "slack_id": "U096RKED24D", "display_name": "taak hackaton", "bio": null, "projects_count": 0, "devlogs_count": 0, "votes_count": 0, "ships_count": 0, "projects": [], "coding_time_seconds": 4397, "coding_time_seconds_today": 0, "balance": "You need to have a pocket watcher badge to view this.", "badges": [], "created_at": "2025-07-21T16:58:24.266-04:00", "updated_at": "2025-08-13T05:12:45.554-04:00", "avatar": "https://secure.gravatar.com/avatar/68407e06a5b15fbdd422a1ac56603c63.jpg?s=512&d=https%3A%2F%2Fa.slack-edge.com%2Fdf10d%2Fimg%2Favatars%2Fava_0026-512.png", "custom_css": null}, {"id": 16772, "slack_id": "U0976S9LJAV", "display_name": "Diego Hern\u00e1n Juliani", "bio": null, "projects_count": 0, "devlogs_count": 0, "votes_count": 0, "ships_count": 0, "projects": [], "coding_time_seconds": 0, "coding_time_seconds_today": 0, "balance": "You need to have a pocket watcher badge to view this.", "badges": [], "created_at": "2025-07-21T17:00:32.865-04:00", "updated_at": "2025-07-22T03:31:00.469-04:00", "avatar": "https://avatars.slack-edge.com/2025-07-21/9226553688547_fac61a0c7e6ef0cf11af_original.png", "custom_css": null}, {"id": 16773, "slack_id": "U07UZSRNA67", "display_name": "Andrew Dai", "bio": "16-year-old programmer from Toronto!", "projects_count": 2, "devlogs_count": 4, "votes_count": 16, "ships_count": 2, "projects": [{"id": 10190, "title": "Cullergrader", "devlogs_count": 1, "created_at": "2025-08-04T19:33:01.404-04:00"}, {"id": 10037, "title": "Andrew Dai's Portfolio Website", "devlogs_count": 3, "created_at": "2025-08-03T15:21:47.073-04:00"}], "coding_time_seconds": 346534, "coding_time_seconds_today": 0, "balance": "You need to have a pocket watcher badge to view this.", "badges": [], "created_at": "2025-07-21T17:01:13.373-04:00", "updated_at": "2025-08-07T19:14:28.964-04:00", "avatar": "https://avatars.slack-edge.com/2024-11-05/8008922302576_a559cc487a79debadafb_original.png", "custom_css": null}, {"id": 16774, "slack_id": "U096RRUR5C5", "display_name": "Isaiahtheking", "bio": null, "projects_count": 0, "devlogs_count": 0, "votes_count": 0, "ships_count": 0, "projects": [], "coding_time_seconds": 0, "coding_time_seconds_today": 0, "balance": "You need to have a pocket watcher badge to view this.", "badges": [], "created_at": "2025-07-21T17:01:28.010-04:00", "updated_at": "2025-07-22T03:31:00.648-04:00", "avatar": "https://secure.gravatar.com/avatar/dda3d7dca10eaa3b301f3d020778b3b5.jpg?s=512&d=https%3A%2F%2Fa.slack-edge.com%2Fdf10d%2Fimg%2Favatars%2Fava_0026-512.png", "custom_css": null}, {"id": 16775, "slack_id": "U096RSSUFJR", "display_name": "Conner", "bio": null, "projects_count": 0, "devlogs_count": 0, "votes_count": 0, "ships_count": 0, "projects": [], "coding_time_seconds": 0, "coding_time_seconds_today": 0, "balance": "You need to have a pocket watcher badge to view this.", "badges": [], "created_at": "2025-07-21T17:02:09.959-04:00", "updated_at": "2025-07-22T03:31:00.731-04:00", "avatar": "https://secure.gravatar.com/avatar/09a2f0122772a6b5aced466f5f094f37.jpg?s=512&d=https%3A%2F%2Fa.slack-edge.com%2Fdf10d%2Fimg%2Favatars%2Fava_0011-512.png", "custom_css": null}, {"id": 16776, "slack_id": "U096D28KR2T", "display_name": "Akshit Bhutani", "bio": null, "projects_count": 0, "devlogs_count": 0, "votes_count": 0, "ships_count": 0, "projects": [], "coding_time_seconds": 37084, "coding_time_seconds_today": 0, "balance": "You need to have a pocket watcher badge to view this.", "badges": [], "created_at": "2025-07-21T17:02:15.070-04:00", "updated_at": "2025-07-22T03:31:00.804-04:00", "avatar": "https://secure.gravatar.com/avatar/6575a20ae2d4f9d40826bc49b2c944ef.jpg?s=512&d=https%3A%2F%2Fa.slack-edge.com%2Fdf10d%2Fimg%2Favatars%2Fava_0010-512.png", "custom_css": null}, {"id": 16777, "slack_id": "U096D1KQB3R", "display_name": "Luiz", "bio": null, "projects_count": 0, "devlogs_count": 0, "votes_count": 0, "ships_count": 0, "projects": [], "coding_time_seconds": 0, "coding_time_seconds_today": 0, "balance": "You need to have a pocket watcher badge to view this.", "badges": [], "created_at": "2025-07-21T17:02:36.216-04:00", "updated_at": "2025-07-22T03:31:00.897-04:00", "avatar": "https://secure.gravatar.com/avatar/749adf885bb9128bd4d77b16b336ee20.jpg?s=512&d=https%3A%2F%2Fa.slack-edge.com%2Fdf10d%2Fimg%2Favatars%2Fava_0009-512.png", "custom_css": null}, {"id": 16778, "slack_id": "U096QMUFUP8", "display_name": "Luke Branan", "bio": null, "projects_count": 0, "devlogs_count": 0, "votes_count": 0, "ships_count": 0, "projects": [], "coding_time_seconds": 0, "coding_time_seconds_today": 0, "balance": "You need to have a pocket watcher badge to view this.", "badges": [], "created_at": "2025-07-21T17:02:53.651-04:00", "updated_at": "2025-07-22T03:31:00.987-04:00", "avatar": "https://secure.gravatar.com/avatar/da00c4c09287d30cb6c26c1ca2c4bb7c.jpg?s=512&d=https%3A%2F%2Fa.slack-edge.com%2Fdf10d%2Fimg%2Favatars%2Fava_0005-512.png", "custom_css": null}, {"id": 16779, "slack_id": "U096QMMEUES", "display_name": "melin13", "bio": null, "projects_count": 0, "devlogs_count": 0, "votes_count": 0, "ships_count": 0, "projects": [], "coding_time_seconds": 0, "coding_time_seconds_today": 0, "balance": "You need to have a pocket watcher badge to view this.", "badges": [], "created_at": "2025-07-21T17:03:28.205-04:00", "updated_at": "2025-07-22T03:31:05.114-04:00", "avatar": "https://avatars.slack-edge.com/2025-07-21/9233075337972_f21471c12a22e43f32a5_original.png", "custom_css": null}, {"id": 16780, "slack_id": "U097G97CFHN", "display_name": "trafiiik", "bio": null, "projects_count": 0, "devlogs_count": 0, "votes_count": 0, "ships_count": 0, "projects": [], "coding_time_seconds": 326165, "coding_time_seconds_today": 404, "balance": "You need to have a pocket watcher badge to view this.", "badges": [], "created_at": "2025-07-21T17:04:01.229-04:00", "updated_at": "2025-07-22T03:31:05.193-04:00", "avatar": "https://secure.gravatar.com/avatar/042885a2904b6f1d4ce724e3a694aa1c.jpg?s=512&d=https%3A%2F%2Fa.slack-edge.com%2Fdf10d%2Fimg%2Favatars%2Fava_0024-512.png", "custom_css": null}, {"id": 16781, "slack_id": "U096RT1SKFF", "display_name": "yasmwd", "bio": null, "projects_count": 0, "devlogs_count": 0, "votes_count": 0, "ships_count": 0, "projects": [], "coding_time_seconds": 0, "coding_time_seconds_today": 0, "balance": "You need to have a pocket watcher badge to view this.", "badges": [], "created_at": "2025-07-21T17:05:17.959-04:00", "updated_at": "2025-07-22T03:31:05.274-04:00", "avatar": "https://secure.gravatar.com/avatar/c5845dc88deab1469ede5b2b762bc7ba.jpg?s=512&d=https%3A%2F%2Fa.slack-edge.com%2Fdf10d%2Fimg%2Favatars%2Fava_0024-512.png", "custom_css": null}, {"id": 16782, "slack_id": "U096D1E6Z0X", "display_name": "Mohammed", "bio": null, "projects_count": 0, "devlogs_count": 0, "votes_count": 0, "ships_count": 0, "projects": [], "coding_time_seconds": 0, "coding_time_seconds_today": 0, "balance": "You need to have a pocket watcher badge to view this.", "badges": [], "created_at": "2025-07-21T17:05:28.469-04:00", "updated_at": "2025-07-22T03:31:05.378-04:00", "avatar": "https://secure.gravatar.com/avatar/39863c64e4942ff7afd9aa4af6ac4020.jpg?s=512&d=https%3A%2F%2Fa.slack-edge.com%2Fdf10d%2Fimg%2Favatars%2Fava_0025-512.png", "custom_css": null}, {"id": 16783, "slack_id": "U096RT2Q2DT", "display_name": "Sebastian", "bio": null, "projects_count": 0, "devlogs_count": 0, "votes_count": 0, "ships_count": 0, "projects": [], "coding_time_seconds": 146607, "coding_time_seconds_today": 0, "balance": "You need to have a pocket watcher badge to view this.", "badges": [], "created_at": "2025-07-21T17:06:14.417-04:00", "updated_at": "2025-07-23T00:01:01.702-04:00", "avatar": "https://avatars.slack-edge.com/2025-07-21/9233089020644_75e56f91dd4437d895df_original.jpg", "custom_css": null}, {"id": 16784, "slack_id": "U096V29NRFW", "display_name": "Sanjay Gupta", "bio": null, "projects_count": 0, "devlogs_count": 0, "votes_count": 0, "ships_count": 0, "projects": [], "coding_time_seconds": 0, "coding_time_seconds_today": 0, "balance": "You need to have a pocket watcher badge to view this.", "badges": [], "created_at": "2025-07-21T17:06:52.630-04:00", "updated_at": "2025-07-22T03:31:05.542-04:00", "avatar": "https://secure.gravatar.com/avatar/04122ec2a5c06d9046df59507fcdcba5.jpg?s=512&d=https%3A%2F%2Fa.slack-edge.com%2Fdf10d%2Fimg%2Favatars%2Fava_0017-512.png", "custom_css": null}, {"id": 16785, "slack_id": "U096TR96Y6N", "display_name": "Dhruv G", "bio": null, "projects_count": 0, "devlogs_count": 0, "votes_count": 0, "ships_count": 0, "projects": [], "coding_time_seconds": 0, "coding_time_seconds_today": 0, "balance": "You need to have a pocket watcher badge to view this.", "badges": [], "created_at": "2025-07-21T17:07:18.509-04:00", "updated_at": "2025-07-22T03:31:05.620-04:00", "avatar": "https://secure.gravatar.com/avatar/e2d76daed47a7f3c205b688436e7c23f.jpg?s=512&d=https%3A%2F%2Fa.slack-edge.com%2Fdf10d%2Fimg%2Favatars%2Fava_0003-512.png", "custom_css": null}], "pagination": {"page": 835, "pages": 1192, "count": 23828, "items": 20}}