{"users": [{"id": 16786, "slack_id": "U096QN9QZBQ", "display_name": "gnshb", "bio": null, "projects_count": 0, "devlogs_count": 0, "votes_count": 0, "ships_count": 0, "projects": [], "coding_time_seconds": 0, "coding_time_seconds_today": 0, "balance": "You need to have a pocket watcher badge to view this.", "badges": [], "created_at": "2025-07-21T17:07:18.794-04:00", "updated_at": "2025-07-22T03:31:05.703-04:00", "avatar": "https://secure.gravatar.com/avatar/385e014dfcb446ecd02142661a1ddfa0.jpg?s=512&d=https%3A%2F%2Fa.slack-edge.com%2Fdf10d%2Fimg%2Favatars%2Fava_0005-512.png", "custom_css": null}, {"id": 16787, "slack_id": "U096QNJMSA2", "display_name": "Hamza Ettaki", "bio": null, "projects_count": 0, "devlogs_count": 0, "votes_count": 0, "ships_count": 0, "projects": [], "coding_time_seconds": 0, "coding_time_seconds_today": 0, "balance": "You need to have a pocket watcher badge to view this.", "badges": [], "created_at": "2025-07-21T17:08:34.194-04:00", "updated_at": "2025-07-22T03:31:05.789-04:00", "avatar": "https://avatars.slack-edge.com/2025-07-21/9231876423682_371dccd455fa5d348bdb_original.jpg", "custom_css": null}, {"id": 16788, "slack_id": "U096TMRHNHY", "display_name": "Mert Esendag", "bio": null, "projects_count": 1, "devlogs_count": 0, "votes_count": 1, "ships_count": 0, "projects": [{"id": 7551, "title": "FitnessApp", "devlogs_count": 0, "created_at": "2025-07-22T04:51:53.108-04:00"}], "coding_time_seconds": 4780, "coding_time_seconds_today": 0, "balance": "You need to have a pocket watcher badge to view this.", "badges": [], "created_at": "2025-07-21T17:08:51.588-04:00", "updated_at": "2025-07-22T04:31:25.860-04:00", "avatar": "https://secure.gravatar.com/avatar/da2a256621442e87ee4ada32ecade291.jpg?s=512&d=https%3A%2F%2Fa.slack-edge.com%2Fdf10d%2Fimg%2Favatars%2Fava_0022-512.png", "custom_css": null}, {"id": 16789, "slack_id": "U096NGLTF4K", "display_name": "Lordseriouspig", "bio": null, "projects_count": 2, "devlogs_count": 14, "votes_count": 39, "ships_count": 1, "projects": [{"id": 11096, "title": "Pi24 Monitor Home Assistant Integration", "devlogs_count": 2, "created_at": "2025-08-13T06:44:01.318-04:00"}, {"id": 8280, "title": "Nova Browser", "devlogs_count": 12, "created_at": "2025-07-26T00:13:32.703-04:00"}], "coding_time_seconds": 77990, "coding_time_seconds_today": 0, "balance": "You need to have a pocket watcher badge to view this.", "badges": [], "created_at": "2025-07-21T17:08:51.864-04:00", "updated_at": "2025-08-10T06:12:56.852-04:00", "avatar": "https://avatars.slack-edge.com/2025-08-03/9311717326353_c74908988c852687be47_original.jpg", "custom_css": null}, {"id": 16790, "slack_id": "U096V2KA9RA", "display_name": "Arnav Bista", "bio": null, "projects_count": 0, "devlogs_count": 0, "votes_count": 0, "ships_count": 0, "projects": [], "coding_time_seconds": 66433, "coding_time_seconds_today": 0, "balance": "You need to have a pocket watcher badge to view this.", "badges": [], "created_at": "2025-07-21T17:09:35.846-04:00", "updated_at": "2025-07-22T05:17:45.968-04:00", "avatar": "https://avatars.slack-edge.com/2025-07-21/9233103948804_2f27e223fa21f2e2dc41_original.png", "custom_css": null}, {"id": 16791, "slack_id": "U096NFCJ9MH", "display_name": "Stephen Nwankwo", "bio": null, "projects_count": 0, "devlogs_count": 0, "votes_count": 0, "ships_count": 0, "projects": [], "coding_time_seconds": 0, "coding_time_seconds_today": 0, "balance": "You need to have a pocket watcher badge to view this.", "badges": [], "created_at": "2025-07-21T17:09:50.446-04:00", "updated_at": "2025-07-22T03:31:06.151-04:00", "avatar": "https://secure.gravatar.com/avatar/4d59820df0a7f6de1e86fe6d8fd9de2c.jpg?s=512&d=https%3A%2F%2Fa.slack-edge.com%2Fdf10d%2Fimg%2Favatars%2Fava_0002-512.png", "custom_css": null}, {"id": 16792, "slack_id": "U096D3FS6SK", "display_name": "aj", "bio": null, "projects_count": 0, "devlogs_count": 0, "votes_count": 0, "ships_count": 0, "projects": [], "coding_time_seconds": 4625, "coding_time_seconds_today": 0, "balance": "You need to have a pocket watcher badge to view this.", "badges": [], "created_at": "2025-07-21T17:11:25.710-04:00", "updated_at": "2025-08-18T14:52:01.482-04:00", "avatar": "https://secure.gravatar.com/avatar/4b6ca7b35c7e75dd1a9f81b2a3cdf698.jpg?s=512&d=https%3A%2F%2Fa.slack-edge.com%2Fdf10d%2Fimg%2Favatars%2Fava_0011-512.png", "custom_css": null}, {"id": 16793, "slack_id": "U096QNZAY3G", "display_name": "Artie", "bio": null, "projects_count": 0, "devlogs_count": 0, "votes_count": 0, "ships_count": 0, "projects": [], "coding_time_seconds": 0, "coding_time_seconds_today": 0, "balance": "You need to have a pocket watcher badge to view this.", "badges": [], "created_at": "2025-07-21T17:12:24.812-04:00", "updated_at": "2025-07-22T03:31:10.359-04:00", "avatar": "https://secure.gravatar.com/avatar/cee449e90ecc0d9ef35a4e5d783d4351.jpg?s=512&d=https%3A%2F%2Fa.slack-edge.com%2Fdf10d%2Fimg%2Favatars%2Fava_0004-512.png", "custom_css": null}, {"id": 16794, "slack_id": "U097GAF33KJ", "display_name": "Inventor", "bio": null, "projects_count": 0, "devlogs_count": 0, "votes_count": 0, "ships_count": 0, "projects": [], "coding_time_seconds": 0, "coding_time_seconds_today": 0, "balance": "You need to have a pocket watcher badge to view this.", "badges": [], "created_at": "2025-07-21T17:13:16.620-04:00", "updated_at": "2025-07-22T03:31:10.456-04:00", "avatar": "https://secure.gravatar.com/avatar/3e1c9f1bd2e98d3415e9e8afebcd00b2.jpg?s=512&d=https%3A%2F%2Fa.slack-edge.com%2Fdf10d%2Fimg%2Favatars%2Fava_0013-512.png", "custom_css": null}, {"id": 16795, "slack_id": "U096D0FN5JB", "display_name": "Alanimdeo", "bio": null, "projects_count": 0, "devlogs_count": 0, "votes_count": 0, "ships_count": 0, "projects": [], "coding_time_seconds": 0, "coding_time_seconds_today": 0, "balance": "You need to have a pocket watcher badge to view this.", "badges": [], "created_at": "2025-07-21T17:13:18.976-04:00", "updated_at": "2025-07-22T03:31:10.542-04:00", "avatar": "https://secure.gravatar.com/avatar/37336caccde5b39f92c7aa072057c903.jpg?s=512&d=https%3A%2F%2Fa.slack-edge.com%2Fdf10d%2Fimg%2Favatars%2Fava_0026-512.png", "custom_css": null}, {"id": 16796, "slack_id": "U096QP19MT8", "display_name": "omar ahmed", "bio": null, "projects_count": 1, "devlogs_count": 0, "votes_count": 0, "ships_count": 0, "projects": [{"id": 7412, "title": "Beemo Ecommerce", "devlogs_count": 0, "created_at": "2025-07-21T17:32:43.391-04:00"}], "coding_time_seconds": 215612, "coding_time_seconds_today": 0, "balance": "You need to have a pocket watcher badge to view this.", "badges": [], "created_at": "2025-07-21T17:13:36.020-04:00", "updated_at": "2025-07-22T03:31:10.626-04:00", "avatar": "https://avatars.slack-edge.com/2025-07-21/9231899944194_e1a05816988fd77711cf_original.jpg", "custom_css": null}, {"id": 16797, "slack_id": "U096NAFHBDH", "display_name": "Fyshi M.", "bio": null, "projects_count": 0, "devlogs_count": 0, "votes_count": 0, "ships_count": 0, "projects": [], "coding_time_seconds": 0, "coding_time_seconds_today": 0, "balance": "You need to have a pocket watcher badge to view this.", "badges": [], "created_at": "2025-07-21T17:14:43.274-04:00", "updated_at": "2025-07-23T00:10:01.609-04:00", "avatar": "https://secure.gravatar.com/avatar/cf861a2f819b438ee212cf6f5740725c.jpg?s=512&d=https%3A%2F%2Fa.slack-edge.com%2Fdf10d%2Fimg%2Favatars%2Fava_0022-512.png", "custom_css": null}, {"id": 16798, "slack_id": "U096TAE21EW", "display_name": "Symun Noor", "bio": null, "projects_count": 0, "devlogs_count": 0, "votes_count": 0, "ships_count": 0, "projects": [], "coding_time_seconds": 0, "coding_time_seconds_today": 0, "balance": "You need to have a pocket watcher badge to view this.", "badges": [], "created_at": "2025-07-21T17:14:50.800-04:00", "updated_at": "2025-07-22T03:31:10.791-04:00", "avatar": "https://secure.gravatar.com/avatar/f9208067b68e2ae23841a826405576dc.jpg?s=512&d=https%3A%2F%2Fa.slack-edge.com%2Fdf10d%2Fimg%2Favatars%2Fava_0008-512.png", "custom_css": null}, {"id": 16799, "slack_id": "U097G37BJ56", "display_name": "Ray Hendricks", "bio": null, "projects_count": 0, "devlogs_count": 0, "votes_count": 0, "ships_count": 0, "projects": [], "coding_time_seconds": 0, "coding_time_seconds_today": 0, "balance": "You need to have a pocket watcher badge to view this.", "badges": [], "created_at": "2025-07-21T17:15:12.577-04:00", "updated_at": "2025-07-22T03:31:10.874-04:00", "avatar": "https://avatars.slack-edge.com/2025-07-21/9228807997574_638b034885c3e984b47b_original.png", "custom_css": null}, {"id": 16800, "slack_id": "U096TRT1H2N", "display_name": "Cristian", "bio": null, "projects_count": 0, "devlogs_count": 0, "votes_count": 0, "ships_count": 0, "projects": [], "coding_time_seconds": 0, "coding_time_seconds_today": 0, "balance": "You need to have a pocket watcher badge to view this.", "badges": [], "created_at": "2025-07-21T17:17:16.376-04:00", "updated_at": "2025-07-22T03:31:15.006-04:00", "avatar": "https://secure.gravatar.com/avatar/024507f18b9248e730385057de04c10c.jpg?s=512&d=https%3A%2F%2Fa.slack-edge.com%2Fdf10d%2Fimg%2Favatars%2Fava_0006-512.png", "custom_css": null}, {"id": 16801, "slack_id": "U096D4CHL5V", "display_name": "ShiningVeger", "bio": null, "projects_count": 0, "devlogs_count": 0, "votes_count": 0, "ships_count": 0, "projects": [], "coding_time_seconds": 0, "coding_time_seconds_today": 0, "balance": "You need to have a pocket watcher badge to view this.", "badges": [], "created_at": "2025-07-21T17:18:36.040-04:00", "updated_at": "2025-07-22T03:31:15.092-04:00", "avatar": "https://secure.gravatar.com/avatar/2d5bc17314be02e0b1950a9c76ad0236.jpg?s=512&d=https%3A%2F%2Fa.slack-edge.com%2Fdf10d%2Fimg%2Favatars%2Fava_0014-512.png", "custom_css": null}, {"id": 16802, "slack_id": "U09774CE7DF", "display_name": "Brandon Trieu", "bio": null, "projects_count": 0, "devlogs_count": 0, "votes_count": 0, "ships_count": 0, "projects": [], "coding_time_seconds": 11870, "coding_time_seconds_today": 0, "balance": "You need to have a pocket watcher badge to view this.", "badges": [], "created_at": "2025-07-21T17:19:03.839-04:00", "updated_at": "2025-07-22T03:31:15.192-04:00", "avatar": "https://avatars.slack-edge.com/2025-07-21/9233140467172_bc3eaa93d8201858f6d2_original.png", "custom_css": null}, {"id": 16803, "slack_id": "U096RRKNY4V", "display_name": "Sourabh Soni", "bio": null, "projects_count": 0, "devlogs_count": 0, "votes_count": 0, "ships_count": 0, "projects": [], "coding_time_seconds": 0, "coding_time_seconds_today": 0, "balance": "You need to have a pocket watcher badge to view this.", "badges": [], "created_at": "2025-07-21T17:21:05.221-04:00", "updated_at": "2025-07-22T03:31:15.297-04:00", "avatar": "https://avatars.slack-edge.com/2025-07-21/9231931619554_fa2d7b039fdd443d8b05_original.jpg", "custom_css": null}, {"id": 16804, "slack_id": "U097GBKF9S4", "display_name": "SysError06", "bio": null, "projects_count": 0, "devlogs_count": 0, "votes_count": 0, "ships_count": 0, "projects": [], "coding_time_seconds": 0, "coding_time_seconds_today": 0, "balance": "You need to have a pocket watcher badge to view this.", "badges": [], "created_at": "2025-07-21T17:23:36.335-04:00", "updated_at": "2025-07-22T03:31:15.400-04:00", "avatar": "https://secure.gravatar.com/avatar/7b831b4477c820d3fdff8ba08f70a042.jpg?s=512&d=https%3A%2F%2Fa.slack-edge.com%2Fdf10d%2Fimg%2Favatars%2Fava_0003-512.png", "custom_css": null}, {"id": 16805, "slack_id": "U096S00JY3F", "display_name": "Srikar", "bio": null, "projects_count": 1, "devlogs_count": 1, "votes_count": 2, "ships_count": 0, "projects": [{"id": 11035, "title": "Pomo Timer", "devlogs_count": 1, "created_at": "2025-08-12T14:20:21.591-04:00"}], "coding_time_seconds": 2405, "coding_time_seconds_today": 0, "balance": "You need to have a pocket watcher badge to view this.", "badges": [], "created_at": "2025-07-21T17:24:26.043-04:00", "updated_at": "2025-08-06T12:37:44.223-04:00", "avatar": "https://secure.gravatar.com/avatar/3bea13fbbee07403f936ef9fab790599.jpg?s=512&d=https%3A%2F%2Fa.slack-edge.com%2Fdf10d%2Fimg%2Favatars%2Fava_0005-512.png", "custom_css": null}], "pagination": {"page": 836, "pages": 1192, "count": 23828, "items": 20}}