{"users": [{"id": 16826, "slack_id": "U09777AT0TT", "display_name": "chloe (kai)", "bio": null, "projects_count": 0, "devlogs_count": 0, "votes_count": 0, "ships_count": 0, "projects": [], "coding_time_seconds": 53702, "coding_time_seconds_today": 0, "balance": "You need to have a pocket watcher badge to view this.", "badges": [], "created_at": "2025-07-21T17:46:15.959-04:00", "updated_at": "2025-07-22T12:00:05.425-04:00", "avatar": "https://secure.gravatar.com/avatar/dc816bdfdf340380e910a79b2eae5e29.jpg?s=512&d=https%3A%2F%2Fa.slack-edge.com%2Fdf10d%2Fimg%2Favatars%2Fava_0000-512.png", "custom_css": null}, {"id": 16827, "slack_id": "U096NMGH04B", "display_name": "Dhvan Shah", "bio": null, "projects_count": 1, "devlogs_count": 2, "votes_count": 1, "ships_count": 0, "projects": [{"id": 7626, "title": "BetterAssistant", "devlogs_count": 2, "created_at": "2025-07-22T10:36:19.699-04:00"}], "coding_time_seconds": 119438, "coding_time_seconds_today": 0, "balance": "You need to have a pocket watcher badge to view this.", "badges": [], "created_at": "2025-07-21T17:46:44.239-04:00", "updated_at": "2025-08-13T15:00:50.924-04:00", "avatar": "https://avatars.slack-edge.com/2025-07-21/9232031667586_5f80116f3f3d9b046ffa_original.png", "custom_css": null}, {"id": 16828, "slack_id": "U08Q79PP1S6", "display_name": "Izumi dono", "bio": null, "projects_count": 0, "devlogs_count": 0, "votes_count": 0, "ships_count": 0, "projects": [], "coding_time_seconds": 117616, "coding_time_seconds_today": 0, "balance": "You need to have a pocket watcher badge to view this.", "badges": [], "created_at": "2025-07-21T17:46:45.864-04:00", "updated_at": "2025-07-22T05:11:58.591-04:00", "avatar": "https://avatars.slack-edge.com/2025-05-01/8836431049923_2a9d7aa05ad8ef3cd713_original.jpg", "custom_css": null}, {"id": 16829, "slack_id": "U096D7RPN6B", "display_name": "quackitsquinn", "bio": null, "projects_count": 1, "devlogs_count": 4, "votes_count": 0, "ships_count": 0, "projects": [{"id": 7427, "title": "Novos Kernel: x86_64 Rust-Based Kernel", "devlogs_count": 4, "created_at": "2025-07-21T18:05:40.306-04:00"}], "coding_time_seconds": 204941, "coding_time_seconds_today": 2892, "balance": "You need to have a pocket watcher badge to view this.", "badges": [], "created_at": "2025-07-21T17:48:48.066-04:00", "updated_at": "2025-08-19T21:24:47.540-04:00", "avatar": "https://secure.gravatar.com/avatar/7fc7aceef79bbae9c9eb6ec16ad818e2.jpg?s=512&d=https%3A%2F%2Fa.slack-edge.com%2Fdf10d%2Fimg%2Favatars%2Fava_0020-512.png", "custom_css": null}, {"id": 16830, "slack_id": "U097GECM23S", "display_name": "Glowstick", "bio": null, "projects_count": 0, "devlogs_count": 0, "votes_count": 0, "ships_count": 0, "projects": [], "coding_time_seconds": 0, "coding_time_seconds_today": 0, "balance": "You need to have a pocket watcher badge to view this.", "badges": [], "created_at": "2025-07-21T17:49:02.561-04:00", "updated_at": "2025-07-22T03:31:21.739-04:00", "avatar": "https://secure.gravatar.com/avatar/f8c6c0d04fc483d1c1b0040339c8bde5.jpg?s=512&d=https%3A%2F%2Fa.slack-edge.com%2Fdf10d%2Fimg%2Favatars%2Fava_0007-512.png", "custom_css": null}, {"id": 16831, "slack_id": "U07H9JJRZ16", "display_name": "Sean Choi", "bio": null, "projects_count": 0, "devlogs_count": 0, "votes_count": 0, "ships_count": 0, "projects": [], "coding_time_seconds": 0, "coding_time_seconds_today": 0, "balance": "You need to have a pocket watcher badge to view this.", "badges": [], "created_at": "2025-07-21T17:51:40.338-04:00", "updated_at": "2025-07-22T03:31:21.817-04:00", "avatar": "https://avatars.slack-edge.com/2024-08-12/7587635500304_d91c45a818713ce82b51_original.png", "custom_css": null}, {"id": 16832, "slack_id": "U096QTEBRML", "display_name": "Sandeep", "bio": null, "projects_count": 0, "devlogs_count": 0, "votes_count": 0, "ships_count": 0, "projects": [], "coding_time_seconds": 42318, "coding_time_seconds_today": 0, "balance": "You need to have a pocket watcher badge to view this.", "badges": [], "created_at": "2025-07-21T17:52:06.718-04:00", "updated_at": "2025-07-22T03:31:21.899-04:00", "avatar": "https://secure.gravatar.com/avatar/074157c1707f11c80e7273e0295c3bbc.jpg?s=512&d=https%3A%2F%2Fa.slack-edge.com%2Fdf10d%2Fimg%2Favatars%2Fava_0026-512.png", "custom_css": null}, {"id": 16833, "slack_id": "U096V7LPTNG", "display_name": "Mateo Coerdts", "bio": null, "projects_count": 0, "devlogs_count": 0, "votes_count": 0, "ships_count": 0, "projects": [], "coding_time_seconds": 0, "coding_time_seconds_today": 0, "balance": "You need to have a pocket watcher badge to view this.", "badges": [], "created_at": "2025-07-21T17:52:13.189-04:00", "updated_at": "2025-07-22T03:31:21.989-04:00", "avatar": "https://secure.gravatar.com/avatar/c41f976f15b17deae99d662db87abf5b.jpg?s=512&d=https%3A%2F%2Fa.slack-edge.com%2Fdf10d%2Fimg%2Favatars%2Fava_0007-512.png", "custom_css": null}, {"id": 16834, "slack_id": "U09777VD77B", "display_name": "Victor Waradana", "bio": null, "projects_count": 0, "devlogs_count": 0, "votes_count": 0, "ships_count": 0, "projects": [], "coding_time_seconds": 0, "coding_time_seconds_today": 0, "balance": "You need to have a pocket watcher badge to view this.", "badges": [], "created_at": "2025-07-21T17:52:42.489-04:00", "updated_at": "2025-07-22T03:31:22.088-04:00", "avatar": "https://secure.gravatar.com/avatar/a08caca6927c58bc4299a8e0cfc5a533.jpg?s=512&d=https%3A%2F%2Fa.slack-edge.com%2Fdf10d%2Fimg%2Favatars%2Fava_0023-512.png", "custom_css": null}, {"id": 16835, "slack_id": "U096U1A6VNW", "display_name": "Puffy", "bio": null, "projects_count": 0, "devlogs_count": 0, "votes_count": 0, "ships_count": 0, "projects": [], "coding_time_seconds": 8113, "coding_time_seconds_today": 0, "balance": "You need to have a pocket watcher badge to view this.", "badges": [], "created_at": "2025-07-21T17:55:04.691-04:00", "updated_at": "2025-08-18T16:19:06.675-04:00", "avatar": "https://secure.gravatar.com/avatar/8f4f9f41ccb25ea1b485ce953a323395.jpg?s=512&d=https%3A%2F%2Fa.slack-edge.com%2Fdf10d%2Fimg%2Favatars%2Fava_0012-512.png", "custom_css": null}, {"id": 16836, "slack_id": "U096KDFAX7U", "display_name": "Hermann Roos", "bio": null, "projects_count": 0, "devlogs_count": 0, "votes_count": 0, "ships_count": 0, "projects": [], "coding_time_seconds": 13894, "coding_time_seconds_today": 0, "balance": "You need to have a pocket watcher badge to view this.", "badges": [], "created_at": "2025-07-21T17:55:25.860-04:00", "updated_at": "2025-08-06T08:26:39.619-04:00", "avatar": "https://avatars.slack-edge.com/2025-07-21/9233282693636_408d3a6ecb0e74f3c2e7_original.png", "custom_css": null}, {"id": 16837, "slack_id": "U096V7W284U", "display_name": "Ignacio Rodr\u00edguez", "bio": null, "projects_count": 0, "devlogs_count": 0, "votes_count": 0, "ships_count": 0, "projects": [], "coding_time_seconds": 304843, "coding_time_seconds_today": 0, "balance": "You need to have a pocket watcher badge to view this.", "badges": [], "created_at": "2025-07-21T17:55:27.904-04:00", "updated_at": "2025-07-22T03:31:22.350-04:00", "avatar": "https://avatars.slack-edge.com/2025-07-21/9217301971991_1b955416f109f862254f_original.jpg", "custom_css": null}, {"id": 16838, "slack_id": "U096S35J8KX", "display_name": "Minagishl", "bio": null, "projects_count": 2, "devlogs_count": 8, "votes_count": 20, "ships_count": 1, "projects": [{"id": 7791, "title": "Compeek", "devlogs_count": 1, "created_at": "2025-07-23T04:11:30.404-04:00"}, {"id": 7559, "title": "iCloud Mail MCP Server", "devlogs_count": 7, "created_at": "2025-07-22T05:36:47.176-04:00"}], "coding_time_seconds": 201076, "coding_time_seconds_today": 0, "balance": "You need to have a pocket watcher badge to view this.", "badges": [], "created_at": "2025-07-21T17:55:33.992-04:00", "updated_at": "2025-08-11T08:54:13.083-04:00", "avatar": "https://secure.gravatar.com/avatar/74bd1034079eaddff5d39e342bd1c1a1.jpg?s=512&d=https%3A%2F%2Fa.slack-edge.com%2Fdf10d%2Fimg%2Favatars%2Fava_0001-512.png", "custom_css": null}, {"id": 16839, "slack_id": "U096D8JK1PH", "display_name": "Leonardo Cuervo", "bio": null, "projects_count": 0, "devlogs_count": 0, "votes_count": 0, "ships_count": 0, "projects": [], "coding_time_seconds": 4807, "coding_time_seconds_today": 0, "balance": "You need to have a pocket watcher badge to view this.", "badges": [], "created_at": "2025-07-21T17:56:20.194-04:00", "updated_at": "2025-07-22T03:31:22.533-04:00", "avatar": "https://secure.gravatar.com/avatar/adf487012e4ccd8a31d2a1f07c1104c8.jpg?s=512&d=https%3A%2F%2Fa.slack-edge.com%2Fdf10d%2Fimg%2Favatars%2Fava_0015-512.png", "custom_css": null}, {"id": 16840, "slack_id": "U097768DWJD", "display_name": "Edward Quintero", "bio": null, "projects_count": 0, "devlogs_count": 0, "votes_count": 0, "ships_count": 0, "projects": [], "coding_time_seconds": 9505, "coding_time_seconds_today": 0, "balance": "You need to have a pocket watcher badge to view this.", "badges": [], "created_at": "2025-07-21T17:56:28.380-04:00", "updated_at": "2025-07-22T03:31:22.654-04:00", "avatar": "https://secure.gravatar.com/avatar/1ade03eeed66dbe39847b0f3a5b23fbb.jpg?s=512&d=https%3A%2F%2Fa.slack-edge.com%2Fdf10d%2Fimg%2Favatars%2Fava_0017-512.png", "custom_css": null}, {"id": 16841, "slack_id": "U096N6ZKDV1", "display_name": "Sandeeb Adhikari", "bio": null, "projects_count": 0, "devlogs_count": 0, "votes_count": 0, "ships_count": 0, "projects": [], "coding_time_seconds": 153587, "coding_time_seconds_today": 190, "balance": "You need to have a pocket watcher badge to view this.", "badges": [], "created_at": "2025-07-21T17:58:12.887-04:00", "updated_at": "2025-07-22T03:31:22.783-04:00", "avatar": "https://avatars.slack-edge.com/2025-07-21/9232072355282_b467f2899d51335aad03_original.png", "custom_css": null}, {"id": 16842, "slack_id": "U096V8BK1DJ", "display_name": "Simone", "bio": null, "projects_count": 0, "devlogs_count": 0, "votes_count": 0, "ships_count": 0, "projects": [], "coding_time_seconds": 0, "coding_time_seconds_today": 0, "balance": "You need to have a pocket watcher badge to view this.", "badges": [], "created_at": "2025-07-21T17:58:26.504-04:00", "updated_at": "2025-07-22T03:31:22.884-04:00", "avatar": "https://secure.gravatar.com/avatar/439b8126baf70c3980c612160ef3069f.jpg?s=512&d=https%3A%2F%2Fa.slack-edge.com%2Fdf10d%2Fimg%2Favatars%2Fava_0000-512.png", "custom_css": null}, {"id": 16843, "slack_id": "U096D9H0YRM", "display_name": "Philipp", "bio": null, "projects_count": 0, "devlogs_count": 0, "votes_count": 0, "ships_count": 0, "projects": [], "coding_time_seconds": 0, "coding_time_seconds_today": 0, "balance": "You need to have a pocket watcher badge to view this.", "badges": [], "created_at": "2025-07-21T18:03:08.558-04:00", "updated_at": "2025-07-22T03:31:22.989-04:00", "avatar": "https://secure.gravatar.com/avatar/9cac1de71aa47248e3ef0eb834ffc4fd.jpg?s=512&d=https%3A%2F%2Fa.slack-edge.com%2Fdf10d%2Fimg%2Favatars%2Fava_0012-512.png", "custom_css": null}, {"id": 16844, "slack_id": "U096S4DLG3X", "display_name": "Andrei Drago\u0219", "bio": null, "projects_count": 0, "devlogs_count": 0, "votes_count": 0, "ships_count": 0, "projects": [], "coding_time_seconds": 13615, "coding_time_seconds_today": 0, "balance": "You need to have a pocket watcher badge to view this.", "badges": [], "created_at": "2025-07-21T18:03:25.353-04:00", "updated_at": "2025-07-22T04:58:12.603-04:00", "avatar": "https://avatars.slack-edge.com/2025-07-21/9228992104550_4980a4bb952e33bc99b8_original.png", "custom_css": null}, {"id": 16845, "slack_id": "U096S4ME9S9", "display_name": "Joshua Mu", "bio": null, "projects_count": 0, "devlogs_count": 0, "votes_count": 0, "ships_count": 0, "projects": [], "coding_time_seconds": 456, "coding_time_seconds_today": 0, "balance": "You need to have a pocket watcher badge to view this.", "badges": [], "created_at": "2025-07-21T18:05:18.549-04:00", "updated_at": "2025-07-22T17:00:35.348-04:00", "avatar": "https://avatars.slack-edge.com/2025-07-21/9245328984657_8700bb547eb8206eee77_original.jpg", "custom_css": null}], "pagination": {"page": 838, "pages": 1192, "count": 23828, "items": 20}}