{"users": [{"id": 16846, "slack_id": "U096NPFHQ91", "display_name": "Pascal Faude", "bio": null, "projects_count": 0, "devlogs_count": 0, "votes_count": 0, "ships_count": 0, "projects": [], "coding_time_seconds": 0, "coding_time_seconds_today": 0, "balance": "You need to have a pocket watcher badge to view this.", "badges": [], "created_at": "2025-07-21T18:05:49.458-04:00", "updated_at": "2025-07-22T03:31:23.275-04:00", "avatar": "https://secure.gravatar.com/avatar/75d88957d9720b06e70b803d81eeedc5.jpg?s=512&d=https%3A%2F%2Fa.slack-edge.com%2Fdf10d%2Fimg%2Favatars%2Fava_0018-512.png", "custom_css": null}, {"id": 16847, "slack_id": "U09779EC1CZ", "display_name": "Bryan", "bio": null, "projects_count": 0, "devlogs_count": 0, "votes_count": 0, "ships_count": 0, "projects": [], "coding_time_seconds": 0, "coding_time_seconds_today": 0, "balance": "You need to have a pocket watcher badge to view this.", "badges": [], "created_at": "2025-07-21T18:06:33.752-04:00", "updated_at": "2025-07-22T03:31:23.374-04:00", "avatar": "https://secure.gravatar.com/avatar/14d53ce22cd34ab3685c93e64e86dd85.jpg?s=512&d=https%3A%2F%2Fa.slack-edge.com%2Fdf10d%2Fimg%2Favatars%2Fava_0013-512.png", "custom_css": null}, {"id": 16848, "slack_id": "U097797ELCR", "display_name": "Javier S. J.", "bio": null, "projects_count": 0, "devlogs_count": 0, "votes_count": 0, "ships_count": 0, "projects": [], "coding_time_seconds": 0, "coding_time_seconds_today": 0, "balance": "You need to have a pocket watcher badge to view this.", "badges": [], "created_at": "2025-07-21T18:06:34.623-04:00", "updated_at": "2025-07-22T03:31:23.464-04:00", "avatar": "https://avatars.slack-edge.com/2025-07-21/9226817862003_b7a18058ebf41578417e_original.jpg", "custom_css": null}, {"id": 16849, "slack_id": "U096NPV98G3", "display_name": "Jan", "bio": null, "projects_count": 0, "devlogs_count": 0, "votes_count": 0, "ships_count": 0, "projects": [], "coding_time_seconds": 98, "coding_time_seconds_today": 0, "balance": "You need to have a pocket watcher badge to view this.", "badges": [], "created_at": "2025-07-21T18:08:02.193-04:00", "updated_at": "2025-07-22T03:31:23.556-04:00", "avatar": "https://secure.gravatar.com/avatar/db77ab60a8976ee9347b922f6760a8c5.jpg?s=512&d=https%3A%2F%2Fa.slack-edge.com%2Fdf10d%2Fimg%2Favatars%2Fava_0024-512.png", "custom_css": null}, {"id": 16850, "slack_id": "U09779MTFG9", "display_name": "Julian", "bio": null, "projects_count": 0, "devlogs_count": 0, "votes_count": 0, "ships_count": 0, "projects": [], "coding_time_seconds": 0, "coding_time_seconds_today": 0, "balance": "You need to have a pocket watcher badge to view this.", "badges": [], "created_at": "2025-07-21T18:09:03.629-04:00", "updated_at": "2025-07-22T03:31:23.635-04:00", "avatar": "https://secure.gravatar.com/avatar/5afe1f2554242db98a11ac04414b5aa0.jpg?s=512&d=https%3A%2F%2Fa.slack-edge.com%2Fdf10d%2Fimg%2Favatars%2Fava_0001-512.png", "custom_css": null}, {"id": 16851, "slack_id": "U096V9JPJCC", "display_name": "Celina", "bio": null, "projects_count": 0, "devlogs_count": 0, "votes_count": 0, "ships_count": 0, "projects": [], "coding_time_seconds": 478, "coding_time_seconds_today": 0, "balance": "You need to have a pocket watcher badge to view this.", "badges": [], "created_at": "2025-07-21T18:09:33.975-04:00", "updated_at": "2025-07-22T03:31:23.728-04:00", "avatar": "https://secure.gravatar.com/avatar/9766fb2b01d0302cf980c9120804ffa3.jpg?s=512&d=https%3A%2F%2Fa.slack-edge.com%2Fdf10d%2Fimg%2Favatars%2Fava_0005-512.png", "custom_css": null}, {"id": 16852, "slack_id": "U09779NAKKK", "display_name": "Daksh Chaudhary", "bio": null, "projects_count": 0, "devlogs_count": 0, "votes_count": 0, "ships_count": 0, "projects": [], "coding_time_seconds": 0, "coding_time_seconds_today": 0, "balance": "You need to have a pocket watcher badge to view this.", "badges": [], "created_at": "2025-07-21T18:10:11.446-04:00", "updated_at": "2025-07-22T03:31:23.820-04:00", "avatar": "https://secure.gravatar.com/avatar/385c7dfaa5d7fea46aa3e28af0d32000.jpg?s=512&d=https%3A%2F%2Fa.slack-edge.com%2Fdf10d%2Fimg%2Favatars%2Fava_0025-512.png", "custom_css": null}, {"id": 16853, "slack_id": "U096S540WDB", "display_name": "Michael", "bio": null, "projects_count": 0, "devlogs_count": 0, "votes_count": 0, "ships_count": 0, "projects": [], "coding_time_seconds": 120, "coding_time_seconds_today": 0, "balance": "You need to have a pocket watcher badge to view this.", "badges": [], "created_at": "2025-07-21T18:10:36.499-04:00", "updated_at": "2025-07-22T03:31:23.903-04:00", "avatar": "https://secure.gravatar.com/avatar/eb96bff6c070ba44fcdacc430a56b1a8.jpg?s=512&d=https%3A%2F%2Fa.slack-edge.com%2Fdf10d%2Fimg%2Favatars%2Fava_0024-512.png", "custom_css": null}, {"id": 16854, "slack_id": "U096DAA6EHM", "display_name": "Sebastian Ochoa", "bio": null, "projects_count": 0, "devlogs_count": 0, "votes_count": 0, "ships_count": 0, "projects": [], "coding_time_seconds": 0, "coding_time_seconds_today": 0, "balance": "You need to have a pocket watcher badge to view this.", "badges": [], "created_at": "2025-07-21T18:10:41.972-04:00", "updated_at": "2025-07-22T03:31:23.987-04:00", "avatar": "https://avatars.slack-edge.com/2025-07-21/9245346552913_88334465bf8fef775957_original.png", "custom_css": null}, {"id": 16855, "slack_id": "U096V9W7H7E", "display_name": "Justin J.", "bio": null, "projects_count": 0, "devlogs_count": 0, "votes_count": 0, "ships_count": 0, "projects": [], "coding_time_seconds": 0, "coding_time_seconds_today": 0, "balance": "You need to have a pocket watcher badge to view this.", "badges": [], "created_at": "2025-07-21T18:12:39.576-04:00", "updated_at": "2025-07-22T03:31:24.065-04:00", "avatar": "https://avatars.slack-edge.com/2025-07-21/9230193600549_658446fd99fa4bac2ef5_original.gif", "custom_css": null}, {"id": 16856, "slack_id": "U096V8EQE20", "display_name": "Gaurav Pathak", "bio": null, "projects_count": 0, "devlogs_count": 0, "votes_count": 0, "ships_count": 0, "projects": [], "coding_time_seconds": 0, "coding_time_seconds_today": 0, "balance": "You need to have a pocket watcher badge to view this.", "badges": [], "created_at": "2025-07-21T18:12:55.126-04:00", "updated_at": "2025-07-22T03:31:24.144-04:00", "avatar": "https://secure.gravatar.com/avatar/620955fab6f701ddadaae8a4ab33df34.jpg?s=512&d=https%3A%2F%2Fa.slack-edge.com%2Fdf10d%2Fimg%2Favatars%2Fava_0007-512.png", "custom_css": null}, {"id": 16857, "slack_id": "U096U3EHLBU", "display_name": "Ahmed Tokyo", "bio": null, "projects_count": 0, "devlogs_count": 0, "votes_count": 0, "ships_count": 0, "projects": [], "coding_time_seconds": 0, "coding_time_seconds_today": 0, "balance": "You need to have a pocket watcher badge to view this.", "badges": [], "created_at": "2025-07-21T18:13:05.751-04:00", "updated_at": "2025-07-22T03:31:24.226-04:00", "avatar": "https://secure.gravatar.com/avatar/5dd74164f89b932fa126d0854fd5823f.jpg?s=512&d=https%3A%2F%2Fa.slack-edge.com%2Fdf10d%2Fimg%2Favatars%2Fava_0001-512.png", "custom_css": null}, {"id": 16858, "slack_id": "U096R0MFJBY", "display_name": "Isaac Santos", "bio": null, "projects_count": 0, "devlogs_count": 0, "votes_count": 0, "ships_count": 0, "projects": [], "coding_time_seconds": 13721, "coding_time_seconds_today": 0, "balance": "You need to have a pocket watcher badge to view this.", "badges": [], "created_at": "2025-07-21T18:14:25.246-04:00", "updated_at": "2025-07-23T01:11:02.054-04:00", "avatar": "https://secure.gravatar.com/avatar/0493cab0bef585877e926bbecfea8d35.jpg?s=512&d=https%3A%2F%2Fa.slack-edge.com%2Fdf10d%2Fimg%2Favatars%2Fava_0016-512.png", "custom_css": null}, {"id": 16859, "slack_id": "U0977A7T4QZ", "display_name": "Jake Farrell", "bio": null, "projects_count": 0, "devlogs_count": 0, "votes_count": 0, "ships_count": 0, "projects": [], "coding_time_seconds": 0, "coding_time_seconds_today": 0, "balance": "You need to have a pocket watcher badge to view this.", "badges": [], "created_at": "2025-07-21T18:15:25.788-04:00", "updated_at": "2025-07-22T03:31:28.439-04:00", "avatar": "https://secure.gravatar.com/avatar/7c7a8db2700a69aeab40f06bfca028b3.jpg?s=512&d=https%3A%2F%2Fa.slack-edge.com%2Fdf10d%2Fimg%2Favatars%2Fava_0016-512.png", "custom_css": null}, {"id": 16860, "slack_id": "U08S621TEG6", "display_name": "Corrado", "bio": null, "projects_count": 0, "devlogs_count": 0, "votes_count": 0, "ships_count": 0, "projects": [], "coding_time_seconds": 120, "coding_time_seconds_today": 0, "balance": "You need to have a pocket watcher badge to view this.", "badges": [], "created_at": "2025-07-21T18:15:28.363-04:00", "updated_at": "2025-07-22T03:31:28.562-04:00", "avatar": "https://secure.gravatar.com/avatar/99df0fe45d0366ec0cf125a3570485af.jpg?s=512&d=https%3A%2F%2Fa.slack-edge.com%2Fdf10d%2Fimg%2Favatars%2Fava_0024-512.png", "custom_css": null}, {"id": 16861, "slack_id": "U096U3MM942", "display_name": "Beatriz", "bio": null, "projects_count": 0, "devlogs_count": 0, "votes_count": 0, "ships_count": 0, "projects": [], "coding_time_seconds": 58011, "coding_time_seconds_today": 0, "balance": "You need to have a pocket watcher badge to view this.", "badges": [], "created_at": "2025-07-21T18:15:59.075-04:00", "updated_at": "2025-07-24T09:27:04.177-04:00", "avatar": "https://secure.gravatar.com/avatar/a63551a6f72911a56403d49f9b1e6c4c.jpg?s=512&d=https%3A%2F%2Fa.slack-edge.com%2Fdf10d%2Fimg%2Favatars%2Fava_0024-512.png", "custom_css": null}, {"id": 16862, "slack_id": "U097GH73QU8", "display_name": "Daniel Azar", "bio": null, "projects_count": 0, "devlogs_count": 0, "votes_count": 0, "ships_count": 0, "projects": [], "coding_time_seconds": 0, "coding_time_seconds_today": 0, "balance": "You need to have a pocket watcher badge to view this.", "badges": [], "created_at": "2025-07-21T18:16:06.769-04:00", "updated_at": "2025-07-22T03:31:28.735-04:00", "avatar": "https://secure.gravatar.com/avatar/9508e2ca2644ba1830582521e47ce27e.jpg?s=512&d=https%3A%2F%2Fa.slack-edge.com%2Fdf10d%2Fimg%2Favatars%2Fava_0006-512.png", "custom_css": null}, {"id": 16863, "slack_id": "U096R0L9HB8", "display_name": "Jan Bo\u017cek", "bio": null, "projects_count": 0, "devlogs_count": 0, "votes_count": 0, "ships_count": 0, "projects": [], "coding_time_seconds": 0, "coding_time_seconds_today": 0, "balance": "You need to have a pocket watcher badge to view this.", "badges": [], "created_at": "2025-07-21T18:16:58.807-04:00", "updated_at": "2025-07-22T03:31:28.816-04:00", "avatar": "https://secure.gravatar.com/avatar/2cfbcdf211084bef9da0c6ba722cbace.jpg?s=512&d=https%3A%2F%2Fa.slack-edge.com%2Fdf10d%2Fimg%2Favatars%2Fava_0003-512.png", "custom_css": null}, {"id": 16864, "slack_id": "U096R0U372S", "display_name": "Ethan Ahiabenu", "bio": null, "projects_count": 0, "devlogs_count": 0, "votes_count": 0, "ships_count": 0, "projects": [], "coding_time_seconds": 0, "coding_time_seconds_today": 0, "balance": "You need to have a pocket watcher badge to view this.", "badges": [], "created_at": "2025-07-21T18:17:35.980-04:00", "updated_at": "2025-07-22T03:31:28.931-04:00", "avatar": "https://secure.gravatar.com/avatar/1c816132df9a11d8141f77c8a951b894.jpg?s=512&d=https%3A%2F%2Fa.slack-edge.com%2Fdf10d%2Fimg%2Favatars%2Fava_0014-512.png", "custom_css": null}, {"id": 16865, "slack_id": "U096DAXRV55", "display_name": "Ovi Paul", "bio": null, "projects_count": 1, "devlogs_count": 0, "votes_count": 0, "ships_count": 0, "projects": [{"id": 7434, "title": "Cross Geo-Localization", "devlogs_count": 0, "created_at": "2025-07-21T18:37:18.838-04:00"}], "coding_time_seconds": 31688, "coding_time_seconds_today": 0, "balance": "You need to have a pocket watcher badge to view this.", "badges": [], "created_at": "2025-07-21T18:17:41.923-04:00", "updated_at": "2025-07-22T03:31:29.018-04:00", "avatar": "https://secure.gravatar.com/avatar/3c6a8caf131be907fb4bf454d0e2bce0.jpg?s=512&d=https%3A%2F%2Fa.slack-edge.com%2Fdf10d%2Fimg%2Favatars%2Fava_0001-512.png", "custom_css": null}], "pagination": {"page": 839, "pages": 1192, "count": 23828, "items": 20}}