{"users": [{"id": 1661, "slack_id": "U091PMN1E4A", "display_name": "Davi Oliveira", "bio": null, "projects_count": 1, "devlogs_count": 0, "votes_count": 0, "ships_count": 0, "projects": [{"id": 146, "title": "Backup API (private SAAS)", "devlogs_count": 0, "created_at": "2025-06-16T14:27:28.280-04:00"}], "coding_time_seconds": 135773, "coding_time_seconds_today": 0, "balance": "You need to have a pocket watcher badge to view this.", "badges": [], "created_at": "2025-06-16T13:42:50.665-04:00", "updated_at": "2025-07-03T19:18:39.557-04:00", "avatar": "https://avatars.slack-edge.com/2025-06-16/9055978934805_f8a4daac7ad1e4d58030_original.png", "custom_css": null}, {"id": 1662, "slack_id": "U091GQDE8T0", "display_name": "Andres", "bio": null, "projects_count": 0, "devlogs_count": 0, "votes_count": 0, "ships_count": 0, "projects": [], "coding_time_seconds": 0, "coding_time_seconds_today": 0, "balance": "You need to have a pocket watcher badge to view this.", "badges": [], "created_at": "2025-06-16T13:42:52.090-04:00", "updated_at": "2025-07-03T19:18:39.828-04:00", "avatar": "https://secure.gravatar.com/avatar/8748abe9758887b0f1411381fbdb8457.jpg?s=512&d=https%3A%2F%2Fa.slack-edge.com%2Fdf10d%2Fimg%2Favatars%2Fava_0025-512.png", "custom_css": null}, {"id": 1663, "slack_id": "U07L463K2R3", "display_name": "Danny", "bio": null, "projects_count": 0, "devlogs_count": 0, "votes_count": 0, "ships_count": 0, "projects": [], "coding_time_seconds": 345948, "coding_time_seconds_today": 0, "balance": "You need to have a pocket watcher badge to view this.", "badges": [], "created_at": "2025-06-16T13:43:05.109-04:00", "updated_at": "2025-08-11T09:16:43.288-04:00", "avatar": "https://avatars.slack-edge.com/2024-09-06/7712360728416_95bf55b14e556aecd01a_original.jpg", "custom_css": null}, {"id": 1664, "slack_id": "U092C679H1N", "display_name": "Deepak Reddy", "bio": null, "projects_count": 0, "devlogs_count": 0, "votes_count": 0, "ships_count": 0, "projects": [], "coding_time_seconds": 0, "coding_time_seconds_today": 0, "balance": "You need to have a pocket watcher badge to view this.", "badges": [], "created_at": "2025-06-16T13:43:05.341-04:00", "updated_at": "2025-07-03T19:18:40.351-04:00", "avatar": "https://avatars.slack-edge.com/2025-06-16/9070304588353_c5510191c8ee79803ff1_original.jpg", "custom_css": null}, {"id": 1665, "slack_id": "U09225XLZPT", "display_name": "Curtis Lui", "bio": null, "projects_count": 0, "devlogs_count": 0, "votes_count": 0, "ships_count": 0, "projects": [], "coding_time_seconds": 98, "coding_time_seconds_today": 0, "balance": "You need to have a pocket watcher badge to view this.", "badges": [], "created_at": "2025-06-16T13:43:07.338-04:00", "updated_at": "2025-07-03T19:18:40.631-04:00", "avatar": "https://secure.gravatar.com/avatar/0e0dedde3ebee7ba304f8a814f6cee82.jpg?s=512&d=https%3A%2F%2Fa.slack-edge.com%2Fdf10d%2Fimg%2Favatars%2Fava_0010-512.png", "custom_css": null}, {"id": 1666, "slack_id": "U0918CP78PR", "display_name": "Nikhil", "bio": null, "projects_count": 0, "devlogs_count": 0, "votes_count": 0, "ships_count": 0, "projects": [], "coding_time_seconds": 0, "coding_time_seconds_today": 0, "balance": "You need to have a pocket watcher badge to view this.", "badges": [], "created_at": "2025-06-16T13:43:10.887-04:00", "updated_at": "2025-07-03T19:18:40.907-04:00", "avatar": "https://secure.gravatar.com/avatar/61775464fc94367e219be3670cbe6b61.jpg?s=512&d=https%3A%2F%2Fa.slack-edge.com%2Fdf10d%2Fimg%2Favatars%2Fava_0000-512.png", "custom_css": null}, {"id": 1667, "slack_id": "U09224541EV", "display_name": "Keith Doyle", "bio": null, "projects_count": 0, "devlogs_count": 0, "votes_count": 0, "ships_count": 0, "projects": [], "coding_time_seconds": 0, "coding_time_seconds_today": 0, "balance": "You need to have a pocket watcher badge to view this.", "badges": [], "created_at": "2025-06-16T13:43:18.622-04:00", "updated_at": "2025-07-03T19:18:41.170-04:00", "avatar": "https://avatars.slack-edge.com/2025-06-16/9042447570647_0ef9152e750acc151954_original.jpg", "custom_css": null}, {"id": 1668, "slack_id": "U0883DUTR6J", "display_name": "Chris Joe .m", "bio": null, "projects_count": 0, "devlogs_count": 23, "votes_count": 42, "ships_count": 0, "projects": [], "coding_time_seconds": 671245, "coding_time_seconds_today": 0, "balance": "You need to have a pocket watcher badge to view this.", "badges": [{"name": "Maiden Voyage", "text": "you shipped your first project! the journey begins...", "icon": "\ud83d\udea2"}], "created_at": "2025-06-16T13:43:25.122-04:00", "updated_at": "2025-09-10T22:51:58.704-04:00", "avatar": "https://avatars.slack-edge.com/2025-07-25/9250329749302_ce811c5479e2645801b2_original.jpg", "custom_css": null}, {"id": 1669, "slack_id": "U084193LCRL", "display_name": "Ganesh", "bio": null, "projects_count": 4, "devlogs_count": 8, "votes_count": 22, "ships_count": 3, "projects": [{"id": 2727, "title": "Zoneout", "devlogs_count": 1, "created_at": "2025-06-21T21:28:51.832-04:00"}, {"id": 11113, "title": "Portfolio", "devlogs_count": 1, "created_at": "2025-08-13T08:40:53.661-04:00"}, {"id": 12158, "title": "Astrobot", "devlogs_count": 3, "created_at": "2025-08-23T20:42:36.756-04:00"}, {"id": 12694, "title": "Skynet", "devlogs_count": 2, "created_at": "2025-09-01T02:46:56.577-04:00"}], "coding_time_seconds": 507432, "coding_time_seconds_today": 0, "balance": "You need to have a pocket watcher badge to view this.", "badges": [{"name": "Maiden Voyage", "text": "you shipped your first project! the journey begins...", "icon": "\ud83d\udea2"}], "created_at": "2025-06-16T13:43:29.003-04:00", "updated_at": "2025-09-10T22:51:58.751-04:00", "avatar": "https://avatars.slack-edge.com/2025-06-14/9033861343159_a68ce3b21c0f69fac3e6_original.png", "custom_css": null}, {"id": 1670, "slack_id": "U091Q44L25A", "display_name": "Corey", "bio": null, "projects_count": 0, "devlogs_count": 0, "votes_count": 0, "ships_count": 0, "projects": [], "coding_time_seconds": 0, "coding_time_seconds_today": 0, "balance": "You need to have a pocket watcher badge to view this.", "badges": [], "created_at": "2025-06-16T13:43:35.824-04:00", "updated_at": "2025-07-03T19:18:41.975-04:00", "avatar": "https://secure.gravatar.com/avatar/5fb923379c108cdd3f27dab787c880e4.jpg?s=512&d=https%3A%2F%2Fa.slack-edge.com%2Fdf10d%2Fimg%2Favatars%2Fava_0025-512.png", "custom_css": null}, {"id": 1671, "slack_id": "U091Q49B2JG", "display_name": "David", "bio": null, "projects_count": 0, "devlogs_count": 0, "votes_count": 0, "ships_count": 0, "projects": [], "coding_time_seconds": 1882, "coding_time_seconds_today": 0, "balance": "You need to have a pocket watcher badge to view this.", "badges": [], "created_at": "2025-06-16T13:43:45.953-04:00", "updated_at": "2025-07-03T19:18:42.249-04:00", "avatar": "https://secure.gravatar.com/avatar/c5eeabb82a8a165f5029cc80af34ebf6.jpg?s=512&d=https%3A%2F%2Fa.slack-edge.com%2Fdf10d%2Fimg%2Favatars%2Fava_0005-512.png", "custom_css": null}, {"id": 1672, "slack_id": "U0918CSDMBR", "display_name": "John Galayda", "bio": null, "projects_count": 1, "devlogs_count": 1, "votes_count": 0, "ships_count": 0, "projects": [{"id": 827, "title": "StudyStack", "devlogs_count": 1, "created_at": "2025-06-17T09:16:46.634-04:00"}], "coding_time_seconds": 4000, "coding_time_seconds_today": 0, "balance": "You need to have a pocket watcher badge to view this.", "badges": [], "created_at": "2025-06-16T13:43:57.301-04:00", "updated_at": "2025-07-03T19:18:42.519-04:00", "avatar": "https://secure.gravatar.com/avatar/097d50fc53ba19cdf2db68905da2e813.jpg?s=512&d=https%3A%2F%2Fa.slack-edge.com%2Fdf10d%2Fimg%2Favatars%2Fava_0025-512.png", "custom_css": null}, {"id": 1673, "slack_id": "U0918CW57LP", "display_name": "Ayub W", "bio": null, "projects_count": 0, "devlogs_count": 1, "votes_count": 0, "ships_count": 0, "projects": [], "coding_time_seconds": 1304651, "coding_time_seconds_today": 0, "balance": "You need to have a pocket watcher badge to view this.", "badges": [], "created_at": "2025-06-16T13:44:05.835-04:00", "updated_at": "2025-07-09T15:47:08.804-04:00", "avatar": "https://avatars.slack-edge.com/2025-06-16/9057758720002_5ad86f54619493a1f30b_original.png", "custom_css": null}, {"id": 1674, "slack_id": "U091MUDHY21", "display_name": "log in", "bio": null, "projects_count": 0, "devlogs_count": 0, "votes_count": 0, "ships_count": 0, "projects": [], "coding_time_seconds": 0, "coding_time_seconds_today": 0, "balance": "You need to have a pocket watcher badge to view this.", "badges": [], "created_at": "2025-06-16T13:44:11.291-04:00", "updated_at": "2025-07-03T19:18:43.052-04:00", "avatar": "https://avatars.slack-edge.com/2025-06-16/9050904206102_a2b0ef90e3a2f85b8ac3_original.png", "custom_css": null}, {"id": 1675, "slack_id": "U0872MNLDDE", "display_name": "Karan", "bio": null, "projects_count": 0, "devlogs_count": 15, "votes_count": 26, "ships_count": 0, "projects": [], "coding_time_seconds": 164990, "coding_time_seconds_today": 0, "balance": "You need to have a pocket watcher badge to view this.", "badges": [{"name": "Maiden Voyage", "text": "you shipped your first project! the journey begins...", "icon": "\ud83d\udea2"}], "created_at": "2025-06-16T13:44:25.686-04:00", "updated_at": "2025-09-12T13:05:03.890-04:00", "avatar": "https://avatars.slack-edge.com/2025-08-15/9354274156243_b8f98748a655f9e19ede_original.jpg", "custom_css": null}, {"id": 1676, "slack_id": "U091Q3W0HCL", "display_name": "William Schroeder", "bio": null, "projects_count": 0, "devlogs_count": 0, "votes_count": 0, "ships_count": 0, "projects": [], "coding_time_seconds": 0, "coding_time_seconds_today": 0, "balance": "You need to have a pocket watcher badge to view this.", "badges": [], "created_at": "2025-06-16T13:44:33.843-04:00", "updated_at": "2025-07-03T19:18:43.576-04:00", "avatar": "https://secure.gravatar.com/avatar/134b9b27d06127c0cb37e468b9543aa9.jpg?s=512&d=https%3A%2F%2Fa.slack-edge.com%2Fdf10d%2Fimg%2Favatars%2Fava_0013-512.png", "custom_css": null}, {"id": 1677, "slack_id": "U09228P5649", "display_name": "Alessandro", "bio": null, "projects_count": 4, "devlogs_count": 7, "votes_count": 0, "ships_count": 2, "projects": [{"id": 117, "title": "Telegram ChatBot GPT4Free", "devlogs_count": 2, "created_at": "2025-06-16T13:59:39.926-04:00"}, {"id": 877, "title": "CRGod", "devlogs_count": 1, "created_at": "2025-06-17T10:22:22.578-04:00"}, {"id": 2353, "title": "UpOrNah", "devlogs_count": 2, "created_at": "2025-06-20T19:21:17.140-04:00"}, {"id": 136, "title": "TextPlus", "devlogs_count": 2, "created_at": "2025-06-16T14:22:33.650-04:00"}], "coding_time_seconds": 81485, "coding_time_seconds_today": 0, "balance": "You need to have a pocket watcher badge to view this.", "badges": [{"name": "Maiden Voyage", "text": "you shipped your first project! the journey begins...", "icon": "\ud83d\udea2"}], "created_at": "2025-06-16T13:44:47.232-04:00", "updated_at": "2025-09-10T22:51:58.989-04:00", "avatar": "https://secure.gravatar.com/avatar/d6b7a69e82b82c7f34050acf87b3caac.jpg?s=512&d=https%3A%2F%2Fa.slack-edge.com%2Fdf10d%2Fimg%2Favatars%2Fava_0024-512.png", "custom_css": null}, {"id": 1678, "slack_id": "U09228VSFTK", "display_name": "CRISTOBAL CAMILO ANDRES GOMEZ ARAYA", "bio": null, "projects_count": 0, "devlogs_count": 0, "votes_count": 0, "ships_count": 0, "projects": [], "coding_time_seconds": 68813, "coding_time_seconds_today": 0, "balance": "You need to have a pocket watcher badge to view this.", "badges": [], "created_at": "2025-06-16T13:45:06.824-04:00", "updated_at": "2025-07-03T19:18:44.139-04:00", "avatar": "https://avatars.slack-edge.com/2025-06-16/9058167970404_c503c8bd439308bdf017_original.png", "custom_css": null}, {"id": 1679, "slack_id": "U07ERADK38X", "display_name": "Krish Behera", "bio": null, "projects_count": 0, "devlogs_count": 0, "votes_count": 0, "ships_count": 0, "projects": [], "coding_time_seconds": 164584, "coding_time_seconds_today": 0, "balance": "You need to have a pocket watcher badge to view this.", "badges": [], "created_at": "2025-06-16T13:45:09.523-04:00", "updated_at": "2025-07-03T19:18:44.403-04:00", "avatar": "https://secure.gravatar.com/avatar/be8945be8911958ad4e3f8b0d6474c42.jpg?s=512&d=https%3A%2F%2Fa.slack-edge.com%2Fdf10d%2Fimg%2Favatars%2Fava_0007-512.png", "custom_css": null}, {"id": 1680, "slack_id": "U092C6C19TJ", "display_name": "RedstonePfalz", "bio": null, "projects_count": 1, "devlogs_count": 1, "votes_count": 2, "ships_count": 0, "projects": [{"id": 1047, "title": "RedMaps", "devlogs_count": 1, "created_at": "2025-06-17T14:18:25.030-04:00"}], "coding_time_seconds": 48483, "coding_time_seconds_today": 0, "balance": "You need to have a pocket watcher badge to view this.", "badges": [], "created_at": "2025-06-16T13:45:14.423-04:00", "updated_at": "2025-08-30T10:32:44.018-04:00", "avatar": "https://secure.gravatar.com/avatar/ffa5f4613095339e779753e5dba238ce.jpg?s=512&d=https%3A%2F%2Fa.slack-edge.com%2Fdf10d%2Fimg%2Favatars%2Fava_0007-512.png", "custom_css": null}], "pagination": {"page": 84, "pages": 1192, "count": 23828, "items": 20}}