{"users": [{"id": 16866, "slack_id": "U096DAVMS2K", "display_name": "Pritam Bhaumik", "bio": null, "projects_count": 1, "devlogs_count": 0, "votes_count": 0, "ships_count": 0, "projects": [{"id": 7437, "title": "Python King", "devlogs_count": 0, "created_at": "2025-07-21T18:50:59.799-04:00"}], "coding_time_seconds": 113132, "coding_time_seconds_today": 0, "balance": "You need to have a pocket watcher badge to view this.", "badges": [], "created_at": "2025-07-21T18:17:54.514-04:00", "updated_at": "2025-07-22T03:31:29.099-04:00", "avatar": "https://secure.gravatar.com/avatar/d9efc304e16fdc1f894b627cd2b93a83.jpg?s=512&d=https%3A%2F%2Fa.slack-edge.com%2Fdf10d%2Fimg%2Favatars%2Fava_0017-512.png", "custom_css": null}, {"id": 16867, "slack_id": "U096VAHMHFW", "display_name": "Do\u011fukan", "bio": null, "projects_count": 0, "devlogs_count": 0, "votes_count": 0, "ships_count": 0, "projects": [], "coding_time_seconds": 0, "coding_time_seconds_today": 0, "balance": "You need to have a pocket watcher badge to view this.", "badges": [], "created_at": "2025-07-21T18:19:12.037-04:00", "updated_at": "2025-07-22T03:31:29.179-04:00", "avatar": "https://secure.gravatar.com/avatar/08efa239a1eadeb41566f0daf345bf86.jpg?s=512&d=https%3A%2F%2Fa.slack-edge.com%2Fdf10d%2Fimg%2Favatars%2Fava_0002-512.png", "custom_css": null}, {"id": 16868, "slack_id": "U096DB6CQKZ", "display_name": "Alber", "bio": null, "projects_count": 0, "devlogs_count": 0, "votes_count": 0, "ships_count": 0, "projects": [], "coding_time_seconds": 0, "coding_time_seconds_today": 0, "balance": "You need to have a pocket watcher badge to view this.", "badges": [], "created_at": "2025-07-21T18:19:59.747-04:00", "updated_at": "2025-07-22T03:31:29.286-04:00", "avatar": "https://secure.gravatar.com/avatar/d99f693ff39108965548f2a6161e07a6.jpg?s=512&d=https%3A%2F%2Fa.slack-edge.com%2Fdf10d%2Fimg%2Favatars%2Fava_0004-512.png", "custom_css": null}, {"id": 16869, "slack_id": "U096QUVQET0", "display_name": "Roshan", "bio": null, "projects_count": 1, "devlogs_count": 0, "votes_count": 0, "ships_count": 0, "projects": [{"id": 7435, "title": "My Finance tracker", "devlogs_count": 0, "created_at": "2025-07-21T18:39:10.527-04:00"}], "coding_time_seconds": 153898, "coding_time_seconds_today": 0, "balance": "You need to have a pocket watcher badge to view this.", "badges": [], "created_at": "2025-07-21T18:20:50.448-04:00", "updated_at": "2025-07-22T03:31:29.365-04:00", "avatar": "https://secure.gravatar.com/avatar/0a09d432b84fe9de58087a32578827ab.jpg?s=512&d=https%3A%2F%2Fa.slack-edge.com%2Fdf10d%2Fimg%2Favatars%2Fava_0020-512.png", "custom_css": null}, {"id": 16870, "slack_id": "U0977A9EL01", "display_name": "Bernardo Soares Nunes", "bio": null, "projects_count": 0, "devlogs_count": 5, "votes_count": 41, "ships_count": 0, "projects": [], "coding_time_seconds": 111576, "coding_time_seconds_today": 0, "balance": "You need to have a pocket watcher badge to view this.", "badges": [], "created_at": "2025-07-21T18:21:26.210-04:00", "updated_at": "2025-08-26T19:25:45.491-04:00", "avatar": "https://secure.gravatar.com/avatar/fcf1cddc3f3815e4132eeb4a2d4c8d40.jpg?s=512&d=https%3A%2F%2Fa.slack-edge.com%2Fdf10d%2Fimg%2Favatars%2Fava_0011-512.png", "custom_css": null}, {"id": 16871, "slack_id": "U096S5Z58TF", "display_name": "Ganesh bahadur khatri", "bio": null, "projects_count": 0, "devlogs_count": 0, "votes_count": 0, "ships_count": 0, "projects": [], "coding_time_seconds": 0, "coding_time_seconds_today": 0, "balance": "You need to have a pocket watcher badge to view this.", "badges": [], "created_at": "2025-07-21T18:21:52.516-04:00", "updated_at": "2025-07-22T03:31:29.529-04:00", "avatar": "https://avatars.slack-edge.com/2025-07-21/9230222509157_c34c81c9ff4181c741f4_original.png", "custom_css": null}, {"id": 16872, "slack_id": "U096NPHK9U3", "display_name": "Rory", "bio": null, "projects_count": 0, "devlogs_count": 0, "votes_count": 0, "ships_count": 0, "projects": [], "coding_time_seconds": 5705, "coding_time_seconds_today": 0, "balance": "You need to have a pocket watcher badge to view this.", "badges": [], "created_at": "2025-07-21T18:22:32.196-04:00", "updated_at": "2025-07-22T03:31:33.656-04:00", "avatar": "https://secure.gravatar.com/avatar/51c1b69b7950d24c52da80d56fdbdc42.jpg?s=512&d=https%3A%2F%2Fa.slack-edge.com%2Fdf10d%2Fimg%2Favatars%2Fava_0017-512.png", "custom_css": null}, {"id": 16873, "slack_id": "U096DBN9W1M", "display_name": "Augusto Rey", "bio": null, "projects_count": 0, "devlogs_count": 0, "votes_count": 0, "ships_count": 0, "projects": [], "coding_time_seconds": 0, "coding_time_seconds_today": 0, "balance": "You need to have a pocket watcher badge to view this.", "badges": [], "created_at": "2025-07-21T18:23:38.953-04:00", "updated_at": "2025-07-22T03:31:33.744-04:00", "avatar": "https://secure.gravatar.com/avatar/67ec890e17457258a244ef3b5dfe25cd.jpg?s=512&d=https%3A%2F%2Fa.slack-edge.com%2Fdf10d%2Fimg%2Favatars%2Fava_0013-512.png", "custom_css": null}, {"id": 16874, "slack_id": "U096NRF4ZPV", "display_name": "Sarwgya Raj", "bio": null, "projects_count": 1, "devlogs_count": 0, "votes_count": 0, "ships_count": 0, "projects": [{"id": 8104, "title": "Dopamine Addict", "devlogs_count": 0, "created_at": "2025-07-24T16:16:56.353-04:00"}], "coding_time_seconds": 5851, "coding_time_seconds_today": 0, "balance": "You need to have a pocket watcher badge to view this.", "badges": [], "created_at": "2025-07-21T18:24:43.796-04:00", "updated_at": "2025-08-07T04:47:19.484-04:00", "avatar": "https://avatars.slack-edge.com/2025-07-21/9229060790102_8ae259f8bfb714d1341f_original.png", "custom_css": null}, {"id": 16875, "slack_id": "U096NRKHP51", "display_name": "Abdallah The Greatest", "bio": null, "projects_count": 0, "devlogs_count": 0, "votes_count": 0, "ships_count": 0, "projects": [], "coding_time_seconds": 232149, "coding_time_seconds_today": 0, "balance": "You need to have a pocket watcher badge to view this.", "badges": [], "created_at": "2025-07-21T18:27:07.394-04:00", "updated_at": "2025-07-22T05:06:45.108-04:00", "avatar": "https://secure.gravatar.com/avatar/c848095d8d5a8c6b1d60998a8383d996.jpg?s=512&d=https%3A%2F%2Fa.slack-edge.com%2Fdf10d%2Fimg%2Favatars%2Fava_0016-512.png", "custom_css": null}, {"id": 16876, "slack_id": "U096NRN7859", "display_name": "Zach Li", "bio": null, "projects_count": 0, "devlogs_count": 0, "votes_count": 0, "ships_count": 0, "projects": [], "coding_time_seconds": 0, "coding_time_seconds_today": 0, "balance": "You need to have a pocket watcher badge to view this.", "badges": [], "created_at": "2025-07-21T18:30:02.801-04:00", "updated_at": "2025-07-22T03:31:34.084-04:00", "avatar": "https://avatars.slack-edge.com/2025-07-21/9226891614179_b96c1df0de89bd7d7624_original.jpg", "custom_css": null}, {"id": 16877, "slack_id": "U096DC4308P", "display_name": "phenomlive", "bio": null, "projects_count": 0, "devlogs_count": 0, "votes_count": 0, "ships_count": 0, "projects": [], "coding_time_seconds": 0, "coding_time_seconds_today": 0, "balance": "You need to have a pocket watcher badge to view this.", "badges": [], "created_at": "2025-07-21T18:30:06.980-04:00", "updated_at": "2025-07-22T03:31:34.176-04:00", "avatar": "https://secure.gravatar.com/avatar/6a80d2c07938aed0124b1529676679ea.jpg?s=512&d=https%3A%2F%2Fa.slack-edge.com%2Fdf10d%2Fimg%2Favatars%2Fava_0019-512.png", "custom_css": null}, {"id": 16878, "slack_id": "U096VBMJTLL", "display_name": "Rui Trigo", "bio": null, "projects_count": 0, "devlogs_count": 0, "votes_count": 0, "ships_count": 0, "projects": [], "coding_time_seconds": 0, "coding_time_seconds_today": 0, "balance": "You need to have a pocket watcher badge to view this.", "badges": [], "created_at": "2025-07-21T18:32:08.777-04:00", "updated_at": "2025-07-22T03:31:34.262-04:00", "avatar": "https://secure.gravatar.com/avatar/079698d73861d09bcc96b7fd4ac8b7b8.jpg?s=512&d=https%3A%2F%2Fa.slack-edge.com%2Fdf10d%2Fimg%2Favatars%2Fava_0016-512.png", "custom_css": null}, {"id": 16879, "slack_id": "U096VB1RHAQ", "display_name": "Muhammad Hunain Khurram", "bio": null, "projects_count": 0, "devlogs_count": 0, "votes_count": 0, "ships_count": 0, "projects": [], "coding_time_seconds": 0, "coding_time_seconds_today": 0, "balance": "You need to have a pocket watcher badge to view this.", "badges": [], "created_at": "2025-07-21T18:32:12.559-04:00", "updated_at": "2025-07-22T03:31:34.363-04:00", "avatar": "https://avatars.slack-edge.com/2025-07-21/9229085784198_a78f90dde68f022e6f7a_original.jpg", "custom_css": null}, {"id": 16880, "slack_id": "U097GJUV77S", "display_name": "Muhammad Rayyan", "bio": null, "projects_count": 0, "devlogs_count": 0, "votes_count": 0, "ships_count": 0, "projects": [], "coding_time_seconds": 0, "coding_time_seconds_today": 0, "balance": "You need to have a pocket watcher badge to view this.", "badges": [], "created_at": "2025-07-21T18:34:05.518-04:00", "updated_at": "2025-07-22T12:11:14.820-04:00", "avatar": "https://secure.gravatar.com/avatar/8eeae57bdb67df4913191d52e5fd0e8b.jpg?s=512&d=https%3A%2F%2Fa.slack-edge.com%2Fdf10d%2Fimg%2Favatars%2Fava_0015-512.png", "custom_css": null}, {"id": 16881, "slack_id": "U096DCHNBNK", "display_name": "Mike Tsakirolgou", "bio": null, "projects_count": 0, "devlogs_count": 0, "votes_count": 0, "ships_count": 0, "projects": [], "coding_time_seconds": 0, "coding_time_seconds_today": 0, "balance": "You need to have a pocket watcher badge to view this.", "badges": [], "created_at": "2025-07-21T18:34:15.516-04:00", "updated_at": "2025-07-22T03:31:38.594-04:00", "avatar": "https://secure.gravatar.com/avatar/7b8fef330557fdfce3aa69e504ca03a0.jpg?s=512&d=https%3A%2F%2Fa.slack-edge.com%2Fdf10d%2Fimg%2Favatars%2Fava_0014-512.png", "custom_css": null}, {"id": 16882, "slack_id": "U0977BZ4BAM", "display_name": "Jules MUKADI", "bio": null, "projects_count": 0, "devlogs_count": 0, "votes_count": 0, "ships_count": 0, "projects": [], "coding_time_seconds": 0, "coding_time_seconds_today": 0, "balance": "You need to have a pocket watcher badge to view this.", "badges": [], "created_at": "2025-07-21T18:34:48.375-04:00", "updated_at": "2025-09-01T03:28:11.562-04:00", "avatar": "https://avatars.slack-edge.com/2025-09-01/9452567587697_5e31d73ec826782dc00c_original.png", "custom_css": null}, {"id": 16883, "slack_id": "U0977C2L38R", "display_name": "Sanidhya Singh", "bio": null, "projects_count": 0, "devlogs_count": 0, "votes_count": 0, "ships_count": 0, "projects": [], "coding_time_seconds": 0, "coding_time_seconds_today": 0, "balance": "You need to have a pocket watcher badge to view this.", "badges": [], "created_at": "2025-07-21T18:35:16.199-04:00", "updated_at": "2025-07-22T03:31:38.786-04:00", "avatar": "https://secure.gravatar.com/avatar/f107cd43158ce538037b8ad4d7e32254.jpg?s=512&d=https%3A%2F%2Fa.slack-edge.com%2Fdf10d%2Fimg%2Favatars%2Fava_0008-512.png", "custom_css": null}, {"id": 16884, "slack_id": "U096DCEFUP9", "display_name": "As", "bio": null, "projects_count": 0, "devlogs_count": 0, "votes_count": 0, "ships_count": 0, "projects": [], "coding_time_seconds": 0, "coding_time_seconds_today": 0, "balance": "You need to have a pocket watcher badge to view this.", "badges": [], "created_at": "2025-07-21T18:36:20.619-04:00", "updated_at": "2025-07-22T03:31:38.880-04:00", "avatar": "https://secure.gravatar.com/avatar/f2b39297f654414ce7db27bb502ce98a.jpg?s=512&d=https%3A%2F%2Fa.slack-edge.com%2Fdf10d%2Fimg%2Favatars%2Fava_0006-512.png", "custom_css": null}, {"id": 16885, "slack_id": "U096S7NMPC5", "display_name": "M", "bio": null, "projects_count": 0, "devlogs_count": 0, "votes_count": 0, "ships_count": 0, "projects": [], "coding_time_seconds": 0, "coding_time_seconds_today": 0, "balance": "You need to have a pocket watcher badge to view this.", "badges": [], "created_at": "2025-07-21T18:36:59.654-04:00", "updated_at": "2025-07-22T03:31:38.954-04:00", "avatar": "https://secure.gravatar.com/avatar/a53c6f6844e7416d28f7da18c037cc6a.jpg?s=512&d=https%3A%2F%2Fa.slack-edge.com%2Fdf10d%2Fimg%2Favatars%2Fava_0016-512.png", "custom_css": null}], "pagination": {"page": 840, "pages": 1192, "count": 23828, "items": 20}}