{"users": [{"id": 16906, "slack_id": "U096U6JFTPU", "display_name": "Mega", "bio": "", "projects_count": 0, "devlogs_count": 0, "votes_count": 0, "ships_count": 0, "projects": [], "coding_time_seconds": 301814, "coding_time_seconds_today": 5161, "balance": "You need to have a pocket watcher badge to view this.", "badges": [], "created_at": "2025-07-21T18:49:57.795-04:00", "updated_at": "2025-07-22T03:31:44.879-04:00", "avatar": "https://secure.gravatar.com/avatar/8d5e9d60b5e2ec63e1a809f0750fb2e6.jpg?s=512&d=https%3A%2F%2Fa.slack-edge.com%2Fdf10d%2Fimg%2Favatars%2Fava_0024-512.png", "custom_css": null}, {"id": 16907, "slack_id": "U0977D754JV", "display_name": "Lokendra Shiv Sharma", "bio": null, "projects_count": 0, "devlogs_count": 0, "votes_count": 0, "ships_count": 0, "projects": [], "coding_time_seconds": 0, "coding_time_seconds_today": 0, "balance": "You need to have a pocket watcher badge to view this.", "badges": [], "created_at": "2025-07-21T18:52:03.843-04:00", "updated_at": "2025-07-22T03:31:44.966-04:00", "avatar": "https://secure.gravatar.com/avatar/7f70c084aef5a0e7db12acc4e8e2b0cc.jpg?s=512&d=https%3A%2F%2Fa.slack-edge.com%2Fdf10d%2Fimg%2Favatars%2Fava_0005-512.png", "custom_css": null}, {"id": 16908, "slack_id": "U096VDMGXL4", "display_name": "Luke Lee (\uac1c\ubc1c\uc0c8\ubc1c)", "bio": null, "projects_count": 0, "devlogs_count": 0, "votes_count": 0, "ships_count": 0, "projects": [], "coding_time_seconds": 0, "coding_time_seconds_today": 0, "balance": "You need to have a pocket watcher badge to view this.", "badges": [], "created_at": "2025-07-21T18:52:49.378-04:00", "updated_at": "2025-07-22T03:31:45.071-04:00", "avatar": "https://avatars.slack-edge.com/2025-07-21/9226961005315_4e71514fd467e7c43cb9_original.png", "custom_css": null}, {"id": 16909, "slack_id": "U097FUBDFAL", "display_name": "marina prieto", "bio": null, "projects_count": 0, "devlogs_count": 0, "votes_count": 0, "ships_count": 0, "projects": [], "coding_time_seconds": 0, "coding_time_seconds_today": 0, "balance": "You need to have a pocket watcher badge to view this.", "badges": [], "created_at": "2025-07-21T18:52:57.496-04:00", "updated_at": "2025-07-22T03:31:45.151-04:00", "avatar": "https://avatars.slack-edge.com/2025-07-21/9226961084899_7257b4c15d13e13f1419_original.jpg", "custom_css": null}, {"id": 16910, "slack_id": "U06N2H8MM4H", "display_name": "karunya penumalla", "bio": null, "projects_count": 0, "devlogs_count": 0, "votes_count": 0, "ships_count": 0, "projects": [], "coding_time_seconds": 181238, "coding_time_seconds_today": 0, "balance": "You need to have a pocket watcher badge to view this.", "badges": [], "created_at": "2025-07-21T18:54:23.412-04:00", "updated_at": "2025-08-07T08:08:00.700-04:00", "avatar": "https://avatars.slack-edge.com/2024-12-21/8211732494404_e8953263f8920b3a2f65_original.png", "custom_css": null}, {"id": 16911, "slack_id": "U096R49V5NJ", "display_name": "Rita", "bio": null, "projects_count": 0, "devlogs_count": 0, "votes_count": 0, "ships_count": 0, "projects": [], "coding_time_seconds": 0, "coding_time_seconds_today": 0, "balance": "You need to have a pocket watcher badge to view this.", "badges": [], "created_at": "2025-07-21T18:56:47.965-04:00", "updated_at": "2025-07-22T03:31:45.288-04:00", "avatar": "https://secure.gravatar.com/avatar/794dab5ced0112d3548580fd99746693.jpg?s=512&d=https%3A%2F%2Fa.slack-edge.com%2Fdf10d%2Fimg%2Favatars%2Fava_0002-512.png", "custom_css": null}, {"id": 16912, "slack_id": "U096R4711JA", "display_name": "Francisco Epi\u00e2nio", "bio": null, "projects_count": 0, "devlogs_count": 0, "votes_count": 0, "ships_count": 0, "projects": [], "coding_time_seconds": 0, "coding_time_seconds_today": 0, "balance": "You need to have a pocket watcher badge to view this.", "badges": [], "created_at": "2025-07-21T18:57:10.383-04:00", "updated_at": "2025-07-22T04:40:41.121-04:00", "avatar": "https://secure.gravatar.com/avatar/ec8b99489655416c005bbeb1fe63d5a6.jpg?s=512&d=https%3A%2F%2Fa.slack-edge.com%2Fdf10d%2Fimg%2Favatars%2Fava_0009-512.png", "custom_css": null}, {"id": 16913, "slack_id": "U0977DVL41X", "display_name": "Rahul Karmakar", "bio": null, "projects_count": 0, "devlogs_count": 0, "votes_count": 0, "ships_count": 0, "projects": [], "coding_time_seconds": 214, "coding_time_seconds_today": 0, "balance": "You need to have a pocket watcher badge to view this.", "badges": [], "created_at": "2025-07-21T18:57:45.918-04:00", "updated_at": "2025-07-22T03:31:45.446-04:00", "avatar": "https://secure.gravatar.com/avatar/646d8eee76770ccc9416d3989e8d57bd.jpg?s=512&d=https%3A%2F%2Fa.slack-edge.com%2Fdf10d%2Fimg%2Favatars%2Fava_0020-512.png", "custom_css": null}, {"id": 16914, "slack_id": "U096VB880VA", "display_name": "sylnz", "bio": null, "projects_count": 0, "devlogs_count": 0, "votes_count": 0, "ships_count": 0, "projects": [], "coding_time_seconds": 0, "coding_time_seconds_today": 0, "balance": "You need to have a pocket watcher badge to view this.", "badges": [], "created_at": "2025-07-21T18:57:59.624-04:00", "updated_at": "2025-07-22T03:31:45.528-04:00", "avatar": "https://secure.gravatar.com/avatar/fcad73ea52021709ffe964d35b73cc73.jpg?s=512&d=https%3A%2F%2Fa.slack-edge.com%2Fdf10d%2Fimg%2Favatars%2Fava_0026-512.png", "custom_css": null}, {"id": 16915, "slack_id": "U096NU9JA75", "display_name": "gigo", "bio": null, "projects_count": 0, "devlogs_count": 0, "votes_count": 0, "ships_count": 0, "projects": [], "coding_time_seconds": 0, "coding_time_seconds_today": 0, "balance": "You need to have a pocket watcher badge to view this.", "badges": [], "created_at": "2025-07-21T18:57:59.886-04:00", "updated_at": "2025-07-22T03:31:45.606-04:00", "avatar": "https://secure.gravatar.com/avatar/b94cd811fee981f788fb01d759ac7fd5.jpg?s=512&d=https%3A%2F%2Fa.slack-edge.com%2Fdf10d%2Fimg%2Favatars%2Fava_0001-512.png", "custom_css": null}, {"id": 16916, "slack_id": "U096DETBUK1", "display_name": "rahul", "bio": null, "projects_count": 0, "devlogs_count": 0, "votes_count": 0, "ships_count": 0, "projects": [], "coding_time_seconds": 0, "coding_time_seconds_today": 0, "balance": "You need to have a pocket watcher badge to view this.", "badges": [], "created_at": "2025-07-21T18:58:15.392-04:00", "updated_at": "2025-07-22T03:31:45.732-04:00", "avatar": "https://secure.gravatar.com/avatar/debd53c7622798f3ff21f38c6f595805.jpg?s=512&d=https%3A%2F%2Fa.slack-edge.com%2Fdf10d%2Fimg%2Favatars%2Fava_0023-512.png", "custom_css": null}, {"id": 16917, "slack_id": "U096R4BDW4E", "display_name": "Jason R", "bio": null, "projects_count": 0, "devlogs_count": 0, "votes_count": 0, "ships_count": 0, "projects": [], "coding_time_seconds": 1142, "coding_time_seconds_today": 0, "balance": "You need to have a pocket watcher badge to view this.", "badges": [], "created_at": "2025-07-21T18:58:29.704-04:00", "updated_at": "2025-07-22T03:31:45.819-04:00", "avatar": "https://secure.gravatar.com/avatar/1ec1dfef5f29f16a6c4c0d94fd3f7f88.jpg?s=512&d=https%3A%2F%2Fa.slack-edge.com%2Fdf10d%2Fimg%2Favatars%2Fava_0001-512.png", "custom_css": null}, {"id": 16918, "slack_id": "U096U7U9H5G", "display_name": "Gonzalo Cartes", "bio": null, "projects_count": 0, "devlogs_count": 0, "votes_count": 0, "ships_count": 0, "projects": [], "coding_time_seconds": 0, "coding_time_seconds_today": 0, "balance": "You need to have a pocket watcher badge to view this.", "badges": [], "created_at": "2025-07-21T19:00:22.593-04:00", "updated_at": "2025-07-22T03:31:45.913-04:00", "avatar": "https://avatars.slack-edge.com/2025-07-21/9229168996182_44174de66e9b175bf863_original.jpg", "custom_css": null}, {"id": 16919, "slack_id": "U097GLXMLN4", "display_name": "caterpillar the", "bio": null, "projects_count": 2, "devlogs_count": 1, "votes_count": 4, "ships_count": 1, "projects": [{"id": 7604, "title": "The UFO Game", "devlogs_count": 0, "created_at": "2025-07-22T09:07:34.338-04:00"}, {"id": 8640, "title": "Rock Paper Scissors", "devlogs_count": 1, "created_at": "2025-07-28T18:15:28.901-04:00"}], "coding_time_seconds": 14483, "coding_time_seconds_today": 0, "balance": "You need to have a pocket watcher badge to view this.", "badges": [], "created_at": "2025-07-21T19:01:23.660-04:00", "updated_at": "2025-07-22T09:03:56.654-04:00", "avatar": "https://secure.gravatar.com/avatar/7a93d0e1d9448f9fa53f6ad33d15aa7a.jpg?s=512&d=https%3A%2F%2Fa.slack-edge.com%2Fdf10d%2Fimg%2Favatars%2Fava_0001-512.png", "custom_css": null}, {"id": 16920, "slack_id": "U0977EBHPKK", "display_name": "Aman", "bio": null, "projects_count": 1, "devlogs_count": 0, "votes_count": 0, "ships_count": 0, "projects": [{"id": 7512, "title": "gitcom", "devlogs_count": 0, "created_at": "2025-07-22T02:06:46.975-04:00"}], "coding_time_seconds": 263466, "coding_time_seconds_today": 679, "balance": "You need to have a pocket watcher badge to view this.", "badges": [], "created_at": "2025-07-21T19:01:44.834-04:00", "updated_at": "2025-07-22T03:31:46.066-04:00", "avatar": "https://secure.gravatar.com/avatar/326995fa92a3d339aeb1dc232fd5cca6.jpg?s=512&d=https%3A%2F%2Fa.slack-edge.com%2Fdf10d%2Fimg%2Favatars%2Fava_0024-512.png", "custom_css": null}, {"id": 16921, "slack_id": "U096R4RU9HU", "display_name": "Kalyan Babu Allamudi", "bio": null, "projects_count": 0, "devlogs_count": 0, "votes_count": 0, "ships_count": 0, "projects": [], "coding_time_seconds": 0, "coding_time_seconds_today": 0, "balance": "You need to have a pocket watcher badge to view this.", "badges": [], "created_at": "2025-07-21T19:02:09.020-04:00", "updated_at": "2025-07-22T03:31:46.180-04:00", "avatar": "https://secure.gravatar.com/avatar/e25b299f023e4b1a604eada31d10d64d.jpg?s=512&d=https%3A%2F%2Fa.slack-edge.com%2Fdf10d%2Fimg%2Favatars%2Fava_0001-512.png", "custom_css": null}, {"id": 16922, "slack_id": "U096SA6RT9B", "display_name": "Noodlex", "bio": null, "projects_count": 0, "devlogs_count": 0, "votes_count": 0, "ships_count": 0, "projects": [], "coding_time_seconds": 0, "coding_time_seconds_today": 0, "balance": "You need to have a pocket watcher badge to view this.", "badges": [], "created_at": "2025-07-21T19:08:34.272-04:00", "updated_at": "2025-07-22T03:31:46.262-04:00", "avatar": "https://secure.gravatar.com/avatar/d4c94b0baf6680209fe9a054e8905c3a.jpg?s=512&d=https%3A%2F%2Fa.slack-edge.com%2Fdf10d%2Fimg%2Favatars%2Fava_0006-512.png", "custom_css": null}, {"id": 16923, "slack_id": "U096NVCR683", "display_name": "Adeo", "bio": null, "projects_count": 0, "devlogs_count": 0, "votes_count": 0, "ships_count": 0, "projects": [], "coding_time_seconds": 0, "coding_time_seconds_today": 0, "balance": "You need to have a pocket watcher badge to view this.", "badges": [], "created_at": "2025-07-21T19:09:43.838-04:00", "updated_at": "2025-07-24T18:49:50.287-04:00", "avatar": "https://secure.gravatar.com/avatar/9ceb74cd137e17d754bad3aa9235dcd8.jpg?s=512&d=https%3A%2F%2Fa.slack-edge.com%2Fdf10d%2Fimg%2Favatars%2Fava_0024-512.png", "custom_css": null}, {"id": 16924, "slack_id": "U096VFBGSHJ", "display_name": "Lucas Eduardo (Baihanu)", "bio": null, "projects_count": 0, "devlogs_count": 0, "votes_count": 0, "ships_count": 0, "projects": [], "coding_time_seconds": 0, "coding_time_seconds_today": 0, "balance": "You need to have a pocket watcher badge to view this.", "badges": [], "created_at": "2025-07-21T19:10:24.250-04:00", "updated_at": "2025-07-22T03:31:47.709-04:00", "avatar": "https://avatars.slack-edge.com/2025-07-21/9245525127361_915f6f1729b4582a88c5_original.png", "custom_css": null}, {"id": 16925, "slack_id": "U0977EMPGKT", "display_name": "Haziq", "bio": null, "projects_count": 2, "devlogs_count": 0, "votes_count": 1, "ships_count": 0, "projects": [{"id": 8358, "title": "Code For WRO Robotics Competition", "devlogs_count": 0, "created_at": "2025-07-26T13:33:21.139-04:00"}, {"id": 11240, "title": "All-Seeing-Glasses", "devlogs_count": 0, "created_at": "2025-08-14T08:22:51.623-04:00"}], "coding_time_seconds": 58402, "coding_time_seconds_today": 0, "balance": "You need to have a pocket watcher badge to view this.", "badges": [], "created_at": "2025-07-21T19:10:27.638-04:00", "updated_at": "2025-08-07T10:26:48.123-04:00", "avatar": "https://avatars.slack-edge.com/2025-07-23/9252055298497_b6cde9bc1e4f0ebdbb1a_original.jpg", "custom_css": null}], "pagination": {"page": 842, "pages": 1192, "count": 23828, "items": 20}}