{"users": [{"id": 16946, "slack_id": "U096P1C4XR9", "display_name": "Yefta Asyel", "bio": null, "projects_count": 0, "devlogs_count": 0, "votes_count": 0, "ships_count": 0, "projects": [], "coding_time_seconds": 28438, "coding_time_seconds_today": 0, "balance": "You need to have a pocket watcher badge to view this.", "badges": [], "created_at": "2025-07-21T19:26:10.348-04:00", "updated_at": "2025-07-22T03:32:01.689-04:00", "avatar": "https://secure.gravatar.com/avatar/56b0a300be441011fd60eb79cd8f938c.jpg?s=512&d=https%3A%2F%2Fa.slack-edge.com%2Fdf10d%2Fimg%2Favatars%2Fava_0000-512.png", "custom_css": null}, {"id": 16947, "slack_id": "U096S90817X", "display_name": "preston", "bio": null, "projects_count": 0, "devlogs_count": 0, "votes_count": 0, "ships_count": 0, "projects": [], "coding_time_seconds": 0, "coding_time_seconds_today": 0, "balance": "You need to have a pocket watcher badge to view this.", "badges": [], "created_at": "2025-07-21T19:27:30.513-04:00", "updated_at": "2025-07-22T03:32:01.789-04:00", "avatar": "https://secure.gravatar.com/avatar/41031f3a8a7db30b9b88d50480f652f4.jpg?s=512&d=https%3A%2F%2Fa.slack-edge.com%2Fdf10d%2Fimg%2Favatars%2Fava_0002-512.png", "custom_css": null}, {"id": 16948, "slack_id": "U096R6TJR7Y", "display_name": "Wenxuan Shen", "bio": null, "projects_count": 1, "devlogs_count": 5, "votes_count": 20, "ships_count": 1, "projects": [{"id": 7451, "title": "RandPicker", "devlogs_count": 5, "created_at": "2025-07-21T20:29:06.349-04:00"}], "coding_time_seconds": 82229, "coding_time_seconds_today": 0, "balance": "You need to have a pocket watcher badge to view this.", "badges": [], "created_at": "2025-07-21T19:28:37.977-04:00", "updated_at": "2025-08-08T08:29:45.302-04:00", "avatar": "https://secure.gravatar.com/avatar/68418d68ff482c55793431775dbbf2ef.jpg?s=512&d=https%3A%2F%2Fa.slack-edge.com%2Fdf10d%2Fimg%2Favatars%2Fava_0016-512.png", "custom_css": null}, {"id": 16949, "slack_id": "U096LJXLKTP", "display_name": "JordKiller __", "bio": null, "projects_count": 0, "devlogs_count": 0, "votes_count": 0, "ships_count": 0, "projects": [], "coding_time_seconds": 0, "coding_time_seconds_today": 0, "balance": "You need to have a pocket watcher badge to view this.", "badges": [], "created_at": "2025-07-21T19:28:57.948-04:00", "updated_at": "2025-07-22T04:51:32.657-04:00", "avatar": "https://avatars.slack-edge.com/2025-07-21/9229255210582_ead77255ba0094489ff2_original.png", "custom_css": null}, {"id": 16950, "slack_id": "U096VGXJS92", "display_name": "GLStudios", "bio": null, "projects_count": 2, "devlogs_count": 33, "votes_count": 8, "ships_count": 0, "projects": [{"id": 7475, "title": "GLang", "devlogs_count": 32, "created_at": "2025-07-21T22:58:30.179-04:00"}, {"id": 8950, "title": "VEX Pushback Bot", "devlogs_count": 1, "created_at": "2025-07-29T22:57:45.380-04:00"}], "coding_time_seconds": 257888, "coding_time_seconds_today": 0, "balance": "You need to have a pocket watcher badge to view this.", "badges": [], "created_at": "2025-07-21T19:29:45.867-04:00", "updated_at": "2025-08-30T11:20:10.016-04:00", "avatar": "https://avatars.slack-edge.com/2025-08-17/9364934964258_1d661577ff39a64189d7_original.png", "custom_css": null}, {"id": 16951, "slack_id": "U0977GPJRBK", "display_name": "J222222", "bio": null, "projects_count": 0, "devlogs_count": 0, "votes_count": 0, "ships_count": 0, "projects": [], "coding_time_seconds": 0, "coding_time_seconds_today": 0, "balance": "You need to have a pocket watcher badge to view this.", "badges": [], "created_at": "2025-07-21T19:31:23.153-04:00", "updated_at": "2025-07-22T03:32:02.179-04:00", "avatar": "https://secure.gravatar.com/avatar/f3fc01ba2dab464aecad15c7387d101a.jpg?s=512&d=https%3A%2F%2Fa.slack-edge.com%2Fdf10d%2Fimg%2Favatars%2Fava_0004-512.png", "custom_css": null}, {"id": 16952, "slack_id": "U0977GX69HP", "display_name": "Rangga Gunarto", "bio": null, "projects_count": 3, "devlogs_count": 33, "votes_count": 108, "ships_count": 3, "projects": [{"id": 7453, "title": "b-top", "devlogs_count": 10, "created_at": "2025-07-21T20:44:58.074-04:00"}, {"id": 8707, "title": "git-hydra", "devlogs_count": 8, "created_at": "2025-07-29T02:05:56.089-04:00"}, {"id": 7780, "title": "EasyOps", "devlogs_count": 15, "created_at": "2025-07-23T02:24:25.869-04:00"}], "coding_time_seconds": 239698, "coding_time_seconds_today": 0, "balance": "You need to have a pocket watcher badge to view this.", "badges": [], "created_at": "2025-07-21T19:32:56.604-04:00", "updated_at": "2025-08-17T22:39:15.477-04:00", "avatar": "https://avatars.slack-edge.com/2025-07-21/9229267793078_0f5c7181d788706160cd_original.jpg", "custom_css": null}, {"id": 16953, "slack_id": "U0976KB1AU9", "display_name": "Katie", "bio": null, "projects_count": 0, "devlogs_count": 0, "votes_count": 0, "ships_count": 0, "projects": [], "coding_time_seconds": 3827, "coding_time_seconds_today": 0, "balance": "You need to have a pocket watcher badge to view this.", "badges": [], "created_at": "2025-07-21T19:34:03.547-04:00", "updated_at": "2025-07-23T01:59:01.952-04:00", "avatar": "https://secure.gravatar.com/avatar/55c4ae7785f0bc07b2f7ef01e90bc942.jpg?s=512&d=https%3A%2F%2Fa.slack-edge.com%2Fdf10d%2Fimg%2Favatars%2Fava_0006-512.png", "custom_css": null}, {"id": 16954, "slack_id": "U096VHJ4VNY", "display_name": "Yassir", "bio": null, "projects_count": 0, "devlogs_count": 0, "votes_count": 0, "ships_count": 0, "projects": [], "coding_time_seconds": 0, "coding_time_seconds_today": 0, "balance": "You need to have a pocket watcher badge to view this.", "badges": [], "created_at": "2025-07-21T19:34:53.416-04:00", "updated_at": "2025-07-22T03:32:02.450-04:00", "avatar": "https://secure.gravatar.com/avatar/6f60a2619718a6679a30e06987b255f7.jpg?s=512&d=https%3A%2F%2Fa.slack-edge.com%2Fdf10d%2Fimg%2Favatars%2Fava_0000-512.png", "custom_css": null}, {"id": 16955, "slack_id": "U096VHW6RQU", "display_name": "Seb", "bio": null, "projects_count": 0, "devlogs_count": 0, "votes_count": 0, "ships_count": 0, "projects": [], "coding_time_seconds": 12646, "coding_time_seconds_today": 0, "balance": "You need to have a pocket watcher badge to view this.", "badges": [], "created_at": "2025-07-21T19:38:36.158-04:00", "updated_at": "2025-07-22T03:32:02.538-04:00", "avatar": "https://secure.gravatar.com/avatar/de2c8ee4cb76ce638a44ca8d02ea62bb.jpg?s=512&d=https%3A%2F%2Fa.slack-edge.com%2Fdf10d%2Fimg%2Favatars%2Fava_0020-512.png", "custom_css": null}, {"id": 16956, "slack_id": "U096VHRA9LL", "display_name": "Aepkrish Mandhan", "bio": null, "projects_count": 0, "devlogs_count": 0, "votes_count": 0, "ships_count": 0, "projects": [], "coding_time_seconds": 0, "coding_time_seconds_today": 0, "balance": "You need to have a pocket watcher badge to view this.", "badges": [], "created_at": "2025-07-21T19:39:02.956-04:00", "updated_at": "2025-07-22T03:32:02.625-04:00", "avatar": "https://avatars.slack-edge.com/2025-07-21/9254844479808_468c78f547fa7b34308c_original.png", "custom_css": null}, {"id": 16957, "slack_id": "U096DJNTWDD", "display_name": "JPWH", "bio": null, "projects_count": 0, "devlogs_count": 0, "votes_count": 0, "ships_count": 0, "projects": [], "coding_time_seconds": 0, "coding_time_seconds_today": 0, "balance": "You need to have a pocket watcher badge to view this.", "badges": [], "created_at": "2025-07-21T19:39:55.560-04:00", "updated_at": "2025-07-22T03:32:06.736-04:00", "avatar": "https://secure.gravatar.com/avatar/2a29552841e9a313b5592c74f893074e.jpg?s=512&d=https%3A%2F%2Fa.slack-edge.com%2Fdf10d%2Fimg%2Favatars%2Fava_0026-512.png", "custom_css": null}, {"id": 16958, "slack_id": "U096UBJU9NE", "display_name": "Eru", "bio": null, "projects_count": 0, "devlogs_count": 0, "votes_count": 0, "ships_count": 0, "projects": [], "coding_time_seconds": 0, "coding_time_seconds_today": 0, "balance": "You need to have a pocket watcher badge to view this.", "badges": [], "created_at": "2025-07-21T19:40:01.679-04:00", "updated_at": "2025-07-22T03:32:06.819-04:00", "avatar": "https://secure.gravatar.com/avatar/b1d765b751a42c9317028c644e818b84.jpg?s=512&d=https%3A%2F%2Fa.slack-edge.com%2Fdf10d%2Fimg%2Favatars%2Fava_0022-512.png", "custom_css": null}, {"id": 16959, "slack_id": "U08RMGGU47L", "display_name": "Mahim Tiwari", "bio": null, "projects_count": 0, "devlogs_count": 0, "votes_count": 0, "ships_count": 0, "projects": [], "coding_time_seconds": 778136, "coding_time_seconds_today": 0, "balance": "You need to have a pocket watcher badge to view this.", "badges": [], "created_at": "2025-07-21T19:40:14.451-04:00", "updated_at": "2025-08-03T15:37:57.652-04:00", "avatar": "https://avatars.slack-edge.com/2025-08-03/9294048867766_7c28c72cb6aac50f5f0e_original.jpg", "custom_css": null}, {"id": 16960, "slack_id": "U096VEREFHS", "display_name": "peteywee", "bio": null, "projects_count": 0, "devlogs_count": 0, "votes_count": 0, "ships_count": 0, "projects": [], "coding_time_seconds": 0, "coding_time_seconds_today": 0, "balance": "You need to have a pocket watcher badge to view this.", "badges": [], "created_at": "2025-07-21T19:41:07.840-04:00", "updated_at": "2025-07-22T03:32:07.056-04:00", "avatar": "https://secure.gravatar.com/avatar/a60f8e13bce617fda24e74dab449d99a.jpg?s=512&d=https%3A%2F%2Fa.slack-edge.com%2Fdf10d%2Fimg%2Favatars%2Fava_0015-512.png", "custom_css": null}, {"id": 16961, "slack_id": "U096DJYJ57H", "display_name": "dhrish reddy", "bio": null, "projects_count": 0, "devlogs_count": 0, "votes_count": 0, "ships_count": 0, "projects": [], "coding_time_seconds": 0, "coding_time_seconds_today": 0, "balance": "You need to have a pocket watcher badge to view this.", "badges": [], "created_at": "2025-07-21T19:41:24.479-04:00", "updated_at": "2025-07-22T03:32:07.147-04:00", "avatar": "https://avatars.slack-edge.com/2025-07-21/9230456363973_72bcd7148a1e416de06f_original.jpg", "custom_css": null}, {"id": 16962, "slack_id": "U096VHYB56G", "display_name": "Aarav Vignesh", "bio": null, "projects_count": 0, "devlogs_count": 0, "votes_count": 0, "ships_count": 0, "projects": [], "coding_time_seconds": 5971, "coding_time_seconds_today": 0, "balance": "You need to have a pocket watcher badge to view this.", "badges": [], "created_at": "2025-07-21T19:41:51.788-04:00", "updated_at": "2025-07-22T03:32:07.235-04:00", "avatar": "https://secure.gravatar.com/avatar/7343307c98995c34939a85e1c92c96b8.jpg?s=512&d=https%3A%2F%2Fa.slack-edge.com%2Fdf10d%2Fimg%2Favatars%2Fava_0005-512.png", "custom_css": null}, {"id": 16963, "slack_id": "U096UBWUNBC", "display_name": "2131 Raviteja", "bio": null, "projects_count": 0, "devlogs_count": 0, "votes_count": 0, "ships_count": 0, "projects": [], "coding_time_seconds": 0, "coding_time_seconds_today": 0, "balance": "You need to have a pocket watcher badge to view this.", "badges": [], "created_at": "2025-07-21T19:43:25.844-04:00", "updated_at": "2025-07-22T03:32:07.313-04:00", "avatar": "https://avatars.slack-edge.com/2025-07-21/9232415052962_11214f0a6fb573f12530_original.jpg", "custom_css": null}, {"id": 16964, "slack_id": "U096DJYJDE3", "display_name": "MASA_dev", "bio": null, "projects_count": 0, "devlogs_count": 0, "votes_count": 0, "ships_count": 0, "projects": [], "coding_time_seconds": 0, "coding_time_seconds_today": 0, "balance": "You need to have a pocket watcher badge to view this.", "badges": [], "created_at": "2025-07-21T19:44:07.769-04:00", "updated_at": "2025-07-22T03:32:07.391-04:00", "avatar": "https://avatars.slack-edge.com/2025-07-21/9229299423078_9972b87ec25c0a6c1401_original.jpg", "custom_css": null}, {"id": 16965, "slack_id": "U096VJ9MUSY", "display_name": "Duck In Gamestop", "bio": null, "projects_count": 0, "devlogs_count": 0, "votes_count": 0, "ships_count": 0, "projects": [], "coding_time_seconds": 0, "coding_time_seconds_today": 0, "balance": "You need to have a pocket watcher badge to view this.", "badges": [], "created_at": "2025-07-21T19:45:05.913-04:00", "updated_at": "2025-07-22T03:32:07.521-04:00", "avatar": "https://secure.gravatar.com/avatar/bb911ffac2e1d6ab6f6e9591955e0c31.jpg?s=512&d=https%3A%2F%2Fa.slack-edge.com%2Fdf10d%2Fimg%2Favatars%2Fava_0011-512.png", "custom_css": null}], "pagination": {"page": 844, "pages": 1192, "count": 23828, "items": 20}}