{"users": [{"id": 16966, "slack_id": "U096VJD3612", "display_name": "Shyam Kaarthikeyan", "bio": null, "projects_count": 0, "devlogs_count": 0, "votes_count": 0, "ships_count": 0, "projects": [], "coding_time_seconds": 0, "coding_time_seconds_today": 0, "balance": "You need to have a pocket watcher badge to view this.", "badges": [], "created_at": "2025-07-21T19:45:19.286-04:00", "updated_at": "2025-07-22T03:32:07.604-04:00", "avatar": "https://avatars.slack-edge.com/2025-07-21/9254859688896_3418fafee4bf7a5579bf_original.png", "custom_css": null}, {"id": 16967, "slack_id": "U096UBQ7CUS", "display_name": "Vamsi Krishna Muvvala", "bio": null, "projects_count": 0, "devlogs_count": 0, "votes_count": 0, "ships_count": 0, "projects": [], "coding_time_seconds": 0, "coding_time_seconds_today": 0, "balance": "You need to have a pocket watcher badge to view this.", "badges": [], "created_at": "2025-07-21T19:45:41.581-04:00", "updated_at": "2025-07-22T03:32:07.687-04:00", "avatar": "https://secure.gravatar.com/avatar/7fc7818c4b1814378bdf06f6ee7248d6.jpg?s=512&d=https%3A%2F%2Fa.slack-edge.com%2Fdf10d%2Fimg%2Favatars%2Fava_0013-512.png", "custom_css": null}, {"id": 16968, "slack_id": "U096R8MAG5C", "display_name": "Hoa Nguyen", "bio": null, "projects_count": 0, "devlogs_count": 0, "votes_count": 0, "ships_count": 0, "projects": [], "coding_time_seconds": 0, "coding_time_seconds_today": 0, "balance": "You need to have a pocket watcher badge to view this.", "badges": [], "created_at": "2025-07-21T19:45:45.748-04:00", "updated_at": "2025-07-22T03:32:07.788-04:00", "avatar": "https://secure.gravatar.com/avatar/a4b43c3acae4161b1a8f085c55f2fdb2.jpg?s=512&d=https%3A%2F%2Fa.slack-edge.com%2Fdf10d%2Fimg%2Favatars%2Fava_0025-512.png", "custom_css": null}, {"id": 16969, "slack_id": "U096DKCC5D5", "display_name": "Zulhelmi", "bio": null, "projects_count": 0, "devlogs_count": 0, "votes_count": 0, "ships_count": 0, "projects": [], "coding_time_seconds": 0, "coding_time_seconds_today": 0, "balance": "You need to have a pocket watcher badge to view this.", "badges": [], "created_at": "2025-07-21T19:46:24.550-04:00", "updated_at": "2025-07-22T03:32:07.868-04:00", "avatar": "https://secure.gravatar.com/avatar/3b733b5d3b58242dd274f1446c068312.jpg?s=512&d=https%3A%2F%2Fa.slack-edge.com%2Fdf10d%2Fimg%2Favatars%2Fava_0023-512.png", "custom_css": null}, {"id": 16970, "slack_id": "U096NUKS6MR", "display_name": "Simeon Rubin", "bio": null, "projects_count": 0, "devlogs_count": 0, "votes_count": 0, "ships_count": 0, "projects": [], "coding_time_seconds": 6255, "coding_time_seconds_today": 0, "balance": "You need to have a pocket watcher badge to view this.", "badges": [], "created_at": "2025-07-21T19:46:25.037-04:00", "updated_at": "2025-07-22T03:32:07.956-04:00", "avatar": "https://secure.gravatar.com/avatar/d1e1790ec8701d0986bc4351caffab1a.jpg?s=512&d=https%3A%2F%2Fa.slack-edge.com%2Fdf10d%2Fimg%2Favatars%2Fava_0009-512.png", "custom_css": null}, {"id": 16971, "slack_id": "U096VJJAX6Y", "display_name": "Sanjay", "bio": null, "projects_count": 0, "devlogs_count": 0, "votes_count": 0, "ships_count": 0, "projects": [], "coding_time_seconds": 0, "coding_time_seconds_today": 0, "balance": "You need to have a pocket watcher badge to view this.", "badges": [], "created_at": "2025-07-21T19:46:27.461-04:00", "updated_at": "2025-07-22T03:32:08.040-04:00", "avatar": "https://secure.gravatar.com/avatar/b746db384fb1f541ab44d8a162d9392c.jpg?s=512&d=https%3A%2F%2Fa.slack-edge.com%2Fdf10d%2Fimg%2Favatars%2Fava_0013-512.png", "custom_css": null}, {"id": 16972, "slack_id": "U096R8RL8B0", "display_name": "Zuzanna Paluch", "bio": null, "projects_count": 0, "devlogs_count": 0, "votes_count": 0, "ships_count": 0, "projects": [], "coding_time_seconds": 0, "coding_time_seconds_today": 0, "balance": "You need to have a pocket watcher badge to view this.", "badges": [], "created_at": "2025-07-21T19:47:25.215-04:00", "updated_at": "2025-07-22T03:32:08.128-04:00", "avatar": "https://secure.gravatar.com/avatar/1cca2816049f9af4281e75a3f9112416.jpg?s=512&d=https%3A%2F%2Fa.slack-edge.com%2Fdf10d%2Fimg%2Favatars%2Fava_0009-512.png", "custom_css": null}, {"id": 16973, "slack_id": "U096R8HDNPQ", "display_name": "Zachary Henton", "bio": null, "projects_count": 1, "devlogs_count": 1, "votes_count": 1, "ships_count": 0, "projects": [{"id": 7702, "title": "Webpage to house chatbot system", "devlogs_count": 1, "created_at": "2025-07-22T15:53:20.611-04:00"}], "coding_time_seconds": 3644, "coding_time_seconds_today": 0, "balance": "You need to have a pocket watcher badge to view this.", "badges": [], "created_at": "2025-07-21T19:47:29.209-04:00", "updated_at": "2025-07-22T10:59:34.431-04:00", "avatar": "https://avatars.slack-edge.com/2025-07-21/9217670803351_5c8554d03a1960337dc8_original.png", "custom_css": null}, {"id": 16974, "slack_id": "U096SDKSEF7", "display_name": "Ace", "bio": null, "projects_count": 0, "devlogs_count": 0, "votes_count": 0, "ships_count": 0, "projects": [], "coding_time_seconds": 352, "coding_time_seconds_today": 0, "balance": "You need to have a pocket watcher badge to view this.", "badges": [], "created_at": "2025-07-21T19:48:00.405-04:00", "updated_at": "2025-07-23T02:19:01.797-04:00", "avatar": "https://secure.gravatar.com/avatar/9c2915d279a6b009e0746895a568848e.jpg?s=512&d=https%3A%2F%2Fa.slack-edge.com%2Fdf10d%2Fimg%2Favatars%2Fava_0011-512.png", "custom_css": null}, {"id": 16975, "slack_id": "U0977J4DU2D", "display_name": "Misaka", "bio": null, "projects_count": 0, "devlogs_count": 0, "votes_count": 0, "ships_count": 0, "projects": [], "coding_time_seconds": 11000, "coding_time_seconds_today": 0, "balance": "You need to have a pocket watcher badge to view this.", "badges": [], "created_at": "2025-07-21T19:48:04.077-04:00", "updated_at": "2025-07-23T02:19:03.321-04:00", "avatar": "https://secure.gravatar.com/avatar/c5c8b6fb7fe84ac286d72567e2a6fed6.jpg?s=512&d=https%3A%2F%2Fa.slack-edge.com%2Fdf10d%2Fimg%2Favatars%2Fava_0011-512.png", "custom_css": null}, {"id": 16976, "slack_id": "U0977J9AX33", "display_name": "Samarth Chadha", "bio": null, "projects_count": 0, "devlogs_count": 0, "votes_count": 0, "ships_count": 0, "projects": [], "coding_time_seconds": 0, "coding_time_seconds_today": 0, "balance": "You need to have a pocket watcher badge to view this.", "badges": [], "created_at": "2025-07-21T19:48:19.960-04:00", "updated_at": "2025-07-22T03:32:08.491-04:00", "avatar": "https://secure.gravatar.com/avatar/ef02ef8aaba348f7ca20bf6bda4840fc.jpg?s=512&d=https%3A%2F%2Fa.slack-edge.com%2Fdf10d%2Fimg%2Favatars%2Fava_0017-512.png", "custom_css": null}, {"id": 16977, "slack_id": "U096UCDBRMY", "display_name": "ju uh", "bio": null, "projects_count": 0, "devlogs_count": 0, "votes_count": 0, "ships_count": 0, "projects": [], "coding_time_seconds": 3847, "coding_time_seconds_today": 0, "balance": "You need to have a pocket watcher badge to view this.", "badges": [], "created_at": "2025-07-21T19:49:35.647-04:00", "updated_at": "2025-07-22T03:32:08.650-04:00", "avatar": "https://avatars.slack-edge.com/2025-07-21/9227128029299_0c4ff7cd82cbf9c8d22a_original.png", "custom_css": null}, {"id": 16978, "slack_id": "U0977JC0D6V", "display_name": "Jacob Cook", "bio": null, "projects_count": 0, "devlogs_count": 0, "votes_count": 0, "ships_count": 0, "projects": [], "coding_time_seconds": 1040, "coding_time_seconds_today": 0, "balance": "You need to have a pocket watcher badge to view this.", "badges": [], "created_at": "2025-07-21T19:50:17.446-04:00", "updated_at": "2025-07-22T03:32:08.780-04:00", "avatar": "https://secure.gravatar.com/avatar/4ae2330c85257932e62c316138913c7b.jpg?s=512&d=https%3A%2F%2Fa.slack-edge.com%2Fdf10d%2Fimg%2Favatars%2Fava_0003-512.png", "custom_css": null}, {"id": 16979, "slack_id": "U096P3JNMM1", "display_name": "Nadine Mohammed", "bio": null, "projects_count": 0, "devlogs_count": 0, "votes_count": 0, "ships_count": 0, "projects": [], "coding_time_seconds": 13470, "coding_time_seconds_today": 0, "balance": "You need to have a pocket watcher badge to view this.", "badges": [], "created_at": "2025-07-21T19:51:15.873-04:00", "updated_at": "2025-07-22T08:58:24.503-04:00", "avatar": "https://secure.gravatar.com/avatar/88929510a0e16f19d7aa982f86db68e0.jpg?s=512&d=https%3A%2F%2Fa.slack-edge.com%2Fdf10d%2Fimg%2Favatars%2Fava_0026-512.png", "custom_css": null}, {"id": 16980, "slack_id": "U096P3GAFT5", "display_name": "Justin Bochert", "bio": null, "projects_count": 0, "devlogs_count": 0, "votes_count": 0, "ships_count": 0, "projects": [], "coding_time_seconds": 0, "coding_time_seconds_today": 0, "balance": "You need to have a pocket watcher badge to view this.", "badges": [], "created_at": "2025-07-21T19:52:01.119-04:00", "updated_at": "2025-07-22T03:32:08.993-04:00", "avatar": "https://secure.gravatar.com/avatar/0dc8535426da0f668933cc4f4e195edd.jpg?s=512&d=https%3A%2F%2Fa.slack-edge.com%2Fdf10d%2Fimg%2Favatars%2Fava_0009-512.png", "custom_css": null}, {"id": 16981, "slack_id": "U096P3HNU9Z", "display_name": "Joshua Davies (Skuffy)", "bio": null, "projects_count": 0, "devlogs_count": 0, "votes_count": 0, "ships_count": 0, "projects": [], "coding_time_seconds": 0, "coding_time_seconds_today": 0, "balance": "You need to have a pocket watcher badge to view this.", "badges": [], "created_at": "2025-07-21T19:54:28.867-04:00", "updated_at": "2025-07-22T03:32:09.081-04:00", "avatar": "https://avatars.slack-edge.com/2025-07-21/9217692048839_761bc9f6b9f1dfe1511c_original.png", "custom_css": null}, {"id": 16982, "slack_id": "U096SEBQ613", "display_name": "Akshit", "bio": null, "projects_count": 0, "devlogs_count": 0, "votes_count": 0, "ships_count": 0, "projects": [], "coding_time_seconds": 0, "coding_time_seconds_today": 0, "balance": "You need to have a pocket watcher badge to view this.", "badges": [], "created_at": "2025-07-21T19:56:02.000-04:00", "updated_at": "2025-07-22T03:32:13.211-04:00", "avatar": "https://secure.gravatar.com/avatar/124489ce8a1b6a88b20ae8f0a4563ca1.jpg?s=512&d=https%3A%2F%2Fa.slack-edge.com%2Fdf10d%2Fimg%2Favatars%2Fava_0022-512.png", "custom_css": null}, {"id": 16983, "slack_id": "U08S6161K16", "display_name": "Anay", "bio": null, "projects_count": 1, "devlogs_count": 5, "votes_count": 22, "ships_count": 1, "projects": [{"id": 7710, "title": "2d gravity sim", "devlogs_count": 5, "created_at": "2025-07-22T16:35:07.901-04:00"}], "coding_time_seconds": 61236, "coding_time_seconds_today": 0, "balance": "You need to have a pocket watcher badge to view this.", "badges": [], "created_at": "2025-07-21T19:57:25.300-04:00", "updated_at": "2025-08-06T12:25:20.278-04:00", "avatar": "https://secure.gravatar.com/avatar/2649a4a33001af51afcfc053af03a0ac.jpg?s=512&d=https%3A%2F%2Fa.slack-edge.com%2Fdf10d%2Fimg%2Favatars%2Fava_0012-512.png", "custom_css": null}, {"id": 16984, "slack_id": "U096DEN8EJK", "display_name": "Abou Bakar", "bio": "This is me Abou Bakar a MERN Stack developer having experience more than 2 years. looking forward to make some cool stuff and available of collaboration on projects", "projects_count": 1, "devlogs_count": 0, "votes_count": 1, "ships_count": 0, "projects": [{"id": 7560, "title": "Torah", "devlogs_count": 0, "created_at": "2025-07-22T05:38:15.793-04:00"}], "coding_time_seconds": 236446, "coding_time_seconds_today": 5980, "balance": "You need to have a pocket watcher badge to view this.", "badges": [], "created_at": "2025-07-21T19:57:36.069-04:00", "updated_at": "2025-07-22T17:41:53.165-04:00", "avatar": "https://avatars.slack-edge.com/2025-07-22/9254898741856_a2ce2e2b47e073c0eff3_original.jpg", "custom_css": null}, {"id": 16985, "slack_id": "U096SECJW05", "display_name": "Aman Kumar Verma", "bio": null, "projects_count": 0, "devlogs_count": 0, "votes_count": 0, "ships_count": 0, "projects": [], "coding_time_seconds": 12553, "coding_time_seconds_today": 0, "balance": "You need to have a pocket watcher badge to view this.", "badges": [], "created_at": "2025-07-21T19:57:37.398-04:00", "updated_at": "2025-07-23T15:20:02.456-04:00", "avatar": "https://secure.gravatar.com/avatar/d532227ba71e2b3af47e912bdec874f7.jpg?s=512&d=https%3A%2F%2Fa.slack-edge.com%2Fdf10d%2Fimg%2Favatars%2Fava_0026-512.png", "custom_css": null}], "pagination": {"page": 845, "pages": 1192, "count": 23828, "items": 20}}