{"users": [{"id": 17006, "slack_id": "U096VMQ0H0U", "display_name": "Aakash Jaiswal", "bio": null, "projects_count": 0, "devlogs_count": 0, "votes_count": 0, "ships_count": 0, "projects": [], "coding_time_seconds": 0, "coding_time_seconds_today": 0, "balance": "You need to have a pocket watcher badge to view this.", "badges": [], "created_at": "2025-07-21T20:17:50.517-04:00", "updated_at": "2025-07-22T03:32:23.380-04:00", "avatar": "https://avatars.slack-edge.com/2025-07-21/9233746870180_004c10b9ab56eabdc541_original.jpg", "custom_css": null}, {"id": 17007, "slack_id": "U0976V5JCKB", "display_name": "Kierstin Tippey", "bio": null, "projects_count": 0, "devlogs_count": 0, "votes_count": 0, "ships_count": 0, "projects": [], "coding_time_seconds": 0, "coding_time_seconds_today": 0, "balance": "You need to have a pocket watcher badge to view this.", "badges": [], "created_at": "2025-07-21T20:19:01.240-04:00", "updated_at": "2025-07-22T03:32:23.470-04:00", "avatar": "https://secure.gravatar.com/avatar/a586c03f2982679e13822afbde2f5ba4.jpg?s=512&d=https%3A%2F%2Fa.slack-edge.com%2Fdf10d%2Fimg%2Favatars%2Fava_0012-512.png", "custom_css": null}, {"id": 17008, "slack_id": "U096SG19SFP", "display_name": "Rimuru", "bio": null, "projects_count": 0, "devlogs_count": 0, "votes_count": 0, "ships_count": 0, "projects": [], "coding_time_seconds": 0, "coding_time_seconds_today": 0, "balance": "You need to have a pocket watcher badge to view this.", "badges": [], "created_at": "2025-07-21T20:21:43.278-04:00", "updated_at": "2025-07-22T03:32:23.565-04:00", "avatar": "https://secure.gravatar.com/avatar/39bf0b637254988f5752eeb67c59398c.jpg?s=512&d=https%3A%2F%2Fa.slack-edge.com%2Fdf10d%2Fimg%2Favatars%2Fava_0001-512.png", "custom_css": null}, {"id": 17009, "slack_id": "U0977MB866M", "display_name": "Max", "bio": null, "projects_count": 1, "devlogs_count": 0, "votes_count": 0, "ships_count": 0, "projects": [{"id": 7478, "title": "College Research", "devlogs_count": 0, "created_at": "2025-07-21T23:32:46.185-04:00"}], "coding_time_seconds": 3136, "coding_time_seconds_today": 0, "balance": "You need to have a pocket watcher badge to view this.", "badges": [], "created_at": "2025-07-21T20:21:56.861-04:00", "updated_at": "2025-07-22T03:32:23.658-04:00", "avatar": "https://secure.gravatar.com/avatar/3140cd5a8ab7c1f4a7c5980fa4d8e93c.jpg?s=512&d=https%3A%2F%2Fa.slack-edge.com%2Fdf10d%2Fimg%2Favatars%2Fava_0017-512.png", "custom_css": null}, {"id": 17010, "slack_id": "U096SGSN18V", "display_name": "Origin", "bio": null, "projects_count": 0, "devlogs_count": 0, "votes_count": 0, "ships_count": 0, "projects": [], "coding_time_seconds": 0, "coding_time_seconds_today": 0, "balance": "You need to have a pocket watcher badge to view this.", "badges": [], "created_at": "2025-07-21T20:22:32.666-04:00", "updated_at": "2025-07-22T03:32:23.736-04:00", "avatar": "https://secure.gravatar.com/avatar/250243c3a3833578182bd5a05db64dc7.jpg?s=512&d=https%3A%2F%2Fa.slack-edge.com%2Fdf10d%2Fimg%2Favatars%2Fava_0024-512.png", "custom_css": null}, {"id": 17011, "slack_id": "U096VN811J8", "display_name": "Zouari Omar", "bio": null, "projects_count": 0, "devlogs_count": 0, "votes_count": 0, "ships_count": 0, "projects": [], "coding_time_seconds": 0, "coding_time_seconds_today": 0, "balance": "You need to have a pocket watcher badge to view this.", "badges": [], "created_at": "2025-07-21T20:24:51.631-04:00", "updated_at": "2025-07-22T03:32:23.821-04:00", "avatar": "https://secure.gravatar.com/avatar/f856a317e050664c0468ff67082ed627.jpg?s=512&d=https%3A%2F%2Fa.slack-edge.com%2Fdf10d%2Fimg%2Favatars%2Fava_0007-512.png", "custom_css": null}, {"id": 17012, "slack_id": "U0977MLKCSV", "display_name": "Sumit", "bio": null, "projects_count": 0, "devlogs_count": 0, "votes_count": 0, "ships_count": 0, "projects": [], "coding_time_seconds": 34, "coding_time_seconds_today": 0, "balance": "You need to have a pocket watcher badge to view this.", "badges": [], "created_at": "2025-07-21T20:26:01.594-04:00", "updated_at": "2025-07-22T03:32:23.900-04:00", "avatar": "https://secure.gravatar.com/avatar/c32a06412d89cd6f882edd726d85d62b.jpg?s=512&d=https%3A%2F%2Fa.slack-edge.com%2Fdf10d%2Fimg%2Favatars%2Fava_0005-512.png", "custom_css": null}, {"id": 17013, "slack_id": "U096P6YAGH1", "display_name": "Gazali Agboola", "bio": null, "projects_count": 0, "devlogs_count": 0, "votes_count": 0, "ships_count": 0, "projects": [], "coding_time_seconds": 0, "coding_time_seconds_today": 0, "balance": "You need to have a pocket watcher badge to view this.", "badges": [], "created_at": "2025-07-21T20:26:46.674-04:00", "updated_at": "2025-07-22T03:32:23.974-04:00", "avatar": "https://secure.gravatar.com/avatar/d413029f4199fed1430c598e3ab13487.jpg?s=512&d=https%3A%2F%2Fa.slack-edge.com%2Fdf10d%2Fimg%2Favatars%2Fava_0017-512.png", "custom_css": null}, {"id": 17014, "slack_id": "U096UFJN88J", "display_name": "Haruki", "bio": "", "projects_count": 3, "devlogs_count": 1, "votes_count": 0, "ships_count": 1, "projects": [{"id": 7463, "title": "my profile site ", "devlogs_count": 0, "created_at": "2025-07-21T21:57:28.764-04:00"}, {"id": 9541, "title": "myprofile_LinkHub", "devlogs_count": 0, "created_at": "2025-08-01T15:54:33.493-04:00"}, {"id": 9542, "title": "myprofile_LinkHub", "devlogs_count": 1, "created_at": "2025-08-01T15:54:33.517-04:00"}], "coding_time_seconds": 5531, "coding_time_seconds_today": 0, "balance": "You need to have a pocket watcher badge to view this.", "badges": [], "created_at": "2025-07-21T20:26:59.357-04:00", "updated_at": "2025-08-08T14:04:23.528-04:00", "avatar": "https://secure.gravatar.com/avatar/de2766b769cb07c9ffa33cf7430b02f4.jpg?s=512&d=https%3A%2F%2Fa.slack-edge.com%2Fdf10d%2Fimg%2Favatars%2Fava_0020-512.png", "custom_css": null}, {"id": 17015, "slack_id": "U096DP078TH", "display_name": "kaguya", "bio": null, "projects_count": 0, "devlogs_count": 0, "votes_count": 0, "ships_count": 0, "projects": [], "coding_time_seconds": 0, "coding_time_seconds_today": 0, "balance": "You need to have a pocket watcher badge to view this.", "badges": [], "created_at": "2025-07-21T20:27:29.703-04:00", "updated_at": "2025-07-22T03:32:24.160-04:00", "avatar": "https://secure.gravatar.com/avatar/86f42089f06aa341539da96ea7795c37.jpg?s=512&d=https%3A%2F%2Fa.slack-edge.com%2Fdf10d%2Fimg%2Favatars%2Fava_0020-512.png", "custom_css": null}, {"id": 17016, "slack_id": "U097GUVL89E", "display_name": "Rhushabh Vaghela", "bio": null, "projects_count": 1, "devlogs_count": 0, "votes_count": 0, "ships_count": 0, "projects": [{"id": 7516, "title": "Web to PDF", "devlogs_count": 0, "created_at": "2025-07-22T02:16:12.715-04:00"}], "coding_time_seconds": 40816, "coding_time_seconds_today": 0, "balance": "You need to have a pocket watcher badge to view this.", "badges": [], "created_at": "2025-07-21T20:28:30.820-04:00", "updated_at": "2025-07-22T03:32:24.248-04:00", "avatar": "https://secure.gravatar.com/avatar/043df62cf49c21a88e3fef9b68f3290e.jpg?s=512&d=https%3A%2F%2Fa.slack-edge.com%2Fdf10d%2Fimg%2Favatars%2Fava_0009-512.png", "custom_css": null}, {"id": 17017, "slack_id": "U096UG50SFL", "display_name": "malte-code", "bio": null, "projects_count": 1, "devlogs_count": 0, "votes_count": 0, "ships_count": 0, "projects": [{"id": 7862, "title": "DynamikFASTFarmCaseGenerator", "devlogs_count": 0, "created_at": "2025-07-23T10:30:31.275-04:00"}], "coding_time_seconds": 24046, "coding_time_seconds_today": 0, "balance": "You need to have a pocket watcher badge to view this.", "badges": [], "created_at": "2025-07-21T20:28:37.089-04:00", "updated_at": "2025-07-23T14:43:32.739-04:00", "avatar": "https://secure.gravatar.com/avatar/6c43d9ff1175f568211ac27bd7610079.jpg?s=512&d=https%3A%2F%2Fa.slack-edge.com%2Fdf10d%2Fimg%2Favatars%2Fava_0016-512.png", "custom_css": null}, {"id": 17018, "slack_id": "U096VNCMJ7N", "display_name": "Thisal Herath", "bio": null, "projects_count": 0, "devlogs_count": 0, "votes_count": 0, "ships_count": 0, "projects": [], "coding_time_seconds": 5348, "coding_time_seconds_today": 0, "balance": "You need to have a pocket watcher badge to view this.", "badges": [], "created_at": "2025-07-21T20:28:42.920-04:00", "updated_at": "2025-07-22T03:32:24.409-04:00", "avatar": "https://secure.gravatar.com/avatar/43952dee3e5cc4fc1a687a11007bda95.jpg?s=512&d=https%3A%2F%2Fa.slack-edge.com%2Fdf10d%2Fimg%2Favatars%2Fava_0020-512.png", "custom_css": null}, {"id": 17019, "slack_id": "U096DPB672B", "display_name": "Akila Demotte", "bio": null, "projects_count": 0, "devlogs_count": 0, "votes_count": 0, "ships_count": 0, "projects": [], "coding_time_seconds": 24970, "coding_time_seconds_today": 0, "balance": "You need to have a pocket watcher badge to view this.", "badges": [], "created_at": "2025-07-21T20:28:57.501-04:00", "updated_at": "2025-07-25T05:09:05.796-04:00", "avatar": "https://secure.gravatar.com/avatar/aba7dd10df7854e37fc9cd2cbbe583c5.jpg?s=512&d=https%3A%2F%2Fa.slack-edge.com%2Fdf10d%2Fimg%2Favatars%2Fava_0020-512.png", "custom_css": null}, {"id": 17020, "slack_id": "U096SFDRNQM", "display_name": "Neighborhood Birb", "bio": null, "projects_count": 0, "devlogs_count": 0, "votes_count": 0, "ships_count": 0, "projects": [], "coding_time_seconds": 0, "coding_time_seconds_today": 0, "balance": "You need to have a pocket watcher badge to view this.", "badges": [], "created_at": "2025-07-21T20:29:22.257-04:00", "updated_at": "2025-07-23T03:03:01.887-04:00", "avatar": "https://avatars.slack-edge.com/2025-07-21/9227254310931_e6b76387fc8e010014f5_original.png", "custom_css": null}, {"id": 17021, "slack_id": "U096QBJRNG6", "display_name": "Eli", "bio": null, "projects_count": 0, "devlogs_count": 0, "votes_count": 0, "ships_count": 0, "projects": [], "coding_time_seconds": 0, "coding_time_seconds_today": 0, "balance": "You need to have a pocket watcher badge to view this.", "badges": [], "created_at": "2025-07-21T20:31:01.268-04:00", "updated_at": "2025-07-22T03:32:24.636-04:00", "avatar": "https://secure.gravatar.com/avatar/66dfa726d7437b537fd7bf4dc7383861.jpg?s=512&d=https%3A%2F%2Fa.slack-edge.com%2Fdf10d%2Fimg%2Favatars%2Fava_0018-512.png", "custom_css": null}, {"id": 17022, "slack_id": "U096VNY0W76", "display_name": "Kristian Kintanar", "bio": null, "projects_count": 0, "devlogs_count": 0, "votes_count": 0, "ships_count": 0, "projects": [], "coding_time_seconds": 487, "coding_time_seconds_today": 0, "balance": "You need to have a pocket watcher badge to view this.", "badges": [], "created_at": "2025-07-21T20:31:31.943-04:00", "updated_at": "2025-07-23T03:30:11.054-04:00", "avatar": "https://avatars.slack-edge.com/2025-07-23/9225018587143_63427cb8624053fa0f0f_original.jpg", "custom_css": null}, {"id": 17023, "slack_id": "U096UGLC2LA", "display_name": "Diogo Valente", "bio": null, "projects_count": 0, "devlogs_count": 0, "votes_count": 0, "ships_count": 0, "projects": [], "coding_time_seconds": 0, "coding_time_seconds_today": 0, "balance": "You need to have a pocket watcher badge to view this.", "badges": [], "created_at": "2025-07-21T20:32:10.204-04:00", "updated_at": "2025-07-22T03:32:24.826-04:00", "avatar": "https://secure.gravatar.com/avatar/4d654e801cd9f07f9388bc3d07b4470d.jpg?s=512&d=https%3A%2F%2Fa.slack-edge.com%2Fdf10d%2Fimg%2Favatars%2Fava_0020-512.png", "custom_css": null}, {"id": 17024, "slack_id": "U0977NE79AM", "display_name": "Gagy", "bio": null, "projects_count": 1, "devlogs_count": 0, "votes_count": 0, "ships_count": 0, "projects": [{"id": 7454, "title": "ChatterBox", "devlogs_count": 0, "created_at": "2025-07-21T20:45:24.888-04:00"}], "coding_time_seconds": 17076, "coding_time_seconds_today": 0, "balance": "You need to have a pocket watcher badge to view this.", "badges": [], "created_at": "2025-07-21T20:33:03.047-04:00", "updated_at": "2025-07-22T03:32:24.919-04:00", "avatar": "https://secure.gravatar.com/avatar/67309232a8352717fa155ed406f07986.jpg?s=512&d=https%3A%2F%2Fa.slack-edge.com%2Fdf10d%2Fimg%2Favatars%2Fava_0014-512.png", "custom_css": null}, {"id": 17025, "slack_id": "U096VPGKE3E", "display_name": "Matteo", "bio": null, "projects_count": 0, "devlogs_count": 0, "votes_count": 0, "ships_count": 0, "projects": [], "coding_time_seconds": 0, "coding_time_seconds_today": 0, "balance": "You need to have a pocket watcher badge to view this.", "badges": [], "created_at": "2025-07-21T20:36:58.007-04:00", "updated_at": "2025-07-22T03:32:25.001-04:00", "avatar": "https://secure.gravatar.com/avatar/26acb692c6debcbf831363a4b2d29744.jpg?s=512&d=https%3A%2F%2Fa.slack-edge.com%2Fdf10d%2Fimg%2Favatars%2Fava_0020-512.png", "custom_css": null}], "pagination": {"page": 847, "pages": 1192, "count": 23828, "items": 20}}