{"users": [{"id": 17026, "slack_id": "U097H0K2FJ4", "display_name": "Yuan-Aora", "bio": null, "projects_count": 0, "devlogs_count": 0, "votes_count": 0, "ships_count": 0, "projects": [], "coding_time_seconds": 0, "coding_time_seconds_today": 0, "balance": "You need to have a pocket watcher badge to view this.", "badges": [], "created_at": "2025-07-21T20:38:22.090-04:00", "updated_at": "2025-07-22T03:32:25.085-04:00", "avatar": "https://secure.gravatar.com/avatar/88d9cc3a444250464c96dd45456d3250.jpg?s=512&d=https%3A%2F%2Fa.slack-edge.com%2Fdf10d%2Fimg%2Favatars%2Fava_0024-512.png", "custom_css": null}, {"id": 17027, "slack_id": "U0977NXT7MX", "display_name": "GubbleJrSr", "bio": null, "projects_count": 0, "devlogs_count": 0, "votes_count": 0, "ships_count": 0, "projects": [], "coding_time_seconds": 0, "coding_time_seconds_today": 0, "balance": "You need to have a pocket watcher badge to view this.", "badges": [], "created_at": "2025-07-21T20:38:53.596-04:00", "updated_at": "2025-07-22T03:32:29.205-04:00", "avatar": "https://secure.gravatar.com/avatar/5d7d3c8d778d6f5d59a5d04ecf049e9d.jpg?s=512&d=https%3A%2F%2Fa.slack-edge.com%2Fdf10d%2Fimg%2Favatars%2Fava_0023-512.png", "custom_css": null}, {"id": 17028, "slack_id": "U096DQJAJLX", "display_name": "Z\u00e0ng A L\u0169ng", "bio": null, "projects_count": 0, "devlogs_count": 0, "votes_count": 0, "ships_count": 0, "projects": [], "coding_time_seconds": 0, "coding_time_seconds_today": 0, "balance": "You need to have a pocket watcher badge to view this.", "badges": [], "created_at": "2025-07-21T20:39:27.736-04:00", "updated_at": "2025-07-22T03:32:29.290-04:00", "avatar": "https://avatars.slack-edge.com/2025-07-22/9227322372851_ae3b3d7c2aa663a734dd_original.png", "custom_css": null}, {"id": 17029, "slack_id": "U096P8572RH", "display_name": "Madelyn", "bio": null, "projects_count": 0, "devlogs_count": 0, "votes_count": 0, "ships_count": 0, "projects": [], "coding_time_seconds": 3403, "coding_time_seconds_today": 0, "balance": "You need to have a pocket watcher badge to view this.", "badges": [], "created_at": "2025-07-21T20:39:41.107-04:00", "updated_at": "2025-07-22T03:32:29.386-04:00", "avatar": "https://secure.gravatar.com/avatar/2c7f485776f4817148b46cb7cd8f3c53.jpg?s=512&d=https%3A%2F%2Fa.slack-edge.com%2Fdf10d%2Fimg%2Favatars%2Fava_0000-512.png", "custom_css": null}, {"id": 17030, "slack_id": "U096P86GF2P", "display_name": "DivergenteNM", "bio": "Hi", "projects_count": 0, "devlogs_count": 0, "votes_count": 0, "ships_count": 0, "projects": [], "coding_time_seconds": 1693, "coding_time_seconds_today": 0, "balance": "You need to have a pocket watcher badge to view this.", "badges": [], "created_at": "2025-07-21T20:40:39.777-04:00", "updated_at": "2025-07-22T20:58:03.251-04:00", "avatar": "https://secure.gravatar.com/avatar/00aaaa603421a65078a247d5cd18d31d.jpg?s=512&d=https%3A%2F%2Fa.slack-edge.com%2Fdf10d%2Fimg%2Favatars%2Fava_0002-512.png", "custom_css": null}, {"id": 17031, "slack_id": "U04P0AXHL5Q", "display_name": "Ashish", "bio": null, "projects_count": 0, "devlogs_count": 0, "votes_count": 0, "ships_count": 0, "projects": [], "coding_time_seconds": 16999, "coding_time_seconds_today": 0, "balance": "You need to have a pocket watcher badge to view this.", "badges": [], "created_at": "2025-07-21T20:41:19.052-04:00", "updated_at": "2025-07-22T03:32:29.546-04:00", "avatar": "https://secure.gravatar.com/avatar/c58e038a7ea10f400aa6023a73d0812c.jpg?s=512&d=https%3A%2F%2Fa.slack-edge.com%2Fdf10d%2Fimg%2Favatars%2Fava_0009-512.png", "custom_css": null}, {"id": 17032, "slack_id": "U096DQM49ST", "display_name": "Sin Setiawan", "bio": null, "projects_count": 0, "devlogs_count": 0, "votes_count": 0, "ships_count": 0, "projects": [], "coding_time_seconds": 0, "coding_time_seconds_today": 0, "balance": "You need to have a pocket watcher badge to view this.", "badges": [], "created_at": "2025-07-21T20:41:34.551-04:00", "updated_at": "2025-07-22T03:32:29.637-04:00", "avatar": "https://secure.gravatar.com/avatar/9101a713d27edd025cece57c8deb87a7.jpg?s=512&d=https%3A%2F%2Fa.slack-edge.com%2Fdf10d%2Fimg%2Favatars%2Fava_0003-512.png", "custom_css": null}, {"id": 17033, "slack_id": "U097H12JCL8", "display_name": "\ud480\uce58", "bio": null, "projects_count": 0, "devlogs_count": 0, "votes_count": 0, "ships_count": 0, "projects": [], "coding_time_seconds": 0, "coding_time_seconds_today": 0, "balance": "You need to have a pocket watcher badge to view this.", "badges": [], "created_at": "2025-07-21T20:44:34.567-04:00", "updated_at": "2025-07-22T03:32:29.731-04:00", "avatar": "https://avatars.slack-edge.com/2025-07-21/9230651864597_aaafb6095ea969518693_original.jpg", "custom_css": null}, {"id": 17034, "slack_id": "U096UHJ1AGJ", "display_name": "Nu1LSpaxe", "bio": null, "projects_count": 0, "devlogs_count": 0, "votes_count": 0, "ships_count": 0, "projects": [], "coding_time_seconds": 0, "coding_time_seconds_today": 0, "balance": "You need to have a pocket watcher badge to view this.", "badges": [], "created_at": "2025-07-21T20:45:45.333-04:00", "updated_at": "2025-07-22T03:32:29.840-04:00", "avatar": "https://avatars.slack-edge.com/2025-07-21/9233835850100_1319ef51ae2aab579777_original.png", "custom_css": null}, {"id": 17035, "slack_id": "U096UJ1L3L2", "display_name": "harry rogers", "bio": "im harry a make stuff in my free time yeah i know way to much about space  and i love programmmmmming", "projects_count": 11, "devlogs_count": 70, "votes_count": 74, "ships_count": 5, "projects": [{"id": 9374, "title": "secure file storage site", "devlogs_count": 7, "created_at": "2025-07-31T22:10:57.764-04:00"}, {"id": 10300, "title": "Holy C package manager ", "devlogs_count": 4, "created_at": "2025-08-05T17:59:58.230-04:00"}, {"id": 12277, "title": "RoundedBeGone", "devlogs_count": 2, "created_at": "2025-08-25T07:24:30.937-04:00"}, {"id": 12781, "title": "all in browser converter", "devlogs_count": 1, "created_at": "2025-09-02T11:29:48.383-04:00"}, {"id": 13356, "title": "stream something 24/7 ", "devlogs_count": 2, "created_at": "2025-09-14T12:47:20.414-04:00"}, {"id": 11090, "title": "Server management tool", "devlogs_count": 4, "created_at": "2025-08-13T05:56:25.658-04:00"}, {"id": 12046, "title": "Data on uk politics ", "devlogs_count": 3, "created_at": "2025-08-22T11:45:21.107-04:00"}, {"id": 7456, "title": "Satellite Tracking site", "devlogs_count": 11, "created_at": "2025-07-21T21:07:29.984-04:00"}, {"id": 9577, "title": "ssh harryprogers.co.uk  Portfolio", "devlogs_count": 7, "created_at": "2025-08-01T17:41:22.966-04:00"}, {"id": 10022, "title": "Boykisser status (HOLY C webserver)", "devlogs_count": 14, "created_at": "2025-08-03T14:22:03.287-04:00"}, {"id": 8120, "title": "Retro search engine ", "devlogs_count": 15, "created_at": "2025-07-24T18:25:24.896-04:00"}], "coding_time_seconds": 222589, "coding_time_seconds_today": 441, "balance": "You need to have a pocket watcher badge to view this.", "badges": [], "created_at": "2025-07-21T20:46:18.148-04:00", "updated_at": "2025-09-18T01:29:18.614-04:00", "avatar": "https://avatars.slack-edge.com/2025-09-18/9535244706389_d733de8a124fe020bfb4_original.png", "custom_css": "h1.text-2xl > a:nth-child(1) > span:nth-child(1)::after {\r\n    content: \"\";\r\n    display: inline-block;\r\n    width: 3em;\r\n    height: 1em;\r\n    background: url('https://som-views.null-austin.me/svg/views/meowmeow/wait-is-that-my-weather.svg') no-repeat center center;\r\n    background-size: contain;\r\n    vertical-align: middle;\r\n}\r\n\r\nbody::before {\r\n  background: url(\"https://media1.tenor.com/m/SSY2V0RrU3IAAAAd/rick-roll-rick-rolled.gif\") !important;\r\n  background-size: cover !important;\r\n  background-position: center !important;\r\n  background-repeat: no-repeat !important;\r\n}\r\n\r\n\r\n:root {\r\n  --font-sans: ui-sans-serif,system-ui,sans-serif,\"Apple Color Emoji\",\"Segoe UI Emoji\",\"Segoe UI Symbol\",\"Noto Color Emoji\" !important;\r\n  --font-serif: ui-serif,Georgia,Cambria,\"Times New Roman\",Times,serif !important;\r\n  --font-mono: ui-monospace,SFMono-Regular,Menlo,Monaco,Consolas,\"Liberation Mono\",\"Courier New\",monospace !important;\r\n\r\n  /* Reds */\r\n  --color-red-50: oklch(20% .013 17.38) !important;\r\n  --color-red-100: oklch(28% .032 17.717) !important;\r\n  --color-red-200: oklch(35% .062 18.334) !important;\r\n  --color-red-300: oklch(43% .114 19.571) !important;\r\n  --color-red-400: oklch(53% .191 22.216) !important;\r\n  --color-red-500: oklch(60% .237 25.331) !important;\r\n  --color-red-600: oklch(66% .245 27.325) !important;\r\n  --color-red-700: oklch(73% .213 27.518) !important;\r\n  --color-red-800: oklch(79% .177 26.899) !important;\r\n\r\n  /* Oranges */\r\n  --color-orange-50: oklch(22% .016 73.684) !important;\r\n  --color-orange-100: oklch(28% .038 75.164) !important;\r\n  --color-orange-200: oklch(35% .076 70.697) !important;\r\n  --color-orange-300: oklch(42% .128 66.29) !important;\r\n  --color-orange-400: oklch(50% .183 55.934) !important;\r\n  --color-orange-500: oklch(55% .213 47.604) !important;\r\n  --color-orange-600: oklch(60% .222 41.116) !important;\r\n  --color-orange-700: oklch(68% .195 38.402) !important;\r\n  --color-orange-800: oklch(75% .157 37.304) !important;\r\n\r\n  /* Ambers */\r\n  --color-amber-50: oklch(20% .022 95.277) !important;\r\n  --color-amber-100: oklch(25% .059 95.617) !important;\r\n  --color-amber-200: oklch(30% .12 95.746) !important;\r\n  --color-amber-500: oklch(40% .188 70.08) !important;\r\n  --color-amber-600: oklch(35% .179 58.318) !important;\r\n  --color-amber-700: oklch(28% .163 48.998) !important;\r\n  --color-amber-800: oklch(23% .137 46.201) !important;\r\n\r\n  /* Yellows */\r\n  --color-yellow-50: oklch(20% .026 102.212) !important;\r\n  --color-yellow-100: oklch(25% .071 103.193) !important;\r\n  --color-yellow-200: oklch(30% .129 101.54) !important;\r\n  --color-yellow-300: oklch(35% .182 98.111) !important;\r\n  --color-yellow-500: oklch(45% .184 86.047) !important;\r\n  --color-yellow-600: oklch(35% .162 75.834) !important;\r\n  --color-yellow-700: oklch(28% .135 66.442) !important;\r\n  --color-yellow-800: oklch(23% .114 61.907) !important;\r\n\r\n  /* Greens */\r\n  --color-green-50: oklch(20% .018 155.826) !important;\r\n  --color-green-100: oklch(25% .044 156.743) !important;\r\n  --color-green-200: oklch(30% .084 155.995) !important;\r\n  --color-green-500: oklch(40% .219 149.579) !important;\r\n  --color-green-600: oklch(35% .194 149.214) !important;\r\n  --color-green-700: oklch(28% .154 150.069) !important;\r\n  --color-green-800: oklch(23% .119 151.328) !important;\r\n\r\n  /* Blues */\r\n  --color-blue-50: oklch(20% .014 254.604) !important;\r\n  --color-blue-100: oklch(28% .032 255.585) !important;\r\n  --color-blue-400: oklch(45% .165 254.624) !important;\r\n  --color-blue-500: oklch(50% .214 259.815) !important;\r\n  --color-blue-600: oklch(55% .245 262.881) !important;\r\n  --color-blue-700: oklch(60% .243 264.376) !important;\r\n  --color-blue-800: oklch(65% .199 265.638) !important;\r\n\r\n  /* Purples */\r\n  --color-purple-50: oklch(20% .014 308.299) !important;\r\n  --color-purple-100: oklch(28% .033 307.174) !important;\r\n  --color-purple-500: oklch(50% .265 303.9) !important;\r\n  --color-purple-600: oklch(55% .288 302.321) !important;\r\n  --color-purple-700: oklch(60% .265 301.924) !important;\r\n  --color-purple-800: oklch(65% .218 303.724) !important;\r\n\r\n  /* Pinks */\r\n  --color-pink-100: oklch(28% .028 342.258) !important;\r\n  --color-pink-500: oklch(50% .241 354.308) !important;\r\n  --color-pink-800: oklch(60% .187 3.815) !important;\r\n\r\n  /* Grays */\r\n  --color-gray-50: oklch(15% .002 247.839) !important;\r\n  --color-gray-100: oklch(18% .003 264.542) !important;\r\n  --color-gray-200: oklch(25% .006 264.531) !important;\r\n  --color-gray-300: oklch(35% .01 258.338) !important;\r\n  --color-gray-400: oklch(45% .022 261.325) !important;\r\n  --color-gray-500: oklch(55% .027 264.364) !important;\r\n  --color-gray-600: oklch(65% .03 256.802) !important;\r\n  --color-gray-700: oklch(72% .034 259.733) !important;\r\n  --color-gray-800: oklch(80% .033 256.848) !important;\r\n  --color-gray-900: oklch(90% .034 264.665) !important;\r\n\r\n  --color-black: #fff !important; /* Swap black/white for dark theme */\r\n  --color-white: #000 !important;\r\n}"}, {"id": 17036, "slack_id": "U096P8S2ZDZ", "display_name": "Prathamesh", "bio": null, "projects_count": 0, "devlogs_count": 0, "votes_count": 0, "ships_count": 0, "projects": [], "coding_time_seconds": 0, "coding_time_seconds_today": 0, "balance": "You need to have a pocket watcher badge to view this.", "badges": [], "created_at": "2025-07-21T20:47:36.208-04:00", "updated_at": "2025-07-22T03:32:30.009-04:00", "avatar": "https://secure.gravatar.com/avatar/c4cfec465e4b5318b068b197b6d62384.jpg?s=512&d=https%3A%2F%2Fa.slack-edge.com%2Fdf10d%2Fimg%2Favatars%2Fava_0009-512.png", "custom_css": null}, {"id": 17037, "slack_id": "U096P8TQ1U3", "display_name": "ajay", "bio": null, "projects_count": 0, "devlogs_count": 0, "votes_count": 0, "ships_count": 0, "projects": [], "coding_time_seconds": 0, "coding_time_seconds_today": 0, "balance": "You need to have a pocket watcher badge to view this.", "badges": [], "created_at": "2025-07-21T20:48:33.392-04:00", "updated_at": "2025-07-22T03:32:30.095-04:00", "avatar": "https://secure.gravatar.com/avatar/01c02a8c28e8b1cc6a9c912dfccc021f.jpg?s=512&d=https%3A%2F%2Fa.slack-edge.com%2Fdf10d%2Fimg%2Favatars%2Fava_0017-512.png", "custom_css": null}, {"id": 17038, "slack_id": "U0977PTA93K", "display_name": "\u8c2d\u7acb\u884c", "bio": null, "projects_count": 0, "devlogs_count": 0, "votes_count": 0, "ships_count": 0, "projects": [], "coding_time_seconds": 0, "coding_time_seconds_today": 0, "balance": "You need to have a pocket watcher badge to view this.", "badges": [], "created_at": "2025-07-21T20:49:25.121-04:00", "updated_at": "2025-07-22T03:32:30.184-04:00", "avatar": "https://avatars.slack-edge.com/2025-07-21/9245821223169_5b5d667cc7092729cd3d_original.png", "custom_css": null}, {"id": 17039, "slack_id": "U096VQMMGFN", "display_name": "Minhtran", "bio": null, "projects_count": 0, "devlogs_count": 0, "votes_count": 0, "ships_count": 0, "projects": [], "coding_time_seconds": 0, "coding_time_seconds_today": 0, "balance": "You need to have a pocket watcher badge to view this.", "badges": [], "created_at": "2025-07-21T20:50:24.137-04:00", "updated_at": "2025-07-22T03:32:30.266-04:00", "avatar": "https://secure.gravatar.com/avatar/11fe5f85e9fe7b8154cc1ceb0948f824.jpg?s=512&d=https%3A%2F%2Fa.slack-edge.com%2Fdf10d%2Fimg%2Favatars%2Fava_0020-512.png", "custom_css": null}, {"id": 17040, "slack_id": "U096REYGYF8", "display_name": "Nakshatra Salunke", "bio": null, "projects_count": 1, "devlogs_count": 0, "votes_count": 1, "ships_count": 0, "projects": [{"id": 7460, "title": "Custom Library For PISO Shift Register", "devlogs_count": 0, "created_at": "2025-07-21T21:37:41.239-04:00"}], "coding_time_seconds": 29369, "coding_time_seconds_today": 0, "balance": "You need to have a pocket watcher badge to view this.", "badges": [], "created_at": "2025-07-21T20:53:00.733-04:00", "updated_at": "2025-07-22T03:32:30.365-04:00", "avatar": "https://secure.gravatar.com/avatar/b8a35e3e75dca6ef3a16113a2ace9b8c.jpg?s=512&d=https%3A%2F%2Fa.slack-edge.com%2Fdf10d%2Fimg%2Favatars%2Fava_0014-512.png", "custom_css": null}, {"id": 17041, "slack_id": "U096SJ9FKRT", "display_name": "Jonah Hutchison", "bio": null, "projects_count": 0, "devlogs_count": 0, "votes_count": 0, "ships_count": 0, "projects": [], "coding_time_seconds": 1048, "coding_time_seconds_today": 0, "balance": "You need to have a pocket watcher badge to view this.", "badges": [], "created_at": "2025-07-21T20:53:34.272-04:00", "updated_at": "2025-07-22T03:32:30.440-04:00", "avatar": "https://secure.gravatar.com/avatar/57a708d438354411c99ac5ece25d4b2d.jpg?s=512&d=https%3A%2F%2Fa.slack-edge.com%2Fdf10d%2Fimg%2Favatars%2Fava_0002-512.png", "custom_css": null}, {"id": 17042, "slack_id": "U096VQXSR9S", "display_name": "Armando", "bio": null, "projects_count": 0, "devlogs_count": 0, "votes_count": 0, "ships_count": 0, "projects": [], "coding_time_seconds": 0, "coding_time_seconds_today": 0, "balance": "You need to have a pocket watcher badge to view this.", "badges": [], "created_at": "2025-07-21T20:54:01.513-04:00", "updated_at": "2025-07-22T03:32:30.533-04:00", "avatar": "https://secure.gravatar.com/avatar/469e41e10111caf9c871c2d2c9f8aa13.jpg?s=512&d=https%3A%2F%2Fa.slack-edge.com%2Fdf10d%2Fimg%2Favatars%2Fava_0026-512.png", "custom_css": null}, {"id": 17043, "slack_id": "U096NV7RV1R", "display_name": "Tim Nolan", "bio": "", "projects_count": 4, "devlogs_count": 56, "votes_count": 60, "ships_count": 3, "projects": [{"id": 7756, "title": "Super awesome and cool Zero-G player controller thing", "devlogs_count": 20, "created_at": "2025-07-22T22:14:27.579-04:00"}, {"id": 9550, "title": "Godot Clicker", "devlogs_count": 19, "created_at": "2025-08-01T16:20:02.156-04:00"}, {"id": 12390, "title": "Skiing sim thing", "devlogs_count": 2, "created_at": "2025-08-26T16:12:44.908-04:00"}, {"id": 12975, "title": "Platformer", "devlogs_count": 15, "created_at": "2025-09-06T12:36:42.760-04:00"}], "coding_time_seconds": 309119, "coding_time_seconds_today": 0, "balance": "You need to have a pocket watcher badge to view this.", "badges": [], "created_at": "2025-07-21T20:55:05.481-04:00", "updated_at": "2025-09-24T10:49:04.494-04:00", "avatar": "https://avatars.slack-edge.com/2025-08-09/9329317771666_c8fbeca086b4e0b843f4_original.png", "custom_css": null}, {"id": 17044, "slack_id": "U096DN1UVPH", "display_name": "Isaac Hauck", "bio": null, "projects_count": 0, "devlogs_count": 0, "votes_count": 0, "ships_count": 0, "projects": [], "coding_time_seconds": 0, "coding_time_seconds_today": 0, "balance": "You need to have a pocket watcher badge to view this.", "badges": [], "created_at": "2025-07-21T20:56:24.062-04:00", "updated_at": "2025-07-22T03:32:30.696-04:00", "avatar": "https://secure.gravatar.com/avatar/44aefb45035dbcb525cf0e3b5164b152.jpg?s=512&d=https%3A%2F%2Fa.slack-edge.com%2Fdf10d%2Fimg%2Favatars%2Fava_0025-512.png", "custom_css": null}, {"id": 17045, "slack_id": "U096P9E62AX", "display_name": "404AthenaFound", "bio": null, "projects_count": 0, "devlogs_count": 0, "votes_count": 0, "ships_count": 0, "projects": [], "coding_time_seconds": 0, "coding_time_seconds_today": 0, "balance": "You need to have a pocket watcher badge to view this.", "badges": [], "created_at": "2025-07-21T20:56:35.550-04:00", "updated_at": "2025-07-22T03:32:30.803-04:00", "avatar": "https://secure.gravatar.com/avatar/ad6658ecda28cd7e0627b1e08a61cdb5.jpg?s=512&d=https%3A%2F%2Fa.slack-edge.com%2Fdf10d%2Fimg%2Favatars%2Fava_0010-512.png", "custom_css": null}], "pagination": {"page": 848, "pages": 1192, "count": 23828, "items": 20}}