{"users": [{"id": 17046, "slack_id": "U096UJW041G", "display_name": "Johannes B\u00fcrger", "bio": null, "projects_count": 0, "devlogs_count": 0, "votes_count": 0, "ships_count": 0, "projects": [], "coding_time_seconds": 0, "coding_time_seconds_today": 0, "balance": "You need to have a pocket watcher badge to view this.", "badges": [], "created_at": "2025-07-21T20:56:58.507-04:00", "updated_at": "2025-07-22T03:32:30.894-04:00", "avatar": "https://secure.gravatar.com/avatar/d539a4d43817cdc0036abce305f3ab82.jpg?s=512&d=https%3A%2F%2Fa.slack-edge.com%2Fdf10d%2Fimg%2Favatars%2Fava_0000-512.png", "custom_css": null}, {"id": 17047, "slack_id": "U096DS59563", "display_name": "MajorMonge", "bio": null, "projects_count": 0, "devlogs_count": 0, "votes_count": 0, "ships_count": 0, "projects": [], "coding_time_seconds": 0, "coding_time_seconds_today": 0, "balance": "You need to have a pocket watcher badge to view this.", "badges": [], "created_at": "2025-07-21T20:57:59.461-04:00", "updated_at": "2025-07-22T03:32:30.987-04:00", "avatar": "https://secure.gravatar.com/avatar/74b879a12d0158fcabd3fd01c1a10a5d.jpg?s=512&d=https%3A%2F%2Fa.slack-edge.com%2Fdf10d%2Fimg%2Favatars%2Fava_0005-512.png", "custom_css": null}, {"id": 17048, "slack_id": "U097H29AHJL", "display_name": "Pukar Chalise", "bio": null, "projects_count": 0, "devlogs_count": 0, "votes_count": 0, "ships_count": 0, "projects": [], "coding_time_seconds": 0, "coding_time_seconds_today": 0, "balance": "You need to have a pocket watcher badge to view this.", "badges": [], "created_at": "2025-07-21T20:59:09.323-04:00", "updated_at": "2025-08-11T07:33:28.354-04:00", "avatar": "https://secure.gravatar.com/avatar/7aadc2f5663d3e0f3c4654edde43e21e.jpg?s=512&d=https%3A%2F%2Fa.slack-edge.com%2Fdf10d%2Fimg%2Favatars%2Fava_0017-512.png", "custom_css": null}, {"id": 17049, "slack_id": "U096UJX7VEW", "display_name": "Dipesh Mahat", "bio": null, "projects_count": 0, "devlogs_count": 0, "votes_count": 3, "ships_count": 0, "projects": [], "coding_time_seconds": 123368, "coding_time_seconds_today": 0, "balance": "You need to have a pocket watcher badge to view this.", "badges": [], "created_at": "2025-07-21T20:59:32.473-04:00", "updated_at": "2025-07-22T07:54:17.525-04:00", "avatar": "https://secure.gravatar.com/avatar/3fe22f20e289a1cee38a1fd463e9f922.jpg?s=512&d=https%3A%2F%2Fa.slack-edge.com%2Fdf10d%2Fimg%2Favatars%2Fava_0017-512.png", "custom_css": null}, {"id": 17050, "slack_id": "U096SL9Q6MB", "display_name": "Mohammed Thansheer", "bio": null, "projects_count": 0, "devlogs_count": 0, "votes_count": 0, "ships_count": 0, "projects": [], "coding_time_seconds": 0, "coding_time_seconds_today": 0, "balance": "You need to have a pocket watcher badge to view this.", "badges": [], "created_at": "2025-07-21T21:02:55.100-04:00", "updated_at": "2025-07-22T03:32:31.258-04:00", "avatar": "https://secure.gravatar.com/avatar/a0a10d55aec16a95543b84f70d8664ae.jpg?s=512&d=https%3A%2F%2Fa.slack-edge.com%2Fdf10d%2Fimg%2Favatars%2Fava_0008-512.png", "custom_css": null}, {"id": 17051, "slack_id": "U096SLS41D3", "display_name": "Kitty", "bio": null, "projects_count": 0, "devlogs_count": 0, "votes_count": 0, "ships_count": 0, "projects": [], "coding_time_seconds": 0, "coding_time_seconds_today": 0, "balance": "You need to have a pocket watcher badge to view this.", "badges": [], "created_at": "2025-07-21T21:03:57.463-04:00", "updated_at": "2025-07-22T03:32:31.338-04:00", "avatar": "https://secure.gravatar.com/avatar/4cb6b5334d0f2037f3a06895e2c64f3d.jpg?s=512&d=https%3A%2F%2Fa.slack-edge.com%2Fdf10d%2Fimg%2Favatars%2Fava_0015-512.png", "custom_css": null}, {"id": 17052, "slack_id": "U097H2WMULQ", "display_name": "dreedy", "bio": null, "projects_count": 0, "devlogs_count": 0, "votes_count": 0, "ships_count": 0, "projects": [], "coding_time_seconds": 131, "coding_time_seconds_today": 0, "balance": "You need to have a pocket watcher badge to view this.", "badges": [], "created_at": "2025-07-21T21:04:17.786-04:00", "updated_at": "2025-07-23T21:32:39.080-04:00", "avatar": "https://avatars.slack-edge.com/2025-07-24/9245686872386_035514c307b4d127d2cf_original.jpg", "custom_css": null}, {"id": 17053, "slack_id": "U096VS0HU9J", "display_name": "Rahul Shivappa Gulabaji", "bio": null, "projects_count": 1, "devlogs_count": 0, "votes_count": 0, "ships_count": 0, "projects": [{"id": 7624, "title": "WanderLust", "devlogs_count": 0, "created_at": "2025-07-22T10:24:49.970-04:00"}], "coding_time_seconds": 1361, "coding_time_seconds_today": 0, "balance": "You need to have a pocket watcher badge to view this.", "badges": [], "created_at": "2025-07-21T21:05:28.772-04:00", "updated_at": "2025-07-22T07:30:05.763-04:00", "avatar": "https://secure.gravatar.com/avatar/829332d9840ad2b3ad4416239f6ca3f5.jpg?s=512&d=https%3A%2F%2Fa.slack-edge.com%2Fdf10d%2Fimg%2Favatars%2Fava_0012-512.png", "custom_css": null}, {"id": 17054, "slack_id": "U096SM07NFP", "display_name": "Othmane Abderrazik", "bio": null, "projects_count": 0, "devlogs_count": 0, "votes_count": 0, "ships_count": 0, "projects": [], "coding_time_seconds": 0, "coding_time_seconds_today": 0, "balance": "You need to have a pocket watcher badge to view this.", "badges": [], "created_at": "2025-07-21T21:07:50.769-04:00", "updated_at": "2025-08-01T15:51:55.723-04:00", "avatar": "https://avatars.slack-edge.com/2025-07-21/9232696097042_bae5ce1d42aad8203840_original.png", "custom_css": null}, {"id": 17055, "slack_id": "U096RGKHJ78", "display_name": "Vyshnavi", "bio": null, "projects_count": 0, "devlogs_count": 0, "votes_count": 0, "ships_count": 0, "projects": [], "coding_time_seconds": 0, "coding_time_seconds_today": 0, "balance": "You need to have a pocket watcher badge to view this.", "badges": [], "created_at": "2025-07-21T21:08:46.651-04:00", "updated_at": "2025-07-22T03:32:31.708-04:00", "avatar": "https://secure.gravatar.com/avatar/d337d34f4129999d01843679730dd095.jpg?s=512&d=https%3A%2F%2Fa.slack-edge.com%2Fdf10d%2Fimg%2Favatars%2Fava_0005-512.png", "custom_css": null}, {"id": 17056, "slack_id": "U096SM92P9B", "display_name": "ramuel", "bio": null, "projects_count": 0, "devlogs_count": 0, "votes_count": 0, "ships_count": 0, "projects": [], "coding_time_seconds": 0, "coding_time_seconds_today": 0, "balance": "You need to have a pocket watcher badge to view this.", "badges": [], "created_at": "2025-07-21T21:09:33.502-04:00", "updated_at": "2025-07-22T03:32:31.822-04:00", "avatar": "https://secure.gravatar.com/avatar/8ca9a99d99ac60129f7b967674986f45.jpg?s=512&d=https%3A%2F%2Fa.slack-edge.com%2Fdf10d%2Fimg%2Favatars%2Fava_0003-512.png", "custom_css": null}, {"id": 17057, "slack_id": "U096UDU4Q58", "display_name": "Vinicius Canuto", "bio": null, "projects_count": 0, "devlogs_count": 0, "votes_count": 0, "ships_count": 0, "projects": [], "coding_time_seconds": 0, "coding_time_seconds_today": 0, "balance": "You need to have a pocket watcher badge to view this.", "badges": [], "created_at": "2025-07-21T21:09:41.785-04:00", "updated_at": "2025-07-23T14:10:04.248-04:00", "avatar": "https://avatars.slack-edge.com/2025-07-21/9255128976416_c458bc40a1d0a18b4637_original.webp", "custom_css": null}, {"id": 17058, "slack_id": "U097H3KG3EC", "display_name": "Lakshit Choudhary", "bio": null, "projects_count": 0, "devlogs_count": 0, "votes_count": 0, "ships_count": 0, "projects": [], "coding_time_seconds": 0, "coding_time_seconds_today": 0, "balance": "You need to have a pocket watcher badge to view this.", "badges": [], "created_at": "2025-07-21T21:10:10.205-04:00", "updated_at": "2025-07-22T03:32:31.991-04:00", "avatar": "https://avatars.slack-edge.com/2025-07-21/9227386988979_ba81cc9b3d345d6285b4_original.png", "custom_css": null}, {"id": 17059, "slack_id": "U096PB81X4K", "display_name": "SHI Ale Ale", "bio": null, "projects_count": 0, "devlogs_count": 0, "votes_count": 0, "ships_count": 0, "projects": [], "coding_time_seconds": 2791, "coding_time_seconds_today": 0, "balance": "You need to have a pocket watcher badge to view this.", "badges": [], "created_at": "2025-07-21T21:12:27.319-04:00", "updated_at": "2025-07-23T03:46:01.876-04:00", "avatar": "https://avatars.slack-edge.com/2025-07-21/9255137259616_650de7b6c771eb63a336_original.jpg", "custom_css": null}, {"id": 17060, "slack_id": "U096P924N7M", "display_name": "yulia stefani", "bio": null, "projects_count": 0, "devlogs_count": 0, "votes_count": 0, "ships_count": 0, "projects": [], "coding_time_seconds": 0, "coding_time_seconds_today": 0, "balance": "You need to have a pocket watcher badge to view this.", "badges": [], "created_at": "2025-07-21T21:13:40.985-04:00", "updated_at": "2025-07-22T03:32:32.173-04:00", "avatar": "https://avatars.slack-edge.com/2025-07-21/9229591222838_96af1d16f20093e5ed74_original.jpg", "custom_css": null}, {"id": 17061, "slack_id": "U096PAWK5K5", "display_name": "Shruti", "bio": null, "projects_count": 0, "devlogs_count": 0, "votes_count": 0, "ships_count": 0, "projects": [], "coding_time_seconds": 0, "coding_time_seconds_today": 0, "balance": "You need to have a pocket watcher badge to view this.", "badges": [], "created_at": "2025-07-21T21:14:38.081-04:00", "updated_at": "2025-07-22T03:32:32.250-04:00", "avatar": "https://secure.gravatar.com/avatar/e6fb8df314cdaad962123b2d42081458.jpg?s=512&d=https%3A%2F%2Fa.slack-edge.com%2Fdf10d%2Fimg%2Favatars%2Fava_0006-512.png", "custom_css": null}, {"id": 17062, "slack_id": "U096PBGG7R9", "display_name": "Stefan", "bio": null, "projects_count": 0, "devlogs_count": 0, "votes_count": 0, "ships_count": 0, "projects": [], "coding_time_seconds": 0, "coding_time_seconds_today": 0, "balance": "You need to have a pocket watcher badge to view this.", "badges": [], "created_at": "2025-07-21T21:14:39.760-04:00", "updated_at": "2025-07-22T03:32:32.324-04:00", "avatar": "https://secure.gravatar.com/avatar/c10a0d051002cb0ce9e288caaca20950.jpg?s=512&d=https%3A%2F%2Fa.slack-edge.com%2Fdf10d%2Fimg%2Favatars%2Fava_0006-512.png", "custom_css": null}, {"id": 17063, "slack_id": "U096SMQPKB7", "display_name": "21PD32 - SANJAY RAM R R", "bio": null, "projects_count": 0, "devlogs_count": 0, "votes_count": 0, "ships_count": 0, "projects": [], "coding_time_seconds": 0, "coding_time_seconds_today": 0, "balance": "You need to have a pocket watcher badge to view this.", "badges": [], "created_at": "2025-07-21T21:14:42.648-04:00", "updated_at": "2025-07-22T03:32:32.428-04:00", "avatar": "https://avatars.slack-edge.com/2025-07-21/9217958992135_56681346a66518041464_original.jpg", "custom_css": null}, {"id": 17064, "slack_id": "U096SMRR7K7", "display_name": "Chintey Ley", "bio": null, "projects_count": 0, "devlogs_count": 0, "votes_count": 0, "ships_count": 0, "projects": [], "coding_time_seconds": 0, "coding_time_seconds_today": 0, "balance": "You need to have a pocket watcher badge to view this.", "badges": [], "created_at": "2025-07-21T21:15:05.583-04:00", "updated_at": "2025-07-22T03:32:32.507-04:00", "avatar": "https://avatars.slack-edge.com/2025-07-21/9255145431872_0d03dd5ab051c775d459_original.png", "custom_css": null}, {"id": 17065, "slack_id": "U097H3TJXGQ", "display_name": "vikram", "bio": null, "projects_count": 0, "devlogs_count": 0, "votes_count": 0, "ships_count": 0, "projects": [], "coding_time_seconds": 0, "coding_time_seconds_today": 0, "balance": "You need to have a pocket watcher badge to view this.", "badges": [], "created_at": "2025-07-21T21:16:47.230-04:00", "updated_at": "2025-07-22T05:00:59.138-04:00", "avatar": "https://secure.gravatar.com/avatar/41426e9b31699a60030a59cfb1eee461.jpg?s=512&d=https%3A%2F%2Fa.slack-edge.com%2Fdf10d%2Fimg%2Favatars%2Fava_0023-512.png", "custom_css": null}], "pagination": {"page": 849, "pages": 1192, "count": 23828, "items": 20}}