{"users": [{"id": 1681, "slack_id": "U091NV97RRQ", "display_name": "Matt", "bio": "", "projects_count": 1, "devlogs_count": 38, "votes_count": 77, "ships_count": 1, "projects": [{"id": 1278, "title": "GamePico", "devlogs_count": 39, "created_at": "2025-06-18T04:45:24.232-04:00"}], "coding_time_seconds": 454252, "coding_time_seconds_today": 0, "balance": "You need to have a pocket watcher badge to view this.", "badges": [{"name": "Maiden Voyage", "text": "you shipped your first project! the journey begins...", "icon": "\ud83d\udea2"}], "created_at": "2025-06-16T13:45:15.938-04:00", "updated_at": "2025-09-10T22:51:59.081-04:00", "avatar": "https://avatars.slack-edge.com/2025-08-13/9348731946293_4a74acccc5a580d36033_original.png", "custom_css": null}, {"id": 1682, "slack_id": "U091GS9FMPG", "display_name": "Dallin Guisti", "bio": null, "projects_count": 0, "devlogs_count": 0, "votes_count": 0, "ships_count": 0, "projects": [], "coding_time_seconds": 50739, "coding_time_seconds_today": 0, "balance": "You need to have a pocket watcher badge to view this.", "badges": [], "created_at": "2025-06-16T13:45:26.508-04:00", "updated_at": "2025-08-23T16:56:44.342-04:00", "avatar": "https://secure.gravatar.com/avatar/afd0fe0b9ce7cc2add0a24e58ee0a31b.jpg?s=512&d=https%3A%2F%2Fa.slack-edge.com%2Fdf10d%2Fimg%2Favatars%2Fava_0006-512.png", "custom_css": null}, {"id": 1683, "slack_id": "U091NND67NE", "display_name": "Ignazio il Surname", "bio": null, "projects_count": 0, "devlogs_count": 0, "votes_count": 0, "ships_count": 0, "projects": [], "coding_time_seconds": 0, "coding_time_seconds_today": 0, "balance": "You need to have a pocket watcher badge to view this.", "badges": [], "created_at": "2025-06-16T13:45:31.477-04:00", "updated_at": "2025-07-03T19:18:45.510-04:00", "avatar": "https://secure.gravatar.com/avatar/437a6ac3afe28ed3d77b926249ce70bc.jpg?s=512&d=https%3A%2F%2Fa.slack-edge.com%2Fdf10d%2Fimg%2Favatars%2Fava_0001-512.png", "custom_css": null}, {"id": 1684, "slack_id": "U091GSC5V8E", "display_name": "Bloxxel64", "bio": "I'me Kibty!", "projects_count": 2, "devlogs_count": 9, "votes_count": 11, "ships_count": 1, "projects": [{"id": 173, "title": "SM64LinuxLauncher", "devlogs_count": 7, "created_at": "2025-06-16T14:55:37.167-04:00"}, {"id": 213, "title": "Bladder's Simples: The (Unofficial) Game", "devlogs_count": 2, "created_at": "2025-06-16T15:37:26.415-04:00"}], "coding_time_seconds": 85274, "coding_time_seconds_today": 0, "balance": "You need to have a pocket watcher badge to view this.", "badges": [{"name": "Maiden Voyage", "text": "you shipped your first project! the journey begins...", "icon": "\ud83d\udea2"}], "created_at": "2025-06-16T13:45:37.114-04:00", "updated_at": "2025-09-10T22:51:59.324-04:00", "avatar": "https://avatars.slack-edge.com/2025-06-16/9050902629075_70781387fe74aa322ff5_original.png", "custom_css": null}, {"id": 1685, "slack_id": "U091GRG6N0N", "display_name": "Janpreet", "bio": null, "projects_count": 0, "devlogs_count": 0, "votes_count": 0, "ships_count": 0, "projects": [], "coding_time_seconds": 0, "coding_time_seconds_today": 0, "balance": "You need to have a pocket watcher badge to view this.", "badges": [], "created_at": "2025-06-16T13:46:02.054-04:00", "updated_at": "2025-07-03T19:18:46.054-04:00", "avatar": "https://secure.gravatar.com/avatar/541007c2928f2ce54a5f8c08977e73b0.jpg?s=512&d=https%3A%2F%2Fa.slack-edge.com%2Fdf10d%2Fimg%2Favatars%2Fava_0005-512.png", "custom_css": null}, {"id": 1686, "slack_id": "U091GSCDDQE", "display_name": "Slmn Fellah", "bio": null, "projects_count": 0, "devlogs_count": 0, "votes_count": 0, "ships_count": 0, "projects": [], "coding_time_seconds": 0, "coding_time_seconds_today": 0, "balance": "You need to have a pocket watcher badge to view this.", "badges": [], "created_at": "2025-06-16T13:46:05.031-04:00", "updated_at": "2025-07-03T19:18:46.324-04:00", "avatar": "https://avatars.slack-edge.com/2025-06-16/9057768598962_a67f43ea8a25928d5b0f_original.png", "custom_css": null}, {"id": 1687, "slack_id": "U066HP9DWPK", "display_name": "jamdotjar", "bio": null, "projects_count": 1, "devlogs_count": 0, "votes_count": 1, "ships_count": 0, "projects": [{"id": 12086, "title": "microJam32", "devlogs_count": 0, "created_at": "2025-08-22T22:31:23.594-04:00"}], "coding_time_seconds": 262828, "coding_time_seconds_today": 0, "balance": "You need to have a pocket watcher badge to view this.", "badges": [], "created_at": "2025-06-16T13:46:10.595-04:00", "updated_at": "2025-09-24T18:04:32.833-04:00", "avatar": "https://avatars.slack-edge.com/2025-09-24/9574985777973_04bd0e8825c3db924826_original.png", "custom_css": null}, {"id": 1688, "slack_id": "U08RSTKRGAF", "display_name": "Faru", "bio": null, "projects_count": 2, "devlogs_count": 6, "votes_count": 7, "ships_count": 2, "projects": [{"id": 11701, "title": "OtaMapSF website", "devlogs_count": 1, "created_at": "2025-08-18T14:52:02.034-04:00"}, {"id": 11104, "title": "OtaMaps app", "devlogs_count": 5, "created_at": "2025-08-13T07:40:43.877-04:00"}], "coding_time_seconds": 342692, "coding_time_seconds_today": 0, "balance": "You need to have a pocket watcher badge to view this.", "badges": [{"name": "Maiden Voyage", "text": "you shipped your first project! the journey begins...", "icon": "\ud83d\udea2"}], "created_at": "2025-06-16T13:46:10.779-04:00", "updated_at": "2025-09-10T22:52:00.067-04:00", "avatar": "https://avatars.slack-edge.com/2025-06-09/9041717596976_c7673453f47fc89f6e24_original.png", "custom_css": null}, {"id": 1689, "slack_id": "U091Q416S0L", "display_name": "ase", "bio": null, "projects_count": 0, "devlogs_count": 0, "votes_count": 0, "ships_count": 0, "projects": [], "coding_time_seconds": 0, "coding_time_seconds_today": 0, "balance": "You need to have a pocket watcher badge to view this.", "badges": [], "created_at": "2025-06-16T13:46:17.776-04:00", "updated_at": "2025-07-03T19:18:47.126-04:00", "avatar": "https://secure.gravatar.com/avatar/4421c936e97f7bc1f48b1c64c282d4ae.jpg?s=512&d=https%3A%2F%2Fa.slack-edge.com%2Fdf10d%2Fimg%2Favatars%2Fava_0007-512.png", "custom_css": null}, {"id": 1690, "slack_id": "U09228V9W73", "display_name": "matrn", "bio": null, "projects_count": 2, "devlogs_count": 10, "votes_count": 26, "ships_count": 1, "projects": [{"id": 3294, "title": "Ya*bin", "devlogs_count": 1, "created_at": "2025-06-23T17:32:16.425-04:00"}, {"id": 13450, "title": "Is This AI?", "devlogs_count": 9, "created_at": "2025-09-16T17:31:55.141-04:00"}], "coding_time_seconds": 94820, "coding_time_seconds_today": 0, "balance": "You need to have a pocket watcher badge to view this.", "badges": [{"name": "Maiden Voyage", "text": "you shipped your first project! the journey begins...", "icon": "\ud83d\udea2"}], "created_at": "2025-06-16T13:46:29.315-04:00", "updated_at": "2025-09-17T20:00:15.230-04:00", "avatar": "https://secure.gravatar.com/avatar/cab91ad6cbeb09d2da80b41676e35e45.jpg?s=512&d=https%3A%2F%2Fa.slack-edge.com%2Fdf10d%2Fimg%2Favatars%2Fava_0010-512.png", "custom_css": null}, {"id": 1691, "slack_id": "U092C6G9796", "display_name": "Anaelle", "bio": null, "projects_count": 0, "devlogs_count": 0, "votes_count": 0, "ships_count": 0, "projects": [], "coding_time_seconds": 0, "coding_time_seconds_today": 0, "balance": "You need to have a pocket watcher badge to view this.", "badges": [], "created_at": "2025-06-16T13:46:38.768-04:00", "updated_at": "2025-07-03T19:18:47.655-04:00", "avatar": "https://secure.gravatar.com/avatar/c416a34601aa96d3451a6a187a89e0b4.jpg?s=512&d=https%3A%2F%2Fa.slack-edge.com%2Fdf10d%2Fimg%2Favatars%2Fava_0004-512.png", "custom_css": null}, {"id": 1692, "slack_id": "U091GS7KZFY", "display_name": "Razan Mahdi", "bio": null, "projects_count": 0, "devlogs_count": 0, "votes_count": 0, "ships_count": 0, "projects": [], "coding_time_seconds": 0, "coding_time_seconds_today": 0, "balance": "You need to have a pocket watcher badge to view this.", "badges": [], "created_at": "2025-06-16T13:46:43.787-04:00", "updated_at": "2025-07-03T19:18:47.922-04:00", "avatar": "https://secure.gravatar.com/avatar/63064c26d7cbb1bdcaa8b3dc1acf37a5.jpg?s=512&d=https%3A%2F%2Fa.slack-edge.com%2Fdf10d%2Fimg%2Favatars%2Fava_0006-512.png", "custom_css": null}, {"id": 1693, "slack_id": "U0918D1JP8F", "display_name": "Sathwik", "bio": null, "projects_count": 0, "devlogs_count": 0, "votes_count": 0, "ships_count": 0, "projects": [], "coding_time_seconds": 0, "coding_time_seconds_today": 0, "balance": "You need to have a pocket watcher badge to view this.", "badges": [], "created_at": "2025-06-16T13:46:45.597-04:00", "updated_at": "2025-07-03T19:18:48.186-04:00", "avatar": "https://secure.gravatar.com/avatar/bd86c6578a1e6378dbf37b9fddd1b7a1.jpg?s=512&d=https%3A%2F%2Fa.slack-edge.com%2Fdf10d%2Fimg%2Favatars%2Fava_0004-512.png", "custom_css": null}, {"id": 1694, "slack_id": "U091GPETN6P", "display_name": "Yichen", "bio": null, "projects_count": 0, "devlogs_count": 0, "votes_count": 0, "ships_count": 0, "projects": [], "coding_time_seconds": 0, "coding_time_seconds_today": 0, "balance": "You need to have a pocket watcher badge to view this.", "badges": [], "created_at": "2025-06-16T13:46:47.408-04:00", "updated_at": "2025-07-03T19:18:48.457-04:00", "avatar": "https://secure.gravatar.com/avatar/45541806c5c52b79514b351753ec4999.jpg?s=512&d=https%3A%2F%2Fa.slack-edge.com%2Fdf10d%2Fimg%2Favatars%2Fava_0006-512.png", "custom_css": null}, {"id": 1695, "slack_id": "U091MUXT2Q5", "display_name": "Gursimran Bhullar", "bio": null, "projects_count": 0, "devlogs_count": 0, "votes_count": 0, "ships_count": 0, "projects": [], "coding_time_seconds": 0, "coding_time_seconds_today": 0, "balance": "You need to have a pocket watcher badge to view this.", "badges": [], "created_at": "2025-06-16T13:47:00.882-04:00", "updated_at": "2025-07-03T19:18:48.721-04:00", "avatar": "https://secure.gravatar.com/avatar/1239525ca40abd21b1004e9160eb3a47.jpg?s=512&d=https%3A%2F%2Fa.slack-edge.com%2Fdf10d%2Fimg%2Favatars%2Fava_0013-512.png", "custom_css": null}, {"id": 1696, "slack_id": "U091Q4WUVHS", "display_name": "Riley Wen", "bio": null, "projects_count": 2, "devlogs_count": 16, "votes_count": 35, "ships_count": 2, "projects": [{"id": 6149, "title": "News Summarizer", "devlogs_count": 4, "created_at": "2025-07-11T00:03:39.281-04:00"}, {"id": 1261, "title": "Wengu", "devlogs_count": 12, "created_at": "2025-06-18T02:45:07.520-04:00"}], "coding_time_seconds": 428775, "coding_time_seconds_today": 0, "balance": "You need to have a pocket watcher badge to view this.", "badges": [{"name": "Maiden Voyage", "text": "you shipped your first project! the journey begins...", "icon": "\ud83d\udea2"}], "created_at": "2025-06-16T13:47:05.529-04:00", "updated_at": "2025-09-10T22:52:00.342-04:00", "avatar": "https://avatars.slack-edge.com/2025-06-16/9050920352118_3ad0dedbd6c326fb6603_original.png", "custom_css": null}, {"id": 1697, "slack_id": "U091MUYJ6LV", "display_name": "Harika Yenuga", "bio": null, "projects_count": 0, "devlogs_count": 0, "votes_count": 0, "ships_count": 0, "projects": [], "coding_time_seconds": 0, "coding_time_seconds_today": 0, "balance": "You need to have a pocket watcher badge to view this.", "badges": [], "created_at": "2025-06-16T13:47:06.810-04:00", "updated_at": "2025-07-03T19:18:49.255-04:00", "avatar": "https://secure.gravatar.com/avatar/b99c63808e3b9fbfc0fceed6dd958434.jpg?s=512&d=https%3A%2F%2Fa.slack-edge.com%2Fdf10d%2Fimg%2Favatars%2Fava_0004-512.png", "custom_css": null}, {"id": 1698, "slack_id": "U091GPM30SX", "display_name": "VINYAS C S CS", "bio": null, "projects_count": 0, "devlogs_count": 0, "votes_count": 0, "ships_count": 0, "projects": [], "coding_time_seconds": 0, "coding_time_seconds_today": 0, "balance": "You need to have a pocket watcher badge to view this.", "badges": [], "created_at": "2025-06-16T13:47:24.746-04:00", "updated_at": "2025-07-03T19:18:49.529-04:00", "avatar": "https://avatars.slack-edge.com/2025-06-16/9042468540695_27940efae65e3e45bfdd_original.png", "custom_css": null}, {"id": 1699, "slack_id": "U092BMU7TQQ", "display_name": "Luca", "bio": null, "projects_count": 0, "devlogs_count": 0, "votes_count": 0, "ships_count": 0, "projects": [], "coding_time_seconds": 3048, "coding_time_seconds_today": 0, "balance": "You need to have a pocket watcher badge to view this.", "badges": [], "created_at": "2025-06-16T13:47:27.540-04:00", "updated_at": "2025-07-03T19:18:49.795-04:00", "avatar": "https://secure.gravatar.com/avatar/1d024ef56c37ec07f0a6c9816c0ccb42.jpg?s=512&d=https%3A%2F%2Fa.slack-edge.com%2Fdf10d%2Fimg%2Favatars%2Fava_0025-512.png", "custom_css": null}, {"id": 1700, "slack_id": "U091896MP9V", "display_name": "matyi", "bio": null, "projects_count": 0, "devlogs_count": 0, "votes_count": 0, "ships_count": 0, "projects": [], "coding_time_seconds": 55614, "coding_time_seconds_today": 0, "balance": "You need to have a pocket watcher badge to view this.", "badges": [], "created_at": "2025-06-16T13:47:27.876-04:00", "updated_at": "2025-07-03T19:18:50.055-04:00", "avatar": "https://secure.gravatar.com/avatar/a41bff8a7474e20b59308af07afbd19c.jpg?s=512&d=https%3A%2F%2Fa.slack-edge.com%2Fdf10d%2Fimg%2Favatars%2Fava_0019-512.png", "custom_css": null}], "pagination": {"page": 85, "pages": 1192, "count": 23828, "items": 20}}