{"users": [{"id": 17066, "slack_id": "U096DU4R2S3", "display_name": "Madhan S", "bio": null, "projects_count": 0, "devlogs_count": 0, "votes_count": 0, "ships_count": 0, "projects": [], "coding_time_seconds": 0, "coding_time_seconds_today": 0, "balance": "You need to have a pocket watcher badge to view this.", "badges": [], "created_at": "2025-07-21T21:18:10.295-04:00", "updated_at": "2025-07-22T03:32:32.687-04:00", "avatar": "https://secure.gravatar.com/avatar/879056991a4f678e8598fea47648e182.jpg?s=512&d=https%3A%2F%2Fa.slack-edge.com%2Fdf10d%2Fimg%2Favatars%2Fava_0011-512.png", "custom_css": null}, {"id": 17067, "slack_id": "U096DTVUG2K", "display_name": "DaiDaiDai", "bio": null, "projects_count": 0, "devlogs_count": 0, "votes_count": 0, "ships_count": 0, "projects": [], "coding_time_seconds": 0, "coding_time_seconds_today": 0, "balance": "You need to have a pocket watcher badge to view this.", "badges": [], "created_at": "2025-07-21T21:18:24.525-04:00", "updated_at": "2025-07-22T03:32:32.774-04:00", "avatar": "https://secure.gravatar.com/avatar/4750a20bb7a3165da3752b2aa460268c.jpg?s=512&d=https%3A%2F%2Fa.slack-edge.com%2Fdf10d%2Fimg%2Favatars%2Fava_0002-512.png", "custom_css": null}, {"id": 17068, "slack_id": "U096SN2H5FX", "display_name": "Zeenat", "bio": null, "projects_count": 0, "devlogs_count": 0, "votes_count": 0, "ships_count": 0, "projects": [], "coding_time_seconds": 0, "coding_time_seconds_today": 0, "balance": "You need to have a pocket watcher badge to view this.", "badges": [], "created_at": "2025-07-21T21:19:35.575-04:00", "updated_at": "2025-07-22T03:32:36.890-04:00", "avatar": "https://secure.gravatar.com/avatar/2c162f3fa878dda21a7699228c2e5948.jpg?s=512&d=https%3A%2F%2Fa.slack-edge.com%2Fdf10d%2Fimg%2Favatars%2Fava_0017-512.png", "custom_css": null}, {"id": 17069, "slack_id": "U096SN6DAKX", "display_name": "ibzan0", "bio": null, "projects_count": 1, "devlogs_count": 0, "votes_count": 1, "ships_count": 0, "projects": [{"id": 8013, "title": "pinnr", "devlogs_count": 0, "created_at": "2025-07-24T02:55:18.449-04:00"}], "coding_time_seconds": 24561, "coding_time_seconds_today": 0, "balance": "You need to have a pocket watcher badge to view this.", "badges": [], "created_at": "2025-07-21T21:20:27.754-04:00", "updated_at": "2025-07-23T03:55:01.823-04:00", "avatar": "https://secure.gravatar.com/avatar/b03f97bf8eb897cc791578d46b30da2b.jpg?s=512&d=https%3A%2F%2Fa.slack-edge.com%2Fdf10d%2Fimg%2Favatars%2Fava_0022-512.png", "custom_css": null}, {"id": 17070, "slack_id": "U096VKRE0DS", "display_name": "SANJAY RAMESH KUMAR", "bio": null, "projects_count": 0, "devlogs_count": 0, "votes_count": 0, "ships_count": 0, "projects": [], "coding_time_seconds": 0, "coding_time_seconds_today": 0, "balance": "You need to have a pocket watcher badge to view this.", "badges": [], "created_at": "2025-07-21T21:20:30.519-04:00", "updated_at": "2025-07-22T03:32:37.055-04:00", "avatar": "https://secure.gravatar.com/avatar/98c141d5cfd7e7a7b8cdaa14e895682a.jpg?s=512&d=https%3A%2F%2Fa.slack-edge.com%2Fdf10d%2Fimg%2Favatars%2Fava_0026-512.png", "custom_css": null}, {"id": 17071, "slack_id": "U096DUAEMBR", "display_name": "eayzaid", "bio": null, "projects_count": 0, "devlogs_count": 0, "votes_count": 0, "ships_count": 0, "projects": [], "coding_time_seconds": 0, "coding_time_seconds_today": 0, "balance": "You need to have a pocket watcher badge to view this.", "badges": [], "created_at": "2025-07-21T21:20:51.105-04:00", "updated_at": "2025-07-22T03:32:37.136-04:00", "avatar": "https://secure.gravatar.com/avatar/d36a5fa135b9dd69cac5a0cca7a9d18c.jpg?s=512&d=https%3A%2F%2Fa.slack-edge.com%2Fdf10d%2Fimg%2Favatars%2Fava_0005-512.png", "custom_css": null}, {"id": 17072, "slack_id": "U096VTUEKSQ", "display_name": "PPulcini", "bio": null, "projects_count": 0, "devlogs_count": 0, "votes_count": 0, "ships_count": 0, "projects": [], "coding_time_seconds": 68409, "coding_time_seconds_today": 0, "balance": "You need to have a pocket watcher badge to view this.", "badges": [], "created_at": "2025-07-21T21:21:58.513-04:00", "updated_at": "2025-07-22T03:32:37.204-04:00", "avatar": "https://secure.gravatar.com/avatar/eebf85450cbbb31a3cb60be06148eabd.jpg?s=512&d=https%3A%2F%2Fa.slack-edge.com%2Fdf10d%2Fimg%2Favatars%2Fava_0026-512.png", "custom_css": null}, {"id": 17073, "slack_id": "U096QFV1KAA", "display_name": "jsiegel", "bio": null, "projects_count": 0, "devlogs_count": 0, "votes_count": 0, "ships_count": 0, "projects": [], "coding_time_seconds": 0, "coding_time_seconds_today": 0, "balance": "You need to have a pocket watcher badge to view this.", "badges": [], "created_at": "2025-07-21T21:24:42.997-04:00", "updated_at": "2025-07-22T03:32:37.283-04:00", "avatar": "https://secure.gravatar.com/avatar/dc5d8ecac6c292eb9593089d218eb5a7.jpg?s=512&d=https%3A%2F%2Fa.slack-edge.com%2Fdf10d%2Fimg%2Favatars%2Fava_0025-512.png", "custom_css": null}, {"id": 17074, "slack_id": "U096VU1G6LU", "display_name": "Suyash", "bio": null, "projects_count": 0, "devlogs_count": 0, "votes_count": 0, "ships_count": 0, "projects": [], "coding_time_seconds": 0, "coding_time_seconds_today": 0, "balance": "You need to have a pocket watcher badge to view this.", "badges": [], "created_at": "2025-07-21T21:24:59.683-04:00", "updated_at": "2025-07-22T03:32:37.366-04:00", "avatar": "https://secure.gravatar.com/avatar/9c4c572a8fb9df72970ecfa4a04aaf4b.jpg?s=512&d=https%3A%2F%2Fa.slack-edge.com%2Fdf10d%2Fimg%2Favatars%2Fava_0016-512.png", "custom_css": null}, {"id": 17075, "slack_id": "U096DUM705D", "display_name": "Jinhua Zhang", "bio": null, "projects_count": 0, "devlogs_count": 0, "votes_count": 0, "ships_count": 0, "projects": [], "coding_time_seconds": 0, "coding_time_seconds_today": 0, "balance": "You need to have a pocket watcher badge to view this.", "badges": [], "created_at": "2025-07-21T21:25:27.822-04:00", "updated_at": "2025-07-22T03:32:37.459-04:00", "avatar": "https://secure.gravatar.com/avatar/4f4c53c4bd0a899d091bee9eed8ab35d.jpg?s=512&d=https%3A%2F%2Fa.slack-edge.com%2Fdf10d%2Fimg%2Favatars%2Fava_0016-512.png", "custom_css": null}, {"id": 17076, "slack_id": "U096SNMB4MB", "display_name": "Shreybertocarlos", "bio": null, "projects_count": 0, "devlogs_count": 0, "votes_count": 0, "ships_count": 0, "projects": [], "coding_time_seconds": 683, "coding_time_seconds_today": 0, "balance": "You need to have a pocket watcher badge to view this.", "badges": [], "created_at": "2025-07-21T21:25:52.054-04:00", "updated_at": "2025-07-22T03:32:37.553-04:00", "avatar": "https://secure.gravatar.com/avatar/8c999ee075a095b3a0d0a21c7c59a95d.jpg?s=512&d=https%3A%2F%2Fa.slack-edge.com%2Fdf10d%2Fimg%2Favatars%2Fava_0023-512.png", "custom_css": null}, {"id": 17077, "slack_id": "U096SNMV9C5", "display_name": "Nikhil Nagpure", "bio": null, "projects_count": 0, "devlogs_count": 0, "votes_count": 0, "ships_count": 0, "projects": [], "coding_time_seconds": 0, "coding_time_seconds_today": 0, "balance": "You need to have a pocket watcher badge to view this.", "badges": [], "created_at": "2025-07-21T21:25:52.163-04:00", "updated_at": "2025-07-22T03:32:37.632-04:00", "avatar": "https://secure.gravatar.com/avatar/9beb26b100f1291aec74e6c3943259f9.jpg?s=512&d=https%3A%2F%2Fa.slack-edge.com%2Fdf10d%2Fimg%2Favatars%2Fava_0004-512.png", "custom_css": null}, {"id": 17078, "slack_id": "U096PCPK603", "display_name": "Tejaskumar", "bio": null, "projects_count": 0, "devlogs_count": 0, "votes_count": 0, "ships_count": 0, "projects": [], "coding_time_seconds": 15889, "coding_time_seconds_today": 0, "balance": "You need to have a pocket watcher badge to view this.", "badges": [], "created_at": "2025-07-21T21:30:38.943-04:00", "updated_at": "2025-07-22T07:37:45.051-04:00", "avatar": "https://secure.gravatar.com/avatar/e42328c8bca4ba837aaf1c9a2694d220.jpg?s=512&d=https%3A%2F%2Fa.slack-edge.com%2Fdf10d%2Fimg%2Favatars%2Fava_0007-512.png", "custom_css": null}, {"id": 17079, "slack_id": "U096VUPAQPN", "display_name": "Gilang Windu Asmara", "bio": null, "projects_count": 0, "devlogs_count": 0, "votes_count": 0, "ships_count": 0, "projects": [], "coding_time_seconds": 262730, "coding_time_seconds_today": 3838, "balance": "You need to have a pocket watcher badge to view this.", "badges": [], "created_at": "2025-07-21T21:32:09.110-04:00", "updated_at": "2025-07-25T02:34:48.708-04:00", "avatar": "https://avatars.slack-edge.com/2025-07-21/9227455817763_20a1010a2220f9d810e8_original.jpg", "custom_css": null}, {"id": 17080, "slack_id": "U096E01KX6K", "display_name": "rjm", "bio": null, "projects_count": 0, "devlogs_count": 0, "votes_count": 0, "ships_count": 0, "projects": [], "coding_time_seconds": 0, "coding_time_seconds_today": 0, "balance": "You need to have a pocket watcher badge to view this.", "badges": [], "created_at": "2025-07-21T21:32:57.946-04:00", "updated_at": "2025-07-22T03:32:41.978-04:00", "avatar": "https://secure.gravatar.com/avatar/af10b56c212ed66d41d7f773fc973c9c.jpg?s=512&d=https%3A%2F%2Fa.slack-edge.com%2Fdf10d%2Fimg%2Favatars%2Fava_0009-512.png", "custom_css": null}, {"id": 17081, "slack_id": "U096RJSP1RC", "display_name": "Sa\u00fal", "bio": null, "projects_count": 0, "devlogs_count": 0, "votes_count": 0, "ships_count": 0, "projects": [], "coding_time_seconds": 3923, "coding_time_seconds_today": 0, "balance": "You need to have a pocket watcher badge to view this.", "badges": [], "created_at": "2025-07-21T21:34:02.048-04:00", "updated_at": "2025-07-22T18:07:31.894-04:00", "avatar": "https://secure.gravatar.com/avatar/745ea9dd48ae2531ce355b260830b2f7.jpg?s=512&d=https%3A%2F%2Fa.slack-edge.com%2Fdf10d%2Fimg%2Favatars%2Fava_0025-512.png", "custom_css": null}, {"id": 17082, "slack_id": "U096UNN3W1G", "display_name": "Raghav Dharwal", "bio": null, "projects_count": 0, "devlogs_count": 0, "votes_count": 0, "ships_count": 0, "projects": [], "coding_time_seconds": 141865, "coding_time_seconds_today": 0, "balance": "You need to have a pocket watcher badge to view this.", "badges": [], "created_at": "2025-07-21T21:34:07.564-04:00", "updated_at": "2025-07-22T08:28:46.042-04:00", "avatar": "https://secure.gravatar.com/avatar/1f2198006e67d1d67b8f272a9b854ae0.jpg?s=512&d=https%3A%2F%2Fa.slack-edge.com%2Fdf10d%2Fimg%2Favatars%2Fava_0020-512.png", "custom_css": null}, {"id": 17083, "slack_id": "U096VV389JQ", "display_name": "Sanchit Lamba", "bio": "I guess i'm doing this now", "projects_count": 1, "devlogs_count": 1, "votes_count": 0, "ships_count": 0, "projects": [{"id": 7470, "title": "shell-shock", "devlogs_count": 1, "created_at": "2025-07-21T22:51:47.276-04:00"}], "coding_time_seconds": 28935, "coding_time_seconds_today": 0, "balance": "You need to have a pocket watcher badge to view this.", "badges": [], "created_at": "2025-07-21T21:34:57.776-04:00", "updated_at": "2025-07-31T12:49:08.139-04:00", "avatar": "https://secure.gravatar.com/avatar/972d5fe5c8a9bb704bfce5a6d3b7b0b5.jpg?s=512&d=https%3A%2F%2Fa.slack-edge.com%2Fdf10d%2Fimg%2Favatars%2Fava_0026-512.png", "custom_css": null}, {"id": 17084, "slack_id": "U096E0DQAVD", "display_name": "Lindita Kalaj", "bio": null, "projects_count": 0, "devlogs_count": 0, "votes_count": 0, "ships_count": 0, "projects": [], "coding_time_seconds": 0, "coding_time_seconds_today": 0, "balance": "You need to have a pocket watcher badge to view this.", "badges": [], "created_at": "2025-07-21T21:35:41.833-04:00", "updated_at": "2025-07-22T03:32:46.411-04:00", "avatar": "https://avatars.slack-edge.com/2025-07-21/9227465936083_4686e55278ef335cf4ca_original.png", "custom_css": null}, {"id": 17085, "slack_id": "U096VV40C7N", "display_name": "Marcellino Abdelmalak", "bio": null, "projects_count": 0, "devlogs_count": 0, "votes_count": 0, "ships_count": 0, "projects": [], "coding_time_seconds": 0, "coding_time_seconds_today": 0, "balance": "You need to have a pocket watcher badge to view this.", "badges": [], "created_at": "2025-07-21T21:38:11.940-04:00", "updated_at": "2025-07-24T13:13:30.829-04:00", "avatar": "https://secure.gravatar.com/avatar/ffdb3ab65d68488c7fd5416966208b2b.jpg?s=512&d=https%3A%2F%2Fa.slack-edge.com%2Fdf10d%2Fimg%2Favatars%2Fava_0002-512.png", "custom_css": null}], "pagination": {"page": 850, "pages": 1192, "count": 23828, "items": 20}}