{"users": [{"id": 17086, "slack_id": "U096RK3SNJ2", "display_name": "HAIDER ALI", "bio": null, "projects_count": 0, "devlogs_count": 0, "votes_count": 0, "ships_count": 0, "projects": [], "coding_time_seconds": 0, "coding_time_seconds_today": 0, "balance": "You need to have a pocket watcher badge to view this.", "badges": [], "created_at": "2025-07-21T21:38:51.882-04:00", "updated_at": "2025-07-22T03:32:46.579-04:00", "avatar": "https://secure.gravatar.com/avatar/5701e31e6b51cdcdb84047f289203312.jpg?s=512&d=https%3A%2F%2Fa.slack-edge.com%2Fdf10d%2Fimg%2Favatars%2Fava_0008-512.png", "custom_css": null}, {"id": 17087, "slack_id": "U096UP0L21G", "display_name": "Amber", "bio": null, "projects_count": 1, "devlogs_count": 0, "votes_count": 0, "ships_count": 0, "projects": [{"id": 7654, "title": "This is a small website to help me learn English from ICRT For Kids.", "devlogs_count": 0, "created_at": "2025-07-22T12:25:27.875-04:00"}], "coding_time_seconds": 68407, "coding_time_seconds_today": 0, "balance": "You need to have a pocket watcher badge to view this.", "badges": [], "created_at": "2025-07-21T21:38:54.185-04:00", "updated_at": "2025-07-23T04:15:03.159-04:00", "avatar": "https://secure.gravatar.com/avatar/a2be700f278b8aac186502bf2f1de8e9.jpg?s=512&d=https%3A%2F%2Fa.slack-edge.com%2Fdf10d%2Fimg%2Favatars%2Fava_0003-512.png", "custom_css": null}, {"id": 17088, "slack_id": "U096RKGMR2A", "display_name": "huangchen", "bio": null, "projects_count": 0, "devlogs_count": 0, "votes_count": 0, "ships_count": 0, "projects": [], "coding_time_seconds": 0, "coding_time_seconds_today": 0, "balance": "You need to have a pocket watcher badge to view this.", "badges": [], "created_at": "2025-07-21T21:39:18.167-04:00", "updated_at": "2025-07-22T03:32:46.745-04:00", "avatar": "https://secure.gravatar.com/avatar/501b04a9f2d9e63e74922dadf4209271.jpg?s=512&d=https%3A%2F%2Fa.slack-edge.com%2Fdf10d%2Fimg%2Favatars%2Fava_0007-512.png", "custom_css": null}, {"id": 17089, "slack_id": "U096UP6G3PU", "display_name": "Aaditya Lamichhane", "bio": null, "projects_count": 0, "devlogs_count": 0, "votes_count": 0, "ships_count": 0, "projects": [], "coding_time_seconds": 517885, "coding_time_seconds_today": 2862, "balance": "You need to have a pocket watcher badge to view this.", "badges": [], "created_at": "2025-07-21T21:39:24.705-04:00", "updated_at": "2025-07-22T03:32:46.833-04:00", "avatar": "https://secure.gravatar.com/avatar/8a72cad294a9a96a9f0a3aeccac7aa08.jpg?s=512&d=https%3A%2F%2Fa.slack-edge.com%2Fdf10d%2Fimg%2Favatars%2Fava_0007-512.png", "custom_css": null}, {"id": 17090, "slack_id": "U096PDK4PL3", "display_name": "Tin", "bio": null, "projects_count": 2, "devlogs_count": 3, "votes_count": 1, "ships_count": 1, "projects": [{"id": 12672, "title": "PocketParty", "devlogs_count": 0, "created_at": "2025-08-31T12:01:01.255-04:00"}, {"id": 8008, "title": "Manao Twitch Bot", "devlogs_count": 3, "created_at": "2025-07-24T02:22:09.659-04:00"}], "coding_time_seconds": 109157, "coding_time_seconds_today": 0, "balance": "You need to have a pocket watcher badge to view this.", "badges": [], "created_at": "2025-07-21T21:39:37.304-04:00", "updated_at": "2025-08-29T12:32:02.965-04:00", "avatar": "https://avatars.slack-edge.com/2025-07-24/9262231106193_e4f736788e21ecefb432_original.jpg", "custom_css": null}, {"id": 17091, "slack_id": "U096W03U1QC", "display_name": "Patrick Piccini", "bio": null, "projects_count": 0, "devlogs_count": 0, "votes_count": 0, "ships_count": 0, "projects": [], "coding_time_seconds": 0, "coding_time_seconds_today": 0, "balance": "You need to have a pocket watcher badge to view this.", "badges": [], "created_at": "2025-07-21T21:41:07.504-04:00", "updated_at": "2025-07-22T03:32:47.028-04:00", "avatar": "https://secure.gravatar.com/avatar/107d3a7998162a72df02ef291e91a9cc.jpg?s=512&d=https%3A%2F%2Fa.slack-edge.com%2Fdf10d%2Fimg%2Favatars%2Fava_0026-512.png", "custom_css": null}, {"id": 17092, "slack_id": "U097G00AEQG", "display_name": "Valerie Wong", "bio": null, "projects_count": 0, "devlogs_count": 0, "votes_count": 0, "ships_count": 0, "projects": [], "coding_time_seconds": 0, "coding_time_seconds_today": 0, "balance": "You need to have a pocket watcher badge to view this.", "badges": [], "created_at": "2025-07-21T21:41:44.259-04:00", "updated_at": "2025-07-22T03:32:47.136-04:00", "avatar": "https://secure.gravatar.com/avatar/328db5076960702f208b6194fcce6709.jpg?s=512&d=https%3A%2F%2Fa.slack-edge.com%2Fdf10d%2Fimg%2Favatars%2Fava_0025-512.png", "custom_css": null}, {"id": 17093, "slack_id": "U096RKV7PKQ", "display_name": "Koios Hong", "bio": null, "projects_count": 0, "devlogs_count": 0, "votes_count": 0, "ships_count": 0, "projects": [], "coding_time_seconds": 541, "coding_time_seconds_today": 0, "balance": "You need to have a pocket watcher badge to view this.", "badges": [], "created_at": "2025-07-21T21:44:00.963-04:00", "updated_at": "2025-07-30T18:37:36.401-04:00", "avatar": "https://secure.gravatar.com/avatar/69d195f58b83fad21aaa836464abe0f3.jpg?s=512&d=https%3A%2F%2Fa.slack-edge.com%2Fdf10d%2Fimg%2Favatars%2Fava_0013-512.png", "custom_css": null}, {"id": 17094, "slack_id": "U096RKR8E1L", "display_name": "Joydeep Banik", "bio": null, "projects_count": 0, "devlogs_count": 0, "votes_count": 0, "ships_count": 0, "projects": [], "coding_time_seconds": 3141, "coding_time_seconds_today": 0, "balance": "You need to have a pocket watcher badge to view this.", "badges": [], "created_at": "2025-07-21T21:44:20.616-04:00", "updated_at": "2025-08-01T15:48:46.230-04:00", "avatar": "https://secure.gravatar.com/avatar/1b3e74725177d11d41a90413407e3495.jpg?s=512&d=https%3A%2F%2Fa.slack-edge.com%2Fdf10d%2Fimg%2Favatars%2Fava_0016-512.png", "custom_css": null}, {"id": 17095, "slack_id": "U0977UU0CHF", "display_name": "Mehboob Alam", "bio": null, "projects_count": 0, "devlogs_count": 0, "votes_count": 0, "ships_count": 0, "projects": [], "coding_time_seconds": 0, "coding_time_seconds_today": 0, "balance": "You need to have a pocket watcher badge to view this.", "badges": [], "created_at": "2025-07-21T21:45:09.462-04:00", "updated_at": "2025-07-22T03:32:47.438-04:00", "avatar": "https://secure.gravatar.com/avatar/1980f1a61bbc956eed9f04d48fad349e.jpg?s=512&d=https%3A%2F%2Fa.slack-edge.com%2Fdf10d%2Fimg%2Favatars%2Fava_0011-512.png", "custom_css": null}, {"id": 17096, "slack_id": "U096PDUEY2F", "display_name": "mrnj", "bio": null, "projects_count": 0, "devlogs_count": 0, "votes_count": 0, "ships_count": 0, "projects": [], "coding_time_seconds": 0, "coding_time_seconds_today": 0, "balance": "You need to have a pocket watcher badge to view this.", "badges": [], "created_at": "2025-07-21T21:45:44.364-04:00", "updated_at": "2025-08-01T21:10:00.270-04:00", "avatar": "https://secure.gravatar.com/avatar/e06c14495864b6858d76820d10c5b45c.jpg?s=512&d=https%3A%2F%2Fa.slack-edge.com%2Fdf10d%2Fimg%2Favatars%2Fava_0024-512.png", "custom_css": null}, {"id": 17097, "slack_id": "U0977V48NQ1", "display_name": "Huong Vu", "bio": null, "projects_count": 0, "devlogs_count": 0, "votes_count": 0, "ships_count": 0, "projects": [], "coding_time_seconds": 0, "coding_time_seconds_today": 0, "balance": "You need to have a pocket watcher badge to view this.", "badges": [], "created_at": "2025-07-21T21:46:05.949-04:00", "updated_at": "2025-07-22T03:32:47.606-04:00", "avatar": "https://secure.gravatar.com/avatar/717970d1d539acaa6ba24ac854d045e0.jpg?s=512&d=https%3A%2F%2Fa.slack-edge.com%2Fdf10d%2Fimg%2Favatars%2Fava_0004-512.png", "custom_css": null}, {"id": 17098, "slack_id": "U097H6PJTDE", "display_name": "Collins Munene", "bio": null, "projects_count": 0, "devlogs_count": 0, "votes_count": 0, "ships_count": 0, "projects": [], "coding_time_seconds": 0, "coding_time_seconds_today": 0, "balance": "You need to have a pocket watcher badge to view this.", "badges": [], "created_at": "2025-07-21T21:46:06.454-04:00", "updated_at": "2025-07-22T03:32:47.690-04:00", "avatar": "https://secure.gravatar.com/avatar/dc77e0b04fe579099a7cce44bbc48b77.jpg?s=512&d=https%3A%2F%2Fa.slack-edge.com%2Fdf10d%2Fimg%2Favatars%2Fava_0015-512.png", "custom_css": null}, {"id": 17099, "slack_id": "U096SQGEF45", "display_name": "Heart Imbo", "bio": null, "projects_count": 0, "devlogs_count": 0, "votes_count": 0, "ships_count": 0, "projects": [], "coding_time_seconds": 0, "coding_time_seconds_today": 0, "balance": "You need to have a pocket watcher badge to view this.", "badges": [], "created_at": "2025-07-21T21:46:17.320-04:00", "updated_at": "2025-07-22T03:32:47.769-04:00", "avatar": "https://secure.gravatar.com/avatar/7556d1bd190c70b902d210892cb953fa.jpg?s=512&d=https%3A%2F%2Fa.slack-edge.com%2Fdf10d%2Fimg%2Favatars%2Fava_0011-512.png", "custom_css": null}, {"id": 17100, "slack_id": "U096RL5T6R4", "display_name": "Yusuf Siddiqui", "bio": null, "projects_count": 0, "devlogs_count": 0, "votes_count": 0, "ships_count": 0, "projects": [], "coding_time_seconds": 1888, "coding_time_seconds_today": 0, "balance": "You need to have a pocket watcher badge to view this.", "badges": [], "created_at": "2025-07-21T21:46:59.158-04:00", "updated_at": "2025-07-22T21:09:29.876-04:00", "avatar": "https://avatars.slack-edge.com/2025-07-21/9234035918484_8e15a7f048902db64dfe_original.png", "custom_css": null}, {"id": 17101, "slack_id": "U0977V5PUE5", "display_name": "Antoine", "bio": "", "projects_count": 0, "devlogs_count": 0, "votes_count": 0, "ships_count": 0, "projects": [], "coding_time_seconds": 273395, "coding_time_seconds_today": 2202, "balance": "You need to have a pocket watcher badge to view this.", "badges": [], "created_at": "2025-07-21T21:47:04.235-04:00", "updated_at": "2025-07-22T03:32:47.939-04:00", "avatar": "https://secure.gravatar.com/avatar/bfeda00640d3cb1399e2f12989693308.jpg?s=512&d=https%3A%2F%2Fa.slack-edge.com%2Fdf10d%2Fimg%2Favatars%2Fava_0022-512.png", "custom_css": null}, {"id": 17102, "slack_id": "U096RL57T1C", "display_name": "Adnane Malki", "bio": null, "projects_count": 0, "devlogs_count": 0, "votes_count": 0, "ships_count": 0, "projects": [], "coding_time_seconds": 16674, "coding_time_seconds_today": 0, "balance": "You need to have a pocket watcher badge to view this.", "badges": [], "created_at": "2025-07-21T21:47:59.688-04:00", "updated_at": "2025-07-22T03:32:48.017-04:00", "avatar": "https://avatars.slack-edge.com/2025-07-21/9227504967603_87257b68dc9e23185488_original.png", "custom_css": null}, {"id": 17103, "slack_id": "U096UPULEQJ", "display_name": "Shubham Sharma", "bio": null, "projects_count": 0, "devlogs_count": 0, "votes_count": 0, "ships_count": 0, "projects": [], "coding_time_seconds": 0, "coding_time_seconds_today": 0, "balance": "You need to have a pocket watcher badge to view this.", "badges": [], "created_at": "2025-07-21T21:48:39.362-04:00", "updated_at": "2025-08-01T21:00:36.658-04:00", "avatar": "https://secure.gravatar.com/avatar/492362d58f867e73109563fdb576b9fd.jpg?s=512&d=https%3A%2F%2Fa.slack-edge.com%2Fdf10d%2Fimg%2Favatars%2Fava_0016-512.png", "custom_css": null}, {"id": 17104, "slack_id": "U096RLE88PQ", "display_name": "Nishad Kulkarni", "bio": null, "projects_count": 0, "devlogs_count": 0, "votes_count": 0, "ships_count": 0, "projects": [], "coding_time_seconds": 0, "coding_time_seconds_today": 0, "balance": "You need to have a pocket watcher badge to view this.", "badges": [], "created_at": "2025-07-21T21:48:51.627-04:00", "updated_at": "2025-07-22T03:32:48.185-04:00", "avatar": "https://avatars.slack-edge.com/2025-07-21/9229701960022_1072819cd9d7f1476746_original.jpg", "custom_css": null}, {"id": 17105, "slack_id": "U096W0YB25S", "display_name": "sanjai", "bio": null, "projects_count": 0, "devlogs_count": 0, "votes_count": 0, "ships_count": 0, "projects": [], "coding_time_seconds": 0, "coding_time_seconds_today": 0, "balance": "You need to have a pocket watcher badge to view this.", "badges": [], "created_at": "2025-07-21T21:49:46.053-04:00", "updated_at": "2025-07-22T03:32:48.267-04:00", "avatar": "https://secure.gravatar.com/avatar/a368fd098c65e69c31fff443a01b4eb5.jpg?s=512&d=https%3A%2F%2Fa.slack-edge.com%2Fdf10d%2Fimg%2Favatars%2Fava_0005-512.png", "custom_css": null}], "pagination": {"page": 851, "pages": 1192, "count": 23828, "items": 20}}