{"users": [{"id": 17106, "slack_id": "U096UPZJ9D0", "display_name": "Questerios", "bio": null, "projects_count": 0, "devlogs_count": 0, "votes_count": 0, "ships_count": 0, "projects": [], "coding_time_seconds": 0, "coding_time_seconds_today": 0, "balance": "You need to have a pocket watcher badge to view this.", "badges": [], "created_at": "2025-07-21T21:50:42.766-04:00", "updated_at": "2025-07-22T03:32:48.372-04:00", "avatar": "https://secure.gravatar.com/avatar/05a46dca0f4444c1cfb641a1734be163.jpg?s=512&d=https%3A%2F%2Fa.slack-edge.com%2Fdf10d%2Fimg%2Favatars%2Fava_0010-512.png", "custom_css": null}, {"id": 17107, "slack_id": "U096UQ8UJRY", "display_name": "Yusuf Ansari", "bio": null, "projects_count": 0, "devlogs_count": 0, "votes_count": 0, "ships_count": 0, "projects": [], "coding_time_seconds": 37055, "coding_time_seconds_today": 0, "balance": "You need to have a pocket watcher badge to view this.", "badges": [], "created_at": "2025-07-21T21:52:19.290-04:00", "updated_at": "2025-07-22T03:32:48.449-04:00", "avatar": "https://avatars.slack-edge.com/2025-07-21/9230865334661_13dd42aa39ca19578ca1_original.jpg", "custom_css": null}, {"id": 17108, "slack_id": "U097H76FP24", "display_name": "Lucas Azevedo", "bio": null, "projects_count": 1, "devlogs_count": 0, "votes_count": 0, "ships_count": 0, "projects": [{"id": 7468, "title": "Jabuti ", "devlogs_count": 0, "created_at": "2025-07-21T22:41:12.712-04:00"}], "coding_time_seconds": 61371, "coding_time_seconds_today": 0, "balance": "You need to have a pocket watcher badge to view this.", "badges": [], "created_at": "2025-07-21T21:52:59.478-04:00", "updated_at": "2025-07-22T07:45:27.581-04:00", "avatar": "https://secure.gravatar.com/avatar/b6f4f0892a161869bd6b9fa64b91f5c3.jpg?s=512&d=https%3A%2F%2Fa.slack-edge.com%2Fdf10d%2Fimg%2Favatars%2Fava_0011-512.png", "custom_css": null}, {"id": 17109, "slack_id": "U096PEZD8LB", "display_name": "Krunal Dhapodkar", "bio": null, "projects_count": 0, "devlogs_count": 0, "votes_count": 0, "ships_count": 0, "projects": [], "coding_time_seconds": 21501, "coding_time_seconds_today": 0, "balance": "You need to have a pocket watcher badge to view this.", "badges": [], "created_at": "2025-07-21T21:54:15.801-04:00", "updated_at": "2025-07-22T20:45:27.843-04:00", "avatar": "https://secure.gravatar.com/avatar/c3929cf7fa834aadc3bd6183832ec744.jpg?s=512&d=https%3A%2F%2Fa.slack-edge.com%2Fdf10d%2Fimg%2Favatars%2Fava_0007-512.png", "custom_css": null}, {"id": 17110, "slack_id": "U096RLNLA5C", "display_name": "Waqar", "bio": null, "projects_count": 0, "devlogs_count": 0, "votes_count": 0, "ships_count": 0, "projects": [], "coding_time_seconds": 0, "coding_time_seconds_today": 0, "balance": "You need to have a pocket watcher badge to view this.", "badges": [], "created_at": "2025-07-21T21:55:03.401-04:00", "updated_at": "2025-07-22T03:32:48.720-04:00", "avatar": "https://secure.gravatar.com/avatar/bb730d15184517830cd2336b45de99e7.jpg?s=512&d=https%3A%2F%2Fa.slack-edge.com%2Fdf10d%2Fimg%2Favatars%2Fava_0008-512.png", "custom_css": null}, {"id": 17111, "slack_id": "U096E29Q9AT", "display_name": "Le Ngo Duc Anh", "bio": null, "projects_count": 0, "devlogs_count": 0, "votes_count": 0, "ships_count": 0, "projects": [], "coding_time_seconds": 457664, "coding_time_seconds_today": 240, "balance": "You need to have a pocket watcher badge to view this.", "badges": [], "created_at": "2025-07-21T21:55:41.310-04:00", "updated_at": "2025-07-22T03:32:48.799-04:00", "avatar": "https://secure.gravatar.com/avatar/802e31c8316b21732b17843b9eb150ec.jpg?s=512&d=https%3A%2F%2Fa.slack-edge.com%2Fdf10d%2Fimg%2Favatars%2Fava_0004-512.png", "custom_css": null}, {"id": 17112, "slack_id": "U096UQHRCM8", "display_name": "\u6751\u4e0a\u6b63\u609f", "bio": "django, p5js, nodejs", "projects_count": 4, "devlogs_count": 5, "votes_count": 6, "ships_count": 1, "projects": [{"id": 11303, "title": "CSMonitor", "devlogs_count": 1, "created_at": "2025-08-14T19:48:05.934-04:00"}, {"id": 11305, "title": "art-p5js", "devlogs_count": 2, "created_at": "2025-08-14T19:56:32.408-04:00"}, {"id": 11307, "title": "Atcoder", "devlogs_count": 1, "created_at": "2025-08-14T20:13:10.771-04:00"}, {"id": 11360, "title": "portfolio-katume-engineering", "devlogs_count": 1, "created_at": "2025-08-15T08:09:57.506-04:00"}], "coding_time_seconds": 123306, "coding_time_seconds_today": 0, "balance": "You need to have a pocket watcher badge to view this.", "badges": [], "created_at": "2025-07-21T21:55:43.826-04:00", "updated_at": "2025-08-15T03:30:04.701-04:00", "avatar": "https://secure.gravatar.com/avatar/36b21f9379db6f17ebc1db2d3289e709.jpg?s=512&d=https%3A%2F%2Fa.slack-edge.com%2Fdf10d%2Fimg%2Favatars%2Fava_0018-512.png", "custom_css": null}, {"id": 17113, "slack_id": "U096W14KXFW", "display_name": "Abhiyan", "bio": null, "projects_count": 0, "devlogs_count": 0, "votes_count": 0, "ships_count": 0, "projects": [], "coding_time_seconds": 14260, "coding_time_seconds_today": 0, "balance": "You need to have a pocket watcher badge to view this.", "badges": [], "created_at": "2025-07-21T21:56:14.827-04:00", "updated_at": "2025-07-22T09:36:20.363-04:00", "avatar": "https://secure.gravatar.com/avatar/42144e3ecea2292640209931338086c7.jpg?s=512&d=https%3A%2F%2Fa.slack-edge.com%2Fdf10d%2Fimg%2Favatars%2Fava_0002-512.png", "custom_css": null}, {"id": 17114, "slack_id": "U096W1JMFHA", "display_name": "dev_cat", "bio": null, "projects_count": 0, "devlogs_count": 0, "votes_count": 0, "ships_count": 0, "projects": [], "coding_time_seconds": 45923, "coding_time_seconds_today": 0, "balance": "You need to have a pocket watcher badge to view this.", "badges": [], "created_at": "2025-07-21T21:56:26.149-04:00", "updated_at": "2025-07-22T03:32:49.056-04:00", "avatar": "https://secure.gravatar.com/avatar/d304cf88f66c69d59ec017b2e96cad2d.jpg?s=512&d=https%3A%2F%2Fa.slack-edge.com%2Fdf10d%2Fimg%2Favatars%2Fava_0021-512.png", "custom_css": null}, {"id": 17115, "slack_id": "U09780N64P3", "display_name": "prem", "bio": null, "projects_count": 0, "devlogs_count": 0, "votes_count": 0, "ships_count": 0, "projects": [], "coding_time_seconds": 44586, "coding_time_seconds_today": 0, "balance": "You need to have a pocket watcher badge to view this.", "badges": [], "created_at": "2025-07-21T21:58:23.734-04:00", "updated_at": "2025-07-22T03:32:49.146-04:00", "avatar": "https://secure.gravatar.com/avatar/fce1afd5d82f821a9fa9033142e8d5a8.jpg?s=512&d=https%3A%2F%2Fa.slack-edge.com%2Fdf10d%2Fimg%2Favatars%2Fava_0021-512.png", "custom_css": null}, {"id": 17116, "slack_id": "U096W1PQZD2", "display_name": "EnchLolz", "bio": null, "projects_count": 0, "devlogs_count": 0, "votes_count": 0, "ships_count": 0, "projects": [], "coding_time_seconds": 0, "coding_time_seconds_today": 0, "balance": "You need to have a pocket watcher badge to view this.", "badges": [], "created_at": "2025-07-21T21:58:38.393-04:00", "updated_at": "2025-07-22T03:32:49.237-04:00", "avatar": "https://secure.gravatar.com/avatar/fc0dea39faa9259ccb1c023d65b2c22d.jpg?s=512&d=https%3A%2F%2Fa.slack-edge.com%2Fdf10d%2Fimg%2Favatars%2Fava_0024-512.png", "custom_css": null}, {"id": 17117, "slack_id": "U096PFGLSE7", "display_name": "lishidis", "bio": null, "projects_count": 0, "devlogs_count": 0, "votes_count": 0, "ships_count": 0, "projects": [], "coding_time_seconds": 0, "coding_time_seconds_today": 0, "balance": "You need to have a pocket watcher badge to view this.", "badges": [], "created_at": "2025-07-21T21:59:08.513-04:00", "updated_at": "2025-07-22T03:32:53.356-04:00", "avatar": "https://secure.gravatar.com/avatar/587ea7086e228a6daf95ad2015d62d65.jpg?s=512&d=https%3A%2F%2Fa.slack-edge.com%2Fdf10d%2Fimg%2Favatars%2Fava_0001-512.png", "custom_css": null}, {"id": 17118, "slack_id": "U096SRVMGTF", "display_name": "Imaad Siddiqui", "bio": null, "projects_count": 0, "devlogs_count": 0, "votes_count": 0, "ships_count": 0, "projects": [], "coding_time_seconds": 0, "coding_time_seconds_today": 0, "balance": "You need to have a pocket watcher badge to view this.", "badges": [], "created_at": "2025-07-21T21:59:51.104-04:00", "updated_at": "2025-07-22T03:32:53.463-04:00", "avatar": "https://secure.gravatar.com/avatar/c6c17409b4fa2d8a0b84a5bc36991568.jpg?s=512&d=https%3A%2F%2Fa.slack-edge.com%2Fdf10d%2Fimg%2Favatars%2Fava_0016-512.png", "custom_css": null}, {"id": 17119, "slack_id": "U096W1TTAKE", "display_name": "Rishabh", "bio": null, "projects_count": 0, "devlogs_count": 0, "votes_count": 0, "ships_count": 0, "projects": [], "coding_time_seconds": 0, "coding_time_seconds_today": 0, "balance": "You need to have a pocket watcher badge to view this.", "badges": [], "created_at": "2025-07-21T22:01:20.351-04:00", "updated_at": "2025-07-22T03:32:53.586-04:00", "avatar": "https://secure.gravatar.com/avatar/cda15a2e4fce53d4497e9bc8659d30b9.jpg?s=512&d=https%3A%2F%2Fa.slack-edge.com%2Fdf10d%2Fimg%2Favatars%2Fava_0022-512.png", "custom_css": null}, {"id": 17120, "slack_id": "U096URAQD2N", "display_name": "yosha", "bio": "hello", "projects_count": 0, "devlogs_count": 0, "votes_count": 0, "ships_count": 0, "projects": [], "coding_time_seconds": 0, "coding_time_seconds_today": 0, "balance": "You need to have a pocket watcher badge to view this.", "badges": [], "created_at": "2025-07-21T22:04:30.186-04:00", "updated_at": "2025-07-22T03:32:53.682-04:00", "avatar": "https://secure.gravatar.com/avatar/3ed188502edc7e0ce2a6aa6080545b12.jpg?s=512&d=https%3A%2F%2Fa.slack-edge.com%2Fdf10d%2Fimg%2Favatars%2Fava_0001-512.png", "custom_css": null}, {"id": 17121, "slack_id": "U096W2B186Q", "display_name": "Aidan Baker", "bio": null, "projects_count": 0, "devlogs_count": 0, "votes_count": 0, "ships_count": 0, "projects": [], "coding_time_seconds": 0, "coding_time_seconds_today": 0, "balance": "You need to have a pocket watcher badge to view this.", "badges": [], "created_at": "2025-07-21T22:04:54.938-04:00", "updated_at": "2025-07-22T17:59:40.655-04:00", "avatar": "https://secure.gravatar.com/avatar/8582d4e09b50a2c4b37883e9da44f325.jpg?s=512&d=https%3A%2F%2Fa.slack-edge.com%2Fdf10d%2Fimg%2Favatars%2Fava_0000-512.png", "custom_css": null}, {"id": 17122, "slack_id": "U09781DDP9P", "display_name": "Ayush Raj", "bio": null, "projects_count": 0, "devlogs_count": 0, "votes_count": 0, "ships_count": 0, "projects": [], "coding_time_seconds": 0, "coding_time_seconds_today": 0, "balance": "You need to have a pocket watcher badge to view this.", "badges": [], "created_at": "2025-07-21T22:05:29.659-04:00", "updated_at": "2025-07-22T03:32:53.856-04:00", "avatar": "https://secure.gravatar.com/avatar/4363891d9181265d6fa03c9ef5cc5cee.jpg?s=512&d=https%3A%2F%2Fa.slack-edge.com%2Fdf10d%2Fimg%2Favatars%2Fava_0011-512.png", "custom_css": null}, {"id": 17123, "slack_id": "U096RMRG03G", "display_name": "CC", "bio": "", "projects_count": 11, "devlogs_count": 36, "votes_count": 164, "ships_count": 9, "projects": [{"id": 10735, "title": "Scream -- Just steam but different", "devlogs_count": 3, "created_at": "2025-08-10T07:51:18.158-04:00"}, {"id": 13700, "title": "Snake and Ladders", "devlogs_count": 1, "created_at": "2025-09-23T07:27:26.649-04:00"}, {"id": 11769, "title": "Mind Desk", "devlogs_count": 20, "created_at": "2025-08-19T11:16:11.530-04:00"}, {"id": 12645, "title": "Color Burst", "devlogs_count": 1, "created_at": "2025-08-31T00:48:56.851-04:00"}, {"id": 8282, "title": "Password Generator", "devlogs_count": 1, "created_at": "2025-07-26T00:14:45.845-04:00"}, {"id": 8061, "title": "Word Search game generator", "devlogs_count": 2, "created_at": "2025-07-24T10:54:46.225-04:00"}, {"id": 9730, "title": "Quizzes- A website", "devlogs_count": 1, "created_at": "2025-08-02T05:52:31.753-04:00"}, {"id": 10351, "title": "Space Invaders", "devlogs_count": 1, "created_at": "2025-08-06T07:11:56.276-04:00"}, {"id": 11338, "title": "Crate Chaos", "devlogs_count": 1, "created_at": "2025-08-15T02:04:48.904-04:00"}, {"id": 7821, "title": "Autofill form easily", "devlogs_count": 2, "created_at": "2025-07-23T06:48:33.764-04:00"}, {"id": 11563, "title": "Tetris!!", "devlogs_count": 1, "created_at": "2025-08-17T05:33:22.137-04:00"}], "coding_time_seconds": 340065, "coding_time_seconds_today": 4264, "balance": "You need to have a pocket watcher badge to view this.", "badges": [], "created_at": "2025-07-21T22:05:42.634-04:00", "updated_at": "2025-08-20T22:03:06.852-04:00", "avatar": "https://avatars.slack-edge.com/2025-08-09/9354852686976_d113876869f82ca9ca80_original.png", "custom_css": null}, {"id": 17124, "slack_id": "U096PGC9VTM", "display_name": "chetan", "bio": null, "projects_count": 0, "devlogs_count": 0, "votes_count": 0, "ships_count": 0, "projects": [], "coding_time_seconds": 0, "coding_time_seconds_today": 0, "balance": "You need to have a pocket watcher badge to view this.", "badges": [], "created_at": "2025-07-21T22:08:02.627-04:00", "updated_at": "2025-07-22T03:32:54.044-04:00", "avatar": "https://secure.gravatar.com/avatar/766c4aaddebc5e05e5f215341a55ec92.jpg?s=512&d=https%3A%2F%2Fa.slack-edge.com%2Fdf10d%2Fimg%2Favatars%2Fava_0005-512.png", "custom_css": null}, {"id": 17125, "slack_id": "U09781PB8JV", "display_name": "Nandini", "bio": null, "projects_count": 0, "devlogs_count": 0, "votes_count": 0, "ships_count": 0, "projects": [], "coding_time_seconds": 57244, "coding_time_seconds_today": 0, "balance": "You need to have a pocket watcher badge to view this.", "badges": [], "created_at": "2025-07-21T22:08:16.791-04:00", "updated_at": "2025-07-24T10:25:33.143-04:00", "avatar": "https://avatars.slack-edge.com/2025-07-24/9242714697171_2f954c3f30a5d44632b3_original.jpg", "custom_css": null}], "pagination": {"page": 852, "pages": 1192, "count": 23828, "items": 20}}