{"users": [{"id": 17126, "slack_id": "U097H8PUXAL", "display_name": "Manas bhatt", "bio": null, "projects_count": 0, "devlogs_count": 0, "votes_count": 0, "ships_count": 0, "projects": [], "coding_time_seconds": 0, "coding_time_seconds_today": 0, "balance": "You need to have a pocket watcher badge to view this.", "badges": [], "created_at": "2025-07-21T22:08:22.786-04:00", "updated_at": "2025-07-22T03:32:54.221-04:00", "avatar": "https://secure.gravatar.com/avatar/1a8d86f22ec581a52f83103b98a3c533.jpg?s=512&d=https%3A%2F%2Fa.slack-edge.com%2Fdf10d%2Fimg%2Favatars%2Fava_0020-512.png", "custom_css": null}, {"id": 17127, "slack_id": "U096PGD8P8T", "display_name": "Nisal", "bio": null, "projects_count": 0, "devlogs_count": 0, "votes_count": 0, "ships_count": 0, "projects": [], "coding_time_seconds": 0, "coding_time_seconds_today": 0, "balance": "You need to have a pocket watcher badge to view this.", "badges": [], "created_at": "2025-07-21T22:09:13.330-04:00", "updated_at": "2025-07-22T03:32:54.316-04:00", "avatar": "https://secure.gravatar.com/avatar/b555d56d46f2df7f8f9825a5a77de92a.jpg?s=512&d=https%3A%2F%2Fa.slack-edge.com%2Fdf10d%2Fimg%2Favatars%2Fava_0000-512.png", "custom_css": null}, {"id": 17128, "slack_id": "U096W2R38SG", "display_name": "Salma", "bio": null, "projects_count": 0, "devlogs_count": 0, "votes_count": 0, "ships_count": 0, "projects": [], "coding_time_seconds": 17010, "coding_time_seconds_today": 0, "balance": "You need to have a pocket watcher badge to view this.", "badges": [], "created_at": "2025-07-21T22:09:19.512-04:00", "updated_at": "2025-07-22T03:32:54.420-04:00", "avatar": "https://secure.gravatar.com/avatar/7a8288448653c5c9f46eef0c3eb7a9df.jpg?s=512&d=https%3A%2F%2Fa.slack-edge.com%2Fdf10d%2Fimg%2Favatars%2Fava_0011-512.png", "custom_css": null}, {"id": 17129, "slack_id": "U096RMX3GCE", "display_name": "Johndel Torrizo", "bio": null, "projects_count": 0, "devlogs_count": 0, "votes_count": 0, "ships_count": 0, "projects": [], "coding_time_seconds": 0, "coding_time_seconds_today": 0, "balance": "You need to have a pocket watcher badge to view this.", "badges": [], "created_at": "2025-07-21T22:09:49.710-04:00", "updated_at": "2025-07-22T03:32:54.506-04:00", "avatar": "https://avatars.slack-edge.com/2025-07-21/9229772197142_f4257d4428ed0843de36_original.jpg", "custom_css": null}, {"id": 17130, "slack_id": "U096W2WEYS0", "display_name": "Kavitha K", "bio": null, "projects_count": 0, "devlogs_count": 0, "votes_count": 0, "ships_count": 0, "projects": [], "coding_time_seconds": 0, "coding_time_seconds_today": 0, "balance": "You need to have a pocket watcher badge to view this.", "badges": [], "created_at": "2025-07-21T22:10:18.118-04:00", "updated_at": "2025-07-22T03:32:54.594-04:00", "avatar": "https://secure.gravatar.com/avatar/83ead217f05de057ea22d101a2b991f0.jpg?s=512&d=https%3A%2F%2Fa.slack-edge.com%2Fdf10d%2Fimg%2Favatars%2Fava_0015-512.png", "custom_css": null}, {"id": 17131, "slack_id": "U096RLCPEQ6", "display_name": "T S", "bio": null, "projects_count": 1, "devlogs_count": 0, "votes_count": 1, "ships_count": 0, "projects": [{"id": 7973, "title": "Dead Disaster", "devlogs_count": 0, "created_at": "2025-07-23T22:12:40.463-04:00"}], "coding_time_seconds": 14933, "coding_time_seconds_today": 0, "balance": "You need to have a pocket watcher badge to view this.", "badges": [], "created_at": "2025-07-21T22:10:28.993-04:00", "updated_at": "2025-07-24T13:46:52.058-04:00", "avatar": "https://avatars.slack-edge.com/2025-07-21/9246076875233_40dd0e00836f4d961ccb_original.png", "custom_css": null}, {"id": 17132, "slack_id": "U096SSYRJGM", "display_name": "Jeanette H.", "bio": null, "projects_count": 0, "devlogs_count": 0, "votes_count": 0, "ships_count": 0, "projects": [], "coding_time_seconds": 0, "coding_time_seconds_today": 0, "balance": "You need to have a pocket watcher badge to view this.", "badges": [], "created_at": "2025-07-21T22:12:00.795-04:00", "updated_at": "2025-07-22T03:32:54.764-04:00", "avatar": "https://secure.gravatar.com/avatar/804ba8d2a2df5dcee91e605951023310.jpg?s=512&d=https%3A%2F%2Fa.slack-edge.com%2Fdf10d%2Fimg%2Favatars%2Fava_0002-512.png", "custom_css": null}, {"id": 17133, "slack_id": "U096USA6D3L", "display_name": "Rajneesh Kumar Chaurasia", "bio": null, "projects_count": 0, "devlogs_count": 0, "votes_count": 0, "ships_count": 0, "projects": [], "coding_time_seconds": 240, "coding_time_seconds_today": 0, "balance": "You need to have a pocket watcher badge to view this.", "badges": [], "created_at": "2025-07-21T22:12:45.075-04:00", "updated_at": "2025-07-22T03:32:54.844-04:00", "avatar": "https://secure.gravatar.com/avatar/0ac77a4a97919df05a1a86916b7dcc71.jpg?s=512&d=https%3A%2F%2Fa.slack-edge.com%2Fdf10d%2Fimg%2Favatars%2Fava_0015-512.png", "custom_css": null}, {"id": 17134, "slack_id": "U096W37GPHS", "display_name": "David Toscano", "bio": null, "projects_count": 0, "devlogs_count": 0, "votes_count": 0, "ships_count": 0, "projects": [], "coding_time_seconds": 90497, "coding_time_seconds_today": 0, "balance": "You need to have a pocket watcher badge to view this.", "badges": [], "created_at": "2025-07-21T22:13:06.974-04:00", "updated_at": "2025-07-22T06:54:57.524-04:00", "avatar": "https://secure.gravatar.com/avatar/42ecc12d2a1324022949a68169b89cab.jpg?s=512&d=https%3A%2F%2Fa.slack-edge.com%2Fdf10d%2Fimg%2Favatars%2Fava_0010-512.png", "custom_css": null}, {"id": 17135, "slack_id": "U096E3UFZ1D", "display_name": "Sandeep", "bio": null, "projects_count": 0, "devlogs_count": 0, "votes_count": 0, "ships_count": 0, "projects": [], "coding_time_seconds": 0, "coding_time_seconds_today": 0, "balance": "You need to have a pocket watcher badge to view this.", "badges": [], "created_at": "2025-07-21T22:13:09.653-04:00", "updated_at": "2025-07-22T03:32:59.105-04:00", "avatar": "https://secure.gravatar.com/avatar/40047c73df261b11d5a8203a4149c3be.jpg?s=512&d=https%3A%2F%2Fa.slack-edge.com%2Fdf10d%2Fimg%2Favatars%2Fava_0023-512.png", "custom_css": null}, {"id": 17136, "slack_id": "U096ST4782H", "display_name": "Shubham Kashyap", "bio": null, "projects_count": 0, "devlogs_count": 0, "votes_count": 0, "ships_count": 0, "projects": [], "coding_time_seconds": 0, "coding_time_seconds_today": 0, "balance": "You need to have a pocket watcher badge to view this.", "badges": [], "created_at": "2025-07-21T22:13:14.790-04:00", "updated_at": "2025-07-22T03:32:59.189-04:00", "avatar": "https://avatars.slack-edge.com/2025-07-21/9229782343990_7d3b20f35dc2eac6d79a_original.png", "custom_css": null}, {"id": 17137, "slack_id": "U096W35TVGC", "display_name": "Inchara s", "bio": null, "projects_count": 0, "devlogs_count": 0, "votes_count": 0, "ships_count": 0, "projects": [], "coding_time_seconds": 0, "coding_time_seconds_today": 0, "balance": "You need to have a pocket watcher badge to view this.", "badges": [], "created_at": "2025-07-21T22:13:26.725-04:00", "updated_at": "2025-07-22T03:32:59.273-04:00", "avatar": "https://secure.gravatar.com/avatar/22b475521e42e0d554110823fb876f92.jpg?s=512&d=https%3A%2F%2Fa.slack-edge.com%2Fdf10d%2Fimg%2Favatars%2Fava_0018-512.png", "custom_css": null}, {"id": 17138, "slack_id": "U097821U1HP", "display_name": "aflah", "bio": null, "projects_count": 0, "devlogs_count": 0, "votes_count": 0, "ships_count": 0, "projects": [], "coding_time_seconds": 128358, "coding_time_seconds_today": 0, "balance": "You need to have a pocket watcher badge to view this.", "badges": [], "created_at": "2025-07-21T22:13:58.208-04:00", "updated_at": "2025-07-22T03:32:59.353-04:00", "avatar": "https://secure.gravatar.com/avatar/ddf4501e6db4be1c8c4410a36e4b2bed.jpg?s=512&d=https%3A%2F%2Fa.slack-edge.com%2Fdf10d%2Fimg%2Favatars%2Fava_0015-512.png", "custom_css": null}, {"id": 17139, "slack_id": "U096RNYNJLW", "display_name": "Mayank Sharma", "bio": null, "projects_count": 2, "devlogs_count": 0, "votes_count": 0, "ships_count": 0, "projects": [{"id": 12419, "title": "Project 1", "devlogs_count": 0, "created_at": "2025-08-27T07:44:30.417-04:00"}, {"id": 12420, "title": "Project 2", "devlogs_count": 0, "created_at": "2025-08-27T07:45:23.278-04:00"}], "coding_time_seconds": 248693, "coding_time_seconds_today": 0, "balance": "You need to have a pocket watcher badge to view this.", "badges": [], "created_at": "2025-07-21T22:16:20.979-04:00", "updated_at": "2025-08-27T07:47:07.249-04:00", "avatar": "https://secure.gravatar.com/avatar/0b9b476a22b4e1d130c51ddf214f4bc6.jpg?s=512&d=https%3A%2F%2Fa.slack-edge.com%2Fdf10d%2Fimg%2Favatars%2Fava_0018-512.png", "custom_css": null}, {"id": 17140, "slack_id": "U097H9H7BKJ", "display_name": "Luke", "bio": null, "projects_count": 0, "devlogs_count": 0, "votes_count": 0, "ships_count": 0, "projects": [], "coding_time_seconds": 19348, "coding_time_seconds_today": 0, "balance": "You need to have a pocket watcher badge to view this.", "badges": [], "created_at": "2025-07-21T22:16:25.055-04:00", "updated_at": "2025-08-03T08:45:33.719-04:00", "avatar": "https://secure.gravatar.com/avatar/8c6deeb45cf15456050c4cab7ba6711f.jpg?s=512&d=https%3A%2F%2Fa.slack-edge.com%2Fdf10d%2Fimg%2Favatars%2Fava_0022-512.png", "custom_css": null}, {"id": 17141, "slack_id": "U09782LMFLH", "display_name": "Sahaj Gupta", "bio": null, "projects_count": 2, "devlogs_count": 1, "votes_count": 2, "ships_count": 2, "projects": [{"id": 7558, "title": "notes app", "devlogs_count": 0, "created_at": "2025-07-22T05:32:31.430-04:00"}, {"id": 7568, "title": "Real-time Air Quality Monitor", "devlogs_count": 1, "created_at": "2025-07-22T06:43:19.708-04:00"}], "coding_time_seconds": 155583, "coding_time_seconds_today": 0, "balance": "You need to have a pocket watcher badge to view this.", "badges": [], "created_at": "2025-07-21T22:17:58.559-04:00", "updated_at": "2025-07-22T05:34:28.187-04:00", "avatar": "https://secure.gravatar.com/avatar/5e8fbdd4d0034a40fd0acf4480dcc033.jpg?s=512&d=https%3A%2F%2Fa.slack-edge.com%2Fdf10d%2Fimg%2Favatars%2Fava_0022-512.png", "custom_css": null}, {"id": 17142, "slack_id": "U096E4CL139", "display_name": "Kottali Rohan Karthik 22197766101", "bio": null, "projects_count": 0, "devlogs_count": 0, "votes_count": 0, "ships_count": 0, "projects": [], "coding_time_seconds": 0, "coding_time_seconds_today": 0, "balance": "You need to have a pocket watcher badge to view this.", "badges": [], "created_at": "2025-07-21T22:18:13.092-04:00", "updated_at": "2025-07-22T03:32:59.687-04:00", "avatar": "https://avatars.slack-edge.com/2025-07-21/9229799395398_4938b9a15b328ef0a8e9_original.png", "custom_css": null}, {"id": 17143, "slack_id": "U097H9M3P4Y", "display_name": "Harsh", "bio": null, "projects_count": 0, "devlogs_count": 0, "votes_count": 0, "ships_count": 0, "projects": [], "coding_time_seconds": 0, "coding_time_seconds_today": 0, "balance": "You need to have a pocket watcher badge to view this.", "badges": [], "created_at": "2025-07-21T22:19:16.404-04:00", "updated_at": "2025-07-22T03:32:59.778-04:00", "avatar": "https://secure.gravatar.com/avatar/d35d5f2c5b90a55fe06cc05b8ee00f56.jpg?s=512&d=https%3A%2F%2Fa.slack-edge.com%2Fdf10d%2Fimg%2Favatars%2Fava_0023-512.png", "custom_css": null}, {"id": 17144, "slack_id": "U09782UC8L9", "display_name": "Hariom kumar", "bio": null, "projects_count": 4, "devlogs_count": 12, "votes_count": 37, "ships_count": 3, "projects": [{"id": 12059, "title": "Tomato.", "devlogs_count": 4, "created_at": "2025-08-22T13:26:44.532-04:00"}, {"id": 12386, "title": "Weather-Mania", "devlogs_count": 1, "created_at": "2025-08-26T14:37:12.833-04:00"}, {"id": 12592, "title": "FoodFile_Tomato", "devlogs_count": 5, "created_at": "2025-08-30T08:16:34.571-04:00"}, {"id": 12972, "title": "Treat.", "devlogs_count": 2, "created_at": "2025-09-06T12:09:57.148-04:00"}], "coding_time_seconds": 232595, "coding_time_seconds_today": 0, "balance": "You need to have a pocket watcher badge to view this.", "badges": [], "created_at": "2025-07-21T22:21:22.535-04:00", "updated_at": "2025-08-22T13:51:23.410-04:00", "avatar": "https://secure.gravatar.com/avatar/b729e3afc6f2df9687610284c9f6ba3b.jpg?s=512&d=https%3A%2F%2Fa.slack-edge.com%2Fdf10d%2Fimg%2Favatars%2Fava_0025-512.png", "custom_css": null}, {"id": 17145, "slack_id": "U096W40A4LC", "display_name": "vikashG", "bio": null, "projects_count": 0, "devlogs_count": 25, "votes_count": 305, "ships_count": 0, "projects": [], "coding_time_seconds": 149764, "coding_time_seconds_today": 0, "balance": "You need to have a pocket watcher badge to view this.", "badges": [], "created_at": "2025-07-21T22:21:38.306-04:00", "updated_at": "2025-08-24T09:01:48.082-04:00", "avatar": "https://avatars.slack-edge.com/2025-07-22/9255348668720_27836bac7d5d846f5284_original.jpg", "custom_css": null}], "pagination": {"page": 853, "pages": 1192, "count": 23828, "items": 20}}