{"users": [{"id": 17146, "slack_id": "U096UT67QKU", "display_name": "Arpit Khandelwal", "bio": null, "projects_count": 0, "devlogs_count": 0, "votes_count": 0, "ships_count": 0, "projects": [], "coding_time_seconds": 0, "coding_time_seconds_today": 0, "balance": "You need to have a pocket watcher badge to view this.", "badges": [], "created_at": "2025-07-21T22:22:00.898-04:00", "updated_at": "2025-07-22T03:33:00.033-04:00", "avatar": "https://secure.gravatar.com/avatar/0d3b380114304d9e5389ffd57624a29a.jpg?s=512&d=https%3A%2F%2Fa.slack-edge.com%2Fdf10d%2Fimg%2Favatars%2Fava_0018-512.png", "custom_css": null}, {"id": 17147, "slack_id": "U09782YDBQR", "display_name": "IMCYS", "bio": null, "projects_count": 0, "devlogs_count": 0, "votes_count": 0, "ships_count": 0, "projects": [], "coding_time_seconds": 0, "coding_time_seconds_today": 0, "balance": "You need to have a pocket watcher badge to view this.", "badges": [], "created_at": "2025-07-21T22:22:20.717-04:00", "updated_at": "2025-07-22T03:33:00.114-04:00", "avatar": "https://secure.gravatar.com/avatar/cc3dd8f9b9f72a0f5510dae5ff6f7bdd.jpg?s=512&d=https%3A%2F%2Fa.slack-edge.com%2Fdf10d%2Fimg%2Favatars%2Fava_0025-512.png", "custom_css": null}, {"id": 17148, "slack_id": "U096RPS4222", "display_name": "NULL", "bio": null, "projects_count": 1, "devlogs_count": 0, "votes_count": 0, "ships_count": 0, "projects": [{"id": 7474, "title": "The interval optimization", "devlogs_count": 0, "created_at": "2025-07-21T22:57:57.132-04:00"}], "coding_time_seconds": 2667, "coding_time_seconds_today": 0, "balance": "You need to have a pocket watcher badge to view this.", "badges": [], "created_at": "2025-07-21T22:25:05.344-04:00", "updated_at": "2025-07-22T06:48:22.087-04:00", "avatar": "https://secure.gravatar.com/avatar/732523626f02d3d51edfc979a9f908bf.jpg?s=512&d=https%3A%2F%2Fa.slack-edge.com%2Fdf10d%2Fimg%2Favatars%2Fava_0019-512.png", "custom_css": null}, {"id": 17149, "slack_id": "U096SU4KYLV", "display_name": "jeneesha priyadarshani", "bio": null, "projects_count": 0, "devlogs_count": 0, "votes_count": 0, "ships_count": 0, "projects": [], "coding_time_seconds": 0, "coding_time_seconds_today": 0, "balance": "You need to have a pocket watcher badge to view this.", "badges": [], "created_at": "2025-07-21T22:25:29.617-04:00", "updated_at": "2025-07-22T03:33:04.364-04:00", "avatar": "https://avatars.slack-edge.com/2025-07-21/9229820283126_ee6cf86bb92475bf2afb_original.jpg", "custom_css": null}, {"id": 17150, "slack_id": "U096W498FCL", "display_name": "wurt", "bio": null, "projects_count": 0, "devlogs_count": 0, "votes_count": 0, "ships_count": 0, "projects": [], "coding_time_seconds": 1604, "coding_time_seconds_today": 0, "balance": "You need to have a pocket watcher badge to view this.", "badges": [], "created_at": "2025-07-21T22:26:29.380-04:00", "updated_at": "2025-07-22T03:33:04.456-04:00", "avatar": "https://secure.gravatar.com/avatar/6cf8382b8dbd3da2030cdf4eb1f08a6b.jpg?s=512&d=https%3A%2F%2Fa.slack-edge.com%2Fdf10d%2Fimg%2Favatars%2Fava_0013-512.png", "custom_css": null}, {"id": 17151, "slack_id": "U096SU96ETX", "display_name": "Vinamra Yadav", "bio": null, "projects_count": 0, "devlogs_count": 0, "votes_count": 0, "ships_count": 0, "projects": [], "coding_time_seconds": 0, "coding_time_seconds_today": 0, "balance": "You need to have a pocket watcher badge to view this.", "badges": [], "created_at": "2025-07-21T22:27:45.470-04:00", "updated_at": "2025-07-22T03:33:04.548-04:00", "avatar": "https://avatars.slack-edge.com/2025-07-21/9232950205138_1241a1c53c4870ba49bf_original.jpg", "custom_css": null}, {"id": 17152, "slack_id": "U0925Q88AD7", "display_name": "Abhishek", "bio": null, "projects_count": 0, "devlogs_count": 0, "votes_count": 0, "ships_count": 0, "projects": [], "coding_time_seconds": 0, "coding_time_seconds_today": 0, "balance": "You need to have a pocket watcher badge to view this.", "badges": [], "created_at": "2025-07-21T22:29:16.762-04:00", "updated_at": "2025-07-22T03:33:04.626-04:00", "avatar": "https://secure.gravatar.com/avatar/95f26f92387621f33eaf49e046d2d731.jpg?s=512&d=https%3A%2F%2Fa.slack-edge.com%2Fdf10d%2Fimg%2Favatars%2Fava_0002-512.png", "custom_css": null}, {"id": 17153, "slack_id": "U096E5E0U15", "display_name": "Yufan Xia", "bio": null, "projects_count": 0, "devlogs_count": 0, "votes_count": 0, "ships_count": 0, "projects": [], "coding_time_seconds": 0, "coding_time_seconds_today": 0, "balance": "You need to have a pocket watcher badge to view this.", "badges": [], "created_at": "2025-07-21T22:29:50.679-04:00", "updated_at": "2025-07-22T03:33:04.705-04:00", "avatar": "https://secure.gravatar.com/avatar/3251806a6773f9de077ba4a9f9f2897e.jpg?s=512&d=https%3A%2F%2Fa.slack-edge.com%2Fdf10d%2Fimg%2Favatars%2Fava_0013-512.png", "custom_css": null}, {"id": 17154, "slack_id": "U096PJ5RCV9", "display_name": "Jeet", "bio": null, "projects_count": 0, "devlogs_count": 0, "votes_count": 0, "ships_count": 0, "projects": [], "coding_time_seconds": 0, "coding_time_seconds_today": 0, "balance": "You need to have a pocket watcher badge to view this.", "badges": [], "created_at": "2025-07-21T22:29:57.177-04:00", "updated_at": "2025-07-23T02:26:28.242-04:00", "avatar": "https://secure.gravatar.com/avatar/7d671bd08ee59350e99452b22add3ea8.jpg?s=512&d=https%3A%2F%2Fa.slack-edge.com%2Fdf10d%2Fimg%2Favatars%2Fava_0021-512.png", "custom_css": null}, {"id": 17155, "slack_id": "U09783G66RX", "display_name": "Cooper Zuideveld", "bio": null, "projects_count": 0, "devlogs_count": 0, "votes_count": 0, "ships_count": 0, "projects": [], "coding_time_seconds": 0, "coding_time_seconds_today": 0, "balance": "You need to have a pocket watcher badge to view this.", "badges": [], "created_at": "2025-07-21T22:30:03.707-04:00", "updated_at": "2025-07-22T03:33:04.889-04:00", "avatar": "https://secure.gravatar.com/avatar/4259a28d9b1465728c586bef3734ba39.jpg?s=512&d=https%3A%2F%2Fa.slack-edge.com%2Fdf10d%2Fimg%2Favatars%2Fava_0011-512.png", "custom_css": null}, {"id": 17156, "slack_id": "U096PJ94WHH", "display_name": "Eduardo", "bio": null, "projects_count": 0, "devlogs_count": 0, "votes_count": 0, "ships_count": 0, "projects": [], "coding_time_seconds": 0, "coding_time_seconds_today": 0, "balance": "You need to have a pocket watcher badge to view this.", "badges": [], "created_at": "2025-07-21T22:30:05.535-04:00", "updated_at": "2025-07-22T03:33:04.975-04:00", "avatar": "https://secure.gravatar.com/avatar/39effa7d0c18b0c669a961bdab3fc41a.jpg?s=512&d=https%3A%2F%2Fa.slack-edge.com%2Fdf10d%2Fimg%2Favatars%2Fava_0005-512.png", "custom_css": null}, {"id": 17157, "slack_id": "U096SUQ057X", "display_name": "Rio Pan", "bio": null, "projects_count": 0, "devlogs_count": 0, "votes_count": 0, "ships_count": 0, "projects": [], "coding_time_seconds": 0, "coding_time_seconds_today": 0, "balance": "You need to have a pocket watcher badge to view this.", "badges": [], "created_at": "2025-07-21T22:30:59.589-04:00", "updated_at": "2025-07-22T03:33:05.051-04:00", "avatar": "https://avatars.slack-edge.com/2025-07-21/9230984899141_7348a09983148fbdbd10_original.png", "custom_css": null}, {"id": 17158, "slack_id": "U097HAC4SL8", "display_name": "Abhishek Adhikari", "bio": null, "projects_count": 0, "devlogs_count": 0, "votes_count": 0, "ships_count": 0, "projects": [], "coding_time_seconds": 0, "coding_time_seconds_today": 0, "balance": "You need to have a pocket watcher badge to view this.", "badges": [], "created_at": "2025-07-21T22:32:21.705-04:00", "updated_at": "2025-07-22T03:33:05.142-04:00", "avatar": "https://secure.gravatar.com/avatar/d83272467a010d237e6c80b997494c13.jpg?s=512&d=https%3A%2F%2Fa.slack-edge.com%2Fdf10d%2Fimg%2Favatars%2Fava_0013-512.png", "custom_css": null}, {"id": 17159, "slack_id": "U096SUU1TK7", "display_name": "Harsha", "bio": null, "projects_count": 0, "devlogs_count": 0, "votes_count": 0, "ships_count": 0, "projects": [], "coding_time_seconds": 30728, "coding_time_seconds_today": 0, "balance": "You need to have a pocket watcher badge to view this.", "badges": [], "created_at": "2025-07-21T22:32:34.464-04:00", "updated_at": "2025-07-26T01:10:37.185-04:00", "avatar": "https://secure.gravatar.com/avatar/a726bd940b3117a8257c79c4575a05ef.jpg?s=512&d=https%3A%2F%2Fa.slack-edge.com%2Fdf10d%2Fimg%2Favatars%2Fava_0012-512.png", "custom_css": null}, {"id": 17160, "slack_id": "U096SUT222H", "display_name": "Vivek Singh", "bio": null, "projects_count": 1, "devlogs_count": 0, "votes_count": 1, "ships_count": 0, "projects": [{"id": 7472, "title": "Bandhu", "devlogs_count": 0, "created_at": "2025-07-21T22:53:54.853-04:00"}], "coding_time_seconds": 6222, "coding_time_seconds_today": 0, "balance": "You need to have a pocket watcher badge to view this.", "badges": [], "created_at": "2025-07-21T22:35:44.953-04:00", "updated_at": "2025-07-22T03:33:05.337-04:00", "avatar": "https://secure.gravatar.com/avatar/40171a1fdb5ee0d1a75120550178f96b.jpg?s=512&d=https%3A%2F%2Fa.slack-edge.com%2Fdf10d%2Fimg%2Favatars%2Fava_0020-512.png", "custom_css": null}, {"id": 17161, "slack_id": "U096SV337KP", "display_name": "Brian Metrillo", "bio": null, "projects_count": 0, "devlogs_count": 0, "votes_count": 0, "ships_count": 0, "projects": [], "coding_time_seconds": 0, "coding_time_seconds_today": 0, "balance": "You need to have a pocket watcher badge to view this.", "badges": [], "created_at": "2025-07-21T22:36:46.133-04:00", "updated_at": "2025-07-22T03:33:05.426-04:00", "avatar": "https://avatars.slack-edge.com/2025-07-21/9218220564055_fd0d1b9f3eb7dc287527_original.png", "custom_css": null}, {"id": 17162, "slack_id": "U096UUGL38A", "display_name": "jaulin", "bio": null, "projects_count": 0, "devlogs_count": 0, "votes_count": 0, "ships_count": 0, "projects": [], "coding_time_seconds": 0, "coding_time_seconds_today": 0, "balance": "You need to have a pocket watcher badge to view this.", "badges": [], "created_at": "2025-07-21T22:37:46.280-04:00", "updated_at": "2025-07-22T03:33:05.509-04:00", "avatar": "https://secure.gravatar.com/avatar/7eb211788705e713715372915f6c93bc.jpg?s=512&d=https%3A%2F%2Fa.slack-edge.com%2Fdf10d%2Fimg%2Favatars%2Fava_0020-512.png", "custom_css": null}, {"id": 17163, "slack_id": "U096UUKEUBC", "display_name": "vinay", "bio": null, "projects_count": 0, "devlogs_count": 0, "votes_count": 0, "ships_count": 0, "projects": [], "coding_time_seconds": 0, "coding_time_seconds_today": 0, "balance": "You need to have a pocket watcher badge to view this.", "badges": [], "created_at": "2025-07-21T22:38:29.018-04:00", "updated_at": "2025-07-22T03:33:05.587-04:00", "avatar": "https://secure.gravatar.com/avatar/b205c73c331123e8f643ca8148970c49.jpg?s=512&d=https%3A%2F%2Fa.slack-edge.com%2Fdf10d%2Fimg%2Favatars%2Fava_0026-512.png", "custom_css": null}, {"id": 17164, "slack_id": "U096SVC1YNR", "display_name": "Nishant", "bio": null, "projects_count": 0, "devlogs_count": 0, "votes_count": 0, "ships_count": 0, "projects": [], "coding_time_seconds": 43622, "coding_time_seconds_today": 0, "balance": "You need to have a pocket watcher badge to view this.", "badges": [], "created_at": "2025-07-21T22:39:20.418-04:00", "updated_at": "2025-07-22T03:33:05.664-04:00", "avatar": "https://secure.gravatar.com/avatar/8a859753dad32d698f8a319b07e5b41d.jpg?s=512&d=https%3A%2F%2Fa.slack-edge.com%2Fdf10d%2Fimg%2Favatars%2Fava_0002-512.png", "custom_css": null}, {"id": 17165, "slack_id": "U096PKAPYSF", "display_name": "Andr\u00e9s Camilo V\u00e9lez Mej\u00eda", "bio": null, "projects_count": 0, "devlogs_count": 0, "votes_count": 0, "ships_count": 0, "projects": [], "coding_time_seconds": 26928, "coding_time_seconds_today": 0, "balance": "You need to have a pocket watcher badge to view this.", "badges": [], "created_at": "2025-07-21T22:40:27.102-04:00", "updated_at": "2025-07-22T03:33:05.770-04:00", "avatar": "https://avatars.slack-edge.com/2025-07-21/9218231219127_6dd95dac399e583757e9_original.jpg", "custom_css": null}], "pagination": {"page": 854, "pages": 1192, "count": 23828, "items": 20}}