{"users": [{"id": 17166, "slack_id": "U09784JJPJ5", "display_name": "aic", "bio": "Japanese Developer", "projects_count": 1, "devlogs_count": 2, "votes_count": 2, "ships_count": 1, "projects": [{"id": 7476, "title": "AicyBot v2", "devlogs_count": 2, "created_at": "2025-07-21T23:23:22.642-04:00"}], "coding_time_seconds": 106658, "coding_time_seconds_today": 0, "balance": "You need to have a pocket watcher badge to view this.", "badges": [], "created_at": "2025-07-21T22:41:13.677-04:00", "updated_at": "2025-08-28T03:11:09.131-04:00", "avatar": "https://secure.gravatar.com/avatar/19568abb7325201857e59cf5f37f18fd.jpg?s=512&d=https%3A%2F%2Fa.slack-edge.com%2Fdf10d%2Fimg%2Favatars%2Fava_0010-512.png", "custom_css": null}, {"id": 17167, "slack_id": "U096T01LF0V", "display_name": "Abdullah Faqih Muzakki", "bio": null, "projects_count": 0, "devlogs_count": 0, "votes_count": 1, "ships_count": 0, "projects": [], "coding_time_seconds": 43647, "coding_time_seconds_today": 0, "balance": "You need to have a pocket watcher badge to view this.", "badges": [], "created_at": "2025-07-21T22:41:50.941-04:00", "updated_at": "2025-07-22T03:33:05.932-04:00", "avatar": "https://secure.gravatar.com/avatar/eae0871b121a9898734b0adba5b5757a.jpg?s=512&d=https%3A%2F%2Fa.slack-edge.com%2Fdf10d%2Fimg%2Favatars%2Fava_0022-512.png", "custom_css": null}, {"id": 17168, "slack_id": "U096W5SNMQU", "display_name": "kanchan", "bio": null, "projects_count": 0, "devlogs_count": 0, "votes_count": 0, "ships_count": 0, "projects": [], "coding_time_seconds": 0, "coding_time_seconds_today": 0, "balance": "You need to have a pocket watcher badge to view this.", "badges": [], "created_at": "2025-07-21T22:42:32.333-04:00", "updated_at": "2025-07-22T03:33:06.046-04:00", "avatar": "https://secure.gravatar.com/avatar/d54a7f5233157616399c954697651f39.jpg?s=512&d=https%3A%2F%2Fa.slack-edge.com%2Fdf10d%2Fimg%2Favatars%2Fava_0020-512.png", "custom_css": null}, {"id": 17169, "slack_id": "U096W5ZG4F6", "display_name": "Amit Kumar", "bio": null, "projects_count": 0, "devlogs_count": 0, "votes_count": 0, "ships_count": 0, "projects": [], "coding_time_seconds": 0, "coding_time_seconds_today": 0, "balance": "You need to have a pocket watcher badge to view this.", "badges": [], "created_at": "2025-07-21T22:42:59.688-04:00", "updated_at": "2025-07-22T03:33:10.167-04:00", "avatar": "https://secure.gravatar.com/avatar/2b923c3a4f8cf9b25bd0eb6893b5dcdb.jpg?s=512&d=https%3A%2F%2Fa.slack-edge.com%2Fdf10d%2Fimg%2Favatars%2Fava_0011-512.png", "custom_css": null}, {"id": 17170, "slack_id": "U096RRDUW3Y", "display_name": "typenil", "bio": null, "projects_count": 0, "devlogs_count": 0, "votes_count": 0, "ships_count": 0, "projects": [], "coding_time_seconds": 0, "coding_time_seconds_today": 0, "balance": "You need to have a pocket watcher badge to view this.", "badges": [], "created_at": "2025-07-21T22:43:46.564-04:00", "updated_at": "2025-07-22T03:33:10.252-04:00", "avatar": "https://secure.gravatar.com/avatar/358573962398819f8449e8ac391e9f9f.jpg?s=512&d=https%3A%2F%2Fa.slack-edge.com%2Fdf10d%2Fimg%2Favatars%2Fava_0009-512.png", "custom_css": null}, {"id": 17171, "slack_id": "U097H993V24", "display_name": "Flying Cat", "bio": null, "projects_count": 0, "devlogs_count": 0, "votes_count": 0, "ships_count": 0, "projects": [], "coding_time_seconds": 0, "coding_time_seconds_today": 0, "balance": "You need to have a pocket watcher badge to view this.", "badges": [], "created_at": "2025-07-21T22:43:56.436-04:00", "updated_at": "2025-07-22T03:33:14.383-04:00", "avatar": "https://secure.gravatar.com/avatar/c450923c37c7e659c8ebc2bce8b24ec3.jpg?s=512&d=https%3A%2F%2Fa.slack-edge.com%2Fdf10d%2Fimg%2Favatars%2Fava_0014-512.png", "custom_css": null}, {"id": 17172, "slack_id": "U096RRD7L4W", "display_name": "Ahmad Ngiliyun", "bio": "Hi", "projects_count": 0, "devlogs_count": 0, "votes_count": 0, "ships_count": 0, "projects": [], "coding_time_seconds": 314971, "coding_time_seconds_today": 0, "balance": "You need to have a pocket watcher badge to view this.", "badges": [], "created_at": "2025-07-21T22:44:31.496-04:00", "updated_at": "2025-07-30T13:07:26.998-04:00", "avatar": "https://avatars.slack-edge.com/2025-07-21/9231024930165_82fc0d044d37655282bc_original.jpg", "custom_css": null}, {"id": 17173, "slack_id": "U096PKQH0SX", "display_name": "Madhur", "bio": null, "projects_count": 0, "devlogs_count": 0, "votes_count": 0, "ships_count": 0, "projects": [], "coding_time_seconds": 0, "coding_time_seconds_today": 0, "balance": "You need to have a pocket watcher badge to view this.", "badges": [], "created_at": "2025-07-21T22:45:42.310-04:00", "updated_at": "2025-07-22T03:33:14.569-04:00", "avatar": "https://secure.gravatar.com/avatar/a25605e032a5f20d3e205e626ccf718f.jpg?s=512&d=https%3A%2F%2Fa.slack-edge.com%2Fdf10d%2Fimg%2Favatars%2Fava_0008-512.png", "custom_css": null}, {"id": 17174, "slack_id": "U096PKSUUQ3", "display_name": "torin", "bio": null, "projects_count": 0, "devlogs_count": 0, "votes_count": 0, "ships_count": 0, "projects": [], "coding_time_seconds": 0, "coding_time_seconds_today": 0, "balance": "You need to have a pocket watcher badge to view this.", "badges": [], "created_at": "2025-07-21T22:46:04.486-04:00", "updated_at": "2025-07-22T03:33:14.643-04:00", "avatar": "https://secure.gravatar.com/avatar/d598b8b4b0d0c6914aa3d051bb3bc0d3.jpg?s=512&d=https%3A%2F%2Fa.slack-edge.com%2Fdf10d%2Fimg%2Favatars%2Fava_0017-512.png", "custom_css": null}, {"id": 17175, "slack_id": "U096E70N84F", "display_name": "Bret Shroats", "bio": null, "projects_count": 2, "devlogs_count": 0, "votes_count": 0, "ships_count": 0, "projects": [{"id": 7601, "title": "Lexington Sporting Club ", "devlogs_count": 0, "created_at": "2025-07-22T08:41:47.379-04:00"}, {"id": 7758, "title": "Calculator Plus", "devlogs_count": 0, "created_at": "2025-07-22T22:26:09.028-04:00"}], "coding_time_seconds": 115459, "coding_time_seconds_today": 0, "balance": "You need to have a pocket watcher badge to view this.", "badges": [], "created_at": "2025-07-21T22:46:11.300-04:00", "updated_at": "2025-07-22T14:46:24.850-04:00", "avatar": "https://secure.gravatar.com/avatar/13f530d79c293fe1e36d2a482f48660a.jpg?s=512&d=https%3A%2F%2Fa.slack-edge.com%2Fdf10d%2Fimg%2Favatars%2Fava_0016-512.png", "custom_css": null}, {"id": 17176, "slack_id": "U07HSCCCTED", "display_name": "Rohan J", "bio": null, "projects_count": 0, "devlogs_count": 0, "votes_count": 0, "ships_count": 0, "projects": [], "coding_time_seconds": 0, "coding_time_seconds_today": 0, "balance": "You need to have a pocket watcher badge to view this.", "badges": [], "created_at": "2025-07-21T22:46:18.185-04:00", "updated_at": "2025-07-23T05:25:00.582-04:00", "avatar": "https://secure.gravatar.com/avatar/39870fd392a27989616d73dd9ffbd861.jpg?s=512&d=https%3A%2F%2Fa.slack-edge.com%2Fdf10d%2Fimg%2Favatars%2Fava_0006-512.png", "custom_css": null}, {"id": 17177, "slack_id": "U096SV8DWJH", "display_name": "Dheeraj", "bio": null, "projects_count": 0, "devlogs_count": 0, "votes_count": 0, "ships_count": 0, "projects": [], "coding_time_seconds": 0, "coding_time_seconds_today": 0, "balance": "You need to have a pocket watcher badge to view this.", "badges": [], "created_at": "2025-07-21T22:46:32.203-04:00", "updated_at": "2025-07-23T04:44:38.826-04:00", "avatar": "https://secure.gravatar.com/avatar/ae31578fbb4f3b1614389d7708205086.jpg?s=512&d=https%3A%2F%2Fa.slack-edge.com%2Fdf10d%2Fimg%2Favatars%2Fava_0021-512.png", "custom_css": null}, {"id": 17178, "slack_id": "U096VUQL7K6", "display_name": "paresh", "bio": null, "projects_count": 0, "devlogs_count": 0, "votes_count": 0, "ships_count": 0, "projects": [], "coding_time_seconds": 0, "coding_time_seconds_today": 0, "balance": "You need to have a pocket watcher badge to view this.", "badges": [], "created_at": "2025-07-21T22:47:05.949-04:00", "updated_at": "2025-07-22T14:03:49.542-04:00", "avatar": "https://secure.gravatar.com/avatar/c093ba5d2242eb87bd92b0d64cf27932.jpg?s=512&d=https%3A%2F%2Fa.slack-edge.com%2Fdf10d%2Fimg%2Favatars%2Fava_0016-512.png", "custom_css": null}, {"id": 17179, "slack_id": "U096E6ULQ95", "display_name": "Krishna Penmetsa", "bio": null, "projects_count": 0, "devlogs_count": 0, "votes_count": 0, "ships_count": 0, "projects": [], "coding_time_seconds": 0, "coding_time_seconds_today": 0, "balance": "You need to have a pocket watcher badge to view this.", "badges": [], "created_at": "2025-07-21T22:47:38.095-04:00", "updated_at": "2025-07-22T03:33:15.028-04:00", "avatar": "https://secure.gravatar.com/avatar/49148ef37123871204aea30b8ba8456a.jpg?s=512&d=https%3A%2F%2Fa.slack-edge.com%2Fdf10d%2Fimg%2Favatars%2Fava_0016-512.png", "custom_css": null}, {"id": 17180, "slack_id": "U096E7513DM", "display_name": "2TB Magic", "bio": null, "projects_count": 0, "devlogs_count": 0, "votes_count": 0, "ships_count": 0, "projects": [], "coding_time_seconds": 0, "coding_time_seconds_today": 0, "balance": "You need to have a pocket watcher badge to view this.", "badges": [], "created_at": "2025-07-21T22:48:28.353-04:00", "updated_at": "2025-07-22T03:33:15.123-04:00", "avatar": "https://secure.gravatar.com/avatar/5824fd16eff9cf99561b32446dc27506.jpg?s=512&d=https%3A%2F%2Fa.slack-edge.com%2Fdf10d%2Fimg%2Favatars%2Fava_0014-512.png", "custom_css": null}, {"id": 17181, "slack_id": "U097HC1DLQ0", "display_name": "Muthu Manickam M", "bio": null, "projects_count": 0, "devlogs_count": 0, "votes_count": 0, "ships_count": 0, "projects": [], "coding_time_seconds": 0, "coding_time_seconds_today": 0, "balance": "You need to have a pocket watcher badge to view this.", "badges": [], "created_at": "2025-07-21T22:49:08.666-04:00", "updated_at": "2025-07-22T03:33:15.206-04:00", "avatar": "https://avatars.slack-edge.com/2025-07-22/9218259700455_d8c81fc2e7c6a7712f3b_original.jpg", "custom_css": null}, {"id": 17182, "slack_id": "U096T0RGJN9", "display_name": "Prince", "bio": null, "projects_count": 0, "devlogs_count": 0, "votes_count": 0, "ships_count": 0, "projects": [], "coding_time_seconds": 0, "coding_time_seconds_today": 0, "balance": "You need to have a pocket watcher badge to view this.", "badges": [], "created_at": "2025-07-21T22:49:09.190-04:00", "updated_at": "2025-07-22T03:33:15.290-04:00", "avatar": "https://secure.gravatar.com/avatar/01c0f1009afebe163af70cd0ff956101.jpg?s=512&d=https%3A%2F%2Fa.slack-edge.com%2Fdf10d%2Fimg%2Favatars%2Fava_0023-512.png", "custom_css": null}, {"id": 17183, "slack_id": "U096E78R3E3", "display_name": "Minghui Ye", "bio": null, "projects_count": 0, "devlogs_count": 0, "votes_count": 0, "ships_count": 0, "projects": [], "coding_time_seconds": 83497, "coding_time_seconds_today": 0, "balance": "You need to have a pocket watcher badge to view this.", "badges": [], "created_at": "2025-07-21T22:50:07.415-04:00", "updated_at": "2025-07-23T05:29:01.611-04:00", "avatar": "https://secure.gravatar.com/avatar/9f3b15c48c9cfa207f3f134bfb93ef47.jpg?s=512&d=https%3A%2F%2Fa.slack-edge.com%2Fdf10d%2Fimg%2Favatars%2Fava_0009-512.png", "custom_css": null}, {"id": 17184, "slack_id": "U096W6E49S8", "display_name": "\u5f90\u80e5\u6853", "bio": null, "projects_count": 0, "devlogs_count": 0, "votes_count": 0, "ships_count": 0, "projects": [], "coding_time_seconds": 0, "coding_time_seconds_today": 0, "balance": "You need to have a pocket watcher badge to view this.", "badges": [], "created_at": "2025-07-21T22:50:31.607-04:00", "updated_at": "2025-07-22T03:33:15.464-04:00", "avatar": "https://avatars.slack-edge.com/2025-07-21/9234233907252_8bb5ca81aa0ec2431ab4_original.png", "custom_css": null}, {"id": 17185, "slack_id": "U096E7E798F", "display_name": "Anubhav", "bio": null, "projects_count": 0, "devlogs_count": 0, "votes_count": 0, "ships_count": 0, "projects": [], "coding_time_seconds": 0, "coding_time_seconds_today": 0, "balance": "You need to have a pocket watcher badge to view this.", "badges": [], "created_at": "2025-07-21T22:53:03.360-04:00", "updated_at": "2025-07-22T03:33:15.556-04:00", "avatar": "https://secure.gravatar.com/avatar/12e563a630a8ecab14764bbb8c292336.jpg?s=512&d=https%3A%2F%2Fa.slack-edge.com%2Fdf10d%2Fimg%2Favatars%2Fava_0021-512.png", "custom_css": null}], "pagination": {"page": 855, "pages": 1192, "count": 23828, "items": 20}}