{"users": [{"id": 17186, "slack_id": "U096RS5DK7G", "display_name": "Amrendra Kumar", "bio": null, "projects_count": 0, "devlogs_count": 0, "votes_count": 0, "ships_count": 0, "projects": [], "coding_time_seconds": 0, "coding_time_seconds_today": 0, "balance": "You need to have a pocket watcher badge to view this.", "badges": [], "created_at": "2025-07-21T22:53:43.334-04:00", "updated_at": "2025-07-22T03:33:15.643-04:00", "avatar": "https://secure.gravatar.com/avatar/4a342bea8741645d3948cb3bf63d13e9.jpg?s=512&d=https%3A%2F%2Fa.slack-edge.com%2Fdf10d%2Fimg%2Favatars%2Fava_0013-512.png", "custom_css": null}, {"id": 17187, "slack_id": "U09785HSD5F", "display_name": "\u8d39\u91d1\u5c79", "bio": null, "projects_count": 0, "devlogs_count": 0, "votes_count": 0, "ships_count": 0, "projects": [], "coding_time_seconds": 64894, "coding_time_seconds_today": 0, "balance": "You need to have a pocket watcher badge to view this.", "badges": [], "created_at": "2025-07-21T22:54:39.251-04:00", "updated_at": "2025-07-22T03:33:15.734-04:00", "avatar": "https://secure.gravatar.com/avatar/ccf0941242fffc598305249507f8bafd.jpg?s=512&d=https%3A%2F%2Fa.slack-edge.com%2Fdf10d%2Fimg%2Favatars%2Fava_0002-512.png", "custom_css": null}, {"id": 17188, "slack_id": "U096W6V642G", "display_name": "mikelon", "bio": null, "projects_count": 0, "devlogs_count": 0, "votes_count": 0, "ships_count": 0, "projects": [], "coding_time_seconds": 0, "coding_time_seconds_today": 0, "balance": "You need to have a pocket watcher badge to view this.", "badges": [], "created_at": "2025-07-21T22:55:51.178-04:00", "updated_at": "2025-07-22T03:33:15.815-04:00", "avatar": "https://secure.gravatar.com/avatar/31d3cb1eaa15a9750b351ea74c709b17.jpg?s=512&d=https%3A%2F%2Fa.slack-edge.com%2Fdf10d%2Fimg%2Favatars%2Fava_0022-512.png", "custom_css": null}, {"id": 17189, "slack_id": "U096PLJDD51", "display_name": "S\u00e9rgio gan\u00e7alo", "bio": null, "projects_count": 0, "devlogs_count": 0, "votes_count": 0, "ships_count": 0, "projects": [], "coding_time_seconds": 0, "coding_time_seconds_today": 0, "balance": "You need to have a pocket watcher badge to view this.", "badges": [], "created_at": "2025-07-21T22:56:04.004-04:00", "updated_at": "2025-07-22T03:33:19.939-04:00", "avatar": "https://avatars.slack-edge.com/2025-07-21/9218276585863_d4af4bcb68711422af42_original.jpg", "custom_css": null}, {"id": 17190, "slack_id": "U096E7T85CP", "display_name": "Agniva Mukherjee", "bio": null, "projects_count": 0, "devlogs_count": 0, "votes_count": 0, "ships_count": 0, "projects": [], "coding_time_seconds": 0, "coding_time_seconds_today": 0, "balance": "You need to have a pocket watcher badge to view this.", "badges": [], "created_at": "2025-07-21T22:56:05.061-04:00", "updated_at": "2025-07-22T03:33:20.023-04:00", "avatar": "https://secure.gravatar.com/avatar/05ced4bca290ae9ebd9739b93a53e52f.jpg?s=512&d=https%3A%2F%2Fa.slack-edge.com%2Fdf10d%2Fimg%2Favatars%2Fava_0006-512.png", "custom_css": null}, {"id": 17191, "slack_id": "U097HCTCG3A", "display_name": "Srivardhani E", "bio": null, "projects_count": 0, "devlogs_count": 0, "votes_count": 0, "ships_count": 0, "projects": [], "coding_time_seconds": 0, "coding_time_seconds_today": 0, "balance": "You need to have a pocket watcher badge to view this.", "badges": [], "created_at": "2025-07-21T22:56:12.875-04:00", "updated_at": "2025-07-22T03:33:20.102-04:00", "avatar": "https://avatars.slack-edge.com/2025-07-21/9233031776674_aa0e65a64bed2655db45_original.png", "custom_css": null}, {"id": 17192, "slack_id": "U09785VM9UZ", "display_name": "BabyH2", "bio": null, "projects_count": 0, "devlogs_count": 0, "votes_count": 0, "ships_count": 0, "projects": [], "coding_time_seconds": 0, "coding_time_seconds_today": 0, "balance": "You need to have a pocket watcher badge to view this.", "badges": [], "created_at": "2025-07-21T22:57:02.704-04:00", "updated_at": "2025-07-22T03:33:20.187-04:00", "avatar": "https://secure.gravatar.com/avatar/5123471431ee48b3addba5163ef7b5db.jpg?s=512&d=https%3A%2F%2Fa.slack-edge.com%2Fdf10d%2Fimg%2Favatars%2Fava_0007-512.png", "custom_css": null}, {"id": 17193, "slack_id": "U096PLMMGJX", "display_name": "Sushank Ghimire", "bio": null, "projects_count": 0, "devlogs_count": 0, "votes_count": 0, "ships_count": 0, "projects": [], "coding_time_seconds": 0, "coding_time_seconds_today": 0, "balance": "You need to have a pocket watcher badge to view this.", "badges": [], "created_at": "2025-07-21T22:57:30.064-04:00", "updated_at": "2025-07-22T03:33:20.278-04:00", "avatar": "https://secure.gravatar.com/avatar/b92677e4f02fd57fd49483f7984675d2.jpg?s=512&d=https%3A%2F%2Fa.slack-edge.com%2Fdf10d%2Fimg%2Favatars%2Fava_0023-512.png", "custom_css": null}, {"id": 17194, "slack_id": "U097862RJBB", "display_name": "Tykea Ly", "bio": null, "projects_count": 0, "devlogs_count": 0, "votes_count": 0, "ships_count": 0, "projects": [], "coding_time_seconds": 0, "coding_time_seconds_today": 0, "balance": "You need to have a pocket watcher badge to view this.", "badges": [], "created_at": "2025-07-21T22:59:29.968-04:00", "updated_at": "2025-07-22T04:38:28.058-04:00", "avatar": "https://avatars.slack-edge.com/2025-07-21/9218286056999_8ccb957a821c5ae51117_original.jpg", "custom_css": null}, {"id": 17195, "slack_id": "U096V0LPVJ6", "display_name": "Abhishek John", "bio": null, "projects_count": 0, "devlogs_count": 0, "votes_count": 0, "ships_count": 0, "projects": [], "coding_time_seconds": 0, "coding_time_seconds_today": 0, "balance": "You need to have a pocket watcher badge to view this.", "badges": [], "created_at": "2025-07-21T23:00:32.757-04:00", "updated_at": "2025-07-22T03:33:20.445-04:00", "avatar": "https://secure.gravatar.com/avatar/259bc5dcf0f2976c66a64075a4d6799c.jpg?s=512&d=https%3A%2F%2Fa.slack-edge.com%2Fdf10d%2Fimg%2Favatars%2Fava_0025-512.png", "custom_css": null}, {"id": 17196, "slack_id": "U096W7F6D7E", "display_name": "Aabid Shameem K", "bio": null, "projects_count": 0, "devlogs_count": 0, "votes_count": 0, "ships_count": 0, "projects": [], "coding_time_seconds": 0, "coding_time_seconds_today": 0, "balance": "You need to have a pocket watcher badge to view this.", "badges": [], "created_at": "2025-07-21T23:00:47.224-04:00", "updated_at": "2025-07-22T03:33:20.552-04:00", "avatar": "https://secure.gravatar.com/avatar/a230c8c1b4cce014dc0b9c2ce365c49b.jpg?s=512&d=https%3A%2F%2Fa.slack-edge.com%2Fdf10d%2Fimg%2Favatars%2Fava_0010-512.png", "custom_css": null}, {"id": 17197, "slack_id": "U096T1ZHNHK", "display_name": "Tanuja", "bio": null, "projects_count": 0, "devlogs_count": 0, "votes_count": 0, "ships_count": 0, "projects": [], "coding_time_seconds": 0, "coding_time_seconds_today": 0, "balance": "You need to have a pocket watcher badge to view this.", "badges": [], "created_at": "2025-07-21T23:01:34.821-04:00", "updated_at": "2025-07-22T03:33:20.663-04:00", "avatar": "https://secure.gravatar.com/avatar/caa27266b854858eececac9ddae7950e.jpg?s=512&d=https%3A%2F%2Fa.slack-edge.com%2Fdf10d%2Fimg%2Favatars%2Fava_0009-512.png", "custom_css": null}, {"id": 17198, "slack_id": "U096PLXJ6E7", "display_name": "Ada Mullins", "bio": null, "projects_count": 1, "devlogs_count": 0, "votes_count": 1, "ships_count": 0, "projects": [{"id": 7725, "title": "md5 implementation", "devlogs_count": 0, "created_at": "2025-07-22T17:55:16.064-04:00"}], "coding_time_seconds": 4696, "coding_time_seconds_today": 0, "balance": "You need to have a pocket watcher badge to view this.", "badges": [], "created_at": "2025-07-21T23:01:42.888-04:00", "updated_at": "2025-07-22T17:28:46.134-04:00", "avatar": "https://secure.gravatar.com/avatar/e2450def64054893dcdaf1e9a18829d8.jpg?s=512&d=https%3A%2F%2Fa.slack-edge.com%2Fdf10d%2Fimg%2Favatars%2Fava_0021-512.png", "custom_css": null}, {"id": 17199, "slack_id": "U096PM7QH6F", "display_name": "Ransom", "bio": null, "projects_count": 0, "devlogs_count": 0, "votes_count": 0, "ships_count": 0, "projects": [], "coding_time_seconds": 1612, "coding_time_seconds_today": 0, "balance": "You need to have a pocket watcher badge to view this.", "badges": [], "created_at": "2025-07-21T23:03:29.281-04:00", "updated_at": "2025-07-22T03:33:20.821-04:00", "avatar": "https://secure.gravatar.com/avatar/6abbf31d855919e4ed120fb4b7242d21.jpg?s=512&d=https%3A%2F%2Fa.slack-edge.com%2Fdf10d%2Fimg%2Favatars%2Fava_0026-512.png", "custom_css": null}, {"id": 17200, "slack_id": "U096T286C9K", "display_name": "Vicky", "bio": "I'm a passionate and solution-oriented programmer with experience in full-stack development, problem-solving, and scalable backend systems. I enjoy working across different technologies including JavaScript, PHP, Python, and C++, and have hands-on experience with frameworks like Node.js, Express, React, and tools like MongoDB and PostgreSQL. I\u2019m always open to learning new skills and thrive in collaborative, fast-paced environments.", "projects_count": 0, "devlogs_count": 0, "votes_count": 0, "ships_count": 0, "projects": [], "coding_time_seconds": 15880, "coding_time_seconds_today": 0, "balance": "You need to have a pocket watcher badge to view this.", "badges": [], "created_at": "2025-07-21T23:04:23.913-04:00", "updated_at": "2025-07-23T00:44:18.887-04:00", "avatar": "https://secure.gravatar.com/avatar/f9c2b6f089316e91a3d541eb9ca5bd86.jpg?s=512&d=https%3A%2F%2Fa.slack-edge.com%2Fdf10d%2Fimg%2Favatars%2Fava_0001-512.png", "custom_css": null}, {"id": 17201, "slack_id": "U096PMGGDH9", "display_name": "Faizaan Fazal", "bio": null, "projects_count": 0, "devlogs_count": 0, "votes_count": 0, "ships_count": 0, "projects": [], "coding_time_seconds": 12948, "coding_time_seconds_today": 0, "balance": "You need to have a pocket watcher badge to view this.", "badges": [], "created_at": "2025-07-21T23:04:50.381-04:00", "updated_at": "2025-07-22T03:33:21.020-04:00", "avatar": "https://avatars.slack-edge.com/2025-07-21/9234279826452_65515ae40bb68ddfefe4_original.jpg", "custom_css": null}, {"id": 17202, "slack_id": "U096RTG804E", "display_name": "hayden", "bio": null, "projects_count": 0, "devlogs_count": 0, "votes_count": 0, "ships_count": 0, "projects": [], "coding_time_seconds": 0, "coding_time_seconds_today": 0, "balance": "You need to have a pocket watcher badge to view this.", "badges": [], "created_at": "2025-07-21T23:06:08.823-04:00", "updated_at": "2025-07-23T05:46:01.969-04:00", "avatar": "https://secure.gravatar.com/avatar/a29a64e79b1bfb79fdf6539e25d31737.jpg?s=512&d=https%3A%2F%2Fa.slack-edge.com%2Fdf10d%2Fimg%2Favatars%2Fava_0017-512.png", "custom_css": null}, {"id": 17203, "slack_id": "U096E8K1JT1", "display_name": "LautaroDevelopers", "bio": null, "projects_count": 1, "devlogs_count": 0, "votes_count": 0, "ships_count": 0, "projects": [{"id": 8055, "title": "Kawrapp", "devlogs_count": 0, "created_at": "2025-07-24T10:34:33.988-04:00"}], "coding_time_seconds": 90723, "coding_time_seconds_today": 0, "balance": "You need to have a pocket watcher badge to view this.", "badges": [], "created_at": "2025-07-21T23:06:13.815-04:00", "updated_at": "2025-07-24T09:27:10.413-04:00", "avatar": "https://secure.gravatar.com/avatar/08be73f64dc8e6b4421ce3cf48179653.jpg?s=512&d=https%3A%2F%2Fa.slack-edge.com%2Fdf10d%2Fimg%2Favatars%2Fava_0026-512.png", "custom_css": null}, {"id": 17204, "slack_id": "U096T2FFXGV", "display_name": "Sarankumar S", "bio": null, "projects_count": 1, "devlogs_count": 0, "votes_count": 0, "ships_count": 0, "projects": [{"id": 7487, "title": "TASKFLOWAI", "devlogs_count": 0, "created_at": "2025-07-22T00:06:39.814-04:00"}], "coding_time_seconds": 87070, "coding_time_seconds_today": 0, "balance": "You need to have a pocket watcher badge to view this.", "badges": [], "created_at": "2025-07-21T23:07:24.766-04:00", "updated_at": "2025-07-22T03:33:21.262-04:00", "avatar": "https://secure.gravatar.com/avatar/d74ba9d27db1abac44406773cdedbd09.jpg?s=512&d=https%3A%2F%2Fa.slack-edge.com%2Fdf10d%2Fimg%2Favatars%2Fava_0007-512.png", "custom_css": null}, {"id": 17205, "slack_id": "U096REPKZM3", "display_name": "Yuri Winche Achermann", "bio": null, "projects_count": 0, "devlogs_count": 0, "votes_count": 0, "ships_count": 0, "projects": [], "coding_time_seconds": 0, "coding_time_seconds_today": 0, "balance": "You need to have a pocket watcher badge to view this.", "badges": [], "created_at": "2025-07-21T23:07:42.205-04:00", "updated_at": "2025-07-22T03:33:21.342-04:00", "avatar": "https://avatars.slack-edge.com/2025-07-21/9231093890965_8d88969726cad96b76b3_original.jpg", "custom_css": null}], "pagination": {"page": 856, "pages": 1192, "count": 23828, "items": 20}}