{"users": [{"id": 17206, "slack_id": "U097HDTCV3J", "display_name": "Tanisha", "bio": null, "projects_count": 0, "devlogs_count": 0, "votes_count": 0, "ships_count": 0, "projects": [], "coding_time_seconds": 0, "coding_time_seconds_today": 0, "balance": "You need to have a pocket watcher badge to view this.", "badges": [], "created_at": "2025-07-21T23:07:54.667-04:00", "updated_at": "2025-07-22T03:33:21.435-04:00", "avatar": "https://secure.gravatar.com/avatar/2571b1a608c7a09f722823744ae8da9d.jpg?s=512&d=https%3A%2F%2Fa.slack-edge.com%2Fdf10d%2Fimg%2Favatars%2Fava_0017-512.png", "custom_css": null}, {"id": 17207, "slack_id": "U096T2FBWTX", "display_name": "Sayantan", "bio": null, "projects_count": 0, "devlogs_count": 0, "votes_count": 0, "ships_count": 0, "projects": [], "coding_time_seconds": 0, "coding_time_seconds_today": 0, "balance": "You need to have a pocket watcher badge to view this.", "badges": [], "created_at": "2025-07-21T23:09:20.957-04:00", "updated_at": "2025-07-22T03:33:21.539-04:00", "avatar": "https://secure.gravatar.com/avatar/07c9c1d6ba22c8f3bf07cef6926981be.jpg?s=512&d=https%3A%2F%2Fa.slack-edge.com%2Fdf10d%2Fimg%2Favatars%2Fava_0003-512.png", "custom_css": null}, {"id": 17208, "slack_id": "U096V1VMBQA", "display_name": "Hadi", "bio": null, "projects_count": 0, "devlogs_count": 0, "votes_count": 2, "ships_count": 0, "projects": [], "coding_time_seconds": 481, "coding_time_seconds_today": 0, "balance": "You need to have a pocket watcher badge to view this.", "badges": [], "created_at": "2025-07-21T23:09:27.948-04:00", "updated_at": "2025-07-22T12:29:38.569-04:00", "avatar": "https://secure.gravatar.com/avatar/8a84d44e7dd57dee192bc8c20fd34fbd.jpg?s=512&d=https%3A%2F%2Fa.slack-edge.com%2Fdf10d%2Fimg%2Favatars%2Fava_0012-512.png", "custom_css": null}, {"id": 17209, "slack_id": "U096E8YCKJB", "display_name": "pankaj", "bio": null, "projects_count": 0, "devlogs_count": 0, "votes_count": 0, "ships_count": 0, "projects": [], "coding_time_seconds": 0, "coding_time_seconds_today": 0, "balance": "You need to have a pocket watcher badge to view this.", "badges": [], "created_at": "2025-07-21T23:09:28.610-04:00", "updated_at": "2025-07-22T03:33:25.739-04:00", "avatar": "https://secure.gravatar.com/avatar/33f318e1005013ce1b4e0f44eb9898bd.jpg?s=512&d=https%3A%2F%2Fa.slack-edge.com%2Fdf10d%2Fimg%2Favatars%2Fava_0024-512.png", "custom_css": null}, {"id": 17210, "slack_id": "U096T2HU3EZ", "display_name": "Rafael", "bio": null, "projects_count": 1, "devlogs_count": 0, "votes_count": 0, "ships_count": 0, "projects": [{"id": 7479, "title": "BioReceitas", "devlogs_count": 0, "created_at": "2025-07-21T23:34:15.677-04:00"}], "coding_time_seconds": 5942, "coding_time_seconds_today": 0, "balance": "You need to have a pocket watcher badge to view this.", "badges": [], "created_at": "2025-07-21T23:10:18.714-04:00", "updated_at": "2025-07-22T03:33:25.822-04:00", "avatar": "https://secure.gravatar.com/avatar/17e5c64f925cc2421e6e6e28863e1e9f.jpg?s=512&d=https%3A%2F%2Fa.slack-edge.com%2Fdf10d%2Fimg%2Favatars%2Fava_0006-512.png", "custom_css": null}, {"id": 17211, "slack_id": "U096T2M44JZ", "display_name": "Gavin Grover", "bio": null, "projects_count": 0, "devlogs_count": 0, "votes_count": 0, "ships_count": 0, "projects": [], "coding_time_seconds": 0, "coding_time_seconds_today": 0, "balance": "You need to have a pocket watcher badge to view this.", "badges": [], "created_at": "2025-07-21T23:11:09.492-04:00", "updated_at": "2025-07-24T10:17:58.753-04:00", "avatar": "https://avatars.slack-edge.com/2025-07-21/9255488025584_d02a3a21b6fb70eb54da_original.jpg", "custom_css": null}, {"id": 17212, "slack_id": "U096W8EFNKE", "display_name": "Aditya", "bio": null, "projects_count": 0, "devlogs_count": 0, "votes_count": 0, "ships_count": 0, "projects": [], "coding_time_seconds": 0, "coding_time_seconds_today": 0, "balance": "You need to have a pocket watcher badge to view this.", "badges": [], "created_at": "2025-07-21T23:11:26.616-04:00", "updated_at": "2025-07-22T03:33:26.000-04:00", "avatar": "https://secure.gravatar.com/avatar/05c42a4ab05f8551492a81a8913ebbcc.jpg?s=512&d=https%3A%2F%2Fa.slack-edge.com%2Fdf10d%2Fimg%2Favatars%2Fava_0004-512.png", "custom_css": null}, {"id": 17213, "slack_id": "U0978740DEV", "display_name": "Aziz Mustika Aji", "bio": null, "projects_count": 2, "devlogs_count": 0, "votes_count": 0, "ships_count": 0, "projects": [{"id": 7482, "title": "New PST", "devlogs_count": 0, "created_at": "2025-07-21T23:46:18.056-04:00"}, {"id": 7483, "title": "Power Inspect", "devlogs_count": 0, "created_at": "2025-07-21T23:47:06.571-04:00"}], "coding_time_seconds": 112344, "coding_time_seconds_today": 1647, "balance": "You need to have a pocket watcher badge to view this.", "badges": [], "created_at": "2025-07-21T23:11:33.092-04:00", "updated_at": "2025-08-25T00:00:45.847-04:00", "avatar": "https://avatars.slack-edge.com/2025-07-21/9218324963063_4575f7d037d4fc1deb8d_original.jpg", "custom_css": null}, {"id": 17214, "slack_id": "U096E8N4G4F", "display_name": "Sree Sathwik Challa", "bio": null, "projects_count": 1, "devlogs_count": 1, "votes_count": 0, "ships_count": 0, "projects": [{"id": 7809, "title": "Skaplle", "devlogs_count": 1, "created_at": "2025-07-23T05:37:31.457-04:00"}], "coding_time_seconds": 7138, "coding_time_seconds_today": 0, "balance": "You need to have a pocket watcher badge to view this.", "badges": [], "created_at": "2025-07-21T23:11:53.936-04:00", "updated_at": "2025-07-23T05:33:23.556-04:00", "avatar": "https://avatars.slack-edge.com/2025-07-21/9231105365381_b0a2c0194781a641b4db_original.png", "custom_css": null}, {"id": 17215, "slack_id": "U096W8GSW8L", "display_name": "Dhriti", "bio": null, "projects_count": 0, "devlogs_count": 0, "votes_count": 0, "ships_count": 0, "projects": [], "coding_time_seconds": 0, "coding_time_seconds_today": 0, "balance": "You need to have a pocket watcher badge to view this.", "badges": [], "created_at": "2025-07-21T23:11:57.393-04:00", "updated_at": "2025-07-22T03:33:26.278-04:00", "avatar": "https://secure.gravatar.com/avatar/ce890daa7b94be6b9ab69348f246c75b.jpg?s=512&d=https%3A%2F%2Fa.slack-edge.com%2Fdf10d%2Fimg%2Favatars%2Fava_0018-512.png", "custom_css": null}, {"id": 17216, "slack_id": "U096T0V796H", "display_name": "Luis Gerardo", "bio": null, "projects_count": 0, "devlogs_count": 0, "votes_count": 0, "ships_count": 0, "projects": [], "coding_time_seconds": 15334, "coding_time_seconds_today": 0, "balance": "You need to have a pocket watcher badge to view this.", "badges": [], "created_at": "2025-07-21T23:12:39.637-04:00", "updated_at": "2025-07-22T03:33:26.370-04:00", "avatar": "https://secure.gravatar.com/avatar/653959ae524a2b5f35924db3ba113b90.jpg?s=512&d=https%3A%2F%2Fa.slack-edge.com%2Fdf10d%2Fimg%2Favatars%2Fava_0009-512.png", "custom_css": null}, {"id": 17217, "slack_id": "U09787BDNHF", "display_name": "Harsh", "bio": null, "projects_count": 0, "devlogs_count": 0, "votes_count": 0, "ships_count": 0, "projects": [], "coding_time_seconds": 85773, "coding_time_seconds_today": 0, "balance": "You need to have a pocket watcher badge to view this.", "badges": [], "created_at": "2025-07-21T23:14:09.392-04:00", "updated_at": "2025-07-22T03:33:26.458-04:00", "avatar": "https://secure.gravatar.com/avatar/23ae7d9eea63e791a7d16c569ad86f1e.jpg?s=512&d=https%3A%2F%2Fa.slack-edge.com%2Fdf10d%2Fimg%2Favatars%2Fava_0004-512.png", "custom_css": null}, {"id": 17218, "slack_id": "U096V2A17GS", "display_name": "Vinayapriya", "bio": null, "projects_count": 0, "devlogs_count": 0, "votes_count": 0, "ships_count": 0, "projects": [], "coding_time_seconds": 0, "coding_time_seconds_today": 0, "balance": "You need to have a pocket watcher badge to view this.", "badges": [], "created_at": "2025-07-21T23:14:47.080-04:00", "updated_at": "2025-07-22T03:33:26.551-04:00", "avatar": "https://secure.gravatar.com/avatar/894e72a5579b8cccb204c1ce54939f2a.jpg?s=512&d=https%3A%2F%2Fa.slack-edge.com%2Fdf10d%2Fimg%2Favatars%2Fava_0017-512.png", "custom_css": null}, {"id": 17219, "slack_id": "U097HD966HE", "display_name": "Sam Wagenaar", "bio": null, "projects_count": 0, "devlogs_count": 0, "votes_count": 0, "ships_count": 0, "projects": [], "coding_time_seconds": 0, "coding_time_seconds_today": 0, "balance": "You need to have a pocket watcher badge to view this.", "badges": [], "created_at": "2025-07-21T23:15:21.176-04:00", "updated_at": "2025-07-22T03:33:26.650-04:00", "avatar": "https://avatars.slack-edge.com/2025-07-21/9233091434898_be50ca264fab03857b02_original.png", "custom_css": null}, {"id": 17220, "slack_id": "U096W9248UU", "display_name": "Akshay Dusane", "bio": null, "projects_count": 0, "devlogs_count": 0, "votes_count": 0, "ships_count": 0, "projects": [], "coding_time_seconds": 5640, "coding_time_seconds_today": 0, "balance": "You need to have a pocket watcher badge to view this.", "badges": [], "created_at": "2025-07-21T23:18:23.493-04:00", "updated_at": "2025-07-22T03:33:26.743-04:00", "avatar": "https://secure.gravatar.com/avatar/50f09f51ab88a2ab16e71151ebfc8c36.jpg?s=512&d=https%3A%2F%2Fa.slack-edge.com%2Fdf10d%2Fimg%2Favatars%2Fava_0017-512.png", "custom_css": null}, {"id": 17221, "slack_id": "U096PNM2CPM", "display_name": "Gavin", "bio": null, "projects_count": 0, "devlogs_count": 0, "votes_count": 0, "ships_count": 0, "projects": [], "coding_time_seconds": 0, "coding_time_seconds_today": 0, "balance": "You need to have a pocket watcher badge to view this.", "badges": [], "created_at": "2025-07-21T23:18:25.489-04:00", "updated_at": "2025-07-22T03:33:26.826-04:00", "avatar": "https://secure.gravatar.com/avatar/a6219553ffff1dfd65368b1f22fa06e2.jpg?s=512&d=https%3A%2F%2Fa.slack-edge.com%2Fdf10d%2Fimg%2Favatars%2Fava_0019-512.png", "custom_css": null}, {"id": 17222, "slack_id": "U096PMWMGTD", "display_name": "Leonardo Becerril", "bio": null, "projects_count": 1, "devlogs_count": 0, "votes_count": 0, "ships_count": 0, "projects": [{"id": 7658, "title": "Code with GitHub Copilot", "devlogs_count": 0, "created_at": "2025-07-22T12:29:58.061-04:00"}], "coding_time_seconds": 964, "coding_time_seconds_today": 0, "balance": "You need to have a pocket watcher badge to view this.", "badges": [], "created_at": "2025-07-21T23:19:05.741-04:00", "updated_at": "2025-07-22T12:51:37.482-04:00", "avatar": "https://secure.gravatar.com/avatar/69200318d7be235ca87a9ead538da958.jpg?s=512&d=https%3A%2F%2Fa.slack-edge.com%2Fdf10d%2Fimg%2Favatars%2Fava_0014-512.png", "custom_css": null}, {"id": 17223, "slack_id": "U096V2ND0US", "display_name": "Laith Naaman", "bio": null, "projects_count": 0, "devlogs_count": 0, "votes_count": 0, "ships_count": 0, "projects": [], "coding_time_seconds": 0, "coding_time_seconds_today": 0, "balance": "You need to have a pocket watcher badge to view this.", "badges": [], "created_at": "2025-07-21T23:19:20.249-04:00", "updated_at": "2025-07-22T03:33:27.021-04:00", "avatar": "https://secure.gravatar.com/avatar/5f6785eb9e4e6d3ef84cb5fc22e7d01d.jpg?s=512&d=https%3A%2F%2Fa.slack-edge.com%2Fdf10d%2Fimg%2Favatars%2Fava_0016-512.png", "custom_css": null}, {"id": 17224, "slack_id": "U096W8MFC0L", "display_name": "Mayankraj Varma", "bio": null, "projects_count": 0, "devlogs_count": 0, "votes_count": 0, "ships_count": 0, "projects": [], "coding_time_seconds": 0, "coding_time_seconds_today": 0, "balance": "You need to have a pocket watcher badge to view this.", "badges": [], "created_at": "2025-07-21T23:20:02.729-04:00", "updated_at": "2025-07-22T03:33:27.099-04:00", "avatar": "https://secure.gravatar.com/avatar/88ff8167da3360e49cc6bd8db251794b.jpg?s=512&d=https%3A%2F%2Fa.slack-edge.com%2Fdf10d%2Fimg%2Favatars%2Fava_0002-512.png", "custom_css": null}, {"id": 17225, "slack_id": "U096PNV52MR", "display_name": "Charaka Mihiranga", "bio": null, "projects_count": 0, "devlogs_count": 0, "votes_count": 0, "ships_count": 0, "projects": [], "coding_time_seconds": 0, "coding_time_seconds_today": 0, "balance": "You need to have a pocket watcher badge to view this.", "badges": [], "created_at": "2025-07-21T23:21:35.740-04:00", "updated_at": "2025-07-22T03:33:27.180-04:00", "avatar": "https://secure.gravatar.com/avatar/3417dcfa35c45a029d4be12a1f86363c.jpg?s=512&d=https%3A%2F%2Fa.slack-edge.com%2Fdf10d%2Fimg%2Favatars%2Fava_0020-512.png", "custom_css": null}], "pagination": {"page": 857, "pages": 1192, "count": 23828, "items": 20}}