{"users": [{"id": 17246, "slack_id": "U097HFTS9NC", "display_name": "rokisaki", "bio": null, "projects_count": 0, "devlogs_count": 0, "votes_count": 0, "ships_count": 0, "projects": [], "coding_time_seconds": 0, "coding_time_seconds_today": 0, "balance": "You need to have a pocket watcher badge to view this.", "badges": [], "created_at": "2025-07-21T23:35:51.640-04:00", "updated_at": "2025-07-22T03:33:41.232-04:00", "avatar": "https://secure.gravatar.com/avatar/be24600895fc1f5b3733ef8df812c91b.jpg?s=512&d=https%3A%2F%2Fa.slack-edge.com%2Fdf10d%2Fimg%2Favatars%2Fava_0006-512.png", "custom_css": null}, {"id": 17247, "slack_id": "U096T4QP1AR", "display_name": "Anshul Mishra", "bio": null, "projects_count": 0, "devlogs_count": 0, "votes_count": 0, "ships_count": 0, "projects": [], "coding_time_seconds": 0, "coding_time_seconds_today": 0, "balance": "You need to have a pocket watcher badge to view this.", "badges": [], "created_at": "2025-07-21T23:35:58.198-04:00", "updated_at": "2025-07-22T03:33:41.319-04:00", "avatar": "https://secure.gravatar.com/avatar/66f91d5cd277bbc581b9d02390de5380.jpg?s=512&d=https%3A%2F%2Fa.slack-edge.com%2Fdf10d%2Fimg%2Favatars%2Fava_0014-512.png", "custom_css": null}, {"id": 17248, "slack_id": "U096V3T26HY", "display_name": "Govind Ratnakar Naik", "bio": null, "projects_count": 0, "devlogs_count": 0, "votes_count": 0, "ships_count": 0, "projects": [], "coding_time_seconds": 91466, "coding_time_seconds_today": 172, "balance": "You need to have a pocket watcher badge to view this.", "badges": [], "created_at": "2025-07-21T23:35:59.762-04:00", "updated_at": "2025-07-22T03:33:41.391-04:00", "avatar": "https://avatars.slack-edge.com/2025-07-21/9255552649056_1635517f80566cc5c840_original.png", "custom_css": null}, {"id": 17249, "slack_id": "U096W931X3N", "display_name": "Angelina", "bio": null, "projects_count": 0, "devlogs_count": 0, "votes_count": 0, "ships_count": 0, "projects": [], "coding_time_seconds": 0, "coding_time_seconds_today": 0, "balance": "You need to have a pocket watcher badge to view this.", "badges": [], "created_at": "2025-07-21T23:38:25.375-04:00", "updated_at": "2025-07-22T03:33:41.471-04:00", "avatar": "https://secure.gravatar.com/avatar/832d2432267e0eab6ce053c0a3b459c7.jpg?s=512&d=https%3A%2F%2Fa.slack-edge.com%2Fdf10d%2Fimg%2Favatars%2Fava_0000-512.png", "custom_css": null}, {"id": 17250, "slack_id": "U08QX5M20HY", "display_name": "Sai Smaran Araveti", "bio": null, "projects_count": 0, "devlogs_count": 0, "votes_count": 0, "ships_count": 0, "projects": [], "coding_time_seconds": 0, "coding_time_seconds_today": 0, "balance": "You need to have a pocket watcher badge to view this.", "badges": [], "created_at": "2025-07-21T23:41:49.376-04:00", "updated_at": "2025-07-23T06:23:00.279-04:00", "avatar": "https://avatars.slack-edge.com/2025-07-21/9255609485072_36eaa402c98e27d79d04_original.png", "custom_css": null}, {"id": 17251, "slack_id": "U096PQ9F30B", "display_name": "Bariksabarna", "bio": null, "projects_count": 0, "devlogs_count": 0, "votes_count": 0, "ships_count": 0, "projects": [], "coding_time_seconds": 0, "coding_time_seconds_today": 0, "balance": "You need to have a pocket watcher badge to view this.", "badges": [], "created_at": "2025-07-21T23:42:10.946-04:00", "updated_at": "2025-07-22T03:33:41.656-04:00", "avatar": "https://secure.gravatar.com/avatar/ac63bf623043d7e4d71d9d5955b2d9f9.jpg?s=512&d=https%3A%2F%2Fa.slack-edge.com%2Fdf10d%2Fimg%2Favatars%2Fava_0011-512.png", "custom_css": null}, {"id": 17252, "slack_id": "U096V4HF1H8", "display_name": "Ivan", "bio": null, "projects_count": 0, "devlogs_count": 0, "votes_count": 0, "ships_count": 0, "projects": [], "coding_time_seconds": 0, "coding_time_seconds_today": 0, "balance": "You need to have a pocket watcher badge to view this.", "badges": [], "created_at": "2025-07-21T23:42:14.781-04:00", "updated_at": "2025-07-22T03:33:41.740-04:00", "avatar": "https://secure.gravatar.com/avatar/b645b59c769c575640f8953d51a9b79a.jpg?s=512&d=https%3A%2F%2Fa.slack-edge.com%2Fdf10d%2Fimg%2Favatars%2Fava_0017-512.png", "custom_css": null}, {"id": 17253, "slack_id": "U09789L483B", "display_name": "Jah'swill Uchechi Emmanuel", "bio": null, "projects_count": 0, "devlogs_count": 0, "votes_count": 0, "ships_count": 0, "projects": [], "coding_time_seconds": 0, "coding_time_seconds_today": 0, "balance": "You need to have a pocket watcher badge to view this.", "badges": [], "created_at": "2025-07-21T23:43:40.429-04:00", "updated_at": "2025-07-22T03:33:45.862-04:00", "avatar": "https://secure.gravatar.com/avatar/7abbeb80b27130e919b06a9731df99a7.jpg?s=512&d=https%3A%2F%2Fa.slack-edge.com%2Fdf10d%2Fimg%2Favatars%2Fava_0014-512.png", "custom_css": null}, {"id": 17254, "slack_id": "U096WAV711A", "display_name": "Harsh", "bio": null, "projects_count": 0, "devlogs_count": 0, "votes_count": 0, "ships_count": 0, "projects": [], "coding_time_seconds": 39146, "coding_time_seconds_today": 671, "balance": "You need to have a pocket watcher badge to view this.", "badges": [], "created_at": "2025-07-21T23:44:17.084-04:00", "updated_at": "2025-08-11T01:39:04.019-04:00", "avatar": "https://secure.gravatar.com/avatar/15cde4e17420348d60e43bab7c9a4dec.jpg?s=512&d=https%3A%2F%2Fa.slack-edge.com%2Fdf10d%2Fimg%2Favatars%2Fava_0013-512.png", "custom_css": null}, {"id": 17255, "slack_id": "U096T57DB7F", "display_name": "Ayush Singh", "bio": null, "projects_count": 1, "devlogs_count": 0, "votes_count": 0, "ships_count": 0, "projects": [{"id": 7517, "title": "Social Media Moderation Service", "devlogs_count": 0, "created_at": "2025-07-22T02:16:18.368-04:00"}], "coding_time_seconds": 10055, "coding_time_seconds_today": 0, "balance": "You need to have a pocket watcher badge to view this.", "badges": [], "created_at": "2025-07-21T23:45:38.098-04:00", "updated_at": "2025-07-22T03:33:46.034-04:00", "avatar": "https://avatars.slack-edge.com/2025-07-21/9234394158516_77a12ad8188ef0f5b178_original.png", "custom_css": null}, {"id": 17256, "slack_id": "U09788YP76V", "display_name": "soujanya", "bio": null, "projects_count": 0, "devlogs_count": 0, "votes_count": 0, "ships_count": 0, "projects": [], "coding_time_seconds": 0, "coding_time_seconds_today": 0, "balance": "You need to have a pocket watcher badge to view this.", "badges": [], "created_at": "2025-07-21T23:46:05.286-04:00", "updated_at": "2025-07-22T03:33:46.129-04:00", "avatar": "https://secure.gravatar.com/avatar/a707b2fdfff0cf42e0710daf3c33e24c.jpg?s=512&d=https%3A%2F%2Fa.slack-edge.com%2Fdf10d%2Fimg%2Favatars%2Fava_0023-512.png", "custom_css": null}, {"id": 17257, "slack_id": "U096EC3P32T", "display_name": "Anirudh Asampalli", "bio": null, "projects_count": 0, "devlogs_count": 0, "votes_count": 0, "ships_count": 0, "projects": [], "coding_time_seconds": 33878, "coding_time_seconds_today": 0, "balance": "You need to have a pocket watcher badge to view this.", "badges": [], "created_at": "2025-07-21T23:46:26.303-04:00", "updated_at": "2025-07-22T03:33:46.221-04:00", "avatar": "https://secure.gravatar.com/avatar/8bab91e0ce5cce2442a60b59ae274a45.jpg?s=512&d=https%3A%2F%2Fa.slack-edge.com%2Fdf10d%2Fimg%2Favatars%2Fava_0016-512.png", "custom_css": null}, {"id": 17258, "slack_id": "U096V4W116E", "display_name": "Kartik", "bio": null, "projects_count": 0, "devlogs_count": 0, "votes_count": 1, "ships_count": 0, "projects": [], "coding_time_seconds": 2208, "coding_time_seconds_today": 0, "balance": "You need to have a pocket watcher badge to view this.", "badges": [], "created_at": "2025-07-21T23:46:39.106-04:00", "updated_at": "2025-07-22T03:33:46.323-04:00", "avatar": "https://secure.gravatar.com/avatar/10aeb07d3f9f80d2137d2a026628e1d0.jpg?s=512&d=https%3A%2F%2Fa.slack-edge.com%2Fdf10d%2Fimg%2Favatars%2Fava_0010-512.png", "custom_css": null}, {"id": 17259, "slack_id": "U096S1BR72A", "display_name": "Praveen Kumar T 24MCR078", "bio": null, "projects_count": 0, "devlogs_count": 0, "votes_count": 0, "ships_count": 0, "projects": [], "coding_time_seconds": 0, "coding_time_seconds_today": 0, "balance": "You need to have a pocket watcher badge to view this.", "badges": [], "created_at": "2025-07-21T23:47:11.065-04:00", "updated_at": "2025-07-22T03:33:50.431-04:00", "avatar": "https://avatars.slack-edge.com/2025-07-21/9246352467185_d94fa639f50269f454f1_original.png", "custom_css": null}, {"id": 17260, "slack_id": "U0978A4JXKK", "display_name": "Pranay", "bio": null, "projects_count": 0, "devlogs_count": 0, "votes_count": 0, "ships_count": 0, "projects": [], "coding_time_seconds": 2169, "coding_time_seconds_today": 0, "balance": "You need to have a pocket watcher badge to view this.", "badges": [], "created_at": "2025-07-21T23:47:16.635-04:00", "updated_at": "2025-07-22T03:33:50.528-04:00", "avatar": "https://secure.gravatar.com/avatar/1f12e8176e649655f1bcd4228545de7b.jpg?s=512&d=https%3A%2F%2Fa.slack-edge.com%2Fdf10d%2Fimg%2Favatars%2Fava_0012-512.png", "custom_css": null}, {"id": 17261, "slack_id": "U096V4S8QTU", "display_name": "Harsh Gupta", "bio": "", "projects_count": 0, "devlogs_count": 0, "votes_count": 0, "ships_count": 0, "projects": [], "coding_time_seconds": 0, "coding_time_seconds_today": 0, "balance": "You need to have a pocket watcher badge to view this.", "badges": [], "created_at": "2025-07-21T23:47:34.867-04:00", "updated_at": "2025-07-23T13:13:49.216-04:00", "avatar": "https://secure.gravatar.com/avatar/4609069f093a26d413b2029b8d1eb7a2.jpg?s=512&d=https%3A%2F%2Fa.slack-edge.com%2Fdf10d%2Fimg%2Favatars%2Fava_0000-512.png", "custom_css": null}, {"id": 17262, "slack_id": "U096EC632VD", "display_name": "Aliou Barry", "bio": null, "projects_count": 0, "devlogs_count": 0, "votes_count": 0, "ships_count": 0, "projects": [], "coding_time_seconds": 0, "coding_time_seconds_today": 0, "balance": "You need to have a pocket watcher badge to view this.", "badges": [], "created_at": "2025-07-21T23:48:22.132-04:00", "updated_at": "2025-07-22T03:33:50.704-04:00", "avatar": "https://secure.gravatar.com/avatar/03f77bc3a8bbdcb2599c4b39ef8b9ecb.jpg?s=512&d=https%3A%2F%2Fa.slack-edge.com%2Fdf10d%2Fimg%2Favatars%2Fava_0023-512.png", "custom_css": null}, {"id": 17263, "slack_id": "U096EBYPGJK", "display_name": "Aditya Pareek", "bio": null, "projects_count": 1, "devlogs_count": 1, "votes_count": 1, "ships_count": 1, "projects": [{"id": 9835, "title": "Music Genre System", "devlogs_count": 1, "created_at": "2025-08-02T12:17:45.463-04:00"}], "coding_time_seconds": 13173, "coding_time_seconds_today": 0, "balance": "You need to have a pocket watcher badge to view this.", "badges": [], "created_at": "2025-07-21T23:48:32.656-04:00", "updated_at": "2025-08-11T12:30:00.037-04:00", "avatar": "https://secure.gravatar.com/avatar/537d2340641447dfda1246d1e6350f9d.jpg?s=512&d=https%3A%2F%2Fa.slack-edge.com%2Fdf10d%2Fimg%2Favatars%2Fava_0025-512.png", "custom_css": null}, {"id": 17264, "slack_id": "U096S1J2Z0W", "display_name": "M.Parikshith", "bio": null, "projects_count": 0, "devlogs_count": 0, "votes_count": 0, "ships_count": 0, "projects": [], "coding_time_seconds": 0, "coding_time_seconds_today": 0, "balance": "You need to have a pocket watcher badge to view this.", "badges": [], "created_at": "2025-07-21T23:50:18.438-04:00", "updated_at": "2025-07-22T03:33:50.858-04:00", "avatar": "https://secure.gravatar.com/avatar/5beb9853b42a69c9381e8a98f1112493.jpg?s=512&d=https%3A%2F%2Fa.slack-edge.com%2Fdf10d%2Fimg%2Favatars%2Fava_0023-512.png", "custom_css": null}, {"id": 17265, "slack_id": "U097HGPMB0Q", "display_name": "Jhal Albert Berioso", "bio": null, "projects_count": 1, "devlogs_count": 0, "votes_count": 0, "ships_count": 0, "projects": [{"id": 7599, "title": "miru", "devlogs_count": 0, "created_at": "2025-07-22T08:37:17.436-04:00"}], "coding_time_seconds": 44818, "coding_time_seconds_today": 0, "balance": "You need to have a pocket watcher badge to view this.", "badges": [], "created_at": "2025-07-21T23:51:31.098-04:00", "updated_at": "2025-07-22T09:02:52.239-04:00", "avatar": "https://secure.gravatar.com/avatar/554d2b823c09b240f1b6525dca8f4a81.jpg?s=512&d=https%3A%2F%2Fa.slack-edge.com%2Fdf10d%2Fimg%2Favatars%2Fava_0020-512.png", "custom_css": null}], "pagination": {"page": 859, "pages": 1192, "count": 23828, "items": 20}}