{"users": [{"id": 1701, "slack_id": "U0918D7T5E3", "display_name": "Jack Pkn", "bio": null, "projects_count": 0, "devlogs_count": 0, "votes_count": 0, "ships_count": 0, "projects": [], "coding_time_seconds": 429600, "coding_time_seconds_today": 2264, "balance": "You need to have a pocket watcher badge to view this.", "badges": [], "created_at": "2025-06-16T13:47:33.509-04:00", "updated_at": "2025-07-03T19:18:50.329-04:00", "avatar": "https://avatars.slack-edge.com/2025-06-16/9057775937842_7b8093ae1f5f72c29c36_original.png", "custom_css": null}, {"id": 1702, "slack_id": "U08310CM2NL", "display_name": "Raghav Karn", "bio": null, "projects_count": 0, "devlogs_count": 0, "votes_count": 0, "ships_count": 0, "projects": [], "coding_time_seconds": 4704, "coding_time_seconds_today": 0, "balance": "You need to have a pocket watcher badge to view this.", "badges": [], "created_at": "2025-06-16T13:47:45.662-04:00", "updated_at": "2025-07-03T19:18:50.596-04:00", "avatar": "https://avatars.slack-edge.com/2025-02-06/8413366989572_1cf300775f2b34330968_original.jpg", "custom_css": null}, {"id": 1703, "slack_id": "U091GSTC3DL", "display_name": "Noah G", "bio": null, "projects_count": 1, "devlogs_count": 0, "votes_count": 0, "ships_count": 0, "projects": [{"id": 172, "title": "FluidForms", "devlogs_count": 0, "created_at": "2025-06-16T14:55:17.537-04:00"}], "coding_time_seconds": 36717, "coding_time_seconds_today": 0, "balance": "You need to have a pocket watcher badge to view this.", "badges": [], "created_at": "2025-06-16T13:47:49.947-04:00", "updated_at": "2025-07-16T19:55:01.163-04:00", "avatar": "https://avatars.slack-edge.com/2025-06-16/9050924086630_188c7ffad04f553cd656_original.png", "custom_css": null}, {"id": 1704, "slack_id": "U091FTUGGCT", "display_name": "jacob", "bio": null, "projects_count": 0, "devlogs_count": 31, "votes_count": 1, "ships_count": 0, "projects": [], "coding_time_seconds": 195643, "coding_time_seconds_today": 0, "balance": "You need to have a pocket watcher badge to view this.", "badges": [], "created_at": "2025-06-16T13:47:54.106-04:00", "updated_at": "2025-07-03T19:18:51.127-04:00", "avatar": "https://avatars.slack-edge.com/2025-06-16/9051121056422_7c343e27bdbc1405d5c9_original.jpg", "custom_css": null}, {"id": 1705, "slack_id": "U091GPUKT3M", "display_name": "Shubham", "bio": null, "projects_count": 0, "devlogs_count": 0, "votes_count": 0, "ships_count": 0, "projects": [], "coding_time_seconds": 0, "coding_time_seconds_today": 0, "balance": "You need to have a pocket watcher badge to view this.", "badges": [], "created_at": "2025-06-16T13:47:58.609-04:00", "updated_at": "2025-07-03T19:18:51.397-04:00", "avatar": "https://secure.gravatar.com/avatar/0392cb4e789c7d919d48eef981954a60.jpg?s=512&d=https%3A%2F%2Fa.slack-edge.com%2Fdf10d%2Fimg%2Favatars%2Fava_0013-512.png", "custom_css": null}, {"id": 1706, "slack_id": "U091MUXA9T7", "display_name": "Florian Kerd", "bio": null, "projects_count": 0, "devlogs_count": 0, "votes_count": 0, "ships_count": 0, "projects": [], "coding_time_seconds": 80924, "coding_time_seconds_today": 0, "balance": "You need to have a pocket watcher badge to view this.", "badges": [], "created_at": "2025-06-16T13:48:00.459-04:00", "updated_at": "2025-07-03T19:18:51.658-04:00", "avatar": "https://secure.gravatar.com/avatar/51d79d9af08063a014e55c21a6f67199.jpg?s=512&d=https%3A%2F%2Fa.slack-edge.com%2Fdf10d%2Fimg%2Favatars%2Fava_0005-512.png", "custom_css": null}, {"id": 1707, "slack_id": "U091Q4WDCGL", "display_name": "Mahbubul Alam", "bio": null, "projects_count": 0, "devlogs_count": 0, "votes_count": 0, "ships_count": 0, "projects": [], "coding_time_seconds": 0, "coding_time_seconds_today": 0, "balance": "You need to have a pocket watcher badge to view this.", "badges": [], "created_at": "2025-06-16T13:48:02.883-04:00", "updated_at": "2025-07-03T19:18:51.938-04:00", "avatar": "https://secure.gravatar.com/avatar/3f57e24a67c88b5293fea19f14f5614e.jpg?s=512&d=https%3A%2F%2Fa.slack-edge.com%2Fdf10d%2Fimg%2Favatars%2Fava_0019-512.png", "custom_css": null}, {"id": 1708, "slack_id": "U0918DHQTHV", "display_name": "dp", "bio": null, "projects_count": 0, "devlogs_count": 0, "votes_count": 0, "ships_count": 0, "projects": [], "coding_time_seconds": 0, "coding_time_seconds_today": 0, "balance": "You need to have a pocket watcher badge to view this.", "badges": [], "created_at": "2025-06-16T13:48:03.915-04:00", "updated_at": "2025-07-03T19:18:52.201-04:00", "avatar": "https://secure.gravatar.com/avatar/f2a0af7f8c89de732f518ae775cf811e.jpg?s=512&d=https%3A%2F%2Fa.slack-edge.com%2Fdf10d%2Fimg%2Favatars%2Fava_0019-512.png", "custom_css": null}, {"id": 1709, "slack_id": "U091MUNGPA9", "display_name": "Panagiotis Kouzaris", "bio": null, "projects_count": 0, "devlogs_count": 0, "votes_count": 0, "ships_count": 0, "projects": [], "coding_time_seconds": 360, "coding_time_seconds_today": 0, "balance": "You need to have a pocket watcher badge to view this.", "badges": [], "created_at": "2025-06-16T13:48:10.887-04:00", "updated_at": "2025-07-03T19:18:52.479-04:00", "avatar": "https://avatars.slack-edge.com/2025-06-16/9042472228263_06336d68ec5d3404a247_original.webp", "custom_css": null}, {"id": 1710, "slack_id": "U092C6VPUAC", "display_name": "Muzammil Odho", "bio": null, "projects_count": 0, "devlogs_count": 0, "votes_count": 0, "ships_count": 0, "projects": [], "coding_time_seconds": 6, "coding_time_seconds_today": 0, "balance": "You need to have a pocket watcher badge to view this.", "badges": [], "created_at": "2025-06-16T13:48:22.780-04:00", "updated_at": "2025-07-03T19:18:52.771-04:00", "avatar": "https://secure.gravatar.com/avatar/cf79a5763bf125e2c88bbab10f036671.jpg?s=512&d=https%3A%2F%2Fa.slack-edge.com%2Fdf10d%2Fimg%2Favatars%2Fava_0001-512.png", "custom_css": null}, {"id": 1711, "slack_id": "U091Q4J96P6", "display_name": "Malik Zeeshan", "bio": null, "projects_count": 0, "devlogs_count": 0, "votes_count": 0, "ships_count": 0, "projects": [], "coding_time_seconds": 0, "coding_time_seconds_today": 0, "balance": "You need to have a pocket watcher badge to view this.", "badges": [], "created_at": "2025-06-16T13:48:24.859-04:00", "updated_at": "2025-07-03T19:18:53.032-04:00", "avatar": "https://avatars.slack-edge.com/2025-06-16/9042472130215_02a65ca37f9941e9c95e_original.png", "custom_css": null}, {"id": 1712, "slack_id": "U091PNK0WM8", "display_name": "Saleheen Uddin Sakin", "bio": "Nothing worth mentioning...", "projects_count": 0, "devlogs_count": 0, "votes_count": 0, "ships_count": 0, "projects": [], "coding_time_seconds": 700525, "coding_time_seconds_today": 1680, "balance": "You need to have a pocket watcher badge to view this.", "badges": [], "created_at": "2025-06-16T13:48:34.969-04:00", "updated_at": "2025-07-03T19:18:53.310-04:00", "avatar": "https://secure.gravatar.com/avatar/53d09988150c2bd0f686f6bac8d1b7e3.jpg?s=512&d=https%3A%2F%2Fa.slack-edge.com%2Fdf10d%2Fimg%2Favatars%2Fava_0023-512.png", "custom_css": null}, {"id": 1713, "slack_id": "U09228F8DL1", "display_name": "Ameen", "bio": null, "projects_count": 0, "devlogs_count": 0, "votes_count": 0, "ships_count": 0, "projects": [], "coding_time_seconds": 0, "coding_time_seconds_today": 0, "balance": "You need to have a pocket watcher badge to view this.", "badges": [], "created_at": "2025-06-16T13:48:37.296-04:00", "updated_at": "2025-07-03T19:18:53.578-04:00", "avatar": "https://secure.gravatar.com/avatar/a8265f69d89f8f11d4757f7e7d887bc1.jpg?s=512&d=https%3A%2F%2Fa.slack-edge.com%2Fdf10d%2Fimg%2Favatars%2Fava_0021-512.png", "custom_css": null}, {"id": 1714, "slack_id": "U091PNLJFBL", "display_name": "Ario", "bio": null, "projects_count": 0, "devlogs_count": 0, "votes_count": 0, "ships_count": 0, "projects": [], "coding_time_seconds": 0, "coding_time_seconds_today": 0, "balance": "You need to have a pocket watcher badge to view this.", "badges": [], "created_at": "2025-06-16T13:48:49.973-04:00", "updated_at": "2025-07-03T19:18:53.852-04:00", "avatar": "https://secure.gravatar.com/avatar/79bf7dd9dedbf94c71422c52db6c41bb.jpg?s=512&d=https%3A%2F%2Fa.slack-edge.com%2Fdf10d%2Fimg%2Favatars%2Fava_0022-512.png", "custom_css": null}, {"id": 1715, "slack_id": "U078F3Q2007", "display_name": "shr", "bio": null, "projects_count": 0, "devlogs_count": 0, "votes_count": 0, "ships_count": 0, "projects": [], "coding_time_seconds": 10397, "coding_time_seconds_today": 0, "balance": "You need to have a pocket watcher badge to view this.", "badges": [], "created_at": "2025-06-16T13:49:07.316-04:00", "updated_at": "2025-09-13T20:27:53.999-04:00", "avatar": "https://secure.gravatar.com/avatar/af3bb88d313dd5365a0a6ead62b749eb.jpg?s=512&d=https%3A%2F%2Fa.slack-edge.com%2Fdf10d%2Fimg%2Favatars%2Fava_0021-512.png", "custom_css": null}, {"id": 1716, "slack_id": "U091PNKD17U", "display_name": "Mustafa", "bio": null, "projects_count": 0, "devlogs_count": 0, "votes_count": 0, "ships_count": 0, "projects": [], "coding_time_seconds": 157536, "coding_time_seconds_today": 0, "balance": "You need to have a pocket watcher badge to view this.", "badges": [], "created_at": "2025-06-16T13:49:11.781-04:00", "updated_at": "2025-07-03T19:18:54.395-04:00", "avatar": "https://secure.gravatar.com/avatar/0fd061f2d7e451bbaff8dde0c5c6999d.jpg?s=512&d=https%3A%2F%2Fa.slack-edge.com%2Fdf10d%2Fimg%2Favatars%2Fava_0007-512.png", "custom_css": null}, {"id": 1717, "slack_id": "U091GQ1RPDH", "display_name": "Anthony Lobl", "bio": null, "projects_count": 0, "devlogs_count": 0, "votes_count": 0, "ships_count": 0, "projects": [], "coding_time_seconds": 34067, "coding_time_seconds_today": 0, "balance": "You need to have a pocket watcher badge to view this.", "badges": [], "created_at": "2025-06-16T13:49:37.694-04:00", "updated_at": "2025-07-06T20:02:18.030-04:00", "avatar": "https://avatars.slack-edge.com/2025-07-05/9148361060758_32885e5e1a9ca70efc1d_original.jpg", "custom_css": null}, {"id": 1718, "slack_id": "U05KCTP8TLJ", "display_name": "D'anonymousCoder", "bio": null, "projects_count": 0, "devlogs_count": 0, "votes_count": 1, "ships_count": 0, "projects": [], "coding_time_seconds": 216414, "coding_time_seconds_today": 0, "balance": "You need to have a pocket watcher badge to view this.", "badges": [], "created_at": "2025-06-16T13:49:39.251-04:00", "updated_at": "2025-07-03T19:18:54.927-04:00", "avatar": "https://avatars.slack-edge.com/2023-08-28/5805399134950_2beb0255004cff6e88fe_original.png", "custom_css": null}, {"id": 1719, "slack_id": "U0825RGKK7S", "display_name": "Robert Z", "bio": null, "projects_count": 4, "devlogs_count": 38, "votes_count": 47, "ships_count": 3, "projects": [{"id": 2254, "title": "SixStones - Minecraft Plugin", "devlogs_count": 5, "created_at": "2025-06-20T15:11:01.280-04:00"}, {"id": 10375, "title": "Bad Apple!! but in Finder", "devlogs_count": 4, "created_at": "2025-08-06T12:26:43.748-04:00"}, {"id": 10996, "title": "Clear Clouds", "devlogs_count": 7, "created_at": "2025-08-12T09:37:40.951-04:00"}, {"id": 4004, "title": "Portfolio", "devlogs_count": 22, "created_at": "2025-06-26T19:30:51.889-04:00"}], "coding_time_seconds": 340144, "coding_time_seconds_today": 0, "balance": "You need to have a pocket watcher badge to view this.", "badges": [{"name": "Maiden Voyage", "text": "you shipped your first project! the journey begins...", "icon": "\ud83d\udea2"}], "created_at": "2025-06-16T13:49:45.980-04:00", "updated_at": "2025-09-10T22:52:01.056-04:00", "avatar": "https://secure.gravatar.com/avatar/f4d25a67b9359da287d1342cdadab1c6.jpg?s=512&d=https%3A%2F%2Fa.slack-edge.com%2Fdf10d%2Fimg%2Favatars%2Fava_0011-512.png", "custom_css": null}, {"id": 1720, "slack_id": "U07B5ES1P9T", "display_name": "Malcolm Roalson", "bio": null, "projects_count": 1, "devlogs_count": 4, "votes_count": 0, "ships_count": 1, "projects": [{"id": 1381, "title": "Voidwatch", "devlogs_count": 4, "created_at": "2025-06-18T12:52:17.225-04:00"}], "coding_time_seconds": 485483, "coding_time_seconds_today": 248, "balance": "You need to have a pocket watcher badge to view this.", "badges": [{"name": "Maiden Voyage", "text": "you shipped your first project! the journey begins...", "icon": "\ud83d\udea2"}], "created_at": "2025-06-16T13:49:50.665-04:00", "updated_at": "2025-09-22T00:03:22.910-04:00", "avatar": "https://secure.gravatar.com/avatar/a40a74cc8edc43bf28e7df9f85348531.jpg?s=512&d=https%3A%2F%2Fa.slack-edge.com%2Fdf10d%2Fimg%2Favatars%2Fava_0012-512.png", "custom_css": null}], "pagination": {"page": 86, "pages": 1192, "count": 23828, "items": 20}}