{"users": [{"id": 17286, "slack_id": "U096S37A030", "display_name": "Nidharshana R", "bio": null, "projects_count": 0, "devlogs_count": 0, "votes_count": 0, "ships_count": 0, "projects": [], "coding_time_seconds": 1956, "coding_time_seconds_today": 0, "balance": "You need to have a pocket watcher badge to view this.", "badges": [], "created_at": "2025-07-22T00:07:02.545-04:00", "updated_at": "2025-07-22T03:34:00.857-04:00", "avatar": "https://avatars.slack-edge.com/2025-07-21/9246411617697_74b5854b1085484780ec_original.png", "custom_css": null}, {"id": 17287, "slack_id": "U096T7A0WF7", "display_name": "Sanoj Ahamed", "bio": null, "projects_count": 0, "devlogs_count": 0, "votes_count": 0, "ships_count": 0, "projects": [], "coding_time_seconds": 0, "coding_time_seconds_today": 0, "balance": "You need to have a pocket watcher badge to view this.", "badges": [], "created_at": "2025-07-22T00:07:17.873-04:00", "updated_at": "2025-07-22T03:34:00.947-04:00", "avatar": "https://secure.gravatar.com/avatar/f1170b2e8a4fb85a0ced2fac0bdad6d7.jpg?s=512&d=https%3A%2F%2Fa.slack-edge.com%2Fdf10d%2Fimg%2Favatars%2Fava_0007-512.png", "custom_css": null}, {"id": 17288, "slack_id": "U096WD6VAVA", "display_name": "john", "bio": null, "projects_count": 0, "devlogs_count": 0, "votes_count": 0, "ships_count": 0, "projects": [], "coding_time_seconds": 0, "coding_time_seconds_today": 0, "balance": "You need to have a pocket watcher badge to view this.", "badges": [], "created_at": "2025-07-22T00:09:01.364-04:00", "updated_at": "2025-07-22T03:34:01.027-04:00", "avatar": "https://secure.gravatar.com/avatar/527ad6923f30e6312bb0b7d6c71f3755.jpg?s=512&d=https%3A%2F%2Fa.slack-edge.com%2Fdf10d%2Fimg%2Favatars%2Fava_0021-512.png", "custom_css": null}, {"id": 17289, "slack_id": "U096PSQMP5H", "display_name": "Arkab_", "bio": null, "projects_count": 0, "devlogs_count": 0, "votes_count": 0, "ships_count": 0, "projects": [], "coding_time_seconds": 0, "coding_time_seconds_today": 0, "balance": "You need to have a pocket watcher badge to view this.", "badges": [], "created_at": "2025-07-22T00:09:07.745-04:00", "updated_at": "2025-07-22T03:34:01.114-04:00", "avatar": "https://secure.gravatar.com/avatar/49ba7fbd65e323e17a49eb15bfa9b4ad.jpg?s=512&d=https%3A%2F%2Fa.slack-edge.com%2Fdf10d%2Fimg%2Favatars%2Fava_0006-512.png", "custom_css": null}, {"id": 17290, "slack_id": "U096EDZE78F", "display_name": "Ayobami Adeyemi Akande", "bio": null, "projects_count": 0, "devlogs_count": 0, "votes_count": 0, "ships_count": 0, "projects": [], "coding_time_seconds": 24611, "coding_time_seconds_today": 0, "balance": "You need to have a pocket watcher badge to view this.", "badges": [], "created_at": "2025-07-22T00:09:10.111-04:00", "updated_at": "2025-07-22T08:05:43.213-04:00", "avatar": "https://secure.gravatar.com/avatar/422608c567dcc004f304e7a93ba1da6b.jpg?s=512&d=https%3A%2F%2Fa.slack-edge.com%2Fdf10d%2Fimg%2Favatars%2Fava_0014-512.png", "custom_css": null}, {"id": 17291, "slack_id": "U0978BYGFH7", "display_name": "Sanuka Rajith", "bio": null, "projects_count": 0, "devlogs_count": 0, "votes_count": 0, "ships_count": 0, "projects": [], "coding_time_seconds": 0, "coding_time_seconds_today": 0, "balance": "You need to have a pocket watcher badge to view this.", "badges": [], "created_at": "2025-07-22T00:09:26.245-04:00", "updated_at": "2025-07-22T03:34:05.317-04:00", "avatar": "https://avatars.slack-edge.com/2025-07-21/9227921169187_8f2135d000f70274495e_original.png", "custom_css": null}, {"id": 17292, "slack_id": "U096PSV0CN7", "display_name": "Amasai", "bio": null, "projects_count": 0, "devlogs_count": 0, "votes_count": 0, "ships_count": 0, "projects": [], "coding_time_seconds": 0, "coding_time_seconds_today": 0, "balance": "You need to have a pocket watcher badge to view this.", "badges": [], "created_at": "2025-07-22T00:09:41.609-04:00", "updated_at": "2025-07-22T03:34:05.396-04:00", "avatar": "https://secure.gravatar.com/avatar/1cc0fb9b572fa4f66272b1616f16216d.jpg?s=512&d=https%3A%2F%2Fa.slack-edge.com%2Fdf10d%2Fimg%2Favatars%2Fava_0011-512.png", "custom_css": null}, {"id": 17293, "slack_id": "U096S3GFX8E", "display_name": "Chris Benson", "bio": null, "projects_count": 0, "devlogs_count": 0, "votes_count": 0, "ships_count": 0, "projects": [], "coding_time_seconds": 0, "coding_time_seconds_today": 0, "balance": "You need to have a pocket watcher badge to view this.", "badges": [], "created_at": "2025-07-22T00:09:48.941-04:00", "updated_at": "2025-07-22T03:34:05.478-04:00", "avatar": "https://secure.gravatar.com/avatar/76b8212c27b19097774423a96cbe71fd.jpg?s=512&d=https%3A%2F%2Fa.slack-edge.com%2Fdf10d%2Fimg%2Favatars%2Fava_0017-512.png", "custom_css": null}, {"id": 17294, "slack_id": "U096PSVGAPM", "display_name": "Hackerom", "bio": null, "projects_count": 0, "devlogs_count": 0, "votes_count": 0, "ships_count": 0, "projects": [], "coding_time_seconds": 604, "coding_time_seconds_today": 0, "balance": "You need to have a pocket watcher badge to view this.", "badges": [], "created_at": "2025-07-22T00:10:42.667-04:00", "updated_at": "2025-07-22T03:34:05.563-04:00", "avatar": "https://secure.gravatar.com/avatar/bb237c675c62f708431d4670f47a605c.jpg?s=512&d=https%3A%2F%2Fa.slack-edge.com%2Fdf10d%2Fimg%2Favatars%2Fava_0007-512.png", "custom_css": null}, {"id": 17295, "slack_id": "U096S2WRN3Y", "display_name": "Sajib Adhikary", "bio": null, "projects_count": 0, "devlogs_count": 0, "votes_count": 0, "ships_count": 0, "projects": [], "coding_time_seconds": 20447, "coding_time_seconds_today": 0, "balance": "You need to have a pocket watcher badge to view this.", "badges": [], "created_at": "2025-07-22T00:10:48.937-04:00", "updated_at": "2025-07-22T03:34:05.646-04:00", "avatar": "https://secure.gravatar.com/avatar/9ce846985ad477227230bf021301d8de.jpg?s=512&d=https%3A%2F%2Fa.slack-edge.com%2Fdf10d%2Fimg%2Favatars%2Fava_0007-512.png", "custom_css": null}, {"id": 17296, "slack_id": "U096T7JQ7S9", "display_name": "Sudip Khatri", "bio": null, "projects_count": 0, "devlogs_count": 0, "votes_count": 0, "ships_count": 0, "projects": [], "coding_time_seconds": 0, "coding_time_seconds_today": 0, "balance": "You need to have a pocket watcher badge to view this.", "badges": [], "created_at": "2025-07-22T00:10:53.545-04:00", "updated_at": "2025-07-22T03:34:05.735-04:00", "avatar": "https://secure.gravatar.com/avatar/ec6e1eef599365e8fbc63a587de83c7f.jpg?s=512&d=https%3A%2F%2Fa.slack-edge.com%2Fdf10d%2Fimg%2Favatars%2Fava_0015-512.png", "custom_css": null}, {"id": 17297, "slack_id": "U096V71NGFL", "display_name": "Haseeb Ahmed", "bio": null, "projects_count": 0, "devlogs_count": 0, "votes_count": 0, "ships_count": 0, "projects": [], "coding_time_seconds": 408246, "coding_time_seconds_today": 1147, "balance": "You need to have a pocket watcher badge to view this.", "badges": [], "created_at": "2025-07-22T00:11:06.782-04:00", "updated_at": "2025-07-22T03:34:05.814-04:00", "avatar": "https://secure.gravatar.com/avatar/afc6f3858f1b92fb27ec785e8d3ac979.jpg?s=512&d=https%3A%2F%2Fa.slack-edge.com%2Fdf10d%2Fimg%2Favatars%2Fava_0025-512.png", "custom_css": null}, {"id": 17298, "slack_id": "U096WDEBV6G", "display_name": "Fiona", "bio": null, "projects_count": 0, "devlogs_count": 0, "votes_count": 0, "ships_count": 0, "projects": [], "coding_time_seconds": 0, "coding_time_seconds_today": 0, "balance": "You need to have a pocket watcher badge to view this.", "badges": [], "created_at": "2025-07-22T00:11:21.177-04:00", "updated_at": "2025-07-22T03:34:05.892-04:00", "avatar": "https://secure.gravatar.com/avatar/476d485846637ec2ca338588558c971f.jpg?s=512&d=https%3A%2F%2Fa.slack-edge.com%2Fdf10d%2Fimg%2Favatars%2Fava_0002-512.png", "custom_css": null}, {"id": 17299, "slack_id": "U096EE5K06B", "display_name": "Raushan Kumar Thakur", "bio": null, "projects_count": 0, "devlogs_count": 0, "votes_count": 0, "ships_count": 0, "projects": [], "coding_time_seconds": 0, "coding_time_seconds_today": 0, "balance": "You need to have a pocket watcher badge to view this.", "badges": [], "created_at": "2025-07-22T00:11:38.889-04:00", "updated_at": "2025-07-22T03:34:05.978-04:00", "avatar": "https://avatars.slack-edge.com/2025-07-21/9218501707303_53c8c1d5b377650fcd70_original.png", "custom_css": null}, {"id": 17300, "slack_id": "U0978BGK9Q9", "display_name": "Lavanya Amara", "bio": null, "projects_count": 0, "devlogs_count": 0, "votes_count": 0, "ships_count": 0, "projects": [], "coding_time_seconds": 0, "coding_time_seconds_today": 0, "balance": "You need to have a pocket watcher badge to view this.", "badges": [], "created_at": "2025-07-22T00:12:24.948-04:00", "updated_at": "2025-07-22T03:34:06.064-04:00", "avatar": "https://secure.gravatar.com/avatar/66dd80d80e6820196b40fe460660a24d.jpg?s=512&d=https%3A%2F%2Fa.slack-edge.com%2Fdf10d%2Fimg%2Favatars%2Fava_0022-512.png", "custom_css": null}, {"id": 17301, "slack_id": "U096T7R8XRB", "display_name": "Malay Bhavsar", "bio": null, "projects_count": 0, "devlogs_count": 0, "votes_count": 0, "ships_count": 0, "projects": [], "coding_time_seconds": 0, "coding_time_seconds_today": 0, "balance": "You need to have a pocket watcher badge to view this.", "badges": [], "created_at": "2025-07-22T00:13:06.546-04:00", "updated_at": "2025-07-22T16:21:49.858-04:00", "avatar": "https://secure.gravatar.com/avatar/9b8c7d79ae34afb6c8e266f744b72f2a.jpg?s=512&d=https%3A%2F%2Fa.slack-edge.com%2Fdf10d%2Fimg%2Favatars%2Fava_0003-512.png", "custom_css": null}, {"id": 17302, "slack_id": "U097HJZD8BA", "display_name": "Tyler", "bio": null, "projects_count": 0, "devlogs_count": 0, "votes_count": 0, "ships_count": 0, "projects": [], "coding_time_seconds": 0, "coding_time_seconds_today": 0, "balance": "You need to have a pocket watcher badge to view this.", "badges": [], "created_at": "2025-07-22T00:13:30.177-04:00", "updated_at": "2025-07-22T03:34:10.248-04:00", "avatar": "https://secure.gravatar.com/avatar/a01292342d87c5c6b95b8d6eb5dfeb00.jpg?s=512&d=https%3A%2F%2Fa.slack-edge.com%2Fdf10d%2Fimg%2Favatars%2Fava_0024-512.png", "custom_css": null}, {"id": 17303, "slack_id": "U096PT114R1", "display_name": "7A46 Rohi", "bio": null, "projects_count": 1, "devlogs_count": 0, "votes_count": 0, "ships_count": 0, "projects": [{"id": 7498, "title": "My Project", "devlogs_count": 0, "created_at": "2025-07-22T00:48:20.044-04:00"}], "coding_time_seconds": 484, "coding_time_seconds_today": 0, "balance": "You need to have a pocket watcher badge to view this.", "badges": [], "created_at": "2025-07-22T00:13:36.127-04:00", "updated_at": "2025-07-22T03:34:10.332-04:00", "avatar": "https://avatars.slack-edge.com/2025-07-21/9227933555811_3e3658631c67d607aaad_original.jpg", "custom_css": null}, {"id": 17304, "slack_id": "U096V7D0D0S", "display_name": "J\u00fcrgen", "bio": null, "projects_count": 0, "devlogs_count": 0, "votes_count": 0, "ships_count": 0, "projects": [], "coding_time_seconds": 8562, "coding_time_seconds_today": 0, "balance": "You need to have a pocket watcher badge to view this.", "badges": [], "created_at": "2025-07-22T00:15:17.552-04:00", "updated_at": "2025-07-22T03:34:10.421-04:00", "avatar": "https://secure.gravatar.com/avatar/4c6a1d2537c22046bd9309e634b43656.jpg?s=512&d=https%3A%2F%2Fa.slack-edge.com%2Fdf10d%2Fimg%2Favatars%2Fava_0012-512.png", "custom_css": null}, {"id": 17305, "slack_id": "U097HJXQC72", "display_name": "Divyanshu Kumar", "bio": null, "projects_count": 0, "devlogs_count": 0, "votes_count": 0, "ships_count": 0, "projects": [], "coding_time_seconds": 0, "coding_time_seconds_today": 0, "balance": "You need to have a pocket watcher badge to view this.", "badges": [], "created_at": "2025-07-22T00:15:24.054-04:00", "updated_at": "2025-07-22T03:34:10.510-04:00", "avatar": "https://secure.gravatar.com/avatar/cc9347bfc48e830d2005bc5ef6e91ae1.jpg?s=512&d=https%3A%2F%2Fa.slack-edge.com%2Fdf10d%2Fimg%2Favatars%2Fava_0015-512.png", "custom_css": null}], "pagination": {"page": 861, "pages": 1192, "count": 23828, "items": 20}}