{"users": [{"id": 17306, "slack_id": "U0978CDEZNV", "display_name": "David Martinez", "bio": null, "projects_count": 0, "devlogs_count": 0, "votes_count": 0, "ships_count": 0, "projects": [], "coding_time_seconds": 0, "coding_time_seconds_today": 0, "balance": "You need to have a pocket watcher badge to view this.", "badges": [], "created_at": "2025-07-22T00:15:34.367-04:00", "updated_at": "2025-07-22T03:34:10.593-04:00", "avatar": "https://secure.gravatar.com/avatar/a12e6c70b0cdc092a9ccbac20af089a8.jpg?s=512&d=https%3A%2F%2Fa.slack-edge.com%2Fdf10d%2Fimg%2Favatars%2Fava_0017-512.png", "custom_css": null}, {"id": 17307, "slack_id": "U097HJZQU3A", "display_name": "Sanduni Lakshika", "bio": null, "projects_count": 0, "devlogs_count": 0, "votes_count": 0, "ships_count": 0, "projects": [], "coding_time_seconds": 0, "coding_time_seconds_today": 0, "balance": "You need to have a pocket watcher badge to view this.", "badges": [], "created_at": "2025-07-22T00:15:48.238-04:00", "updated_at": "2025-07-22T03:34:10.678-04:00", "avatar": "https://secure.gravatar.com/avatar/82f176916616156e00263434ff544061.jpg?s=512&d=https%3A%2F%2Fa.slack-edge.com%2Fdf10d%2Fimg%2Favatars%2Fava_0011-512.png", "custom_css": null}, {"id": 17308, "slack_id": "U096WE0PHA8", "display_name": "Charanefw", "bio": null, "projects_count": 0, "devlogs_count": 0, "votes_count": 0, "ships_count": 0, "projects": [], "coding_time_seconds": 483, "coding_time_seconds_today": 0, "balance": "You need to have a pocket watcher badge to view this.", "badges": [], "created_at": "2025-07-22T00:16:16.107-04:00", "updated_at": "2025-07-22T03:34:10.765-04:00", "avatar": "https://secure.gravatar.com/avatar/3dcf3c04fbdc07f9791fa4d2c837302c.jpg?s=512&d=https%3A%2F%2Fa.slack-edge.com%2Fdf10d%2Fimg%2Favatars%2Fava_0013-512.png", "custom_css": null}, {"id": 17309, "slack_id": "U096S429HE2", "display_name": "Krzysztof", "bio": null, "projects_count": 0, "devlogs_count": 0, "votes_count": 0, "ships_count": 0, "projects": [], "coding_time_seconds": 0, "coding_time_seconds_today": 0, "balance": "You need to have a pocket watcher badge to view this.", "badges": [], "created_at": "2025-07-22T00:16:52.026-04:00", "updated_at": "2025-07-22T03:34:10.852-04:00", "avatar": "https://secure.gravatar.com/avatar/bab150ffaef7b9f46947d7cbaa81f50e.jpg?s=512&d=https%3A%2F%2Fa.slack-edge.com%2Fdf10d%2Fimg%2Favatars%2Fava_0018-512.png", "custom_css": null}, {"id": 17310, "slack_id": "U096V7NAYDQ", "display_name": "Abhay Bhardwaj", "bio": null, "projects_count": 0, "devlogs_count": 0, "votes_count": 0, "ships_count": 0, "projects": [], "coding_time_seconds": 156, "coding_time_seconds_today": 0, "balance": "You need to have a pocket watcher badge to view this.", "badges": [], "created_at": "2025-07-22T00:16:56.801-04:00", "updated_at": "2025-07-22T03:34:10.941-04:00", "avatar": "https://avatars.slack-edge.com/2025-07-21/9246439633921_a77ab6d73845f25a402a_original.png", "custom_css": null}, {"id": 17311, "slack_id": "U096V0XD04S", "display_name": "Monu Meena", "bio": null, "projects_count": 0, "devlogs_count": 0, "votes_count": 0, "ships_count": 0, "projects": [], "coding_time_seconds": 0, "coding_time_seconds_today": 0, "balance": "You need to have a pocket watcher badge to view this.", "badges": [], "created_at": "2025-07-22T00:16:57.625-04:00", "updated_at": "2025-07-22T03:34:11.039-04:00", "avatar": "https://secure.gravatar.com/avatar/0dd41e7e052403ae7e119313f0536207.jpg?s=512&d=https%3A%2F%2Fa.slack-edge.com%2Fdf10d%2Fimg%2Favatars%2Fava_0010-512.png", "custom_css": null}, {"id": 17312, "slack_id": "U096T7WRL9K", "display_name": "KingJ", "bio": null, "projects_count": 0, "devlogs_count": 0, "votes_count": 0, "ships_count": 0, "projects": [], "coding_time_seconds": 0, "coding_time_seconds_today": 0, "balance": "You need to have a pocket watcher badge to view this.", "badges": [], "created_at": "2025-07-22T00:17:40.463-04:00", "updated_at": "2025-07-22T03:34:11.142-04:00", "avatar": "https://secure.gravatar.com/avatar/11fd43d8978313f6e40eb97308500b29.jpg?s=512&d=https%3A%2F%2Fa.slack-edge.com%2Fdf10d%2Fimg%2Favatars%2Fava_0007-512.png", "custom_css": null}, {"id": 17313, "slack_id": "U0978CT35S5", "display_name": "Charvi Mishra", "bio": "I'm an adult and I didn't know about this program being exclusively for teenagers but it was fun. However I wish I too could get rewards :(", "projects_count": 0, "devlogs_count": 4, "votes_count": 14, "ships_count": 0, "projects": [], "coding_time_seconds": 204039, "coding_time_seconds_today": 0, "balance": "You need to have a pocket watcher badge to view this.", "badges": [], "created_at": "2025-07-22T00:18:40.394-04:00", "updated_at": "2025-08-12T02:09:48.034-04:00", "avatar": "https://secure.gravatar.com/avatar/de783ab0b655e4713d939cbbe8614567.jpg?s=512&d=https%3A%2F%2Fa.slack-edge.com%2Fdf10d%2Fimg%2Favatars%2Fava_0024-512.png", "custom_css": null}, {"id": 17314, "slack_id": "U096EF1MGEB", "display_name": "Prafful", "bio": null, "projects_count": 2, "devlogs_count": 0, "votes_count": 0, "ships_count": 0, "projects": [{"id": 7502, "title": "Portfolio", "devlogs_count": 0, "created_at": "2025-07-22T00:57:36.423-04:00"}, {"id": 7503, "title": "ResumeCraft", "devlogs_count": 0, "created_at": "2025-07-22T01:01:44.405-04:00"}], "coding_time_seconds": 241, "coding_time_seconds_today": 0, "balance": "You need to have a pocket watcher badge to view this.", "badges": [], "created_at": "2025-07-22T00:19:59.045-04:00", "updated_at": "2025-07-22T13:57:17.464-04:00", "avatar": "https://secure.gravatar.com/avatar/8797e888e8d8a814213eda15fe4bea4b.jpg?s=512&d=https%3A%2F%2Fa.slack-edge.com%2Fdf10d%2Fimg%2Favatars%2Fava_0002-512.png", "custom_css": null}, {"id": 17315, "slack_id": "U097HKA6AGY", "display_name": "Anaya", "bio": null, "projects_count": 0, "devlogs_count": 0, "votes_count": 0, "ships_count": 0, "projects": [], "coding_time_seconds": 0, "coding_time_seconds_today": 0, "balance": "You need to have a pocket watcher badge to view this.", "badges": [], "created_at": "2025-07-22T00:20:36.861-04:00", "updated_at": "2025-07-22T03:34:15.441-04:00", "avatar": "https://secure.gravatar.com/avatar/c1989c8b8262e2f0249dc5bac84c122c.jpg?s=512&d=https%3A%2F%2Fa.slack-edge.com%2Fdf10d%2Fimg%2Favatars%2Fava_0007-512.png", "custom_css": null}, {"id": 17316, "slack_id": "U097HKENTAL", "display_name": "Deelip", "bio": null, "projects_count": 0, "devlogs_count": 0, "votes_count": 0, "ships_count": 0, "projects": [], "coding_time_seconds": 0, "coding_time_seconds_today": 0, "balance": "You need to have a pocket watcher badge to view this.", "badges": [], "created_at": "2025-07-22T00:21:22.453-04:00", "updated_at": "2025-07-22T03:34:15.550-04:00", "avatar": "https://secure.gravatar.com/avatar/71c8a98304cb92fbe88207e31a0458e3.jpg?s=512&d=https%3A%2F%2Fa.slack-edge.com%2Fdf10d%2Fimg%2Favatars%2Fava_0001-512.png", "custom_css": null}, {"id": 17317, "slack_id": "U097H9G0RLG", "display_name": "Pranchal", "bio": null, "projects_count": 0, "devlogs_count": 0, "votes_count": 0, "ships_count": 0, "projects": [], "coding_time_seconds": 0, "coding_time_seconds_today": 0, "balance": "You need to have a pocket watcher badge to view this.", "badges": [], "created_at": "2025-07-22T00:21:40.079-04:00", "updated_at": "2025-07-22T03:34:15.626-04:00", "avatar": "https://avatars.slack-edge.com/2025-07-21/9231299969077_7523ffcbe4dea2ed2611_original.png", "custom_css": null}, {"id": 17318, "slack_id": "U096S4HRF9C", "display_name": "Raghav Sharma", "bio": null, "projects_count": 0, "devlogs_count": 0, "votes_count": 0, "ships_count": 0, "projects": [], "coding_time_seconds": 0, "coding_time_seconds_today": 0, "balance": "You need to have a pocket watcher badge to view this.", "badges": [], "created_at": "2025-07-22T00:22:00.132-04:00", "updated_at": "2025-07-22T03:34:15.723-04:00", "avatar": "https://avatars.slack-edge.com/2025-07-21/9227957926147_460860afd289a86b93bd_original.jpg", "custom_css": null}, {"id": 17319, "slack_id": "U0977MQFLKT", "display_name": "ongspxm", "bio": null, "projects_count": 0, "devlogs_count": 0, "votes_count": 0, "ships_count": 0, "projects": [], "coding_time_seconds": 671, "coding_time_seconds_today": 0, "balance": "You need to have a pocket watcher badge to view this.", "badges": [], "created_at": "2025-07-22T00:22:29.942-04:00", "updated_at": "2025-07-22T03:34:15.838-04:00", "avatar": "https://secure.gravatar.com/avatar/c5e42982dc080b8a45391d215d18240b.jpg?s=512&d=https%3A%2F%2Fa.slack-edge.com%2Fdf10d%2Fimg%2Favatars%2Fava_0015-512.png", "custom_css": null}, {"id": 17320, "slack_id": "U096TBQ87AN", "display_name": "Sebastian", "bio": null, "projects_count": 0, "devlogs_count": 0, "votes_count": 0, "ships_count": 0, "projects": [], "coding_time_seconds": 0, "coding_time_seconds_today": 0, "balance": "You need to have a pocket watcher badge to view this.", "badges": [], "created_at": "2025-07-22T00:23:13.018-04:00", "updated_at": "2025-07-22T03:34:15.921-04:00", "avatar": "https://secure.gravatar.com/avatar/83f5e8b11ca6b349bbbc006b9c30aac8.jpg?s=512&d=https%3A%2F%2Fa.slack-edge.com%2Fdf10d%2Fimg%2Favatars%2Fava_0020-512.png", "custom_css": null}, {"id": 17321, "slack_id": "U096WED7QPN", "display_name": "Claudio Cambra", "bio": null, "projects_count": 0, "devlogs_count": 0, "votes_count": 0, "ships_count": 0, "projects": [], "coding_time_seconds": 0, "coding_time_seconds_today": 0, "balance": "You need to have a pocket watcher badge to view this.", "badges": [], "created_at": "2025-07-22T00:23:42.692-04:00", "updated_at": "2025-07-22T03:34:16.019-04:00", "avatar": "https://secure.gravatar.com/avatar/e536690dc84c0ee7672e80634f894d50.jpg?s=512&d=https%3A%2F%2Fa.slack-edge.com%2Fdf10d%2Fimg%2Favatars%2Fava_0013-512.png", "custom_css": null}, {"id": 17322, "slack_id": "U096PTZN4MR", "display_name": "Sawan Chaudhary", "bio": null, "projects_count": 0, "devlogs_count": 0, "votes_count": 0, "ships_count": 0, "projects": [], "coding_time_seconds": 60030, "coding_time_seconds_today": 0, "balance": "You need to have a pocket watcher badge to view this.", "badges": [], "created_at": "2025-07-22T00:23:58.968-04:00", "updated_at": "2025-07-22T03:34:16.099-04:00", "avatar": "https://secure.gravatar.com/avatar/b7aadd382b439b6fa715e8ed08271ebb.jpg?s=512&d=https%3A%2F%2Fa.slack-edge.com%2Fdf10d%2Fimg%2Favatars%2Fava_0006-512.png", "custom_css": null}, {"id": 17323, "slack_id": "U0978D3Q4KT", "display_name": "shravan", "bio": null, "projects_count": 0, "devlogs_count": 0, "votes_count": 0, "ships_count": 0, "projects": [], "coding_time_seconds": 0, "coding_time_seconds_today": 0, "balance": "You need to have a pocket watcher badge to view this.", "badges": [], "created_at": "2025-07-22T00:24:56.634-04:00", "updated_at": "2025-07-22T03:34:16.181-04:00", "avatar": "https://secure.gravatar.com/avatar/c82f97452575e55b87bba83565e3c583.jpg?s=512&d=https%3A%2F%2Fa.slack-edge.com%2Fdf10d%2Fimg%2Favatars%2Fava_0008-512.png", "custom_css": null}, {"id": 17324, "slack_id": "U096EFF4U6T", "display_name": "Prasant Kumar Mahato", "bio": null, "projects_count": 0, "devlogs_count": 0, "votes_count": 0, "ships_count": 0, "projects": [], "coding_time_seconds": 0, "coding_time_seconds_today": 0, "balance": "You need to have a pocket watcher badge to view this.", "badges": [], "created_at": "2025-07-22T00:25:35.777-04:00", "updated_at": "2025-07-22T03:34:16.257-04:00", "avatar": "https://avatars.slack-edge.com/2025-07-21/9227967868755_033684f69804fc9a95b0_original.jpg", "custom_css": null}, {"id": 17325, "slack_id": "U096WEG6ANQ", "display_name": "Aniket A", "bio": null, "projects_count": 0, "devlogs_count": 0, "votes_count": 0, "ships_count": 0, "projects": [], "coding_time_seconds": 33198, "coding_time_seconds_today": 0, "balance": "You need to have a pocket watcher badge to view this.", "badges": [], "created_at": "2025-07-22T00:25:37.119-04:00", "updated_at": "2025-07-22T03:34:16.341-04:00", "avatar": "https://secure.gravatar.com/avatar/aa715b28fe25e8ca6b4331289a1c6c15.jpg?s=512&d=https%3A%2F%2Fa.slack-edge.com%2Fdf10d%2Fimg%2Favatars%2Fava_0014-512.png", "custom_css": null}], "pagination": {"page": 862, "pages": 1192, "count": 23828, "items": 20}}