{"users": [{"id": 17326, "slack_id": "U096S4UAS9L", "display_name": "Adam Wright", "bio": null, "projects_count": 0, "devlogs_count": 0, "votes_count": 0, "ships_count": 0, "projects": [], "coding_time_seconds": 239116, "coding_time_seconds_today": 0, "balance": "You need to have a pocket watcher badge to view this.", "badges": [], "created_at": "2025-07-22T00:26:21.195-04:00", "updated_at": "2025-07-27T03:40:52.786-04:00", "avatar": "https://secure.gravatar.com/avatar/c5880bf6b9eba89c3dc75901b77de2e4.jpg?s=512&d=https%3A%2F%2Fa.slack-edge.com%2Fdf10d%2Fimg%2Favatars%2Fava_0017-512.png", "custom_css": null}, {"id": 17327, "slack_id": "U096WEVGH9A", "display_name": "abhi", "bio": null, "projects_count": 0, "devlogs_count": 0, "votes_count": 3, "ships_count": 0, "projects": [], "coding_time_seconds": 445, "coding_time_seconds_today": 0, "balance": "You need to have a pocket watcher badge to view this.", "badges": [], "created_at": "2025-07-22T00:26:50.765-04:00", "updated_at": "2025-07-22T03:34:16.497-04:00", "avatar": "https://secure.gravatar.com/avatar/eec4c3dd848124c9ae444958535f7355.jpg?s=512&d=https%3A%2F%2Fa.slack-edge.com%2Fdf10d%2Fimg%2Favatars%2Fava_0013-512.png", "custom_css": null}, {"id": 17328, "slack_id": "U096V889ZEE", "display_name": "KOLLIMARLA GNANESWAR", "bio": null, "projects_count": 0, "devlogs_count": 0, "votes_count": 0, "ships_count": 0, "projects": [], "coding_time_seconds": 0, "coding_time_seconds_today": 0, "balance": "You need to have a pocket watcher badge to view this.", "badges": [], "created_at": "2025-07-22T00:27:00.313-04:00", "updated_at": "2025-07-22T03:34:16.581-04:00", "avatar": "https://secure.gravatar.com/avatar/4f5199daf4d19088bf8c5d34e3594092.jpg?s=512&d=https%3A%2F%2Fa.slack-edge.com%2Fdf10d%2Fimg%2Favatars%2Fava_0019-512.png", "custom_css": null}, {"id": 17329, "slack_id": "U096V8E7QSW", "display_name": "Amaresh Maharana", "bio": null, "projects_count": 0, "devlogs_count": 0, "votes_count": 0, "ships_count": 0, "projects": [], "coding_time_seconds": 60855, "coding_time_seconds_today": 0, "balance": "You need to have a pocket watcher badge to view this.", "badges": [], "created_at": "2025-07-22T00:27:24.609-04:00", "updated_at": "2025-07-22T03:34:16.677-04:00", "avatar": "https://secure.gravatar.com/avatar/b97311e83efe38cbdcdb4fb8f781b107.jpg?s=512&d=https%3A%2F%2Fa.slack-edge.com%2Fdf10d%2Fimg%2Favatars%2Fava_0015-512.png", "custom_css": null}, {"id": 17330, "slack_id": "U097HKYUD3J", "display_name": "Geeky", "bio": null, "projects_count": 0, "devlogs_count": 0, "votes_count": 0, "ships_count": 0, "projects": [], "coding_time_seconds": 0, "coding_time_seconds_today": 0, "balance": "You need to have a pocket watcher badge to view this.", "badges": [], "created_at": "2025-07-22T00:28:04.700-04:00", "updated_at": "2025-07-22T03:34:16.757-04:00", "avatar": "https://secure.gravatar.com/avatar/afc1e3bc14169e5e3d170783e062346d.jpg?s=512&d=https%3A%2F%2Fa.slack-edge.com%2Fdf10d%2Fimg%2Favatars%2Fava_0005-512.png", "custom_css": null}, {"id": 17331, "slack_id": "U096EFMLK3R", "display_name": "Nouman Khan", "bio": null, "projects_count": 0, "devlogs_count": 0, "votes_count": 0, "ships_count": 0, "projects": [], "coding_time_seconds": 0, "coding_time_seconds_today": 0, "balance": "You need to have a pocket watcher badge to view this.", "badges": [], "created_at": "2025-07-22T00:28:25.923-04:00", "updated_at": "2025-07-22T03:34:16.841-04:00", "avatar": "https://secure.gravatar.com/avatar/86b0cf5849fc7b897d40f3bd2198baa9.jpg?s=512&d=https%3A%2F%2Fa.slack-edge.com%2Fdf10d%2Fimg%2Favatars%2Fava_0016-512.png", "custom_css": null}, {"id": 17332, "slack_id": "U096V86E1MG", "display_name": "Aakash P", "bio": null, "projects_count": 0, "devlogs_count": 0, "votes_count": 0, "ships_count": 0, "projects": [], "coding_time_seconds": 0, "coding_time_seconds_today": 0, "balance": "You need to have a pocket watcher badge to view this.", "badges": [], "created_at": "2025-07-22T00:29:15.812-04:00", "updated_at": "2025-07-22T03:34:16.923-04:00", "avatar": "https://secure.gravatar.com/avatar/36d64d27898a64e976ebd8f08893be87.jpg?s=512&d=https%3A%2F%2Fa.slack-edge.com%2Fdf10d%2Fimg%2Favatars%2Fava_0019-512.png", "custom_css": null}, {"id": 17333, "slack_id": "U096EFUQ2DD", "display_name": "Dhaneshwar Guiyan", "bio": null, "projects_count": 0, "devlogs_count": 0, "votes_count": 0, "ships_count": 0, "projects": [], "coding_time_seconds": 0, "coding_time_seconds_today": 0, "balance": "You need to have a pocket watcher badge to view this.", "badges": [], "created_at": "2025-07-22T00:29:52.564-04:00", "updated_at": "2025-07-22T03:34:16.995-04:00", "avatar": "https://secure.gravatar.com/avatar/e0c71f8f005df6f1ad5e3dee12978194.jpg?s=512&d=https%3A%2F%2Fa.slack-edge.com%2Fdf10d%2Fimg%2Favatars%2Fava_0004-512.png", "custom_css": null}, {"id": 17334, "slack_id": "U091M8VF6JZ", "display_name": "Parth Salunke", "bio": null, "projects_count": 0, "devlogs_count": 0, "votes_count": 0, "ships_count": 0, "projects": [], "coding_time_seconds": 0, "coding_time_seconds_today": 0, "balance": "You need to have a pocket watcher badge to view this.", "badges": [], "created_at": "2025-07-22T00:29:56.340-04:00", "updated_at": "2025-07-22T03:34:17.078-04:00", "avatar": "https://avatars.slack-edge.com/2025-06-20/9067494065431_2f7fd92120b1953343c8_original.jpg", "custom_css": null}, {"id": 17335, "slack_id": "U096EFPPY5D", "display_name": "dumb", "bio": null, "projects_count": 0, "devlogs_count": 0, "votes_count": 0, "ships_count": 0, "projects": [], "coding_time_seconds": 0, "coding_time_seconds_today": 0, "balance": "You need to have a pocket watcher badge to view this.", "badges": [], "created_at": "2025-07-22T00:29:59.971-04:00", "updated_at": "2025-07-22T03:34:17.164-04:00", "avatar": "https://secure.gravatar.com/avatar/f1936c1bdda5934ae4c7c6a4d6728ede.jpg?s=512&d=https%3A%2F%2Fa.slack-edge.com%2Fdf10d%2Fimg%2Favatars%2Fava_0025-512.png", "custom_css": null}, {"id": 17336, "slack_id": "U096EG30SNB", "display_name": "Lavanya", "bio": null, "projects_count": 0, "devlogs_count": 0, "votes_count": 0, "ships_count": 0, "projects": [], "coding_time_seconds": 0, "coding_time_seconds_today": 0, "balance": "You need to have a pocket watcher badge to view this.", "badges": [], "created_at": "2025-07-22T00:30:02.353-04:00", "updated_at": "2025-07-22T03:34:17.239-04:00", "avatar": "https://avatars.slack-edge.com/2025-07-21/9231323173845_ca8e85c8bfb2494ad02e_original.png", "custom_css": null}, {"id": 17337, "slack_id": "U096V8KQQRY", "display_name": "Neel Adem", "bio": null, "projects_count": 0, "devlogs_count": 0, "votes_count": 0, "ships_count": 0, "projects": [], "coding_time_seconds": 191472, "coding_time_seconds_today": 0, "balance": "You need to have a pocket watcher badge to view this.", "badges": [], "created_at": "2025-07-22T00:30:19.408-04:00", "updated_at": "2025-09-08T01:00:08.170-04:00", "avatar": "https://avatars.slack-edge.com/2025-07-21/9231325549013_16f0f32817468d477094_original.png", "custom_css": null}, {"id": 17338, "slack_id": "U097HLFB5J4", "display_name": "deva sri", "bio": null, "projects_count": 0, "devlogs_count": 0, "votes_count": 1, "ships_count": 0, "projects": [], "coding_time_seconds": 9480, "coding_time_seconds_today": 0, "balance": "You need to have a pocket watcher badge to view this.", "badges": [], "created_at": "2025-07-22T00:31:48.611-04:00", "updated_at": "2025-07-23T10:41:52.798-04:00", "avatar": "https://avatars.slack-edge.com/2025-07-21/9246480789905_8a4b0d117d6a3b831d91_original.png", "custom_css": null}, {"id": 17339, "slack_id": "U096EFTTZV5", "display_name": "Amit Mule", "bio": null, "projects_count": 0, "devlogs_count": 0, "votes_count": 0, "ships_count": 0, "projects": [], "coding_time_seconds": 0, "coding_time_seconds_today": 0, "balance": "You need to have a pocket watcher badge to view this.", "badges": [], "created_at": "2025-07-22T00:32:30.194-04:00", "updated_at": "2025-07-22T03:34:21.510-04:00", "avatar": "https://secure.gravatar.com/avatar/34cc5f66c82aeb1fa2e23b300910b75b.jpg?s=512&d=https%3A%2F%2Fa.slack-edge.com%2Fdf10d%2Fimg%2Favatars%2Fava_0025-512.png", "custom_css": null}, {"id": 17340, "slack_id": "U097HLH1C0Y", "display_name": "Manuel Alvarez", "bio": null, "projects_count": 0, "devlogs_count": 0, "votes_count": 0, "ships_count": 0, "projects": [], "coding_time_seconds": 0, "coding_time_seconds_today": 0, "balance": "You need to have a pocket watcher badge to view this.", "badges": [], "created_at": "2025-07-22T00:34:08.275-04:00", "updated_at": "2025-07-22T03:34:21.585-04:00", "avatar": "https://secure.gravatar.com/avatar/b24fb785c8a2b51f79fc706a6555910b.jpg?s=512&d=https%3A%2F%2Fa.slack-edge.com%2Fdf10d%2Fimg%2Favatars%2Fava_0024-512.png", "custom_css": null}, {"id": 17341, "slack_id": "U096TDV13FC", "display_name": "Jean Pierre Ortiz Murcia", "bio": null, "projects_count": 1, "devlogs_count": 0, "votes_count": 0, "ships_count": 0, "projects": [{"id": 7493, "title": "Plow", "devlogs_count": 0, "created_at": "2025-07-22T00:40:24.233-04:00"}], "coding_time_seconds": 44530, "coding_time_seconds_today": 0, "balance": "You need to have a pocket watcher badge to view this.", "badges": [], "created_at": "2025-07-22T00:34:11.533-04:00", "updated_at": "2025-07-22T10:20:08.146-04:00", "avatar": "https://avatars.slack-edge.com/2025-07-21/9230203195046_f2a5447a3a4c8487da7a_original.jpg", "custom_css": null}, {"id": 17342, "slack_id": "U097HLE8BME", "display_name": "Connor", "bio": null, "projects_count": 0, "devlogs_count": 0, "votes_count": 0, "ships_count": 0, "projects": [], "coding_time_seconds": 0, "coding_time_seconds_today": 0, "balance": "You need to have a pocket watcher badge to view this.", "badges": [], "created_at": "2025-07-22T00:36:38.275-04:00", "updated_at": "2025-07-22T03:34:21.760-04:00", "avatar": "https://secure.gravatar.com/avatar/1f4a84ac2a4f4009e49734887724fb7b.jpg?s=512&d=https%3A%2F%2Fa.slack-edge.com%2Fdf10d%2Fimg%2Favatars%2Fava_0012-512.png", "custom_css": null}, {"id": 17343, "slack_id": "U096S5VVCTY", "display_name": "leyuskc", "bio": null, "projects_count": 0, "devlogs_count": 0, "votes_count": 0, "ships_count": 0, "projects": [], "coding_time_seconds": 0, "coding_time_seconds_today": 0, "balance": "You need to have a pocket watcher badge to view this.", "badges": [], "created_at": "2025-07-22T00:37:14.971-04:00", "updated_at": "2025-07-22T03:34:21.844-04:00", "avatar": "https://secure.gravatar.com/avatar/3d64fffe2350032b9e7324d83b66b0bb.jpg?s=512&d=https%3A%2F%2Fa.slack-edge.com%2Fdf10d%2Fimg%2Favatars%2Fava_0004-512.png", "custom_css": null}, {"id": 17344, "slack_id": "U096T9X53NZ", "display_name": "Naduni Sehansa", "bio": null, "projects_count": 0, "devlogs_count": 0, "votes_count": 0, "ships_count": 0, "projects": [], "coding_time_seconds": 238235, "coding_time_seconds_today": 120, "balance": "You need to have a pocket watcher badge to view this.", "badges": [], "created_at": "2025-07-22T00:37:40.802-04:00", "updated_at": "2025-07-22T03:34:25.971-04:00", "avatar": "https://secure.gravatar.com/avatar/ac2712e9b177f3b9a9834d5292e22411.jpg?s=512&d=https%3A%2F%2Fa.slack-edge.com%2Fdf10d%2Fimg%2Favatars%2Fava_0009-512.png", "custom_css": null}, {"id": 17345, "slack_id": "U096PRUUQR1", "display_name": "Kabir", "bio": null, "projects_count": 1, "devlogs_count": 0, "votes_count": 0, "ships_count": 0, "projects": [{"id": 7563, "title": "Complete CI/CD with Terraform", "devlogs_count": 0, "created_at": "2025-07-22T05:54:27.504-04:00"}], "coding_time_seconds": 486, "coding_time_seconds_today": 0, "balance": "You need to have a pocket watcher badge to view this.", "badges": [], "created_at": "2025-07-22T00:38:05.797-04:00", "updated_at": "2025-07-22T05:15:58.111-04:00", "avatar": "https://secure.gravatar.com/avatar/de32509c2338db164e6fa15fe6374119.jpg?s=512&d=https%3A%2F%2Fa.slack-edge.com%2Fdf10d%2Fimg%2Favatars%2Fava_0018-512.png", "custom_css": null}], "pagination": {"page": 863, "pages": 1192, "count": 23828, "items": 20}}