{"users": [{"id": 17346, "slack_id": "U096EGU45JT", "display_name": "cheUriBuddy", "bio": null, "projects_count": 0, "devlogs_count": 0, "votes_count": 0, "ships_count": 0, "projects": [], "coding_time_seconds": 0, "coding_time_seconds_today": 0, "balance": "You need to have a pocket watcher badge to view this.", "badges": [], "created_at": "2025-07-22T00:38:28.201-04:00", "updated_at": "2025-07-22T03:34:26.151-04:00", "avatar": "https://secure.gravatar.com/avatar/195cd819afaed589ffbad2e6e91033a1.jpg?s=512&d=https%3A%2F%2Fa.slack-edge.com%2Fdf10d%2Fimg%2Favatars%2Fava_0024-512.png", "custom_css": null}, {"id": 17347, "slack_id": "U097HLYPSJU", "display_name": "Obsidian", "bio": null, "projects_count": 0, "devlogs_count": 0, "votes_count": 0, "ships_count": 0, "projects": [], "coding_time_seconds": 0, "coding_time_seconds_today": 0, "balance": "You need to have a pocket watcher badge to view this.", "badges": [], "created_at": "2025-07-22T00:38:35.302-04:00", "updated_at": "2025-07-22T03:34:26.237-04:00", "avatar": "https://secure.gravatar.com/avatar/b04772de5f6c642e388c365294c6ac7e.jpg?s=512&d=https%3A%2F%2Fa.slack-edge.com%2Fdf10d%2Fimg%2Favatars%2Fava_0017-512.png", "custom_css": null}, {"id": 17348, "slack_id": "U096EGTEKHD", "display_name": "Keerthivasan Palani", "bio": null, "projects_count": 0, "devlogs_count": 0, "votes_count": 0, "ships_count": 0, "projects": [], "coding_time_seconds": 6791, "coding_time_seconds_today": 0, "balance": "You need to have a pocket watcher badge to view this.", "badges": [], "created_at": "2025-07-22T00:39:40.807-04:00", "updated_at": "2025-07-22T03:34:30.372-04:00", "avatar": "https://avatars.slack-edge.com/2025-07-21/9231353473221_b514923a331cb8ad060d_original.png", "custom_css": null}, {"id": 17349, "slack_id": "U096WG0KVQC", "display_name": "Eris Schaffer", "bio": null, "projects_count": 0, "devlogs_count": 0, "votes_count": 0, "ships_count": 0, "projects": [], "coding_time_seconds": 0, "coding_time_seconds_today": 0, "balance": "You need to have a pocket watcher badge to view this.", "badges": [], "created_at": "2025-07-22T00:39:55.545-04:00", "updated_at": "2025-07-22T03:34:30.469-04:00", "avatar": "https://avatars.slack-edge.com/2025-07-21/9234556519300_cb44f3c2ba6c0837cf22_original.jpg", "custom_css": null}, {"id": 17350, "slack_id": "U096WFWRTEG", "display_name": "Joshua Cister", "bio": null, "projects_count": 0, "devlogs_count": 0, "votes_count": 0, "ships_count": 0, "projects": [], "coding_time_seconds": 0, "coding_time_seconds_today": 0, "balance": "You need to have a pocket watcher badge to view this.", "badges": [], "created_at": "2025-07-22T00:41:14.115-04:00", "updated_at": "2025-07-22T03:34:30.557-04:00", "avatar": "https://secure.gravatar.com/avatar/42326730870ecce40f4d1b61c853412b.jpg?s=512&d=https%3A%2F%2Fa.slack-edge.com%2Fdf10d%2Fimg%2Favatars%2Fava_0019-512.png", "custom_css": null}, {"id": 17351, "slack_id": "U0978EJHML1", "display_name": "SplendidRecollection", "bio": null, "projects_count": 0, "devlogs_count": 0, "votes_count": 0, "ships_count": 0, "projects": [], "coding_time_seconds": 126475, "coding_time_seconds_today": 0, "balance": "You need to have a pocket watcher badge to view this.", "badges": [], "created_at": "2025-07-22T00:41:37.784-04:00", "updated_at": "2025-07-22T07:21:42.041-04:00", "avatar": "https://secure.gravatar.com/avatar/08b7677004ecad8123b6e69d4716c55c.jpg?s=512&d=https%3A%2F%2Fa.slack-edge.com%2Fdf10d%2Fimg%2Favatars%2Fava_0011-512.png", "custom_css": null}, {"id": 17352, "slack_id": "U097HM90SPJ", "display_name": "Blaze", "bio": null, "projects_count": 0, "devlogs_count": 0, "votes_count": 0, "ships_count": 0, "projects": [], "coding_time_seconds": 0, "coding_time_seconds_today": 0, "balance": "You need to have a pocket watcher badge to view this.", "badges": [], "created_at": "2025-07-22T00:42:31.428-04:00", "updated_at": "2025-07-22T03:34:30.739-04:00", "avatar": "https://secure.gravatar.com/avatar/0860e43b479d9f3dfa9ad4291d079b95.jpg?s=512&d=https%3A%2F%2Fa.slack-edge.com%2Fdf10d%2Fimg%2Favatars%2Fava_0016-512.png", "custom_css": null}, {"id": 17353, "slack_id": "U096EH2AYEB", "display_name": "Karan Singh", "bio": null, "projects_count": 0, "devlogs_count": 0, "votes_count": 0, "ships_count": 0, "projects": [], "coding_time_seconds": 0, "coding_time_seconds_today": 0, "balance": "You need to have a pocket watcher badge to view this.", "badges": [], "created_at": "2025-07-22T00:43:05.447-04:00", "updated_at": "2025-07-22T03:34:30.820-04:00", "avatar": "https://secure.gravatar.com/avatar/c5eb3f5aca436049af8053350b40b46c.jpg?s=512&d=https%3A%2F%2Fa.slack-edge.com%2Fdf10d%2Fimg%2Favatars%2Fava_0022-512.png", "custom_css": null}, {"id": 17354, "slack_id": "U097HM66FPS", "display_name": "April", "bio": null, "projects_count": 0, "devlogs_count": 0, "votes_count": 0, "ships_count": 0, "projects": [], "coding_time_seconds": 0, "coding_time_seconds_today": 0, "balance": "You need to have a pocket watcher badge to view this.", "badges": [], "created_at": "2025-07-22T00:43:19.352-04:00", "updated_at": "2025-07-22T03:34:30.930-04:00", "avatar": "https://secure.gravatar.com/avatar/2c54650a3149402c324d41ad95b095a3.jpg?s=512&d=https%3A%2F%2Fa.slack-edge.com%2Fdf10d%2Fimg%2Favatars%2Fava_0001-512.png", "custom_css": null}, {"id": 17355, "slack_id": "U096S6J0JVC", "display_name": "Katelyn", "bio": null, "projects_count": 4, "devlogs_count": 0, "votes_count": 0, "ships_count": 0, "projects": [{"id": 9498, "title": "Chef Katelyn Website", "devlogs_count": 0, "created_at": "2025-08-01T13:14:45.631-04:00"}, {"id": 9499, "title": "Chef Katelyn Website", "devlogs_count": 0, "created_at": "2025-08-01T13:14:45.638-04:00"}, {"id": 9500, "title": "Portfolio Website", "devlogs_count": 0, "created_at": "2025-08-01T13:15:46.841-04:00"}, {"id": 9501, "title": "Portfolio Website", "devlogs_count": 0, "created_at": "2025-08-01T13:15:46.850-04:00"}], "coding_time_seconds": 31954, "coding_time_seconds_today": 0, "balance": "You need to have a pocket watcher badge to view this.", "badges": [], "created_at": "2025-07-22T00:43:54.150-04:00", "updated_at": "2025-08-01T15:22:15.040-04:00", "avatar": "https://secure.gravatar.com/avatar/ecb9aa21157e213b40ffc788de348ab3.jpg?s=512&d=https%3A%2F%2Fa.slack-edge.com%2Fdf10d%2Fimg%2Favatars%2Fava_0017-512.png", "custom_css": null}, {"id": 17356, "slack_id": "U097HMCSH7S", "display_name": "Zachary Smith", "bio": null, "projects_count": 0, "devlogs_count": 0, "votes_count": 0, "ships_count": 0, "projects": [], "coding_time_seconds": 0, "coding_time_seconds_today": 0, "balance": "You need to have a pocket watcher badge to view this.", "badges": [], "created_at": "2025-07-22T00:44:37.391-04:00", "updated_at": "2025-08-18T23:48:54.075-04:00", "avatar": "https://secure.gravatar.com/avatar/ede692fd95ba31b6e6146aae4788f3a9.jpg?s=512&d=https%3A%2F%2Fa.slack-edge.com%2Fdf10d%2Fimg%2Favatars%2Fava_0004-512.png", "custom_css": null}, {"id": 17357, "slack_id": "U096WGLBJEQ", "display_name": "y-apdroid", "bio": null, "projects_count": 0, "devlogs_count": 0, "votes_count": 0, "ships_count": 0, "projects": [], "coding_time_seconds": 0, "coding_time_seconds_today": 0, "balance": "You need to have a pocket watcher badge to view this.", "badges": [], "created_at": "2025-07-22T00:45:54.576-04:00", "updated_at": "2025-07-22T03:34:31.213-04:00", "avatar": "https://secure.gravatar.com/avatar/41edafda0043456aaf5fad28d19674c4.jpg?s=512&d=https%3A%2F%2Fa.slack-edge.com%2Fdf10d%2Fimg%2Favatars%2Fava_0001-512.png", "custom_css": null}, {"id": 17358, "slack_id": "U096Q0BL03V", "display_name": "Deepak", "bio": null, "projects_count": 0, "devlogs_count": 0, "votes_count": 0, "ships_count": 0, "projects": [], "coding_time_seconds": 0, "coding_time_seconds_today": 0, "balance": "You need to have a pocket watcher badge to view this.", "badges": [], "created_at": "2025-07-22T00:45:56.308-04:00", "updated_at": "2025-07-22T03:34:31.297-04:00", "avatar": "https://secure.gravatar.com/avatar/c0bcc4f54509b969ba45610c8045d6ef.jpg?s=512&d=https%3A%2F%2Fa.slack-edge.com%2Fdf10d%2Fimg%2Favatars%2Fava_0001-512.png", "custom_css": null}, {"id": 17359, "slack_id": "U096S6MTX8E", "display_name": "Abdul Ahad", "bio": null, "projects_count": 0, "devlogs_count": 0, "votes_count": 0, "ships_count": 0, "projects": [], "coding_time_seconds": 0, "coding_time_seconds_today": 0, "balance": "You need to have a pocket watcher badge to view this.", "badges": [], "created_at": "2025-07-22T00:46:47.146-04:00", "updated_at": "2025-07-22T03:34:31.378-04:00", "avatar": "https://secure.gravatar.com/avatar/9f0f238caecfe0465af450639c8dc3fd.jpg?s=512&d=https%3A%2F%2Fa.slack-edge.com%2Fdf10d%2Fimg%2Favatars%2Fava_0020-512.png", "custom_css": null}, {"id": 17360, "slack_id": "U096WGM2LFN", "display_name": "Sahil Shabbirali Haryani", "bio": null, "projects_count": 0, "devlogs_count": 0, "votes_count": 0, "ships_count": 0, "projects": [], "coding_time_seconds": 40184, "coding_time_seconds_today": 0, "balance": "You need to have a pocket watcher badge to view this.", "badges": [], "created_at": "2025-07-22T00:47:40.144-04:00", "updated_at": "2025-07-22T03:34:31.460-04:00", "avatar": "https://secure.gravatar.com/avatar/3a004ad316ac224c6a8c6b7231e02adc.jpg?s=512&d=https%3A%2F%2Fa.slack-edge.com%2Fdf10d%2Fimg%2Favatars%2Fava_0026-512.png", "custom_css": null}, {"id": 17361, "slack_id": "U097HMQUH1N", "display_name": "Arnav Gupta", "bio": null, "projects_count": 2, "devlogs_count": 8, "votes_count": 58, "ships_count": 2, "projects": [{"id": 13090, "title": "Dots and Lines", "devlogs_count": 4, "created_at": "2025-09-08T11:00:30.116-04:00"}, {"id": 7527, "title": "B2B Product Cataloguing Website with Admin Page", "devlogs_count": 4, "created_at": "2025-07-22T03:08:08.564-04:00"}], "coding_time_seconds": 57108, "coding_time_seconds_today": 0, "balance": "You need to have a pocket watcher badge to view this.", "badges": [], "created_at": "2025-07-22T00:47:54.146-04:00", "updated_at": "2025-08-14T22:16:21.045-04:00", "avatar": "https://secure.gravatar.com/avatar/713aaa51c8a741d0abad73b7d032123e.jpg?s=512&d=https%3A%2F%2Fa.slack-edge.com%2Fdf10d%2Fimg%2Favatars%2Fava_0026-512.png", "custom_css": null}, {"id": 17362, "slack_id": "U096FSWQDCZ", "display_name": "Nuriya Maharjan", "bio": null, "projects_count": 0, "devlogs_count": 0, "votes_count": 0, "ships_count": 0, "projects": [], "coding_time_seconds": 9003, "coding_time_seconds_today": 0, "balance": "You need to have a pocket watcher badge to view this.", "badges": [], "created_at": "2025-07-22T00:50:31.271-04:00", "updated_at": "2025-07-22T03:34:35.674-04:00", "avatar": "https://avatars.slack-edge.com/2025-07-16/9203169472182_20c64be468a1e32fe08d_original.png", "custom_css": null}, {"id": 17363, "slack_id": "U097HMVH6JU", "display_name": "Ashwini Mahendiran", "bio": null, "projects_count": 0, "devlogs_count": 0, "votes_count": 0, "ships_count": 0, "projects": [], "coding_time_seconds": 94667, "coding_time_seconds_today": 0, "balance": "You need to have a pocket watcher badge to view this.", "badges": [], "created_at": "2025-07-22T00:50:41.071-04:00", "updated_at": "2025-07-22T03:34:35.769-04:00", "avatar": "https://secure.gravatar.com/avatar/457fa3534404dce4fbd9422d25be2762.jpg?s=512&d=https%3A%2F%2Fa.slack-edge.com%2Fdf10d%2Fimg%2Favatars%2Fava_0009-512.png", "custom_css": null}, {"id": 17364, "slack_id": "U096EHRRL4F", "display_name": "Ramesh Kuntigorla", "bio": null, "projects_count": 0, "devlogs_count": 0, "votes_count": 0, "ships_count": 0, "projects": [], "coding_time_seconds": 0, "coding_time_seconds_today": 0, "balance": "You need to have a pocket watcher badge to view this.", "badges": [], "created_at": "2025-07-22T00:51:03.966-04:00", "updated_at": "2025-07-22T03:34:35.864-04:00", "avatar": "https://secure.gravatar.com/avatar/aeb62ff63655248e0bff458734c460a9.jpg?s=512&d=https%3A%2F%2Fa.slack-edge.com%2Fdf10d%2Fimg%2Favatars%2Fava_0022-512.png", "custom_css": null}, {"id": 17365, "slack_id": "U097HN0CBCG", "display_name": "YOUR FAVOURITE CHANNEL", "bio": null, "projects_count": 0, "devlogs_count": 0, "votes_count": 0, "ships_count": 0, "projects": [], "coding_time_seconds": 0, "coding_time_seconds_today": 0, "balance": "You need to have a pocket watcher badge to view this.", "badges": [], "created_at": "2025-07-22T00:51:05.004-04:00", "updated_at": "2025-07-22T03:34:40.019-04:00", "avatar": "https://avatars.slack-edge.com/2025-07-21/9234589668724_6c25ed0e1df9d42b84f7_original.jpg", "custom_css": null}], "pagination": {"page": 864, "pages": 1192, "count": 23828, "items": 20}}