{"users": [{"id": 17366, "slack_id": "U096Q10RR0T", "display_name": "Denis Nganga", "bio": null, "projects_count": 0, "devlogs_count": 0, "votes_count": 0, "ships_count": 0, "projects": [], "coding_time_seconds": 15848, "coding_time_seconds_today": 0, "balance": "You need to have a pocket watcher badge to view this.", "badges": [], "created_at": "2025-07-22T00:51:18.391-04:00", "updated_at": "2025-07-22T03:34:40.105-04:00", "avatar": "https://avatars.slack-edge.com/2025-07-21/9246539483681_de01e03298e1b651a218_original.jpg", "custom_css": null}, {"id": 17367, "slack_id": "U096S7291JA", "display_name": "PRIYANSHU VERMA", "bio": null, "projects_count": 0, "devlogs_count": 0, "votes_count": 0, "ships_count": 0, "projects": [], "coding_time_seconds": 0, "coding_time_seconds_today": 0, "balance": "You need to have a pocket watcher badge to view this.", "badges": [], "created_at": "2025-07-22T00:51:53.891-04:00", "updated_at": "2025-07-22T03:34:40.207-04:00", "avatar": "https://secure.gravatar.com/avatar/fc1970b56273ddb071c2c6bc20e7f747.jpg?s=512&d=https%3A%2F%2Fa.slack-edge.com%2Fdf10d%2Fimg%2Favatars%2Fava_0011-512.png", "custom_css": null}, {"id": 17368, "slack_id": "U096VAE0M0A", "display_name": "Ishta Sharma", "bio": null, "projects_count": 0, "devlogs_count": 0, "votes_count": 0, "ships_count": 0, "projects": [], "coding_time_seconds": 0, "coding_time_seconds_today": 0, "balance": "You need to have a pocket watcher badge to view this.", "badges": [], "created_at": "2025-07-22T00:52:01.381-04:00", "updated_at": "2025-07-22T03:34:40.286-04:00", "avatar": "https://avatars.slack-edge.com/2025-07-21/9218621530247_a68289434ab986a7cfa1_original.png", "custom_css": null}, {"id": 17369, "slack_id": "U096EHTAK2B", "display_name": "Bolt", "bio": null, "projects_count": 0, "devlogs_count": 0, "votes_count": 0, "ships_count": 0, "projects": [], "coding_time_seconds": 25179, "coding_time_seconds_today": 0, "balance": "You need to have a pocket watcher badge to view this.", "badges": [], "created_at": "2025-07-22T00:52:06.485-04:00", "updated_at": "2025-07-22T03:34:40.375-04:00", "avatar": "https://secure.gravatar.com/avatar/bad27cc48fee6b4f130bd0741f08a4d5.jpg?s=512&d=https%3A%2F%2Fa.slack-edge.com%2Fdf10d%2Fimg%2Favatars%2Fava_0006-512.png", "custom_css": null}, {"id": 17370, "slack_id": "U096WGM6X4L", "display_name": "aaronliu", "bio": null, "projects_count": 3, "devlogs_count": 8, "votes_count": 28, "ships_count": 1, "projects": [{"id": 8113, "title": "larksuite-bin AUR package", "devlogs_count": 2, "created_at": "2025-07-24T17:31:09.812-04:00"}, {"id": 12321, "title": "immich AUR pkgbase", "devlogs_count": 6, "created_at": "2025-08-25T16:50:06.079-04:00"}, {"id": 13722, "title": "Java/Kotlin Wiki Bot Framework", "devlogs_count": 0, "created_at": "2025-09-23T17:14:29.210-04:00"}], "coding_time_seconds": 71158, "coding_time_seconds_today": 0, "balance": "You need to have a pocket watcher badge to view this.", "badges": [], "created_at": "2025-07-22T00:52:08.853-04:00", "updated_at": "2025-08-29T20:46:48.092-04:00", "avatar": "https://avatars.slack-edge.com/2025-07-22/9255816163680_555ca6c619139da7d4ad_original.jpg", "custom_css": null}, {"id": 17371, "slack_id": "U096V67R82E", "display_name": "Ben Shupe", "bio": null, "projects_count": 1, "devlogs_count": 3, "votes_count": 23, "ships_count": 1, "projects": [{"id": 7741, "title": "React and AWS Web Portfolio", "devlogs_count": 3, "created_at": "2025-07-22T19:54:50.432-04:00"}], "coding_time_seconds": 68710, "coding_time_seconds_today": 0, "balance": "You need to have a pocket watcher badge to view this.", "badges": [], "created_at": "2025-07-22T00:53:35.319-04:00", "updated_at": "2025-08-22T18:47:49.102-04:00", "avatar": "https://secure.gravatar.com/avatar/067809d9c1ec7010d9e41fb5b99c3583.jpg?s=512&d=https%3A%2F%2Fa.slack-edge.com%2Fdf10d%2Fimg%2Favatars%2Fava_0022-512.png", "custom_css": null}, {"id": 17372, "slack_id": "U06L020GKGX", "display_name": "Ramifications_", "bio": null, "projects_count": 0, "devlogs_count": 0, "votes_count": 0, "ships_count": 0, "projects": [], "coding_time_seconds": 0, "coding_time_seconds_today": 0, "balance": "You need to have a pocket watcher badge to view this.", "badges": [], "created_at": "2025-07-22T00:54:29.831-04:00", "updated_at": "2025-07-22T00:54:35.478-04:00", "avatar": "https://avatars.slack-edge.com/2024-12-01/8105370900821_22e4ca600b7718a855ae_original.png", "custom_css": null}, {"id": 17373, "slack_id": "U096EJ62JBZ", "display_name": "Mohit Sharma", "bio": null, "projects_count": 0, "devlogs_count": 0, "votes_count": 0, "ships_count": 0, "projects": [], "coding_time_seconds": 0, "coding_time_seconds_today": 0, "balance": "You need to have a pocket watcher badge to view this.", "badges": [], "created_at": "2025-07-22T00:54:34.509-04:00", "updated_at": "2025-07-22T03:34:40.741-04:00", "avatar": "https://avatars.slack-edge.com/2025-07-21/9218629352871_4cf7d8ebd8381de7bf88_original.jpg", "custom_css": null}, {"id": 17374, "slack_id": "U07BSFB38HH", "display_name": "UJJWAL", "bio": null, "projects_count": 0, "devlogs_count": 0, "votes_count": 0, "ships_count": 0, "projects": [], "coding_time_seconds": 0, "coding_time_seconds_today": 0, "balance": "You need to have a pocket watcher badge to view this.", "badges": [], "created_at": "2025-07-22T00:54:54.645-04:00", "updated_at": "2025-07-26T01:42:42.864-04:00", "avatar": "https://avatars.slack-edge.com/2024-07-10/7423426616224_7bd9c6592d3ecbd047df_original.png", "custom_css": null}, {"id": 17375, "slack_id": "U096VB20P0A", "display_name": "Alexandre Machado", "bio": null, "projects_count": 0, "devlogs_count": 0, "votes_count": 0, "ships_count": 0, "projects": [], "coding_time_seconds": 0, "coding_time_seconds_today": 0, "balance": "You need to have a pocket watcher badge to view this.", "badges": [], "created_at": "2025-07-22T00:56:39.369-04:00", "updated_at": "2025-07-22T03:34:40.894-04:00", "avatar": "https://avatars.slack-edge.com/2025-07-21/9218635813911_8f04965e25ecbf3ba873_original.jpg", "custom_css": null}, {"id": 17376, "slack_id": "U096EJDAQK1", "display_name": "Anahy Herrera", "bio": null, "projects_count": 0, "devlogs_count": 0, "votes_count": 0, "ships_count": 0, "projects": [], "coding_time_seconds": 0, "coding_time_seconds_today": 0, "balance": "You need to have a pocket watcher badge to view this.", "badges": [], "created_at": "2025-07-22T00:56:55.636-04:00", "updated_at": "2025-07-22T03:34:40.981-04:00", "avatar": "https://secure.gravatar.com/avatar/3257b70b1855ff29067571ba49cb6ce8.jpg?s=512&d=https%3A%2F%2Fa.slack-edge.com%2Fdf10d%2Fimg%2Favatars%2Fava_0012-512.png", "custom_css": null}, {"id": 17377, "slack_id": "U096Q1G4LTV", "display_name": "Jayesh Bansal", "bio": null, "projects_count": 0, "devlogs_count": 0, "votes_count": 0, "ships_count": 0, "projects": [], "coding_time_seconds": 0, "coding_time_seconds_today": 0, "balance": "You need to have a pocket watcher badge to view this.", "badges": [], "created_at": "2025-07-22T00:57:24.453-04:00", "updated_at": "2025-07-22T03:34:41.079-04:00", "avatar": "https://secure.gravatar.com/avatar/3cc0144c388b4599a5894e07f1bcfaa0.jpg?s=512&d=https%3A%2F%2Fa.slack-edge.com%2Fdf10d%2Fimg%2Favatars%2Fava_0023-512.png", "custom_css": null}, {"id": 17378, "slack_id": "U0978G663HP", "display_name": "Neeharika", "bio": null, "projects_count": 0, "devlogs_count": 0, "votes_count": 0, "ships_count": 0, "projects": [], "coding_time_seconds": 0, "coding_time_seconds_today": 0, "balance": "You need to have a pocket watcher badge to view this.", "badges": [], "created_at": "2025-07-22T00:58:11.255-04:00", "updated_at": "2025-07-22T03:34:41.165-04:00", "avatar": "https://secure.gravatar.com/avatar/665db6ea559368173dad225d530a9476.jpg?s=512&d=https%3A%2F%2Fa.slack-edge.com%2Fdf10d%2Fimg%2Favatars%2Fava_0025-512.png", "custom_css": null}, {"id": 17379, "slack_id": "U096WHH6D1S", "display_name": "Abdullah", "bio": null, "projects_count": 0, "devlogs_count": 0, "votes_count": 0, "ships_count": 0, "projects": [], "coding_time_seconds": 0, "coding_time_seconds_today": 0, "balance": "You need to have a pocket watcher badge to view this.", "badges": [], "created_at": "2025-07-22T00:58:13.285-04:00", "updated_at": "2025-07-22T03:34:41.255-04:00", "avatar": "https://secure.gravatar.com/avatar/c8c235f049fb74e959dff4653fa9cd7b.jpg?s=512&d=https%3A%2F%2Fa.slack-edge.com%2Fdf10d%2Fimg%2Favatars%2Fava_0007-512.png", "custom_css": null}, {"id": 17380, "slack_id": "U096S7UBFPG", "display_name": "PRINCE THAKUR", "bio": null, "projects_count": 0, "devlogs_count": 0, "votes_count": 1, "ships_count": 0, "projects": [], "coding_time_seconds": 171, "coding_time_seconds_today": 0, "balance": "You need to have a pocket watcher badge to view this.", "badges": [], "created_at": "2025-07-22T00:58:34.248-04:00", "updated_at": "2025-07-22T08:01:42.664-04:00", "avatar": "https://avatars.slack-edge.com/2025-07-21/9255777930608_c6c328683a55b478e786_original.jpg", "custom_css": null}, {"id": 17381, "slack_id": "U096Q1NMX6F", "display_name": "Kris", "bio": null, "projects_count": 0, "devlogs_count": 0, "votes_count": 0, "ships_count": 0, "projects": [], "coding_time_seconds": 0, "coding_time_seconds_today": 0, "balance": "You need to have a pocket watcher badge to view this.", "badges": [], "created_at": "2025-07-22T00:59:13.049-04:00", "updated_at": "2025-07-22T03:34:41.453-04:00", "avatar": "https://secure.gravatar.com/avatar/0707bf4a2f2daaa060b136f9b2d51a0d.jpg?s=512&d=https%3A%2F%2Fa.slack-edge.com%2Fdf10d%2Fimg%2Favatars%2Fava_0019-512.png", "custom_css": null}, {"id": 17382, "slack_id": "U096Q1UE1FD", "display_name": "Dev Dusija", "bio": null, "projects_count": 0, "devlogs_count": 0, "votes_count": 0, "ships_count": 0, "projects": [], "coding_time_seconds": 0, "coding_time_seconds_today": 0, "balance": "You need to have a pocket watcher badge to view this.", "badges": [], "created_at": "2025-07-22T01:00:18.170-04:00", "updated_at": "2025-07-22T03:34:41.552-04:00", "avatar": "https://secure.gravatar.com/avatar/26c04c30be16a6115c265f9588a3c970.jpg?s=512&d=https%3A%2F%2Fa.slack-edge.com%2Fdf10d%2Fimg%2Favatars%2Fava_0001-512.png", "custom_css": null}, {"id": 17383, "slack_id": "U096EJKGKAB", "display_name": "Jex Pascua", "bio": null, "projects_count": 0, "devlogs_count": 0, "votes_count": 0, "ships_count": 0, "projects": [], "coding_time_seconds": 0, "coding_time_seconds_today": 0, "balance": "You need to have a pocket watcher badge to view this.", "badges": [], "created_at": "2025-07-22T01:00:30.301-04:00", "updated_at": "2025-07-22T03:34:41.663-04:00", "avatar": "https://avatars.slack-edge.com/2025-07-21/9218649403591_ac21d55b3535bbaebdbd_original.png", "custom_css": null}, {"id": 17384, "slack_id": "U096S7W9VU6", "display_name": "Michael Neuhold", "bio": null, "projects_count": 0, "devlogs_count": 0, "votes_count": 0, "ships_count": 0, "projects": [], "coding_time_seconds": 0, "coding_time_seconds_today": 0, "balance": "You need to have a pocket watcher badge to view this.", "badges": [], "created_at": "2025-07-22T01:00:41.513-04:00", "updated_at": "2025-07-22T03:34:41.738-04:00", "avatar": "https://avatars.slack-edge.com/2025-07-21/9233400212882_1e06b68f1c0bdd6364fe_original.jpg", "custom_css": null}, {"id": 17385, "slack_id": "U096S7J7PE2", "display_name": "Nikos Avgoustis", "bio": null, "projects_count": 0, "devlogs_count": 0, "votes_count": 0, "ships_count": 0, "projects": [], "coding_time_seconds": 0, "coding_time_seconds_today": 0, "balance": "You need to have a pocket watcher badge to view this.", "badges": [], "created_at": "2025-07-22T01:00:52.779-04:00", "updated_at": "2025-07-22T03:34:41.820-04:00", "avatar": "https://secure.gravatar.com/avatar/1ada4e9841252830cb2c96cab0927269.jpg?s=512&d=https%3A%2F%2Fa.slack-edge.com%2Fdf10d%2Fimg%2Favatars%2Fava_0010-512.png", "custom_css": null}], "pagination": {"page": 865, "pages": 1192, "count": 23828, "items": 20}}