{"users": [{"id": 17386, "slack_id": "U096Q177CCB", "display_name": "Aqsa Tahir", "bio": null, "projects_count": 0, "devlogs_count": 0, "votes_count": 0, "ships_count": 0, "projects": [], "coding_time_seconds": 0, "coding_time_seconds_today": 0, "balance": "You need to have a pocket watcher badge to view this.", "badges": [], "created_at": "2025-07-22T01:01:00.730-04:00", "updated_at": "2025-07-22T03:34:41.908-04:00", "avatar": "https://secure.gravatar.com/avatar/6b0d044ec969719c66582ec8d1c19a36.jpg?s=512&d=https%3A%2F%2Fa.slack-edge.com%2Fdf10d%2Fimg%2Favatars%2Fava_0021-512.png", "custom_css": null}, {"id": 17387, "slack_id": "U096TC78CQM", "display_name": "Faiizan Hussain", "bio": null, "projects_count": 0, "devlogs_count": 0, "votes_count": 0, "ships_count": 0, "projects": [], "coding_time_seconds": 0, "coding_time_seconds_today": 0, "balance": "You need to have a pocket watcher badge to view this.", "badges": [], "created_at": "2025-07-22T01:02:22.595-04:00", "updated_at": "2025-07-22T03:34:42.003-04:00", "avatar": "https://avatars.slack-edge.com/2025-07-21/9233408032210_59c4ae8c8979a9354659_original.jpg", "custom_css": null}, {"id": 17388, "slack_id": "U097HP2BXG8", "display_name": "Hemanth Sai Dasari", "bio": null, "projects_count": 0, "devlogs_count": 0, "votes_count": 0, "ships_count": 0, "projects": [], "coding_time_seconds": 3155, "coding_time_seconds_today": 0, "balance": "You need to have a pocket watcher badge to view this.", "badges": [], "created_at": "2025-07-22T01:02:50.621-04:00", "updated_at": "2025-07-23T07:48:01.893-04:00", "avatar": "https://avatars.slack-edge.com/2025-07-21/9246578189393_3005ec13f9dddacf2239_original.jpg", "custom_css": null}, {"id": 17389, "slack_id": "U097HPAL46L", "display_name": "Luyuan Zhu", "bio": "I lowkey need to lock in", "projects_count": 1, "devlogs_count": 0, "votes_count": 1, "ships_count": 0, "projects": [{"id": 7505, "title": "Portfolio", "devlogs_count": 0, "created_at": "2025-07-22T01:18:50.470-04:00"}], "coding_time_seconds": 161331, "coding_time_seconds_today": 0, "balance": "You need to have a pocket watcher badge to view this.", "badges": [], "created_at": "2025-07-22T01:04:38.246-04:00", "updated_at": "2025-08-02T03:08:04.283-04:00", "avatar": "https://secure.gravatar.com/avatar/364a7e36278591c6fc3bf6050cb34d71.jpg?s=512&d=https%3A%2F%2Fa.slack-edge.com%2Fdf10d%2Fimg%2Favatars%2Fava_0017-512.png", "custom_css": null}, {"id": 17390, "slack_id": "U078CJ3DF2A", "display_name": "Colin Montigel", "bio": null, "projects_count": 0, "devlogs_count": 0, "votes_count": 0, "ships_count": 0, "projects": [], "coding_time_seconds": 37293, "coding_time_seconds_today": 0, "balance": "You need to have a pocket watcher badge to view this.", "badges": [], "created_at": "2025-07-22T01:04:51.062-04:00", "updated_at": "2025-07-22T01:05:54.321-04:00", "avatar": "https://avatars.slack-edge.com/2024-06-17/7276849761895_50e86f944afb76ecec99_original.png", "custom_css": null}, {"id": 17391, "slack_id": "U096WJD9RC4", "display_name": "Roshan", "bio": "A Casual Coder exploring the fields of AI. ", "projects_count": 1, "devlogs_count": 1, "votes_count": 1, "ships_count": 0, "projects": [{"id": 7672, "title": "Diva AI", "devlogs_count": 1, "created_at": "2025-07-22T13:16:56.415-04:00"}], "coding_time_seconds": 1776, "coding_time_seconds_today": 0, "balance": "You need to have a pocket watcher badge to view this.", "badges": [], "created_at": "2025-07-22T01:04:51.599-04:00", "updated_at": "2025-07-22T14:33:38.285-04:00", "avatar": "https://secure.gravatar.com/avatar/c062f92803eb8c268fa9fcade2563cc0.jpg?s=512&d=https%3A%2F%2Fa.slack-edge.com%2Fdf10d%2Fimg%2Favatars%2Fava_0014-512.png", "custom_css": null}, {"id": 17392, "slack_id": "U096VBM2GKC", "display_name": "Driftyy777", "bio": "", "projects_count": 2, "devlogs_count": 1, "votes_count": 1, "ships_count": 0, "projects": [{"id": 7515, "title": "A basic os for esp32s3 ", "devlogs_count": 1, "created_at": "2025-07-22T02:15:57.194-04:00"}, {"id": 7579, "title": "raspberry pi keyboard", "devlogs_count": 0, "created_at": "2025-07-22T07:10:26.069-04:00"}], "coding_time_seconds": 7935, "coding_time_seconds_today": 0, "balance": "You need to have a pocket watcher badge to view this.", "badges": [], "created_at": "2025-07-22T01:04:56.689-04:00", "updated_at": "2025-07-22T10:01:53.524-04:00", "avatar": "https://secure.gravatar.com/avatar/908a12e5ad88c06d8f11b6ccbb15f215.jpg?s=512&d=https%3A%2F%2Fa.slack-edge.com%2Fdf10d%2Fimg%2Favatars%2Fava_0013-512.png", "custom_css": null}, {"id": 17393, "slack_id": "U096S6UUKHC", "display_name": "Saanvi Singh", "bio": null, "projects_count": 0, "devlogs_count": 0, "votes_count": 0, "ships_count": 0, "projects": [], "coding_time_seconds": 46932, "coding_time_seconds_today": 0, "balance": "You need to have a pocket watcher badge to view this.", "badges": [], "created_at": "2025-07-22T01:07:29.694-04:00", "updated_at": "2025-07-22T03:34:42.513-04:00", "avatar": "https://avatars.slack-edge.com/2025-07-21/9230309984582_431d497cf33b4a269c10_original.jpg", "custom_css": null}, {"id": 17394, "slack_id": "U096E647895", "display_name": "Keshav Aggarwal", "bio": null, "projects_count": 0, "devlogs_count": 0, "votes_count": 0, "ships_count": 0, "projects": [], "coding_time_seconds": 0, "coding_time_seconds_today": 0, "balance": "You need to have a pocket watcher badge to view this.", "badges": [], "created_at": "2025-07-22T01:07:37.152-04:00", "updated_at": "2025-07-22T03:34:42.595-04:00", "avatar": "https://avatars.slack-edge.com/2025-07-21/9234645652180_026c103bdfbe2a67eb9d_original.png", "custom_css": null}, {"id": 17395, "slack_id": "U096EKLV99D", "display_name": "Bisuraj Sharma", "bio": null, "projects_count": 0, "devlogs_count": 0, "votes_count": 0, "ships_count": 0, "projects": [], "coding_time_seconds": 0, "coding_time_seconds_today": 0, "balance": "You need to have a pocket watcher badge to view this.", "badges": [], "created_at": "2025-07-22T01:07:37.898-04:00", "updated_at": "2025-07-23T02:58:01.051-04:00", "avatar": "https://secure.gravatar.com/avatar/c79a2b69a72c8d87387093c9cd91c5ea.jpg?s=512&d=https%3A%2F%2Fa.slack-edge.com%2Fdf10d%2Fimg%2Favatars%2Fava_0018-512.png", "custom_css": null}, {"id": 17396, "slack_id": "U096S8RTUGN", "display_name": "Shubham", "bio": "17 | Stoic | Coding | Football", "projects_count": 1, "devlogs_count": 2, "votes_count": 10, "ships_count": 1, "projects": [{"id": 8042, "title": "Voltag Electricals", "devlogs_count": 2, "created_at": "2025-07-24T09:09:33.951-04:00"}], "coding_time_seconds": 503161, "coding_time_seconds_today": 2540, "balance": "You need to have a pocket watcher badge to view this.", "badges": [], "created_at": "2025-07-22T01:08:03.269-04:00", "updated_at": "2025-08-15T22:45:07.591-04:00", "avatar": "https://secure.gravatar.com/avatar/8188cb61a3e8ccc28ab419272d096eb4.jpg?s=512&d=https%3A%2F%2Fa.slack-edge.com%2Fdf10d%2Fimg%2Favatars%2Fava_0000-512.png", "custom_css": null}, {"id": 17397, "slack_id": "U0978H61RDF", "display_name": "Harshit Tomar", "bio": null, "projects_count": 0, "devlogs_count": 0, "votes_count": 0, "ships_count": 0, "projects": [], "coding_time_seconds": 0, "coding_time_seconds_today": 0, "balance": "You need to have a pocket watcher badge to view this.", "badges": [], "created_at": "2025-07-22T01:08:46.163-04:00", "updated_at": "2025-07-22T03:34:42.854-04:00", "avatar": "https://avatars.slack-edge.com/2025-07-21/9234649352804_dc49ae847744341e96c5_original.jpg", "custom_css": null}, {"id": 17398, "slack_id": "U096EKSLQK1", "display_name": "Aakash", "bio": null, "projects_count": 0, "devlogs_count": 0, "votes_count": 0, "ships_count": 0, "projects": [], "coding_time_seconds": 0, "coding_time_seconds_today": 0, "balance": "You need to have a pocket watcher badge to view this.", "badges": [], "created_at": "2025-07-22T01:10:43.769-04:00", "updated_at": "2025-07-22T03:34:42.933-04:00", "avatar": "https://secure.gravatar.com/avatar/64c5d9836f35cd8702aa06ad0f6934cd.jpg?s=512&d=https%3A%2F%2Fa.slack-edge.com%2Fdf10d%2Fimg%2Favatars%2Fava_0001-512.png", "custom_css": null}, {"id": 17399, "slack_id": "U096Q2VQXS7", "display_name": "Yash Varma", "bio": "", "projects_count": 1, "devlogs_count": 0, "votes_count": 0, "ships_count": 0, "projects": [{"id": 7738, "title": "Axoryn", "devlogs_count": 0, "created_at": "2025-07-22T19:16:32.118-04:00"}], "coding_time_seconds": 459903, "coding_time_seconds_today": 2135, "balance": "You need to have a pocket watcher badge to view this.", "badges": [], "created_at": "2025-07-22T01:11:02.460-04:00", "updated_at": "2025-07-25T14:43:03.256-04:00", "avatar": "https://secure.gravatar.com/avatar/8492993321bc6e4c727f99630f6e499b.jpg?s=512&d=https%3A%2F%2Fa.slack-edge.com%2Fdf10d%2Fimg%2Favatars%2Fava_0010-512.png", "custom_css": null}, {"id": 17400, "slack_id": "U096S96946S", "display_name": "Aditya singh", "bio": null, "projects_count": 0, "devlogs_count": 0, "votes_count": 0, "ships_count": 0, "projects": [], "coding_time_seconds": 0, "coding_time_seconds_today": 0, "balance": "You need to have a pocket watcher badge to view this.", "badges": [], "created_at": "2025-07-22T01:12:15.628-04:00", "updated_at": "2025-07-22T03:34:43.099-04:00", "avatar": "https://secure.gravatar.com/avatar/79a4103c761e92ed32e0b2867c099e8e.jpg?s=512&d=https%3A%2F%2Fa.slack-edge.com%2Fdf10d%2Fimg%2Favatars%2Fava_0000-512.png", "custom_css": null}, {"id": 17401, "slack_id": "U096EKBHN4X", "display_name": "Ambuj Yadav", "bio": null, "projects_count": 0, "devlogs_count": 0, "votes_count": 0, "ships_count": 0, "projects": [], "coding_time_seconds": 0, "coding_time_seconds_today": 0, "balance": "You need to have a pocket watcher badge to view this.", "badges": [], "created_at": "2025-07-22T01:13:29.755-04:00", "updated_at": "2025-07-22T03:34:43.195-04:00", "avatar": "https://secure.gravatar.com/avatar/dd9b8ff8cf575e95e0b62481d1be6598.jpg?s=512&d=https%3A%2F%2Fa.slack-edge.com%2Fdf10d%2Fimg%2Favatars%2Fava_0011-512.png", "custom_css": null}, {"id": 17402, "slack_id": "U096TD7B4RK", "display_name": "VIGGU", "bio": null, "projects_count": 0, "devlogs_count": 0, "votes_count": 0, "ships_count": 0, "projects": [], "coding_time_seconds": 62492, "coding_time_seconds_today": 0, "balance": "You need to have a pocket watcher badge to view this.", "badges": [], "created_at": "2025-07-22T01:13:53.315-04:00", "updated_at": "2025-07-22T03:34:43.284-04:00", "avatar": "https://secure.gravatar.com/avatar/02bb9b6a8b860c6f522128850cb5bdc3.jpg?s=512&d=https%3A%2F%2Fa.slack-edge.com%2Fdf10d%2Fimg%2Favatars%2Fava_0005-512.png", "custom_css": null}, {"id": 17403, "slack_id": "U096WK3TNLC", "display_name": "Haider Ramzan", "bio": null, "projects_count": 0, "devlogs_count": 0, "votes_count": 0, "ships_count": 0, "projects": [], "coding_time_seconds": 0, "coding_time_seconds_today": 0, "balance": "You need to have a pocket watcher badge to view this.", "badges": [], "created_at": "2025-07-22T01:14:34.570-04:00", "updated_at": "2025-07-22T03:34:47.409-04:00", "avatar": "https://avatars.slack-edge.com/2025-07-21/9233447513538_5fd60bc30b59a95bf7b4_original.png", "custom_css": null}, {"id": 17404, "slack_id": "U096S99DPAA", "display_name": "Bappa Mandal", "bio": null, "projects_count": 0, "devlogs_count": 0, "votes_count": 0, "ships_count": 0, "projects": [], "coding_time_seconds": 0, "coding_time_seconds_today": 0, "balance": "You need to have a pocket watcher badge to view this.", "badges": [], "created_at": "2025-07-22T01:14:50.837-04:00", "updated_at": "2025-07-22T03:34:47.924-04:00", "avatar": "https://secure.gravatar.com/avatar/c88a835c462fd6f9be1fee4bd977b7b8.jpg?s=512&d=https%3A%2F%2Fa.slack-edge.com%2Fdf10d%2Fimg%2Favatars%2Fava_0005-512.png", "custom_css": null}, {"id": 17405, "slack_id": "U096VCUAY5Q", "display_name": "Vuddagiri Shashank", "bio": null, "projects_count": 0, "devlogs_count": 0, "votes_count": 1, "ships_count": 0, "projects": [], "coding_time_seconds": 5581, "coding_time_seconds_today": 184, "balance": "You need to have a pocket watcher badge to view this.", "badges": [], "created_at": "2025-07-22T01:14:59.970-04:00", "updated_at": "2025-07-23T23:24:44.163-04:00", "avatar": "https://secure.gravatar.com/avatar/172d136cb988eff17b5d5a9818daa1b6.jpg?s=512&d=https%3A%2F%2Fa.slack-edge.com%2Fdf10d%2Fimg%2Favatars%2Fava_0026-512.png", "custom_css": null}], "pagination": {"page": 866, "pages": 1192, "count": 23828, "items": 20}}