{"users": [{"id": 17406, "slack_id": "U096Q3EUSD9", "display_name": "Jignasa Bhunia", "bio": null, "projects_count": 0, "devlogs_count": 0, "votes_count": 0, "ships_count": 0, "projects": [], "coding_time_seconds": 0, "coding_time_seconds_today": 0, "balance": "You need to have a pocket watcher badge to view this.", "badges": [], "created_at": "2025-07-22T01:15:51.518-04:00", "updated_at": "2025-07-22T03:34:48.097-04:00", "avatar": "https://avatars.slack-edge.com/2025-07-21/9255833071168_4f73b727b7b0e8faf206_original.jpg", "custom_css": null}, {"id": 17407, "slack_id": "U096Q17J27M", "display_name": "juantoman", "bio": null, "projects_count": 0, "devlogs_count": 0, "votes_count": 0, "ships_count": 0, "projects": [], "coding_time_seconds": 0, "coding_time_seconds_today": 0, "balance": "You need to have a pocket watcher badge to view this.", "badges": [], "created_at": "2025-07-22T01:18:38.474-04:00", "updated_at": "2025-07-22T03:34:48.183-04:00", "avatar": "https://secure.gravatar.com/avatar/62f74ac87325ecba1444fe471f7fb00b.jpg?s=512&d=https%3A%2F%2Fa.slack-edge.com%2Fdf10d%2Fimg%2Favatars%2Fava_0009-512.png", "custom_css": null}, {"id": 17408, "slack_id": "U097HQLBE2C", "display_name": "K Rajtilak", "bio": null, "projects_count": 1, "devlogs_count": 1, "votes_count": 1, "ships_count": 0, "projects": [{"id": 7519, "title": "My Portfolio Website", "devlogs_count": 1, "created_at": "2025-07-22T02:29:28.673-04:00"}], "coding_time_seconds": 26811, "coding_time_seconds_today": 0, "balance": "You need to have a pocket watcher badge to view this.", "badges": [], "created_at": "2025-07-22T01:22:14.295-04:00", "updated_at": "2025-08-02T02:05:54.360-04:00", "avatar": "https://secure.gravatar.com/avatar/544fedea52f5e59d7a06575ef7e90e87.jpg?s=512&d=https%3A%2F%2Fa.slack-edge.com%2Fdf10d%2Fimg%2Favatars%2Fava_0009-512.png", "custom_css": null}, {"id": 17409, "slack_id": "U096SA6P6Q6", "display_name": "SARATH BABU C", "bio": null, "projects_count": 0, "devlogs_count": 0, "votes_count": 0, "ships_count": 0, "projects": [], "coding_time_seconds": 0, "coding_time_seconds_today": 0, "balance": "You need to have a pocket watcher badge to view this.", "badges": [], "created_at": "2025-07-22T01:23:28.433-04:00", "updated_at": "2025-07-22T03:34:48.343-04:00", "avatar": "https://avatars.slack-edge.com/2025-07-21/9228148085843_33011550191d6c0917fe_original.png", "custom_css": null}, {"id": 17410, "slack_id": "U097HE1ESKA", "display_name": "Mehul Pathak", "bio": null, "projects_count": 0, "devlogs_count": 0, "votes_count": 0, "ships_count": 0, "projects": [], "coding_time_seconds": 0, "coding_time_seconds_today": 0, "balance": "You need to have a pocket watcher badge to view this.", "badges": [], "created_at": "2025-07-22T01:23:56.321-04:00", "updated_at": "2025-07-22T03:34:48.425-04:00", "avatar": "https://secure.gravatar.com/avatar/e1ed3ee00f2709cb5c4e6c92c0b9dcc8.jpg?s=512&d=https%3A%2F%2Fa.slack-edge.com%2Fdf10d%2Fimg%2Favatars%2Fava_0024-512.png", "custom_css": null}, {"id": 17411, "slack_id": "U097HQYGXPS", "display_name": "Thinh Nguyen", "bio": null, "projects_count": 0, "devlogs_count": 0, "votes_count": 0, "ships_count": 0, "projects": [], "coding_time_seconds": 0, "coding_time_seconds_today": 0, "balance": "You need to have a pocket watcher badge to view this.", "badges": [], "created_at": "2025-07-22T01:24:26.711-04:00", "updated_at": "2025-07-22T03:34:48.504-04:00", "avatar": "https://secure.gravatar.com/avatar/b20f8b1a755d6b927dfa9165f4dbec2c.jpg?s=512&d=https%3A%2F%2Fa.slack-edge.com%2Fdf10d%2Fimg%2Favatars%2Fava_0006-512.png", "custom_css": null}, {"id": 17412, "slack_id": "U096Q4CQJ0K", "display_name": "ARYAN JATHAR", "bio": null, "projects_count": 0, "devlogs_count": 0, "votes_count": 0, "ships_count": 0, "projects": [], "coding_time_seconds": 0, "coding_time_seconds_today": 0, "balance": "You need to have a pocket watcher badge to view this.", "badges": [], "created_at": "2025-07-22T01:25:47.573-04:00", "updated_at": "2025-07-22T03:34:48.593-04:00", "avatar": "https://secure.gravatar.com/avatar/f24d8f5b4e633aaefcc899f1fb2b8d8c.jpg?s=512&d=https%3A%2F%2Fa.slack-edge.com%2Fdf10d%2Fimg%2Favatars%2Fava_0016-512.png", "custom_css": null}, {"id": 17413, "slack_id": "U0978K16JBB", "display_name": "Gabriel", "bio": "", "projects_count": 1, "devlogs_count": 0, "votes_count": 0, "ships_count": 0, "projects": [{"id": 7511, "title": "Azure Translator Code", "devlogs_count": 0, "created_at": "2025-07-22T01:44:51.838-04:00"}], "coding_time_seconds": 235158, "coding_time_seconds_today": 0, "balance": "You need to have a pocket watcher badge to view this.", "badges": [], "created_at": "2025-07-22T01:28:31.720-04:00", "updated_at": "2025-07-22T03:34:48.693-04:00", "avatar": "https://secure.gravatar.com/avatar/8db12142be1fbcdde2b13f7a32e22de3.jpg?s=512&d=https%3A%2F%2Fa.slack-edge.com%2Fdf10d%2Fimg%2Favatars%2Fava_0013-512.png", "custom_css": null}, {"id": 17414, "slack_id": "U096WLDHYA0", "display_name": "Dat Tran", "bio": null, "projects_count": 0, "devlogs_count": 0, "votes_count": 0, "ships_count": 0, "projects": [], "coding_time_seconds": 9745, "coding_time_seconds_today": 0, "balance": "You need to have a pocket watcher badge to view this.", "badges": [], "created_at": "2025-07-22T01:28:33.224-04:00", "updated_at": "2025-07-22T03:34:48.792-04:00", "avatar": "https://avatars.slack-edge.com/2025-07-21/9234711181748_3eb6da2528da9ff02d6e_original.png", "custom_css": null}, {"id": 17415, "slack_id": "U096EMHM17H", "display_name": "Yuvraj Singh", "bio": null, "projects_count": 0, "devlogs_count": 0, "votes_count": 0, "ships_count": 0, "projects": [], "coding_time_seconds": 24207, "coding_time_seconds_today": 0, "balance": "You need to have a pocket watcher badge to view this.", "badges": [], "created_at": "2025-07-22T01:28:59.285-04:00", "updated_at": "2025-07-22T03:34:48.886-04:00", "avatar": "https://secure.gravatar.com/avatar/c41a34272ec749b6ac02bf9c96a3cebe.jpg?s=512&d=https%3A%2F%2Fa.slack-edge.com%2Fdf10d%2Fimg%2Favatars%2Fava_0025-512.png", "custom_css": null}, {"id": 17416, "slack_id": "U096Q4S8M6X", "display_name": "Jason Chang", "bio": null, "projects_count": 0, "devlogs_count": 0, "votes_count": 0, "ships_count": 0, "projects": [], "coding_time_seconds": 0, "coding_time_seconds_today": 0, "balance": "You need to have a pocket watcher badge to view this.", "badges": [], "created_at": "2025-07-22T01:29:56.944-04:00", "updated_at": "2025-07-23T01:46:08.981-04:00", "avatar": "https://secure.gravatar.com/avatar/3aa6bd191b7bf16e892cbe09b117839b.jpg?s=512&d=https%3A%2F%2Fa.slack-edge.com%2Fdf10d%2Fimg%2Favatars%2Fava_0015-512.png", "custom_css": null}, {"id": 17417, "slack_id": "U096VDY4BMY", "display_name": "shreyas N", "bio": null, "projects_count": 0, "devlogs_count": 0, "votes_count": 0, "ships_count": 0, "projects": [], "coding_time_seconds": 0, "coding_time_seconds_today": 0, "balance": "You need to have a pocket watcher badge to view this.", "badges": [], "created_at": "2025-07-22T01:30:07.439-04:00", "updated_at": "2025-07-22T03:34:49.076-04:00", "avatar": "https://secure.gravatar.com/avatar/d19a2767c5d4e3d64efeb7c09159cc14.jpg?s=512&d=https%3A%2F%2Fa.slack-edge.com%2Fdf10d%2Fimg%2Favatars%2Fava_0002-512.png", "custom_css": null}, {"id": 17418, "slack_id": "U096N9NGBFV", "display_name": "Bhargav Acharya", "bio": null, "projects_count": 0, "devlogs_count": 0, "votes_count": 0, "ships_count": 0, "projects": [], "coding_time_seconds": 0, "coding_time_seconds_today": 0, "balance": "You need to have a pocket watcher badge to view this.", "badges": [], "created_at": "2025-07-22T01:30:46.248-04:00", "updated_at": "2025-07-22T03:34:49.188-04:00", "avatar": "https://avatars.slack-edge.com/2025-07-21/9230385572326_123a72d611dd3a632801_original.png", "custom_css": null}, {"id": 17419, "slack_id": "U096SRG5K6Z", "display_name": "Kaushik Tripathi", "bio": null, "projects_count": 0, "devlogs_count": 0, "votes_count": 0, "ships_count": 0, "projects": [], "coding_time_seconds": 0, "coding_time_seconds_today": 0, "balance": "You need to have a pocket watcher badge to view this.", "badges": [], "created_at": "2025-07-22T01:31:04.150-04:00", "updated_at": "2025-07-22T03:34:49.269-04:00", "avatar": "https://avatars.slack-edge.com/2025-07-21/9218750244071_9212069cef2e68025cfb_original.png", "custom_css": null}, {"id": 17420, "slack_id": "U096TF26PDK", "display_name": "Gunjesh Kumar", "bio": null, "projects_count": 0, "devlogs_count": 8, "votes_count": 17, "ships_count": 0, "projects": [], "coding_time_seconds": 239671, "coding_time_seconds_today": 0, "balance": "You need to have a pocket watcher badge to view this.", "badges": [], "created_at": "2025-07-22T01:32:58.548-04:00", "updated_at": "2025-08-11T12:24:10.477-04:00", "avatar": "https://secure.gravatar.com/avatar/4f06c8921b0fab705b99b09eaaec2fdb.jpg?s=512&d=https%3A%2F%2Fa.slack-edge.com%2Fdf10d%2Fimg%2Favatars%2Fava_0013-512.png", "custom_css": null}, {"id": 17421, "slack_id": "U096WM00U3W", "display_name": "Eyuvaraj D", "bio": null, "projects_count": 0, "devlogs_count": 0, "votes_count": 0, "ships_count": 0, "projects": [], "coding_time_seconds": 3287, "coding_time_seconds_today": 0, "balance": "You need to have a pocket watcher badge to view this.", "badges": [], "created_at": "2025-07-22T01:33:02.754-04:00", "updated_at": "2025-07-22T03:34:49.481-04:00", "avatar": "https://avatars.slack-edge.com/2025-07-21/9233510319186_c3257d1e7db785691dd3_original.png", "custom_css": null}, {"id": 17422, "slack_id": "U097H2WG5S4", "display_name": "Zeeshan Modi", "bio": null, "projects_count": 0, "devlogs_count": 0, "votes_count": 0, "ships_count": 0, "projects": [], "coding_time_seconds": 0, "coding_time_seconds_today": 0, "balance": "You need to have a pocket watcher badge to view this.", "badges": [], "created_at": "2025-07-22T01:33:53.206-04:00", "updated_at": "2025-07-22T03:34:49.565-04:00", "avatar": "https://avatars.slack-edge.com/2025-07-21/9255888698112_d2d6c05e966e967a55b9_original.jpg", "custom_css": null}, {"id": 17423, "slack_id": "U096WM4AYMA", "display_name": "Dev Sharma", "bio": null, "projects_count": 1, "devlogs_count": 0, "votes_count": 0, "ships_count": 0, "projects": [{"id": 7549, "title": "QuickCast", "devlogs_count": 0, "created_at": "2025-07-22T04:46:42.404-04:00"}], "coding_time_seconds": 3979, "coding_time_seconds_today": 0, "balance": "You need to have a pocket watcher badge to view this.", "badges": [], "created_at": "2025-07-22T01:35:25.914-04:00", "updated_at": "2025-07-22T08:08:35.586-04:00", "avatar": "https://secure.gravatar.com/avatar/ca778014bb4bc25b7c24f74e8de284da.jpg?s=512&d=https%3A%2F%2Fa.slack-edge.com%2Fdf10d%2Fimg%2Favatars%2Fava_0016-512.png", "custom_css": null}, {"id": 17424, "slack_id": "U096EN1184F", "display_name": "avimuser", "bio": null, "projects_count": 0, "devlogs_count": 0, "votes_count": 0, "ships_count": 0, "projects": [], "coding_time_seconds": 0, "coding_time_seconds_today": 0, "balance": "You need to have a pocket watcher badge to view this.", "badges": [], "created_at": "2025-07-22T01:35:26.174-04:00", "updated_at": "2025-07-23T00:18:07.143-04:00", "avatar": "https://secure.gravatar.com/avatar/b8b144b13821fe354068776754719d42.jpg?s=512&d=https%3A%2F%2Fa.slack-edge.com%2Fdf10d%2Fimg%2Favatars%2Fava_0004-512.png", "custom_css": null}, {"id": 17425, "slack_id": "U096VEVV9KL", "display_name": "Swastik Sharma", "bio": null, "projects_count": 0, "devlogs_count": 0, "votes_count": 0, "ships_count": 0, "projects": [], "coding_time_seconds": 0, "coding_time_seconds_today": 0, "balance": "You need to have a pocket watcher badge to view this.", "badges": [], "created_at": "2025-07-22T01:36:27.145-04:00", "updated_at": "2025-07-22T03:34:49.859-04:00", "avatar": "https://avatars.slack-edge.com/2025-07-21/9230406869366_7fbd402c07c121b4e577_original.png", "custom_css": null}], "pagination": {"page": 867, "pages": 1192, "count": 23828, "items": 20}}