{"users": [{"id": 17426, "slack_id": "U0978L1FP8R", "display_name": "Adora Anandou", "bio": null, "projects_count": 0, "devlogs_count": 0, "votes_count": 0, "ships_count": 0, "projects": [], "coding_time_seconds": 0, "coding_time_seconds_today": 0, "balance": "You need to have a pocket watcher badge to view this.", "badges": [], "created_at": "2025-07-22T01:38:54.897-04:00", "updated_at": "2025-07-23T08:25:01.898-04:00", "avatar": "https://secure.gravatar.com/avatar/04120d48ea1b18077b3fa741bde09dca.jpg?s=512&d=https%3A%2F%2Fa.slack-edge.com%2Fdf10d%2Fimg%2Favatars%2Fava_0020-512.png", "custom_css": null}, {"id": 17427, "slack_id": "U096WMKAEDA", "display_name": "Arsh", "bio": null, "projects_count": 1, "devlogs_count": 0, "votes_count": 0, "ships_count": 0, "projects": [{"id": 7600, "title": "MY PORTFOLIO WEBSITE", "devlogs_count": 0, "created_at": "2025-07-22T08:39:45.812-04:00"}], "coding_time_seconds": 33493, "coding_time_seconds_today": 0, "balance": "You need to have a pocket watcher badge to view this.", "badges": [], "created_at": "2025-07-22T01:39:18.911-04:00", "updated_at": "2025-07-22T08:33:21.701-04:00", "avatar": "https://secure.gravatar.com/avatar/3d5bb85d4f9d224dce1e497560c533cd.jpg?s=512&d=https%3A%2F%2Fa.slack-edge.com%2Fdf10d%2Fimg%2Favatars%2Fava_0023-512.png", "custom_css": null}, {"id": 17428, "slack_id": "U096VFC76Q2", "display_name": "Nafiz Eren Nas\u0131ro\u011flu", "bio": null, "projects_count": 0, "devlogs_count": 0, "votes_count": 0, "ships_count": 0, "projects": [], "coding_time_seconds": 0, "coding_time_seconds_today": 0, "balance": "You need to have a pocket watcher badge to view this.", "badges": [], "created_at": "2025-07-22T01:39:56.111-04:00", "updated_at": "2025-07-22T03:34:50.105-04:00", "avatar": "https://avatars.slack-edge.com/2025-07-21/9246697437553_15480f395d32bb85b1a8_original.jpg", "custom_css": null}, {"id": 17429, "slack_id": "U096TFPS52R", "display_name": "Variable", "bio": null, "projects_count": 2, "devlogs_count": 1, "votes_count": 1, "ships_count": 0, "projects": [{"id": 7665, "title": "Daisy - NLP Moderation Telegram Bot", "devlogs_count": 1, "created_at": "2025-07-22T12:52:12.963-04:00"}, {"id": 12054, "title": "Minesweeper solver - Image based cell detection", "devlogs_count": 0, "created_at": "2025-08-22T12:30:05.216-04:00"}], "coding_time_seconds": 25994, "coding_time_seconds_today": 0, "balance": "You need to have a pocket watcher badge to view this.", "badges": [], "created_at": "2025-07-22T01:40:17.865-04:00", "updated_at": "2025-08-22T12:21:17.856-04:00", "avatar": "https://secure.gravatar.com/avatar/3f3ce9d4364183451aaede3526e326ee.jpg?s=512&d=https%3A%2F%2Fa.slack-edge.com%2Fdf10d%2Fimg%2Favatars%2Fava_0010-512.png", "custom_css": null}, {"id": 17430, "slack_id": "U096W8EA1FW", "display_name": "manasa", "bio": null, "projects_count": 0, "devlogs_count": 0, "votes_count": 0, "ships_count": 0, "projects": [], "coding_time_seconds": 0, "coding_time_seconds_today": 0, "balance": "You need to have a pocket watcher badge to view this.", "badges": [], "created_at": "2025-07-22T01:42:27.328-04:00", "updated_at": "2025-07-22T03:34:50.310-04:00", "avatar": "https://secure.gravatar.com/avatar/d1ec15b00504312bec720a50083d2452.jpg?s=512&d=https%3A%2F%2Fa.slack-edge.com%2Fdf10d%2Fimg%2Favatars%2Fava_0017-512.png", "custom_css": null}, {"id": 17431, "slack_id": "U096ENW2GDD", "display_name": "Jaypalsinh Jadeja", "bio": null, "projects_count": 0, "devlogs_count": 0, "votes_count": 0, "ships_count": 0, "projects": [], "coding_time_seconds": 0, "coding_time_seconds_today": 0, "balance": "You need to have a pocket watcher badge to view this.", "badges": [], "created_at": "2025-07-22T01:43:14.011-04:00", "updated_at": "2025-07-22T03:34:50.389-04:00", "avatar": "https://secure.gravatar.com/avatar/ca9c57ba9ad2b4155217f477577be3dd.jpg?s=512&d=https%3A%2F%2Fa.slack-edge.com%2Fdf10d%2Fimg%2Favatars%2Fava_0026-512.png", "custom_css": null}, {"id": 17432, "slack_id": "U096WN3BFB6", "display_name": "Vighnesh", "bio": null, "projects_count": 0, "devlogs_count": 0, "votes_count": 0, "ships_count": 0, "projects": [], "coding_time_seconds": 0, "coding_time_seconds_today": 0, "balance": "You need to have a pocket watcher badge to view this.", "badges": [], "created_at": "2025-07-22T01:44:02.791-04:00", "updated_at": "2025-07-22T03:34:50.467-04:00", "avatar": "https://secure.gravatar.com/avatar/abd0a1f943c974a3fe212500a176a795.jpg?s=512&d=https%3A%2F%2Fa.slack-edge.com%2Fdf10d%2Fimg%2Favatars%2Fava_0013-512.png", "custom_css": null}, {"id": 17433, "slack_id": "U096WMT4XMJ", "display_name": "vansh Agarwal", "bio": null, "projects_count": 0, "devlogs_count": 0, "votes_count": 0, "ships_count": 0, "projects": [], "coding_time_seconds": 2747, "coding_time_seconds_today": 0, "balance": "You need to have a pocket watcher badge to view this.", "badges": [], "created_at": "2025-07-22T01:44:06.762-04:00", "updated_at": "2025-07-22T03:34:50.557-04:00", "avatar": "https://avatars.slack-edge.com/2025-07-21/9230431841574_9189b1d56001096c7fd0_original.png", "custom_css": null}, {"id": 17434, "slack_id": "U096SBYHGVC", "display_name": "noblehalogen", "bio": null, "projects_count": 0, "devlogs_count": 0, "votes_count": 0, "ships_count": 0, "projects": [], "coding_time_seconds": 0, "coding_time_seconds_today": 0, "balance": "You need to have a pocket watcher badge to view this.", "badges": [], "created_at": "2025-07-22T01:44:19.135-04:00", "updated_at": "2025-07-22T03:34:50.632-04:00", "avatar": "https://secure.gravatar.com/avatar/3ce1c6c5743ee0d7c1cd58dd5de4c099.jpg?s=512&d=https%3A%2F%2Fa.slack-edge.com%2Fdf10d%2Fimg%2Favatars%2Fava_0026-512.png", "custom_css": null}, {"id": 17435, "slack_id": "U0978LJPZRP", "display_name": "Philipp Borkovic", "bio": null, "projects_count": 1, "devlogs_count": 1, "votes_count": 12, "ships_count": 1, "projects": [{"id": 7522, "title": "DialogStudio", "devlogs_count": 1, "created_at": "2025-07-22T02:32:19.274-04:00"}], "coding_time_seconds": 152588, "coding_time_seconds_today": 0, "balance": "You need to have a pocket watcher badge to view this.", "badges": [], "created_at": "2025-07-22T01:44:55.829-04:00", "updated_at": "2025-08-19T02:28:29.942-04:00", "avatar": "https://secure.gravatar.com/avatar/19f56156dbc9163b285ff4ee7d4c5523.jpg?s=512&d=https%3A%2F%2Fa.slack-edge.com%2Fdf10d%2Fimg%2Favatars%2Fava_0014-512.png", "custom_css": null}, {"id": 17436, "slack_id": "U096SCH5L9L", "display_name": "Anas Shafiq", "bio": null, "projects_count": 0, "devlogs_count": 0, "votes_count": 0, "ships_count": 0, "projects": [], "coding_time_seconds": 0, "coding_time_seconds_today": 0, "balance": "You need to have a pocket watcher badge to view this.", "badges": [], "created_at": "2025-07-22T01:44:57.268-04:00", "updated_at": "2025-07-22T03:34:50.787-04:00", "avatar": "https://secure.gravatar.com/avatar/c2e5a5a5a5934f9782c408d63e27985a.jpg?s=512&d=https%3A%2F%2Fa.slack-edge.com%2Fdf10d%2Fimg%2Favatars%2Fava_0003-512.png", "custom_css": null}, {"id": 17437, "slack_id": "U096SCFAGLE", "display_name": "Shresth Gupta", "bio": null, "projects_count": 0, "devlogs_count": 0, "votes_count": 0, "ships_count": 0, "projects": [], "coding_time_seconds": 0, "coding_time_seconds_today": 0, "balance": "You need to have a pocket watcher badge to view this.", "badges": [], "created_at": "2025-07-22T01:45:44.868-04:00", "updated_at": "2025-08-20T00:54:57.569-04:00", "avatar": "https://secure.gravatar.com/avatar/6941a3d6483ec19bd98194e7b414851c.jpg?s=512&d=https%3A%2F%2Fa.slack-edge.com%2Fdf10d%2Fimg%2Favatars%2Fava_0024-512.png", "custom_css": null}, {"id": 17438, "slack_id": "U096UV2RZ60", "display_name": "jose", "bio": null, "projects_count": 0, "devlogs_count": 0, "votes_count": 0, "ships_count": 0, "projects": [], "coding_time_seconds": 0, "coding_time_seconds_today": 0, "balance": "You need to have a pocket watcher badge to view this.", "badges": [], "created_at": "2025-07-22T01:46:11.995-04:00", "updated_at": "2025-07-22T03:34:50.967-04:00", "avatar": "https://secure.gravatar.com/avatar/7fbb953797810a83b1ae79c3afe1cd88.jpg?s=512&d=https%3A%2F%2Fa.slack-edge.com%2Fdf10d%2Fimg%2Favatars%2Fava_0007-512.png", "custom_css": null}, {"id": 17439, "slack_id": "U096Q6111JP", "display_name": "Hemant M Mehta 21BLC1379", "bio": null, "projects_count": 0, "devlogs_count": 0, "votes_count": 0, "ships_count": 0, "projects": [], "coding_time_seconds": 0, "coding_time_seconds_today": 0, "balance": "You need to have a pocket watcher badge to view this.", "badges": [], "created_at": "2025-07-22T01:47:06.879-04:00", "updated_at": "2025-07-22T03:34:55.078-04:00", "avatar": "https://avatars.slack-edge.com/2025-07-21/9218803972247_205d2f9c82897a12865b_original.png", "custom_css": null}, {"id": 17440, "slack_id": "U096EP898G7", "display_name": "MJisHere", "bio": null, "projects_count": 0, "devlogs_count": 0, "votes_count": 0, "ships_count": 0, "projects": [], "coding_time_seconds": 0, "coding_time_seconds_today": 0, "balance": "You need to have a pocket watcher badge to view this.", "badges": [], "created_at": "2025-07-22T01:47:16.242-04:00", "updated_at": "2025-07-28T06:13:46.090-04:00", "avatar": "https://secure.gravatar.com/avatar/7aad28b148a06889130b4d510a3ba4bb.jpg?s=512&d=https%3A%2F%2Fa.slack-edge.com%2Fdf10d%2Fimg%2Favatars%2Fava_0001-512.png", "custom_css": null}, {"id": 17441, "slack_id": "U0978LFJJ8Z", "display_name": "Sandhiya G", "bio": null, "projects_count": 0, "devlogs_count": 0, "votes_count": 0, "ships_count": 0, "projects": [], "coding_time_seconds": 0, "coding_time_seconds_today": 0, "balance": "You need to have a pocket watcher badge to view this.", "badges": [], "created_at": "2025-07-22T01:49:21.988-04:00", "updated_at": "2025-07-22T03:34:55.263-04:00", "avatar": "https://secure.gravatar.com/avatar/3c69f949037a8e534b92ce1ad2165762.jpg?s=512&d=https%3A%2F%2Fa.slack-edge.com%2Fdf10d%2Fimg%2Favatars%2Fava_0017-512.png", "custom_css": null}, {"id": 17442, "slack_id": "U096ENXR2BZ", "display_name": "Roshan S", "bio": null, "projects_count": 0, "devlogs_count": 0, "votes_count": 0, "ships_count": 0, "projects": [], "coding_time_seconds": 0, "coding_time_seconds_today": 0, "balance": "You need to have a pocket watcher badge to view this.", "badges": [], "created_at": "2025-07-22T01:49:59.946-04:00", "updated_at": "2025-07-22T03:34:55.366-04:00", "avatar": "https://secure.gravatar.com/avatar/957e15f55713841a0d4c9ba8ce544eae.jpg?s=512&d=https%3A%2F%2Fa.slack-edge.com%2Fdf10d%2Fimg%2Favatars%2Fava_0017-512.png", "custom_css": null}, {"id": 17443, "slack_id": "U0978LP6M2M", "display_name": "Yash Vekaria", "bio": null, "projects_count": 0, "devlogs_count": 0, "votes_count": 0, "ships_count": 0, "projects": [], "coding_time_seconds": 0, "coding_time_seconds_today": 0, "balance": "You need to have a pocket watcher badge to view this.", "badges": [], "created_at": "2025-07-22T01:50:04.120-04:00", "updated_at": "2025-07-22T03:34:55.463-04:00", "avatar": "https://secure.gravatar.com/avatar/cbd5c4f808e0e978a67dcd3a6080adc5.jpg?s=512&d=https%3A%2F%2Fa.slack-edge.com%2Fdf10d%2Fimg%2Favatars%2Fava_0017-512.png", "custom_css": null}, {"id": 17444, "slack_id": "U0978M01QF3", "display_name": "Mustafa azad", "bio": null, "projects_count": 0, "devlogs_count": 0, "votes_count": 0, "ships_count": 0, "projects": [], "coding_time_seconds": 0, "coding_time_seconds_today": 0, "balance": "You need to have a pocket watcher badge to view this.", "badges": [], "created_at": "2025-07-22T01:51:20.266-04:00", "updated_at": "2025-07-22T03:34:55.542-04:00", "avatar": "https://secure.gravatar.com/avatar/1091b3ffbc0685ab7395c6cbec130f55.jpg?s=512&d=https%3A%2F%2Fa.slack-edge.com%2Fdf10d%2Fimg%2Favatars%2Fava_0004-512.png", "custom_css": null}, {"id": 17445, "slack_id": "U096WH6NWH2", "display_name": "Princeden Hom", "bio": null, "projects_count": 2, "devlogs_count": 2, "votes_count": 3, "ships_count": 0, "projects": [{"id": 9517, "title": "Personal Portfolio", "devlogs_count": 2, "created_at": "2025-08-01T14:25:27.168-04:00"}, {"id": 9516, "title": "Personal Portfolio", "devlogs_count": 0, "created_at": "2025-08-01T14:25:27.167-04:00"}], "coding_time_seconds": 30227, "coding_time_seconds_today": 0, "balance": "You need to have a pocket watcher badge to view this.", "badges": [], "created_at": "2025-07-22T01:51:50.716-04:00", "updated_at": "2025-08-21T22:48:52.383-04:00", "avatar": "https://avatars.slack-edge.com/2025-07-21/9231585573957_e275be54599bd39b31fd_original.png", "custom_css": null}], "pagination": {"page": 868, "pages": 1192, "count": 23828, "items": 20}}