{"users": [{"id": 17446, "slack_id": "U096SD76EMU", "display_name": "Artemio Hurtado Hernandez", "bio": null, "projects_count": 0, "devlogs_count": 0, "votes_count": 0, "ships_count": 0, "projects": [], "coding_time_seconds": 0, "coding_time_seconds_today": 0, "balance": "You need to have a pocket watcher badge to view this.", "badges": [], "created_at": "2025-07-22T01:53:01.115-04:00", "updated_at": "2025-07-22T03:34:59.757-04:00", "avatar": "https://avatars.slack-edge.com/2025-07-21/9246740032561_66a25e4c977600f8ecef_original.png", "custom_css": null}, {"id": 17447, "slack_id": "U0978ME445P", "display_name": "thirvo", "bio": null, "projects_count": 0, "devlogs_count": 0, "votes_count": 0, "ships_count": 0, "projects": [], "coding_time_seconds": 0, "coding_time_seconds_today": 0, "balance": "You need to have a pocket watcher badge to view this.", "badges": [], "created_at": "2025-07-22T01:53:46.006-04:00", "updated_at": "2025-07-22T03:34:59.837-04:00", "avatar": "https://secure.gravatar.com/avatar/f7d76748a1a0340b52454eb32648c591.jpg?s=512&d=https%3A%2F%2Fa.slack-edge.com%2Fdf10d%2Fimg%2Favatars%2Fava_0009-512.png", "custom_css": null}, {"id": 17448, "slack_id": "U096WP3UFE0", "display_name": "Namana Venkata Sai Prabhash", "bio": null, "projects_count": 1, "devlogs_count": 1, "votes_count": 1, "ships_count": 0, "projects": [{"id": 7525, "title": "learn Tensorflow", "devlogs_count": 1, "created_at": "2025-07-22T02:51:49.212-04:00"}], "coding_time_seconds": 5286, "coding_time_seconds_today": 0, "balance": "You need to have a pocket watcher badge to view this.", "badges": [], "created_at": "2025-07-22T01:54:15.612-04:00", "updated_at": "2025-07-22T03:34:59.918-04:00", "avatar": "https://secure.gravatar.com/avatar/01597a6b9283216b64c0b269195328db.jpg?s=512&d=https%3A%2F%2Fa.slack-edge.com%2Fdf10d%2Fimg%2Favatars%2Fava_0012-512.png", "custom_css": null}, {"id": 17449, "slack_id": "U096SD5NELW", "display_name": "tushar shah", "bio": null, "projects_count": 0, "devlogs_count": 0, "votes_count": 0, "ships_count": 0, "projects": [], "coding_time_seconds": 0, "coding_time_seconds_today": 0, "balance": "You need to have a pocket watcher badge to view this.", "badges": [], "created_at": "2025-07-22T01:54:15.651-04:00", "updated_at": "2025-07-22T03:35:00.003-04:00", "avatar": "https://avatars.slack-edge.com/2025-07-21/9255952882288_df3fca46f26a5a8c87eb_original.jpg", "custom_css": null}, {"id": 17450, "slack_id": "U096SD5RWH4", "display_name": "m4nifest0", "bio": null, "projects_count": 0, "devlogs_count": 0, "votes_count": 0, "ships_count": 0, "projects": [], "coding_time_seconds": 0, "coding_time_seconds_today": 0, "balance": "You need to have a pocket watcher badge to view this.", "badges": [], "created_at": "2025-07-22T01:54:48.117-04:00", "updated_at": "2025-07-22T03:35:00.093-04:00", "avatar": "https://secure.gravatar.com/avatar/041d927d3a3918a32938315d14f432cb.jpg?s=512&d=https%3A%2F%2Fa.slack-edge.com%2Fdf10d%2Fimg%2Favatars%2Fava_0004-512.png", "custom_css": null}, {"id": 17451, "slack_id": "U096EPY2C5V", "display_name": "xinnoc", "bio": null, "projects_count": 0, "devlogs_count": 0, "votes_count": 0, "ships_count": 0, "projects": [], "coding_time_seconds": 0, "coding_time_seconds_today": 0, "balance": "You need to have a pocket watcher badge to view this.", "badges": [], "created_at": "2025-07-22T01:55:53.396-04:00", "updated_at": "2025-07-22T03:35:00.188-04:00", "avatar": "https://secure.gravatar.com/avatar/67f2c069e0561266bed054d1d11b57a1.jpg?s=512&d=https%3A%2F%2Fa.slack-edge.com%2Fdf10d%2Fimg%2Favatars%2Fava_0009-512.png", "custom_css": null}, {"id": 17452, "slack_id": "U096WPAQYSG", "display_name": "Anthony Saucedo", "bio": null, "projects_count": 0, "devlogs_count": 0, "votes_count": 0, "ships_count": 0, "projects": [], "coding_time_seconds": 0, "coding_time_seconds_today": 0, "balance": "You need to have a pocket watcher badge to view this.", "badges": [], "created_at": "2025-07-22T01:57:07.336-04:00", "updated_at": "2025-07-22T03:35:00.326-04:00", "avatar": "https://secure.gravatar.com/avatar/9e4a70f3d02c67eb55124a940fe43d7c.jpg?s=512&d=https%3A%2F%2Fa.slack-edge.com%2Fdf10d%2Fimg%2Favatars%2Fava_0020-512.png", "custom_css": null}, {"id": 17453, "slack_id": "U0978MT0H97", "display_name": "Aditya Khiratkar", "bio": null, "projects_count": 0, "devlogs_count": 0, "votes_count": 0, "ships_count": 0, "projects": [], "coding_time_seconds": 0, "coding_time_seconds_today": 0, "balance": "You need to have a pocket watcher badge to view this.", "badges": [], "created_at": "2025-07-22T01:57:07.802-04:00", "updated_at": "2025-07-22T03:35:00.419-04:00", "avatar": "https://avatars.slack-edge.com/2025-07-21/9228261921971_cb987ad700433e28701c_original.png", "custom_css": null}, {"id": 17454, "slack_id": "U0978MFHG65", "display_name": "Muhammad Ali", "bio": null, "projects_count": 0, "devlogs_count": 0, "votes_count": 0, "ships_count": 0, "projects": [], "coding_time_seconds": 0, "coding_time_seconds_today": 0, "balance": "You need to have a pocket watcher badge to view this.", "badges": [], "created_at": "2025-07-22T01:57:08.920-04:00", "updated_at": "2025-07-22T03:35:00.498-04:00", "avatar": "https://secure.gravatar.com/avatar/ade0f3e2ee83e51a2ef254e304900a2b.jpg?s=512&d=https%3A%2F%2Fa.slack-edge.com%2Fdf10d%2Fimg%2Favatars%2Fava_0020-512.png", "custom_css": null}, {"id": 17455, "slack_id": "U096EQAEHFH", "display_name": "Daniel Mart\u00edn P\u00e9rez", "bio": null, "projects_count": 1, "devlogs_count": 0, "votes_count": 1, "ships_count": 0, "projects": [{"id": 7533, "title": "Qiskit Global Summer School", "devlogs_count": 0, "created_at": "2025-07-22T03:41:53.793-04:00"}], "coding_time_seconds": 47109, "coding_time_seconds_today": 1976, "balance": "You need to have a pocket watcher badge to view this.", "badges": [], "created_at": "2025-07-22T01:57:10.511-04:00", "updated_at": "2025-07-22T06:35:59.916-04:00", "avatar": "https://secure.gravatar.com/avatar/e2fa22654f24899d068108ddba065a36.jpg?s=512&d=https%3A%2F%2Fa.slack-edge.com%2Fdf10d%2Fimg%2Favatars%2Fava_0021-512.png", "custom_css": null}, {"id": 17456, "slack_id": "U096THE1Q21", "display_name": "Md Sadman Hossain", "bio": null, "projects_count": 0, "devlogs_count": 0, "votes_count": 0, "ships_count": 0, "projects": [], "coding_time_seconds": 0, "coding_time_seconds_today": 0, "balance": "You need to have a pocket watcher badge to view this.", "badges": [], "created_at": "2025-07-22T01:57:57.037-04:00", "updated_at": "2025-08-13T04:54:12.473-04:00", "avatar": "https://secure.gravatar.com/avatar/c3e15017555e7d9db2f75af2d08d6452.jpg?s=512&d=https%3A%2F%2Fa.slack-edge.com%2Fdf10d%2Fimg%2Favatars%2Fava_0019-512.png", "custom_css": null}, {"id": 17457, "slack_id": "U0978MTERPT", "display_name": "Blanka", "bio": "", "projects_count": 0, "devlogs_count": 0, "votes_count": 1, "ships_count": 0, "projects": [], "coding_time_seconds": 20441, "coding_time_seconds_today": 0, "balance": "You need to have a pocket watcher badge to view this.", "badges": [], "created_at": "2025-07-22T01:57:58.670-04:00", "updated_at": "2025-07-22T06:27:23.631-04:00", "avatar": "https://avatars.slack-edge.com/2025-07-22/9233636938818_3a7c9f72486fcbe2da81_original.jpg", "custom_css": null}, {"id": 17458, "slack_id": "U097HU0QXEC", "display_name": "Rohit Ahirwar", "bio": null, "projects_count": 0, "devlogs_count": 0, "votes_count": 0, "ships_count": 0, "projects": [], "coding_time_seconds": 49775, "coding_time_seconds_today": 0, "balance": "You need to have a pocket watcher badge to view this.", "badges": [], "created_at": "2025-07-22T01:59:09.718-04:00", "updated_at": "2025-07-22T03:35:00.827-04:00", "avatar": "https://secure.gravatar.com/avatar/8077edbd48325bbd769ebb4bd743d40b.jpg?s=512&d=https%3A%2F%2Fa.slack-edge.com%2Fdf10d%2Fimg%2Favatars%2Fava_0012-512.png", "custom_css": null}, {"id": 17459, "slack_id": "U096TGZ0Y3F", "display_name": "David Lee", "bio": null, "projects_count": 0, "devlogs_count": 0, "votes_count": 0, "ships_count": 0, "projects": [], "coding_time_seconds": 3553, "coding_time_seconds_today": 0, "balance": "You need to have a pocket watcher badge to view this.", "badges": [], "created_at": "2025-07-22T01:59:27.595-04:00", "updated_at": "2025-08-09T05:37:43.223-04:00", "avatar": "https://avatars.slack-edge.com/2025-07-21/9231610448981_b2552a10d679916ca7ed_original.png", "custom_css": null}, {"id": 17460, "slack_id": "U08MMJCCG13", "display_name": "Mathijs Markvoort", "bio": null, "projects_count": 0, "devlogs_count": 0, "votes_count": 0, "ships_count": 0, "projects": [], "coding_time_seconds": 0, "coding_time_seconds_today": 0, "balance": "You need to have a pocket watcher badge to view this.", "badges": [], "created_at": "2025-07-22T01:59:49.972-04:00", "updated_at": "2025-07-22T08:06:11.288-04:00", "avatar": "https://secure.gravatar.com/avatar/c45ed7a871ee2a76403bceacfa66b7b6.jpg?s=512&d=https%3A%2F%2Fa.slack-edge.com%2Fdf10d%2Fimg%2Favatars%2Fava_0002-512.png", "custom_css": null}, {"id": 17461, "slack_id": "U096ED7FDJT", "display_name": "Digant Suwal", "bio": null, "projects_count": 0, "devlogs_count": 0, "votes_count": 0, "ships_count": 0, "projects": [], "coding_time_seconds": 22081, "coding_time_seconds_today": 0, "balance": "You need to have a pocket watcher badge to view this.", "badges": [], "created_at": "2025-07-22T02:00:09.930-04:00", "updated_at": "2025-07-22T03:35:01.124-04:00", "avatar": "https://avatars.slack-edge.com/2025-07-21/9231615166741_bb279781ba9f1a08a7d1_original.jpg", "custom_css": null}, {"id": 17462, "slack_id": "U096VHAD6SW", "display_name": "EnZaXD", "bio": null, "projects_count": 0, "devlogs_count": 1, "votes_count": 0, "ships_count": 0, "projects": [], "coding_time_seconds": 125089, "coding_time_seconds_today": 0, "balance": "You need to have a pocket watcher badge to view this.", "badges": [], "created_at": "2025-07-22T02:00:17.237-04:00", "updated_at": "2025-07-24T10:27:35.426-04:00", "avatar": "https://avatars.slack-edge.com/2025-07-24/9247045741525_efacc37c445828a1ce04_original.jpg", "custom_css": null}, {"id": 17463, "slack_id": "U097HU798L8", "display_name": "bartick", "bio": null, "projects_count": 0, "devlogs_count": 0, "votes_count": 0, "ships_count": 0, "projects": [], "coding_time_seconds": 0, "coding_time_seconds_today": 0, "balance": "You need to have a pocket watcher badge to view this.", "badges": [], "created_at": "2025-07-22T02:00:19.752-04:00", "updated_at": "2025-07-22T03:35:01.304-04:00", "avatar": "https://secure.gravatar.com/avatar/1cd29c8735a5cf937d0841b4621c6bd9.jpg?s=512&d=https%3A%2F%2Fa.slack-edge.com%2Fdf10d%2Fimg%2Favatars%2Fava_0003-512.png", "custom_css": null}, {"id": 17464, "slack_id": "U096SE348BY", "display_name": "Maaz Ahmad", "bio": null, "projects_count": 0, "devlogs_count": 0, "votes_count": 0, "ships_count": 0, "projects": [], "coding_time_seconds": 114725, "coding_time_seconds_today": 240, "balance": "You need to have a pocket watcher badge to view this.", "badges": [], "created_at": "2025-07-22T02:01:05.982-04:00", "updated_at": "2025-07-22T03:35:01.377-04:00", "avatar": "https://secure.gravatar.com/avatar/649cac929960987db796065f3aea6034.jpg?s=512&d=https%3A%2F%2Fa.slack-edge.com%2Fdf10d%2Fimg%2Favatars%2Fava_0010-512.png", "custom_css": null}, {"id": 17465, "slack_id": "U096THPJ58V", "display_name": "Sush", "bio": null, "projects_count": 0, "devlogs_count": 0, "votes_count": 0, "ships_count": 0, "projects": [], "coding_time_seconds": 0, "coding_time_seconds_today": 0, "balance": "You need to have a pocket watcher badge to view this.", "badges": [], "created_at": "2025-07-22T02:01:17.347-04:00", "updated_at": "2025-07-22T03:35:01.456-04:00", "avatar": "https://secure.gravatar.com/avatar/270650b713899d243b766b415ee8c67c.jpg?s=512&d=https%3A%2F%2Fa.slack-edge.com%2Fdf10d%2Fimg%2Favatars%2Fava_0000-512.png", "custom_css": null}], "pagination": {"page": 869, "pages": 1192, "count": 23828, "items": 20}}