{"users": [{"id": 1721, "slack_id": "U092C73ANU8", "display_name": "Mateus Matias", "bio": null, "projects_count": 0, "devlogs_count": 0, "votes_count": 0, "ships_count": 0, "projects": [], "coding_time_seconds": 8867, "coding_time_seconds_today": 0, "balance": "You need to have a pocket watcher badge to view this.", "badges": [], "created_at": "2025-06-16T13:49:50.909-04:00", "updated_at": "2025-07-03T19:18:55.721-04:00", "avatar": "https://secure.gravatar.com/avatar/d18f2800fa88dfe14b2d7cdb79026385.jpg?s=512&d=https%3A%2F%2Fa.slack-edge.com%2Fdf10d%2Fimg%2Favatars%2Fava_0026-512.png", "custom_css": null}, {"id": 1722, "slack_id": "U082G4H7TBJ", "display_name": "Tej Kunchala", "bio": null, "projects_count": 0, "devlogs_count": 0, "votes_count": 0, "ships_count": 0, "projects": [], "coding_time_seconds": 0, "coding_time_seconds_today": 0, "balance": "You need to have a pocket watcher badge to view this.", "badges": [], "created_at": "2025-06-16T13:50:00.380-04:00", "updated_at": "2025-07-03T19:18:55.985-04:00", "avatar": "https://avatars.slack-edge.com/2024-11-20/8054957028134_c0227a4001e9a8f2d962_original.png", "custom_css": null}, {"id": 1723, "slack_id": "U07A116KMBL", "display_name": "Emre Kadir", "bio": null, "projects_count": 1, "devlogs_count": 0, "votes_count": 1, "ships_count": 0, "projects": [{"id": 6445, "title": "Social Broadcast", "devlogs_count": 0, "created_at": "2025-07-13T11:25:33.612-04:00"}], "coding_time_seconds": 1432, "coding_time_seconds_today": 0, "balance": "You need to have a pocket watcher badge to view this.", "badges": [], "created_at": "2025-06-16T13:50:07.751-04:00", "updated_at": "2025-07-03T19:18:56.250-04:00", "avatar": "https://avatars.slack-edge.com/2024-07-08/7375064056151_450e46f0388b9629f2b1_original.jpg", "custom_css": null}, {"id": 1724, "slack_id": "U0918DPPPT9", "display_name": "T S KARTHIK", "bio": null, "projects_count": 2, "devlogs_count": 3, "votes_count": 4, "ships_count": 1, "projects": [{"id": 1678, "title": "Portfolio", "devlogs_count": 1, "created_at": "2025-06-19T02:30:22.506-04:00"}, {"id": 2179, "title": "PONG GAME", "devlogs_count": 2, "created_at": "2025-06-20T11:23:29.728-04:00"}], "coding_time_seconds": 105901, "coding_time_seconds_today": 0, "balance": "You need to have a pocket watcher badge to view this.", "badges": [{"name": "Maiden Voyage", "text": "you shipped your first project! the journey begins...", "icon": "\ud83d\udea2"}], "created_at": "2025-06-16T13:50:16.391-04:00", "updated_at": "2025-09-10T22:52:01.224-04:00", "avatar": "https://secure.gravatar.com/avatar/957d79228fe3713a8d1bef1b1f1c9a56.jpg?s=512&d=https%3A%2F%2Fa.slack-edge.com%2Fdf10d%2Fimg%2Favatars%2Fava_0004-512.png", "custom_css": null}, {"id": 1725, "slack_id": "U09229HCU0H", "display_name": "Stefana Gheorghita", "bio": null, "projects_count": 0, "devlogs_count": 0, "votes_count": 0, "ships_count": 0, "projects": [], "coding_time_seconds": 0, "coding_time_seconds_today": 0, "balance": "You need to have a pocket watcher badge to view this.", "badges": [], "created_at": "2025-06-16T13:50:27.761-04:00", "updated_at": "2025-07-03T19:18:56.813-04:00", "avatar": "https://secure.gravatar.com/avatar/a0d4c1cab631d38079417f7ed922ee75.jpg?s=512&d=https%3A%2F%2Fa.slack-edge.com%2Fdf10d%2Fimg%2Favatars%2Fava_0021-512.png", "custom_css": null}, {"id": 1726, "slack_id": "U091MUWD64V", "display_name": "Imjack1", "bio": null, "projects_count": 1, "devlogs_count": 32, "votes_count": 16, "ships_count": 0, "projects": [{"id": 255, "title": "Website for School After class ", "devlogs_count": 32, "created_at": "2025-06-16T16:22:16.243-04:00"}], "coding_time_seconds": 595897, "coding_time_seconds_today": 0, "balance": "You need to have a pocket watcher badge to view this.", "badges": [], "created_at": "2025-06-16T13:50:35.181-04:00", "updated_at": "2025-08-06T16:36:31.311-04:00", "avatar": "https://secure.gravatar.com/avatar/07cf8fb476d4d78f1c2bc831ba8efcb1.jpg?s=512&d=https%3A%2F%2Fa.slack-edge.com%2Fdf10d%2Fimg%2Favatars%2Fava_0019-512.png", "custom_css": null}, {"id": 1727, "slack_id": "U09226KLPQR", "display_name": "Abdul Azeez Shoile", "bio": null, "projects_count": 0, "devlogs_count": 0, "votes_count": 0, "ships_count": 0, "projects": [], "coding_time_seconds": 318630, "coding_time_seconds_today": 0, "balance": "You need to have a pocket watcher badge to view this.", "badges": [], "created_at": "2025-06-16T13:50:37.661-04:00", "updated_at": "2025-07-03T19:18:57.233-04:00", "avatar": "https://avatars.slack-edge.com/2025-06-16/9050939540198_7e879c063ae7af343019_original.png", "custom_css": null}, {"id": 1728, "slack_id": "U091PNXSCSE", "display_name": "Patrick Zhang", "bio": null, "projects_count": 0, "devlogs_count": 0, "votes_count": 0, "ships_count": 0, "projects": [], "coding_time_seconds": 848, "coding_time_seconds_today": 0, "balance": "You need to have a pocket watcher badge to view this.", "badges": [], "created_at": "2025-06-16T13:50:41.481-04:00", "updated_at": "2025-07-03T19:18:57.499-04:00", "avatar": "https://avatars.slack-edge.com/2025-06-16/9042485110919_44851716608871fb37cb_original.png", "custom_css": null}, {"id": 1729, "slack_id": "U091Q590LUU", "display_name": "Cratior", "bio": null, "projects_count": 3, "devlogs_count": 18, "votes_count": 0, "ships_count": 0, "projects": [{"id": 761, "title": "Sfs replay mod", "devlogs_count": 3, "created_at": "2025-06-17T07:36:54.619-04:00"}, {"id": 2208, "title": "Voxel Engine", "devlogs_count": 11, "created_at": "2025-06-20T12:40:35.918-04:00"}, {"id": 2668, "title": "PlanetCrasher", "devlogs_count": 4, "created_at": "2025-06-21T15:56:50.871-04:00"}], "coding_time_seconds": 522823, "coding_time_seconds_today": 0, "balance": "You need to have a pocket watcher badge to view this.", "badges": [], "created_at": "2025-06-16T13:50:59.146-04:00", "updated_at": "2025-07-03T19:18:57.768-04:00", "avatar": "https://avatars.slack-edge.com/2025-06-16/9058493387700_cf6dd2009cd5bdc1ac94_original.png", "custom_css": null}, {"id": 1730, "slack_id": "U0918DSEPT9", "display_name": "KHANT WAI LIN -", "bio": null, "projects_count": 0, "devlogs_count": 0, "votes_count": 0, "ships_count": 0, "projects": [], "coding_time_seconds": 0, "coding_time_seconds_today": 0, "balance": "You need to have a pocket watcher badge to view this.", "badges": [], "created_at": "2025-06-16T13:51:05.582-04:00", "updated_at": "2025-07-03T19:18:58.034-04:00", "avatar": "https://avatars.slack-edge.com/2025-06-16/9058196642596_4a6a7d19e5793b204ef9_original.png", "custom_css": null}, {"id": 1731, "slack_id": "U091GCTACMR", "display_name": "Oscar", "bio": null, "projects_count": 0, "devlogs_count": 0, "votes_count": 0, "ships_count": 0, "projects": [], "coding_time_seconds": 46143, "coding_time_seconds_today": 0, "balance": "You need to have a pocket watcher badge to view this.", "badges": [], "created_at": "2025-06-16T13:51:09.767-04:00", "updated_at": "2025-07-03T19:18:58.295-04:00", "avatar": "https://secure.gravatar.com/avatar/724e7a903f1f9ac8554656f43f5cd3e3.jpg?s=512&d=https%3A%2F%2Fa.slack-edge.com%2Fdf10d%2Fimg%2Favatars%2Fava_0011-512.png", "custom_css": null}, {"id": 1732, "slack_id": "U091GQB58Q3", "display_name": "Navaneeth Sujith", "bio": null, "projects_count": 0, "devlogs_count": 0, "votes_count": 0, "ships_count": 0, "projects": [], "coding_time_seconds": 26111, "coding_time_seconds_today": 0, "balance": "You need to have a pocket watcher badge to view this.", "badges": [], "created_at": "2025-06-16T13:51:16.886-04:00", "updated_at": "2025-07-03T19:18:58.565-04:00", "avatar": "https://secure.gravatar.com/avatar/337c837f14e29e58a55928844afaab66.jpg?s=512&d=https%3A%2F%2Fa.slack-edge.com%2Fdf10d%2Fimg%2Favatars%2Fava_0025-512.png", "custom_css": null}, {"id": 1733, "slack_id": "U0918B541T9", "display_name": "Jehud Metellus", "bio": null, "projects_count": 0, "devlogs_count": 0, "votes_count": 0, "ships_count": 0, "projects": [], "coding_time_seconds": 0, "coding_time_seconds_today": 0, "balance": "You need to have a pocket watcher badge to view this.", "badges": [], "created_at": "2025-06-16T13:51:26.989-04:00", "updated_at": "2025-07-03T19:18:58.834-04:00", "avatar": "https://secure.gravatar.com/avatar/3fb51aa40478bdc8dfe03ae1ffa19a6c.jpg?s=512&d=https%3A%2F%2Fa.slack-edge.com%2Fdf10d%2Fimg%2Favatars%2Fava_0011-512.png", "custom_css": null}, {"id": 1734, "slack_id": "U07BN55GN3D", "display_name": "Olive", "bio": null, "projects_count": 1, "devlogs_count": 2, "votes_count": 0, "ships_count": 1, "projects": [{"id": 10278, "title": "Primes Site", "devlogs_count": 2, "created_at": "2025-08-05T13:53:49.682-04:00"}], "coding_time_seconds": 328154, "coding_time_seconds_today": 0, "balance": "You need to have a pocket watcher badge to view this.", "badges": [{"name": "<%= admin_tool do %>", "text": "with great power comes great responsibility... and a ban hammer.", "icon": "\ud83d\udd28"}, {"name": "Maiden Voyage", "text": "you shipped your first project! the journey begins...", "icon": "\ud83d\udea2"}], "created_at": "2025-06-16T13:51:41.774-04:00", "updated_at": "2025-09-17T12:04:38.965-04:00", "avatar": "https://avatars.slack-edge.com/2025-09-17/9534906172482_8fd6dba75d8511794d37_original.png", "custom_css": null}, {"id": 1735, "slack_id": "U091N07L0BF", "display_name": "Akshit Mittal", "bio": null, "projects_count": 0, "devlogs_count": 0, "votes_count": 0, "ships_count": 0, "projects": [], "coding_time_seconds": 21662, "coding_time_seconds_today": 0, "balance": "You need to have a pocket watcher badge to view this.", "badges": [], "created_at": "2025-06-16T13:51:45.062-04:00", "updated_at": "2025-07-03T19:18:59.379-04:00", "avatar": "https://avatars.slack-edge.com/2025-06-16/9042490812039_bd66d07f2b582c22280f_original.png", "custom_css": null}, {"id": 1736, "slack_id": "U08NVCN3S1X", "display_name": "Naman", "bio": null, "projects_count": 0, "devlogs_count": 0, "votes_count": 0, "ships_count": 0, "projects": [], "coding_time_seconds": 351223, "coding_time_seconds_today": 0, "balance": "You need to have a pocket watcher badge to view this.", "badges": [], "created_at": "2025-06-16T13:51:51.955-04:00", "updated_at": "2025-08-17T16:23:57.771-04:00", "avatar": "https://secure.gravatar.com/avatar/f4853908af5af4f9ddd4b703500912ec.jpg?s=512&d=https%3A%2F%2Fa.slack-edge.com%2Fdf10d%2Fimg%2Favatars%2Fava_0004-512.png", "custom_css": null}, {"id": 1737, "slack_id": "U091GT2LDF0", "display_name": "Tu\u1ea5n V\u00f5 L\u00e2n", "bio": null, "projects_count": 0, "devlogs_count": 0, "votes_count": 0, "ships_count": 0, "projects": [], "coding_time_seconds": 480, "coding_time_seconds_today": 0, "balance": "You need to have a pocket watcher badge to view this.", "badges": [], "created_at": "2025-06-16T13:51:56.629-04:00", "updated_at": "2025-07-03T19:18:59.905-04:00", "avatar": "https://avatars.slack-edge.com/2025-06-16/9057799403762_9f91866a282c0e53d589_original.jpg", "custom_css": null}, {"id": 1738, "slack_id": "U091Q5GLLEQ", "display_name": "anandcharukesan", "bio": null, "projects_count": 1, "devlogs_count": 1, "votes_count": 0, "ships_count": 0, "projects": [{"id": 712, "title": "Json Prettifier", "devlogs_count": 1, "created_at": "2025-06-17T06:04:11.300-04:00"}], "coding_time_seconds": 20143, "coding_time_seconds_today": 0, "balance": "You need to have a pocket watcher badge to view this.", "badges": [], "created_at": "2025-06-16T13:52:17.127-04:00", "updated_at": "2025-07-03T19:19:00.176-04:00", "avatar": "https://secure.gravatar.com/avatar/b0dfc15f8691f3729fb792a71a06dcc4.jpg?s=512&d=https%3A%2F%2Fa.slack-edge.com%2Fdf10d%2Fimg%2Favatars%2Fava_0012-512.png", "custom_css": null}, {"id": 1739, "slack_id": "U091PP8PA2E", "display_name": "B0ngst0ng", "bio": null, "projects_count": 0, "devlogs_count": 0, "votes_count": 0, "ships_count": 0, "projects": [], "coding_time_seconds": 2738, "coding_time_seconds_today": 0, "balance": "You need to have a pocket watcher badge to view this.", "badges": [], "created_at": "2025-06-16T13:52:18.625-04:00", "updated_at": "2025-07-03T19:19:00.530-04:00", "avatar": "https://secure.gravatar.com/avatar/53753dec5699a57724b6e8aab318b73b.jpg?s=512&d=https%3A%2F%2Fa.slack-edge.com%2Fdf10d%2Fimg%2Favatars%2Fava_0010-512.png", "custom_css": null}, {"id": 1740, "slack_id": "U09226UEXUZ", "display_name": "Lavi Afriat", "bio": null, "projects_count": 0, "devlogs_count": 0, "votes_count": 0, "ships_count": 0, "projects": [], "coding_time_seconds": 0, "coding_time_seconds_today": 0, "balance": "You need to have a pocket watcher badge to view this.", "badges": [], "created_at": "2025-06-16T13:52:19.994-04:00", "updated_at": "2025-07-03T19:19:00.793-04:00", "avatar": "https://secure.gravatar.com/avatar/c7f28733ae3f4ddbcca028986be506d6.jpg?s=512&d=https%3A%2F%2Fa.slack-edge.com%2Fdf10d%2Fimg%2Favatars%2Fava_0007-512.png", "custom_css": null}], "pagination": {"page": 87, "pages": 1192, "count": 23828, "items": 20}}