{"users": [{"id": 17466, "slack_id": "U096TH5GES1", "display_name": "Olowojola Temidayo", "bio": null, "projects_count": 0, "devlogs_count": 0, "votes_count": 0, "ships_count": 0, "projects": [], "coding_time_seconds": 4850, "coding_time_seconds_today": 0, "balance": "You need to have a pocket watcher badge to view this.", "badges": [], "created_at": "2025-07-22T02:02:21.491-04:00", "updated_at": "2025-07-22T07:09:34.613-04:00", "avatar": "https://secure.gravatar.com/avatar/0503e740aa79dbbc22d8f8fe495bab91.jpg?s=512&d=https%3A%2F%2Fa.slack-edge.com%2Fdf10d%2Fimg%2Favatars%2Fava_0012-512.png", "custom_css": null}, {"id": 17467, "slack_id": "U097HUN7JPJ", "display_name": "Jaimin", "bio": null, "projects_count": 0, "devlogs_count": 0, "votes_count": 0, "ships_count": 0, "projects": [], "coding_time_seconds": 0, "coding_time_seconds_today": 0, "balance": "You need to have a pocket watcher badge to view this.", "badges": [], "created_at": "2025-07-22T02:04:38.333-04:00", "updated_at": "2025-07-22T03:35:01.653-04:00", "avatar": "https://secure.gravatar.com/avatar/e6e500018e2bb31ca59c50121d49ae67.jpg?s=512&d=https%3A%2F%2Fa.slack-edge.com%2Fdf10d%2Fimg%2Favatars%2Fava_0003-512.png", "custom_css": null}, {"id": 17468, "slack_id": "U093M84S03V", "display_name": "Joseph Joseph", "bio": null, "projects_count": 0, "devlogs_count": 0, "votes_count": 0, "ships_count": 0, "projects": [], "coding_time_seconds": 0, "coding_time_seconds_today": 0, "balance": "You need to have a pocket watcher badge to view this.", "badges": [], "created_at": "2025-07-22T02:06:09.769-04:00", "updated_at": "2025-07-22T03:35:01.770-04:00", "avatar": "https://secure.gravatar.com/avatar/2f38fbc22c2973ec78c7fd8521dfc10e.jpg?s=512&d=https%3A%2F%2Fa.slack-edge.com%2Fdf10d%2Fimg%2Favatars%2Fava_0016-512.png", "custom_css": null}, {"id": 17469, "slack_id": "U0978NUGLSD", "display_name": "Jagruti Pati", "bio": null, "projects_count": 0, "devlogs_count": 0, "votes_count": 0, "ships_count": 0, "projects": [], "coding_time_seconds": 0, "coding_time_seconds_today": 0, "balance": "You need to have a pocket watcher badge to view this.", "badges": [], "created_at": "2025-07-22T02:06:11.020-04:00", "updated_at": "2025-07-22T03:35:01.884-04:00", "avatar": "https://secure.gravatar.com/avatar/65bb557568c07b8788a675424fd62c43.jpg?s=512&d=https%3A%2F%2Fa.slack-edge.com%2Fdf10d%2Fimg%2Favatars%2Fava_0003-512.png", "custom_css": null}, {"id": 17470, "slack_id": "U097HV12KT2", "display_name": "Erry", "bio": null, "projects_count": 2, "devlogs_count": 1, "votes_count": 0, "ships_count": 0, "projects": [{"id": 9678, "title": "calibre", "devlogs_count": 0, "created_at": "2025-08-02T02:30:19.148-04:00"}, {"id": 9679, "title": "calibre", "devlogs_count": 1, "created_at": "2025-08-02T02:30:19.236-04:00"}], "coding_time_seconds": 37188, "coding_time_seconds_today": 0, "balance": "You need to have a pocket watcher badge to view this.", "badges": [], "created_at": "2025-07-22T02:06:43.667-04:00", "updated_at": "2025-08-04T04:54:04.510-04:00", "avatar": "https://secure.gravatar.com/avatar/ecea00cdfb34e539570bd2dbf47823c6.jpg?s=512&d=https%3A%2F%2Fa.slack-edge.com%2Fdf10d%2Fimg%2Favatars%2Fava_0008-512.png", "custom_css": null}, {"id": 17471, "slack_id": "U096VJ5LNHY", "display_name": "Lafon Lucas", "bio": null, "projects_count": 0, "devlogs_count": 0, "votes_count": 0, "ships_count": 0, "projects": [], "coding_time_seconds": 67775, "coding_time_seconds_today": 0, "balance": "You need to have a pocket watcher badge to view this.", "badges": [], "created_at": "2025-07-22T02:07:00.327-04:00", "updated_at": "2025-07-23T08:54:02.053-04:00", "avatar": "https://secure.gravatar.com/avatar/f7c698f9036527d48e0751eac52a6675.jpg?s=512&d=https%3A%2F%2Fa.slack-edge.com%2Fdf10d%2Fimg%2Favatars%2Fava_0016-512.png", "custom_css": null}, {"id": 17472, "slack_id": "U07L72DHYLS", "display_name": "Newton", "bio": null, "projects_count": 1, "devlogs_count": 3, "votes_count": 0, "ships_count": 0, "projects": [{"id": 7518, "title": "VaPo", "devlogs_count": 3, "created_at": "2025-07-22T02:28:33.664-04:00"}], "coding_time_seconds": 2845, "coding_time_seconds_today": 0, "balance": "You need to have a pocket watcher badge to view this.", "badges": [], "created_at": "2025-07-22T02:07:17.568-04:00", "updated_at": "2025-07-22T07:38:48.340-04:00", "avatar": "https://avatars.slack-edge.com/2024-09-10/7701496897862_cd22b51a34789b29f610_original.jpg", "custom_css": null}, {"id": 17473, "slack_id": "U096ERQ0LGP", "display_name": "Swastik Karki", "bio": null, "projects_count": 0, "devlogs_count": 0, "votes_count": 0, "ships_count": 0, "projects": [], "coding_time_seconds": 0, "coding_time_seconds_today": 0, "balance": "You need to have a pocket watcher badge to view this.", "badges": [], "created_at": "2025-07-22T02:09:26.576-04:00", "updated_at": "2025-07-23T12:09:06.891-04:00", "avatar": "https://secure.gravatar.com/avatar/a798ae7bc15e3df8f65390d011f67d5d.jpg?s=512&d=https%3A%2F%2Fa.slack-edge.com%2Fdf10d%2Fimg%2Favatars%2Fava_0020-512.png", "custom_css": null}, {"id": 17474, "slack_id": "U096Q8WUTNF", "display_name": "Vanessa Rodrigues", "bio": null, "projects_count": 0, "devlogs_count": 0, "votes_count": 0, "ships_count": 0, "projects": [], "coding_time_seconds": 17222, "coding_time_seconds_today": 0, "balance": "You need to have a pocket watcher badge to view this.", "badges": [], "created_at": "2025-07-22T02:10:50.713-04:00", "updated_at": "2025-07-22T03:35:06.338-04:00", "avatar": "https://secure.gravatar.com/avatar/0a0da289a57fad86293fe349c51b2dc8.jpg?s=512&d=https%3A%2F%2Fa.slack-edge.com%2Fdf10d%2Fimg%2Favatars%2Fava_0014-512.png", "custom_css": null}, {"id": 17475, "slack_id": "U096ES13ZK9", "display_name": "MW", "bio": null, "projects_count": 0, "devlogs_count": 0, "votes_count": 0, "ships_count": 0, "projects": [], "coding_time_seconds": 0, "coding_time_seconds_today": 0, "balance": "You need to have a pocket watcher badge to view this.", "badges": [], "created_at": "2025-07-22T02:11:52.597-04:00", "updated_at": "2025-07-22T04:37:03.324-04:00", "avatar": "https://secure.gravatar.com/avatar/a52fd60dab63e887d13cdb0c2bc0c470.jpg?s=512&d=https%3A%2F%2Fa.slack-edge.com%2Fdf10d%2Fimg%2Favatars%2Fava_0007-512.png", "custom_css": null}, {"id": 17476, "slack_id": "U096TK91R1T", "display_name": "kunal dharpure", "bio": "", "projects_count": 0, "devlogs_count": 0, "votes_count": 0, "ships_count": 0, "projects": [], "coding_time_seconds": 0, "coding_time_seconds_today": 0, "balance": "You need to have a pocket watcher badge to view this.", "badges": [], "created_at": "2025-07-22T02:13:35.040-04:00", "updated_at": "2025-07-22T03:35:06.548-04:00", "avatar": "https://secure.gravatar.com/avatar/0800c59169ffb7c030bc4e2fa8e1026e.jpg?s=512&d=https%3A%2F%2Fa.slack-edge.com%2Fdf10d%2Fimg%2Favatars%2Fava_0012-512.png", "custom_css": null}, {"id": 17477, "slack_id": "U096Q93GM6F", "display_name": "John Dave Lausa", "bio": null, "projects_count": 0, "devlogs_count": 0, "votes_count": 0, "ships_count": 0, "projects": [], "coding_time_seconds": 723, "coding_time_seconds_today": 0, "balance": "You need to have a pocket watcher badge to view this.", "badges": [], "created_at": "2025-07-22T02:14:35.223-04:00", "updated_at": "2025-07-22T03:35:06.638-04:00", "avatar": "https://avatars.slack-edge.com/2025-07-21/9246823694705_f100613f6636eab9d157_original.jpg", "custom_css": null}, {"id": 17478, "slack_id": "U096VJNE534", "display_name": "Yatharth Jain", "bio": null, "projects_count": 0, "devlogs_count": 0, "votes_count": 0, "ships_count": 0, "projects": [], "coding_time_seconds": 295635, "coding_time_seconds_today": 15926, "balance": "You need to have a pocket watcher badge to view this.", "badges": [], "created_at": "2025-07-22T02:14:54.023-04:00", "updated_at": "2025-08-28T01:55:47.448-04:00", "avatar": "https://secure.gravatar.com/avatar/d690872993b89450358f505425dda1de.jpg?s=512&d=https%3A%2F%2Fa.slack-edge.com%2Fdf10d%2Fimg%2Favatars%2Fava_0020-512.png", "custom_css": null}, {"id": 17479, "slack_id": "U096WQUH05A", "display_name": "Tom-Luca Gwizdek", "bio": null, "projects_count": 0, "devlogs_count": 0, "votes_count": 0, "ships_count": 0, "projects": [], "coding_time_seconds": 194227, "coding_time_seconds_today": 0, "balance": "You need to have a pocket watcher badge to view this.", "badges": [], "created_at": "2025-07-22T02:15:12.567-04:00", "updated_at": "2025-07-22T07:47:51.854-04:00", "avatar": "https://secure.gravatar.com/avatar/3f681a341fe5ec3ebded1817dab4de35.jpg?s=512&d=https%3A%2F%2Fa.slack-edge.com%2Fdf10d%2Fimg%2Favatars%2Fava_0002-512.png", "custom_css": null}, {"id": 17480, "slack_id": "U097FLSUQDN", "display_name": "Prabhjot Singh", "bio": null, "projects_count": 1, "devlogs_count": 1, "votes_count": 0, "ships_count": 1, "projects": [{"id": 7520, "title": "Airbnb_clone", "devlogs_count": 1, "created_at": "2025-07-22T02:29:53.165-04:00"}], "coding_time_seconds": 262940, "coding_time_seconds_today": 0, "balance": "You need to have a pocket watcher badge to view this.", "badges": [], "created_at": "2025-07-22T02:15:21.546-04:00", "updated_at": "2025-08-08T13:54:12.433-04:00", "avatar": "https://avatars.slack-edge.com/2025-07-21/9233660720866_18f7751ec6a382715b87_original.jpg", "custom_css": null}, {"id": 17481, "slack_id": "U096Q9CH28K", "display_name": "Nguyen Tan Dung", "bio": null, "projects_count": 0, "devlogs_count": 0, "votes_count": 0, "ships_count": 0, "projects": [], "coding_time_seconds": 0, "coding_time_seconds_today": 0, "balance": "You need to have a pocket watcher badge to view this.", "badges": [], "created_at": "2025-07-22T02:15:34.467-04:00", "updated_at": "2025-07-22T03:35:06.987-04:00", "avatar": "https://secure.gravatar.com/avatar/6b9227decc13c12ab7b5dfc788eb1759.jpg?s=512&d=https%3A%2F%2Fa.slack-edge.com%2Fdf10d%2Fimg%2Favatars%2Fava_0007-512.png", "custom_css": null}, {"id": 17482, "slack_id": "U096VK47DGS", "display_name": "Cristal Campos Abad", "bio": null, "projects_count": 0, "devlogs_count": 0, "votes_count": 0, "ships_count": 0, "projects": [], "coding_time_seconds": 0, "coding_time_seconds_today": 0, "balance": "You need to have a pocket watcher badge to view this.", "badges": [], "created_at": "2025-07-22T02:15:52.957-04:00", "updated_at": "2025-07-22T03:35:07.074-04:00", "avatar": "https://avatars.slack-edge.com/2025-07-21/9231676303253_b11f9da817cdedf1db00_original.jpg", "custom_css": null}, {"id": 17483, "slack_id": "U096VJU9X9Q", "display_name": "Matthew Galvez", "bio": null, "projects_count": 0, "devlogs_count": 0, "votes_count": 0, "ships_count": 0, "projects": [], "coding_time_seconds": 0, "coding_time_seconds_today": 0, "balance": "You need to have a pocket watcher badge to view this.", "badges": [], "created_at": "2025-07-22T02:16:19.184-04:00", "updated_at": "2025-07-22T03:35:07.176-04:00", "avatar": "https://avatars.slack-edge.com/2025-07-21/9246831228305_aec10137cf56f589fdfd_original.png", "custom_css": null}, {"id": 17484, "slack_id": "U0978Q1TUKB", "display_name": "Rishik Sai Santhosh", "bio": null, "projects_count": 2, "devlogs_count": 0, "votes_count": 0, "ships_count": 0, "projects": [{"id": 7523, "title": "Job Buddy", "devlogs_count": 0, "created_at": "2025-07-22T02:41:43.886-04:00"}, {"id": 7524, "title": "Job Buddy", "devlogs_count": 0, "created_at": "2025-07-22T02:41:46.591-04:00"}], "coding_time_seconds": 41807, "coding_time_seconds_today": 0, "balance": "You need to have a pocket watcher badge to view this.", "badges": [], "created_at": "2025-07-22T02:16:28.584-04:00", "updated_at": "2025-07-22T03:35:07.260-04:00", "avatar": "https://secure.gravatar.com/avatar/a7d1f7a2cd746e5f69ccd697b71e5b25.jpg?s=512&d=https%3A%2F%2Fa.slack-edge.com%2Fdf10d%2Fimg%2Favatars%2Fava_0010-512.png", "custom_css": null}, {"id": 17485, "slack_id": "U096ES8EWET", "display_name": "Galana", "bio": null, "projects_count": 0, "devlogs_count": 0, "votes_count": 0, "ships_count": 0, "projects": [], "coding_time_seconds": 0, "coding_time_seconds_today": 0, "balance": "You need to have a pocket watcher badge to view this.", "badges": [], "created_at": "2025-07-22T02:16:44.414-04:00", "updated_at": "2025-07-22T03:35:07.343-04:00", "avatar": "https://secure.gravatar.com/avatar/e22d60c6ba9bdaa7386f2a82888f2770.jpg?s=512&d=https%3A%2F%2Fa.slack-edge.com%2Fdf10d%2Fimg%2Favatars%2Fava_0010-512.png", "custom_css": null}], "pagination": {"page": 870, "pages": 1192, "count": 23828, "items": 20}}