{"users": [{"id": 17486, "slack_id": "U096Q9GQ075", "display_name": "Viki", "bio": null, "projects_count": 0, "devlogs_count": 0, "votes_count": 0, "ships_count": 0, "projects": [], "coding_time_seconds": 555, "coding_time_seconds_today": 0, "balance": "You need to have a pocket watcher badge to view this.", "badges": [], "created_at": "2025-07-22T02:17:23.480-04:00", "updated_at": "2025-07-23T09:05:01.777-04:00", "avatar": "https://secure.gravatar.com/avatar/c8e42280859492fad069e65c53a98563.jpg?s=512&d=https%3A%2F%2Fa.slack-edge.com%2Fdf10d%2Fimg%2Favatars%2Fava_0006-512.png", "custom_css": null}, {"id": 17487, "slack_id": "U096WRPM27N", "display_name": "ken", "bio": null, "projects_count": 0, "devlogs_count": 0, "votes_count": 0, "ships_count": 0, "projects": [], "coding_time_seconds": 0, "coding_time_seconds_today": 0, "balance": "You need to have a pocket watcher badge to view this.", "badges": [], "created_at": "2025-07-22T02:17:24.316-04:00", "updated_at": "2025-07-22T03:35:07.531-04:00", "avatar": "https://secure.gravatar.com/avatar/3e1755c857965b5ba80bd79abffcf42b.jpg?s=512&d=https%3A%2F%2Fa.slack-edge.com%2Fdf10d%2Fimg%2Favatars%2Fava_0004-512.png", "custom_css": null}, {"id": 17488, "slack_id": "U0978Q3UMMX", "display_name": "ilker", "bio": null, "projects_count": 0, "devlogs_count": 0, "votes_count": 0, "ships_count": 0, "projects": [], "coding_time_seconds": 0, "coding_time_seconds_today": 0, "balance": "You need to have a pocket watcher badge to view this.", "badges": [], "created_at": "2025-07-22T02:17:42.860-04:00", "updated_at": "2025-07-22T03:35:07.654-04:00", "avatar": "https://secure.gravatar.com/avatar/981753319e9340e4c9a2644e1d45655d.jpg?s=512&d=https%3A%2F%2Fa.slack-edge.com%2Fdf10d%2Fimg%2Favatars%2Fava_0017-512.png", "custom_css": null}, {"id": 17489, "slack_id": "U096VK9LCEN", "display_name": "dolphine43", "bio": null, "projects_count": 0, "devlogs_count": 0, "votes_count": 0, "ships_count": 0, "projects": [], "coding_time_seconds": 0, "coding_time_seconds_today": 0, "balance": "You need to have a pocket watcher badge to view this.", "badges": [], "created_at": "2025-07-22T02:18:03.758-04:00", "updated_at": "2025-07-22T03:35:07.738-04:00", "avatar": "https://secure.gravatar.com/avatar/541fd7895ae0ad3d854b2d27e65c868e.jpg?s=512&d=https%3A%2F%2Fa.slack-edge.com%2Fdf10d%2Fimg%2Favatars%2Fava_0002-512.png", "custom_css": null}, {"id": 17490, "slack_id": "U0978QA9S5P", "display_name": "Umesh Sharma", "bio": null, "projects_count": 0, "devlogs_count": 0, "votes_count": 0, "ships_count": 0, "projects": [], "coding_time_seconds": 0, "coding_time_seconds_today": 0, "balance": "You need to have a pocket watcher badge to view this.", "badges": [], "created_at": "2025-07-22T02:18:51.042-04:00", "updated_at": "2025-07-22T03:35:07.838-04:00", "avatar": "https://avatars.slack-edge.com/2025-07-21/9218922987719_be18d6f4cd7b490ab0dc_original.png", "custom_css": null}, {"id": 17491, "slack_id": "U096Q7FCKR9", "display_name": "smokeyScraper", "bio": null, "projects_count": 0, "devlogs_count": 0, "votes_count": 0, "ships_count": 0, "projects": [], "coding_time_seconds": 0, "coding_time_seconds_today": 0, "balance": "You need to have a pocket watcher badge to view this.", "badges": [], "created_at": "2025-07-22T02:19:12.639-04:00", "updated_at": "2025-07-22T03:35:07.921-04:00", "avatar": "https://secure.gravatar.com/avatar/042e0862e14d473f515afe2f46497e89.jpg?s=512&d=https%3A%2F%2Fa.slack-edge.com%2Fdf10d%2Fimg%2Favatars%2Fava_0017-512.png", "custom_css": null}, {"id": 17492, "slack_id": "U096SG5SAS2", "display_name": "Salman Quadri", "bio": null, "projects_count": 0, "devlogs_count": 0, "votes_count": 0, "ships_count": 0, "projects": [], "coding_time_seconds": 0, "coding_time_seconds_today": 0, "balance": "You need to have a pocket watcher badge to view this.", "badges": [], "created_at": "2025-07-22T02:19:12.988-04:00", "updated_at": "2025-07-22T03:35:08.023-04:00", "avatar": "https://avatars.slack-edge.com/2025-07-21/9256042366144_4e7634937c6b9600f0e1_original.jpg", "custom_css": null}, {"id": 17493, "slack_id": "U097J0WPSHW", "display_name": "HIAM", "bio": null, "projects_count": 0, "devlogs_count": 0, "votes_count": 0, "ships_count": 0, "projects": [], "coding_time_seconds": 3322, "coding_time_seconds_today": 0, "balance": "You need to have a pocket watcher badge to view this.", "badges": [], "created_at": "2025-07-22T02:19:29.836-04:00", "updated_at": "2025-07-23T03:25:52.491-04:00", "avatar": "https://secure.gravatar.com/avatar/77d937ff4d649b26afebbafd95bcaa28.jpg?s=512&d=https%3A%2F%2Fa.slack-edge.com%2Fdf10d%2Fimg%2Favatars%2Fava_0012-512.png", "custom_css": null}, {"id": 17494, "slack_id": "U096VKJCHR8", "display_name": "Mehmet Emin KONUK", "bio": null, "projects_count": 0, "devlogs_count": 0, "votes_count": 0, "ships_count": 0, "projects": [], "coding_time_seconds": 0, "coding_time_seconds_today": 0, "balance": "You need to have a pocket watcher badge to view this.", "badges": [], "created_at": "2025-07-22T02:19:41.908-04:00", "updated_at": "2025-07-22T03:35:08.209-04:00", "avatar": "https://secure.gravatar.com/avatar/8862cbaaa450e767be1acf4917297041.jpg?s=512&d=https%3A%2F%2Fa.slack-edge.com%2Fdf10d%2Fimg%2Favatars%2Fava_0014-512.png", "custom_css": null}, {"id": 17495, "slack_id": "U096VKR4V1Q", "display_name": "Gatien", "bio": null, "projects_count": 0, "devlogs_count": 0, "votes_count": 0, "ships_count": 0, "projects": [], "coding_time_seconds": 0, "coding_time_seconds_today": 0, "balance": "You need to have a pocket watcher badge to view this.", "badges": [], "created_at": "2025-07-22T02:21:06.826-04:00", "updated_at": "2025-07-22T03:35:08.315-04:00", "avatar": "https://secure.gravatar.com/avatar/82f71af1b19f00e82ada4584878306ef.jpg?s=512&d=https%3A%2F%2Fa.slack-edge.com%2Fdf10d%2Fimg%2Favatars%2Fava_0007-512.png", "custom_css": null}, {"id": 17496, "slack_id": "U096ESV1D1D", "display_name": "Atharv pare", "bio": null, "projects_count": 0, "devlogs_count": 0, "votes_count": 0, "ships_count": 0, "projects": [], "coding_time_seconds": 0, "coding_time_seconds_today": 0, "balance": "You need to have a pocket watcher badge to view this.", "badges": [], "created_at": "2025-07-22T02:21:12.089-04:00", "updated_at": "2025-07-22T03:35:08.394-04:00", "avatar": "https://secure.gravatar.com/avatar/46db33cb6db78cbd3fb67d14d3f2aea9.jpg?s=512&d=https%3A%2F%2Fa.slack-edge.com%2Fdf10d%2Fimg%2Favatars%2Fava_0013-512.png", "custom_css": null}, {"id": 17497, "slack_id": "U0978QQBVT3", "display_name": "Sam", "bio": null, "projects_count": 0, "devlogs_count": 0, "votes_count": 0, "ships_count": 0, "projects": [], "coding_time_seconds": 0, "coding_time_seconds_today": 0, "balance": "You need to have a pocket watcher badge to view this.", "badges": [], "created_at": "2025-07-22T02:22:45.455-04:00", "updated_at": "2025-07-22T03:35:08.472-04:00", "avatar": "https://secure.gravatar.com/avatar/cc86ac8fc2b4e8cb7312d54c5b97b6dc.jpg?s=512&d=https%3A%2F%2Fa.slack-edge.com%2Fdf10d%2Fimg%2Favatars%2Fava_0001-512.png", "custom_css": null}, {"id": 17498, "slack_id": "U096QA99WPM", "display_name": "Josphat Mwangi", "bio": null, "projects_count": 0, "devlogs_count": 0, "votes_count": 0, "ships_count": 0, "projects": [], "coding_time_seconds": 0, "coding_time_seconds_today": 0, "balance": "You need to have a pocket watcher badge to view this.", "badges": [], "created_at": "2025-07-22T02:23:17.841-04:00", "updated_at": "2025-07-22T03:35:08.565-04:00", "avatar": "https://secure.gravatar.com/avatar/dabca0aac57231f68e7b605423e5d7a8.jpg?s=512&d=https%3A%2F%2Fa.slack-edge.com%2Fdf10d%2Fimg%2Favatars%2Fava_0005-512.png", "custom_css": null}, {"id": 17499, "slack_id": "U096ETC1D6K", "display_name": "Zohan Subhash", "bio": null, "projects_count": 0, "devlogs_count": 0, "votes_count": 0, "ships_count": 0, "projects": [], "coding_time_seconds": 0, "coding_time_seconds_today": 0, "balance": "You need to have a pocket watcher badge to view this.", "badges": [], "created_at": "2025-07-22T02:24:22.275-04:00", "updated_at": "2025-07-24T04:34:03.713-04:00", "avatar": "https://secure.gravatar.com/avatar/f9d2c2727cbd600b27aebf49cf1eaf6b.jpg?s=512&d=https%3A%2F%2Fa.slack-edge.com%2Fdf10d%2Fimg%2Favatars%2Fava_0000-512.png", "custom_css": null}, {"id": 17500, "slack_id": "U096VLEUUQ2", "display_name": "Mohammad Huzaifa", "bio": null, "projects_count": 0, "devlogs_count": 0, "votes_count": 0, "ships_count": 0, "projects": [], "coding_time_seconds": 0, "coding_time_seconds_today": 0, "balance": "You need to have a pocket watcher badge to view this.", "badges": [], "created_at": "2025-07-22T02:27:42.010-04:00", "updated_at": "2025-07-22T03:35:08.726-04:00", "avatar": "https://secure.gravatar.com/avatar/03928da4817c3dd63bc5d9f54c22cf3e.jpg?s=512&d=https%3A%2F%2Fa.slack-edge.com%2Fdf10d%2Fimg%2Favatars%2Fava_0016-512.png", "custom_css": null}, {"id": 17501, "slack_id": "U096VKWL1K4", "display_name": "nk1505", "bio": null, "projects_count": 0, "devlogs_count": 0, "votes_count": 0, "ships_count": 0, "projects": [], "coding_time_seconds": 0, "coding_time_seconds_today": 0, "balance": "You need to have a pocket watcher badge to view this.", "badges": [], "created_at": "2025-07-22T02:28:18.451-04:00", "updated_at": "2025-07-22T03:35:08.813-04:00", "avatar": "https://secure.gravatar.com/avatar/41cf77b6a4fc2878f67a2e3ba0512b45.jpg?s=512&d=https%3A%2F%2Fa.slack-edge.com%2Fdf10d%2Fimg%2Favatars%2Fava_0008-512.png", "custom_css": null}, {"id": 17502, "slack_id": "U096TLMQZ61", "display_name": "Qazi Absaar", "bio": null, "projects_count": 1, "devlogs_count": 0, "votes_count": 0, "ships_count": 0, "projects": [{"id": 7528, "title": "HealthTrack AI \u2013 Medical Report Organizer", "devlogs_count": 0, "created_at": "2025-07-22T03:12:17.403-04:00"}], "coding_time_seconds": 22683, "coding_time_seconds_today": 3740, "balance": "You need to have a pocket watcher badge to view this.", "badges": [], "created_at": "2025-07-22T02:28:40.975-04:00", "updated_at": "2025-07-22T03:37:05.602-04:00", "avatar": "https://avatars.slack-edge.com/2025-07-21/9246878394081_83c73b7ae09442c21fd1_original.jpg", "custom_css": null}, {"id": 17503, "slack_id": "U096TLUE2F7", "display_name": "saivamshi", "bio": null, "projects_count": 0, "devlogs_count": 0, "votes_count": 0, "ships_count": 0, "projects": [], "coding_time_seconds": 0, "coding_time_seconds_today": 0, "balance": "You need to have a pocket watcher badge to view this.", "badges": [], "created_at": "2025-07-22T02:30:10.080-04:00", "updated_at": "2025-07-22T03:35:09.000-04:00", "avatar": "https://secure.gravatar.com/avatar/a38e0d60e7ba0367fa4f53026da449f0.jpg?s=512&d=https%3A%2F%2Fa.slack-edge.com%2Fdf10d%2Fimg%2Favatars%2Fava_0023-512.png", "custom_css": null}, {"id": 17504, "slack_id": "U096SHN6HPY", "display_name": "isuru liyanage", "bio": null, "projects_count": 0, "devlogs_count": 0, "votes_count": 0, "ships_count": 0, "projects": [], "coding_time_seconds": 0, "coding_time_seconds_today": 0, "balance": "You need to have a pocket watcher badge to view this.", "badges": [], "created_at": "2025-07-22T02:31:25.680-04:00", "updated_at": "2025-07-22T03:35:09.077-04:00", "avatar": "https://secure.gravatar.com/avatar/0cb2107df3f641fcc5fb7fab80f563e7.jpg?s=512&d=https%3A%2F%2Fa.slack-edge.com%2Fdf10d%2Fimg%2Favatars%2Fava_0009-512.png", "custom_css": null}, {"id": 17505, "slack_id": "U097J20T6KA", "display_name": "Sectorus", "bio": null, "projects_count": 0, "devlogs_count": 0, "votes_count": 0, "ships_count": 0, "projects": [], "coding_time_seconds": 0, "coding_time_seconds_today": 0, "balance": "You need to have a pocket watcher badge to view this.", "badges": [], "created_at": "2025-07-22T02:31:50.960-04:00", "updated_at": "2025-07-22T03:35:09.149-04:00", "avatar": "https://secure.gravatar.com/avatar/9d3a6e0f955c00b757a69c72cec6faeb.jpg?s=512&d=https%3A%2F%2Fa.slack-edge.com%2Fdf10d%2Fimg%2Favatars%2Fava_0014-512.png", "custom_css": null}], "pagination": {"page": 871, "pages": 1192, "count": 23828, "items": 20}}