{"users": [{"id": 17526, "slack_id": "U096TPT2JBX", "display_name": "Daniel Efren Rojas Flores", "bio": null, "projects_count": 0, "devlogs_count": 0, "votes_count": 0, "ships_count": 0, "projects": [], "coding_time_seconds": 72220, "coding_time_seconds_today": 0, "balance": "You need to have a pocket watcher badge to view this.", "badges": [], "created_at": "2025-07-22T02:52:54.714-04:00", "updated_at": "2025-07-22T03:35:15.090-04:00", "avatar": "https://avatars.slack-edge.com/2025-07-22/9256212013856_c885462bf42b685e7ab7_original.png", "custom_css": null}, {"id": 17527, "slack_id": "U096QDR497D", "display_name": "Rohan Singh", "bio": null, "projects_count": 1, "devlogs_count": 0, "votes_count": 0, "ships_count": 0, "projects": [{"id": 7529, "title": "Face recognition attendance app", "devlogs_count": 0, "created_at": "2025-07-22T03:14:15.502-04:00"}], "coding_time_seconds": 6066, "coding_time_seconds_today": 0, "balance": "You need to have a pocket watcher badge to view this.", "badges": [], "created_at": "2025-07-22T02:53:57.203-04:00", "updated_at": "2025-07-22T04:32:40.631-04:00", "avatar": "https://avatars.slack-edge.com/2025-07-21/9235032264996_971baf1644cb221b65d8_original.jpg", "custom_css": null}, {"id": 17528, "slack_id": "U096SLL7ZGE", "display_name": "Gemechis Chala", "bio": null, "projects_count": 0, "devlogs_count": 0, "votes_count": 0, "ships_count": 0, "projects": [], "coding_time_seconds": 0, "coding_time_seconds_today": 0, "balance": "You need to have a pocket watcher badge to view this.", "badges": [], "created_at": "2025-07-22T02:55:58.007-04:00", "updated_at": "2025-07-22T03:35:15.283-04:00", "avatar": "https://secure.gravatar.com/avatar/2576f3198475192c5aa8b4caa690cf8b.jpg?s=512&d=https%3A%2F%2Fa.slack-edge.com%2Fdf10d%2Fimg%2Favatars%2Fava_0019-512.png", "custom_css": null}, {"id": 17529, "slack_id": "U096X0TS30C", "display_name": "Sameer Ali Khan", "bio": null, "projects_count": 0, "devlogs_count": 0, "votes_count": 0, "ships_count": 0, "projects": [], "coding_time_seconds": 0, "coding_time_seconds_today": 0, "balance": "You need to have a pocket watcher badge to view this.", "badges": [], "created_at": "2025-07-22T02:56:44.064-04:00", "updated_at": "2025-07-22T03:35:15.378-04:00", "avatar": "https://secure.gravatar.com/avatar/c9a99984c9118646b71ee9c1b0c0e684.jpg?s=512&d=https%3A%2F%2Fa.slack-edge.com%2Fdf10d%2Fimg%2Favatars%2Fava_0008-512.png", "custom_css": null}, {"id": 17530, "slack_id": "U097J4QG80Y", "display_name": "Connor", "bio": null, "projects_count": 0, "devlogs_count": 0, "votes_count": 0, "ships_count": 0, "projects": [], "coding_time_seconds": 0, "coding_time_seconds_today": 0, "balance": "You need to have a pocket watcher badge to view this.", "badges": [], "created_at": "2025-07-22T02:56:56.798-04:00", "updated_at": "2025-07-25T06:24:48.769-04:00", "avatar": "https://secure.gravatar.com/avatar/54a014c8fab77ad96618a507f9974eed.jpg?s=512&d=https%3A%2F%2Fa.slack-edge.com%2Fdf10d%2Fimg%2Favatars%2Fava_0017-512.png", "custom_css": null}, {"id": 17531, "slack_id": "U096SKT05C6", "display_name": "Yash bhashkar waghmare", "bio": null, "projects_count": 0, "devlogs_count": 0, "votes_count": 0, "ships_count": 0, "projects": [], "coding_time_seconds": 0, "coding_time_seconds_today": 0, "balance": "You need to have a pocket watcher badge to view this.", "badges": [], "created_at": "2025-07-22T02:57:21.291-04:00", "updated_at": "2025-07-22T03:35:15.543-04:00", "avatar": "https://secure.gravatar.com/avatar/b40af6bfeab10b154f366d76fb34a13d.jpg?s=512&d=https%3A%2F%2Fa.slack-edge.com%2Fdf10d%2Fimg%2Favatars%2Fava_0014-512.png", "custom_css": null}, {"id": 17532, "slack_id": "U096QFB1DHR", "display_name": "Cl\u00e9ment", "bio": null, "projects_count": 0, "devlogs_count": 0, "votes_count": 0, "ships_count": 0, "projects": [], "coding_time_seconds": 636294, "coding_time_seconds_today": 0, "balance": "You need to have a pocket watcher badge to view this.", "badges": [], "created_at": "2025-07-22T03:03:38.397-04:00", "updated_at": "2025-07-22T03:35:15.624-04:00", "avatar": "https://secure.gravatar.com/avatar/65200b52b1351c39ee954cb091a790c2.jpg?s=512&d=https%3A%2F%2Fa.slack-edge.com%2Fdf10d%2Fimg%2Favatars%2Fava_0002-512.png", "custom_css": null}, {"id": 17533, "slack_id": "U096X2156PN", "display_name": "AbaidUllah Khan", "bio": null, "projects_count": 0, "devlogs_count": 0, "votes_count": 0, "ships_count": 0, "projects": [], "coding_time_seconds": 0, "coding_time_seconds_today": 0, "balance": "You need to have a pocket watcher badge to view this.", "badges": [], "created_at": "2025-07-22T03:03:50.515-04:00", "updated_at": "2025-07-22T03:35:15.701-04:00", "avatar": "https://secure.gravatar.com/avatar/4291b2a68043fd3ea9f178dc30f5b40d.jpg?s=512&d=https%3A%2F%2Fa.slack-edge.com%2Fdf10d%2Fimg%2Favatars%2Fava_0008-512.png", "custom_css": null}, {"id": 17534, "slack_id": "U096TRB9A85", "display_name": "Ayush Sagar", "bio": null, "projects_count": 0, "devlogs_count": 0, "votes_count": 0, "ships_count": 0, "projects": [], "coding_time_seconds": 27506, "coding_time_seconds_today": 0, "balance": "You need to have a pocket watcher badge to view this.", "badges": [], "created_at": "2025-07-22T03:04:32.459-04:00", "updated_at": "2025-07-23T11:57:44.182-04:00", "avatar": "https://secure.gravatar.com/avatar/8d321399bb52e407b88ddf4c65df2567.jpg?s=512&d=https%3A%2F%2Fa.slack-edge.com%2Fdf10d%2Fimg%2Favatars%2Fava_0026-512.png", "custom_css": null}, {"id": 17535, "slack_id": "U096F2S68KZ", "display_name": "MICHAEL WANJE MASABA", "bio": null, "projects_count": 1, "devlogs_count": 0, "votes_count": 0, "ships_count": 0, "projects": [{"id": 7535, "title": "mikeJournals", "devlogs_count": 0, "created_at": "2025-07-22T03:44:14.120-04:00"}], "coding_time_seconds": 6408, "coding_time_seconds_today": 0, "balance": "You need to have a pocket watcher badge to view this.", "badges": [], "created_at": "2025-07-22T03:04:55.729-04:00", "updated_at": "2025-07-22T03:35:15.896-04:00", "avatar": "https://secure.gravatar.com/avatar/84316602ff6d6b7969c90919de52fb66.jpg?s=512&d=https%3A%2F%2Fa.slack-edge.com%2Fdf10d%2Fimg%2Favatars%2Fava_0000-512.png", "custom_css": null}, {"id": 17536, "slack_id": "U096SN08ZHC", "display_name": "yee chern", "bio": null, "projects_count": 0, "devlogs_count": 0, "votes_count": 0, "ships_count": 0, "projects": [], "coding_time_seconds": 0, "coding_time_seconds_today": 0, "balance": "You need to have a pocket watcher badge to view this.", "badges": [], "created_at": "2025-07-22T03:05:19.229-04:00", "updated_at": "2025-07-22T03:35:15.987-04:00", "avatar": "https://secure.gravatar.com/avatar/bdb924918b93f6aa6fdd01c89fd4f02c.jpg?s=512&d=https%3A%2F%2Fa.slack-edge.com%2Fdf10d%2Fimg%2Favatars%2Fava_0004-512.png", "custom_css": null}, {"id": 17537, "slack_id": "U096F2W289M", "display_name": "Anant", "bio": null, "projects_count": 0, "devlogs_count": 0, "votes_count": 0, "ships_count": 0, "projects": [], "coding_time_seconds": 0, "coding_time_seconds_today": 0, "balance": "You need to have a pocket watcher badge to view this.", "badges": [], "created_at": "2025-07-22T03:05:55.246-04:00", "updated_at": "2025-07-22T03:35:16.070-04:00", "avatar": "https://secure.gravatar.com/avatar/2bfaa81f3cee44740b264790915efd58.jpg?s=512&d=https%3A%2F%2Fa.slack-edge.com%2Fdf10d%2Fimg%2Favatars%2Fava_0025-512.png", "custom_css": null}, {"id": 17538, "slack_id": "U096WS278UU", "display_name": "Flo", "bio": null, "projects_count": 0, "devlogs_count": 0, "votes_count": 0, "ships_count": 0, "projects": [], "coding_time_seconds": 0, "coding_time_seconds_today": 0, "balance": "You need to have a pocket watcher badge to view this.", "badges": [], "created_at": "2025-07-22T03:06:11.425-04:00", "updated_at": "2025-07-22T03:35:20.204-04:00", "avatar": "https://avatars.slack-edge.com/2025-07-22/9228545868867_7b4fb231e50f1364ee4f_original.png", "custom_css": null}, {"id": 17539, "slack_id": "U0978SSMG2V", "display_name": "Muhammad Ovais Raza", "bio": null, "projects_count": 0, "devlogs_count": 0, "votes_count": 0, "ships_count": 0, "projects": [], "coding_time_seconds": 85932, "coding_time_seconds_today": 0, "balance": "You need to have a pocket watcher badge to view this.", "badges": [], "created_at": "2025-07-22T03:07:11.229-04:00", "updated_at": "2025-07-23T09:56:01.932-04:00", "avatar": "https://secure.gravatar.com/avatar/66572eafa38d6f7285a0d392e6d342d7.jpg?s=512&d=https%3A%2F%2Fa.slack-edge.com%2Fdf10d%2Fimg%2Favatars%2Fava_0017-512.png", "custom_css": null}, {"id": 17540, "slack_id": "U096QFMLR4K", "display_name": "Heng KP", "bio": null, "projects_count": 0, "devlogs_count": 0, "votes_count": 0, "ships_count": 0, "projects": [], "coding_time_seconds": 34358, "coding_time_seconds_today": 0, "balance": "You need to have a pocket watcher badge to view this.", "badges": [], "created_at": "2025-07-22T03:08:03.614-04:00", "updated_at": "2025-07-22T03:35:20.377-04:00", "avatar": "https://avatars.slack-edge.com/2025-07-22/9235100799076_853cfb9c34fdcfce5473_original.png", "custom_css": null}, {"id": 17541, "slack_id": "U096QEG4D1U", "display_name": "Istvan Akos", "bio": null, "projects_count": 0, "devlogs_count": 0, "votes_count": 0, "ships_count": 0, "projects": [], "coding_time_seconds": 70033, "coding_time_seconds_today": 2428, "balance": "You need to have a pocket watcher badge to view this.", "badges": [], "created_at": "2025-07-22T03:08:06.833-04:00", "updated_at": "2025-07-22T03:35:20.456-04:00", "avatar": "https://secure.gravatar.com/avatar/2e4eb7432d5ad695312b8def545579bd.jpg?s=512&d=https%3A%2F%2Fa.slack-edge.com%2Fdf10d%2Fimg%2Favatars%2Fava_0022-512.png", "custom_css": null}, {"id": 17542, "slack_id": "U096VQV6SCS", "display_name": "Nache", "bio": null, "projects_count": 0, "devlogs_count": 0, "votes_count": 0, "ships_count": 0, "projects": [], "coding_time_seconds": 0, "coding_time_seconds_today": 0, "balance": "You need to have a pocket watcher badge to view this.", "badges": [], "created_at": "2025-07-22T03:08:10.804-04:00", "updated_at": "2025-07-22T03:35:24.557-04:00", "avatar": "https://secure.gravatar.com/avatar/d4f42d404f3e31cd4b65ad5be89da806.jpg?s=512&d=https%3A%2F%2Fa.slack-edge.com%2Fdf10d%2Fimg%2Favatars%2Fava_0016-512.png", "custom_css": null}, {"id": 17543, "slack_id": "U097J67NP1N", "display_name": "Dahut", "bio": null, "projects_count": 0, "devlogs_count": 0, "votes_count": 0, "ships_count": 0, "projects": [], "coding_time_seconds": 0, "coding_time_seconds_today": 0, "balance": "You need to have a pocket watcher badge to view this.", "badges": [], "created_at": "2025-07-22T03:08:34.575-04:00", "updated_at": "2025-07-22T03:35:24.638-04:00", "avatar": "https://secure.gravatar.com/avatar/75998e705b83794160a34722445c0c4b.jpg?s=512&d=https%3A%2F%2Fa.slack-edge.com%2Fdf10d%2Fimg%2Favatars%2Fava_0017-512.png", "custom_css": null}, {"id": 17544, "slack_id": "U096NSU3LTD", "display_name": "Vetlix", "bio": null, "projects_count": 0, "devlogs_count": 0, "votes_count": 0, "ships_count": 0, "projects": [], "coding_time_seconds": 25222, "coding_time_seconds_today": 0, "balance": "You need to have a pocket watcher badge to view this.", "badges": [], "created_at": "2025-07-22T03:09:52.352-04:00", "updated_at": "2025-07-25T09:35:25.935-04:00", "avatar": "https://avatars.slack-edge.com/2025-07-22/9233889322834_600442406de2437de3d0_original.png", "custom_css": null}, {"id": 17545, "slack_id": "U096X2QG5EY", "display_name": "oldrat", "bio": null, "projects_count": 0, "devlogs_count": 0, "votes_count": 0, "ships_count": 0, "projects": [], "coding_time_seconds": 0, "coding_time_seconds_today": 0, "balance": "You need to have a pocket watcher badge to view this.", "badges": [], "created_at": "2025-07-22T03:10:34.349-04:00", "updated_at": "2025-07-22T03:35:24.803-04:00", "avatar": "https://avatars.slack-edge.com/2025-07-22/9247159714657_85fb66876d3495e68d33_original.jpg", "custom_css": null}], "pagination": {"page": 873, "pages": 1192, "count": 23828, "items": 20}}