{"users": [{"id": 17546, "slack_id": "U096TRYAWE9", "display_name": "Sia", "bio": null, "projects_count": 0, "devlogs_count": 0, "votes_count": 0, "ships_count": 0, "projects": [], "coding_time_seconds": 0, "coding_time_seconds_today": 0, "balance": "You need to have a pocket watcher badge to view this.", "badges": [], "created_at": "2025-07-22T03:11:15.990-04:00", "updated_at": "2025-07-22T03:35:24.904-04:00", "avatar": "https://secure.gravatar.com/avatar/e85d92fea82fc1c7bf9b7ceef8b206b6.jpg?s=512&d=https%3A%2F%2Fa.slack-edge.com%2Fdf10d%2Fimg%2Favatars%2Fava_0018-512.png", "custom_css": null}, {"id": 17547, "slack_id": "U096TSF2DUM", "display_name": "ved prakash singh", "bio": null, "projects_count": 0, "devlogs_count": 0, "votes_count": 0, "ships_count": 0, "projects": [], "coding_time_seconds": 0, "coding_time_seconds_today": 0, "balance": "You need to have a pocket watcher badge to view this.", "badges": [], "created_at": "2025-07-22T03:12:50.013-04:00", "updated_at": "2025-08-20T09:54:18.186-04:00", "avatar": "https://avatars.slack-edge.com/2025-07-22/9219149342743_211ba64018f45cc81e0e_original.png", "custom_css": null}, {"id": 17548, "slack_id": "U096X33SUDS", "display_name": "Saara", "bio": null, "projects_count": 0, "devlogs_count": 0, "votes_count": 0, "ships_count": 0, "projects": [], "coding_time_seconds": 26848, "coding_time_seconds_today": 0, "balance": "You need to have a pocket watcher badge to view this.", "badges": [], "created_at": "2025-07-22T03:13:03.403-04:00", "updated_at": "2025-07-22T03:42:07.479-04:00", "avatar": "https://secure.gravatar.com/avatar/8ec170395437d9c62647154a7bff89e8.jpg?s=512&d=https%3A%2F%2Fa.slack-edge.com%2Fdf10d%2Fimg%2Favatars%2Fava_0003-512.png", "custom_css": null}, {"id": 17549, "slack_id": "U097J71REP2", "display_name": "Computerkrack", "bio": null, "projects_count": 0, "devlogs_count": 0, "votes_count": 0, "ships_count": 0, "projects": [], "coding_time_seconds": 0, "coding_time_seconds_today": 0, "balance": "You need to have a pocket watcher badge to view this.", "badges": [], "created_at": "2025-07-22T03:14:08.388-04:00", "updated_at": "2025-07-22T03:45:47.148-04:00", "avatar": "https://secure.gravatar.com/avatar/3396cde289b0223f03cbd6f85dc1221a.jpg?s=512&d=https%3A%2F%2Fa.slack-edge.com%2Fdf10d%2Fimg%2Favatars%2Fava_0001-512.png", "custom_css": null}, {"id": 17550, "slack_id": "U096SNVD686", "display_name": "Smit", "bio": null, "projects_count": 0, "devlogs_count": 0, "votes_count": 0, "ships_count": 0, "projects": [], "coding_time_seconds": 0, "coding_time_seconds_today": 0, "balance": "You need to have a pocket watcher badge to view this.", "badges": [], "created_at": "2025-07-22T03:14:37.612-04:00", "updated_at": "2025-07-22T03:54:56.977-04:00", "avatar": "https://secure.gravatar.com/avatar/8226b198ab59433ae882bb95d7a738f2.jpg?s=512&d=https%3A%2F%2Fa.slack-edge.com%2Fdf10d%2Fimg%2Favatars%2Fava_0024-512.png", "custom_css": null}, {"id": 17551, "slack_id": "U09791X0UNM", "display_name": "Rohan", "bio": null, "projects_count": 0, "devlogs_count": 0, "votes_count": 0, "ships_count": 0, "projects": [], "coding_time_seconds": 0, "coding_time_seconds_today": 0, "balance": "You need to have a pocket watcher badge to view this.", "badges": [], "created_at": "2025-07-22T03:15:07.571-04:00", "updated_at": "2025-07-22T03:35:25.330-04:00", "avatar": "https://secure.gravatar.com/avatar/f31417b2146209b59c7572f7ff493f17.jpg?s=512&d=https%3A%2F%2Fa.slack-edge.com%2Fdf10d%2Fimg%2Favatars%2Fava_0014-512.png", "custom_css": null}, {"id": 17552, "slack_id": "U097J79CZJL", "display_name": "Esther Gabrielov\u00e1", "bio": null, "projects_count": 0, "devlogs_count": 0, "votes_count": 0, "ships_count": 0, "projects": [], "coding_time_seconds": 769, "coding_time_seconds_today": 0, "balance": "You need to have a pocket watcher badge to view this.", "badges": [], "created_at": "2025-07-22T03:15:21.492-04:00", "updated_at": "2025-07-22T09:06:16.212-04:00", "avatar": "https://secure.gravatar.com/avatar/5c550332f064ab90f5576a7d431f2c0f.jpg?s=512&d=https%3A%2F%2Fa.slack-edge.com%2Fdf10d%2Fimg%2Favatars%2Fava_0020-512.png", "custom_css": null}, {"id": 17553, "slack_id": "U096F4KNL3H", "display_name": "Kashish Mamania", "bio": null, "projects_count": 0, "devlogs_count": 0, "votes_count": 0, "ships_count": 0, "projects": [], "coding_time_seconds": 0, "coding_time_seconds_today": 0, "balance": "You need to have a pocket watcher badge to view this.", "badges": [], "created_at": "2025-07-22T03:17:43.573-04:00", "updated_at": "2025-07-22T03:35:29.670-04:00", "avatar": "https://secure.gravatar.com/avatar/804b2d626ce4bcd88961a229f54ced91.jpg?s=512&d=https%3A%2F%2Fa.slack-edge.com%2Fdf10d%2Fimg%2Favatars%2Fava_0023-512.png", "custom_css": null}, {"id": 17554, "slack_id": "U097J7G1GBS", "display_name": "Sabiha Hussein", "bio": null, "projects_count": 0, "devlogs_count": 0, "votes_count": 0, "ships_count": 0, "projects": [], "coding_time_seconds": 0, "coding_time_seconds_today": 0, "balance": "You need to have a pocket watcher badge to view this.", "badges": [], "created_at": "2025-07-22T03:17:48.813-04:00", "updated_at": "2025-07-22T09:04:12.967-04:00", "avatar": "https://secure.gravatar.com/avatar/0021d1dcae8f42cd52a7017a9b2a71a1.jpg?s=512&d=https%3A%2F%2Fa.slack-edge.com%2Fdf10d%2Fimg%2Favatars%2Fava_0018-512.png", "custom_css": null}, {"id": 17555, "slack_id": "U096TSSCCBF", "display_name": "chandrakantham bhavana", "bio": null, "projects_count": 0, "devlogs_count": 0, "votes_count": 0, "ships_count": 0, "projects": [], "coding_time_seconds": 48392, "coding_time_seconds_today": 0, "balance": "You need to have a pocket watcher badge to view this.", "badges": [], "created_at": "2025-07-22T03:17:54.729-04:00", "updated_at": "2025-07-22T03:35:29.837-04:00", "avatar": "https://avatars.slack-edge.com/2025-07-22/9233924508498_1ad1d95506a3bab5a190_original.jpg", "custom_css": null}, {"id": 17556, "slack_id": "U096F4SFLJ3", "display_name": "sagar", "bio": null, "projects_count": 0, "devlogs_count": 0, "votes_count": 0, "ships_count": 0, "projects": [], "coding_time_seconds": 0, "coding_time_seconds_today": 0, "balance": "You need to have a pocket watcher badge to view this.", "badges": [], "created_at": "2025-07-22T03:19:50.672-04:00", "updated_at": "2025-07-22T05:29:38.608-04:00", "avatar": "https://secure.gravatar.com/avatar/df1bf1aeb6effdf1047d2f584d8f41d3.jpg?s=512&d=https%3A%2F%2Fa.slack-edge.com%2Fdf10d%2Fimg%2Favatars%2Fava_0011-512.png", "custom_css": null}, {"id": 17557, "slack_id": "U096TTBDWSZ", "display_name": "0xParzival", "bio": null, "projects_count": 0, "devlogs_count": 0, "votes_count": 0, "ships_count": 0, "projects": [], "coding_time_seconds": 502, "coding_time_seconds_today": 0, "balance": "You need to have a pocket watcher badge to view this.", "badges": [], "created_at": "2025-07-22T03:20:01.342-04:00", "updated_at": "2025-07-22T03:48:20.838-04:00", "avatar": "https://secure.gravatar.com/avatar/1740fa9384fec7917be5e79b853e22be.jpg?s=512&d=https%3A%2F%2Fa.slack-edge.com%2Fdf10d%2Fimg%2Favatars%2Fava_0012-512.png", "custom_css": null}, {"id": 17558, "slack_id": "U096X425JA0", "display_name": "Aaryan Gupta", "bio": null, "projects_count": 0, "devlogs_count": 0, "votes_count": 0, "ships_count": 0, "projects": [], "coding_time_seconds": 0, "coding_time_seconds_today": 0, "balance": "You need to have a pocket watcher badge to view this.", "badges": [], "created_at": "2025-07-22T03:20:03.508-04:00", "updated_at": "2025-07-22T03:35:30.098-04:00", "avatar": "https://secure.gravatar.com/avatar/9c8ccc54cfccc50390af68a1153b991d.jpg?s=512&d=https%3A%2F%2Fa.slack-edge.com%2Fdf10d%2Fimg%2Favatars%2Fava_0015-512.png", "custom_css": null}, {"id": 17559, "slack_id": "U096X3ZC2GL", "display_name": "Midyan", "bio": null, "projects_count": 0, "devlogs_count": 0, "votes_count": 0, "ships_count": 0, "projects": [], "coding_time_seconds": 79, "coding_time_seconds_today": 0, "balance": "You need to have a pocket watcher badge to view this.", "badges": [], "created_at": "2025-07-22T03:20:04.993-04:00", "updated_at": "2025-07-22T03:35:30.184-04:00", "avatar": "https://secure.gravatar.com/avatar/7e71690a574fb67498d8160b9b95ab24.jpg?s=512&d=https%3A%2F%2Fa.slack-edge.com%2Fdf10d%2Fimg%2Favatars%2Fava_0002-512.png", "custom_css": null}, {"id": 17560, "slack_id": "U096VT0RWQ2", "display_name": "AYUSH KUMAR", "bio": null, "projects_count": 0, "devlogs_count": 0, "votes_count": 0, "ships_count": 0, "projects": [], "coding_time_seconds": 0, "coding_time_seconds_today": 0, "balance": "You need to have a pocket watcher badge to view this.", "badges": [], "created_at": "2025-07-22T03:20:25.537-04:00", "updated_at": "2025-07-22T03:35:30.277-04:00", "avatar": "https://secure.gravatar.com/avatar/c9e2d3d91ce5a7f46acf6c618854b32f.jpg?s=512&d=https%3A%2F%2Fa.slack-edge.com%2Fdf10d%2Fimg%2Favatars%2Fava_0024-512.png", "custom_css": null}, {"id": 17561, "slack_id": "U09790CSUL9", "display_name": "Augustin Curinier", "bio": null, "projects_count": 0, "devlogs_count": 0, "votes_count": 0, "ships_count": 0, "projects": [], "coding_time_seconds": 372, "coding_time_seconds_today": 0, "balance": "You need to have a pocket watcher badge to view this.", "badges": [], "created_at": "2025-07-22T03:20:48.440-04:00", "updated_at": "2025-07-22T03:56:19.924-04:00", "avatar": "https://avatars.slack-edge.com/2025-07-22/9233937183650_3b8beffdea5f2295f5e9_original.png", "custom_css": null}, {"id": 17562, "slack_id": "U097H74UQ4Q", "display_name": "Josue", "bio": null, "projects_count": 0, "devlogs_count": 0, "votes_count": 0, "ships_count": 0, "projects": [], "coding_time_seconds": 0, "coding_time_seconds_today": 0, "balance": "You need to have a pocket watcher badge to view this.", "badges": [], "created_at": "2025-07-22T03:21:10.335-04:00", "updated_at": "2025-08-09T06:01:22.069-04:00", "avatar": "https://secure.gravatar.com/avatar/578e57be1f7e79d0097fdc48e91dd69c.jpg?s=512&d=https%3A%2F%2Fa.slack-edge.com%2Fdf10d%2Fimg%2Favatars%2Fava_0002-512.png", "custom_css": null}, {"id": 17563, "slack_id": "U096TTC9JBF", "display_name": "Muhammad Sami Rahimi", "bio": null, "projects_count": 0, "devlogs_count": 0, "votes_count": 0, "ships_count": 0, "projects": [], "coding_time_seconds": 8664, "coding_time_seconds_today": 0, "balance": "You need to have a pocket watcher badge to view this.", "badges": [], "created_at": "2025-07-22T03:21:21.019-04:00", "updated_at": "2025-07-23T08:31:08.505-04:00", "avatar": "https://secure.gravatar.com/avatar/02f906bf3eef6c0cb40aa43247567df8.jpg?s=512&d=https%3A%2F%2Fa.slack-edge.com%2Fdf10d%2Fimg%2Favatars%2Fava_0011-512.png", "custom_css": null}, {"id": 17564, "slack_id": "U096TTUMG1K", "display_name": "Justin Aujla", "bio": null, "projects_count": 0, "devlogs_count": 0, "votes_count": 0, "ships_count": 0, "projects": [], "coding_time_seconds": 0, "coding_time_seconds_today": 0, "balance": "You need to have a pocket watcher badge to view this.", "badges": [], "created_at": "2025-07-22T03:23:54.819-04:00", "updated_at": "2025-07-22T09:34:41.531-04:00", "avatar": "https://secure.gravatar.com/avatar/0da3451dd1321f320f8380351d510bd8.jpg?s=512&d=https%3A%2F%2Fa.slack-edge.com%2Fdf10d%2Fimg%2Favatars%2Fava_0000-512.png", "custom_css": null}, {"id": 17565, "slack_id": "U096X4CF42G", "display_name": "Shubham Dutta", "bio": null, "projects_count": 0, "devlogs_count": 0, "votes_count": 0, "ships_count": 0, "projects": [], "coding_time_seconds": 0, "coding_time_seconds_today": 0, "balance": "You need to have a pocket watcher badge to view this.", "badges": [], "created_at": "2025-07-22T03:25:52.544-04:00", "updated_at": "2025-07-22T09:34:41.616-04:00", "avatar": "https://avatars.slack-edge.com/2025-07-22/9231970980613_49bea947f1a83f5c2775_original.jpg", "custom_css": null}], "pagination": {"page": 874, "pages": 1192, "count": 23828, "items": 20}}