{"users": [{"id": 17586, "slack_id": "U096SSC2YTY", "display_name": "sasa", "bio": null, "projects_count": 0, "devlogs_count": 0, "votes_count": 0, "ships_count": 0, "projects": [], "coding_time_seconds": 0, "coding_time_seconds_today": 0, "balance": "You need to have a pocket watcher badge to view this.", "badges": [], "created_at": "2025-07-22T03:36:30.519-04:00", "updated_at": "2025-07-22T09:34:55.508-04:00", "avatar": "https://secure.gravatar.com/avatar/fddec7c5e11f414a51f186c10b017c2c.jpg?s=512&d=https%3A%2F%2Fa.slack-edge.com%2Fdf10d%2Fimg%2Favatars%2Fava_0024-512.png", "custom_css": null}, {"id": 17587, "slack_id": "U09794VQND7", "display_name": "Absharul", "bio": null, "projects_count": 0, "devlogs_count": 0, "votes_count": 0, "ships_count": 0, "projects": [], "coding_time_seconds": 0, "coding_time_seconds_today": 0, "balance": "You need to have a pocket watcher badge to view this.", "badges": [], "created_at": "2025-07-22T03:37:01.851-04:00", "updated_at": "2025-07-22T09:34:55.605-04:00", "avatar": "https://secure.gravatar.com/avatar/32d6e6dfd7d4c7028ac0ee615ed779e0.jpg?s=512&d=https%3A%2F%2Fa.slack-edge.com%2Fdf10d%2Fimg%2Favatars%2Fava_0018-512.png", "custom_css": null}, {"id": 17588, "slack_id": "U096F7530J3", "display_name": "anoushka", "bio": null, "projects_count": 0, "devlogs_count": 0, "votes_count": 0, "ships_count": 0, "projects": [], "coding_time_seconds": 0, "coding_time_seconds_today": 0, "balance": "You need to have a pocket watcher badge to view this.", "badges": [], "created_at": "2025-07-22T03:37:30.003-04:00", "updated_at": "2025-07-22T09:34:55.693-04:00", "avatar": "https://secure.gravatar.com/avatar/0f2221b8276f74cc2250f7151aaa4ee9.jpg?s=512&d=https%3A%2F%2Fa.slack-edge.com%2Fdf10d%2Fimg%2Favatars%2Fava_0015-512.png", "custom_css": null}, {"id": 17589, "slack_id": "U096W05JPR8", "display_name": "JUAN ESTEBAN CUELLO ANDRADE", "bio": null, "projects_count": 0, "devlogs_count": 0, "votes_count": 0, "ships_count": 0, "projects": [], "coding_time_seconds": 1395, "coding_time_seconds_today": 0, "balance": "You need to have a pocket watcher badge to view this.", "badges": [], "created_at": "2025-07-22T03:39:23.323-04:00", "updated_at": "2025-07-22T09:34:55.790-04:00", "avatar": "https://avatars.slack-edge.com/2025-07-22/9256372637664_2e05e59c31e88934a8e3_original.png", "custom_css": null}, {"id": 17590, "slack_id": "U096U0RPKPF", "display_name": "Tamanna Sharma", "bio": null, "projects_count": 0, "devlogs_count": 0, "votes_count": 0, "ships_count": 0, "projects": [], "coding_time_seconds": 38740, "coding_time_seconds_today": 0, "balance": "You need to have a pocket watcher badge to view this.", "badges": [], "created_at": "2025-07-22T03:40:06.371-04:00", "updated_at": "2025-07-22T09:34:55.876-04:00", "avatar": "https://avatars.slack-edge.com/2025-07-22/9256374877760_eef375b2c95627118ba2_original.jpg", "custom_css": null}, {"id": 17591, "slack_id": "U096SSWAF54", "display_name": "Azaan Ahmed", "bio": null, "projects_count": 0, "devlogs_count": 0, "votes_count": 0, "ships_count": 0, "projects": [], "coding_time_seconds": 0, "coding_time_seconds_today": 0, "balance": "You need to have a pocket watcher badge to view this.", "badges": [], "created_at": "2025-07-22T03:40:10.658-04:00", "updated_at": "2025-07-22T09:34:55.969-04:00", "avatar": "https://secure.gravatar.com/avatar/367946b92b28df3743312e11d7124425.jpg?s=512&d=https%3A%2F%2Fa.slack-edge.com%2Fdf10d%2Fimg%2Favatars%2Fava_0016-512.png", "custom_css": null}, {"id": 17592, "slack_id": "U096W0ATUD8", "display_name": "Niranjan Chhawdi", "bio": null, "projects_count": 0, "devlogs_count": 0, "votes_count": 0, "ships_count": 0, "projects": [], "coding_time_seconds": 0, "coding_time_seconds_today": 0, "balance": "You need to have a pocket watcher badge to view this.", "badges": [], "created_at": "2025-07-22T03:40:32.624-04:00", "updated_at": "2025-07-22T09:34:56.076-04:00", "avatar": "https://secure.gravatar.com/avatar/9e652b188378421bc193cf62a66ea4db.jpg?s=512&d=https%3A%2F%2Fa.slack-edge.com%2Fdf10d%2Fimg%2Favatars%2Fava_0019-512.png", "custom_css": null}, {"id": 17593, "slack_id": "U096U0V3HPF", "display_name": "Mohith B S", "bio": null, "projects_count": 0, "devlogs_count": 0, "votes_count": 0, "ships_count": 0, "projects": [], "coding_time_seconds": 0, "coding_time_seconds_today": 0, "balance": "You need to have a pocket watcher badge to view this.", "badges": [], "created_at": "2025-07-22T03:41:20.336-04:00", "updated_at": "2025-07-22T09:34:56.167-04:00", "avatar": "https://secure.gravatar.com/avatar/70320bdff133871653867bfe99a3d068.jpg?s=512&d=https%3A%2F%2Fa.slack-edge.com%2Fdf10d%2Fimg%2Favatars%2Fava_0025-512.png", "custom_css": null}, {"id": 17594, "slack_id": "U096F7BJ55M", "display_name": "mayur", "bio": null, "projects_count": 0, "devlogs_count": 0, "votes_count": 0, "ships_count": 0, "projects": [], "coding_time_seconds": 0, "coding_time_seconds_today": 0, "balance": "You need to have a pocket watcher badge to view this.", "badges": [], "created_at": "2025-07-22T03:41:29.726-04:00", "updated_at": "2025-07-22T09:34:56.254-04:00", "avatar": "https://secure.gravatar.com/avatar/1dc2ec0eca9f695f4ce8be2ef53be508.jpg?s=512&d=https%3A%2F%2Fa.slack-edge.com%2Fdf10d%2Fimg%2Favatars%2Fava_0025-512.png", "custom_css": null}, {"id": 17595, "slack_id": "U097JAEATB2", "display_name": "Ebrahim Rizvi", "bio": null, "projects_count": 2, "devlogs_count": 16, "votes_count": 60, "ships_count": 2, "projects": [{"id": 12818, "title": "Puppy?", "devlogs_count": 4, "created_at": "2025-09-03T07:48:34.973-04:00"}, {"id": 9777, "title": "Press That Button Again", "devlogs_count": 7, "created_at": "2025-08-02T08:58:50.977-04:00"}], "coding_time_seconds": 45174, "coding_time_seconds_today": 0, "balance": "You need to have a pocket watcher badge to view this.", "badges": [], "created_at": "2025-07-22T03:41:56.517-04:00", "updated_at": "2025-08-17T02:59:25.969-04:00", "avatar": "https://secure.gravatar.com/avatar/a6752919d3d0938ee1970d7069e244b8.jpg?s=512&d=https%3A%2F%2Fa.slack-edge.com%2Fdf10d%2Fimg%2Favatars%2Fava_0014-512.png", "custom_css": null}, {"id": 17596, "slack_id": "U096QL9LFU3", "display_name": "Lakshan Rukantha", "bio": null, "projects_count": 0, "devlogs_count": 0, "votes_count": 0, "ships_count": 0, "projects": [], "coding_time_seconds": 0, "coding_time_seconds_today": 0, "balance": "You need to have a pocket watcher badge to view this.", "badges": [], "created_at": "2025-07-22T03:41:59.116-04:00", "updated_at": "2025-07-22T09:34:56.427-04:00", "avatar": "https://secure.gravatar.com/avatar/0c49fdab38b21b039669e0ed3fc97a9e.jpg?s=512&d=https%3A%2F%2Fa.slack-edge.com%2Fdf10d%2Fimg%2Favatars%2Fava_0003-512.png", "custom_css": null}, {"id": 17597, "slack_id": "U096F7T45GF", "display_name": "Pierre-Yves Reverte", "bio": null, "projects_count": 0, "devlogs_count": 0, "votes_count": 0, "ships_count": 0, "projects": [], "coding_time_seconds": 0, "coding_time_seconds_today": 0, "balance": "You need to have a pocket watcher badge to view this.", "badges": [], "created_at": "2025-07-22T03:42:04.547-04:00", "updated_at": "2025-07-22T09:34:56.512-04:00", "avatar": "https://secure.gravatar.com/avatar/c29d75ea73ffbe17c86df4fb5581750e.jpg?s=512&d=https%3A%2F%2Fa.slack-edge.com%2Fdf10d%2Fimg%2Favatars%2Fava_0025-512.png", "custom_css": null}, {"id": 17598, "slack_id": "U096U0VGR37", "display_name": "joamonca", "bio": null, "projects_count": 0, "devlogs_count": 0, "votes_count": 0, "ships_count": 0, "projects": [], "coding_time_seconds": 0, "coding_time_seconds_today": 0, "balance": "You need to have a pocket watcher badge to view this.", "badges": [], "created_at": "2025-07-22T03:42:41.047-04:00", "updated_at": "2025-07-22T09:34:56.585-04:00", "avatar": "https://secure.gravatar.com/avatar/be19ac5cb204ffa0526d615116e6b5a2.jpg?s=512&d=https%3A%2F%2Fa.slack-edge.com%2Fdf10d%2Fimg%2Favatars%2Fava_0003-512.png", "custom_css": null}, {"id": 17599, "slack_id": "U09795JU4C9", "display_name": "Srija", "bio": null, "projects_count": 0, "devlogs_count": 0, "votes_count": 0, "ships_count": 0, "projects": [], "coding_time_seconds": 0, "coding_time_seconds_today": 0, "balance": "You need to have a pocket watcher badge to view this.", "badges": [], "created_at": "2025-07-22T03:43:22.075-04:00", "updated_at": "2025-08-02T05:32:37.952-04:00", "avatar": "https://secure.gravatar.com/avatar/8b792b70f00e32f546927348c4c58de3.jpg?s=512&d=https%3A%2F%2Fa.slack-edge.com%2Fdf10d%2Fimg%2Favatars%2Fava_0023-512.png", "custom_css": null}, {"id": 17600, "slack_id": "U083EQR3U3F", "display_name": "Brock Lesner", "bio": null, "projects_count": 0, "devlogs_count": 0, "votes_count": 0, "ships_count": 0, "projects": [], "coding_time_seconds": 353212, "coding_time_seconds_today": 0, "balance": "You need to have a pocket watcher badge to view this.", "badges": [], "created_at": "2025-07-22T03:44:37.018-04:00", "updated_at": "2025-07-22T03:46:55.649-04:00", "avatar": "https://secure.gravatar.com/avatar/3b9d8aad4a9359ef7e3e195b5afaa539.jpg?s=512&d=https%3A%2F%2Fa.slack-edge.com%2Fdf10d%2Fimg%2Favatars%2Fava_0004-512.png", "custom_css": null}, {"id": 17601, "slack_id": "U096X75730U", "display_name": "Geass", "bio": null, "projects_count": 0, "devlogs_count": 0, "votes_count": 0, "ships_count": 0, "projects": [], "coding_time_seconds": 0, "coding_time_seconds_today": 0, "balance": "You need to have a pocket watcher badge to view this.", "badges": [], "created_at": "2025-07-22T03:44:53.709-04:00", "updated_at": "2025-07-22T09:35:00.872-04:00", "avatar": "https://secure.gravatar.com/avatar/51e7d4c507f0f6001f37630894d3c458.jpg?s=512&d=https%3A%2F%2Fa.slack-edge.com%2Fdf10d%2Fimg%2Favatars%2Fava_0026-512.png", "custom_css": null}, {"id": 17602, "slack_id": "U096W14D6LS", "display_name": "Vaibhav Paliwal", "bio": null, "projects_count": 0, "devlogs_count": 0, "votes_count": 0, "ships_count": 0, "projects": [], "coding_time_seconds": 0, "coding_time_seconds_today": 0, "balance": "You need to have a pocket watcher badge to view this.", "badges": [], "created_at": "2025-07-22T03:45:39.146-04:00", "updated_at": "2025-07-22T09:35:00.955-04:00", "avatar": "https://secure.gravatar.com/avatar/90a5a81b2cd35a1641914750bf497878.jpg?s=512&d=https%3A%2F%2Fa.slack-edge.com%2Fdf10d%2Fimg%2Favatars%2Fava_0020-512.png", "custom_css": null}, {"id": 17603, "slack_id": "U096QM4ULKV", "display_name": "Mushfiq Us Salehin", "bio": null, "projects_count": 0, "devlogs_count": 0, "votes_count": 0, "ships_count": 0, "projects": [], "coding_time_seconds": 0, "coding_time_seconds_today": 0, "balance": "You need to have a pocket watcher badge to view this.", "badges": [], "created_at": "2025-07-22T03:46:33.012-04:00", "updated_at": "2025-07-22T09:35:01.036-04:00", "avatar": "https://secure.gravatar.com/avatar/7d021af506e4386ec0afd187f5b51e8c.jpg?s=512&d=https%3A%2F%2Fa.slack-edge.com%2Fdf10d%2Fimg%2Favatars%2Fava_0000-512.png", "custom_css": null}, {"id": 17604, "slack_id": "U097HQNGX88", "display_name": "Elias Maximilian T\u00e4nzer", "bio": null, "projects_count": 0, "devlogs_count": 0, "votes_count": 2, "ships_count": 0, "projects": [], "coding_time_seconds": 23726, "coding_time_seconds_today": 0, "balance": "You need to have a pocket watcher badge to view this.", "badges": [], "created_at": "2025-07-22T03:46:33.286-04:00", "updated_at": "2025-07-22T10:36:13.629-04:00", "avatar": "https://secure.gravatar.com/avatar/d213eb168a778587ead6fa344d406aaa.jpg?s=512&d=https%3A%2F%2Fa.slack-edge.com%2Fdf10d%2Fimg%2Favatars%2Fava_0018-512.png", "custom_css": null}, {"id": 17605, "slack_id": "U096QLWDR2P", "display_name": "Stijn", "bio": null, "projects_count": 0, "devlogs_count": 0, "votes_count": 0, "ships_count": 0, "projects": [], "coding_time_seconds": 0, "coding_time_seconds_today": 0, "balance": "You need to have a pocket watcher badge to view this.", "badges": [], "created_at": "2025-07-22T03:47:32.626-04:00", "updated_at": "2025-07-22T09:35:05.265-04:00", "avatar": "https://secure.gravatar.com/avatar/658c7dbdef5bb01a66f0205c1483db13.jpg?s=512&d=https%3A%2F%2Fa.slack-edge.com%2Fdf10d%2Fimg%2Favatars%2Fava_0018-512.png", "custom_css": null}], "pagination": {"page": 876, "pages": 1192, "count": 23828, "items": 20}}