{"users": [{"id": 17606, "slack_id": "U096S4B0FA9", "display_name": "Maryam Shehu", "bio": null, "projects_count": 0, "devlogs_count": 0, "votes_count": 0, "ships_count": 0, "projects": [], "coding_time_seconds": 0, "coding_time_seconds_today": 0, "balance": "You need to have a pocket watcher badge to view this.", "badges": [], "created_at": "2025-07-22T03:47:56.781-04:00", "updated_at": "2025-07-22T09:35:05.371-04:00", "avatar": "https://avatars.slack-edge.com/2025-07-22/9230967172854_1e11c081c0ffc5ba6b18_original.png", "custom_css": null}, {"id": 17607, "slack_id": "U096SUBLB38", "display_name": "shanif3", "bio": null, "projects_count": 0, "devlogs_count": 0, "votes_count": 0, "ships_count": 0, "projects": [], "coding_time_seconds": 0, "coding_time_seconds_today": 0, "balance": "You need to have a pocket watcher badge to view this.", "badges": [], "created_at": "2025-07-22T03:50:13.440-04:00", "updated_at": "2025-07-22T09:35:05.463-04:00", "avatar": "https://secure.gravatar.com/avatar/bbc1d5ef85a6b92640991db31063b6dc.jpg?s=512&d=https%3A%2F%2Fa.slack-edge.com%2Fdf10d%2Fimg%2Favatars%2Fava_0018-512.png", "custom_css": null}, {"id": 17608, "slack_id": "U096QMN1GTD", "display_name": "Youssef Ahmed", "bio": null, "projects_count": 0, "devlogs_count": 0, "votes_count": 0, "ships_count": 0, "projects": [], "coding_time_seconds": 0, "coding_time_seconds_today": 0, "balance": "You need to have a pocket watcher badge to view this.", "badges": [], "created_at": "2025-07-22T03:51:42.020-04:00", "updated_at": "2025-07-22T09:35:05.543-04:00", "avatar": "https://avatars.slack-edge.com/2025-07-22/9256426843520_2d6e915470c7cd338736_original.jpg", "custom_css": null}, {"id": 17609, "slack_id": "U096X1ZP7GC", "display_name": "Schokolade", "bio": null, "projects_count": 0, "devlogs_count": 0, "votes_count": 0, "ships_count": 0, "projects": [], "coding_time_seconds": 0, "coding_time_seconds_today": 0, "balance": "You need to have a pocket watcher badge to view this.", "badges": [], "created_at": "2025-07-22T03:51:53.175-04:00", "updated_at": "2025-07-22T09:35:05.638-04:00", "avatar": "https://secure.gravatar.com/avatar/8a77da11adfabbac108dfa328f5e509a.jpg?s=512&d=https%3A%2F%2Fa.slack-edge.com%2Fdf10d%2Fimg%2Favatars%2Fava_0022-512.png", "custom_css": null}, {"id": 17610, "slack_id": "U097974CC7K", "display_name": "Jacques Ophoff", "bio": null, "projects_count": 0, "devlogs_count": 0, "votes_count": 0, "ships_count": 0, "projects": [], "coding_time_seconds": 0, "coding_time_seconds_today": 0, "balance": "You need to have a pocket watcher badge to view this.", "badges": [], "created_at": "2025-07-22T03:52:44.446-04:00", "updated_at": "2025-07-23T10:43:01.595-04:00", "avatar": "https://secure.gravatar.com/avatar/6a70859fc0117bb28edbb75e0d27719f.jpg?s=512&d=https%3A%2F%2Fa.slack-edge.com%2Fdf10d%2Fimg%2Favatars%2Fava_0002-512.png", "custom_css": null}, {"id": 17611, "slack_id": "U097JC94DFA", "display_name": "Saif eddine LAYOUNI", "bio": null, "projects_count": 0, "devlogs_count": 0, "votes_count": 0, "ships_count": 0, "projects": [], "coding_time_seconds": 0, "coding_time_seconds_today": 0, "balance": "You need to have a pocket watcher badge to view this.", "badges": [], "created_at": "2025-07-22T03:53:48.446-04:00", "updated_at": "2025-07-22T09:35:05.814-04:00", "avatar": "https://secure.gravatar.com/avatar/f660cbf0d5a58dd31e3dfa09e6024eb3.jpg?s=512&d=https%3A%2F%2Fa.slack-edge.com%2Fdf10d%2Fimg%2Favatars%2Fava_0021-512.png", "custom_css": null}, {"id": 17612, "slack_id": "U096TSETUSH", "display_name": "Andrew Wang", "bio": null, "projects_count": 0, "devlogs_count": 0, "votes_count": 0, "ships_count": 0, "projects": [], "coding_time_seconds": 15895, "coding_time_seconds_today": 0, "balance": "You need to have a pocket watcher badge to view this.", "badges": [], "created_at": "2025-07-22T03:54:17.991-04:00", "updated_at": "2025-07-22T09:35:05.956-04:00", "avatar": "https://avatars.slack-edge.com/2025-07-22/9219338440519_a3a736e3e9993c1a6177_original.png", "custom_css": null}, {"id": 17613, "slack_id": "U096W2H9QSE", "display_name": "Sudeep T Pillai", "bio": null, "projects_count": 0, "devlogs_count": 0, "votes_count": 0, "ships_count": 0, "projects": [], "coding_time_seconds": 0, "coding_time_seconds_today": 0, "balance": "You need to have a pocket watcher badge to view this.", "badges": [], "created_at": "2025-07-22T03:54:40.263-04:00", "updated_at": "2025-07-22T09:35:06.050-04:00", "avatar": "https://secure.gravatar.com/avatar/938c3d8370a8f433b3b7e36b9a2df3db.jpg?s=512&d=https%3A%2F%2Fa.slack-edge.com%2Fdf10d%2Fimg%2Favatars%2Fava_0013-512.png", "custom_css": null}, {"id": 17614, "slack_id": "U097JAQPK08", "display_name": "Superdadi", "bio": null, "projects_count": 0, "devlogs_count": 0, "votes_count": 0, "ships_count": 0, "projects": [], "coding_time_seconds": 0, "coding_time_seconds_today": 0, "balance": "You need to have a pocket watcher badge to view this.", "badges": [], "created_at": "2025-07-22T03:54:58.190-04:00", "updated_at": "2025-07-22T09:35:06.131-04:00", "avatar": "https://secure.gravatar.com/avatar/7b4ace0fb1c0096e736fa0a79d5dc14a.jpg?s=512&d=https%3A%2F%2Fa.slack-edge.com%2Fdf10d%2Fimg%2Favatars%2Fava_0026-512.png", "custom_css": null}, {"id": 17615, "slack_id": "U096SV3P1T8", "display_name": "Matthias", "bio": null, "projects_count": 0, "devlogs_count": 0, "votes_count": 0, "ships_count": 0, "projects": [], "coding_time_seconds": 0, "coding_time_seconds_today": 0, "balance": "You need to have a pocket watcher badge to view this.", "badges": [], "created_at": "2025-07-22T03:55:39.429-04:00", "updated_at": "2025-07-22T09:35:06.223-04:00", "avatar": "https://secure.gravatar.com/avatar/73fe6aef973b488b1e00533fcda5d93e.jpg?s=512&d=https%3A%2F%2Fa.slack-edge.com%2Fdf10d%2Fimg%2Favatars%2Fava_0008-512.png", "custom_css": null}, {"id": 17616, "slack_id": "U096W2P9Z0S", "display_name": "chadfli", "bio": "I like Arduino and python", "projects_count": 1, "devlogs_count": 2, "votes_count": 1, "ships_count": 0, "projects": [{"id": 7543, "title": "A Mind game", "devlogs_count": 2, "created_at": "2025-07-22T04:26:41.803-04:00"}], "coding_time_seconds": 8587, "coding_time_seconds_today": 0, "balance": "You need to have a pocket watcher badge to view this.", "badges": [], "created_at": "2025-07-22T03:59:10.162-04:00", "updated_at": "2025-07-22T09:35:06.308-04:00", "avatar": "https://secure.gravatar.com/avatar/a51923c7b093be46cb373d0ae2bcd30e.jpg?s=512&d=https%3A%2F%2Fa.slack-edge.com%2Fdf10d%2Fimg%2Favatars%2Fava_0014-512.png", "custom_css": null}, {"id": 17617, "slack_id": "U096W34CH8A", "display_name": "Nishitha", "bio": null, "projects_count": 0, "devlogs_count": 0, "votes_count": 0, "ships_count": 0, "projects": [], "coding_time_seconds": 18588, "coding_time_seconds_today": 0, "balance": "You need to have a pocket watcher badge to view this.", "badges": [], "created_at": "2025-07-22T03:59:33.251-04:00", "updated_at": "2025-08-19T12:47:49.042-04:00", "avatar": "https://secure.gravatar.com/avatar/c250a90bad51983ae367e0f9fc8780d8.jpg?s=512&d=https%3A%2F%2Fa.slack-edge.com%2Fdf10d%2Fimg%2Favatars%2Fava_0005-512.png", "custom_css": null}, {"id": 17618, "slack_id": "U096QGNT3FV", "display_name": "Burcu Cinar", "bio": null, "projects_count": 0, "devlogs_count": 0, "votes_count": 0, "ships_count": 0, "projects": [], "coding_time_seconds": 240, "coding_time_seconds_today": 0, "balance": "You need to have a pocket watcher badge to view this.", "badges": [], "created_at": "2025-07-22T03:59:41.410-04:00", "updated_at": "2025-07-22T09:35:06.495-04:00", "avatar": "https://secure.gravatar.com/avatar/fdd301a99fdb2ec1e34cde5997758837.jpg?s=512&d=https%3A%2F%2Fa.slack-edge.com%2Fdf10d%2Fimg%2Favatars%2Fava_0002-512.png", "custom_css": null}, {"id": 17619, "slack_id": "U096FA7DCF9", "display_name": "Vitaly", "bio": null, "projects_count": 0, "devlogs_count": 0, "votes_count": 0, "ships_count": 0, "projects": [], "coding_time_seconds": 3844, "coding_time_seconds_today": 0, "balance": "You need to have a pocket watcher badge to view this.", "badges": [], "created_at": "2025-07-22T04:00:00.915-04:00", "updated_at": "2025-07-22T11:29:27.007-04:00", "avatar": "https://secure.gravatar.com/avatar/d3a0f2832894b939ea87b072c4a906b1.jpg?s=512&d=https%3A%2F%2Fa.slack-edge.com%2Fdf10d%2Fimg%2Favatars%2Fava_0001-512.png", "custom_css": null}, {"id": 17620, "slack_id": "U096X9ZGWPN", "display_name": "Aastha", "bio": null, "projects_count": 0, "devlogs_count": 0, "votes_count": 0, "ships_count": 0, "projects": [], "coding_time_seconds": 0, "coding_time_seconds_today": 0, "balance": "You need to have a pocket watcher badge to view this.", "badges": [], "created_at": "2025-07-22T04:01:25.084-04:00", "updated_at": "2025-07-22T09:35:06.664-04:00", "avatar": "https://secure.gravatar.com/avatar/cdd08ea5529930752d2161596d9cca3f.jpg?s=512&d=https%3A%2F%2Fa.slack-edge.com%2Fdf10d%2Fimg%2Favatars%2Fava_0001-512.png", "custom_css": null}, {"id": 17621, "slack_id": "U096X7CA360", "display_name": "Kshitij Kumar", "bio": null, "projects_count": 0, "devlogs_count": 0, "votes_count": 0, "ships_count": 0, "projects": [], "coding_time_seconds": 0, "coding_time_seconds_today": 0, "balance": "You need to have a pocket watcher badge to view this.", "badges": [], "created_at": "2025-07-22T04:04:03.892-04:00", "updated_at": "2025-07-22T09:35:06.765-04:00", "avatar": "https://secure.gravatar.com/avatar/dbdcba6a007097d7450d0342495b9edb.jpg?s=512&d=https%3A%2F%2Fa.slack-edge.com%2Fdf10d%2Fimg%2Favatars%2Fava_0007-512.png", "custom_css": null}, {"id": 17622, "slack_id": "U09798DQ02V", "display_name": "GrandMinecraft", "bio": null, "projects_count": 0, "devlogs_count": 0, "votes_count": 0, "ships_count": 0, "projects": [], "coding_time_seconds": 0, "coding_time_seconds_today": 0, "balance": "You need to have a pocket watcher badge to view this.", "badges": [], "created_at": "2025-07-22T04:04:05.937-04:00", "updated_at": "2025-07-22T09:35:06.848-04:00", "avatar": "https://secure.gravatar.com/avatar/c9d85a1e2cd4c87d2bd7730f11847040.jpg?s=512&d=https%3A%2F%2Fa.slack-edge.com%2Fdf10d%2Fimg%2Favatars%2Fava_0022-512.png", "custom_css": null}, {"id": 17623, "slack_id": "U097991PKJ5", "display_name": "saicharan", "bio": null, "projects_count": 0, "devlogs_count": 0, "votes_count": 0, "ships_count": 0, "projects": [], "coding_time_seconds": 0, "coding_time_seconds_today": 0, "balance": "You need to have a pocket watcher badge to view this.", "badges": [], "created_at": "2025-07-22T04:05:02.638-04:00", "updated_at": "2025-07-22T09:35:07.015-04:00", "avatar": "https://secure.gravatar.com/avatar/c75c14c43f840ad1821c4950f34e50a5.jpg?s=512&d=https%3A%2F%2Fa.slack-edge.com%2Fdf10d%2Fimg%2Favatars%2Fava_0014-512.png", "custom_css": null}, {"id": 17624, "slack_id": "U097FQGMQKS", "display_name": "Yash Sharma", "bio": null, "projects_count": 0, "devlogs_count": 0, "votes_count": 0, "ships_count": 0, "projects": [], "coding_time_seconds": 0, "coding_time_seconds_today": 0, "balance": "You need to have a pocket watcher badge to view this.", "badges": [], "created_at": "2025-07-22T04:06:03.459-04:00", "updated_at": "2025-07-22T09:35:07.103-04:00", "avatar": "https://avatars.slack-edge.com/2025-07-22/9232171995253_a0577a764a2c4c9fd33d_original.png", "custom_css": null}, {"id": 17625, "slack_id": "U09799RLS0H", "display_name": "Te Witsanupong", "bio": null, "projects_count": 0, "devlogs_count": 0, "votes_count": 0, "ships_count": 0, "projects": [], "coding_time_seconds": 67272, "coding_time_seconds_today": 0, "balance": "You need to have a pocket watcher badge to view this.", "badges": [], "created_at": "2025-07-22T04:10:37.983-04:00", "updated_at": "2025-07-22T09:35:07.180-04:00", "avatar": "https://avatars.slack-edge.com/2025-07-22/9256521067264_b5eecc071fd67fe8bcd9_original.png", "custom_css": null}], "pagination": {"page": 877, "pages": 1192, "count": 23828, "items": 20}}