{"users": [{"id": 17626, "slack_id": "U0821SF9V1C", "display_name": "Felix", "bio": null, "projects_count": 0, "devlogs_count": 0, "votes_count": 2, "ships_count": 0, "projects": [], "coding_time_seconds": 99707, "coding_time_seconds_today": 0, "balance": "You need to have a pocket watcher badge to view this.", "badges": [], "created_at": "2025-07-22T04:12:47.635-04:00", "updated_at": "2025-07-23T04:00:00.636-04:00", "avatar": "https://secure.gravatar.com/avatar/9b783ee5afacd949af2bd7d8d2f49089.jpg?s=512&d=https%3A%2F%2Fa.slack-edge.com%2Fdf10d%2Fimg%2Favatars%2Fava_0003-512.png", "custom_css": null}, {"id": 17627, "slack_id": "U096XBPK2PN", "display_name": "Amjad", "bio": null, "projects_count": 0, "devlogs_count": 0, "votes_count": 0, "ships_count": 0, "projects": [], "coding_time_seconds": 0, "coding_time_seconds_today": 0, "balance": "You need to have a pocket watcher badge to view this.", "badges": [], "created_at": "2025-07-22T04:13:45.875-04:00", "updated_at": "2025-07-22T09:35:11.365-04:00", "avatar": "https://secure.gravatar.com/avatar/d47eee7de98657acff163c9acaff4299.jpg?s=512&d=https%3A%2F%2Fa.slack-edge.com%2Fdf10d%2Fimg%2Favatars%2Fava_0021-512.png", "custom_css": null}, {"id": 17628, "slack_id": "U097JFA3H4G", "display_name": "Yaseen Saoud", "bio": "cool", "projects_count": 2, "devlogs_count": 12, "votes_count": 1, "ships_count": 1, "projects": [{"id": 8052, "title": "AI Villages in Minecraft", "devlogs_count": 9, "created_at": "2025-07-24T10:02:14.844-04:00"}, {"id": 8243, "title": "Redactor ", "devlogs_count": 3, "created_at": "2025-07-25T15:01:06.830-04:00"}], "coding_time_seconds": 213644, "coding_time_seconds_today": 0, "balance": "You need to have a pocket watcher badge to view this.", "badges": [], "created_at": "2025-07-22T04:14:05.643-04:00", "updated_at": "2025-08-06T15:40:53.238-04:00", "avatar": "https://avatars.slack-edge.com/2025-07-22/9256536822976_549037b8279c0ae189a7_original.png", "custom_css": null}, {"id": 17629, "slack_id": "U096W5T8JM8", "display_name": "Bas", "bio": null, "projects_count": 0, "devlogs_count": 0, "votes_count": 0, "ships_count": 0, "projects": [], "coding_time_seconds": 0, "coding_time_seconds_today": 0, "balance": "You need to have a pocket watcher badge to view this.", "badges": [], "created_at": "2025-07-22T04:16:19.504-04:00", "updated_at": "2025-07-22T09:35:15.592-04:00", "avatar": "https://secure.gravatar.com/avatar/5fa390f28d971f62fa88ed18d35c9ef2.jpg?s=512&d=https%3A%2F%2Fa.slack-edge.com%2Fdf10d%2Fimg%2Favatars%2Fava_0013-512.png", "custom_css": null}, {"id": 17630, "slack_id": "U096XCAGGJG", "display_name": "Muddabir", "bio": null, "projects_count": 0, "devlogs_count": 0, "votes_count": 0, "ships_count": 0, "projects": [], "coding_time_seconds": 111937, "coding_time_seconds_today": 0, "balance": "You need to have a pocket watcher badge to view this.", "badges": [], "created_at": "2025-07-22T04:16:37.347-04:00", "updated_at": "2025-07-22T09:35:15.671-04:00", "avatar": "https://secure.gravatar.com/avatar/fd89aa91226acda62e1c00077971c059.jpg?s=512&d=https%3A%2F%2Fa.slack-edge.com%2Fdf10d%2Fimg%2Favatars%2Fava_0000-512.png", "custom_css": null}, {"id": 17631, "slack_id": "U096W5S8BGA", "display_name": "Gitish", "bio": null, "projects_count": 0, "devlogs_count": 0, "votes_count": 0, "ships_count": 0, "projects": [], "coding_time_seconds": 0, "coding_time_seconds_today": 0, "balance": "You need to have a pocket watcher badge to view this.", "badges": [], "created_at": "2025-07-22T04:17:07.543-04:00", "updated_at": "2025-07-22T09:35:15.758-04:00", "avatar": "https://avatars.slack-edge.com/2025-07-22/9234217194754_c714c97e67d7f7e3d002_original.jpg", "custom_css": null}, {"id": 17632, "slack_id": "U096XC51X1S", "display_name": "Treesa George", "bio": null, "projects_count": 0, "devlogs_count": 0, "votes_count": 0, "ships_count": 0, "projects": [], "coding_time_seconds": 0, "coding_time_seconds_today": 0, "balance": "You need to have a pocket watcher badge to view this.", "badges": [], "created_at": "2025-07-22T04:17:23.003-04:00", "updated_at": "2025-07-22T09:35:15.845-04:00", "avatar": "https://secure.gravatar.com/avatar/e3e0b4281519462ddc710fda1c26971e.jpg?s=512&d=https%3A%2F%2Fa.slack-edge.com%2Fdf10d%2Fimg%2Favatars%2Fava_0017-512.png", "custom_css": null}, {"id": 17633, "slack_id": "U096U5UUBGD", "display_name": "Rishav Gupta", "bio": null, "projects_count": 0, "devlogs_count": 0, "votes_count": 0, "ships_count": 0, "projects": [], "coding_time_seconds": 0, "coding_time_seconds_today": 0, "balance": "You need to have a pocket watcher badge to view this.", "badges": [], "created_at": "2025-07-22T04:17:47.901-04:00", "updated_at": "2025-07-22T09:35:15.976-04:00", "avatar": "https://secure.gravatar.com/avatar/69730b88836cf700a04466637f28b5ef.jpg?s=512&d=https%3A%2F%2Fa.slack-edge.com%2Fdf10d%2Fimg%2Favatars%2Fava_0008-512.png", "custom_css": null}, {"id": 17634, "slack_id": "U096W562F50", "display_name": "Muhammad Ahmad", "bio": null, "projects_count": 1, "devlogs_count": 0, "votes_count": 0, "ships_count": 0, "projects": [{"id": 7589, "title": "Single Perceptron from scratch", "devlogs_count": 0, "created_at": "2025-07-22T07:51:12.871-04:00"}], "coding_time_seconds": 56707, "coding_time_seconds_today": 0, "balance": "You need to have a pocket watcher badge to view this.", "badges": [], "created_at": "2025-07-22T04:18:02.084-04:00", "updated_at": "2025-07-22T09:35:16.086-04:00", "avatar": "https://secure.gravatar.com/avatar/a949ebaa947b3ab1e295298fa4c2e2bd.jpg?s=512&d=https%3A%2F%2Fa.slack-edge.com%2Fdf10d%2Fimg%2Favatars%2Fava_0010-512.png", "custom_css": null}, {"id": 17635, "slack_id": "U096QRYJLCT", "display_name": "shivam", "bio": null, "projects_count": 0, "devlogs_count": 0, "votes_count": 0, "ships_count": 0, "projects": [], "coding_time_seconds": 0, "coding_time_seconds_today": 0, "balance": "You need to have a pocket watcher badge to view this.", "badges": [], "created_at": "2025-07-22T04:18:41.864-04:00", "updated_at": "2025-07-22T09:35:16.203-04:00", "avatar": "https://secure.gravatar.com/avatar/9c5c4bbb75bf7ad7200a5fe8c22d8f3b.jpg?s=512&d=https%3A%2F%2Fa.slack-edge.com%2Fdf10d%2Fimg%2Favatars%2Fava_0014-512.png", "custom_css": null}, {"id": 17636, "slack_id": "U0979B05Y1F", "display_name": "Shishir Shekhar", "bio": null, "projects_count": 0, "devlogs_count": 0, "votes_count": 0, "ships_count": 0, "projects": [], "coding_time_seconds": 0, "coding_time_seconds_today": 0, "balance": "You need to have a pocket watcher badge to view this.", "badges": [], "created_at": "2025-07-22T04:18:48.433-04:00", "updated_at": "2025-09-01T03:54:59.435-04:00", "avatar": "https://avatars.slack-edge.com/2025-07-22/9247389697089_09ecc1c1ec2957d3e5f0_original.jpg", "custom_css": null}, {"id": 17637, "slack_id": "U0979AZQ15F", "display_name": "Preet Pancholi", "bio": null, "projects_count": 0, "devlogs_count": 0, "votes_count": 0, "ships_count": 0, "projects": [], "coding_time_seconds": 0, "coding_time_seconds_today": 0, "balance": "You need to have a pocket watcher badge to view this.", "badges": [], "created_at": "2025-07-22T04:19:19.901-04:00", "updated_at": "2025-07-22T09:35:16.396-04:00", "avatar": "https://secure.gravatar.com/avatar/3ef723e6d22e8d1b3630cecad669cc0e.jpg?s=512&d=https%3A%2F%2Fa.slack-edge.com%2Fdf10d%2Fimg%2Favatars%2Fava_0003-512.png", "custom_css": null}, {"id": 17638, "slack_id": "U0979B14EHX", "display_name": "Aryan", "bio": null, "projects_count": 0, "devlogs_count": 0, "votes_count": 0, "ships_count": 0, "projects": [], "coding_time_seconds": 0, "coding_time_seconds_today": 0, "balance": "You need to have a pocket watcher badge to view this.", "badges": [], "created_at": "2025-07-22T04:19:23.397-04:00", "updated_at": "2025-07-22T09:35:16.484-04:00", "avatar": "https://secure.gravatar.com/avatar/97ea71c3a1a996b324f228347d7b104c.jpg?s=512&d=https%3A%2F%2Fa.slack-edge.com%2Fdf10d%2Fimg%2Favatars%2Fava_0003-512.png", "custom_css": null}, {"id": 17639, "slack_id": "U096QRTACR1", "display_name": "MUCYO Ivan", "bio": null, "projects_count": 0, "devlogs_count": 0, "votes_count": 0, "ships_count": 0, "projects": [], "coding_time_seconds": 0, "coding_time_seconds_today": 0, "balance": "You need to have a pocket watcher badge to view this.", "badges": [], "created_at": "2025-07-22T04:19:33.182-04:00", "updated_at": "2025-07-22T09:35:16.573-04:00", "avatar": "https://secure.gravatar.com/avatar/b04678481d00a8615fa09acb692d8111.jpg?s=512&d=https%3A%2F%2Fa.slack-edge.com%2Fdf10d%2Fimg%2Favatars%2Fava_0015-512.png", "custom_css": null}, {"id": 17640, "slack_id": "U096XBZDM7W", "display_name": "Alicia", "bio": null, "projects_count": 0, "devlogs_count": 0, "votes_count": 0, "ships_count": 0, "projects": [], "coding_time_seconds": 0, "coding_time_seconds_today": 0, "balance": "You need to have a pocket watcher badge to view this.", "badges": [], "created_at": "2025-07-22T04:20:31.428-04:00", "updated_at": "2025-07-22T09:35:16.665-04:00", "avatar": "https://secure.gravatar.com/avatar/49fd56942b0e437a2e4e3edfcbba2f3f.jpg?s=512&d=https%3A%2F%2Fa.slack-edge.com%2Fdf10d%2Fimg%2Favatars%2Fava_0002-512.png", "custom_css": null}, {"id": 17641, "slack_id": "U097JG7TSHW", "display_name": "Jhilke Dai", "bio": null, "projects_count": 0, "devlogs_count": 0, "votes_count": 0, "ships_count": 0, "projects": [], "coding_time_seconds": 3673, "coding_time_seconds_today": 0, "balance": "You need to have a pocket watcher badge to view this.", "badges": [], "created_at": "2025-07-22T04:20:33.926-04:00", "updated_at": "2025-07-22T09:35:16.759-04:00", "avatar": "https://secure.gravatar.com/avatar/d25a966c4e5fcc2cc8c116de63764b15.jpg?s=512&d=https%3A%2F%2Fa.slack-edge.com%2Fdf10d%2Fimg%2Favatars%2Fava_0013-512.png", "custom_css": null}, {"id": 17642, "slack_id": "U07DJR81B37", "display_name": "Aryan Pai", "bio": null, "projects_count": 0, "devlogs_count": 0, "votes_count": 0, "ships_count": 0, "projects": [], "coding_time_seconds": 29858, "coding_time_seconds_today": 0, "balance": "You need to have a pocket watcher badge to view this.", "badges": [], "created_at": "2025-07-22T04:20:38.048-04:00", "updated_at": "2025-07-23T11:12:00.395-04:00", "avatar": "https://secure.gravatar.com/avatar/563051e1417219adb126ade1d154bd7b.jpg?s=512&d=https%3A%2F%2Fa.slack-edge.com%2Fdf10d%2Fimg%2Favatars%2Fava_0019-512.png", "custom_css": null}, {"id": 17643, "slack_id": "U096FD6AUUF", "display_name": "Pushpit jain", "bio": null, "projects_count": 2, "devlogs_count": 0, "votes_count": 0, "ships_count": 0, "projects": [{"id": 9562, "title": "Stridr", "devlogs_count": 0, "created_at": "2025-08-01T16:54:17.008-04:00"}, {"id": 9563, "title": "Stridr", "devlogs_count": 0, "created_at": "2025-08-01T16:54:17.040-04:00"}], "coding_time_seconds": 120, "coding_time_seconds_today": 0, "balance": "You need to have a pocket watcher badge to view this.", "badges": [], "created_at": "2025-07-22T04:21:14.607-04:00", "updated_at": "2025-07-22T09:35:20.957-04:00", "avatar": "https://secure.gravatar.com/avatar/2f57fdb070feec34e07f39a620b7c043.jpg?s=512&d=https%3A%2F%2Fa.slack-edge.com%2Fdf10d%2Fimg%2Favatars%2Fava_0012-512.png", "custom_css": null}, {"id": 17644, "slack_id": "U0979BFP8RX", "display_name": "Anas", "bio": null, "projects_count": 0, "devlogs_count": 0, "votes_count": 0, "ships_count": 0, "projects": [], "coding_time_seconds": 0, "coding_time_seconds_today": 0, "balance": "You need to have a pocket watcher badge to view this.", "badges": [], "created_at": "2025-07-22T04:21:35.753-04:00", "updated_at": "2025-07-22T09:35:21.037-04:00", "avatar": "https://secure.gravatar.com/avatar/50a4e771e34fef60c6a4142398fab846.jpg?s=512&d=https%3A%2F%2Fa.slack-edge.com%2Fdf10d%2Fimg%2Favatars%2Fava_0024-512.png", "custom_css": null}, {"id": 17645, "slack_id": "U096T27SH1U", "display_name": "Lawrence Njobo", "bio": null, "projects_count": 0, "devlogs_count": 0, "votes_count": 0, "ships_count": 0, "projects": [], "coding_time_seconds": 0, "coding_time_seconds_today": 0, "balance": "You need to have a pocket watcher badge to view this.", "badges": [], "created_at": "2025-07-22T04:21:38.642-04:00", "updated_at": "2025-07-23T18:02:49.401-04:00", "avatar": "https://secure.gravatar.com/avatar/caecd5e47de53072f10e4a17e01889f5.jpg?s=512&d=https%3A%2F%2Fa.slack-edge.com%2Fdf10d%2Fimg%2Favatars%2Fava_0018-512.png", "custom_css": null}], "pagination": {"page": 878, "pages": 1192, "count": 23828, "items": 20}}