{"users": [{"id": 17646, "slack_id": "U097JGN1M6C", "display_name": "Nishanta Das", "bio": null, "projects_count": 0, "devlogs_count": 0, "votes_count": 0, "ships_count": 0, "projects": [], "coding_time_seconds": 0, "coding_time_seconds_today": 0, "balance": "You need to have a pocket watcher badge to view this.", "badges": [], "created_at": "2025-07-22T04:23:18.410-04:00", "updated_at": "2025-07-22T09:35:21.217-04:00", "avatar": "https://avatars.slack-edge.com/2025-07-22/9219484159015_d5002e40633e84737fe1_original.png", "custom_css": null}, {"id": 17647, "slack_id": "U096T8LQWBU", "display_name": "bannedboy", "bio": null, "projects_count": 0, "devlogs_count": 0, "votes_count": 0, "ships_count": 0, "projects": [], "coding_time_seconds": 84604, "coding_time_seconds_today": 0, "balance": "You need to have a pocket watcher badge to view this.", "badges": [], "created_at": "2025-07-22T04:24:36.300-04:00", "updated_at": "2025-07-22T09:35:21.310-04:00", "avatar": "https://secure.gravatar.com/avatar/1b20fbe2bd731009c1b4ef980c352e25.jpg?s=512&d=https%3A%2F%2Fa.slack-edge.com%2Fdf10d%2Fimg%2Favatars%2Fava_0006-512.png", "custom_css": null}, {"id": 17648, "slack_id": "U096T2N0PFG", "display_name": "Junaid Asif", "bio": null, "projects_count": 0, "devlogs_count": 0, "votes_count": 0, "ships_count": 0, "projects": [], "coding_time_seconds": 0, "coding_time_seconds_today": 0, "balance": "You need to have a pocket watcher badge to view this.", "badges": [], "created_at": "2025-07-22T04:26:53.422-04:00", "updated_at": "2025-07-22T09:35:21.394-04:00", "avatar": "https://secure.gravatar.com/avatar/7bfce2da203504908bfd46bf426eb68d.jpg?s=512&d=https%3A%2F%2Fa.slack-edge.com%2Fdf10d%2Fimg%2Favatars%2Fava_0009-512.png", "custom_css": null}, {"id": 17649, "slack_id": "U096T4H4PHU", "display_name": "YASH RAJ", "bio": null, "projects_count": 0, "devlogs_count": 0, "votes_count": 0, "ships_count": 0, "projects": [], "coding_time_seconds": 0, "coding_time_seconds_today": 0, "balance": "You need to have a pocket watcher badge to view this.", "badges": [], "created_at": "2025-07-22T04:27:11.597-04:00", "updated_at": "2025-07-22T09:35:21.521-04:00", "avatar": "https://secure.gravatar.com/avatar/a54019d150275124109104304ef26ed8.jpg?s=512&d=https%3A%2F%2Fa.slack-edge.com%2Fdf10d%2Fimg%2Favatars%2Fava_0009-512.png", "custom_css": null}, {"id": 17650, "slack_id": "U096U5SBWN9", "display_name": "Tushar23", "bio": null, "projects_count": 0, "devlogs_count": 0, "votes_count": 0, "ships_count": 0, "projects": [], "coding_time_seconds": 0, "coding_time_seconds_today": 0, "balance": "You need to have a pocket watcher badge to view this.", "badges": [], "created_at": "2025-07-22T04:27:31.677-04:00", "updated_at": "2025-07-22T14:38:48.223-04:00", "avatar": "https://secure.gravatar.com/avatar/94807191d024dd88dc6316e3cdea26bd.jpg?s=512&d=https%3A%2F%2Fa.slack-edge.com%2Fdf10d%2Fimg%2Favatars%2Fava_0000-512.png", "custom_css": null}, {"id": 17651, "slack_id": "U097JHGV988", "display_name": "Yusuf", "bio": null, "projects_count": 0, "devlogs_count": 0, "votes_count": 0, "ships_count": 0, "projects": [], "coding_time_seconds": 120, "coding_time_seconds_today": 0, "balance": "You need to have a pocket watcher badge to view this.", "badges": [], "created_at": "2025-07-22T04:29:26.601-04:00", "updated_at": "2025-07-22T09:35:21.768-04:00", "avatar": "https://avatars.slack-edge.com/2025-07-22/9247481874257_2bac159fe7c84792585d_original.jpg", "custom_css": null}, {"id": 17652, "slack_id": "U0979CMFK89", "display_name": "Vivek Tiwari", "bio": null, "projects_count": 0, "devlogs_count": 0, "votes_count": 0, "ships_count": 0, "projects": [], "coding_time_seconds": 0, "coding_time_seconds_today": 0, "balance": "You need to have a pocket watcher badge to view this.", "badges": [], "created_at": "2025-07-22T04:29:51.530-04:00", "updated_at": "2025-07-22T09:35:21.861-04:00", "avatar": "https://avatars.slack-edge.com/2025-07-22/9219516098327_4861da2efdc4cca541d0_original.jpg", "custom_css": null}, {"id": 17653, "slack_id": "U096FEQ9G7R", "display_name": "paras goyal", "bio": null, "projects_count": 0, "devlogs_count": 0, "votes_count": 0, "ships_count": 0, "projects": [], "coding_time_seconds": 0, "coding_time_seconds_today": 0, "balance": "You need to have a pocket watcher badge to view this.", "badges": [], "created_at": "2025-07-22T04:30:27.557-04:00", "updated_at": "2025-07-22T09:35:21.944-04:00", "avatar": "https://avatars.slack-edge.com/2025-07-22/9247448254497_f5dbee9792ebb4cfab8e_original.jpg", "custom_css": null}, {"id": 17654, "slack_id": "U096U8B44KX", "display_name": "Paranjoy Gupta", "bio": null, "projects_count": 0, "devlogs_count": 0, "votes_count": 0, "ships_count": 0, "projects": [], "coding_time_seconds": 0, "coding_time_seconds_today": 0, "balance": "You need to have a pocket watcher badge to view this.", "badges": [], "created_at": "2025-07-22T04:30:43.226-04:00", "updated_at": "2025-07-22T14:04:56.373-04:00", "avatar": "https://secure.gravatar.com/avatar/7f107802f223a9b7cee6dd228b0078a0.jpg?s=512&d=https%3A%2F%2Fa.slack-edge.com%2Fdf10d%2Fimg%2Favatars%2Fava_0007-512.png", "custom_css": null}, {"id": 17655, "slack_id": "U096QTS1MC3", "display_name": "Marco", "bio": null, "projects_count": 0, "devlogs_count": 0, "votes_count": 0, "ships_count": 0, "projects": [], "coding_time_seconds": 159269, "coding_time_seconds_today": 0, "balance": "You need to have a pocket watcher badge to view this.", "badges": [], "created_at": "2025-07-22T04:31:12.785-04:00", "updated_at": "2025-07-22T09:35:22.122-04:00", "avatar": "https://secure.gravatar.com/avatar/4a30b297d3a1b504ab30ad809b1285f0.jpg?s=512&d=https%3A%2F%2Fa.slack-edge.com%2Fdf10d%2Fimg%2Favatars%2Fava_0007-512.png", "custom_css": null}, {"id": 17656, "slack_id": "U096FEPAC15", "display_name": "piyush", "bio": null, "projects_count": 0, "devlogs_count": 0, "votes_count": 0, "ships_count": 0, "projects": [], "coding_time_seconds": 0, "coding_time_seconds_today": 0, "balance": "You need to have a pocket watcher badge to view this.", "badges": [], "created_at": "2025-07-22T04:31:44.541-04:00", "updated_at": "2025-07-22T09:35:22.203-04:00", "avatar": "https://secure.gravatar.com/avatar/a42ac2997a37c17d13b97f86988aaaab.jpg?s=512&d=https%3A%2F%2Fa.slack-edge.com%2Fdf10d%2Fimg%2Favatars%2Fava_0013-512.png", "custom_css": null}, {"id": 17657, "slack_id": "U096U7AKT8D", "display_name": "Asmita Waghmare", "bio": null, "projects_count": 0, "devlogs_count": 0, "votes_count": 0, "ships_count": 0, "projects": [], "coding_time_seconds": 0, "coding_time_seconds_today": 0, "balance": "You need to have a pocket watcher badge to view this.", "badges": [], "created_at": "2025-07-22T04:31:50.207-04:00", "updated_at": "2025-07-22T09:35:22.305-04:00", "avatar": "https://secure.gravatar.com/avatar/12bafed8ed689a4e8a438226501fbaf2.jpg?s=512&d=https%3A%2F%2Fa.slack-edge.com%2Fdf10d%2Fimg%2Favatars%2Fava_0013-512.png", "custom_css": null}, {"id": 17658, "slack_id": "U096W85Q7PU", "display_name": "madeyemaddy", "bio": null, "projects_count": 0, "devlogs_count": 0, "votes_count": 0, "ships_count": 0, "projects": [], "coding_time_seconds": 0, "coding_time_seconds_today": 0, "balance": "You need to have a pocket watcher badge to view this.", "badges": [], "created_at": "2025-07-22T04:32:28.588-04:00", "updated_at": "2025-07-22T09:35:22.398-04:00", "avatar": "https://secure.gravatar.com/avatar/31db4e48137930986729016dac761c54.jpg?s=512&d=https%3A%2F%2Fa.slack-edge.com%2Fdf10d%2Fimg%2Favatars%2Fava_0013-512.png", "custom_css": null}, {"id": 17659, "slack_id": "U096T5NNNB0", "display_name": "shadow", "bio": null, "projects_count": 0, "devlogs_count": 0, "votes_count": 0, "ships_count": 0, "projects": [], "coding_time_seconds": 0, "coding_time_seconds_today": 0, "balance": "You need to have a pocket watcher badge to view this.", "badges": [], "created_at": "2025-07-22T04:34:15.066-04:00", "updated_at": "2025-07-22T09:35:22.477-04:00", "avatar": "https://secure.gravatar.com/avatar/80c9f3f80c91471e6cd33792fbdbb904.jpg?s=512&d=https%3A%2F%2Fa.slack-edge.com%2Fdf10d%2Fimg%2Favatars%2Fava_0010-512.png", "custom_css": null}, {"id": 17660, "slack_id": "U096FG3N84F", "display_name": "Diogo Paulos", "bio": null, "projects_count": 0, "devlogs_count": 0, "votes_count": 0, "ships_count": 0, "projects": [], "coding_time_seconds": 146411, "coding_time_seconds_today": 0, "balance": "You need to have a pocket watcher badge to view this.", "badges": [], "created_at": "2025-07-22T04:38:31.247-04:00", "updated_at": "2025-07-22T09:35:22.570-04:00", "avatar": "https://secure.gravatar.com/avatar/782cd2c272eba58434000bedc87d4da1.jpg?s=512&d=https%3A%2F%2Fa.slack-edge.com%2Fdf10d%2Fimg%2Favatars%2Fava_0016-512.png", "custom_css": null}, {"id": 17661, "slack_id": "U0979E784Q1", "display_name": "\u3042\u304d\u304b\u304d\uff08\u3042\u307b\uff09", "bio": null, "projects_count": 1, "devlogs_count": 0, "votes_count": 0, "ships_count": 0, "projects": [{"id": 7550, "title": "making homepage with next.js :)", "devlogs_count": 0, "created_at": "2025-07-22T04:50:05.453-04:00"}], "coding_time_seconds": 59213, "coding_time_seconds_today": 0, "balance": "You need to have a pocket watcher badge to view this.", "badges": [], "created_at": "2025-07-22T04:40:25.569-04:00", "updated_at": "2025-08-28T03:09:37.320-04:00", "avatar": "https://secure.gravatar.com/avatar/c31f18080ae9f15c78e2d52c7c3bc7f3.jpg?s=512&d=https%3A%2F%2Fa.slack-edge.com%2Fdf10d%2Fimg%2Favatars%2Fava_0013-512.png", "custom_css": null}, {"id": 17662, "slack_id": "U0979DXBYAV", "display_name": "Asada Shino", "bio": null, "projects_count": 0, "devlogs_count": 0, "votes_count": 0, "ships_count": 0, "projects": [], "coding_time_seconds": 10993, "coding_time_seconds_today": 0, "balance": "You need to have a pocket watcher badge to view this.", "badges": [], "created_at": "2025-07-22T04:40:32.756-04:00", "updated_at": "2025-08-01T11:45:03.146-04:00", "avatar": "https://secure.gravatar.com/avatar/f3636e1fddf648b2c8feb1a497e49a88.jpg?s=512&d=https%3A%2F%2Fa.slack-edge.com%2Fdf10d%2Fimg%2Favatars%2Fava_0019-512.png", "custom_css": null}, {"id": 17663, "slack_id": "U096W9KDAN6", "display_name": "Mani Chandra", "bio": null, "projects_count": 0, "devlogs_count": 0, "votes_count": 0, "ships_count": 0, "projects": [], "coding_time_seconds": 77869, "coding_time_seconds_today": 0, "balance": "You need to have a pocket watcher badge to view this.", "badges": [], "created_at": "2025-07-22T04:41:20.885-04:00", "updated_at": "2025-07-24T03:57:54.352-04:00", "avatar": "https://secure.gravatar.com/avatar/7936b84da063cd7f49f201ddf418b2e7.jpg?s=512&d=https%3A%2F%2Fa.slack-edge.com%2Fdf10d%2Fimg%2Favatars%2Fava_0018-512.png", "custom_css": null}, {"id": 17664, "slack_id": "U0979EEM6GH", "display_name": "codekira", "bio": null, "projects_count": 0, "devlogs_count": 0, "votes_count": 0, "ships_count": 0, "projects": [], "coding_time_seconds": 0, "coding_time_seconds_today": 0, "balance": "You need to have a pocket watcher badge to view this.", "badges": [], "created_at": "2025-07-22T04:43:24.486-04:00", "updated_at": "2025-07-22T09:35:22.928-04:00", "avatar": "https://avatars.slack-edge.com/2025-07-22/9235583613300_bf8cc4285466a693552e_original.jpg", "custom_css": null}, {"id": 17665, "slack_id": "U0979EKDVJ5", "display_name": "Arnav Barhate", "bio": null, "projects_count": 0, "devlogs_count": 0, "votes_count": 0, "ships_count": 0, "projects": [], "coding_time_seconds": 0, "coding_time_seconds_today": 0, "balance": "You need to have a pocket watcher badge to view this.", "badges": [], "created_at": "2025-07-22T04:43:45.862-04:00", "updated_at": "2025-07-22T09:35:23.022-04:00", "avatar": "https://secure.gravatar.com/avatar/7375cb90c42312b6e1bc4e0eaf6e3304.jpg?s=512&d=https%3A%2F%2Fa.slack-edge.com%2Fdf10d%2Fimg%2Favatars%2Fava_0008-512.png", "custom_css": null}], "pagination": {"page": 879, "pages": 1192, "count": 23828, "items": 20}}