{"users": [{"id": 1741, "slack_id": "U091PP6EP8A", "display_name": "Aditya Bikram Jena", "bio": null, "projects_count": 0, "devlogs_count": 0, "votes_count": 0, "ships_count": 0, "projects": [], "coding_time_seconds": 0, "coding_time_seconds_today": 0, "balance": "You need to have a pocket watcher badge to view this.", "badges": [], "created_at": "2025-06-16T13:52:38.325-04:00", "updated_at": "2025-07-03T19:19:01.057-04:00", "avatar": "https://secure.gravatar.com/avatar/1311109e2960cb6c57e686829951f88a.jpg?s=512&d=https%3A%2F%2Fa.slack-edge.com%2Fdf10d%2Fimg%2Favatars%2Fava_0025-512.png", "custom_css": null}, {"id": 1742, "slack_id": "U092C7GG64Q", "display_name": "xvcf", "bio": null, "projects_count": 6, "devlogs_count": 24, "votes_count": 65, "ships_count": 3, "projects": [{"id": 12397, "title": "Summer Of Making - What Can I Buy?", "devlogs_count": 1, "created_at": "2025-08-26T19:58:10.132-04:00"}, {"id": 13161, "title": "Pixel-AI", "devlogs_count": 1, "created_at": "2025-09-10T07:04:41.768-04:00"}, {"id": 13253, "title": "dcOS Panel", "devlogs_count": 2, "created_at": "2025-09-12T14:11:33.961-04:00"}, {"id": 13163, "title": "A Hole in the Ground Where Elvis Presley is Definitely Not Hiding", "devlogs_count": 2, "created_at": "2025-09-10T08:37:18.990-04:00"}, {"id": 13187, "title": "dcOS", "devlogs_count": 6, "created_at": "2025-09-11T09:28:02.825-04:00"}, {"id": 148, "title": "SongGuessr", "devlogs_count": 12, "created_at": "2025-06-16T14:28:57.429-04:00"}], "coding_time_seconds": 420379, "coding_time_seconds_today": 0, "balance": "You need to have a pocket watcher badge to view this.", "badges": [{"name": "Maiden Voyage", "text": "you shipped your first project! the journey begins...", "icon": "\ud83d\udea2"}], "created_at": "2025-06-16T13:52:44.354-04:00", "updated_at": "2025-09-10T22:52:01.722-04:00", "avatar": "https://avatars.slack-edge.com/2025-06-16/9051318951843_2c9787c82d524d853e89_original.png", "custom_css": null}, {"id": 1743, "slack_id": "U091N0BD71T", "display_name": "Javier", "bio": null, "projects_count": 0, "devlogs_count": 0, "votes_count": 0, "ships_count": 0, "projects": [], "coding_time_seconds": 0, "coding_time_seconds_today": 0, "balance": "You need to have a pocket watcher badge to view this.", "badges": [], "created_at": "2025-06-16T13:52:51.324-04:00", "updated_at": "2025-07-03T19:19:01.624-04:00", "avatar": "https://secure.gravatar.com/avatar/f60ea63a6f8c4672a6fd4e418b511e98.jpg?s=512&d=https%3A%2F%2Fa.slack-edge.com%2Fdf10d%2Fimg%2Favatars%2Fava_0024-512.png", "custom_css": null}, {"id": 1744, "slack_id": "U07RXT17E2D", "display_name": "MD8", "bio": null, "projects_count": 0, "devlogs_count": 0, "votes_count": 2, "ships_count": 0, "projects": [], "coding_time_seconds": 89748, "coding_time_seconds_today": 0, "balance": "You need to have a pocket watcher badge to view this.", "badges": [], "created_at": "2025-06-16T13:52:55.375-04:00", "updated_at": "2025-08-23T11:31:32.394-04:00", "avatar": "https://avatars.slack-edge.com/2024-10-11/7866381068901_97396d17158b859b84cd_original.gif", "custom_css": null}, {"id": 1745, "slack_id": "U091Q5HTV6Y", "display_name": "Leoozzz", "bio": null, "projects_count": 0, "devlogs_count": 0, "votes_count": 0, "ships_count": 0, "projects": [], "coding_time_seconds": 0, "coding_time_seconds_today": 0, "balance": "You need to have a pocket watcher badge to view this.", "badges": [], "created_at": "2025-06-16T13:52:57.655-04:00", "updated_at": "2025-07-03T19:19:02.154-04:00", "avatar": "https://secure.gravatar.com/avatar/55123f8ebcd0f5dbd6c2ba8f271512c2.jpg?s=512&d=https%3A%2F%2Fa.slack-edge.com%2Fdf10d%2Fimg%2Favatars%2Fava_0022-512.png", "custom_css": null}, {"id": 1746, "slack_id": "U07DG1B3VHP", "display_name": "Arya", "bio": null, "projects_count": 1, "devlogs_count": 12, "votes_count": 17, "ships_count": 1, "projects": [{"id": 10608, "title": "Personal Website", "devlogs_count": 12, "created_at": "2025-08-08T20:30:18.881-04:00"}], "coding_time_seconds": 19441, "coding_time_seconds_today": 0, "balance": "You need to have a pocket watcher badge to view this.", "badges": [{"name": "Maiden Voyage", "text": "you shipped your first project! the journey begins...", "icon": "\ud83d\udea2"}], "created_at": "2025-06-16T13:53:07.625-04:00", "updated_at": "2025-09-10T22:52:01.908-04:00", "avatar": "https://avatars.slack-edge.com/2025-08-13/9363482775713_804c985d5dc525f7cbcb_original.png", "custom_css": null}, {"id": 1747, "slack_id": "U091PP29H0A", "display_name": "mistertfy64", "bio": null, "projects_count": 2, "devlogs_count": 8, "votes_count": 26, "ships_count": 1, "projects": [{"id": 187, "title": "UntitledPasswordFindingGame", "devlogs_count": 0, "created_at": "2025-06-16T15:09:24.946-04:00"}, {"id": 196, "title": "Mathematical Base Defenders", "devlogs_count": 8, "created_at": "2025-06-16T15:15:03.467-04:00"}], "coding_time_seconds": 561348, "coding_time_seconds_today": 11099, "balance": "You need to have a pocket watcher badge to view this.", "badges": [{"name": "Maiden Voyage", "text": "you shipped your first project! the journey begins...", "icon": "\ud83d\udea2"}], "created_at": "2025-06-16T13:53:30.191-04:00", "updated_at": "2025-09-11T12:45:42.459-04:00", "avatar": "https://secure.gravatar.com/avatar/b36a6893f281c0b66d150451dc5cefc2.jpg?s=512&d=https%3A%2F%2Fa.slack-edge.com%2Fdf10d%2Fimg%2Favatars%2Fava_0009-512.png", "custom_css": null}, {"id": 1748, "slack_id": "U091GQG35DZ", "display_name": "Maka", "bio": null, "projects_count": 0, "devlogs_count": 0, "votes_count": 0, "ships_count": 0, "projects": [], "coding_time_seconds": 0, "coding_time_seconds_today": 0, "balance": "You need to have a pocket watcher badge to view this.", "badges": [], "created_at": "2025-06-16T13:53:32.431-04:00", "updated_at": "2025-07-03T19:19:02.975-04:00", "avatar": "https://secure.gravatar.com/avatar/2eda50e1dcfe23d4b5267becfe156efc.jpg?s=512&d=https%3A%2F%2Fa.slack-edge.com%2Fdf10d%2Fimg%2Favatars%2Fava_0015-512.png", "custom_css": null}, {"id": 1749, "slack_id": "U091PP9SN02", "display_name": "Eric", "bio": "HIII!!!!", "projects_count": 5, "devlogs_count": 28, "votes_count": 95, "ships_count": 4, "projects": [{"id": 653, "title": "DataShadow", "devlogs_count": 8, "created_at": "2025-06-17T04:17:57.331-04:00"}, {"id": 6974, "title": "DevTLD", "devlogs_count": 1, "created_at": "2025-07-17T20:20:15.513-04:00"}, {"id": 3698, "title": "GhostCDN", "devlogs_count": 12, "created_at": "2025-06-25T09:25:10.909-04:00"}, {"id": 4692, "title": "DevLogr", "devlogs_count": 6, "created_at": "2025-07-01T05:48:36.600-04:00"}, {"id": 8110, "title": "SoM FAQ", "devlogs_count": 1, "created_at": "2025-07-24T16:59:25.973-04:00"}], "coding_time_seconds": 419351, "coding_time_seconds_today": 0, "balance": "You need to have a pocket watcher badge to view this.", "badges": [{"name": "Maiden Voyage", "text": "you shipped your first project! the journey begins...", "icon": "\ud83d\udea2"}, {"name": "Ballot Stuffer", "text": "vote 100 times.", "icon": "https://summer.hackclub.com/assets/i_voted-bf851b48.png"}], "created_at": "2025-06-16T13:53:34.131-04:00", "updated_at": "2025-09-23T09:41:12.252-04:00", "avatar": "https://avatars.slack-edge.com/2025-09-06/9474494392900_3585cc15afcb5998bddb_original.png", "custom_css": null}, {"id": 1750, "slack_id": "U09229ZL8N5", "display_name": "Akshita Pathak", "bio": null, "projects_count": 0, "devlogs_count": 0, "votes_count": 0, "ships_count": 0, "projects": [], "coding_time_seconds": 0, "coding_time_seconds_today": 0, "balance": "You need to have a pocket watcher badge to view this.", "badges": [], "created_at": "2025-06-16T13:53:34.327-04:00", "updated_at": "2025-07-03T19:19:03.390-04:00", "avatar": "https://secure.gravatar.com/avatar/d30750fb46341f4ba481c6641c9d9b9c.jpg?s=512&d=https%3A%2F%2Fa.slack-edge.com%2Fdf10d%2Fimg%2Favatars%2Fava_0010-512.png", "custom_css": null}, {"id": 1751, "slack_id": "U0918E1QMGX", "display_name": "Akash Maity", "bio": null, "projects_count": 0, "devlogs_count": 0, "votes_count": 0, "ships_count": 0, "projects": [], "coding_time_seconds": 125, "coding_time_seconds_today": 0, "balance": "You need to have a pocket watcher badge to view this.", "badges": [], "created_at": "2025-06-16T13:53:34.763-04:00", "updated_at": "2025-07-03T19:19:03.675-04:00", "avatar": "https://secure.gravatar.com/avatar/fd20259b5a6b4c958039b06dd5e32f7d.jpg?s=512&d=https%3A%2F%2Fa.slack-edge.com%2Fdf10d%2Fimg%2Favatars%2Fava_0008-512.png", "custom_css": null}, {"id": 1752, "slack_id": "U091N0A6LJH", "display_name": "Andrew", "bio": null, "projects_count": 3, "devlogs_count": 5, "votes_count": 11, "ships_count": 3, "projects": [{"id": 2024, "title": "FuturePath", "devlogs_count": 2, "created_at": "2025-06-19T23:13:32.566-04:00"}, {"id": 7486, "title": "Clearmind", "devlogs_count": 2, "created_at": "2025-07-21T23:58:12.846-04:00"}, {"id": 11530, "title": "My Website", "devlogs_count": 1, "created_at": "2025-08-16T17:46:34.418-04:00"}], "coding_time_seconds": 180338, "coding_time_seconds_today": 0, "balance": "You need to have a pocket watcher badge to view this.", "badges": [{"name": "Maiden Voyage", "text": "you shipped your first project! the journey begins...", "icon": "\ud83d\udea2"}], "created_at": "2025-06-16T13:53:36.715-04:00", "updated_at": "2025-09-10T22:52:02.147-04:00", "avatar": "https://avatars.slack-edge.com/2025-06-17/9058403626803_52e0caab6e533e5a2cd1_original.png", "custom_css": null}, {"id": 1753, "slack_id": "U091PPCDNBC", "display_name": "Matthew Fenech", "bio": null, "projects_count": 0, "devlogs_count": 0, "votes_count": 0, "ships_count": 0, "projects": [], "coding_time_seconds": 1379, "coding_time_seconds_today": 0, "balance": "You need to have a pocket watcher badge to view this.", "badges": [], "created_at": "2025-06-16T13:53:47.150-04:00", "updated_at": "2025-07-03T19:19:04.250-04:00", "avatar": "https://secure.gravatar.com/avatar/f591f93190edd3f52a79997d397e76ad.jpg?s=512&d=https%3A%2F%2Fa.slack-edge.com%2Fdf10d%2Fimg%2Favatars%2Fava_0013-512.png", "custom_css": null}, {"id": 1754, "slack_id": "U091Q5A8FL4", "display_name": "Bethwel Kiplagat", "bio": null, "projects_count": 0, "devlogs_count": 0, "votes_count": 0, "ships_count": 0, "projects": [], "coding_time_seconds": 0, "coding_time_seconds_today": 0, "balance": "You need to have a pocket watcher badge to view this.", "badges": [], "created_at": "2025-06-16T13:53:51.827-04:00", "updated_at": "2025-07-03T19:19:04.516-04:00", "avatar": "https://avatars.slack-edge.com/2025-06-16/9050981073526_7bfbd5733e9a15df835d_original.jpg", "custom_css": null}, {"id": 1755, "slack_id": "U0922A41TMF", "display_name": "Tristan", "bio": null, "projects_count": 0, "devlogs_count": 0, "votes_count": 2, "ships_count": 0, "projects": [], "coding_time_seconds": 29674, "coding_time_seconds_today": 0, "balance": "You need to have a pocket watcher badge to view this.", "badges": [], "created_at": "2025-06-16T13:53:53.594-04:00", "updated_at": "2025-07-03T19:19:04.778-04:00", "avatar": "https://secure.gravatar.com/avatar/26685247ff78f3a2cd082897c14b69da.jpg?s=512&d=https%3A%2F%2Fa.slack-edge.com%2Fdf10d%2Fimg%2Favatars%2Fava_0007-512.png", "custom_css": null}, {"id": 1756, "slack_id": "U0918DGCVM5", "display_name": "huli", "bio": null, "projects_count": 0, "devlogs_count": 0, "votes_count": 0, "ships_count": 0, "projects": [], "coding_time_seconds": 0, "coding_time_seconds_today": 0, "balance": "You need to have a pocket watcher badge to view this.", "badges": [], "created_at": "2025-06-16T13:54:02.751-04:00", "updated_at": "2025-07-03T19:19:05.052-04:00", "avatar": "https://secure.gravatar.com/avatar/f0a5c419d4c76dc1eaed708bc207bfc0.jpg?s=512&d=https%3A%2F%2Fa.slack-edge.com%2Fdf10d%2Fimg%2Favatars%2Fava_0022-512.png", "custom_css": null}, {"id": 1757, "slack_id": "U091Q5MCHM2", "display_name": "Priyanshi", "bio": null, "projects_count": 0, "devlogs_count": 0, "votes_count": 0, "ships_count": 0, "projects": [], "coding_time_seconds": 0, "coding_time_seconds_today": 0, "balance": "You need to have a pocket watcher badge to view this.", "badges": [], "created_at": "2025-06-16T13:54:10.314-04:00", "updated_at": "2025-07-03T19:19:05.315-04:00", "avatar": "https://secure.gravatar.com/avatar/e374253fe72354c87d0db100e77c2871.jpg?s=512&d=https%3A%2F%2Fa.slack-edge.com%2Fdf10d%2Fimg%2Favatars%2Fava_0007-512.png", "custom_css": null}, {"id": 1758, "slack_id": "U07991562L9", "display_name": "Sreekar Ramisetty", "bio": "daydream minneapolis organizer", "projects_count": 2, "devlogs_count": 1, "votes_count": 69, "ships_count": 1, "projects": [{"id": 8939, "title": "Kaishi", "devlogs_count": 1, "created_at": "2025-07-29T19:34:24.030-04:00"}, {"id": 8940, "title": "Kaishi", "devlogs_count": 0, "created_at": "2025-07-29T19:34:24.046-04:00"}], "coding_time_seconds": 73250, "coding_time_seconds_today": 0, "balance": "You need to have a pocket watcher badge to view this.", "badges": [{"name": "Maiden Voyage", "text": "you shipped your first project! the journey begins...", "icon": "\ud83d\udea2"}], "created_at": "2025-06-16T13:54:26.313-04:00", "updated_at": "2025-09-10T22:52:02.323-04:00", "avatar": "https://avatars.slack-edge.com/2025-02-08/8422489283363_1dc937d99b36cd7b0fef_original.jpg", "custom_css": null}, {"id": 1759, "slack_id": "U091Q5S0B0U", "display_name": "Yuvraj Sau", "bio": null, "projects_count": 1, "devlogs_count": 0, "votes_count": 0, "ships_count": 0, "projects": [{"id": 5791, "title": "chat_app", "devlogs_count": 0, "created_at": "2025-07-08T02:13:53.265-04:00"}], "coding_time_seconds": 157017, "coding_time_seconds_today": 0, "balance": "You need to have a pocket watcher badge to view this.", "badges": [], "created_at": "2025-06-16T13:54:28.572-04:00", "updated_at": "2025-07-08T02:11:09.580-04:00", "avatar": "https://avatars.slack-edge.com/2025-06-16/9058212856276_ab974a9c73b6057c753b_original.jpg", "custom_css": null}, {"id": 1760, "slack_id": "U092C1W1SL8", "display_name": "Kidus Yohannes", "bio": null, "projects_count": 0, "devlogs_count": 0, "votes_count": 0, "ships_count": 0, "projects": [], "coding_time_seconds": 0, "coding_time_seconds_today": 0, "balance": "You need to have a pocket watcher badge to view this.", "badges": [], "created_at": "2025-06-16T13:54:38.896-04:00", "updated_at": "2025-07-03T19:19:06.128-04:00", "avatar": "https://secure.gravatar.com/avatar/e2a21fc1a58c91aa11dd2906f833c91f.jpg?s=512&d=https%3A%2F%2Fa.slack-edge.com%2Fdf10d%2Fimg%2Favatars%2Fava_0019-512.png", "custom_css": null}], "pagination": {"page": 88, "pages": 1192, "count": 23828, "items": 20}}