{"users": [{"id": 17666, "slack_id": "U096R07RU5R", "display_name": "Saurabh Biswal", "bio": null, "projects_count": 0, "devlogs_count": 0, "votes_count": 0, "ships_count": 0, "projects": [], "coding_time_seconds": 0, "coding_time_seconds_today": 0, "balance": "You need to have a pocket watcher badge to view this.", "badges": [], "created_at": "2025-07-22T04:43:52.295-04:00", "updated_at": "2025-07-22T09:35:23.120-04:00", "avatar": "https://secure.gravatar.com/avatar/28dd349a6e4f77f7c8656e317734a345.jpg?s=512&d=https%3A%2F%2Fa.slack-edge.com%2Fdf10d%2Fimg%2Favatars%2Fava_0020-512.png", "custom_css": null}, {"id": 17667, "slack_id": "U096UA33T3P", "display_name": "Akaash Tripathi", "bio": null, "projects_count": 0, "devlogs_count": 0, "votes_count": 0, "ships_count": 0, "projects": [], "coding_time_seconds": 0, "coding_time_seconds_today": 0, "balance": "You need to have a pocket watcher badge to view this.", "badges": [], "created_at": "2025-07-22T04:44:12.946-04:00", "updated_at": "2025-07-22T09:35:23.195-04:00", "avatar": "https://secure.gravatar.com/avatar/78565b5407da27895fc19ca6fff9b860.jpg?s=512&d=https%3A%2F%2Fa.slack-edge.com%2Fdf10d%2Fimg%2Favatars%2Fava_0011-512.png", "custom_css": null}, {"id": 17668, "slack_id": "U097JL3CKNC", "display_name": "Jonas", "bio": null, "projects_count": 0, "devlogs_count": 0, "votes_count": 0, "ships_count": 0, "projects": [], "coding_time_seconds": 517, "coding_time_seconds_today": 0, "balance": "You need to have a pocket watcher badge to view this.", "badges": [], "created_at": "2025-07-22T04:46:43.383-04:00", "updated_at": "2025-07-22T09:35:23.283-04:00", "avatar": "https://secure.gravatar.com/avatar/e6142682b562b6696dfc6c7c3ffe3874.jpg?s=512&d=https%3A%2F%2Fa.slack-edge.com%2Fdf10d%2Fimg%2Favatars%2Fava_0026-512.png", "custom_css": null}, {"id": 17669, "slack_id": "U096UAVQZDK", "display_name": "Terapter", "bio": null, "projects_count": 0, "devlogs_count": 0, "votes_count": 0, "ships_count": 0, "projects": [], "coding_time_seconds": 1021, "coding_time_seconds_today": 0, "balance": "You need to have a pocket watcher badge to view this.", "badges": [], "created_at": "2025-07-22T04:48:03.021-04:00", "updated_at": "2025-07-22T09:35:23.384-04:00", "avatar": "https://secure.gravatar.com/avatar/bec8fe9ebe6a9d580c68d009578899ee.jpg?s=512&d=https%3A%2F%2Fa.slack-edge.com%2Fdf10d%2Fimg%2Favatars%2Fava_0014-512.png", "custom_css": null}, {"id": 17670, "slack_id": "U096XGVM1GC", "display_name": "Aleeza", "bio": null, "projects_count": 0, "devlogs_count": 0, "votes_count": 0, "ships_count": 0, "projects": [], "coding_time_seconds": 0, "coding_time_seconds_today": 0, "balance": "You need to have a pocket watcher badge to view this.", "badges": [], "created_at": "2025-07-22T04:48:43.773-04:00", "updated_at": "2025-07-22T09:35:23.470-04:00", "avatar": "https://secure.gravatar.com/avatar/0ebb3706f306f93b1e9ea918ea7992b8.jpg?s=512&d=https%3A%2F%2Fa.slack-edge.com%2Fdf10d%2Fimg%2Favatars%2Fava_0002-512.png", "custom_css": null}, {"id": 17671, "slack_id": "U096QKAL7J7", "display_name": "Ignacio", "bio": null, "projects_count": 0, "devlogs_count": 0, "votes_count": 0, "ships_count": 0, "projects": [], "coding_time_seconds": 0, "coding_time_seconds_today": 0, "balance": "You need to have a pocket watcher badge to view this.", "badges": [], "created_at": "2025-07-22T04:49:12.128-04:00", "updated_at": "2025-07-22T09:35:23.623-04:00", "avatar": "https://secure.gravatar.com/avatar/9975e8705215a522ece2458532f8d566.jpg?s=512&d=https%3A%2F%2Fa.slack-edge.com%2Fdf10d%2Fimg%2Favatars%2Fava_0010-512.png", "custom_css": null}, {"id": 17672, "slack_id": "U096XHBB2BE", "display_name": "Alex", "bio": null, "projects_count": 0, "devlogs_count": 0, "votes_count": 0, "ships_count": 0, "projects": [], "coding_time_seconds": 1126, "coding_time_seconds_today": 0, "balance": "You need to have a pocket watcher badge to view this.", "badges": [], "created_at": "2025-07-22T04:50:06.301-04:00", "updated_at": "2025-07-22T09:35:23.745-04:00", "avatar": "https://secure.gravatar.com/avatar/635b537446f048ff7fe80e715a8eca5f.jpg?s=512&d=https%3A%2F%2Fa.slack-edge.com%2Fdf10d%2Fimg%2Favatars%2Fava_0008-512.png", "custom_css": null}, {"id": 17673, "slack_id": "U096FHRBHP1", "display_name": "vinamra", "bio": null, "projects_count": 0, "devlogs_count": 0, "votes_count": 0, "ships_count": 0, "projects": [], "coding_time_seconds": 0, "coding_time_seconds_today": 0, "balance": "You need to have a pocket watcher badge to view this.", "badges": [], "created_at": "2025-07-22T04:50:56.579-04:00", "updated_at": "2025-07-22T09:35:23.878-04:00", "avatar": "https://secure.gravatar.com/avatar/c2402c151049b0b686e45bedaf326952.jpg?s=512&d=https%3A%2F%2Fa.slack-edge.com%2Fdf10d%2Fimg%2Favatars%2Fava_0013-512.png", "custom_css": null}, {"id": 17674, "slack_id": "U096XGX3HD2", "display_name": "Sam", "bio": null, "projects_count": 0, "devlogs_count": 0, "votes_count": 1, "ships_count": 0, "projects": [], "coding_time_seconds": 17654, "coding_time_seconds_today": 0, "balance": "You need to have a pocket watcher badge to view this.", "badges": [], "created_at": "2025-07-22T04:51:26.196-04:00", "updated_at": "2025-07-23T08:56:23.820-04:00", "avatar": "https://avatars.slack-edge.com/2025-07-22/9232397667093_27d89f55dc3ce16344f7_original.jpg", "custom_css": null}, {"id": 17675, "slack_id": "U096XHPL8R2", "display_name": "Atlas S", "bio": null, "projects_count": 0, "devlogs_count": 0, "votes_count": 0, "ships_count": 0, "projects": [], "coding_time_seconds": 0, "coding_time_seconds_today": 0, "balance": "You need to have a pocket watcher badge to view this.", "badges": [], "created_at": "2025-07-22T04:53:11.798-04:00", "updated_at": "2025-07-22T09:35:24.073-04:00", "avatar": "https://avatars.slack-edge.com/2025-07-22/9232406292085_aa79958cc506b27e43d3_original.jpg", "custom_css": null}, {"id": 17676, "slack_id": "U091H27Q0N8", "display_name": "extremecoder", "bio": null, "projects_count": 0, "devlogs_count": 0, "votes_count": 0, "ships_count": 0, "projects": [], "coding_time_seconds": 0, "coding_time_seconds_today": 0, "balance": "You need to have a pocket watcher badge to view this.", "badges": [], "created_at": "2025-07-22T04:53:47.933-04:00", "updated_at": "2025-07-22T04:59:05.606-04:00", "avatar": "https://secure.gravatar.com/avatar/b2bc9bb67b757dd92e93cfa68cdbd30c.jpg?s=512&d=https%3A%2F%2Fa.slack-edge.com%2Fdf10d%2Fimg%2Favatars%2Fava_0006-512.png", "custom_css": null}, {"id": 17677, "slack_id": "U096FJ9ELKZ", "display_name": "Mitesh", "bio": null, "projects_count": 0, "devlogs_count": 0, "votes_count": 1, "ships_count": 0, "projects": [], "coding_time_seconds": 0, "coding_time_seconds_today": 0, "balance": "You need to have a pocket watcher badge to view this.", "badges": [], "created_at": "2025-07-22T04:54:03.747-04:00", "updated_at": "2025-07-22T09:35:24.220-04:00", "avatar": "https://secure.gravatar.com/avatar/beb98ae9cd8e905ddb169d6f5871f875.jpg?s=512&d=https%3A%2F%2Fa.slack-edge.com%2Fdf10d%2Fimg%2Favatars%2Fava_0014-512.png", "custom_css": null}, {"id": 17678, "slack_id": "U096UBL0X45", "display_name": "ethan", "bio": null, "projects_count": 0, "devlogs_count": 0, "votes_count": 0, "ships_count": 0, "projects": [], "coding_time_seconds": 0, "coding_time_seconds_today": 0, "balance": "You need to have a pocket watcher badge to view this.", "badges": [], "created_at": "2025-07-22T04:54:18.174-04:00", "updated_at": "2025-07-22T09:35:24.307-04:00", "avatar": "https://secure.gravatar.com/avatar/11222e70fe0033015c3c012987a5100b.jpg?s=512&d=https%3A%2F%2Fa.slack-edge.com%2Fdf10d%2Fimg%2Favatars%2Fava_0010-512.png", "custom_css": null}, {"id": 17679, "slack_id": "U097JM44P88", "display_name": "Lumine Snow", "bio": null, "projects_count": 0, "devlogs_count": 0, "votes_count": 0, "ships_count": 0, "projects": [], "coding_time_seconds": 0, "coding_time_seconds_today": 0, "balance": "You need to have a pocket watcher badge to view this.", "badges": [], "created_at": "2025-07-22T04:54:32.112-04:00", "updated_at": "2025-07-22T09:35:24.388-04:00", "avatar": "https://avatars.slack-edge.com/2025-07-22/9234409353842_0ef7b74fbe88746ad318_original.jpg", "custom_css": null}, {"id": 17680, "slack_id": "U096FJ25W79", "display_name": "Wali Ahmad", "bio": null, "projects_count": 0, "devlogs_count": 0, "votes_count": 0, "ships_count": 0, "projects": [], "coding_time_seconds": 23896, "coding_time_seconds_today": 0, "balance": "You need to have a pocket watcher badge to view this.", "badges": [], "created_at": "2025-07-22T04:55:07.697-04:00", "updated_at": "2025-07-22T09:35:24.480-04:00", "avatar": "https://avatars.slack-edge.com/2025-07-22/9229078627987_206ee750b56578c8d7ea_original.jpg", "custom_css": null}, {"id": 17681, "slack_id": "U096FJ70FP1", "display_name": "Ruhab Fatima", "bio": null, "projects_count": 0, "devlogs_count": 0, "votes_count": 0, "ships_count": 0, "projects": [], "coding_time_seconds": 0, "coding_time_seconds_today": 0, "balance": "You need to have a pocket watcher badge to view this.", "badges": [], "created_at": "2025-07-22T04:55:10.339-04:00", "updated_at": "2025-07-22T09:35:24.584-04:00", "avatar": "https://secure.gravatar.com/avatar/4371d38731558f5ad1a64cda03071f9b.jpg?s=512&d=https%3A%2F%2Fa.slack-edge.com%2Fdf10d%2Fimg%2Favatars%2Fava_0015-512.png", "custom_css": null}, {"id": 17682, "slack_id": "U0979GE7TNV", "display_name": "Leena Zaheer", "bio": null, "projects_count": 0, "devlogs_count": 0, "votes_count": 0, "ships_count": 0, "projects": [], "coding_time_seconds": 0, "coding_time_seconds_today": 0, "balance": "You need to have a pocket watcher badge to view this.", "badges": [], "created_at": "2025-07-22T04:55:14.416-04:00", "updated_at": "2025-07-22T09:35:28.721-04:00", "avatar": "https://secure.gravatar.com/avatar/a9bfeebd505feb8ae58c185662db02dc.jpg?s=512&d=https%3A%2F%2Fa.slack-edge.com%2Fdf10d%2Fimg%2Favatars%2Fava_0016-512.png", "custom_css": null}, {"id": 17683, "slack_id": "U096WBLSTPC", "display_name": "Matt", "bio": null, "projects_count": 0, "devlogs_count": 0, "votes_count": 0, "ships_count": 0, "projects": [], "coding_time_seconds": 0, "coding_time_seconds_today": 0, "balance": "You need to have a pocket watcher badge to view this.", "badges": [], "created_at": "2025-07-22T04:55:51.088-04:00", "updated_at": "2025-07-22T09:35:28.830-04:00", "avatar": "https://secure.gravatar.com/avatar/dc699475bef0fb4022df44c1c6916221.jpg?s=512&d=https%3A%2F%2Fa.slack-edge.com%2Fdf10d%2Fimg%2Favatars%2Fava_0004-512.png", "custom_css": null}, {"id": 17684, "slack_id": "U0979GN2VCH", "display_name": "Bhuvanesh M", "bio": null, "projects_count": 0, "devlogs_count": 0, "votes_count": 0, "ships_count": 0, "projects": [], "coding_time_seconds": 0, "coding_time_seconds_today": 0, "balance": "You need to have a pocket watcher badge to view this.", "badges": [], "created_at": "2025-07-22T04:58:06.416-04:00", "updated_at": "2025-07-22T09:35:28.914-04:00", "avatar": "https://secure.gravatar.com/avatar/9b9fce248ca2179aae73d3b1de5c468f.jpg?s=512&d=https%3A%2F%2Fa.slack-edge.com%2Fdf10d%2Fimg%2Favatars%2Fava_0009-512.png", "custom_css": null}, {"id": 17685, "slack_id": "U096XHZNN9J", "display_name": "Muhammad Sheraz", "bio": null, "projects_count": 1, "devlogs_count": 0, "votes_count": 0, "ships_count": 0, "projects": [{"id": 7556, "title": "Easy Stock", "devlogs_count": 0, "created_at": "2025-07-22T05:26:10.552-04:00"}], "coding_time_seconds": 597838, "coding_time_seconds_today": 8065, "balance": "You need to have a pocket watcher badge to view this.", "badges": [], "created_at": "2025-07-22T04:58:14.247-04:00", "updated_at": "2025-07-22T09:35:28.993-04:00", "avatar": "https://secure.gravatar.com/avatar/b9f8f52de41490507af2fdba8d3ef7c4.jpg?s=512&d=https%3A%2F%2Fa.slack-edge.com%2Fdf10d%2Fimg%2Favatars%2Fava_0014-512.png", "custom_css": null}], "pagination": {"page": 880, "pages": 1192, "count": 23828, "items": 20}}