{"users": [{"id": 17706, "slack_id": "U097JR45YL8", "display_name": "prisca", "bio": null, "projects_count": 0, "devlogs_count": 0, "votes_count": 0, "ships_count": 0, "projects": [], "coding_time_seconds": 0, "coding_time_seconds_today": 0, "balance": "You need to have a pocket watcher badge to view this.", "badges": [], "created_at": "2025-07-22T05:22:07.317-04:00", "updated_at": "2025-07-22T09:35:35.129-04:00", "avatar": "https://secure.gravatar.com/avatar/425112b7ef684cb19f23e891bbb2a3a1.jpg?s=512&d=https%3A%2F%2Fa.slack-edge.com%2Fdf10d%2Fimg%2Favatars%2Fava_0026-512.png", "custom_css": null}, {"id": 17707, "slack_id": "U096R6A4G59", "display_name": "Mohammed Moghnishah", "bio": null, "projects_count": 0, "devlogs_count": 0, "votes_count": 0, "ships_count": 0, "projects": [], "coding_time_seconds": 0, "coding_time_seconds_today": 0, "balance": "You need to have a pocket watcher badge to view this.", "badges": [], "created_at": "2025-07-22T05:25:12.038-04:00", "updated_at": "2025-07-22T09:35:35.213-04:00", "avatar": "https://secure.gravatar.com/avatar/4826bd88749a263a52dcdc19119820ab.jpg?s=512&d=https%3A%2F%2Fa.slack-edge.com%2Fdf10d%2Fimg%2Favatars%2Fava_0007-512.png", "custom_css": null}, {"id": 17708, "slack_id": "U096UGAEZNZ", "display_name": "Faizan Ahmad", "bio": null, "projects_count": 0, "devlogs_count": 0, "votes_count": 0, "ships_count": 0, "projects": [], "coding_time_seconds": 0, "coding_time_seconds_today": 0, "balance": "You need to have a pocket watcher badge to view this.", "badges": [], "created_at": "2025-07-22T05:26:05.131-04:00", "updated_at": "2025-07-22T09:35:35.293-04:00", "avatar": "https://avatars.slack-edge.com/2025-07-22/9234573536690_2d1d7469e1f35a121b9b_original.jpg", "custom_css": null}, {"id": 17709, "slack_id": "U096R4YHN3V", "display_name": "SAPTARSHI SEN", "bio": null, "projects_count": 0, "devlogs_count": 0, "votes_count": 0, "ships_count": 0, "projects": [], "coding_time_seconds": 3963, "coding_time_seconds_today": 0, "balance": "You need to have a pocket watcher badge to view this.", "badges": [], "created_at": "2025-07-22T05:26:19.266-04:00", "updated_at": "2025-07-22T10:06:40.809-04:00", "avatar": "https://avatars.slack-edge.com/2025-07-22/9231484947574_4635ddfd060f731103ca_original.jpg", "custom_css": null}, {"id": 17710, "slack_id": "U096XN86SPN", "display_name": "Hyacinth Li", "bio": null, "projects_count": 0, "devlogs_count": 0, "votes_count": 0, "ships_count": 0, "projects": [], "coding_time_seconds": 0, "coding_time_seconds_today": 0, "balance": "You need to have a pocket watcher badge to view this.", "badges": [], "created_at": "2025-07-22T05:27:02.066-04:00", "updated_at": "2025-08-19T08:30:03.739-04:00", "avatar": "https://avatars.slack-edge.com/2025-07-22/9235792843028_50f3f192fd68b6039013_original.png", "custom_css": null}, {"id": 17711, "slack_id": "U096TE1TCJ2", "display_name": "Umesh Gupta Pedamallu", "bio": null, "projects_count": 0, "devlogs_count": 0, "votes_count": 0, "ships_count": 0, "projects": [], "coding_time_seconds": 0, "coding_time_seconds_today": 0, "balance": "You need to have a pocket watcher badge to view this.", "badges": [], "created_at": "2025-07-22T05:29:08.971-04:00", "updated_at": "2025-07-22T09:35:35.576-04:00", "avatar": "https://secure.gravatar.com/avatar/9de3a1f4b2383181bc82d9f52ad317cf.jpg?s=512&d=https%3A%2F%2Fa.slack-edge.com%2Fdf10d%2Fimg%2Favatars%2Fava_0005-512.png", "custom_css": null}, {"id": 17712, "slack_id": "U096UH3TLMT", "display_name": "Boing", "bio": null, "projects_count": 0, "devlogs_count": 0, "votes_count": 0, "ships_count": 0, "projects": [], "coding_time_seconds": 1961, "coding_time_seconds_today": 0, "balance": "You need to have a pocket watcher badge to view this.", "badges": [], "created_at": "2025-07-22T05:32:30.371-04:00", "updated_at": "2025-07-22T12:22:42.618-04:00", "avatar": "https://secure.gravatar.com/avatar/3cabd7da8d2ed514040f36ca3bce5f0c.jpg?s=512&d=https%3A%2F%2Fa.slack-edge.com%2Fdf10d%2Fimg%2Favatars%2Fava_0005-512.png", "custom_css": null}, {"id": 17713, "slack_id": "U096TEQ0S1L", "display_name": "Piyumi Madara", "bio": null, "projects_count": 0, "devlogs_count": 0, "votes_count": 0, "ships_count": 0, "projects": [], "coding_time_seconds": 0, "coding_time_seconds_today": 0, "balance": "You need to have a pocket watcher badge to view this.", "badges": [], "created_at": "2025-07-22T05:32:41.037-04:00", "updated_at": "2025-07-22T09:35:35.831-04:00", "avatar": "https://secure.gravatar.com/avatar/52736ab5e77442512c1a19e7337fc3a7.jpg?s=512&d=https%3A%2F%2Fa.slack-edge.com%2Fdf10d%2Fimg%2Favatars%2Fava_0026-512.png", "custom_css": null}, {"id": 17714, "slack_id": "U096SLABYQN", "display_name": "Siva Ganesh Gummalla", "bio": null, "projects_count": 0, "devlogs_count": 0, "votes_count": 0, "ships_count": 0, "projects": [], "coding_time_seconds": 0, "coding_time_seconds_today": 0, "balance": "You need to have a pocket watcher badge to view this.", "badges": [], "created_at": "2025-07-22T05:33:48.458-04:00", "updated_at": "2025-07-22T09:35:35.941-04:00", "avatar": "https://secure.gravatar.com/avatar/c35d0dcab6aa41b8702d364fed2e791c.jpg?s=512&d=https%3A%2F%2Fa.slack-edge.com%2Fdf10d%2Fimg%2Favatars%2Fava_0002-512.png", "custom_css": null}, {"id": 17715, "slack_id": "U097JRQK2CQ", "display_name": "dazai", "bio": null, "projects_count": 0, "devlogs_count": 0, "votes_count": 0, "ships_count": 0, "projects": [], "coding_time_seconds": 7725, "coding_time_seconds_today": 0, "balance": "You need to have a pocket watcher badge to view this.", "badges": [], "created_at": "2025-07-22T05:35:57.148-04:00", "updated_at": "2025-07-22T09:35:36.031-04:00", "avatar": "https://secure.gravatar.com/avatar/7419bc29d41a88e4a4cb74aa40b07876.jpg?s=512&d=https%3A%2F%2Fa.slack-edge.com%2Fdf10d%2Fimg%2Favatars%2Fava_0000-512.png", "custom_css": null}, {"id": 17716, "slack_id": "U0979NU33G9", "display_name": "Georgia", "bio": null, "projects_count": 0, "devlogs_count": 0, "votes_count": 0, "ships_count": 0, "projects": [], "coding_time_seconds": 0, "coding_time_seconds_today": 0, "balance": "You need to have a pocket watcher badge to view this.", "badges": [], "created_at": "2025-07-22T05:37:19.275-04:00", "updated_at": "2025-07-22T09:35:36.110-04:00", "avatar": "https://secure.gravatar.com/avatar/d35fbce8c79907e1b0e0b592b6aafc03.jpg?s=512&d=https%3A%2F%2Fa.slack-edge.com%2Fdf10d%2Fimg%2Favatars%2Fava_0010-512.png", "custom_css": null}, {"id": 17717, "slack_id": "U096XQE6T52", "display_name": "deathflare", "bio": null, "projects_count": 0, "devlogs_count": 0, "votes_count": 0, "ships_count": 0, "projects": [], "coding_time_seconds": 0, "coding_time_seconds_today": 0, "balance": "You need to have a pocket watcher badge to view this.", "badges": [], "created_at": "2025-07-22T05:37:31.718-04:00", "updated_at": "2025-08-01T23:39:55.934-04:00", "avatar": "https://secure.gravatar.com/avatar/f2efb60b56a3d3f3ecd745b8611c2f14.jpg?s=512&d=https%3A%2F%2Fa.slack-edge.com%2Fdf10d%2Fimg%2Favatars%2Fava_0025-512.png", "custom_css": null}, {"id": 17718, "slack_id": "U096R81AK19", "display_name": "Yash Gaikwad", "bio": null, "projects_count": 0, "devlogs_count": 0, "votes_count": 0, "ships_count": 0, "projects": [], "coding_time_seconds": 0, "coding_time_seconds_today": 0, "balance": "You need to have a pocket watcher badge to view this.", "badges": [], "created_at": "2025-07-22T05:37:39.334-04:00", "updated_at": "2025-07-22T09:35:36.294-04:00", "avatar": "https://secure.gravatar.com/avatar/b49d8711b669a0acbcd96b388a8f0e7e.jpg?s=512&d=https%3A%2F%2Fa.slack-edge.com%2Fdf10d%2Fimg%2Favatars%2Fava_0024-512.png", "custom_css": null}, {"id": 17719, "slack_id": "U096WJBHCQ2", "display_name": "akanksha", "bio": null, "projects_count": 2, "devlogs_count": 0, "votes_count": 0, "ships_count": 0, "projects": [{"id": 9861, "title": "Pennycat", "devlogs_count": 0, "created_at": "2025-08-02T13:41:59.055-04:00"}, {"id": 9862, "title": "Pennycat", "devlogs_count": 0, "created_at": "2025-08-02T13:41:59.059-04:00"}], "coding_time_seconds": 52380, "coding_time_seconds_today": 0, "balance": "You need to have a pocket watcher badge to view this.", "badges": [], "created_at": "2025-07-22T05:37:56.631-04:00", "updated_at": "2025-08-02T13:35:17.364-04:00", "avatar": "https://secure.gravatar.com/avatar/0d75d722008ae184b8a55873546fd8de.jpg?s=512&d=https%3A%2F%2Fa.slack-edge.com%2Fdf10d%2Fimg%2Favatars%2Fava_0004-512.png", "custom_css": null}, {"id": 17720, "slack_id": "U096R8FMXMH", "display_name": "carr3bailey", "bio": null, "projects_count": 0, "devlogs_count": 0, "votes_count": 0, "ships_count": 0, "projects": [], "coding_time_seconds": 0, "coding_time_seconds_today": 0, "balance": "You need to have a pocket watcher badge to view this.", "badges": [], "created_at": "2025-07-22T05:39:56.163-04:00", "updated_at": "2025-07-22T09:35:36.454-04:00", "avatar": "https://secure.gravatar.com/avatar/492badbc4a5b1dcbf67e7f274075c192.jpg?s=512&d=https%3A%2F%2Fa.slack-edge.com%2Fdf10d%2Fimg%2Favatars%2Fava_0018-512.png", "custom_css": null}, {"id": 17721, "slack_id": "U096WJLCU74", "display_name": "Keira Hopkins", "bio": null, "projects_count": 0, "devlogs_count": 0, "votes_count": 0, "ships_count": 0, "projects": [], "coding_time_seconds": 107905, "coding_time_seconds_today": 0, "balance": "You need to have a pocket watcher badge to view this.", "badges": [], "created_at": "2025-07-22T05:40:14.304-04:00", "updated_at": "2025-07-22T14:08:40.064-04:00", "avatar": "https://secure.gravatar.com/avatar/46db57e3ab5e17a93acf0ad5b30dfb28.jpg?s=512&d=https%3A%2F%2Fa.slack-edge.com%2Fdf10d%2Fimg%2Favatars%2Fava_0003-512.png", "custom_css": null}, {"id": 17722, "slack_id": "U096XQTAKNG", "display_name": "Bastien Boivin", "bio": null, "projects_count": 0, "devlogs_count": 0, "votes_count": 0, "ships_count": 0, "projects": [], "coding_time_seconds": 0, "coding_time_seconds_today": 0, "balance": "You need to have a pocket watcher badge to view this.", "badges": [], "created_at": "2025-07-22T05:41:12.336-04:00", "updated_at": "2025-07-22T09:35:36.608-04:00", "avatar": "https://secure.gravatar.com/avatar/92f672fb021cf6cca1faa999eaab4aa7.jpg?s=512&d=https%3A%2F%2Fa.slack-edge.com%2Fdf10d%2Fimg%2Favatars%2Fava_0016-512.png", "custom_css": null}, {"id": 17723, "slack_id": "U096R90KEAX", "display_name": "Pranav", "bio": null, "projects_count": 0, "devlogs_count": 0, "votes_count": 1, "ships_count": 0, "projects": [], "coding_time_seconds": 0, "coding_time_seconds_today": 0, "balance": "You need to have a pocket watcher badge to view this.", "badges": [], "created_at": "2025-07-22T05:42:30.072-04:00", "updated_at": "2025-07-23T04:10:05.123-04:00", "avatar": "https://secure.gravatar.com/avatar/842b77ffc0a7147ac6af1fedc1409a6f.jpg?s=512&d=https%3A%2F%2Fa.slack-edge.com%2Fdf10d%2Fimg%2Favatars%2Fava_0005-512.png", "custom_css": null}, {"id": 17724, "slack_id": "U0979PAUT0R", "display_name": "Tridib Roy Arjo", "bio": null, "projects_count": 0, "devlogs_count": 0, "votes_count": 0, "ships_count": 0, "projects": [], "coding_time_seconds": 207, "coding_time_seconds_today": 0, "balance": "You need to have a pocket watcher badge to view this.", "badges": [], "created_at": "2025-07-22T05:43:16.713-04:00", "updated_at": "2025-07-22T09:35:40.864-04:00", "avatar": "https://secure.gravatar.com/avatar/f512a0d53e8906772674ca4b6939dd69.jpg?s=512&d=https%3A%2F%2Fa.slack-edge.com%2Fdf10d%2Fimg%2Favatars%2Fava_0005-512.png", "custom_css": null}, {"id": 17725, "slack_id": "U096XR8J5GC", "display_name": "Akriti Shrivastava", "bio": null, "projects_count": 0, "devlogs_count": 0, "votes_count": 0, "ships_count": 0, "projects": [], "coding_time_seconds": 18600, "coding_time_seconds_today": 0, "balance": "You need to have a pocket watcher badge to view this.", "badges": [], "created_at": "2025-07-22T05:44:19.301-04:00", "updated_at": "2025-07-22T09:35:40.998-04:00", "avatar": "https://secure.gravatar.com/avatar/9ca772460624806be292f26e31506c84.jpg?s=512&d=https%3A%2F%2Fa.slack-edge.com%2Fdf10d%2Fimg%2Favatars%2Fava_0012-512.png", "custom_css": null}], "pagination": {"page": 882, "pages": 1192, "count": 23828, "items": 20}}