{"users": [{"id": 17726, "slack_id": "U096SAPERHT", "display_name": "lazaros", "bio": null, "projects_count": 0, "devlogs_count": 0, "votes_count": 0, "ships_count": 0, "projects": [], "coding_time_seconds": 9791, "coding_time_seconds_today": 0, "balance": "You need to have a pocket watcher badge to view this.", "badges": [], "created_at": "2025-07-22T05:45:17.311-04:00", "updated_at": "2025-07-22T09:35:41.100-04:00", "avatar": "https://secure.gravatar.com/avatar/a7a24f7aec80eeec9af535f7404d2f5f.jpg?s=512&d=https%3A%2F%2Fa.slack-edge.com%2Fdf10d%2Fimg%2Favatars%2Fava_0026-512.png", "custom_css": null}, {"id": 17727, "slack_id": "U096R8V3TKM", "display_name": "Sg", "bio": null, "projects_count": 0, "devlogs_count": 0, "votes_count": 0, "ships_count": 0, "projects": [], "coding_time_seconds": 0, "coding_time_seconds_today": 0, "balance": "You need to have a pocket watcher badge to view this.", "badges": [], "created_at": "2025-07-22T05:45:51.418-04:00", "updated_at": "2025-07-22T09:35:41.190-04:00", "avatar": "https://secure.gravatar.com/avatar/8e4a1f5024510bb826789b8b25456de4.jpg?s=512&d=https%3A%2F%2Fa.slack-edge.com%2Fdf10d%2Fimg%2Favatars%2Fava_0013-512.png", "custom_css": null}, {"id": 17728, "slack_id": "U096N2CGFUK", "display_name": "Abu Sufian Robin", "bio": null, "projects_count": 0, "devlogs_count": 0, "votes_count": 0, "ships_count": 0, "projects": [], "coding_time_seconds": 39211, "coding_time_seconds_today": 0, "balance": "You need to have a pocket watcher badge to view this.", "badges": [], "created_at": "2025-07-22T05:45:57.274-04:00", "updated_at": "2025-07-22T09:35:41.273-04:00", "avatar": "https://secure.gravatar.com/avatar/cd6fc26cef59dd94a0c2eae8ff82046d.jpg?s=512&d=https%3A%2F%2Fa.slack-edge.com%2Fdf10d%2Fimg%2Favatars%2Fava_0018-512.png", "custom_css": null}, {"id": 17729, "slack_id": "U096FRUQBJT", "display_name": "Debugboard", "bio": null, "projects_count": 0, "devlogs_count": 0, "votes_count": 0, "ships_count": 0, "projects": [], "coding_time_seconds": 0, "coding_time_seconds_today": 0, "balance": "You need to have a pocket watcher badge to view this.", "badges": [], "created_at": "2025-07-22T05:46:17.254-04:00", "updated_at": "2025-07-22T09:35:41.364-04:00", "avatar": "https://secure.gravatar.com/avatar/17e790242f789f361fd45d5d30fcd0a8.jpg?s=512&d=https%3A%2F%2Fa.slack-edge.com%2Fdf10d%2Fimg%2Favatars%2Fava_0008-512.png", "custom_css": null}, {"id": 17730, "slack_id": "U096TGX7THU", "display_name": "Carlo", "bio": null, "projects_count": 0, "devlogs_count": 0, "votes_count": 0, "ships_count": 0, "projects": [], "coding_time_seconds": 0, "coding_time_seconds_today": 0, "balance": "You need to have a pocket watcher badge to view this.", "badges": [], "created_at": "2025-07-22T05:46:48.085-04:00", "updated_at": "2025-07-22T09:35:41.457-04:00", "avatar": "https://secure.gravatar.com/avatar/61f160010b662d5b6bcdeb2283edd905.jpg?s=512&d=https%3A%2F%2Fa.slack-edge.com%2Fdf10d%2Fimg%2Favatars%2Fava_0007-512.png", "custom_css": null}, {"id": 17731, "slack_id": "U096THAGD8E", "display_name": "Dev Lahrani", "bio": null, "projects_count": 0, "devlogs_count": 0, "votes_count": 0, "ships_count": 0, "projects": [], "coding_time_seconds": 3539, "coding_time_seconds_today": 0, "balance": "You need to have a pocket watcher badge to view this.", "badges": [], "created_at": "2025-07-22T05:49:53.738-04:00", "updated_at": "2025-07-22T09:35:41.543-04:00", "avatar": "https://secure.gravatar.com/avatar/69fbab07781410dc1bc1c69b3899be3a.jpg?s=512&d=https%3A%2F%2Fa.slack-edge.com%2Fdf10d%2Fimg%2Favatars%2Fava_0006-512.png", "custom_css": null}, {"id": 17732, "slack_id": "U096XS9HTDJ", "display_name": "Dlurak", "bio": null, "projects_count": 0, "devlogs_count": 0, "votes_count": 0, "ships_count": 0, "projects": [], "coding_time_seconds": 99578, "coding_time_seconds_today": 0, "balance": "You need to have a pocket watcher badge to view this.", "badges": [], "created_at": "2025-07-22T05:51:16.282-04:00", "updated_at": "2025-07-22T09:35:41.626-04:00", "avatar": "https://secure.gravatar.com/avatar/7da8db1e8309ff44ab06617ebc5f301c.jpg?s=512&d=https%3A%2F%2Fa.slack-edge.com%2Fdf10d%2Fimg%2Favatars%2Fava_0012-512.png", "custom_css": null}, {"id": 17733, "slack_id": "U096XSFH5T6", "display_name": "Akshay Jagjivan", "bio": null, "projects_count": 0, "devlogs_count": 0, "votes_count": 0, "ships_count": 0, "projects": [], "coding_time_seconds": 23176, "coding_time_seconds_today": 0, "balance": "You need to have a pocket watcher badge to view this.", "badges": [], "created_at": "2025-07-22T05:51:38.654-04:00", "updated_at": "2025-07-22T09:35:41.724-04:00", "avatar": "https://secure.gravatar.com/avatar/95192891397a8f2f07a72a97cacce624.jpg?s=512&d=https%3A%2F%2Fa.slack-edge.com%2Fdf10d%2Fimg%2Favatars%2Fava_0022-512.png", "custom_css": null}, {"id": 17734, "slack_id": "U096XSCDYUU", "display_name": "Ertu\u011frul", "bio": null, "projects_count": 1, "devlogs_count": 1, "votes_count": 0, "ships_count": 0, "projects": [{"id": 10668, "title": "friend album project", "devlogs_count": 1, "created_at": "2025-08-09T13:29:45.980-04:00"}], "coding_time_seconds": 64070, "coding_time_seconds_today": 0, "balance": "You need to have a pocket watcher badge to view this.", "badges": [], "created_at": "2025-07-22T05:53:16.315-04:00", "updated_at": "2025-08-09T07:06:23.587-04:00", "avatar": "https://secure.gravatar.com/avatar/11375da2770e74eb37a1aaaa7d3939da.jpg?s=512&d=https%3A%2F%2Fa.slack-edge.com%2Fdf10d%2Fimg%2Favatars%2Fava_0023-512.png", "custom_css": null}, {"id": 17735, "slack_id": "U096FSRHS07", "display_name": "takoyakidath", "bio": null, "projects_count": 1, "devlogs_count": 0, "votes_count": 0, "ships_count": 0, "projects": [{"id": 7766, "title": "EarthRader", "devlogs_count": 0, "created_at": "2025-07-22T23:24:54.043-04:00"}], "coding_time_seconds": 44608, "coding_time_seconds_today": 0, "balance": "You need to have a pocket watcher badge to view this.", "badges": [], "created_at": "2025-07-22T05:54:34.675-04:00", "updated_at": "2025-07-22T09:35:41.922-04:00", "avatar": "https://secure.gravatar.com/avatar/4a243995cd6c1df9fc8f1cdd90a0e9a5.jpg?s=512&d=https%3A%2F%2Fa.slack-edge.com%2Fdf10d%2Fimg%2Favatars%2Fava_0017-512.png", "custom_css": null}, {"id": 17736, "slack_id": "U096FSWTPJB", "display_name": "\u4ef2\u5b97\u6839\u5e79\u592a", "bio": "", "projects_count": 1, "devlogs_count": 0, "votes_count": 0, "ships_count": 0, "projects": [{"id": 7566, "title": "travel_memo", "devlogs_count": 0, "created_at": "2025-07-22T06:24:05.107-04:00"}], "coding_time_seconds": 18464, "coding_time_seconds_today": 5590, "balance": "You need to have a pocket watcher badge to view this.", "badges": [], "created_at": "2025-07-22T05:54:53.381-04:00", "updated_at": "2025-07-22T09:35:42.003-04:00", "avatar": "https://avatars.slack-edge.com/2025-07-22/9232712617365_34f26b8412d09600485d_original.png", "custom_css": null}, {"id": 17737, "slack_id": "U096XSPQER2", "display_name": "Tobias Dubrunquez Lorigenne", "bio": null, "projects_count": 0, "devlogs_count": 0, "votes_count": 0, "ships_count": 0, "projects": [], "coding_time_seconds": 0, "coding_time_seconds_today": 0, "balance": "You need to have a pocket watcher badge to view this.", "badges": [], "created_at": "2025-07-22T05:56:08.946-04:00", "updated_at": "2025-07-22T09:35:42.092-04:00", "avatar": "https://secure.gravatar.com/avatar/0d645672a869ccee19c3f18ffca15bc5.jpg?s=512&d=https%3A%2F%2Fa.slack-edge.com%2Fdf10d%2Fimg%2Favatars%2Fava_0008-512.png", "custom_css": null}, {"id": 17738, "slack_id": "U0979ELFUFK", "display_name": "khush", "bio": null, "projects_count": 0, "devlogs_count": 0, "votes_count": 0, "ships_count": 0, "projects": [], "coding_time_seconds": 0, "coding_time_seconds_today": 0, "balance": "You need to have a pocket watcher badge to view this.", "badges": [], "created_at": "2025-07-22T05:56:36.983-04:00", "updated_at": "2025-07-22T09:35:46.332-04:00", "avatar": "https://secure.gravatar.com/avatar/cff474e36029dd2c834202d77930bf83.jpg?s=512&d=https%3A%2F%2Fa.slack-edge.com%2Fdf10d%2Fimg%2Favatars%2Fava_0014-512.png", "custom_css": null}, {"id": 17739, "slack_id": "U096RAXE4MR", "display_name": "Shivam Gupta", "bio": null, "projects_count": 0, "devlogs_count": 0, "votes_count": 0, "ships_count": 0, "projects": [], "coding_time_seconds": 0, "coding_time_seconds_today": 0, "balance": "You need to have a pocket watcher badge to view this.", "badges": [], "created_at": "2025-07-22T05:58:00.878-04:00", "updated_at": "2025-07-22T09:35:46.439-04:00", "avatar": "https://secure.gravatar.com/avatar/aa7037278d0615a4d6e27d9e596b323b.jpg?s=512&d=https%3A%2F%2Fa.slack-edge.com%2Fdf10d%2Fimg%2Favatars%2Fava_0004-512.png", "custom_css": null}, {"id": 17740, "slack_id": "U096WM3Q6JW", "display_name": "Kanishk Jain", "bio": null, "projects_count": 0, "devlogs_count": 0, "votes_count": 0, "ships_count": 0, "projects": [], "coding_time_seconds": 60659, "coding_time_seconds_today": 0, "balance": "You need to have a pocket watcher badge to view this.", "badges": [], "created_at": "2025-07-22T05:59:36.183-04:00", "updated_at": "2025-07-25T11:46:03.115-04:00", "avatar": "https://secure.gravatar.com/avatar/178c32da30e10c0949cdd6347b253c3c.jpg?s=512&d=https%3A%2F%2Fa.slack-edge.com%2Fdf10d%2Fimg%2Favatars%2Fava_0006-512.png", "custom_css": null}, {"id": 17741, "slack_id": "U096WMG3TFC", "display_name": "Alphons", "bio": null, "projects_count": 0, "devlogs_count": 0, "votes_count": 0, "ships_count": 0, "projects": [], "coding_time_seconds": 125, "coding_time_seconds_today": 0, "balance": "You need to have a pocket watcher badge to view this.", "badges": [], "created_at": "2025-07-22T06:01:16.749-04:00", "updated_at": "2025-07-22T09:35:46.622-04:00", "avatar": "https://secure.gravatar.com/avatar/39f1f977e7e3c42b666bd3da502d27c6.jpg?s=512&d=https%3A%2F%2Fa.slack-edge.com%2Fdf10d%2Fimg%2Favatars%2Fava_0003-512.png", "custom_css": null}, {"id": 17742, "slack_id": "U096UMA383F", "display_name": "Med Aziz", "bio": null, "projects_count": 0, "devlogs_count": 0, "votes_count": 0, "ships_count": 0, "projects": [], "coding_time_seconds": 0, "coding_time_seconds_today": 0, "balance": "You need to have a pocket watcher badge to view this.", "badges": [], "created_at": "2025-07-22T06:01:28.661-04:00", "updated_at": "2025-07-22T09:35:46.701-04:00", "avatar": "https://secure.gravatar.com/avatar/e9aa46e187f0c465a4443da4739b8e32.jpg?s=512&d=https%3A%2F%2Fa.slack-edge.com%2Fdf10d%2Fimg%2Favatars%2Fava_0011-512.png", "custom_css": null}, {"id": 17743, "slack_id": "U0979SE32QZ", "display_name": "Devdhar Manpuria", "bio": null, "projects_count": 0, "devlogs_count": 0, "votes_count": 0, "ships_count": 0, "projects": [], "coding_time_seconds": 9092, "coding_time_seconds_today": 0, "balance": "You need to have a pocket watcher badge to view this.", "badges": [], "created_at": "2025-07-22T06:01:50.208-04:00", "updated_at": "2025-07-22T09:35:46.794-04:00", "avatar": "https://secure.gravatar.com/avatar/524a2f89641d8c4be02f1ae28dd40fbb.jpg?s=512&d=https%3A%2F%2Fa.slack-edge.com%2Fdf10d%2Fimg%2Favatars%2Fava_0008-512.png", "custom_css": null}, {"id": 17744, "slack_id": "U096FU8EFRV", "display_name": "scorpion3013", "bio": null, "projects_count": 0, "devlogs_count": 0, "votes_count": 0, "ships_count": 0, "projects": [], "coding_time_seconds": 0, "coding_time_seconds_today": 0, "balance": "You need to have a pocket watcher badge to view this.", "badges": [], "created_at": "2025-07-22T06:03:13.620-04:00", "updated_at": "2025-07-22T09:35:46.916-04:00", "avatar": "https://avatars.slack-edge.com/2025-07-22/9231670970006_7382841f52dbb1895754_original.png", "custom_css": null}, {"id": 17745, "slack_id": "U096TKF0DGW", "display_name": "Aravind R K", "bio": null, "projects_count": 0, "devlogs_count": 0, "votes_count": 0, "ships_count": 0, "projects": [], "coding_time_seconds": 0, "coding_time_seconds_today": 0, "balance": "You need to have a pocket watcher badge to view this.", "badges": [], "created_at": "2025-07-22T06:04:02.054-04:00", "updated_at": "2025-07-22T09:36:09.937-04:00", "avatar": "https://avatars.slack-edge.com/2025-07-22/9232761577173_326bd33b9bdd699fdab4_original.png", "custom_css": null}], "pagination": {"page": 883, "pages": 1192, "count": 23828, "items": 20}}