{"users": [{"id": 17746, "slack_id": "U0978M52YJD", "display_name": "Nithish Kumat", "bio": null, "projects_count": 0, "devlogs_count": 0, "votes_count": 4, "ships_count": 0, "projects": [], "coding_time_seconds": 205256, "coding_time_seconds_today": 0, "balance": "You need to have a pocket watcher badge to view this.", "badges": [], "created_at": "2025-07-22T06:04:58.937-04:00", "updated_at": "2025-07-22T09:35:47.164-04:00", "avatar": "https://secure.gravatar.com/avatar/0b92f0808757e8d8bc4dce247dc627a5.jpg?s=512&d=https%3A%2F%2Fa.slack-edge.com%2Fdf10d%2Fimg%2Favatars%2Fava_0023-512.png", "custom_css": null}, {"id": 17747, "slack_id": "U0979HU7X33", "display_name": "Leon Licher", "bio": null, "projects_count": 0, "devlogs_count": 0, "votes_count": 0, "ships_count": 0, "projects": [], "coding_time_seconds": 0, "coding_time_seconds_today": 0, "balance": "You need to have a pocket watcher badge to view this.", "badges": [], "created_at": "2025-07-22T06:08:15.980-04:00", "updated_at": "2025-07-22T09:35:47.256-04:00", "avatar": "https://secure.gravatar.com/avatar/f2eae0ec6d4b95361465587385a9be79.jpg?s=512&d=https%3A%2F%2Fa.slack-edge.com%2Fdf10d%2Fimg%2Favatars%2Fava_0023-512.png", "custom_css": null}, {"id": 17748, "slack_id": "U096XUMHRM2", "display_name": "Kareem Areed", "bio": null, "projects_count": 0, "devlogs_count": 0, "votes_count": 0, "ships_count": 0, "projects": [], "coding_time_seconds": 0, "coding_time_seconds_today": 0, "balance": "You need to have a pocket watcher badge to view this.", "badges": [], "created_at": "2025-07-22T06:08:21.257-04:00", "updated_at": "2025-07-22T09:35:47.343-04:00", "avatar": "https://avatars.slack-edge.com/2025-07-22/9234781713442_1f391b4ce50993d27cae_original.jpg", "custom_css": null}, {"id": 17749, "slack_id": "U096TK53DSA", "display_name": "Shaheer Rizwan", "bio": null, "projects_count": 0, "devlogs_count": 0, "votes_count": 0, "ships_count": 0, "projects": [], "coding_time_seconds": 0, "coding_time_seconds_today": 0, "balance": "You need to have a pocket watcher badge to view this.", "badges": [], "created_at": "2025-07-22T06:09:16.109-04:00", "updated_at": "2025-07-22T09:35:47.429-04:00", "avatar": "https://secure.gravatar.com/avatar/fa17f9086d46ecf172d20c6b7bf061cd.jpg?s=512&d=https%3A%2F%2Fa.slack-edge.com%2Fdf10d%2Fimg%2Favatars%2Fava_0010-512.png", "custom_css": null}, {"id": 17750, "slack_id": "U096XUVC1NG", "display_name": "Amit", "bio": null, "projects_count": 0, "devlogs_count": 0, "votes_count": 0, "ships_count": 0, "projects": [], "coding_time_seconds": 0, "coding_time_seconds_today": 0, "balance": "You need to have a pocket watcher badge to view this.", "badges": [], "created_at": "2025-07-22T06:09:41.406-04:00", "updated_at": "2025-07-22T09:35:47.532-04:00", "avatar": "https://secure.gravatar.com/avatar/1b6bbc9284b93030d6223594d5512c03.jpg?s=512&d=https%3A%2F%2Fa.slack-edge.com%2Fdf10d%2Fimg%2Favatars%2Fava_0012-512.png", "custom_css": null}, {"id": 17751, "slack_id": "U0979SP82HF", "display_name": "Dulanjana", "bio": null, "projects_count": 0, "devlogs_count": 0, "votes_count": 0, "ships_count": 0, "projects": [], "coding_time_seconds": 0, "coding_time_seconds_today": 0, "balance": "You need to have a pocket watcher badge to view this.", "badges": [], "created_at": "2025-07-22T06:09:42.301-04:00", "updated_at": "2025-07-22T09:35:47.627-04:00", "avatar": "https://secure.gravatar.com/avatar/b08a3066e9735569b15d2e9285c64ea8.jpg?s=512&d=https%3A%2F%2Fa.slack-edge.com%2Fdf10d%2Fimg%2Favatars%2Fava_0003-512.png", "custom_css": null}, {"id": 17752, "slack_id": "U096UNYBPJR", "display_name": "IBRAHIM", "bio": null, "projects_count": 0, "devlogs_count": 0, "votes_count": 0, "ships_count": 0, "projects": [], "coding_time_seconds": 0, "coding_time_seconds_today": 0, "balance": "You need to have a pocket watcher badge to view this.", "badges": [], "created_at": "2025-07-22T06:12:10.442-04:00", "updated_at": "2025-07-22T09:35:47.732-04:00", "avatar": "https://secure.gravatar.com/avatar/f8001f37a1eaf077d9724df06e2ce15a.jpg?s=512&d=https%3A%2F%2Fa.slack-edge.com%2Fdf10d%2Fimg%2Favatars%2Fava_0008-512.png", "custom_css": null}, {"id": 17753, "slack_id": "U096Q53VBTQ", "display_name": "farouk bentaleb", "bio": null, "projects_count": 0, "devlogs_count": 0, "votes_count": 0, "ships_count": 0, "projects": [], "coding_time_seconds": 0, "coding_time_seconds_today": 0, "balance": "You need to have a pocket watcher badge to view this.", "badges": [], "created_at": "2025-07-22T06:12:36.690-04:00", "updated_at": "2025-07-22T09:35:47.821-04:00", "avatar": "https://secure.gravatar.com/avatar/cbdde88edafb3b4acd0ee1ab941d73a8.jpg?s=512&d=https%3A%2F%2Fa.slack-edge.com%2Fdf10d%2Fimg%2Favatars%2Fava_0022-512.png", "custom_css": null}, {"id": 17754, "slack_id": "U096WP6KS4A", "display_name": "Jitesh Kumar", "bio": null, "projects_count": 0, "devlogs_count": 0, "votes_count": 0, "ships_count": 0, "projects": [], "coding_time_seconds": 0, "coding_time_seconds_today": 0, "balance": "You need to have a pocket watcher badge to view this.", "badges": [], "created_at": "2025-07-22T06:12:54.520-04:00", "updated_at": "2025-07-22T09:35:47.908-04:00", "avatar": "https://avatars.slack-edge.com/2025-07-22/9236014616068_3f23ac7fffdd410f23bb_original.png", "custom_css": null}, {"id": 17755, "slack_id": "U0979TY9WF3", "display_name": "Leo Lim", "bio": null, "projects_count": 0, "devlogs_count": 0, "votes_count": 0, "ships_count": 0, "projects": [], "coding_time_seconds": 0, "coding_time_seconds_today": 0, "balance": "You need to have a pocket watcher badge to view this.", "badges": [], "created_at": "2025-07-22T06:14:02.506-04:00", "updated_at": "2025-07-22T09:35:47.998-04:00", "avatar": "https://avatars.slack-edge.com/2025-07-22/9232806438197_cadb640f64626c3f2021_original.png", "custom_css": null}, {"id": 17756, "slack_id": "U096RD89C5R", "display_name": "Riccardo", "bio": null, "projects_count": 0, "devlogs_count": 0, "votes_count": 0, "ships_count": 0, "projects": [], "coding_time_seconds": 0, "coding_time_seconds_today": 0, "balance": "You need to have a pocket watcher badge to view this.", "badges": [], "created_at": "2025-07-22T06:15:04.621-04:00", "updated_at": "2025-07-22T09:35:48.112-04:00", "avatar": "https://secure.gravatar.com/avatar/4b678e292cbd3bae25e918f2d72f0a40.jpg?s=512&d=https%3A%2F%2Fa.slack-edge.com%2Fdf10d%2Fimg%2Favatars%2Fava_0000-512.png", "custom_css": null}, {"id": 17757, "slack_id": "U096TLRMU22", "display_name": "Sri Sai Tej", "bio": null, "projects_count": 0, "devlogs_count": 0, "votes_count": 0, "ships_count": 0, "projects": [], "coding_time_seconds": 0, "coding_time_seconds_today": 0, "balance": "You need to have a pocket watcher badge to view this.", "badges": [], "created_at": "2025-07-22T06:15:08.202-04:00", "updated_at": "2025-08-12T09:06:00.975-04:00", "avatar": "https://secure.gravatar.com/avatar/f09d863ece9a2351890f86d240d4f44c.jpg?s=512&d=https%3A%2F%2Fa.slack-edge.com%2Fdf10d%2Fimg%2Favatars%2Fava_0002-512.png", "custom_css": null}, {"id": 17758, "slack_id": "U096UPJ7M8D", "display_name": "Fahad Ramzan", "bio": null, "projects_count": 0, "devlogs_count": 0, "votes_count": 0, "ships_count": 0, "projects": [], "coding_time_seconds": 0, "coding_time_seconds_today": 0, "balance": "You need to have a pocket watcher badge to view this.", "badges": [], "created_at": "2025-07-22T06:15:29.310-04:00", "updated_at": "2025-07-22T09:35:48.316-04:00", "avatar": "https://avatars.slack-edge.com/2025-07-22/9247970903777_66c0dc444c2bff3c09aa_original.png", "custom_css": null}, {"id": 17759, "slack_id": "U096UPJQBKP", "display_name": "Vedant Pandya", "bio": null, "projects_count": 0, "devlogs_count": 0, "votes_count": 0, "ships_count": 0, "projects": [], "coding_time_seconds": 0, "coding_time_seconds_today": 0, "balance": "You need to have a pocket watcher badge to view this.", "badges": [], "created_at": "2025-07-22T06:16:26.492-04:00", "updated_at": "2025-07-22T09:35:48.419-04:00", "avatar": "https://secure.gravatar.com/avatar/7134293ac3a306fd2545202b2472d2a6.jpg?s=512&d=https%3A%2F%2Fa.slack-edge.com%2Fdf10d%2Fimg%2Favatars%2Fava_0011-512.png", "custom_css": null}, {"id": 17760, "slack_id": "U096RDGP0LT", "display_name": "Seglinglin", "bio": null, "projects_count": 0, "devlogs_count": 0, "votes_count": 0, "ships_count": 0, "projects": [], "coding_time_seconds": 0, "coding_time_seconds_today": 0, "balance": "You need to have a pocket watcher badge to view this.", "badges": [], "created_at": "2025-07-22T06:16:30.272-04:00", "updated_at": "2025-07-22T09:35:48.544-04:00", "avatar": "https://secure.gravatar.com/avatar/1d778be6d6bc0b299d8d710d4423ad96.jpg?s=512&d=https%3A%2F%2Fa.slack-edge.com%2Fdf10d%2Fimg%2Favatars%2Fava_0004-512.png", "custom_css": null}, {"id": 17761, "slack_id": "U0979UCVCJD", "display_name": "brahim", "bio": null, "projects_count": 0, "devlogs_count": 0, "votes_count": 0, "ships_count": 0, "projects": [], "coding_time_seconds": 0, "coding_time_seconds_today": 0, "balance": "You need to have a pocket watcher badge to view this.", "badges": [], "created_at": "2025-07-22T06:18:42.043-04:00", "updated_at": "2025-07-24T09:09:36.032-04:00", "avatar": "https://secure.gravatar.com/avatar/1837e280db47399afcc106cc43ccae1d.jpg?s=512&d=https%3A%2F%2Fa.slack-edge.com%2Fdf10d%2Fimg%2Favatars%2Fava_0003-512.png", "custom_css": null}, {"id": 17762, "slack_id": "U096R4AM1L3", "display_name": "Shu Zhang", "bio": null, "projects_count": 0, "devlogs_count": 0, "votes_count": 0, "ships_count": 0, "projects": [], "coding_time_seconds": 0, "coding_time_seconds_today": 0, "balance": "You need to have a pocket watcher badge to view this.", "badges": [], "created_at": "2025-07-22T06:23:19.420-04:00", "updated_at": "2025-07-23T01:48:36.707-04:00", "avatar": "https://secure.gravatar.com/avatar/d88c3d92445d9047f40e93e9ff70e988.jpg?s=512&d=https%3A%2F%2Fa.slack-edge.com%2Fdf10d%2Fimg%2Favatars%2Fava_0021-512.png", "custom_css": null}, {"id": 17763, "slack_id": "U096TN0JHSS", "display_name": "Shees Ali", "bio": null, "projects_count": 0, "devlogs_count": 0, "votes_count": 0, "ships_count": 0, "projects": [], "coding_time_seconds": 0, "coding_time_seconds_today": 0, "balance": "You need to have a pocket watcher badge to view this.", "badges": [], "created_at": "2025-07-22T06:23:45.886-04:00", "updated_at": "2025-07-22T09:35:48.895-04:00", "avatar": "https://secure.gravatar.com/avatar/f4bfe104824e31d2793692b9968aae39.jpg?s=512&d=https%3A%2F%2Fa.slack-edge.com%2Fdf10d%2Fimg%2Favatars%2Fava_0000-512.png", "custom_css": null}, {"id": 17764, "slack_id": "U097K46AP96", "display_name": "raad x", "bio": null, "projects_count": 0, "devlogs_count": 0, "votes_count": 0, "ships_count": 0, "projects": [], "coding_time_seconds": 0, "coding_time_seconds_today": 0, "balance": "You need to have a pocket watcher badge to view this.", "badges": [], "created_at": "2025-07-22T06:24:57.173-04:00", "updated_at": "2025-07-22T09:35:49.000-04:00", "avatar": "https://avatars.slack-edge.com/2025-07-22/9236066922228_911b5a10a06d094457fd_original.png", "custom_css": null}, {"id": 17765, "slack_id": "U096Y1L9D5J", "display_name": "alchemist", "bio": null, "projects_count": 0, "devlogs_count": 0, "votes_count": 0, "ships_count": 0, "projects": [], "coding_time_seconds": 0, "coding_time_seconds_today": 0, "balance": "You need to have a pocket watcher badge to view this.", "badges": [], "created_at": "2025-07-22T06:25:05.119-04:00", "updated_at": "2025-07-22T09:35:49.090-04:00", "avatar": "https://secure.gravatar.com/avatar/47dc05e88570ef7a23bfac5727ac1d68.jpg?s=512&d=https%3A%2F%2Fa.slack-edge.com%2Fdf10d%2Fimg%2Favatars%2Fava_0021-512.png", "custom_css": null}], "pagination": {"page": 884, "pages": 1192, "count": 23828, "items": 20}}