{"users": [{"id": 17766, "slack_id": "U096Y1GPPFE", "display_name": "shivam sharma", "bio": null, "projects_count": 0, "devlogs_count": 0, "votes_count": 0, "ships_count": 0, "projects": [], "coding_time_seconds": 190801, "coding_time_seconds_today": 5776, "balance": "You need to have a pocket watcher badge to view this.", "badges": [], "created_at": "2025-07-22T06:25:28.405-04:00", "updated_at": "2025-07-22T09:35:49.193-04:00", "avatar": "https://secure.gravatar.com/avatar/6d770043be3f7a1f5a5ffaa8e27992ad.jpg?s=512&d=https%3A%2F%2Fa.slack-edge.com%2Fdf10d%2Fimg%2Favatars%2Fava_0006-512.png", "custom_css": null}, {"id": 17767, "slack_id": "U096Y22G2G4", "display_name": "Marcel", "bio": null, "projects_count": 2, "devlogs_count": 6, "votes_count": 20, "ships_count": 1, "projects": [{"id": 11398, "title": "Game Rating Program", "devlogs_count": 6, "created_at": "2025-08-15T13:39:00.574-04:00"}, {"id": 12656, "title": "Clubwave", "devlogs_count": 0, "created_at": "2025-08-31T06:44:50.114-04:00"}], "coding_time_seconds": 49344, "coding_time_seconds_today": 0, "balance": "You need to have a pocket watcher badge to view this.", "badges": [], "created_at": "2025-07-22T06:30:14.983-04:00", "updated_at": "2025-08-15T13:26:05.304-04:00", "avatar": "https://secure.gravatar.com/avatar/4ab5349fc2dfc2430c264e6523d3d141.jpg?s=512&d=https%3A%2F%2Fa.slack-edge.com%2Fdf10d%2Fimg%2Favatars%2Fava_0014-512.png", "custom_css": null}, {"id": 17768, "slack_id": "U096WQP61DY", "display_name": "jatin", "bio": null, "projects_count": 0, "devlogs_count": 0, "votes_count": 0, "ships_count": 0, "projects": [], "coding_time_seconds": 0, "coding_time_seconds_today": 0, "balance": "You need to have a pocket watcher badge to view this.", "badges": [], "created_at": "2025-07-22T06:30:58.020-04:00", "updated_at": "2025-07-22T09:35:49.368-04:00", "avatar": "https://secure.gravatar.com/avatar/63d80dfdaf2a95a6d0ef8f738418bf0b.jpg?s=512&d=https%3A%2F%2Fa.slack-edge.com%2Fdf10d%2Fimg%2Favatars%2Fava_0004-512.png", "custom_css": null}, {"id": 17769, "slack_id": "U096RFJFYKD", "display_name": "Anand Kumar", "bio": null, "projects_count": 0, "devlogs_count": 0, "votes_count": 0, "ships_count": 0, "projects": [], "coding_time_seconds": 0, "coding_time_seconds_today": 0, "balance": "You need to have a pocket watcher badge to view this.", "badges": [], "created_at": "2025-07-22T06:32:18.478-04:00", "updated_at": "2025-07-22T09:35:49.451-04:00", "avatar": "https://secure.gravatar.com/avatar/ae4e3c574420f28eaf0a6f1b3a68c1c2.jpg?s=512&d=https%3A%2F%2Fa.slack-edge.com%2Fdf10d%2Fimg%2Favatars%2Fava_0013-512.png", "custom_css": null}, {"id": 17770, "slack_id": "U097K580N9E", "display_name": "neer", "bio": null, "projects_count": 0, "devlogs_count": 0, "votes_count": 0, "ships_count": 0, "projects": [], "coding_time_seconds": 0, "coding_time_seconds_today": 0, "balance": "You need to have a pocket watcher badge to view this.", "badges": [], "created_at": "2025-07-22T06:33:36.657-04:00", "updated_at": "2025-07-22T12:13:53.380-04:00", "avatar": "https://secure.gravatar.com/avatar/3aba26d96b3d00f0aa7ac75496f8c1d5.jpg?s=512&d=https%3A%2F%2Fa.slack-edge.com%2Fdf10d%2Fimg%2Favatars%2Fava_0018-512.png", "custom_css": null}, {"id": 17771, "slack_id": "U096G2R6CGP", "display_name": "Eshaan Niraj", "bio": null, "projects_count": 0, "devlogs_count": 0, "votes_count": 0, "ships_count": 0, "projects": [], "coding_time_seconds": 0, "coding_time_seconds_today": 0, "balance": "You need to have a pocket watcher badge to view this.", "badges": [], "created_at": "2025-07-22T06:34:05.825-04:00", "updated_at": "2025-07-22T09:35:49.634-04:00", "avatar": "https://secure.gravatar.com/avatar/180c77ded3ad689536e99897946f2f40.jpg?s=512&d=https%3A%2F%2Fa.slack-edge.com%2Fdf10d%2Fimg%2Favatars%2Fava_0000-512.png", "custom_css": null}, {"id": 17772, "slack_id": "U096WRXL5L2", "display_name": "Rashid Ali", "bio": null, "projects_count": 0, "devlogs_count": 0, "votes_count": 0, "ships_count": 0, "projects": [], "coding_time_seconds": 0, "coding_time_seconds_today": 0, "balance": "You need to have a pocket watcher badge to view this.", "badges": [], "created_at": "2025-07-22T06:34:13.291-04:00", "updated_at": "2025-07-22T09:35:49.719-04:00", "avatar": "https://avatars.slack-edge.com/2025-07-22/9234897168530_273ce49e573c063b162b_original.jpg", "custom_css": null}, {"id": 17773, "slack_id": "U096WRVKREW", "display_name": "Flir0o", "bio": null, "projects_count": 1, "devlogs_count": 0, "votes_count": 0, "ships_count": 0, "projects": [{"id": 7574, "title": "vide Chat ", "devlogs_count": 0, "created_at": "2025-07-22T07:00:02.406-04:00"}], "coding_time_seconds": 5183, "coding_time_seconds_today": 0, "balance": "You need to have a pocket watcher badge to view this.", "badges": [], "created_at": "2025-07-22T06:34:56.776-04:00", "updated_at": "2025-07-22T09:35:49.811-04:00", "avatar": "https://secure.gravatar.com/avatar/ab3eed3edb889fdf5e20b24da6c37f85.jpg?s=512&d=https%3A%2F%2Fa.slack-edge.com%2Fdf10d%2Fimg%2Favatars%2Fava_0016-512.png", "custom_css": null}, {"id": 17774, "slack_id": "U096TPERLJ2", "display_name": "Nazli", "bio": null, "projects_count": 0, "devlogs_count": 0, "votes_count": 0, "ships_count": 0, "projects": [], "coding_time_seconds": 20554, "coding_time_seconds_today": 0, "balance": "You need to have a pocket watcher badge to view this.", "badges": [], "created_at": "2025-07-22T06:35:14.854-04:00", "updated_at": "2025-07-22T09:35:53.929-04:00", "avatar": "https://secure.gravatar.com/avatar/e2b2c93ca08b48a1467e403262137e48.jpg?s=512&d=https%3A%2F%2Fa.slack-edge.com%2Fdf10d%2Fimg%2Favatars%2Fava_0026-512.png", "custom_css": null}, {"id": 17775, "slack_id": "U096URX0D2R", "display_name": "Ahmed Raza", "bio": null, "projects_count": 0, "devlogs_count": 0, "votes_count": 0, "ships_count": 0, "projects": [], "coding_time_seconds": 0, "coding_time_seconds_today": 0, "balance": "You need to have a pocket watcher badge to view this.", "badges": [], "created_at": "2025-07-22T06:35:20.076-04:00", "updated_at": "2025-07-22T09:35:54.028-04:00", "avatar": "https://secure.gravatar.com/avatar/bdd1e20d68f5f131120ed7b6e41d8719.jpg?s=512&d=https%3A%2F%2Fa.slack-edge.com%2Fdf10d%2Fimg%2Favatars%2Fava_0025-512.png", "custom_css": null}, {"id": 17776, "slack_id": "U096RG252QK", "display_name": "Julian", "bio": "", "projects_count": 1, "devlogs_count": 0, "votes_count": 0, "ships_count": 0, "projects": [{"id": 7578, "title": "Cup Programming Language", "devlogs_count": 0, "created_at": "2025-07-22T07:05:43.488-04:00"}], "coding_time_seconds": 2932, "coding_time_seconds_today": 0, "balance": "You need to have a pocket watcher badge to view this.", "badges": [], "created_at": "2025-07-22T06:38:56.135-04:00", "updated_at": "2025-07-22T09:35:58.159-04:00", "avatar": "https://avatars.slack-edge.com/2025-07-22/9220264309271_e9719fc2ae902e96fe93_original.png", "custom_css": null}, {"id": 17777, "slack_id": "U096WGM0N8L", "display_name": "Santhosh S", "bio": null, "projects_count": 1, "devlogs_count": 0, "votes_count": 1, "ships_count": 0, "projects": [{"id": 7571, "title": "ZenFlow", "devlogs_count": 0, "created_at": "2025-07-22T06:53:52.846-04:00"}], "coding_time_seconds": 512, "coding_time_seconds_today": 0, "balance": "You need to have a pocket watcher badge to view this.", "badges": [], "created_at": "2025-07-22T06:39:47.465-04:00", "updated_at": "2025-07-22T09:35:58.254-04:00", "avatar": "https://avatars.slack-edge.com/2025-07-22/9232917322197_1e9faf80716afcc8a52c_original.jpg", "custom_css": null}, {"id": 17778, "slack_id": "U096TQ5SP8E", "display_name": "Evita", "bio": null, "projects_count": 0, "devlogs_count": 0, "votes_count": 0, "ships_count": 0, "projects": [], "coding_time_seconds": 61000, "coding_time_seconds_today": 0, "balance": "You need to have a pocket watcher badge to view this.", "badges": [], "created_at": "2025-07-22T06:40:09.598-04:00", "updated_at": "2025-07-22T09:35:58.337-04:00", "avatar": "https://secure.gravatar.com/avatar/745713a6a1e8dbde1c81c715d84a556e.jpg?s=512&d=https%3A%2F%2Fa.slack-edge.com%2Fdf10d%2Fimg%2Favatars%2Fava_0005-512.png", "custom_css": null}, {"id": 17779, "slack_id": "U096WSJJ2H0", "display_name": "Krish", "bio": null, "projects_count": 0, "devlogs_count": 0, "votes_count": 0, "ships_count": 0, "projects": [], "coding_time_seconds": 0, "coding_time_seconds_today": 0, "balance": "You need to have a pocket watcher badge to view this.", "badges": [], "created_at": "2025-07-22T06:43:55.931-04:00", "updated_at": "2025-08-02T01:05:51.415-04:00", "avatar": "https://secure.gravatar.com/avatar/c050b43a08e1d2cb08e36403b36e4980.jpg?s=512&d=https%3A%2F%2Fa.slack-edge.com%2Fdf10d%2Fimg%2Favatars%2Fava_0004-512.png", "custom_css": null}, {"id": 17780, "slack_id": "U096USU1TL5", "display_name": "Abhishek", "bio": null, "projects_count": 0, "devlogs_count": 0, "votes_count": 0, "ships_count": 0, "projects": [], "coding_time_seconds": 4293, "coding_time_seconds_today": 0, "balance": "You need to have a pocket watcher badge to view this.", "badges": [], "created_at": "2025-07-22T06:44:33.419-04:00", "updated_at": "2025-07-22T09:35:58.491-04:00", "avatar": "https://secure.gravatar.com/avatar/cd28808d8dbf751ebae9b44785ab5227.jpg?s=512&d=https%3A%2F%2Fa.slack-edge.com%2Fdf10d%2Fimg%2Favatars%2Fava_0017-512.png", "custom_css": null}, {"id": 17781, "slack_id": "U097K6UAD6C", "display_name": "Devanshu", "bio": null, "projects_count": 0, "devlogs_count": 0, "votes_count": 0, "ships_count": 0, "projects": [], "coding_time_seconds": 0, "coding_time_seconds_today": 0, "balance": "You need to have a pocket watcher badge to view this.", "badges": [], "created_at": "2025-07-22T06:46:03.734-04:00", "updated_at": "2025-07-22T09:35:58.578-04:00", "avatar": "https://secure.gravatar.com/avatar/82ef3395671b8c00d5aa8537186efa4d.jpg?s=512&d=https%3A%2F%2Fa.slack-edge.com%2Fdf10d%2Fimg%2Favatars%2Fava_0002-512.png", "custom_css": null}, {"id": 17782, "slack_id": "U096G48T8TZ", "display_name": "Bothim_TV", "bio": null, "projects_count": 0, "devlogs_count": 0, "votes_count": 0, "ships_count": 0, "projects": [], "coding_time_seconds": 0, "coding_time_seconds_today": 0, "balance": "You need to have a pocket watcher badge to view this.", "badges": [], "created_at": "2025-07-22T06:46:26.619-04:00", "updated_at": "2025-07-22T09:35:58.676-04:00", "avatar": "https://secure.gravatar.com/avatar/1535e18d32b2dd4843ce9d6de4707940.jpg?s=512&d=https%3A%2F%2Fa.slack-edge.com%2Fdf10d%2Fimg%2Favatars%2Fava_0014-512.png", "custom_css": null}, {"id": 17783, "slack_id": "U096WU0B1HQ", "display_name": "\u0415\u0433\u043e\u0440 \u0425\u0443\u0442", "bio": null, "projects_count": 0, "devlogs_count": 0, "votes_count": 0, "ships_count": 0, "projects": [], "coding_time_seconds": 0, "coding_time_seconds_today": 0, "balance": "You need to have a pocket watcher badge to view this.", "badges": [], "created_at": "2025-07-22T06:50:43.468-04:00", "updated_at": "2025-07-22T09:35:58.765-04:00", "avatar": "https://avatars.slack-edge.com/2025-07-22/9231880511542_0a03d5b01d1f41a98b19_original.jpg", "custom_css": null}, {"id": 17784, "slack_id": "U097A3APE8Z", "display_name": "Kree Teeka", "bio": null, "projects_count": 0, "devlogs_count": 0, "votes_count": 0, "ships_count": 0, "projects": [], "coding_time_seconds": 0, "coding_time_seconds_today": 0, "balance": "You need to have a pocket watcher badge to view this.", "badges": [], "created_at": "2025-07-22T06:51:19.505-04:00", "updated_at": "2025-07-22T09:35:58.844-04:00", "avatar": "https://avatars.slack-edge.com/2025-07-22/9236178791828_108941616ccc217f869c_original.jpg", "custom_css": null}, {"id": 17785, "slack_id": "U096UU2MZ7X", "display_name": "Jay", "bio": null, "projects_count": 0, "devlogs_count": 0, "votes_count": 0, "ships_count": 0, "projects": [], "coding_time_seconds": 0, "coding_time_seconds_today": 0, "balance": "You need to have a pocket watcher badge to view this.", "badges": [], "created_at": "2025-07-22T06:53:42.409-04:00", "updated_at": "2025-07-22T09:35:58.932-04:00", "avatar": "https://secure.gravatar.com/avatar/37686758deaa169b370e1633a5fd6eed.jpg?s=512&d=https%3A%2F%2Fa.slack-edge.com%2Fdf10d%2Fimg%2Favatars%2Fava_0017-512.png", "custom_css": null}], "pagination": {"page": 885, "pages": 1192, "count": 23828, "items": 20}}