{"users": [{"id": 17786, "slack_id": "U096RJ5GDQB", "display_name": "Abbas Murtaza", "bio": null, "projects_count": 0, "devlogs_count": 0, "votes_count": 0, "ships_count": 0, "projects": [], "coding_time_seconds": 0, "coding_time_seconds_today": 0, "balance": "You need to have a pocket watcher badge to view this.", "badges": [], "created_at": "2025-07-22T06:53:50.762-04:00", "updated_at": "2025-07-22T09:35:59.028-04:00", "avatar": "https://secure.gravatar.com/avatar/ae121050a007249ed7e8a741ce8c1611.jpg?s=512&d=https%3A%2F%2Fa.slack-edge.com%2Fdf10d%2Fimg%2Favatars%2Fava_0007-512.png", "custom_css": null}, {"id": 17787, "slack_id": "U0979H0EE73", "display_name": "mika", "bio": null, "projects_count": 0, "devlogs_count": 0, "votes_count": 0, "ships_count": 0, "projects": [], "coding_time_seconds": 16705, "coding_time_seconds_today": 0, "balance": "You need to have a pocket watcher badge to view this.", "badges": [], "created_at": "2025-07-22T06:54:14.507-04:00", "updated_at": "2025-07-22T09:35:59.133-04:00", "avatar": "https://secure.gravatar.com/avatar/2cea8472c19908accc9b19bdea459811.jpg?s=512&d=https%3A%2F%2Fa.slack-edge.com%2Fdf10d%2Fimg%2Favatars%2Fava_0002-512.png", "custom_css": null}, {"id": 17788, "slack_id": "U096RJKR5C3", "display_name": "Tokuzou Tanaka", "bio": null, "projects_count": 1, "devlogs_count": 4, "votes_count": 20, "ships_count": 1, "projects": [{"id": 7587, "title": "Easy Hosting Live Stream Platform", "devlogs_count": 4, "created_at": "2025-07-22T07:37:16.620-04:00"}], "coding_time_seconds": 119995, "coding_time_seconds_today": 0, "balance": "You need to have a pocket watcher badge to view this.", "badges": [], "created_at": "2025-07-22T06:57:41.091-04:00", "updated_at": "2025-08-08T12:09:33.580-04:00", "avatar": "https://avatars.slack-edge.com/2025-07-22/9235100568946_1aba87b5a4436463526f_original.jpg", "custom_css": null}, {"id": 17789, "slack_id": "U096WSTSH6E", "display_name": "Jeelan Basha", "bio": null, "projects_count": 0, "devlogs_count": 0, "votes_count": 0, "ships_count": 0, "projects": [], "coding_time_seconds": 109484, "coding_time_seconds_today": 0, "balance": "You need to have a pocket watcher badge to view this.", "badges": [], "created_at": "2025-07-22T06:59:37.319-04:00", "updated_at": "2025-07-22T09:35:59.306-04:00", "avatar": "https://avatars.slack-edge.com/2025-07-22/9232999473269_518638f15d598d59b63b_original.png", "custom_css": null}, {"id": 17790, "slack_id": "U096X02364A", "display_name": "Malon", "bio": null, "projects_count": 0, "devlogs_count": 0, "votes_count": 0, "ships_count": 0, "projects": [], "coding_time_seconds": 442, "coding_time_seconds_today": 0, "balance": "You need to have a pocket watcher badge to view this.", "badges": [], "created_at": "2025-07-22T07:01:25.537-04:00", "updated_at": "2025-07-22T09:35:59.393-04:00", "avatar": "https://secure.gravatar.com/avatar/6434901f97d2af0b1a5e25799f0d43fc.jpg?s=512&d=https%3A%2F%2Fa.slack-edge.com%2Fdf10d%2Fimg%2Favatars%2Fava_0011-512.png", "custom_css": null}, {"id": 17791, "slack_id": "U096TT74ELW", "display_name": "KoRIOz675", "bio": null, "projects_count": 0, "devlogs_count": 0, "votes_count": 0, "ships_count": 0, "projects": [], "coding_time_seconds": 0, "coding_time_seconds_today": 0, "balance": "You need to have a pocket watcher badge to view this.", "badges": [], "created_at": "2025-07-22T07:03:06.063-04:00", "updated_at": "2025-07-22T09:35:59.487-04:00", "avatar": "https://secure.gravatar.com/avatar/798ba63dd4b937fac948cf26a411df72.jpg?s=512&d=https%3A%2F%2Fa.slack-edge.com%2Fdf10d%2Fimg%2Favatars%2Fava_0023-512.png", "custom_css": null}, {"id": 17792, "slack_id": "U096G6HC4JK", "display_name": "Erik", "bio": null, "projects_count": 0, "devlogs_count": 0, "votes_count": 0, "ships_count": 0, "projects": [], "coding_time_seconds": 0, "coding_time_seconds_today": 0, "balance": "You need to have a pocket watcher badge to view this.", "badges": [], "created_at": "2025-07-22T07:04:53.062-04:00", "updated_at": "2025-07-22T09:35:59.585-04:00", "avatar": "https://secure.gravatar.com/avatar/d431a19d536b011aa6838bde7848971f.jpg?s=512&d=https%3A%2F%2Fa.slack-edge.com%2Fdf10d%2Fimg%2Favatars%2Fava_0017-512.png", "custom_css": null}, {"id": 17793, "slack_id": "U096X114EG2", "display_name": "Bashir", "bio": null, "projects_count": 1, "devlogs_count": 1, "votes_count": 0, "ships_count": 1, "projects": [{"id": 10350, "title": "financeApp", "devlogs_count": 1, "created_at": "2025-08-06T06:38:34.139-04:00"}], "coding_time_seconds": 174687, "coding_time_seconds_today": 439, "balance": "You need to have a pocket watcher badge to view this.", "badges": [], "created_at": "2025-07-22T07:08:29.189-04:00", "updated_at": "2025-08-10T08:52:19.801-04:00", "avatar": "https://secure.gravatar.com/avatar/61178be25b9042c312687155ad9b7b12.jpg?s=512&d=https%3A%2F%2Fa.slack-edge.com%2Fdf10d%2Fimg%2Favatars%2Fava_0021-512.png", "custom_css": null}, {"id": 17794, "slack_id": "U096V0WPCER", "display_name": "Ben M", "bio": null, "projects_count": 1, "devlogs_count": 1, "votes_count": 0, "ships_count": 0, "projects": [{"id": 7580, "title": "AdPro", "devlogs_count": 1, "created_at": "2025-07-22T07:21:03.725-04:00"}], "coding_time_seconds": 460824, "coding_time_seconds_today": 0, "balance": "You need to have a pocket watcher badge to view this.", "badges": [], "created_at": "2025-07-22T07:10:43.412-04:00", "updated_at": "2025-07-22T09:35:59.774-04:00", "avatar": "https://secure.gravatar.com/avatar/0b1e92793ba61b7f3d5a3a1832c95498.jpg?s=512&d=https%3A%2F%2Fa.slack-edge.com%2Fdf10d%2Fimg%2Favatars%2Fava_0026-512.png", "custom_css": null}, {"id": 17795, "slack_id": "U097A5S21QR", "display_name": "Lucas Koji", "bio": null, "projects_count": 0, "devlogs_count": 0, "votes_count": 0, "ships_count": 0, "projects": [], "coding_time_seconds": 142, "coding_time_seconds_today": 0, "balance": "You need to have a pocket watcher badge to view this.", "badges": [], "created_at": "2025-07-22T07:11:09.547-04:00", "updated_at": "2025-07-22T09:35:59.867-04:00", "avatar": "https://secure.gravatar.com/avatar/fe7262cde1080d4891348b8468a05066.jpg?s=512&d=https%3A%2F%2Fa.slack-edge.com%2Fdf10d%2Fimg%2Favatars%2Fava_0019-512.png", "custom_css": null}, {"id": 17796, "slack_id": "U096RLN5CHZ", "display_name": "Syed Asad Raza", "bio": null, "projects_count": 0, "devlogs_count": 0, "votes_count": 0, "ships_count": 0, "projects": [], "coding_time_seconds": 0, "coding_time_seconds_today": 0, "balance": "You need to have a pocket watcher badge to view this.", "badges": [], "created_at": "2025-07-22T07:14:12.852-04:00", "updated_at": "2025-07-22T09:36:03.982-04:00", "avatar": "https://avatars.slack-edge.com/2025-07-22/9229721242643_82e7cb072666df47d919_original.png", "custom_css": null}, {"id": 17797, "slack_id": "U0809BVV3K6", "display_name": "Yamahn Tanjour", "bio": null, "projects_count": 0, "devlogs_count": 0, "votes_count": 0, "ships_count": 0, "projects": [], "coding_time_seconds": 51882, "coding_time_seconds_today": 0, "balance": "You need to have a pocket watcher badge to view this.", "badges": [], "created_at": "2025-07-22T07:14:15.149-04:00", "updated_at": "2025-07-22T09:36:04.067-04:00", "avatar": "https://secure.gravatar.com/avatar/90ea407985c6cb116dd21d7c623b8dd9.jpg?s=512&d=https%3A%2F%2Fa.slack-edge.com%2Fdf10d%2Fimg%2Favatars%2Fava_0021-512.png", "custom_css": null}, {"id": 17798, "slack_id": "U097KADN1FA", "display_name": "Ana Paula Mendes", "bio": null, "projects_count": 0, "devlogs_count": 0, "votes_count": 0, "ships_count": 0, "projects": [], "coding_time_seconds": 0, "coding_time_seconds_today": 0, "balance": "You need to have a pocket watcher badge to view this.", "badges": [], "created_at": "2025-07-22T07:15:00.755-04:00", "updated_at": "2025-07-22T09:36:04.158-04:00", "avatar": "https://secure.gravatar.com/avatar/d73c76d90400a015899ddbfee462ade9.jpg?s=512&d=https%3A%2F%2Fa.slack-edge.com%2Fdf10d%2Fimg%2Favatars%2Fava_0000-512.png", "custom_css": null}, {"id": 17799, "slack_id": "U096RLUA059", "display_name": "Aman Khare", "bio": null, "projects_count": 0, "devlogs_count": 0, "votes_count": 0, "ships_count": 0, "projects": [], "coding_time_seconds": 0, "coding_time_seconds_today": 0, "balance": "You need to have a pocket watcher badge to view this.", "badges": [], "created_at": "2025-07-22T07:15:11.817-04:00", "updated_at": "2025-07-22T09:36:04.247-04:00", "avatar": "https://secure.gravatar.com/avatar/b305c157b9c36e6a1265fb3902d98902.jpg?s=512&d=https%3A%2F%2Fa.slack-edge.com%2Fdf10d%2Fimg%2Favatars%2Fava_0006-512.png", "custom_css": null}, {"id": 17800, "slack_id": "U096TU98F4N", "display_name": "Saumya Sanghvi", "bio": null, "projects_count": 0, "devlogs_count": 0, "votes_count": 0, "ships_count": 0, "projects": [], "coding_time_seconds": 0, "coding_time_seconds_today": 0, "balance": "You need to have a pocket watcher badge to view this.", "badges": [], "created_at": "2025-07-22T07:15:37.246-04:00", "updated_at": "2025-07-22T09:36:08.355-04:00", "avatar": "https://avatars.slack-edge.com/2025-07-22/9220276985127_1c76d63d4151fed5c3f5_original.jpg", "custom_css": null}, {"id": 17801, "slack_id": "U096Y7WPRL4", "display_name": "MISSINGNO", "bio": null, "projects_count": 0, "devlogs_count": 0, "votes_count": 0, "ships_count": 0, "projects": [], "coding_time_seconds": 0, "coding_time_seconds_today": 0, "balance": "You need to have a pocket watcher badge to view this.", "badges": [], "created_at": "2025-07-22T07:15:39.803-04:00", "updated_at": "2025-07-22T09:36:08.445-04:00", "avatar": "https://avatars.slack-edge.com/2025-07-22/9229756654307_fe9eeaaa5928b9a7dd8f_original.jpg", "custom_css": null}, {"id": 17802, "slack_id": "U096RLXB04B", "display_name": "Rayaan", "bio": null, "projects_count": 0, "devlogs_count": 0, "votes_count": 0, "ships_count": 0, "projects": [], "coding_time_seconds": 0, "coding_time_seconds_today": 0, "balance": "You need to have a pocket watcher badge to view this.", "badges": [], "created_at": "2025-07-22T07:15:54.803-04:00", "updated_at": "2025-07-22T21:34:29.881-04:00", "avatar": "https://secure.gravatar.com/avatar/1ed7ba52070427b53914f6c3318347b6.jpg?s=512&d=https%3A%2F%2Fa.slack-edge.com%2Fdf10d%2Fimg%2Favatars%2Fava_0008-512.png", "custom_css": null}, {"id": 17803, "slack_id": "U096X1R6FA6", "display_name": "Priya Maheshwari", "bio": null, "projects_count": 0, "devlogs_count": 0, "votes_count": 0, "ships_count": 0, "projects": [], "coding_time_seconds": 0, "coding_time_seconds_today": 0, "balance": "You need to have a pocket watcher badge to view this.", "badges": [], "created_at": "2025-07-22T07:17:11.195-04:00", "updated_at": "2025-07-22T09:36:08.629-04:00", "avatar": "https://secure.gravatar.com/avatar/8ccef5c9d30fc3a264468f0dc8fab4ef.jpg?s=512&d=https%3A%2F%2Fa.slack-edge.com%2Fdf10d%2Fimg%2Favatars%2Fava_0025-512.png", "custom_css": null}, {"id": 17804, "slack_id": "U096TV3DRN2", "display_name": "ili\u00e8s Ayachi", "bio": null, "projects_count": 0, "devlogs_count": 0, "votes_count": 0, "ships_count": 0, "projects": [], "coding_time_seconds": 0, "coding_time_seconds_today": 0, "balance": "You need to have a pocket watcher badge to view this.", "badges": [], "created_at": "2025-07-22T07:17:23.610-04:00", "updated_at": "2025-07-22T09:36:08.717-04:00", "avatar": "https://avatars.slack-edge.com/2025-07-22/9236293017348_17905440fdcee27070bb_original.jpg", "custom_css": null}, {"id": 17805, "slack_id": "U097KASJ2L8", "display_name": "caesar", "bio": null, "projects_count": 0, "devlogs_count": 0, "votes_count": 0, "ships_count": 0, "projects": [], "coding_time_seconds": 0, "coding_time_seconds_today": 0, "balance": "You need to have a pocket watcher badge to view this.", "badges": [], "created_at": "2025-07-22T07:18:44.782-04:00", "updated_at": "2025-07-22T09:36:08.815-04:00", "avatar": "https://secure.gravatar.com/avatar/04611e58640c8b8830d36d9232058247.jpg?s=512&d=https%3A%2F%2Fa.slack-edge.com%2Fdf10d%2Fimg%2Favatars%2Fava_0006-512.png", "custom_css": null}], "pagination": {"page": 886, "pages": 1192, "count": 23828, "items": 20}}