{"users": [{"id": 17806, "slack_id": "U096TAXPB1T", "display_name": "Brilynd Madeya", "bio": null, "projects_count": 0, "devlogs_count": 0, "votes_count": 0, "ships_count": 0, "projects": [], "coding_time_seconds": 0, "coding_time_seconds_today": 0, "balance": "You need to have a pocket watcher badge to view this.", "badges": [], "created_at": "2025-07-22T07:19:07.380-04:00", "updated_at": "2025-07-22T09:36:08.911-04:00", "avatar": "https://secure.gravatar.com/avatar/44d72dfda9853f11c65fc54ab56db752.jpg?s=512&d=https%3A%2F%2Fa.slack-edge.com%2Fdf10d%2Fimg%2Favatars%2Fava_0017-512.png", "custom_css": null}, {"id": 17807, "slack_id": "U096RLZCMDH", "display_name": "Brayan F Abila", "bio": null, "projects_count": 0, "devlogs_count": 0, "votes_count": 0, "ships_count": 0, "projects": [], "coding_time_seconds": 0, "coding_time_seconds_today": 0, "balance": "You need to have a pocket watcher badge to view this.", "badges": [], "created_at": "2025-07-22T07:19:31.383-04:00", "updated_at": "2025-07-22T09:36:09.008-04:00", "avatar": "https://avatars.slack-edge.com/2025-07-22/9229742431939_49e039b2bff67d16c2fc_original.jpg", "custom_css": null}, {"id": 17808, "slack_id": "U097A75ELL9", "display_name": "avi", "bio": null, "projects_count": 0, "devlogs_count": 0, "votes_count": 0, "ships_count": 0, "projects": [], "coding_time_seconds": 1180, "coding_time_seconds_today": 0, "balance": "You need to have a pocket watcher badge to view this.", "badges": [], "created_at": "2025-07-22T07:21:52.675-04:00", "updated_at": "2025-07-22T09:36:09.086-04:00", "avatar": "https://secure.gravatar.com/avatar/a573de9f496dd63ee4aa432c1ad8bf09.jpg?s=512&d=https%3A%2F%2Fa.slack-edge.com%2Fdf10d%2Fimg%2Favatars%2Fava_0024-512.png", "custom_css": null}, {"id": 17809, "slack_id": "U096EUZN8J3", "display_name": "Sean Burger", "bio": null, "projects_count": 0, "devlogs_count": 0, "votes_count": 0, "ships_count": 0, "projects": [], "coding_time_seconds": 124956, "coding_time_seconds_today": 3612, "balance": "You need to have a pocket watcher badge to view this.", "badges": [], "created_at": "2025-07-22T07:24:44.638-04:00", "updated_at": "2025-07-22T09:36:13.213-04:00", "avatar": "https://secure.gravatar.com/avatar/6b91f61e232a8548fb729b6beeb2f659.jpg?s=512&d=https%3A%2F%2Fa.slack-edge.com%2Fdf10d%2Fimg%2Favatars%2Fava_0021-512.png", "custom_css": null}, {"id": 17810, "slack_id": "U097A7FS49X", "display_name": "Kausik D", "bio": null, "projects_count": 0, "devlogs_count": 0, "votes_count": 0, "ships_count": 0, "projects": [], "coding_time_seconds": 175279, "coding_time_seconds_today": 541, "balance": "You need to have a pocket watcher badge to view this.", "badges": [], "created_at": "2025-07-22T07:25:03.364-04:00", "updated_at": "2025-07-22T09:36:13.300-04:00", "avatar": "https://secure.gravatar.com/avatar/edf45ed25368a19211a8601a7dfee997.jpg?s=512&d=https%3A%2F%2Fa.slack-edge.com%2Fdf10d%2Fimg%2Favatars%2Fava_0010-512.png", "custom_css": null}, {"id": 17811, "slack_id": "U096U0BD4TG", "display_name": "Aaryan", "bio": null, "projects_count": 0, "devlogs_count": 0, "votes_count": 0, "ships_count": 0, "projects": [], "coding_time_seconds": 0, "coding_time_seconds_today": 0, "balance": "You need to have a pocket watcher badge to view this.", "badges": [], "created_at": "2025-07-22T07:25:09.119-04:00", "updated_at": "2025-07-22T09:36:13.414-04:00", "avatar": "https://secure.gravatar.com/avatar/3f4021357124397cc30b9b9454f2e433.jpg?s=512&d=https%3A%2F%2Fa.slack-edge.com%2Fdf10d%2Fimg%2Favatars%2Fava_0003-512.png", "custom_css": null}, {"id": 17812, "slack_id": "U096Y8ZVASG", "display_name": "Tanishka Das", "bio": null, "projects_count": 0, "devlogs_count": 0, "votes_count": 0, "ships_count": 0, "projects": [], "coding_time_seconds": 0, "coding_time_seconds_today": 0, "balance": "You need to have a pocket watcher badge to view this.", "badges": [], "created_at": "2025-07-22T07:25:12.804-04:00", "updated_at": "2025-07-22T09:36:13.505-04:00", "avatar": "https://avatars.slack-edge.com/2025-07-22/9233109325397_54cabb4ef50e04733352_original.jpg", "custom_css": null}, {"id": 17813, "slack_id": "U096G8UDYNB", "display_name": "Mohamed Reda", "bio": null, "projects_count": 0, "devlogs_count": 0, "votes_count": 0, "ships_count": 0, "projects": [], "coding_time_seconds": 447902, "coding_time_seconds_today": 0, "balance": "You need to have a pocket watcher badge to view this.", "badges": [], "created_at": "2025-07-22T07:25:18.257-04:00", "updated_at": "2025-07-22T09:36:13.587-04:00", "avatar": "https://secure.gravatar.com/avatar/7e3b95c27c0bc98697917899062c40ae.jpg?s=512&d=https%3A%2F%2Fa.slack-edge.com%2Fdf10d%2Fimg%2Favatars%2Fava_0018-512.png", "custom_css": null}, {"id": 17814, "slack_id": "U096Y93KGQL", "display_name": "Zancmok", "bio": null, "projects_count": 0, "devlogs_count": 0, "votes_count": 0, "ships_count": 0, "projects": [], "coding_time_seconds": 0, "coding_time_seconds_today": 0, "balance": "You need to have a pocket watcher badge to view this.", "badges": [], "created_at": "2025-07-22T07:25:23.906-04:00", "updated_at": "2025-07-22T09:36:13.680-04:00", "avatar": "https://secure.gravatar.com/avatar/e16f57a55a3f2ec26b401f22699914c5.jpg?s=512&d=https%3A%2F%2Fa.slack-edge.com%2Fdf10d%2Fimg%2Favatars%2Fava_0013-512.png", "custom_css": null}, {"id": 17815, "slack_id": "U096UJPQ6JY", "display_name": "Robin Angles", "bio": null, "projects_count": 0, "devlogs_count": 0, "votes_count": 0, "ships_count": 0, "projects": [], "coding_time_seconds": 0, "coding_time_seconds_today": 0, "balance": "You need to have a pocket watcher badge to view this.", "badges": [], "created_at": "2025-07-22T07:25:46.684-04:00", "updated_at": "2025-07-22T09:36:13.769-04:00", "avatar": "https://secure.gravatar.com/avatar/9b63e389b83944d97792fae2dbebb536.jpg?s=512&d=https%3A%2F%2Fa.slack-edge.com%2Fdf10d%2Fimg%2Favatars%2Fava_0008-512.png", "custom_css": null}, {"id": 17816, "slack_id": "U097KBUVDDE", "display_name": "Shariar Hasan", "bio": null, "projects_count": 0, "devlogs_count": 0, "votes_count": 0, "ships_count": 0, "projects": [], "coding_time_seconds": 0, "coding_time_seconds_today": 0, "balance": "You need to have a pocket watcher badge to view this.", "badges": [], "created_at": "2025-07-22T07:26:39.217-04:00", "updated_at": "2025-07-22T09:36:17.898-04:00", "avatar": "https://secure.gravatar.com/avatar/a7a4fca63f3240946035367143f29992.jpg?s=512&d=https%3A%2F%2Fa.slack-edge.com%2Fdf10d%2Fimg%2Favatars%2Fava_0024-512.png", "custom_css": null}, {"id": 17817, "slack_id": "U096QFH8QHZ", "display_name": "Dima", "bio": null, "projects_count": 0, "devlogs_count": 0, "votes_count": 0, "ships_count": 0, "projects": [], "coding_time_seconds": 0, "coding_time_seconds_today": 0, "balance": "You need to have a pocket watcher badge to view this.", "badges": [], "created_at": "2025-07-22T07:29:56.004-04:00", "updated_at": "2025-07-22T09:36:17.994-04:00", "avatar": "https://secure.gravatar.com/avatar/e2644700b33157ffa8d0e4e4e749f833.jpg?s=512&d=https%3A%2F%2Fa.slack-edge.com%2Fdf10d%2Fimg%2Favatars%2Fava_0016-512.png", "custom_css": null}, {"id": 17818, "slack_id": "U096RMWCGBV", "display_name": "Virat Kansal", "bio": null, "projects_count": 0, "devlogs_count": 0, "votes_count": 0, "ships_count": 0, "projects": [], "coding_time_seconds": 0, "coding_time_seconds_today": 0, "balance": "You need to have a pocket watcher badge to view this.", "badges": [], "created_at": "2025-07-22T07:32:46.425-04:00", "updated_at": "2025-07-22T09:36:18.086-04:00", "avatar": "https://secure.gravatar.com/avatar/6b72f29855a6ceb0b5d72af51d704c03.jpg?s=512&d=https%3A%2F%2Fa.slack-edge.com%2Fdf10d%2Fimg%2Favatars%2Fava_0017-512.png", "custom_css": null}, {"id": 17819, "slack_id": "U096X3MS5LJ", "display_name": "Rajesh Natti", "bio": null, "projects_count": 0, "devlogs_count": 0, "votes_count": 0, "ships_count": 0, "projects": [], "coding_time_seconds": 0, "coding_time_seconds_today": 0, "balance": "You need to have a pocket watcher badge to view this.", "badges": [], "created_at": "2025-07-22T07:32:47.217-04:00", "updated_at": "2025-07-22T09:36:18.184-04:00", "avatar": "https://secure.gravatar.com/avatar/f87ee9183a32ed5834043838878b7816.jpg?s=512&d=https%3A%2F%2Fa.slack-edge.com%2Fdf10d%2Fimg%2Favatars%2Fava_0021-512.png", "custom_css": null}, {"id": 17820, "slack_id": "U097A8K5HT3", "display_name": "Mugen", "bio": null, "projects_count": 0, "devlogs_count": 0, "votes_count": 0, "ships_count": 0, "projects": [], "coding_time_seconds": 0, "coding_time_seconds_today": 0, "balance": "You need to have a pocket watcher badge to view this.", "badges": [], "created_at": "2025-07-22T07:34:02.439-04:00", "updated_at": "2025-07-22T09:36:18.278-04:00", "avatar": "https://secure.gravatar.com/avatar/d37e7a3c17229fd3bda2c8be3912dee9.jpg?s=512&d=https%3A%2F%2Fa.slack-edge.com%2Fdf10d%2Fimg%2Favatars%2Fava_0001-512.png", "custom_css": null}, {"id": 17821, "slack_id": "U096X3Z7E2W", "display_name": "John Nyamweya", "bio": null, "projects_count": 0, "devlogs_count": 0, "votes_count": 0, "ships_count": 0, "projects": [], "coding_time_seconds": 0, "coding_time_seconds_today": 0, "balance": "You need to have a pocket watcher badge to view this.", "badges": [], "created_at": "2025-07-22T07:35:09.147-04:00", "updated_at": "2025-07-22T09:36:18.365-04:00", "avatar": "https://avatars.slack-edge.com/2025-07-22/9257449854960_feb759e8d4461f9f6141_original.jpg", "custom_css": null}, {"id": 17822, "slack_id": "U096RPK2M51", "display_name": "Prathamesh", "bio": null, "projects_count": 0, "devlogs_count": 0, "votes_count": 0, "ships_count": 0, "projects": [], "coding_time_seconds": 214525, "coding_time_seconds_today": 1432, "balance": "You need to have a pocket watcher badge to view this.", "badges": [], "created_at": "2025-07-22T07:37:11.212-04:00", "updated_at": "2025-07-22T09:36:18.461-04:00", "avatar": "https://secure.gravatar.com/avatar/7476d82cb075e499085d55c28b996a22.jpg?s=512&d=https%3A%2F%2Fa.slack-edge.com%2Fdf10d%2Fimg%2Favatars%2Fava_0017-512.png", "custom_css": null}, {"id": 17823, "slack_id": "U097KCWDN4Q", "display_name": "Jha Aditya", "bio": null, "projects_count": 0, "devlogs_count": 0, "votes_count": 0, "ships_count": 0, "projects": [], "coding_time_seconds": 0, "coding_time_seconds_today": 0, "balance": "You need to have a pocket watcher badge to view this.", "badges": [], "created_at": "2025-07-22T07:38:41.976-04:00", "updated_at": "2025-07-22T09:36:18.562-04:00", "avatar": "https://avatars.slack-edge.com/2025-07-22/9248328493649_15f22b9574a9fa5aa04e_original.png", "custom_css": null}, {"id": 17824, "slack_id": "U096X4CBBFU", "display_name": "kyomoto", "bio": null, "projects_count": 0, "devlogs_count": 0, "votes_count": 0, "ships_count": 0, "projects": [], "coding_time_seconds": 0, "coding_time_seconds_today": 0, "balance": "You need to have a pocket watcher badge to view this.", "badges": [], "created_at": "2025-07-22T07:40:12.415-04:00", "updated_at": "2025-07-22T09:36:18.646-04:00", "avatar": "https://secure.gravatar.com/avatar/29a614682704b544061381c0b972df35.jpg?s=512&d=https%3A%2F%2Fa.slack-edge.com%2Fdf10d%2Fimg%2Favatars%2Fava_0005-512.png", "custom_css": null}, {"id": 17825, "slack_id": "U096GAFJN1M", "display_name": "Janek", "bio": null, "projects_count": 0, "devlogs_count": 0, "votes_count": 0, "ships_count": 0, "projects": [], "coding_time_seconds": 5651, "coding_time_seconds_today": 0, "balance": "You need to have a pocket watcher badge to view this.", "badges": [], "created_at": "2025-07-22T07:40:26.950-04:00", "updated_at": "2025-07-22T09:36:18.745-04:00", "avatar": "https://secure.gravatar.com/avatar/d1e5596b3832c9b559095bac49ac2611.jpg?s=512&d=https%3A%2F%2Fa.slack-edge.com%2Fdf10d%2Fimg%2Favatars%2Fava_0014-512.png", "custom_css": null}], "pagination": {"page": 887, "pages": 1192, "count": 23828, "items": 20}}