{"users": [{"id": 17826, "slack_id": "U097A7E3CD7", "display_name": "Kunal jain", "bio": null, "projects_count": 0, "devlogs_count": 0, "votes_count": 0, "ships_count": 0, "projects": [], "coding_time_seconds": 0, "coding_time_seconds_today": 0, "balance": "You need to have a pocket watcher badge to view this.", "badges": [], "created_at": "2025-07-22T07:41:08.807-04:00", "updated_at": "2025-07-22T09:36:18.848-04:00", "avatar": "https://secure.gravatar.com/avatar/b7e18ef80660b919ff66c906c7bf8bf5.jpg?s=512&d=https%3A%2F%2Fa.slack-edge.com%2Fdf10d%2Fimg%2Favatars%2Fava_0023-512.png", "custom_css": null}, {"id": 17827, "slack_id": "U096U2D1D7G", "display_name": "Sumit Kumar", "bio": null, "projects_count": 0, "devlogs_count": 0, "votes_count": 0, "ships_count": 0, "projects": [], "coding_time_seconds": 0, "coding_time_seconds_today": 0, "balance": "You need to have a pocket watcher badge to view this.", "badges": [], "created_at": "2025-07-22T07:41:26.777-04:00", "updated_at": "2025-07-22T09:36:18.941-04:00", "avatar": "https://secure.gravatar.com/avatar/4ac4e8ad925028d93b51f53b4f6d6b2b.jpg?s=512&d=https%3A%2F%2Fa.slack-edge.com%2Fdf10d%2Fimg%2Favatars%2Fava_0004-512.png", "custom_css": null}, {"id": 17828, "slack_id": "U097KDMQ448", "display_name": "Somesh Ranjan Biswal", "bio": null, "projects_count": 0, "devlogs_count": 0, "votes_count": 0, "ships_count": 0, "projects": [], "coding_time_seconds": 0, "coding_time_seconds_today": 0, "balance": "You need to have a pocket watcher badge to view this.", "badges": [], "created_at": "2025-07-22T07:42:36.769-04:00", "updated_at": "2025-08-18T10:20:47.819-04:00", "avatar": "https://avatars.slack-edge.com/2025-07-22/9236399144740_108d6d885a4f05615beb_original.jpg", "custom_css": null}, {"id": 17829, "slack_id": "U096V542DFX", "display_name": "Vishnu V", "bio": null, "projects_count": 0, "devlogs_count": 0, "votes_count": 0, "ships_count": 0, "projects": [], "coding_time_seconds": 0, "coding_time_seconds_today": 0, "balance": "You need to have a pocket watcher badge to view this.", "badges": [], "created_at": "2025-07-22T07:44:56.215-04:00", "updated_at": "2025-07-25T11:17:26.558-04:00", "avatar": "https://avatars.slack-edge.com/2025-07-22/9232111247670_57167c2067318c49bb41_original.png", "custom_css": null}, {"id": 17830, "slack_id": "U097KE1KQ5N", "display_name": "Antoine Contes", "bio": null, "projects_count": 1, "devlogs_count": 1, "votes_count": 0, "ships_count": 0, "projects": [{"id": 7639, "title": "Trading bot", "devlogs_count": 1, "created_at": "2025-07-22T11:26:39.676-04:00"}], "coding_time_seconds": 18608, "coding_time_seconds_today": 0, "balance": "You need to have a pocket watcher badge to view this.", "badges": [], "created_at": "2025-07-22T07:46:07.669-04:00", "updated_at": "2025-07-22T12:54:08.012-04:00", "avatar": "https://avatars.slack-edge.com/2025-07-22/9233197297109_a90ee798a5721d2a7976_original.png", "custom_css": null}, {"id": 17831, "slack_id": "U097A9XN849", "display_name": "Strafbefehl", "bio": "Solo developer from Germany", "projects_count": 1, "devlogs_count": 0, "votes_count": 0, "ships_count": 0, "projects": [{"id": 7595, "title": "Vault Keeper", "devlogs_count": 0, "created_at": "2025-07-22T08:06:39.856-04:00"}], "coding_time_seconds": 2661, "coding_time_seconds_today": 0, "balance": "You need to have a pocket watcher badge to view this.", "badges": [], "created_at": "2025-07-22T07:46:57.058-04:00", "updated_at": "2025-07-22T09:36:19.380-04:00", "avatar": "https://secure.gravatar.com/avatar/7fdda807a074d6de6e9c1a5a66728822.jpg?s=512&d=https%3A%2F%2Fa.slack-edge.com%2Fdf10d%2Fimg%2Favatars%2Fava_0010-512.png", "custom_css": null}, {"id": 17832, "slack_id": "U097KECUEV6", "display_name": "harsheye", "bio": null, "projects_count": 0, "devlogs_count": 0, "votes_count": 0, "ships_count": 0, "projects": [], "coding_time_seconds": 0, "coding_time_seconds_today": 0, "balance": "You need to have a pocket watcher badge to view this.", "badges": [], "created_at": "2025-07-22T07:48:30.270-04:00", "updated_at": "2025-07-22T09:36:19.462-04:00", "avatar": "https://secure.gravatar.com/avatar/5ee548a5225ae98fc2ff8dbc1ff0f841.jpg?s=512&d=https%3A%2F%2Fa.slack-edge.com%2Fdf10d%2Fimg%2Favatars%2Fava_0014-512.png", "custom_css": null}, {"id": 17833, "slack_id": "U096U2PFGRL", "display_name": "Talha", "bio": null, "projects_count": 0, "devlogs_count": 0, "votes_count": 0, "ships_count": 0, "projects": [], "coding_time_seconds": 0, "coding_time_seconds_today": 0, "balance": "You need to have a pocket watcher badge to view this.", "badges": [], "created_at": "2025-07-22T07:48:37.499-04:00", "updated_at": "2025-07-22T09:36:19.550-04:00", "avatar": "https://secure.gravatar.com/avatar/dc2e81698fa24c21d8e1e52c129937ca.jpg?s=512&d=https%3A%2F%2Fa.slack-edge.com%2Fdf10d%2Fimg%2Favatars%2Fava_0019-512.png", "custom_css": null}, {"id": 17834, "slack_id": "U096V5VG23X", "display_name": "Andr\u00e9", "bio": null, "projects_count": 0, "devlogs_count": 0, "votes_count": 0, "ships_count": 0, "projects": [], "coding_time_seconds": 0, "coding_time_seconds_today": 0, "balance": "You need to have a pocket watcher badge to view this.", "badges": [], "created_at": "2025-07-22T07:49:37.137-04:00", "updated_at": "2025-07-22T09:36:19.634-04:00", "avatar": "https://secure.gravatar.com/avatar/917a8dc98c4f6df25a09727ab87a6e78.jpg?s=512&d=https%3A%2F%2Fa.slack-edge.com%2Fdf10d%2Fimg%2Favatars%2Fava_0004-512.png", "custom_css": null}, {"id": 17835, "slack_id": "U096YC6RUAG", "display_name": "Luv", "bio": null, "projects_count": 0, "devlogs_count": 0, "votes_count": 0, "ships_count": 0, "projects": [], "coding_time_seconds": 0, "coding_time_seconds_today": 0, "balance": "You need to have a pocket watcher badge to view this.", "badges": [], "created_at": "2025-07-22T07:50:27.065-04:00", "updated_at": "2025-07-22T09:36:19.781-04:00", "avatar": "https://secure.gravatar.com/avatar/0fcad85ac18cbff018439366e934dee0.jpg?s=512&d=https%3A%2F%2Fa.slack-edge.com%2Fdf10d%2Fimg%2Favatars%2Fava_0019-512.png", "custom_css": null}, {"id": 17836, "slack_id": "U096U3N1RN2", "display_name": "Prakhar Tamta", "bio": null, "projects_count": 0, "devlogs_count": 0, "votes_count": 0, "ships_count": 0, "projects": [], "coding_time_seconds": 0, "coding_time_seconds_today": 0, "balance": "You need to have a pocket watcher badge to view this.", "badges": [], "created_at": "2025-07-22T07:51:31.642-04:00", "updated_at": "2025-07-23T14:23:11.141-04:00", "avatar": "https://avatars.slack-edge.com/2025-07-22/9236435985764_321b1c803987b295ef73_original.jpg", "custom_css": null}, {"id": 17837, "slack_id": "U096YCGNKDJ", "display_name": "Priyam Lahiri", "bio": null, "projects_count": 0, "devlogs_count": 0, "votes_count": 0, "ships_count": 0, "projects": [], "coding_time_seconds": 0, "coding_time_seconds_today": 0, "balance": "You need to have a pocket watcher badge to view this.", "badges": [], "created_at": "2025-07-22T07:52:51.940-04:00", "updated_at": "2025-07-24T06:57:05.883-04:00", "avatar": "https://secure.gravatar.com/avatar/48ea561f08276a1ec5e2a54dcbf266ae.jpg?s=512&d=https%3A%2F%2Fa.slack-edge.com%2Fdf10d%2Fimg%2Favatars%2Fava_0012-512.png", "custom_css": null}, {"id": 17838, "slack_id": "U096U42R2HL", "display_name": "rishav", "bio": "\ud83e\udda5\ud83e\udda5\ud83e\udda5", "projects_count": 0, "devlogs_count": 39, "votes_count": 74, "ships_count": 0, "projects": [], "coding_time_seconds": 773624, "coding_time_seconds_today": 0, "balance": "You need to have a pocket watcher badge to view this.", "badges": [], "created_at": "2025-07-22T07:55:13.087-04:00", "updated_at": "2025-09-23T16:45:02.903-04:00", "avatar": "https://avatars.slack-edge.com/2025-07-22/9237384737218_10e1350e058f82ce3975_original.jpg", "custom_css": null}, {"id": 17839, "slack_id": "U096GBSLM2T", "display_name": "yahya", "bio": null, "projects_count": 0, "devlogs_count": 0, "votes_count": 0, "ships_count": 0, "projects": [], "coding_time_seconds": 0, "coding_time_seconds_today": 0, "balance": "You need to have a pocket watcher badge to view this.", "badges": [], "created_at": "2025-07-22T07:55:36.869-04:00", "updated_at": "2025-09-06T15:33:53.053-04:00", "avatar": "https://avatars.slack-edge.com/2025-09-06/9470013064693_bd1e3f10ac31eb7a8e75_original.png", "custom_css": null}, {"id": 17840, "slack_id": "U096RRX1LRZ", "display_name": "Naole", "bio": null, "projects_count": 1, "devlogs_count": 5, "votes_count": 4, "ships_count": 1, "projects": [{"id": 7598, "title": "Summer bot", "devlogs_count": 5, "created_at": "2025-07-22T08:30:22.790-04:00"}], "coding_time_seconds": 25694, "coding_time_seconds_today": 0, "balance": "You need to have a pocket watcher badge to view this.", "badges": [], "created_at": "2025-07-22T07:56:46.739-04:00", "updated_at": "2025-07-22T09:36:20.216-04:00", "avatar": "https://avatars.slack-edge.com/2025-07-22/9257637162736_702fbfe3d40ebc781fe0_original.png", "custom_css": null}, {"id": 17841, "slack_id": "U096U4L8CK0", "display_name": "Saksham Agarwal", "bio": null, "projects_count": 0, "devlogs_count": 0, "votes_count": 0, "ships_count": 0, "projects": [], "coding_time_seconds": 0, "coding_time_seconds_today": 0, "balance": "You need to have a pocket watcher badge to view this.", "badges": [], "created_at": "2025-07-22T08:00:01.919-04:00", "updated_at": "2025-07-22T09:36:20.299-04:00", "avatar": "https://avatars.slack-edge.com/2025-07-22/9248417805041_a7050af07c6df3ea3440_original.png", "custom_css": null}, {"id": 17842, "slack_id": "U096YCU6S12", "display_name": "Stunty Joe", "bio": null, "projects_count": 0, "devlogs_count": 0, "votes_count": 0, "ships_count": 0, "projects": [], "coding_time_seconds": 0, "coding_time_seconds_today": 0, "balance": "You need to have a pocket watcher badge to view this.", "badges": [], "created_at": "2025-07-22T08:01:07.731-04:00", "updated_at": "2025-07-22T09:36:20.384-04:00", "avatar": "https://secure.gravatar.com/avatar/053f87fea69b81918498e8b11e174a2e.jpg?s=512&d=https%3A%2F%2Fa.slack-edge.com%2Fdf10d%2Fimg%2Favatars%2Fava_0023-512.png", "custom_css": null}, {"id": 17843, "slack_id": "U096GCQD33R", "display_name": "ilkay", "bio": null, "projects_count": 0, "devlogs_count": 0, "votes_count": 0, "ships_count": 0, "projects": [], "coding_time_seconds": 0, "coding_time_seconds_today": 0, "balance": "You need to have a pocket watcher badge to view this.", "badges": [], "created_at": "2025-07-22T08:01:16.076-04:00", "updated_at": "2025-07-22T09:36:20.470-04:00", "avatar": "https://secure.gravatar.com/avatar/b236aa84840824ded89c2108c9f83964.jpg?s=512&d=https%3A%2F%2Fa.slack-edge.com%2Fdf10d%2Fimg%2Favatars%2Fava_0005-512.png", "custom_css": null}, {"id": 17844, "slack_id": "U096U0W5QS2", "display_name": "alex", "bio": null, "projects_count": 0, "devlogs_count": 0, "votes_count": 0, "ships_count": 0, "projects": [], "coding_time_seconds": 0, "coding_time_seconds_today": 0, "balance": "You need to have a pocket watcher badge to view this.", "badges": [], "created_at": "2025-07-22T08:01:23.864-04:00", "updated_at": "2025-07-22T09:36:20.551-04:00", "avatar": "https://avatars.slack-edge.com/2025-07-22/9248428820785_5a681596f83cbffc421b_original.png", "custom_css": null}, {"id": 17845, "slack_id": "U096X7MP1KL", "display_name": "Daniel", "bio": null, "projects_count": 0, "devlogs_count": 0, "votes_count": 0, "ships_count": 0, "projects": [], "coding_time_seconds": 0, "coding_time_seconds_today": 0, "balance": "You need to have a pocket watcher badge to view this.", "badges": [], "created_at": "2025-07-22T08:02:36.801-04:00", "updated_at": "2025-07-22T10:49:13.511-04:00", "avatar": "https://secure.gravatar.com/avatar/63df60925a1e559d18b68fd6ed99d25f.jpg?s=512&d=https%3A%2F%2Fa.slack-edge.com%2Fdf10d%2Fimg%2Favatars%2Fava_0018-512.png", "custom_css": null}], "pagination": {"page": 888, "pages": 1192, "count": 23828, "items": 20}}