{"users": [{"id": 17846, "slack_id": "U096V7T1Z9B", "display_name": "Siokonbu", "bio": null, "projects_count": 0, "devlogs_count": 0, "votes_count": 0, "ships_count": 0, "projects": [], "coding_time_seconds": 54859, "coding_time_seconds_today": 0, "balance": "You need to have a pocket watcher badge to view this.", "badges": [], "created_at": "2025-07-22T08:02:56.828-04:00", "updated_at": "2025-07-22T09:36:20.713-04:00", "avatar": "https://avatars.slack-edge.com/2025-07-22/9220580290999_1e69afefa1e8eb78fec7_original.png", "custom_css": null}, {"id": 17847, "slack_id": "U097KG40SUQ", "display_name": "Ritovan", "bio": null, "projects_count": 0, "devlogs_count": 0, "votes_count": 0, "ships_count": 0, "projects": [], "coding_time_seconds": 0, "coding_time_seconds_today": 0, "balance": "You need to have a pocket watcher badge to view this.", "badges": [], "created_at": "2025-07-22T08:03:07.558-04:00", "updated_at": "2025-07-22T09:36:24.848-04:00", "avatar": "https://secure.gravatar.com/avatar/852fb251e62ba7cc41ba82aa3fa7a0ba.jpg?s=512&d=https%3A%2F%2Fa.slack-edge.com%2Fdf10d%2Fimg%2Favatars%2Fava_0003-512.png", "custom_css": null}, {"id": 17848, "slack_id": "U097ACH08V7", "display_name": "TANISHA BANSAL", "bio": null, "projects_count": 0, "devlogs_count": 0, "votes_count": 0, "ships_count": 0, "projects": [], "coding_time_seconds": 0, "coding_time_seconds_today": 0, "balance": "You need to have a pocket watcher badge to view this.", "badges": [], "created_at": "2025-07-22T08:03:11.282-04:00", "updated_at": "2025-07-22T09:36:24.936-04:00", "avatar": "https://avatars.slack-edge.com/2025-07-22/9257571210032_b21c185dc68d340a416a_original.png", "custom_css": null}, {"id": 17849, "slack_id": "U096X7U2WV8", "display_name": "Anil Kumar Reddy Konda", "bio": null, "projects_count": 0, "devlogs_count": 0, "votes_count": 0, "ships_count": 0, "projects": [], "coding_time_seconds": 0, "coding_time_seconds_today": 0, "balance": "You need to have a pocket watcher badge to view this.", "badges": [], "created_at": "2025-07-22T08:03:41.077-04:00", "updated_at": "2025-07-22T09:36:25.027-04:00", "avatar": "https://avatars.slack-edge.com/2025-07-22/9235282064162_1f0b19a77587cfd2f590_original.png", "custom_css": null}, {"id": 17850, "slack_id": "U097KGJTPJL", "display_name": "Saravana Krishnan", "bio": null, "projects_count": 0, "devlogs_count": 0, "votes_count": 0, "ships_count": 0, "projects": [], "coding_time_seconds": 0, "coding_time_seconds_today": 0, "balance": "You need to have a pocket watcher badge to view this.", "badges": [], "created_at": "2025-07-22T08:04:42.921-04:00", "updated_at": "2025-07-22T09:36:25.119-04:00", "avatar": "https://avatars.slack-edge.com/2025-07-22/9232201499766_004b4b0ef969e038c721_original.png", "custom_css": null}, {"id": 17851, "slack_id": "U096YEGP5U4", "display_name": "thesakshidiggikar", "bio": null, "projects_count": 0, "devlogs_count": 0, "votes_count": 0, "ships_count": 0, "projects": [], "coding_time_seconds": 0, "coding_time_seconds_today": 0, "balance": "You need to have a pocket watcher badge to view this.", "badges": [], "created_at": "2025-07-22T08:06:21.956-04:00", "updated_at": "2025-07-22T09:36:25.214-04:00", "avatar": "https://secure.gravatar.com/avatar/f423ce6f9c0606a832450d058c36d089.jpg?s=512&d=https%3A%2F%2Fa.slack-edge.com%2Fdf10d%2Fimg%2Favatars%2Fava_0015-512.png", "custom_css": null}, {"id": 17852, "slack_id": "U096RTJGHDH", "display_name": "V\u00edtmine", "bio": null, "projects_count": 2, "devlogs_count": 5, "votes_count": 56, "ships_count": 2, "projects": [{"id": 11145, "title": "StoryChain", "devlogs_count": 3, "created_at": "2025-08-13T14:07:15.129-04:00"}, {"id": 8038, "title": "PixelTogether", "devlogs_count": 2, "created_at": "2025-07-24T08:31:38.466-04:00"}], "coding_time_seconds": 109060, "coding_time_seconds_today": 0, "balance": "You need to have a pocket watcher badge to view this.", "badges": [], "created_at": "2025-07-22T08:07:08.197-04:00", "updated_at": "2025-08-10T06:11:01.295-04:00", "avatar": "https://avatars.slack-edge.com/2025-07-22/9236515040324_371b62aa5cf2b9ba287a_original.jpg", "custom_css": null}, {"id": 17853, "slack_id": "U096V8EQ7B7", "display_name": "Meenakshi Dilip Parihar", "bio": null, "projects_count": 0, "devlogs_count": 0, "votes_count": 0, "ships_count": 0, "projects": [], "coding_time_seconds": 0, "coding_time_seconds_today": 0, "balance": "You need to have a pocket watcher badge to view this.", "badges": [], "created_at": "2025-07-22T08:10:41.471-04:00", "updated_at": "2025-07-22T09:36:25.399-04:00", "avatar": "https://secure.gravatar.com/avatar/ed689cd4b5e031f3b8a7a8c8e64986c8.jpg?s=512&d=https%3A%2F%2Fa.slack-edge.com%2Fdf10d%2Fimg%2Favatars%2Fava_0016-512.png", "custom_css": null}, {"id": 17854, "slack_id": "U096RTKBXC3", "display_name": "User Dev", "bio": null, "projects_count": 0, "devlogs_count": 0, "votes_count": 0, "ships_count": 0, "projects": [], "coding_time_seconds": 273, "coding_time_seconds_today": 0, "balance": "You need to have a pocket watcher badge to view this.", "badges": [], "created_at": "2025-07-22T08:12:02.262-04:00", "updated_at": "2025-07-22T09:36:25.483-04:00", "avatar": "https://secure.gravatar.com/avatar/c4e7037aef7b9e359a97bcf2fcd3942e.jpg?s=512&d=https%3A%2F%2Fa.slack-edge.com%2Fdf10d%2Fimg%2Favatars%2Fava_0006-512.png", "custom_css": null}, {"id": 17855, "slack_id": "U097ACY5QRX", "display_name": "Akshat Tripathi", "bio": null, "projects_count": 0, "devlogs_count": 0, "votes_count": 0, "ships_count": 0, "projects": [], "coding_time_seconds": 2467, "coding_time_seconds_today": 0, "balance": "You need to have a pocket watcher badge to view this.", "badges": [], "created_at": "2025-07-22T08:14:29.312-04:00", "updated_at": "2025-07-24T04:07:20.557-04:00", "avatar": "https://secure.gravatar.com/avatar/a60b375d29cb2b8335d088419f72ebd6.jpg?s=512&d=https%3A%2F%2Fa.slack-edge.com%2Fdf10d%2Fimg%2Favatars%2Fava_0022-512.png", "custom_css": null}, {"id": 17856, "slack_id": "U097KHVFT32", "display_name": "Neloy Saha", "bio": null, "projects_count": 0, "devlogs_count": 0, "votes_count": 0, "ships_count": 0, "projects": [], "coding_time_seconds": 889361, "coding_time_seconds_today": 4095, "balance": "You need to have a pocket watcher badge to view this.", "badges": [], "created_at": "2025-07-22T08:16:07.002-04:00", "updated_at": "2025-07-22T09:36:25.654-04:00", "avatar": "https://secure.gravatar.com/avatar/b755767a22ac4c1f633817b2ffd37d9b.jpg?s=512&d=https%3A%2F%2Fa.slack-edge.com%2Fdf10d%2Fimg%2Favatars%2Fava_0020-512.png", "custom_css": null}, {"id": 17857, "slack_id": "U096V9JRTFF", "display_name": "Khawar Ahmed", "bio": null, "projects_count": 0, "devlogs_count": 0, "votes_count": 0, "ships_count": 0, "projects": [], "coding_time_seconds": 0, "coding_time_seconds_today": 0, "balance": "You need to have a pocket watcher badge to view this.", "badges": [], "created_at": "2025-07-22T08:16:27.210-04:00", "updated_at": "2025-07-22T09:36:29.765-04:00", "avatar": "https://secure.gravatar.com/avatar/b1838bd5a512e7529e4c8e0318b7f54f.jpg?s=512&d=https%3A%2F%2Fa.slack-edge.com%2Fdf10d%2Fimg%2Favatars%2Fava_0025-512.png", "custom_css": null}, {"id": 17858, "slack_id": "U096V9GL6R3", "display_name": "Durgesh Gowda", "bio": null, "projects_count": 0, "devlogs_count": 0, "votes_count": 0, "ships_count": 0, "projects": [], "coding_time_seconds": 1768, "coding_time_seconds_today": 0, "balance": "You need to have a pocket watcher badge to view this.", "badges": [], "created_at": "2025-07-22T08:17:04.902-04:00", "updated_at": "2025-07-30T18:17:29.100-04:00", "avatar": "https://secure.gravatar.com/avatar/65e49b43bae8c119dc2ee428fcecc6fd.jpg?s=512&d=https%3A%2F%2Fa.slack-edge.com%2Fdf10d%2Fimg%2Favatars%2Fava_0000-512.png", "custom_css": null}, {"id": 17859, "slack_id": "U096T8WA02W", "display_name": "Sophia Mai", "bio": null, "projects_count": 0, "devlogs_count": 0, "votes_count": 0, "ships_count": 0, "projects": [], "coding_time_seconds": 8311, "coding_time_seconds_today": 0, "balance": "You need to have a pocket watcher badge to view this.", "badges": [], "created_at": "2025-07-22T08:18:43.966-04:00", "updated_at": "2025-07-22T09:36:29.934-04:00", "avatar": "https://secure.gravatar.com/avatar/43d0ee9d636eda23805c9fccf737b3cb.jpg?s=512&d=https%3A%2F%2Fa.slack-edge.com%2Fdf10d%2Fimg%2Favatars%2Fava_0006-512.png", "custom_css": null}, {"id": 17860, "slack_id": "U097KHEF3GQ", "display_name": "Daniel", "bio": null, "projects_count": 0, "devlogs_count": 0, "votes_count": 0, "ships_count": 0, "projects": [], "coding_time_seconds": 16937, "coding_time_seconds_today": 0, "balance": "You need to have a pocket watcher badge to view this.", "badges": [], "created_at": "2025-07-22T08:19:10.697-04:00", "updated_at": "2025-07-22T09:36:30.025-04:00", "avatar": "https://secure.gravatar.com/avatar/a1fee09faadd8baf58514c1929b932fe.jpg?s=512&d=https%3A%2F%2Fa.slack-edge.com%2Fdf10d%2Fimg%2Favatars%2Fava_0001-512.png", "custom_css": null}, {"id": 17861, "slack_id": "U096SSW9DAS", "display_name": "Gem", "bio": null, "projects_count": 0, "devlogs_count": 0, "votes_count": 0, "ships_count": 0, "projects": [], "coding_time_seconds": 0, "coding_time_seconds_today": 0, "balance": "You need to have a pocket watcher badge to view this.", "badges": [], "created_at": "2025-07-22T08:21:46.624-04:00", "updated_at": "2025-07-23T04:03:47.375-04:00", "avatar": "https://avatars.slack-edge.com/2025-07-22/9220556235303_9cab3ddfffbe428cdac2_original.png", "custom_css": null}, {"id": 17862, "slack_id": "U097KJMPJHW", "display_name": "Tanishq Kumar", "bio": null, "projects_count": 0, "devlogs_count": 0, "votes_count": 0, "ships_count": 0, "projects": [], "coding_time_seconds": 0, "coding_time_seconds_today": 0, "balance": "You need to have a pocket watcher badge to view this.", "badges": [], "created_at": "2025-07-22T08:24:59.710-04:00", "updated_at": "2025-07-22T09:36:30.194-04:00", "avatar": "https://secure.gravatar.com/avatar/c00291809583226198ae04ab79221717.jpg?s=512&d=https%3A%2F%2Fa.slack-edge.com%2Fdf10d%2Fimg%2Favatars%2Fava_0004-512.png", "custom_css": null}, {"id": 17863, "slack_id": "U096VAKM57X", "display_name": "Sui", "bio": null, "projects_count": 0, "devlogs_count": 0, "votes_count": 0, "ships_count": 0, "projects": [], "coding_time_seconds": 0, "coding_time_seconds_today": 0, "balance": "You need to have a pocket watcher badge to view this.", "badges": [], "created_at": "2025-07-22T08:25:36.879-04:00", "updated_at": "2025-07-22T09:36:30.273-04:00", "avatar": "https://secure.gravatar.com/avatar/5e325d2d49151f5729b76139d5e95499.jpg?s=512&d=https%3A%2F%2Fa.slack-edge.com%2Fdf10d%2Fimg%2Favatars%2Fava_0016-512.png", "custom_css": null}, {"id": 17864, "slack_id": "U096VAS9KRT", "display_name": "Brian Chiu", "bio": null, "projects_count": 0, "devlogs_count": 0, "votes_count": 0, "ships_count": 0, "projects": [], "coding_time_seconds": 82304, "coding_time_seconds_today": 0, "balance": "You need to have a pocket watcher badge to view this.", "badges": [], "created_at": "2025-07-22T08:26:04.263-04:00", "updated_at": "2025-07-22T09:36:30.362-04:00", "avatar": "https://secure.gravatar.com/avatar/91ceea7270cf073a0e5fc5360d1856dc.jpg?s=512&d=https%3A%2F%2Fa.slack-edge.com%2Fdf10d%2Fimg%2Favatars%2Fava_0014-512.png", "custom_css": null}, {"id": 17865, "slack_id": "U096YHH4Y5A", "display_name": "Bhushan Poojary", "bio": null, "projects_count": 0, "devlogs_count": 0, "votes_count": 0, "ships_count": 0, "projects": [], "coding_time_seconds": 0, "coding_time_seconds_today": 0, "balance": "You need to have a pocket watcher badge to view this.", "badges": [], "created_at": "2025-07-22T08:27:39.869-04:00", "updated_at": "2025-07-22T09:36:30.456-04:00", "avatar": "https://secure.gravatar.com/avatar/fe81c004ccf74fddf018d5a3919ddc9a.jpg?s=512&d=https%3A%2F%2Fa.slack-edge.com%2Fdf10d%2Fimg%2Favatars%2Fava_0024-512.png", "custom_css": null}], "pagination": {"page": 889, "pages": 1192, "count": 23828, "items": 20}}