{"users": [{"id": 17866, "slack_id": "U096S114RHR", "display_name": "SHUBHOJEET", "bio": null, "projects_count": 0, "devlogs_count": 0, "votes_count": 0, "ships_count": 0, "projects": [], "coding_time_seconds": 0, "coding_time_seconds_today": 0, "balance": "You need to have a pocket watcher badge to view this.", "badges": [], "created_at": "2025-07-22T08:28:43.209-04:00", "updated_at": "2025-07-22T09:36:30.545-04:00", "avatar": "https://secure.gravatar.com/avatar/f8cb422a0cdb59fc9c288f1eff5b800b.jpg?s=512&d=https%3A%2F%2Fa.slack-edge.com%2Fdf10d%2Fimg%2Favatars%2Fava_0008-512.png", "custom_css": null}, {"id": 17867, "slack_id": "U097AFVHB6V", "display_name": "ZARIN SYARA EQRA", "bio": null, "projects_count": 0, "devlogs_count": 0, "votes_count": 0, "ships_count": 0, "projects": [], "coding_time_seconds": 0, "coding_time_seconds_today": 0, "balance": "You need to have a pocket watcher badge to view this.", "badges": [], "created_at": "2025-07-22T08:28:43.221-04:00", "updated_at": "2025-07-22T11:31:11.565-04:00", "avatar": "https://avatars.slack-edge.com/2025-07-22/9248557044977_b026311645d89b487a52_original.jpg", "custom_css": null}, {"id": 17868, "slack_id": "U096VBCNFRB", "display_name": "Rehan", "bio": null, "projects_count": 0, "devlogs_count": 0, "votes_count": 0, "ships_count": 0, "projects": [], "coding_time_seconds": 0, "coding_time_seconds_today": 0, "balance": "You need to have a pocket watcher badge to view this.", "badges": [], "created_at": "2025-07-22T08:30:23.439-04:00", "updated_at": "2025-07-22T09:36:30.725-04:00", "avatar": "https://secure.gravatar.com/avatar/d498bf0932cf402c98354c373ecf46ef.jpg?s=512&d=https%3A%2F%2Fa.slack-edge.com%2Fdf10d%2Fimg%2Favatars%2Fava_0004-512.png", "custom_css": null}, {"id": 17869, "slack_id": "U096U94NZ62", "display_name": "Eshwar Bandaru", "bio": null, "projects_count": 1, "devlogs_count": 0, "votes_count": 0, "ships_count": 0, "projects": [{"id": 7602, "title": "IoT_Demo", "devlogs_count": 0, "created_at": "2025-07-22T08:42:08.356-04:00"}], "coding_time_seconds": 51289, "coding_time_seconds_today": 6852, "balance": "You need to have a pocket watcher badge to view this.", "badges": [], "created_at": "2025-07-22T08:30:56.510-04:00", "updated_at": "2025-07-22T09:36:30.810-04:00", "avatar": "https://avatars.slack-edge.com/2025-07-22/9230067438979_e6a2b6de27b60f598bef_original.png", "custom_css": null}, {"id": 17870, "slack_id": "U096YJABYSY", "display_name": "Govind Sharma", "bio": null, "projects_count": 0, "devlogs_count": 0, "votes_count": 0, "ships_count": 0, "projects": [], "coding_time_seconds": 22671, "coding_time_seconds_today": 0, "balance": "You need to have a pocket watcher badge to view this.", "badges": [], "created_at": "2025-07-22T08:33:39.157-04:00", "updated_at": "2025-07-22T11:16:23.881-04:00", "avatar": "https://secure.gravatar.com/avatar/44e6bb78ff0342ad4aa269370e2f17a9.jpg?s=512&d=https%3A%2F%2Fa.slack-edge.com%2Fdf10d%2Fimg%2Favatars%2Fava_0026-512.png", "custom_css": null}, {"id": 17871, "slack_id": "U096TUBSHUN", "display_name": "Lina AIT", "bio": null, "projects_count": 0, "devlogs_count": 0, "votes_count": 0, "ships_count": 0, "projects": [], "coding_time_seconds": 0, "coding_time_seconds_today": 0, "balance": "You need to have a pocket watcher badge to view this.", "badges": [], "created_at": "2025-07-22T08:34:56.357-04:00", "updated_at": "2025-07-22T09:36:30.976-04:00", "avatar": "https://secure.gravatar.com/avatar/a1939aa78cb4e3813b0dd7e83daa25ce.jpg?s=512&d=https%3A%2F%2Fa.slack-edge.com%2Fdf10d%2Fimg%2Favatars%2Fava_0012-512.png", "custom_css": null}, {"id": 17872, "slack_id": "U096RH312R4", "display_name": "SHAN KENNETH BAYON-ON", "bio": null, "projects_count": 0, "devlogs_count": 0, "votes_count": 0, "ships_count": 0, "projects": [], "coding_time_seconds": 0, "coding_time_seconds_today": 0, "balance": "You need to have a pocket watcher badge to view this.", "badges": [], "created_at": "2025-07-22T08:36:29.705-04:00", "updated_at": "2025-07-22T10:32:40.691-04:00", "avatar": "https://secure.gravatar.com/avatar/796fccd1c238d6835067cc2c3b39b23b.jpg?s=512&d=https%3A%2F%2Fa.slack-edge.com%2Fdf10d%2Fimg%2Favatars%2Fava_0026-512.png", "custom_css": null}, {"id": 17873, "slack_id": "U096S2A6TRR", "display_name": "atreya", "bio": null, "projects_count": 0, "devlogs_count": 0, "votes_count": 0, "ships_count": 0, "projects": [], "coding_time_seconds": 0, "coding_time_seconds_today": 0, "balance": "You need to have a pocket watcher badge to view this.", "badges": [], "created_at": "2025-07-22T08:36:40.493-04:00", "updated_at": "2025-07-22T14:47:19.676-04:00", "avatar": "https://secure.gravatar.com/avatar/657e6d7e88211dbce09e2cf8a315a375.jpg?s=512&d=https%3A%2F%2Fa.slack-edge.com%2Fdf10d%2Fimg%2Favatars%2Fava_0026-512.png", "custom_css": null}, {"id": 17874, "slack_id": "U07PYULP6AH", "display_name": "Ryan", "bio": "bleh", "projects_count": 0, "devlogs_count": 23, "votes_count": 96, "ships_count": 0, "projects": [], "coding_time_seconds": 99087, "coding_time_seconds_today": 0, "balance": "You need to have a pocket watcher badge to view this.", "badges": [], "created_at": "2025-07-22T08:37:09.951-04:00", "updated_at": "2025-08-23T22:32:48.403-04:00", "avatar": "https://avatars.slack-edge.com/2025-08-22/9404848923057_6a386f193af262010379_original.jpg", "custom_css": null}, {"id": 17875, "slack_id": "U096VCRPT61", "display_name": "Rohan ODwyer", "bio": null, "projects_count": 0, "devlogs_count": 0, "votes_count": 0, "ships_count": 0, "projects": [], "coding_time_seconds": 0, "coding_time_seconds_today": 0, "balance": "You need to have a pocket watcher badge to view this.", "badges": [], "created_at": "2025-07-22T08:38:24.512-04:00", "updated_at": "2025-07-22T09:36:31.343-04:00", "avatar": "https://secure.gravatar.com/avatar/4d2da6d3f247a4159f5a8d6d62673c68.jpg?s=512&d=https%3A%2F%2Fa.slack-edge.com%2Fdf10d%2Fimg%2Favatars%2Fava_0015-512.png", "custom_css": null}, {"id": 17876, "slack_id": "U096YKBEQDS", "display_name": "naomi", "bio": null, "projects_count": 0, "devlogs_count": 0, "votes_count": 0, "ships_count": 0, "projects": [], "coding_time_seconds": 296, "coding_time_seconds_today": 0, "balance": "You need to have a pocket watcher badge to view this.", "badges": [], "created_at": "2025-07-22T08:40:31.594-04:00", "updated_at": "2025-07-22T09:36:31.421-04:00", "avatar": "https://secure.gravatar.com/avatar/3262328908d2e732f3bd1dda1d7a3011.jpg?s=512&d=https%3A%2F%2Fa.slack-edge.com%2Fdf10d%2Fimg%2Favatars%2Fava_0023-512.png", "custom_css": null}, {"id": 17877, "slack_id": "U097KMV6B88", "display_name": "Saad Makhdoom", "bio": "I am a passionate Student of Ccomputer Science", "projects_count": 0, "devlogs_count": 0, "votes_count": 0, "ships_count": 0, "projects": [], "coding_time_seconds": 157478, "coding_time_seconds_today": 1921, "balance": "You need to have a pocket watcher badge to view this.", "badges": [], "created_at": "2025-07-22T08:40:57.719-04:00", "updated_at": "2025-07-22T09:36:31.523-04:00", "avatar": "https://avatars.slack-edge.com/2025-07-22/9230118157347_79d5aa1694809be1bfcd_original.gif", "custom_css": null}, {"id": 17878, "slack_id": "U096UBL1K7Y", "display_name": "kstra3", "bio": null, "projects_count": 0, "devlogs_count": 0, "votes_count": 0, "ships_count": 0, "projects": [], "coding_time_seconds": 0, "coding_time_seconds_today": 0, "balance": "You need to have a pocket watcher badge to view this.", "badges": [], "created_at": "2025-07-22T08:46:47.612-04:00", "updated_at": "2025-07-22T09:36:31.623-04:00", "avatar": "https://secure.gravatar.com/avatar/b6169e05c3312c4ded25c713c2594a7c.jpg?s=512&d=https%3A%2F%2Fa.slack-edge.com%2Fdf10d%2Fimg%2Favatars%2Fava_0026-512.png", "custom_css": null}, {"id": 17879, "slack_id": "U096SM074MU", "display_name": "akash", "bio": null, "projects_count": 0, "devlogs_count": 0, "votes_count": 0, "ships_count": 0, "projects": [], "coding_time_seconds": 0, "coding_time_seconds_today": 0, "balance": "You need to have a pocket watcher badge to view this.", "badges": [], "created_at": "2025-07-22T08:48:23.109-04:00", "updated_at": "2025-08-06T11:33:16.269-04:00", "avatar": "https://secure.gravatar.com/avatar/b74f82f73c2f1b3675a62bef046a7d9b.jpg?s=512&d=https%3A%2F%2Fa.slack-edge.com%2Fdf10d%2Fimg%2Favatars%2Fava_0012-512.png", "custom_css": null}, {"id": 17880, "slack_id": "U096S3RH2QK", "display_name": "Ivan Sentemon", "bio": null, "projects_count": 1, "devlogs_count": 6, "votes_count": 0, "ships_count": 1, "projects": [{"id": 7613, "title": "FitnessApp", "devlogs_count": 6, "created_at": "2025-07-22T09:49:35.559-04:00"}], "coding_time_seconds": 204015, "coding_time_seconds_today": 0, "balance": "You need to have a pocket watcher badge to view this.", "badges": [], "created_at": "2025-07-22T08:49:08.290-04:00", "updated_at": "2025-08-16T04:07:12.473-04:00", "avatar": "https://avatars.slack-edge.com/2025-07-22/9230159274643_2692fb07c5c97dbda2fc_original.jpg", "custom_css": null}, {"id": 17881, "slack_id": "U096TUED9D4", "display_name": "Priyanshu Singh", "bio": null, "projects_count": 0, "devlogs_count": 0, "votes_count": 0, "ships_count": 0, "projects": [], "coding_time_seconds": 17635, "coding_time_seconds_today": 0, "balance": "You need to have a pocket watcher badge to view this.", "badges": [], "created_at": "2025-07-22T08:49:19.070-04:00", "updated_at": "2025-07-22T09:36:31.894-04:00", "avatar": "https://secure.gravatar.com/avatar/c057a1f3cc16c7e9c649eb233404d4a0.jpg?s=512&d=https%3A%2F%2Fa.slack-edge.com%2Fdf10d%2Fimg%2Favatars%2Fava_0006-512.png", "custom_css": null}, {"id": 17882, "slack_id": "U097AK02XSM", "display_name": "Aman", "bio": null, "projects_count": 0, "devlogs_count": 0, "votes_count": 0, "ships_count": 0, "projects": [], "coding_time_seconds": 0, "coding_time_seconds_today": 0, "balance": "You need to have a pocket watcher badge to view this.", "badges": [], "created_at": "2025-07-22T08:49:26.211-04:00", "updated_at": "2025-07-22T09:36:32.008-04:00", "avatar": "https://secure.gravatar.com/avatar/7226e0c728665b4c24668a547987eeae.jpg?s=512&d=https%3A%2F%2Fa.slack-edge.com%2Fdf10d%2Fimg%2Favatars%2Fava_0005-512.png", "custom_css": null}, {"id": 17883, "slack_id": "U096UBXKTHC", "display_name": "Anna Pietra", "bio": null, "projects_count": 0, "devlogs_count": 0, "votes_count": 0, "ships_count": 0, "projects": [], "coding_time_seconds": 14103, "coding_time_seconds_today": 0, "balance": "You need to have a pocket watcher badge to view this.", "badges": [], "created_at": "2025-07-22T08:50:24.374-04:00", "updated_at": "2025-07-22T09:36:32.114-04:00", "avatar": "https://secure.gravatar.com/avatar/c189ac799bab1f4b268c5b6a006b3238.jpg?s=512&d=https%3A%2F%2Fa.slack-edge.com%2Fdf10d%2Fimg%2Favatars%2Fava_0021-512.png", "custom_css": null}, {"id": 17884, "slack_id": "U096GL06TK9", "display_name": "AuraRiddle", "bio": null, "projects_count": 2, "devlogs_count": 7, "votes_count": 60, "ships_count": 2, "projects": [{"id": 13239, "title": "Scene Of Crime SOM", "devlogs_count": 1, "created_at": "2025-09-12T10:39:02.672-04:00"}, {"id": 8597, "title": "Talking Diary", "devlogs_count": 6, "created_at": "2025-07-28T12:42:13.309-04:00"}], "coding_time_seconds": 91478, "coding_time_seconds_today": 1012, "balance": "You need to have a pocket watcher badge to view this.", "badges": [], "created_at": "2025-07-22T08:50:51.105-04:00", "updated_at": "2025-08-06T14:28:44.497-04:00", "avatar": "https://avatars.slack-edge.com/2025-07-28/9279361904817_010b9117c53e863c393f_original.jpg", "custom_css": null}, {"id": 17885, "slack_id": "U096YMBJVHS", "display_name": "Deri kurniawan", "bio": null, "projects_count": 0, "devlogs_count": 0, "votes_count": 0, "ships_count": 0, "projects": [], "coding_time_seconds": 6035, "coding_time_seconds_today": 0, "balance": "You need to have a pocket watcher badge to view this.", "badges": [], "created_at": "2025-07-22T08:54:11.550-04:00", "updated_at": "2025-07-22T09:41:14.386-04:00", "avatar": "https://avatars.slack-edge.com/2025-07-22/9248688770081_fa7023d030187160744c_original.jpg", "custom_css": null}], "pagination": {"page": 890, "pages": 1192, "count": 23828, "items": 20}}