{"users": [{"id": 17886, "slack_id": "U096S57EG1H", "display_name": "Bo", "bio": null, "projects_count": 0, "devlogs_count": 0, "votes_count": 0, "ships_count": 0, "projects": [], "coding_time_seconds": 0, "coding_time_seconds_today": 0, "balance": "You need to have a pocket watcher badge to view this.", "badges": [], "created_at": "2025-07-22T08:55:50.044-04:00", "updated_at": "2025-07-22T09:36:32.404-04:00", "avatar": "https://secure.gravatar.com/avatar/41198f0a480824155d8136c6a99be304.jpg?s=512&d=https%3A%2F%2Fa.slack-edge.com%2Fdf10d%2Fimg%2Favatars%2Fava_0003-512.png", "custom_css": null}, {"id": 17887, "slack_id": "U097AL75D5F", "display_name": "1e99", "bio": null, "projects_count": 0, "devlogs_count": 0, "votes_count": 0, "ships_count": 0, "projects": [], "coding_time_seconds": 0, "coding_time_seconds_today": 0, "balance": "You need to have a pocket watcher badge to view this.", "badges": [], "created_at": "2025-07-22T08:57:18.550-04:00", "updated_at": "2025-07-22T09:36:32.483-04:00", "avatar": "https://secure.gravatar.com/avatar/27d5decb3cfe7b806d0e406a119becf9.jpg?s=512&d=https%3A%2F%2Fa.slack-edge.com%2Fdf10d%2Fimg%2Favatars%2Fava_0017-512.png", "custom_css": null}, {"id": 17888, "slack_id": "U096YMP48P6", "display_name": "monu dhakad", "bio": null, "projects_count": 0, "devlogs_count": 0, "votes_count": 0, "ships_count": 0, "projects": [], "coding_time_seconds": 115176, "coding_time_seconds_today": 0, "balance": "You need to have a pocket watcher badge to view this.", "badges": [], "created_at": "2025-07-22T08:59:20.046-04:00", "updated_at": "2025-07-22T09:36:32.574-04:00", "avatar": "https://avatars.slack-edge.com/2025-07-22/9257847877824_5e7c581721fe783b83b9_original.jpg", "custom_css": null}, {"id": 17889, "slack_id": "U082XM6B3SL", "display_name": "dante", "bio": null, "projects_count": 0, "devlogs_count": 0, "votes_count": 1, "ships_count": 0, "projects": [], "coding_time_seconds": 0, "coding_time_seconds_today": 0, "balance": "You need to have a pocket watcher badge to view this.", "badges": [], "created_at": "2025-07-22T09:01:33.747-04:00", "updated_at": "2025-07-23T16:07:00.271-04:00", "avatar": "https://avatars.slack-edge.com/2024-11-24/8062422839591_b756b1762895440aeb0a_original.png", "custom_css": null}, {"id": 17890, "slack_id": "U096GNJDADD", "display_name": "ursus", "bio": null, "projects_count": 0, "devlogs_count": 0, "votes_count": 0, "ships_count": 0, "projects": [], "coding_time_seconds": 4616, "coding_time_seconds_today": 0, "balance": "You need to have a pocket watcher badge to view this.", "badges": [], "created_at": "2025-07-22T09:05:52.976-04:00", "updated_at": "2025-07-22T09:36:32.720-04:00", "avatar": "https://secure.gravatar.com/avatar/4d4781d7fbdd00b82d1f66005b882da1.jpg?s=512&d=https%3A%2F%2Fa.slack-edge.com%2Fdf10d%2Fimg%2Favatars%2Fava_0016-512.png", "custom_css": null}, {"id": 17891, "slack_id": "U096S7FC535", "display_name": "jan", "bio": null, "projects_count": 0, "devlogs_count": 0, "votes_count": 0, "ships_count": 0, "projects": [], "coding_time_seconds": 0, "coding_time_seconds_today": 0, "balance": "You need to have a pocket watcher badge to view this.", "badges": [], "created_at": "2025-07-22T09:07:06.248-04:00", "updated_at": "2025-07-22T09:36:32.813-04:00", "avatar": "https://secure.gravatar.com/avatar/53e593931551619cde3341b5a4ca7897.jpg?s=512&d=https%3A%2F%2Fa.slack-edge.com%2Fdf10d%2Fimg%2Favatars%2Fava_0007-512.png", "custom_css": null}, {"id": 17892, "slack_id": "U096GNEP99D", "display_name": "Muhammad Bilal", "bio": null, "projects_count": 0, "devlogs_count": 0, "votes_count": 0, "ships_count": 0, "projects": [], "coding_time_seconds": 86779, "coding_time_seconds_today": 0, "balance": "You need to have a pocket watcher badge to view this.", "badges": [], "created_at": "2025-07-22T09:08:02.288-04:00", "updated_at": "2025-07-22T09:36:36.930-04:00", "avatar": "https://avatars.slack-edge.com/2025-07-22/9232537432614_3ce3f3e8a8a9fa723b02_original.png", "custom_css": null}, {"id": 17893, "slack_id": "U07F8FYUD3M", "display_name": "Comedy- waran", "bio": null, "projects_count": 0, "devlogs_count": 0, "votes_count": 0, "ships_count": 0, "projects": [], "coding_time_seconds": 32609, "coding_time_seconds_today": 0, "balance": "You need to have a pocket watcher badge to view this.", "badges": [], "created_at": "2025-07-22T09:08:04.497-04:00", "updated_at": "2025-07-22T09:36:37.032-04:00", "avatar": "https://avatars.slack-edge.com/2025-07-22/9233615980021_8dcfb7dda93124279535_original.png", "custom_css": null}, {"id": 17894, "slack_id": "U096S7Q08UT", "display_name": "Pablo Garc\u00eda", "bio": null, "projects_count": 0, "devlogs_count": 0, "votes_count": 0, "ships_count": 0, "projects": [], "coding_time_seconds": 3962, "coding_time_seconds_today": 0, "balance": "You need to have a pocket watcher badge to view this.", "badges": [], "created_at": "2025-07-22T09:08:24.142-04:00", "updated_at": "2025-07-22T09:36:37.117-04:00", "avatar": "https://secure.gravatar.com/avatar/46e6983df7219c7b8b6312855f858605.jpg?s=512&d=https%3A%2F%2Fa.slack-edge.com%2Fdf10d%2Fimg%2Favatars%2Fava_0015-512.png", "custom_css": null}, {"id": 17895, "slack_id": "U096S7SE41Z", "display_name": "Vani Sen", "bio": null, "projects_count": 1, "devlogs_count": 0, "votes_count": 0, "ships_count": 0, "projects": [{"id": 13131, "title": "RunStickRun", "devlogs_count": 0, "created_at": "2025-09-09T10:15:38.853-04:00"}], "coding_time_seconds": 3565, "coding_time_seconds_today": 0, "balance": "You need to have a pocket watcher badge to view this.", "badges": [], "created_at": "2025-07-22T09:08:29.447-04:00", "updated_at": "2025-09-06T05:18:14.696-04:00", "avatar": "https://secure.gravatar.com/avatar/5f31e70c2707bd8ea804c96d4485b38e.jpg?s=512&d=https%3A%2F%2Fa.slack-edge.com%2Fdf10d%2Fimg%2Favatars%2Fava_0007-512.png", "custom_css": null}, {"id": 17896, "slack_id": "U096UFGTN5C", "display_name": "Sithum", "bio": null, "projects_count": 0, "devlogs_count": 0, "votes_count": 0, "ships_count": 0, "projects": [], "coding_time_seconds": 28661, "coding_time_seconds_today": 1747, "balance": "You need to have a pocket watcher badge to view this.", "badges": [], "created_at": "2025-07-22T09:09:00.810-04:00", "updated_at": "2025-07-22T09:36:37.313-04:00", "avatar": "https://avatars.slack-edge.com/2025-07-22/9248850451633_063ea68b647cc21004fa_original.png", "custom_css": null}, {"id": 17897, "slack_id": "U096S7CC85R", "display_name": "Trip", "bio": null, "projects_count": 0, "devlogs_count": 0, "votes_count": 0, "ships_count": 0, "projects": [], "coding_time_seconds": 0, "coding_time_seconds_today": 0, "balance": "You need to have a pocket watcher badge to view this.", "badges": [], "created_at": "2025-07-22T09:09:59.436-04:00", "updated_at": "2025-07-22T09:36:37.418-04:00", "avatar": "https://secure.gravatar.com/avatar/b22eaff8c53c78bd379aa26472691162.jpg?s=512&d=https%3A%2F%2Fa.slack-edge.com%2Fdf10d%2Fimg%2Favatars%2Fava_0017-512.png", "custom_css": null}, {"id": 17898, "slack_id": "U097KST7GKA", "display_name": "Sahil khan", "bio": null, "projects_count": 0, "devlogs_count": 0, "votes_count": 0, "ships_count": 0, "projects": [], "coding_time_seconds": 0, "coding_time_seconds_today": 0, "balance": "You need to have a pocket watcher badge to view this.", "badges": [], "created_at": "2025-07-22T09:10:46.241-04:00", "updated_at": "2025-07-22T09:36:37.525-04:00", "avatar": "https://secure.gravatar.com/avatar/2462fa93204f5bcee66d44ecccac92ef.jpg?s=512&d=https%3A%2F%2Fa.slack-edge.com%2Fdf10d%2Fimg%2Favatars%2Fava_0019-512.png", "custom_css": null}, {"id": 17899, "slack_id": "U096UFQBM54", "display_name": "Selina Li", "bio": null, "projects_count": 0, "devlogs_count": 0, "votes_count": 0, "ships_count": 0, "projects": [], "coding_time_seconds": 0, "coding_time_seconds_today": 0, "balance": "You need to have a pocket watcher badge to view this.", "badges": [], "created_at": "2025-07-22T09:11:08.387-04:00", "updated_at": "2025-07-22T09:36:37.605-04:00", "avatar": "https://secure.gravatar.com/avatar/e87ecc71508f882ed55185baea6a9b0a.jpg?s=512&d=https%3A%2F%2Fa.slack-edge.com%2Fdf10d%2Fimg%2Favatars%2Fava_0002-512.png", "custom_css": null}, {"id": 17900, "slack_id": "U096XHV8STU", "display_name": "Gowtham", "bio": null, "projects_count": 0, "devlogs_count": 0, "votes_count": 0, "ships_count": 0, "projects": [], "coding_time_seconds": 0, "coding_time_seconds_today": 0, "balance": "You need to have a pocket watcher badge to view this.", "badges": [], "created_at": "2025-07-22T09:11:08.821-04:00", "updated_at": "2025-07-22T09:36:37.683-04:00", "avatar": "https://secure.gravatar.com/avatar/834fe4408bcb5069ac3f43dde71c831c.jpg?s=512&d=https%3A%2F%2Fa.slack-edge.com%2Fdf10d%2Fimg%2Favatars%2Fava_0002-512.png", "custom_css": null}, {"id": 17901, "slack_id": "U097AP356SV", "display_name": "Koushik", "bio": null, "projects_count": 0, "devlogs_count": 0, "votes_count": 0, "ships_count": 0, "projects": [], "coding_time_seconds": 4345, "coding_time_seconds_today": 0, "balance": "You need to have a pocket watcher badge to view this.", "badges": [], "created_at": "2025-07-22T09:11:44.357-04:00", "updated_at": "2025-07-22T09:36:41.821-04:00", "avatar": "https://secure.gravatar.com/avatar/8698ae2d6db45400bf4c90c2f4bc8a33.jpg?s=512&d=https%3A%2F%2Fa.slack-edge.com%2Fdf10d%2Fimg%2Favatars%2Fava_0009-512.png", "custom_css": null}, {"id": 17902, "slack_id": "U097ANY7S4R", "display_name": "Afif Ali Saadman", "bio": null, "projects_count": 0, "devlogs_count": 0, "votes_count": 0, "ships_count": 0, "projects": [], "coding_time_seconds": 156374, "coding_time_seconds_today": 6312, "balance": "You need to have a pocket watcher badge to view this.", "badges": [], "created_at": "2025-07-22T09:11:57.515-04:00", "updated_at": "2025-07-22T09:36:41.910-04:00", "avatar": "https://secure.gravatar.com/avatar/5f5325231839c001b34ad40ea7693e45.jpg?s=512&d=https%3A%2F%2Fa.slack-edge.com%2Fdf10d%2Fimg%2Favatars%2Fava_0020-512.png", "custom_css": null}, {"id": 17903, "slack_id": "U096VJA59KP", "display_name": "blue", "bio": null, "projects_count": 0, "devlogs_count": 0, "votes_count": 0, "ships_count": 0, "projects": [], "coding_time_seconds": 0, "coding_time_seconds_today": 0, "balance": "You need to have a pocket watcher badge to view this.", "badges": [], "created_at": "2025-07-22T09:13:51.309-04:00", "updated_at": "2025-07-22T09:36:42.005-04:00", "avatar": "https://secure.gravatar.com/avatar/444464a18dccdcb5fa6e36fd28a09376.jpg?s=512&d=https%3A%2F%2Fa.slack-edge.com%2Fdf10d%2Fimg%2Favatars%2Fava_0011-512.png", "custom_css": null}, {"id": 17904, "slack_id": "U096VJQ75EZ", "display_name": "Petrichor", "bio": null, "projects_count": 0, "devlogs_count": 0, "votes_count": 0, "ships_count": 0, "projects": [], "coding_time_seconds": 0, "coding_time_seconds_today": 0, "balance": "You need to have a pocket watcher badge to view this.", "badges": [], "created_at": "2025-07-22T09:14:18.726-04:00", "updated_at": "2025-07-22T09:36:42.092-04:00", "avatar": "https://secure.gravatar.com/avatar/2ded970f4bfc8562b7ab94f25fdfed45.jpg?s=512&d=https%3A%2F%2Fa.slack-edge.com%2Fdf10d%2Fimg%2Favatars%2Fava_0023-512.png", "custom_css": null}, {"id": 17905, "slack_id": "U096VJUEU13", "display_name": "Ethan Minnich", "bio": null, "projects_count": 0, "devlogs_count": 0, "votes_count": 0, "ships_count": 0, "projects": [], "coding_time_seconds": 20902, "coding_time_seconds_today": 0, "balance": "You need to have a pocket watcher badge to view this.", "badges": [], "created_at": "2025-07-22T09:15:06.968-04:00", "updated_at": "2025-07-22T09:36:42.177-04:00", "avatar": "https://secure.gravatar.com/avatar/b1639aa46771a952e0002d7d5212bd94.jpg?s=512&d=https%3A%2F%2Fa.slack-edge.com%2Fdf10d%2Fimg%2Favatars%2Fava_0001-512.png", "custom_css": null}], "pagination": {"page": 891, "pages": 1192, "count": 23828, "items": 20}}