{"users": [{"id": 17906, "slack_id": "U096GQ9JGCX", "display_name": "Unmi", "bio": null, "projects_count": 0, "devlogs_count": 0, "votes_count": 0, "ships_count": 0, "projects": [], "coding_time_seconds": 0, "coding_time_seconds_today": 0, "balance": "You need to have a pocket watcher badge to view this.", "badges": [], "created_at": "2025-07-22T09:17:13.123-04:00", "updated_at": "2025-07-22T09:36:42.282-04:00", "avatar": "https://secure.gravatar.com/avatar/6b1bbccc483f8026b0e0e0161dd9841f.jpg?s=512&d=https%3A%2F%2Fa.slack-edge.com%2Fdf10d%2Fimg%2Favatars%2Fava_0014-512.png", "custom_css": null}, {"id": 17907, "slack_id": "U096YRSV95J", "display_name": "harsh", "bio": null, "projects_count": 0, "devlogs_count": 0, "votes_count": 0, "ships_count": 0, "projects": [], "coding_time_seconds": 0, "coding_time_seconds_today": 0, "balance": "You need to have a pocket watcher badge to view this.", "badges": [], "created_at": "2025-07-22T09:17:13.482-04:00", "updated_at": "2025-07-22T09:36:42.383-04:00", "avatar": "https://secure.gravatar.com/avatar/dcc2ccf1c8f7e0dfe087189cd7b41044.jpg?s=512&d=https%3A%2F%2Fa.slack-edge.com%2Fdf10d%2Fimg%2Favatars%2Fava_0022-512.png", "custom_css": null}, {"id": 17908, "slack_id": "U097APTNCSV", "display_name": "satyamedh hulyalkar", "bio": null, "projects_count": 0, "devlogs_count": 0, "votes_count": 0, "ships_count": 0, "projects": [], "coding_time_seconds": 86450, "coding_time_seconds_today": 0, "balance": "You need to have a pocket watcher badge to view this.", "badges": [], "created_at": "2025-07-22T09:17:20.317-04:00", "updated_at": "2025-09-13T15:38:26.907-04:00", "avatar": "https://avatars.slack-edge.com/2025-07-22/9220847822359_4b10f292060181a79143_original.png", "custom_css": null}, {"id": 17909, "slack_id": "U097KU041H6", "display_name": "Dhruv Mehta", "bio": null, "projects_count": 1, "devlogs_count": 1, "votes_count": 0, "ships_count": 0, "projects": [{"id": 12042, "title": "Tesla Stock Predictor", "devlogs_count": 1, "created_at": "2025-08-22T10:42:00.985-04:00"}], "coding_time_seconds": 47511, "coding_time_seconds_today": 0, "balance": "You need to have a pocket watcher badge to view this.", "badges": [], "created_at": "2025-07-22T09:18:49.349-04:00", "updated_at": "2025-08-22T10:38:18.628-04:00", "avatar": "https://secure.gravatar.com/avatar/94dcfcff21e363318ccb4fe347deb776.jpg?s=512&d=https%3A%2F%2Fa.slack-edge.com%2Fdf10d%2Fimg%2Favatars%2Fava_0019-512.png", "custom_css": null}, {"id": 17910, "slack_id": "U096UH47NR4", "display_name": "Akshaj Hui", "bio": null, "projects_count": 0, "devlogs_count": 0, "votes_count": 0, "ships_count": 0, "projects": [], "coding_time_seconds": 0, "coding_time_seconds_today": 0, "balance": "You need to have a pocket watcher badge to view this.", "badges": [], "created_at": "2025-07-22T09:18:51.422-04:00", "updated_at": "2025-07-22T09:36:46.715-04:00", "avatar": "https://secure.gravatar.com/avatar/b97993f4a1e4e6651fb739a68724962d.jpg?s=512&d=https%3A%2F%2Fa.slack-edge.com%2Fdf10d%2Fimg%2Favatars%2Fava_0007-512.png", "custom_css": null}, {"id": 17911, "slack_id": "U096VL7E7M3", "display_name": "Manuel Uhlir", "bio": null, "projects_count": 1, "devlogs_count": 0, "votes_count": 0, "ships_count": 0, "projects": [{"id": 7641, "title": "Molecules", "devlogs_count": 0, "created_at": "2025-07-22T11:32:29.119-04:00"}], "coding_time_seconds": 4019, "coding_time_seconds_today": 0, "balance": "You need to have a pocket watcher badge to view this.", "badges": [], "created_at": "2025-07-22T09:23:18.701-04:00", "updated_at": "2025-07-22T21:35:01.622-04:00", "avatar": "https://secure.gravatar.com/avatar/1ca0f06154de2e1e7d729ceca0160c28.jpg?s=512&d=https%3A%2F%2Fa.slack-edge.com%2Fdf10d%2Fimg%2Favatars%2Fava_0012-512.png", "custom_css": null}, {"id": 17912, "slack_id": "U097ARR30HF", "display_name": "Konstantin Folger", "bio": null, "projects_count": 1, "devlogs_count": 2, "votes_count": 0, "ships_count": 0, "projects": [{"id": 7781, "title": "Script for FreeDyn", "devlogs_count": 2, "created_at": "2025-07-23T02:30:24.790-04:00"}], "coding_time_seconds": 243598, "coding_time_seconds_today": 0, "balance": "You need to have a pocket watcher badge to view this.", "badges": [], "created_at": "2025-07-22T09:27:12.788-04:00", "updated_at": "2025-07-23T02:27:28.982-04:00", "avatar": "https://secure.gravatar.com/avatar/f85722f7f5f281396a539a81501d58a7.jpg?s=512&d=https%3A%2F%2Fa.slack-edge.com%2Fdf10d%2Fimg%2Favatars%2Fava_0020-512.png", "custom_css": null}, {"id": 17913, "slack_id": "U096VM3LK53", "display_name": "Muhammad Sohaib Ayub", "bio": null, "projects_count": 0, "devlogs_count": 0, "votes_count": 0, "ships_count": 0, "projects": [], "coding_time_seconds": 0, "coding_time_seconds_today": 0, "balance": "You need to have a pocket watcher badge to view this.", "badges": [], "created_at": "2025-07-22T09:28:13.568-04:00", "updated_at": "2025-07-22T21:35:01.889-04:00", "avatar": "https://secure.gravatar.com/avatar/066d8430ab255950a0d37a28fe53ca57.jpg?s=512&d=https%3A%2F%2Fa.slack-edge.com%2Fdf10d%2Fimg%2Favatars%2Fava_0008-512.png", "custom_css": null}, {"id": 17914, "slack_id": "U096X6YF64A", "display_name": "rathina devan", "bio": null, "projects_count": 0, "devlogs_count": 0, "votes_count": 0, "ships_count": 0, "projects": [], "coding_time_seconds": 0, "coding_time_seconds_today": 0, "balance": "You need to have a pocket watcher badge to view this.", "badges": [], "created_at": "2025-07-22T09:30:59.876-04:00", "updated_at": "2025-07-22T21:35:06.005-04:00", "avatar": "https://avatars.slack-edge.com/2025-07-22/9235758449410_caea5d2eec5e048029e5_original.png", "custom_css": null}, {"id": 17915, "slack_id": "U096UKDPFE2", "display_name": "Yen", "bio": null, "projects_count": 0, "devlogs_count": 0, "votes_count": 0, "ships_count": 0, "projects": [], "coding_time_seconds": 0, "coding_time_seconds_today": 0, "balance": "You need to have a pocket watcher badge to view this.", "badges": [], "created_at": "2025-07-22T09:31:20.994-04:00", "updated_at": "2025-07-22T21:35:06.106-04:00", "avatar": "https://secure.gravatar.com/avatar/6927b1ad546c1142535ebbe5bf381b82.jpg?s=512&d=https%3A%2F%2Fa.slack-edge.com%2Fdf10d%2Fimg%2Favatars%2Fava_0006-512.png", "custom_css": null}, {"id": 17916, "slack_id": "U096UK6L7LN", "display_name": "Silki Rai", "bio": null, "projects_count": 0, "devlogs_count": 0, "votes_count": 0, "ships_count": 0, "projects": [], "coding_time_seconds": 133174, "coding_time_seconds_today": 0, "balance": "You need to have a pocket watcher badge to view this.", "badges": [], "created_at": "2025-07-22T09:32:11.985-04:00", "updated_at": "2025-07-22T21:35:06.194-04:00", "avatar": "https://avatars.slack-edge.com/2025-07-22/9236985367668_5e953f8b33706da60fd6_original.jpg", "custom_css": null}, {"id": 17917, "slack_id": "U096VN692LD", "display_name": "krishna", "bio": "High School Student and Programmer", "projects_count": 2, "devlogs_count": 13, "votes_count": 43, "ships_count": 2, "projects": [{"id": 7877, "title": "DineFit", "devlogs_count": 5, "created_at": "2025-07-23T11:50:23.385-04:00"}, {"id": 8047, "title": "FrogOS", "devlogs_count": 8, "created_at": "2025-07-24T09:40:22.247-04:00"}], "coding_time_seconds": 141373, "coding_time_seconds_today": 0, "balance": "You need to have a pocket watcher badge to view this.", "badges": [], "created_at": "2025-07-22T09:33:17.456-04:00", "updated_at": "2025-09-14T09:02:17.042-04:00", "avatar": "https://avatars.slack-edge.com/2025-07-22/9258061024368_43f0b70b4b3d56c6c818_original.png", "custom_css": null}, {"id": 17918, "slack_id": "U097L1H0GEL", "display_name": "Harold Bastidas", "bio": null, "projects_count": 0, "devlogs_count": 0, "votes_count": 0, "ships_count": 0, "projects": [], "coding_time_seconds": 0, "coding_time_seconds_today": 0, "balance": "You need to have a pocket watcher badge to view this.", "badges": [], "created_at": "2025-07-22T09:34:32.012-04:00", "updated_at": "2025-07-22T21:35:06.368-04:00", "avatar": "https://secure.gravatar.com/avatar/8718d305c57cf3b8ab187ca2af87994b.jpg?s=512&d=https%3A%2F%2Fa.slack-edge.com%2Fdf10d%2Fimg%2Favatars%2Fava_0026-512.png", "custom_css": null}, {"id": 17919, "slack_id": "U096GSNNJT1", "display_name": "Bahrian Novotny", "bio": null, "projects_count": 0, "devlogs_count": 0, "votes_count": 0, "ships_count": 0, "projects": [], "coding_time_seconds": 480, "coding_time_seconds_today": 0, "balance": "You need to have a pocket watcher badge to view this.", "badges": [], "created_at": "2025-07-22T09:34:32.087-04:00", "updated_at": "2025-07-25T06:15:40.464-04:00", "avatar": "https://secure.gravatar.com/avatar/b2eeae42aaa9defdb432258eb4c4f210.jpg?s=512&d=https%3A%2F%2Fa.slack-edge.com%2Fdf10d%2Fimg%2Favatars%2Fava_0011-512.png", "custom_css": null}, {"id": 17920, "slack_id": "U097L1D0TGQ", "display_name": "Tunir Wabhitkar", "bio": null, "projects_count": 0, "devlogs_count": 0, "votes_count": 0, "ships_count": 0, "projects": [], "coding_time_seconds": 4765, "coding_time_seconds_today": 0, "balance": "You need to have a pocket watcher badge to view this.", "badges": [], "created_at": "2025-07-22T09:34:40.598-04:00", "updated_at": "2025-07-22T21:35:06.552-04:00", "avatar": "https://avatars.slack-edge.com/2025-07-22/9235782077538_ad7b8eeaf28f1a46da51_original.gif", "custom_css": null}, {"id": 17921, "slack_id": "U096XM7PS10", "display_name": "Nico", "bio": null, "projects_count": 0, "devlogs_count": 0, "votes_count": 0, "ships_count": 0, "projects": [], "coding_time_seconds": 198212, "coding_time_seconds_today": 0, "balance": "You need to have a pocket watcher badge to view this.", "badges": [], "created_at": "2025-07-22T09:35:04.065-04:00", "updated_at": "2025-08-08T13:12:09.593-04:00", "avatar": "https://secure.gravatar.com/avatar/936c2972026f96935061accb964d5e7f.jpg?s=512&d=https%3A%2F%2Fa.slack-edge.com%2Fdf10d%2Fimg%2Favatars%2Fava_0005-512.png", "custom_css": null}, {"id": 17922, "slack_id": "U096GTD0X2T", "display_name": "aayush", "bio": null, "projects_count": 0, "devlogs_count": 0, "votes_count": 0, "ships_count": 0, "projects": [], "coding_time_seconds": 0, "coding_time_seconds_today": 0, "balance": "You need to have a pocket watcher badge to view this.", "badges": [], "created_at": "2025-07-22T09:35:20.817-04:00", "updated_at": "2025-07-22T21:35:06.729-04:00", "avatar": "https://secure.gravatar.com/avatar/92f99fe7f9332a30fe9176e68ec6f1ed.jpg?s=512&d=https%3A%2F%2Fa.slack-edge.com%2Fdf10d%2Fimg%2Favatars%2Fava_0018-512.png", "custom_css": null}, {"id": 17923, "slack_id": "U096XN6DPFU", "display_name": "Gabi Zambrano", "bio": null, "projects_count": 2, "devlogs_count": 1, "votes_count": 6, "ships_count": 1, "projects": [{"id": 7650, "title": "Platformer Game", "devlogs_count": 0, "created_at": "2025-07-22T12:07:31.276-04:00"}, {"id": 7701, "title": "Milo's lost mouse", "devlogs_count": 1, "created_at": "2025-07-22T15:45:32.088-04:00"}], "coding_time_seconds": 16865, "coding_time_seconds_today": 0, "balance": "You need to have a pocket watcher badge to view this.", "badges": [], "created_at": "2025-07-22T09:37:21.535-04:00", "updated_at": "2025-08-18T10:13:47.769-04:00", "avatar": "https://secure.gravatar.com/avatar/8255ff77ac199aab3c5706d00b3d81ef.jpg?s=512&d=https%3A%2F%2Fa.slack-edge.com%2Fdf10d%2Fimg%2Favatars%2Fava_0004-512.png", "custom_css": null}, {"id": 17924, "slack_id": "U097ASVCKS5", "display_name": "Akhilesh Ashok Desai", "bio": null, "projects_count": 0, "devlogs_count": 0, "votes_count": 0, "ships_count": 0, "projects": [], "coding_time_seconds": 118346, "coding_time_seconds_today": 0, "balance": "You need to have a pocket watcher badge to view this.", "badges": [], "created_at": "2025-07-22T09:38:57.673-04:00", "updated_at": "2025-07-22T21:35:06.904-04:00", "avatar": "https://secure.gravatar.com/avatar/2827d1e076e089c4da3a691559822404.jpg?s=512&d=https%3A%2F%2Fa.slack-edge.com%2Fdf10d%2Fimg%2Favatars%2Fava_0020-512.png", "custom_css": null}, {"id": 17925, "slack_id": "U097AUA8BB3", "display_name": "Mohit Paddhariya", "bio": null, "projects_count": 0, "devlogs_count": 0, "votes_count": 1, "ships_count": 0, "projects": [], "coding_time_seconds": 2841, "coding_time_seconds_today": 0, "balance": "You need to have a pocket watcher badge to view this.", "badges": [], "created_at": "2025-07-22T09:40:25.468-04:00", "updated_at": "2025-07-22T21:35:06.995-04:00", "avatar": "https://secure.gravatar.com/avatar/2fdbe2295d4d781edf34ef34ed58c13d.jpg?s=512&d=https%3A%2F%2Fa.slack-edge.com%2Fdf10d%2Fimg%2Favatars%2Fava_0012-512.png", "custom_css": null}], "pagination": {"page": 892, "pages": 1192, "count": 23828, "items": 20}}