{"users": [{"id": 17926, "slack_id": "U096SD6ASJF", "display_name": "Shakir", "bio": null, "projects_count": 0, "devlogs_count": 0, "votes_count": 0, "ships_count": 0, "projects": [], "coding_time_seconds": 0, "coding_time_seconds_today": 0, "balance": "You need to have a pocket watcher badge to view this.", "badges": [], "created_at": "2025-07-22T09:40:52.029-04:00", "updated_at": "2025-07-22T21:35:07.088-04:00", "avatar": "https://secure.gravatar.com/avatar/8df11ded364692e25208a532c7a16cbf.jpg?s=512&d=https%3A%2F%2Fa.slack-edge.com%2Fdf10d%2Fimg%2Favatars%2Fava_0021-512.png", "custom_css": null}, {"id": 17927, "slack_id": "U096SDTN74K", "display_name": "Isaac Emerick", "bio": null, "projects_count": 0, "devlogs_count": 0, "votes_count": 0, "ships_count": 0, "projects": [], "coding_time_seconds": 0, "coding_time_seconds_today": 0, "balance": "You need to have a pocket watcher badge to view this.", "badges": [], "created_at": "2025-07-22T09:42:14.369-04:00", "updated_at": "2025-07-22T21:35:07.181-04:00", "avatar": "https://secure.gravatar.com/avatar/ad870f3d7e4554aedcddd2875d106259.jpg?s=512&d=https%3A%2F%2Fa.slack-edge.com%2Fdf10d%2Fimg%2Favatars%2Fava_0019-512.png", "custom_css": null}, {"id": 17928, "slack_id": "U096TJR7L3F", "display_name": "Jessica", "bio": null, "projects_count": 0, "devlogs_count": 0, "votes_count": 0, "ships_count": 0, "projects": [], "coding_time_seconds": 717, "coding_time_seconds_today": 0, "balance": "You need to have a pocket watcher badge to view this.", "badges": [], "created_at": "2025-07-22T09:43:38.297-04:00", "updated_at": "2025-07-22T21:35:07.268-04:00", "avatar": "https://secure.gravatar.com/avatar/96f30a269cb6217a1083dedfb7f39031.jpg?s=512&d=https%3A%2F%2Fa.slack-edge.com%2Fdf10d%2Fimg%2Favatars%2Fava_0024-512.png", "custom_css": null}, {"id": 17929, "slack_id": "U096XFTDTR8", "display_name": "Efe Daniel Aghahowa", "bio": null, "projects_count": 0, "devlogs_count": 0, "votes_count": 0, "ships_count": 0, "projects": [], "coding_time_seconds": 0, "coding_time_seconds_today": 0, "balance": "You need to have a pocket watcher badge to view this.", "badges": [], "created_at": "2025-07-22T09:44:51.799-04:00", "updated_at": "2025-07-22T21:35:07.353-04:00", "avatar": "https://secure.gravatar.com/avatar/e3bbbeea2a9e1d1ff29c5066349ea0e3.jpg?s=512&d=https%3A%2F%2Fa.slack-edge.com%2Fdf10d%2Fimg%2Favatars%2Fava_0004-512.png", "custom_css": null}, {"id": 17930, "slack_id": "U096XPSDHC2", "display_name": "Maryam", "bio": null, "projects_count": 0, "devlogs_count": 0, "votes_count": 0, "ships_count": 0, "projects": [], "coding_time_seconds": 0, "coding_time_seconds_today": 0, "balance": "You need to have a pocket watcher badge to view this.", "badges": [], "created_at": "2025-07-22T09:45:17.381-04:00", "updated_at": "2025-07-22T21:35:07.451-04:00", "avatar": "https://secure.gravatar.com/avatar/7e17ffde6967771b57e464166ea2b199.jpg?s=512&d=https%3A%2F%2Fa.slack-edge.com%2Fdf10d%2Fimg%2Favatars%2Fava_0005-512.png", "custom_css": null}, {"id": 17931, "slack_id": "U096SEK4ULT", "display_name": "Parvathy S", "bio": null, "projects_count": 0, "devlogs_count": 0, "votes_count": 0, "ships_count": 0, "projects": [], "coding_time_seconds": 0, "coding_time_seconds_today": 0, "balance": "You need to have a pocket watcher badge to view this.", "badges": [], "created_at": "2025-07-22T09:46:14.127-04:00", "updated_at": "2025-07-22T21:35:07.547-04:00", "avatar": "https://avatars.slack-edge.com/2025-07-22/9249011758401_6453ec065247e9a5125b_original.png", "custom_css": null}, {"id": 17932, "slack_id": "U096H022NSK", "display_name": "Priyanka Jain", "bio": null, "projects_count": 0, "devlogs_count": 0, "votes_count": 0, "ships_count": 0, "projects": [], "coding_time_seconds": 0, "coding_time_seconds_today": 0, "balance": "You need to have a pocket watcher badge to view this.", "badges": [], "created_at": "2025-07-22T09:46:16.377-04:00", "updated_at": "2025-07-22T21:35:07.659-04:00", "avatar": "https://avatars.slack-edge.com/2025-07-22/9233853427861_60c7f0beacacecda0892_original.jpg", "custom_css": null}, {"id": 17933, "slack_id": "U096UMPN04E", "display_name": "Abhay Gusain", "bio": null, "projects_count": 0, "devlogs_count": 0, "votes_count": 0, "ships_count": 0, "projects": [], "coding_time_seconds": 0, "coding_time_seconds_today": 0, "balance": "You need to have a pocket watcher badge to view this.", "badges": [], "created_at": "2025-07-22T09:46:41.990-04:00", "updated_at": "2025-07-22T21:35:07.744-04:00", "avatar": "https://secure.gravatar.com/avatar/240f77b042a5bc52d3b579a464851d27.jpg?s=512&d=https%3A%2F%2Fa.slack-edge.com%2Fdf10d%2Fimg%2Favatars%2Fava_0007-512.png", "custom_css": null}, {"id": 17934, "slack_id": "U097B0664G1", "display_name": "den", "bio": null, "projects_count": 0, "devlogs_count": 0, "votes_count": 0, "ships_count": 0, "projects": [], "coding_time_seconds": 0, "coding_time_seconds_today": 0, "balance": "You need to have a pocket watcher badge to view this.", "badges": [], "created_at": "2025-07-22T09:47:43.803-04:00", "updated_at": "2025-07-22T21:35:07.832-04:00", "avatar": "https://secure.gravatar.com/avatar/7c1a2ea7d2cce9418e21f6148c020a28.jpg?s=512&d=https%3A%2F%2Fa.slack-edge.com%2Fdf10d%2Fimg%2Favatars%2Fava_0024-512.png", "custom_css": null}, {"id": 17935, "slack_id": "U096UNMG4H4", "display_name": "Yashwanth", "bio": null, "projects_count": 0, "devlogs_count": 0, "votes_count": 0, "ships_count": 0, "projects": [], "coding_time_seconds": 0, "coding_time_seconds_today": 0, "balance": "You need to have a pocket watcher badge to view this.", "badges": [], "created_at": "2025-07-22T09:48:18.477-04:00", "updated_at": "2025-07-22T21:35:07.917-04:00", "avatar": "https://avatars.slack-edge.com/2025-07-22/9230521189011_1bb142eb381bfd0fe34b_original.jpg", "custom_css": null}, {"id": 17936, "slack_id": "U097KUTUTJL", "display_name": "auta", "bio": null, "projects_count": 0, "devlogs_count": 0, "votes_count": 0, "ships_count": 0, "projects": [], "coding_time_seconds": 0, "coding_time_seconds_today": 0, "balance": "You need to have a pocket watcher badge to view this.", "badges": [], "created_at": "2025-07-22T09:48:42.800-04:00", "updated_at": "2025-07-22T21:35:12.051-04:00", "avatar": "https://secure.gravatar.com/avatar/8d8c370cb58e0ead0e270f11c325b0fb.jpg?s=512&d=https%3A%2F%2Fa.slack-edge.com%2Fdf10d%2Fimg%2Favatars%2Fava_0018-512.png", "custom_css": null}, {"id": 17937, "slack_id": "U097L4A5QC8", "display_name": "venkat prabhu", "bio": null, "projects_count": 0, "devlogs_count": 0, "votes_count": 1, "ships_count": 0, "projects": [], "coding_time_seconds": 256188, "coding_time_seconds_today": 120, "balance": "You need to have a pocket watcher badge to view this.", "badges": [], "created_at": "2025-07-22T09:49:08.653-04:00", "updated_at": "2025-07-22T21:35:12.157-04:00", "avatar": "https://avatars.slack-edge.com/2025-07-22/9258157043648_070edaa9b866a09b2312_original.png", "custom_css": null}, {"id": 17938, "slack_id": "U097AUFTBTK", "display_name": "Silviu Chiscareanu", "bio": null, "projects_count": 0, "devlogs_count": 0, "votes_count": 0, "ships_count": 0, "projects": [], "coding_time_seconds": 0, "coding_time_seconds_today": 0, "balance": "You need to have a pocket watcher badge to view this.", "badges": [], "created_at": "2025-07-22T09:49:39.733-04:00", "updated_at": "2025-07-22T21:35:12.245-04:00", "avatar": "https://secure.gravatar.com/avatar/fdf1a92eccca48078484c64a3563bf09.jpg?s=512&d=https%3A%2F%2Fa.slack-edge.com%2Fdf10d%2Fimg%2Favatars%2Fava_0003-512.png", "custom_css": null}, {"id": 17939, "slack_id": "U096XR097S6", "display_name": "cyber guardian", "bio": null, "projects_count": 0, "devlogs_count": 0, "votes_count": 0, "ships_count": 0, "projects": [], "coding_time_seconds": 284, "coding_time_seconds_today": 0, "balance": "You need to have a pocket watcher badge to view this.", "badges": [], "created_at": "2025-07-22T09:50:28.495-04:00", "updated_at": "2025-07-22T21:35:12.334-04:00", "avatar": "https://secure.gravatar.com/avatar/59f30043556e391e4defd04f17d423fe.jpg?s=512&d=https%3A%2F%2Fa.slack-edge.com%2Fdf10d%2Fimg%2Favatars%2Fava_0015-512.png", "custom_css": null}, {"id": 17940, "slack_id": "U096VSBKAKX", "display_name": "Jagdish Padhi", "bio": null, "projects_count": 0, "devlogs_count": 0, "votes_count": 0, "ships_count": 0, "projects": [], "coding_time_seconds": 0, "coding_time_seconds_today": 0, "balance": "You need to have a pocket watcher badge to view this.", "badges": [], "created_at": "2025-07-22T09:56:41.913-04:00", "updated_at": "2025-07-22T21:35:12.436-04:00", "avatar": "https://secure.gravatar.com/avatar/d2fcf89725a6e004438f0d14f2c2c9ba.jpg?s=512&d=https%3A%2F%2Fa.slack-edge.com%2Fdf10d%2Fimg%2Favatars%2Fava_0010-512.png", "custom_css": null}, {"id": 17941, "slack_id": "U096H1G958F", "display_name": "Tanvi", "bio": null, "projects_count": 0, "devlogs_count": 0, "votes_count": 0, "ships_count": 0, "projects": [], "coding_time_seconds": 0, "coding_time_seconds_today": 0, "balance": "You need to have a pocket watcher badge to view this.", "badges": [], "created_at": "2025-07-22T09:56:49.628-04:00", "updated_at": "2025-07-22T21:35:12.518-04:00", "avatar": "https://secure.gravatar.com/avatar/185d0f166fc86c92f58c9986e89f2ba3.jpg?s=512&d=https%3A%2F%2Fa.slack-edge.com%2Fdf10d%2Fimg%2Favatars%2Fava_0004-512.png", "custom_css": null}, {"id": 17942, "slack_id": "U096VS7RZT7", "display_name": "ALEXANDROS LEONTARIDIS", "bio": null, "projects_count": 0, "devlogs_count": 0, "votes_count": 0, "ships_count": 0, "projects": [], "coding_time_seconds": 188266, "coding_time_seconds_today": 0, "balance": "You need to have a pocket watcher badge to view this.", "badges": [], "created_at": "2025-07-22T09:57:17.053-04:00", "updated_at": "2025-07-22T21:35:12.602-04:00", "avatar": "https://avatars.slack-edge.com/2025-07-22/9237137737940_e22c4a593b8dec298a5e_original.png", "custom_css": null}, {"id": 17943, "slack_id": "U096VSS24CV", "display_name": "Debajyoti upadhayaya", "bio": null, "projects_count": 0, "devlogs_count": 0, "votes_count": 0, "ships_count": 0, "projects": [], "coding_time_seconds": 0, "coding_time_seconds_today": 0, "balance": "You need to have a pocket watcher badge to view this.", "badges": [], "created_at": "2025-07-22T09:58:34.641-04:00", "updated_at": "2025-07-22T21:35:12.694-04:00", "avatar": "https://secure.gravatar.com/avatar/94931f36cb79b705d42277b9e4169fe3.jpg?s=512&d=https%3A%2F%2Fa.slack-edge.com%2Fdf10d%2Fimg%2Favatars%2Fava_0023-512.png", "custom_css": null}, {"id": 17944, "slack_id": "U096H20J46T", "display_name": "Mikayil Guliyev", "bio": null, "projects_count": 1, "devlogs_count": 0, "votes_count": 1, "ships_count": 0, "projects": [{"id": 7844, "title": "Vacuum The Ghosts!", "devlogs_count": 0, "created_at": "2025-07-23T08:51:37.773-04:00"}], "coding_time_seconds": 84756, "coding_time_seconds_today": 0, "balance": "You need to have a pocket watcher badge to view this.", "badges": [], "created_at": "2025-07-22T09:59:13.614-04:00", "updated_at": "2025-07-23T07:54:23.200-04:00", "avatar": "https://secure.gravatar.com/avatar/7c246446b9c7d7bd6aecd4eb923571e3.jpg?s=512&d=https%3A%2F%2Fa.slack-edge.com%2Fdf10d%2Fimg%2Favatars%2Fava_0010-512.png", "custom_css": null}, {"id": 17945, "slack_id": "U096H2CT5U7", "display_name": "Muhammad Kashif", "bio": null, "projects_count": 0, "devlogs_count": 0, "votes_count": 0, "ships_count": 0, "projects": [], "coding_time_seconds": 0, "coding_time_seconds_today": 0, "balance": "You need to have a pocket watcher badge to view this.", "badges": [], "created_at": "2025-07-22T09:59:54.980-04:00", "updated_at": "2025-07-22T21:35:16.909-04:00", "avatar": "https://secure.gravatar.com/avatar/0a4851e2b226f3d30bf93c5fe2486ffa.jpg?s=512&d=https%3A%2F%2Fa.slack-edge.com%2Fdf10d%2Fimg%2Favatars%2Fava_0019-512.png", "custom_css": null}], "pagination": {"page": 893, "pages": 1192, "count": 23828, "items": 20}}