{"users": [{"id": 17946, "slack_id": "U096VSYULQM", "display_name": "Hardik Kundal", "bio": null, "projects_count": 0, "devlogs_count": 0, "votes_count": 0, "ships_count": 0, "projects": [], "coding_time_seconds": 0, "coding_time_seconds_today": 0, "balance": "You need to have a pocket watcher badge to view this.", "badges": [], "created_at": "2025-07-22T10:00:24.661-04:00", "updated_at": "2025-07-22T21:35:17.009-04:00", "avatar": "https://secure.gravatar.com/avatar/b62a0ebc2cd1dfbed79332adf40f833f.jpg?s=512&d=https%3A%2F%2Fa.slack-edge.com%2Fdf10d%2Fimg%2Favatars%2Fava_0000-512.png", "custom_css": null}, {"id": 17947, "slack_id": "U096H2ZM26B", "display_name": "Rayan", "bio": null, "projects_count": 0, "devlogs_count": 0, "votes_count": 0, "ships_count": 0, "projects": [], "coding_time_seconds": 0, "coding_time_seconds_today": 0, "balance": "You need to have a pocket watcher badge to view this.", "badges": [], "created_at": "2025-07-22T10:01:32.504-04:00", "updated_at": "2025-07-22T21:35:17.094-04:00", "avatar": "https://secure.gravatar.com/avatar/5a53c2f82d303306741c3932d6dbe40c.jpg?s=512&d=https%3A%2F%2Fa.slack-edge.com%2Fdf10d%2Fimg%2Favatars%2Fava_0013-512.png", "custom_css": null}, {"id": 17948, "slack_id": "U097L64SJ3A", "display_name": "Demian", "bio": null, "projects_count": 0, "devlogs_count": 0, "votes_count": 0, "ships_count": 0, "projects": [], "coding_time_seconds": 0, "coding_time_seconds_today": 0, "balance": "You need to have a pocket watcher badge to view this.", "badges": [], "created_at": "2025-07-22T10:01:52.685-04:00", "updated_at": "2025-07-22T21:35:17.176-04:00", "avatar": "https://secure.gravatar.com/avatar/77e19c69bf79bee9f28d5a64b6b5150f.jpg?s=512&d=https%3A%2F%2Fa.slack-edge.com%2Fdf10d%2Fimg%2Favatars%2Fava_0015-512.png", "custom_css": null}, {"id": 17949, "slack_id": "U096SHXBALB", "display_name": "Muhammad Yaqoob", "bio": null, "projects_count": 1, "devlogs_count": 0, "votes_count": 0, "ships_count": 0, "projects": [{"id": 7622, "title": "CodeFLow", "devlogs_count": 0, "created_at": "2025-07-22T10:17:08.789-04:00"}], "coding_time_seconds": 224994, "coding_time_seconds_today": 0, "balance": "You need to have a pocket watcher badge to view this.", "badges": [], "created_at": "2025-07-22T10:03:03.078-04:00", "updated_at": "2025-07-22T21:35:17.263-04:00", "avatar": "https://secure.gravatar.com/avatar/7f6fa6d5ded93c367938d0eef6702d33.jpg?s=512&d=https%3A%2F%2Fa.slack-edge.com%2Fdf10d%2Fimg%2Favatars%2Fava_0022-512.png", "custom_css": null}, {"id": 17950, "slack_id": "U096URM37N2", "display_name": "leaf", "bio": null, "projects_count": 0, "devlogs_count": 0, "votes_count": 0, "ships_count": 0, "projects": [], "coding_time_seconds": 36330, "coding_time_seconds_today": 514, "balance": "You need to have a pocket watcher badge to view this.", "badges": [], "created_at": "2025-07-22T10:03:23.822-04:00", "updated_at": "2025-08-23T10:14:37.577-04:00", "avatar": "https://secure.gravatar.com/avatar/b943c7ff84a238879f9273dc96d73301.jpg?s=512&d=https%3A%2F%2Fa.slack-edge.com%2Fdf10d%2Fimg%2Favatars%2Fava_0022-512.png", "custom_css": null}, {"id": 17951, "slack_id": "U096URP6M3Q", "display_name": "Shark", "bio": null, "projects_count": 3, "devlogs_count": 9, "votes_count": 102, "ships_count": 1, "projects": [{"id": 11708, "title": "micro llm", "devlogs_count": 3, "created_at": "2025-08-18T16:12:05.793-04:00"}, {"id": 13703, "title": "Mcp262", "devlogs_count": 0, "created_at": "2025-09-23T09:51:40.313-04:00"}, {"id": 7684, "title": "Yavashark", "devlogs_count": 6, "created_at": "2025-07-22T14:32:42.840-04:00"}], "coding_time_seconds": 703941, "coding_time_seconds_today": 3247, "balance": "You need to have a pocket watcher badge to view this.", "badges": [], "created_at": "2025-07-22T10:03:37.255-04:00", "updated_at": "2025-08-31T23:34:05.367-04:00", "avatar": "https://secure.gravatar.com/avatar/a0804b491af7e29db88dbbd67037548d.jpg?s=512&d=https%3A%2F%2Fa.slack-edge.com%2Fdf10d%2Fimg%2Favatars%2Fava_0000-512.png", "custom_css": null}, {"id": 17952, "slack_id": "U096SHZQ319", "display_name": "Assia", "bio": null, "projects_count": 0, "devlogs_count": 0, "votes_count": 0, "ships_count": 0, "projects": [], "coding_time_seconds": 0, "coding_time_seconds_today": 0, "balance": "You need to have a pocket watcher badge to view this.", "badges": [], "created_at": "2025-07-22T10:03:48.041-04:00", "updated_at": "2025-07-22T21:35:17.526-04:00", "avatar": "https://secure.gravatar.com/avatar/0841b1faa5c53fa7d7b392e40a5dc7aa.jpg?s=512&d=https%3A%2F%2Fa.slack-edge.com%2Fdf10d%2Fimg%2Favatars%2Fava_0025-512.png", "custom_css": null}, {"id": 17953, "slack_id": "U097L79TL1E", "display_name": "omgsrt", "bio": null, "projects_count": 0, "devlogs_count": 0, "votes_count": 0, "ships_count": 0, "projects": [], "coding_time_seconds": 0, "coding_time_seconds_today": 0, "balance": "You need to have a pocket watcher badge to view this.", "badges": [], "created_at": "2025-07-22T10:06:03.371-04:00", "updated_at": "2025-07-22T21:35:17.616-04:00", "avatar": "https://secure.gravatar.com/avatar/de9fe1659c9bf0b6be57b05c7737f0f6.jpg?s=512&d=https%3A%2F%2Fa.slack-edge.com%2Fdf10d%2Fimg%2Favatars%2Fava_0014-512.png", "custom_css": null}, {"id": 17954, "slack_id": "U096H474PQF", "display_name": "monoastro", "bio": null, "projects_count": 0, "devlogs_count": 0, "votes_count": 0, "ships_count": 0, "projects": [], "coding_time_seconds": 0, "coding_time_seconds_today": 0, "balance": "You need to have a pocket watcher badge to view this.", "badges": [], "created_at": "2025-07-22T10:08:25.058-04:00", "updated_at": "2025-07-22T21:35:17.693-04:00", "avatar": "https://secure.gravatar.com/avatar/c07069d215e3f5bf7bc24a56ff906ef8.jpg?s=512&d=https%3A%2F%2Fa.slack-edge.com%2Fdf10d%2Fimg%2Favatars%2Fava_0018-512.png", "custom_css": null}, {"id": 17955, "slack_id": "U097J2V0400", "display_name": "yash", "bio": null, "projects_count": 0, "devlogs_count": 0, "votes_count": 0, "ships_count": 0, "projects": [], "coding_time_seconds": 0, "coding_time_seconds_today": 0, "balance": "You need to have a pocket watcher badge to view this.", "badges": [], "created_at": "2025-07-22T10:10:24.990-04:00", "updated_at": "2025-07-22T21:35:21.821-04:00", "avatar": "https://secure.gravatar.com/avatar/39903fc1a82fcb1411e6ce2312710468.jpg?s=512&d=https%3A%2F%2Fa.slack-edge.com%2Fdf10d%2Fimg%2Favatars%2Fava_0004-512.png", "custom_css": null}, {"id": 17956, "slack_id": "U096Z6K1KNG", "display_name": "Asif", "bio": null, "projects_count": 0, "devlogs_count": 0, "votes_count": 0, "ships_count": 0, "projects": [], "coding_time_seconds": 0, "coding_time_seconds_today": 0, "balance": "You need to have a pocket watcher badge to view this.", "badges": [], "created_at": "2025-07-22T10:10:36.273-04:00", "updated_at": "2025-07-22T21:35:21.906-04:00", "avatar": "https://secure.gravatar.com/avatar/628c66dad1d1ec4b37ab22e3b286d5d5.jpg?s=512&d=https%3A%2F%2Fa.slack-edge.com%2Fdf10d%2Fimg%2Favatars%2Fava_0007-512.png", "custom_css": null}, {"id": 17957, "slack_id": "U08RGC8TK4N", "display_name": "neon", "bio": null, "projects_count": 0, "devlogs_count": 0, "votes_count": 0, "ships_count": 0, "projects": [], "coding_time_seconds": 0, "coding_time_seconds_today": 0, "balance": "You need to have a pocket watcher badge to view this.", "badges": [], "created_at": "2025-07-22T10:12:03.310-04:00", "updated_at": "2025-07-22T21:35:22.001-04:00", "avatar": "https://secure.gravatar.com/avatar/4687b8f60d14700c4c13210dff9d9d3f.jpg?s=512&d=https%3A%2F%2Fa.slack-edge.com%2Fdf10d%2Fimg%2Favatars%2Fava_0015-512.png", "custom_css": null}, {"id": 17958, "slack_id": "U096UTKVC5U", "display_name": "klipJamper", "bio": null, "projects_count": 0, "devlogs_count": 0, "votes_count": 0, "ships_count": 0, "projects": [], "coding_time_seconds": 0, "coding_time_seconds_today": 0, "balance": "You need to have a pocket watcher badge to view this.", "badges": [], "created_at": "2025-07-22T10:14:00.193-04:00", "updated_at": "2025-07-22T21:35:22.084-04:00", "avatar": "https://secure.gravatar.com/avatar/6212e88df26d7af0d59a75bc3c060e9d.jpg?s=512&d=https%3A%2F%2Fa.slack-edge.com%2Fdf10d%2Fimg%2Favatars%2Fava_0008-512.png", "custom_css": null}, {"id": 17959, "slack_id": "U097AKC3B33", "display_name": "Naeem Ahmed", "bio": null, "projects_count": 0, "devlogs_count": 0, "votes_count": 0, "ships_count": 0, "projects": [], "coding_time_seconds": 0, "coding_time_seconds_today": 0, "balance": "You need to have a pocket watcher badge to view this.", "badges": [], "created_at": "2025-07-22T10:14:05.509-04:00", "updated_at": "2025-07-22T21:35:22.165-04:00", "avatar": "https://secure.gravatar.com/avatar/7d959a9f1b51664aa5cad4d6851d514a.jpg?s=512&d=https%3A%2F%2Fa.slack-edge.com%2Fdf10d%2Fimg%2Favatars%2Fava_0002-512.png", "custom_css": null}, {"id": 17960, "slack_id": "U096SL037R9", "display_name": "Rusiru Randika", "bio": null, "projects_count": 0, "devlogs_count": 0, "votes_count": 0, "ships_count": 0, "projects": [], "coding_time_seconds": 0, "coding_time_seconds_today": 0, "balance": "You need to have a pocket watcher badge to view this.", "badges": [], "created_at": "2025-07-22T10:15:26.527-04:00", "updated_at": "2025-07-22T21:35:22.253-04:00", "avatar": "https://avatars.slack-edge.com/2025-07-22/9237264906596_50ed62be637489712809_original.jpg", "custom_css": null}, {"id": 17961, "slack_id": "U08245XTGNN", "display_name": "Raj Dave", "bio": null, "projects_count": 5, "devlogs_count": 2, "votes_count": 2, "ships_count": 1, "projects": [{"id": 7629, "title": "Zhiyun Crane 2S App", "devlogs_count": 0, "created_at": "2025-07-22T10:40:56.805-04:00"}, {"id": 7630, "title": "Zhiyun Crane 2S Controller", "devlogs_count": 0, "created_at": "2025-07-22T10:42:10.833-04:00"}, {"id": 7632, "title": "pycrane2s", "devlogs_count": 1, "created_at": "2025-07-22T10:43:43.356-04:00"}, {"id": 7635, "title": "BPS Circular Bot", "devlogs_count": 0, "created_at": "2025-07-22T10:46:40.540-04:00"}, {"id": 7633, "title": "BPS Circular API", "devlogs_count": 1, "created_at": "2025-07-22T10:45:34.096-04:00"}], "coding_time_seconds": 52732, "coding_time_seconds_today": 0, "balance": "You need to have a pocket watcher badge to view this.", "badges": [], "created_at": "2025-07-22T10:17:09.555-04:00", "updated_at": "2025-08-12T06:28:52.984-04:00", "avatar": "https://secure.gravatar.com/avatar/3f96ee6ca04c324afb75390623c0754d.jpg?s=512&d=https%3A%2F%2Fa.slack-edge.com%2Fdf10d%2Fimg%2Favatars%2Fava_0003-512.png", "custom_css": null}, {"id": 17962, "slack_id": "U097B64PQ49", "display_name": "Nasheeth Ahmed A", "bio": null, "projects_count": 0, "devlogs_count": 0, "votes_count": 0, "ships_count": 0, "projects": [], "coding_time_seconds": 373, "coding_time_seconds_today": 0, "balance": "You need to have a pocket watcher badge to view this.", "badges": [], "created_at": "2025-07-22T10:17:16.294-04:00", "updated_at": "2025-07-22T21:35:22.394-04:00", "avatar": "https://avatars.slack-edge.com/2025-07-22/9258460873568_55083457887aa4cb6019_original.png", "custom_css": null}, {"id": 17963, "slack_id": "U096W2EA4TF", "display_name": "kristal440", "bio": null, "projects_count": 0, "devlogs_count": 0, "votes_count": 0, "ships_count": 0, "projects": [], "coding_time_seconds": 0, "coding_time_seconds_today": 0, "balance": "You need to have a pocket watcher badge to view this.", "badges": [], "created_at": "2025-07-22T10:23:15.010-04:00", "updated_at": "2025-07-22T21:35:22.474-04:00", "avatar": "https://secure.gravatar.com/avatar/258def68778c3185bac0eee15dd07e04.jpg?s=512&d=https%3A%2F%2Fa.slack-edge.com%2Fdf10d%2Fimg%2Favatars%2Fava_0008-512.png", "custom_css": null}, {"id": 17964, "slack_id": "U096ENP79EK", "display_name": "Ankit Raj", "bio": null, "projects_count": 0, "devlogs_count": 0, "votes_count": 0, "ships_count": 0, "projects": [], "coding_time_seconds": 26495, "coding_time_seconds_today": 0, "balance": "You need to have a pocket watcher badge to view this.", "badges": [], "created_at": "2025-07-22T10:23:23.265-04:00", "updated_at": "2025-07-22T21:35:22.573-04:00", "avatar": "https://secure.gravatar.com/avatar/9c2710eff80ca4a170e7a8f2e6dc9884.jpg?s=512&d=https%3A%2F%2Fa.slack-edge.com%2Fdf10d%2Fimg%2Favatars%2Fava_0013-512.png", "custom_css": null}, {"id": 17965, "slack_id": "U096Z8F92FN", "display_name": "Mattia", "bio": null, "projects_count": 0, "devlogs_count": 0, "votes_count": 0, "ships_count": 0, "projects": [], "coding_time_seconds": 0, "coding_time_seconds_today": 0, "balance": "You need to have a pocket watcher badge to view this.", "badges": [], "created_at": "2025-07-22T10:24:19.715-04:00", "updated_at": "2025-07-23T17:32:01.602-04:00", "avatar": "https://secure.gravatar.com/avatar/9b8a2766a22e4d2ddd3195874a4b2fa9.jpg?s=512&d=https%3A%2F%2Fa.slack-edge.com%2Fdf10d%2Fimg%2Favatars%2Fava_0003-512.png", "custom_css": null}], "pagination": {"page": 894, "pages": 1192, "count": 23828, "items": 20}}