{"users": [{"id": 17966, "slack_id": "U096SNBQ1FV", "display_name": "Gurjot Singh", "bio": null, "projects_count": 0, "devlogs_count": 0, "votes_count": 0, "ships_count": 0, "projects": [], "coding_time_seconds": 0, "coding_time_seconds_today": 0, "balance": "You need to have a pocket watcher badge to view this.", "badges": [], "created_at": "2025-07-22T10:25:53.000-04:00", "updated_at": "2025-07-22T21:35:22.744-04:00", "avatar": "https://avatars.slack-edge.com/2025-07-22/9234122262629_56061aec1a33abf538f8_original.jpg", "custom_css": null}, {"id": 17967, "slack_id": "U096SHXG1PD", "display_name": "Abdel", "bio": null, "projects_count": 1, "devlogs_count": 0, "votes_count": 0, "ships_count": 0, "projects": [{"id": 7628, "title": "Shyftloop", "devlogs_count": 0, "created_at": "2025-07-22T10:40:00.065-04:00"}], "coding_time_seconds": 33859, "coding_time_seconds_today": 0, "balance": "You need to have a pocket watcher badge to view this.", "badges": [], "created_at": "2025-07-22T10:27:16.547-04:00", "updated_at": "2025-07-22T21:35:22.828-04:00", "avatar": "https://secure.gravatar.com/avatar/4d2f156134d0c6d42cdb417d11af4936.jpg?s=512&d=https%3A%2F%2Fa.slack-edge.com%2Fdf10d%2Fimg%2Favatars%2Fava_0017-512.png", "custom_css": null}, {"id": 17968, "slack_id": "U096W34719B", "display_name": "Benjamin", "bio": null, "projects_count": 0, "devlogs_count": 0, "votes_count": 0, "ships_count": 0, "projects": [], "coding_time_seconds": 0, "coding_time_seconds_today": 0, "balance": "You need to have a pocket watcher badge to view this.", "badges": [], "created_at": "2025-07-22T10:27:31.823-04:00", "updated_at": "2025-07-22T21:35:22.916-04:00", "avatar": "https://secure.gravatar.com/avatar/d34bbdc9afc10f9c39a0b2377c7e5aa5.jpg?s=512&d=https%3A%2F%2Fa.slack-edge.com%2Fdf10d%2Fimg%2Favatars%2Fava_0016-512.png", "custom_css": null}, {"id": 17969, "slack_id": "U097B7T4MKK", "display_name": "Kalen Clyde", "bio": null, "projects_count": 1, "devlogs_count": 0, "votes_count": 0, "ships_count": 0, "projects": [{"id": 12770, "title": "cool stuff", "devlogs_count": 0, "created_at": "2025-09-02T08:46:53.462-04:00"}], "coding_time_seconds": 836, "coding_time_seconds_today": 0, "balance": "You need to have a pocket watcher badge to view this.", "badges": [], "created_at": "2025-07-22T10:28:00.793-04:00", "updated_at": "2025-09-02T11:00:14.815-04:00", "avatar": "https://avatars.slack-edge.com/2025-07-23/9237098795605_5e86a18d71dea65657c0_original.png", "custom_css": null}, {"id": 17970, "slack_id": "U096Y3E35C2", "display_name": "Kami", "bio": null, "projects_count": 1, "devlogs_count": 0, "votes_count": 0, "ships_count": 0, "projects": [{"id": 7627, "title": "RAISE", "devlogs_count": 0, "created_at": "2025-07-22T10:38:38.206-04:00"}], "coding_time_seconds": 7951, "coding_time_seconds_today": 0, "balance": "You need to have a pocket watcher badge to view this.", "badges": [], "created_at": "2025-07-22T10:28:15.608-04:00", "updated_at": "2025-07-23T17:36:02.395-04:00", "avatar": "https://secure.gravatar.com/avatar/0742c399efb68830877e802587b03718.jpg?s=512&d=https%3A%2F%2Fa.slack-edge.com%2Fdf10d%2Fimg%2Favatars%2Fava_0004-512.png", "custom_css": null}, {"id": 17971, "slack_id": "U096W3PK1JR", "display_name": "Animish Yadav", "bio": null, "projects_count": 0, "devlogs_count": 0, "votes_count": 0, "ships_count": 0, "projects": [], "coding_time_seconds": 3376, "coding_time_seconds_today": 0, "balance": "You need to have a pocket watcher badge to view this.", "badges": [], "created_at": "2025-07-22T10:28:17.189-04:00", "updated_at": "2025-07-22T21:35:27.213-04:00", "avatar": "https://secure.gravatar.com/avatar/a74d69d0d9b636d6cad3022869cc6a84.jpg?s=512&d=https%3A%2F%2Fa.slack-edge.com%2Fdf10d%2Fimg%2Favatars%2Fava_0015-512.png", "custom_css": null}, {"id": 17972, "slack_id": "U096SNKC8PM", "display_name": "Abdurrahman", "bio": null, "projects_count": 0, "devlogs_count": 0, "votes_count": 1, "ships_count": 0, "projects": [], "coding_time_seconds": 77819, "coding_time_seconds_today": 0, "balance": "You need to have a pocket watcher badge to view this.", "badges": [], "created_at": "2025-07-22T10:28:17.566-04:00", "updated_at": "2025-07-22T21:35:27.311-04:00", "avatar": "https://secure.gravatar.com/avatar/8cb6c1ceefb9fff5affcc478813d2520.jpg?s=512&d=https%3A%2F%2Fa.slack-edge.com%2Fdf10d%2Fimg%2Favatars%2Fava_0004-512.png", "custom_css": null}, {"id": 17973, "slack_id": "U097LC1RQ8G", "display_name": "Dhruv Kulkarni", "bio": null, "projects_count": 0, "devlogs_count": 0, "votes_count": 0, "ships_count": 0, "projects": [], "coding_time_seconds": 27350, "coding_time_seconds_today": 0, "balance": "You need to have a pocket watcher badge to view this.", "badges": [], "created_at": "2025-07-22T10:28:58.399-04:00", "updated_at": "2025-07-22T21:35:27.406-04:00", "avatar": "https://secure.gravatar.com/avatar/4c22b43c40e7a6fa757d0fc7b1d2dae7.jpg?s=512&d=https%3A%2F%2Fa.slack-edge.com%2Fdf10d%2Fimg%2Favatars%2Fava_0001-512.png", "custom_css": null}, {"id": 17974, "slack_id": "U096SP3APTM", "display_name": "Brendon", "bio": null, "projects_count": 0, "devlogs_count": 0, "votes_count": 0, "ships_count": 0, "projects": [], "coding_time_seconds": 0, "coding_time_seconds_today": 0, "balance": "You need to have a pocket watcher badge to view this.", "badges": [], "created_at": "2025-07-22T10:29:47.595-04:00", "updated_at": "2025-07-25T22:39:44.367-04:00", "avatar": "https://secure.gravatar.com/avatar/5698749601f076deb4839787a60acf55.jpg?s=512&d=https%3A%2F%2Fa.slack-edge.com%2Fdf10d%2Fimg%2Favatars%2Fava_0006-512.png", "custom_css": null}, {"id": 17975, "slack_id": "U096V1F1NUE", "display_name": "Arav Jain", "bio": null, "projects_count": 0, "devlogs_count": 0, "votes_count": 0, "ships_count": 0, "projects": [], "coding_time_seconds": 1659, "coding_time_seconds_today": 0, "balance": "You need to have a pocket watcher badge to view this.", "badges": [], "created_at": "2025-07-22T10:30:47.854-04:00", "updated_at": "2025-07-23T17:38:01.571-04:00", "avatar": "https://secure.gravatar.com/avatar/65c322f1a1776606c2dec79661c8e53b.jpg?s=512&d=https%3A%2F%2Fa.slack-edge.com%2Fdf10d%2Fimg%2Favatars%2Fava_0023-512.png", "custom_css": null}, {"id": 17976, "slack_id": "U096SPFN951", "display_name": "Ananya", "bio": null, "projects_count": 1, "devlogs_count": 1, "votes_count": 21, "ships_count": 0, "projects": [{"id": 7927, "title": "AI powered personal voice assistant", "devlogs_count": 1, "created_at": "2025-07-23T16:54:55.827-04:00"}], "coding_time_seconds": 16056, "coding_time_seconds_today": 0, "balance": "You need to have a pocket watcher badge to view this.", "badges": [], "created_at": "2025-07-22T10:32:18.980-04:00", "updated_at": "2025-08-23T13:06:22.506-04:00", "avatar": "https://secure.gravatar.com/avatar/734b5302e36a273cec821223f0dd2824.jpg?s=512&d=https%3A%2F%2Fa.slack-edge.com%2Fdf10d%2Fimg%2Favatars%2Fava_0010-512.png", "custom_css": null}, {"id": 17977, "slack_id": "U096Y4GUC90", "display_name": "Nam", "bio": null, "projects_count": 0, "devlogs_count": 0, "votes_count": 0, "ships_count": 0, "projects": [], "coding_time_seconds": 0, "coding_time_seconds_today": 0, "balance": "You need to have a pocket watcher badge to view this.", "badges": [], "created_at": "2025-07-22T10:33:18.859-04:00", "updated_at": "2025-07-22T21:35:27.757-04:00", "avatar": "https://secure.gravatar.com/avatar/9c7a8081128764e385af7e8f06f91a6c.jpg?s=512&d=https%3A%2F%2Fa.slack-edge.com%2Fdf10d%2Fimg%2Favatars%2Fava_0001-512.png", "custom_css": null}, {"id": 17978, "slack_id": "U097B9GSTND", "display_name": "Kushal.M.P", "bio": null, "projects_count": 0, "devlogs_count": 0, "votes_count": 0, "ships_count": 0, "projects": [], "coding_time_seconds": 0, "coding_time_seconds_today": 0, "balance": "You need to have a pocket watcher badge to view this.", "badges": [], "created_at": "2025-07-22T10:34:14.215-04:00", "updated_at": "2025-07-22T21:35:27.839-04:00", "avatar": "https://secure.gravatar.com/avatar/6633ce747c6cbd9c40854d16331d0af5.jpg?s=512&d=https%3A%2F%2Fa.slack-edge.com%2Fdf10d%2Fimg%2Favatars%2Fava_0025-512.png", "custom_css": null}, {"id": 17979, "slack_id": "U097KD2BNE4", "display_name": "Yash Kumar", "bio": null, "projects_count": 0, "devlogs_count": 0, "votes_count": 0, "ships_count": 0, "projects": [], "coding_time_seconds": 21031, "coding_time_seconds_today": 0, "balance": "You need to have a pocket watcher badge to view this.", "badges": [], "created_at": "2025-07-22T10:34:29.403-04:00", "updated_at": "2025-07-23T02:54:08.631-04:00", "avatar": "https://secure.gravatar.com/avatar/7fcbbb25f3134597a986ccaa70fd1a3a.jpg?s=512&d=https%3A%2F%2Fa.slack-edge.com%2Fdf10d%2Fimg%2Favatars%2Fava_0012-512.png", "custom_css": null}, {"id": 17980, "slack_id": "U096V3BGKB8", "display_name": "Aman Singh Kunwar", "bio": null, "projects_count": 0, "devlogs_count": 0, "votes_count": 0, "ships_count": 0, "projects": [], "coding_time_seconds": 0, "coding_time_seconds_today": 0, "balance": "You need to have a pocket watcher badge to view this.", "badges": [], "created_at": "2025-07-22T10:38:49.369-04:00", "updated_at": "2025-07-22T21:35:28.006-04:00", "avatar": "https://avatars.slack-edge.com/2025-07-22/9233132745046_19ae260449c3f9486504_original.jpg", "custom_css": null}, {"id": 17981, "slack_id": "U097BAFJ36D", "display_name": "Lorem Ipsum", "bio": null, "projects_count": 0, "devlogs_count": 0, "votes_count": 2, "ships_count": 0, "projects": [], "coding_time_seconds": 120, "coding_time_seconds_today": 0, "balance": "You need to have a pocket watcher badge to view this.", "badges": [], "created_at": "2025-07-22T10:38:53.291-04:00", "updated_at": "2025-07-22T21:35:28.094-04:00", "avatar": "https://secure.gravatar.com/avatar/546ecc8eedc740c5698b221f3cad2721.jpg?s=512&d=https%3A%2F%2Fa.slack-edge.com%2Fdf10d%2Fimg%2Favatars%2Fava_0022-512.png", "custom_css": null}, {"id": 17982, "slack_id": "U097BASFDLZ", "display_name": "Leon S.", "bio": null, "projects_count": 0, "devlogs_count": 0, "votes_count": 0, "ships_count": 0, "projects": [], "coding_time_seconds": 0, "coding_time_seconds_today": 0, "balance": "You need to have a pocket watcher badge to view this.", "badges": [], "created_at": "2025-07-22T10:40:23.360-04:00", "updated_at": "2025-07-22T21:35:28.180-04:00", "avatar": "https://secure.gravatar.com/avatar/0a0a1e9a33ea49026b0e5bb79808afdb.jpg?s=512&d=https%3A%2F%2Fa.slack-edge.com%2Fdf10d%2Fimg%2Favatars%2Fava_0021-512.png", "custom_css": null}, {"id": 17983, "slack_id": "U096NA8TLLT", "display_name": "Alexey Filippov", "bio": null, "projects_count": 0, "devlogs_count": 0, "votes_count": 0, "ships_count": 0, "projects": [], "coding_time_seconds": 0, "coding_time_seconds_today": 0, "balance": "You need to have a pocket watcher badge to view this.", "badges": [], "created_at": "2025-07-22T10:40:28.957-04:00", "updated_at": "2025-07-22T21:35:28.260-04:00", "avatar": "https://secure.gravatar.com/avatar/68d6bf0a18af4c1a2787ee766c676044.jpg?s=512&d=https%3A%2F%2Fa.slack-edge.com%2Fdf10d%2Fimg%2Favatars%2Fava_0025-512.png", "custom_css": null}, {"id": 17984, "slack_id": "U096Y62BAAW", "display_name": "Mohammedsami Sanadi", "bio": null, "projects_count": 0, "devlogs_count": 0, "votes_count": 0, "ships_count": 0, "projects": [], "coding_time_seconds": 58385, "coding_time_seconds_today": 0, "balance": "You need to have a pocket watcher badge to view this.", "badges": [], "created_at": "2025-07-22T10:40:48.171-04:00", "updated_at": "2025-07-22T21:35:28.350-04:00", "avatar": "https://secure.gravatar.com/avatar/4f381192df081d22d54c77c4f1544020.jpg?s=512&d=https%3A%2F%2Fa.slack-edge.com%2Fdf10d%2Fimg%2Favatars%2Fava_0025-512.png", "custom_css": null}, {"id": 17985, "slack_id": "U097BAJQU9F", "display_name": "Mantri Pavan", "bio": "wow!!!", "projects_count": 0, "devlogs_count": 30, "votes_count": 58, "ships_count": 0, "projects": [], "coding_time_seconds": 800847, "coding_time_seconds_today": 0, "balance": "You need to have a pocket watcher badge to view this.", "badges": [], "created_at": "2025-07-22T10:41:24.724-04:00", "updated_at": "2025-08-08T04:26:21.441-04:00", "avatar": "https://avatars.slack-edge.com/2025-08-05/9302655841299_a8395ecf894015fe5034_original.jpg", "custom_css": null}], "pagination": {"page": 895, "pages": 1192, "count": 23828, "items": 20}}