{"users": [{"id": 17986, "slack_id": "U096FDAE1UP", "display_name": "Nguy\u00ean Kh\u00f4i Ph\u1ea1m \u0110\u00ecnh", "bio": null, "projects_count": 0, "devlogs_count": 0, "votes_count": 0, "ships_count": 0, "projects": [], "coding_time_seconds": 0, "coding_time_seconds_today": 0, "balance": "You need to have a pocket watcher badge to view this.", "badges": [], "created_at": "2025-07-22T10:42:18.803-04:00", "updated_at": "2025-07-22T21:35:28.551-04:00", "avatar": "https://avatars.slack-edge.com/2025-07-22/9221370237751_1e02e8999dea5ffe4d54_original.png", "custom_css": null}, {"id": 17987, "slack_id": "U096HAPC96K", "display_name": "Sagar Saini", "bio": null, "projects_count": 1, "devlogs_count": 0, "votes_count": 0, "ships_count": 0, "projects": [{"id": 7637, "title": "portfolio", "devlogs_count": 0, "created_at": "2025-07-22T11:12:11.653-04:00"}], "coding_time_seconds": 6185, "coding_time_seconds_today": 0, "balance": "You need to have a pocket watcher badge to view this.", "badges": [], "created_at": "2025-07-22T10:43:38.265-04:00", "updated_at": "2025-07-22T21:35:28.638-04:00", "avatar": "https://secure.gravatar.com/avatar/27950938201e77aad914c9a8ae77a1ec.jpg?s=512&d=https%3A%2F%2Fa.slack-edge.com%2Fdf10d%2Fimg%2Favatars%2Fava_0019-512.png", "custom_css": null}, {"id": 17988, "slack_id": "U096W6JSH0V", "display_name": "Annika P.M", "bio": null, "projects_count": 0, "devlogs_count": 0, "votes_count": 1, "ships_count": 0, "projects": [], "coding_time_seconds": 8604, "coding_time_seconds_today": 0, "balance": "You need to have a pocket watcher badge to view this.", "badges": [], "created_at": "2025-07-22T10:43:49.833-04:00", "updated_at": "2025-07-22T21:35:32.747-04:00", "avatar": "https://avatars.slack-edge.com/2025-07-22/9249405695985_1ccf816f37551671521b_original.jpg", "custom_css": null}, {"id": 17989, "slack_id": "U096HAWG8LX", "display_name": "Mehmet Ege Ayd\u0131n", "bio": null, "projects_count": 0, "devlogs_count": 0, "votes_count": 0, "ships_count": 0, "projects": [], "coding_time_seconds": 64, "coding_time_seconds_today": 0, "balance": "You need to have a pocket watcher badge to view this.", "badges": [], "created_at": "2025-07-22T10:44:35.614-04:00", "updated_at": "2025-07-22T21:35:32.836-04:00", "avatar": "https://avatars.slack-edge.com/2025-07-22/9230906461219_d88152727c43c30e6920_original.jpg", "custom_css": null}, {"id": 17990, "slack_id": "U097BC4BXMX", "display_name": "Wallace", "bio": null, "projects_count": 0, "devlogs_count": 0, "votes_count": 0, "ships_count": 0, "projects": [], "coding_time_seconds": 0, "coding_time_seconds_today": 0, "balance": "You need to have a pocket watcher badge to view this.", "badges": [], "created_at": "2025-07-22T10:46:46.114-04:00", "updated_at": "2025-07-22T21:35:32.928-04:00", "avatar": "https://secure.gravatar.com/avatar/716698bc5959d0a00c656e000f103f05.jpg?s=512&d=https%3A%2F%2Fa.slack-edge.com%2Fdf10d%2Fimg%2Favatars%2Fava_0016-512.png", "custom_css": null}, {"id": 17991, "slack_id": "U096SR1H0QM", "display_name": "Lyncoln", "bio": null, "projects_count": 0, "devlogs_count": 0, "votes_count": 0, "ships_count": 0, "projects": [], "coding_time_seconds": 0, "coding_time_seconds_today": 0, "balance": "You need to have a pocket watcher badge to view this.", "badges": [], "created_at": "2025-07-22T10:49:45.458-04:00", "updated_at": "2025-07-22T21:35:33.017-04:00", "avatar": "https://secure.gravatar.com/avatar/672049f06e927688bd410b1b1b007271.jpg?s=512&d=https%3A%2F%2Fa.slack-edge.com%2Fdf10d%2Fimg%2Favatars%2Fava_0011-512.png", "custom_css": null}, {"id": 17992, "slack_id": "U096Y7V8518", "display_name": "KChristtyne", "bio": null, "projects_count": 1, "devlogs_count": 0, "votes_count": 0, "ships_count": 0, "projects": [{"id": 7669, "title": "Takeout_Fixer_MacOS", "devlogs_count": 0, "created_at": "2025-07-22T13:11:10.372-04:00"}], "coding_time_seconds": 71642, "coding_time_seconds_today": 0, "balance": "You need to have a pocket watcher badge to view this.", "badges": [], "created_at": "2025-07-22T10:50:06.745-04:00", "updated_at": "2025-07-23T14:59:16.535-04:00", "avatar": "https://secure.gravatar.com/avatar/65c0ad1d4b0426e3d9b1836a75a5199a.jpg?s=512&d=https%3A%2F%2Fa.slack-edge.com%2Fdf10d%2Fimg%2Favatars%2Fava_0022-512.png", "custom_css": null}, {"id": 17993, "slack_id": "U097LG86XEU", "display_name": "Aaryan Gupta", "bio": null, "projects_count": 0, "devlogs_count": 0, "votes_count": 0, "ships_count": 0, "projects": [], "coding_time_seconds": 0, "coding_time_seconds_today": 0, "balance": "You need to have a pocket watcher badge to view this.", "badges": [], "created_at": "2025-07-22T10:50:44.693-04:00", "updated_at": "2025-07-22T21:35:33.173-04:00", "avatar": "https://secure.gravatar.com/avatar/3f503cc99da14da95f491851cc560a37.jpg?s=512&d=https%3A%2F%2Fa.slack-edge.com%2Fdf10d%2Fimg%2Favatars%2Fava_0010-512.png", "custom_css": null}, {"id": 17994, "slack_id": "U096ZEHJEBW", "display_name": "Alison", "bio": null, "projects_count": 0, "devlogs_count": 0, "votes_count": 0, "ships_count": 0, "projects": [], "coding_time_seconds": 0, "coding_time_seconds_today": 0, "balance": "You need to have a pocket watcher badge to view this.", "badges": [], "created_at": "2025-07-22T10:53:55.108-04:00", "updated_at": "2025-07-22T21:35:33.263-04:00", "avatar": "https://secure.gravatar.com/avatar/883b36c610164f94f250c26496bebe2c.jpg?s=512&d=https%3A%2F%2Fa.slack-edge.com%2Fdf10d%2Fimg%2Favatars%2Fava_0004-512.png", "custom_css": null}, {"id": 17995, "slack_id": "U096W99BRN1", "display_name": "Dandimeni Chand", "bio": "Madness doesn't have any evidence ", "projects_count": 1, "devlogs_count": 1, "votes_count": 1, "ships_count": 0, "projects": [{"id": 7643, "title": "portfolio-DGC", "devlogs_count": 1, "created_at": "2025-07-22T11:34:43.150-04:00"}], "coding_time_seconds": 3899, "coding_time_seconds_today": 0, "balance": "You need to have a pocket watcher badge to view this.", "badges": [], "created_at": "2025-07-22T10:57:39.423-04:00", "updated_at": "2025-07-23T11:47:36.097-04:00", "avatar": "https://avatars.slack-edge.com/2025-07-22/9258613346384_0af7a61ae6230fd32566_original.jpg", "custom_css": null}, {"id": 17996, "slack_id": "U096V782YFQ", "display_name": "Jesus Andres Rodriguez Vargas", "bio": null, "projects_count": 0, "devlogs_count": 0, "votes_count": 0, "ships_count": 0, "projects": [], "coding_time_seconds": 0, "coding_time_seconds_today": 0, "balance": "You need to have a pocket watcher badge to view this.", "badges": [], "created_at": "2025-07-22T10:58:53.019-04:00", "updated_at": "2025-07-22T21:35:33.434-04:00", "avatar": "https://secure.gravatar.com/avatar/ddaa6e267fcddcf7d2eb1920462d1ff3.jpg?s=512&d=https%3A%2F%2Fa.slack-edge.com%2Fdf10d%2Fimg%2Favatars%2Fava_0013-512.png", "custom_css": null}, {"id": 17997, "slack_id": "U096HDBT623", "display_name": "Ben", "bio": "Human being, I swear", "projects_count": 1, "devlogs_count": 2, "votes_count": 28, "ships_count": 1, "projects": [{"id": 7848, "title": "Cursed 2048", "devlogs_count": 2, "created_at": "2025-07-23T09:20:56.533-04:00"}], "coding_time_seconds": 77683, "coding_time_seconds_today": 0, "balance": "You need to have a pocket watcher badge to view this.", "badges": [], "created_at": "2025-07-22T11:00:14.340-04:00", "updated_at": "2025-07-23T12:16:11.699-04:00", "avatar": "https://secure.gravatar.com/avatar/2c7b4a83d9008acbf124b1f1c98795d2.jpg?s=512&d=https%3A%2F%2Fa.slack-edge.com%2Fdf10d%2Fimg%2Favatars%2Fava_0023-512.png", "custom_css": null}, {"id": 17998, "slack_id": "U0802UT4133", "display_name": "jainpranit10", "bio": null, "projects_count": 0, "devlogs_count": 0, "votes_count": 0, "ships_count": 0, "projects": [], "coding_time_seconds": 0, "coding_time_seconds_today": 0, "balance": "You need to have a pocket watcher badge to view this.", "badges": [], "created_at": "2025-07-22T11:00:51.669-04:00", "updated_at": "2025-08-03T19:43:31.844-04:00", "avatar": "https://secure.gravatar.com/avatar/c22126d21210adb87f81c7b3def9cd27.jpg?s=512&d=https%3A%2F%2Fa.slack-edge.com%2Fdf10d%2Fimg%2Favatars%2Fava_0026-512.png", "custom_css": null}, {"id": 17999, "slack_id": "U096ZF526A0", "display_name": "Elea", "bio": null, "projects_count": 0, "devlogs_count": 0, "votes_count": 0, "ships_count": 0, "projects": [], "coding_time_seconds": 0, "coding_time_seconds_today": 0, "balance": "You need to have a pocket watcher badge to view this.", "badges": [], "created_at": "2025-07-22T11:01:46.097-04:00", "updated_at": "2025-07-22T21:35:33.679-04:00", "avatar": "https://secure.gravatar.com/avatar/5f6c3fe3e6b3d15dc275a88b1619f017.jpg?s=512&d=https%3A%2F%2Fa.slack-edge.com%2Fdf10d%2Fimg%2Favatars%2Fava_0009-512.png", "custom_css": null}, {"id": 18000, "slack_id": "U096F3LCNLX", "display_name": "tvixeries", "bio": null, "projects_count": 0, "devlogs_count": 0, "votes_count": 0, "ships_count": 0, "projects": [], "coding_time_seconds": 97, "coding_time_seconds_today": 0, "balance": "You need to have a pocket watcher badge to view this.", "badges": [], "created_at": "2025-07-22T11:04:10.789-04:00", "updated_at": "2025-07-23T10:49:45.903-04:00", "avatar": "https://secure.gravatar.com/avatar/959c0eb581c713b63e85a29b9f79e6c2.jpg?s=512&d=https%3A%2F%2Fa.slack-edge.com%2Fdf10d%2Fimg%2Favatars%2Fava_0007-512.png", "custom_css": null}, {"id": 18001, "slack_id": "U097LK76L1W", "display_name": "Matt", "bio": null, "projects_count": 0, "devlogs_count": 0, "votes_count": 0, "ships_count": 0, "projects": [], "coding_time_seconds": 0, "coding_time_seconds_today": 0, "balance": "You need to have a pocket watcher badge to view this.", "badges": [], "created_at": "2025-07-22T11:05:12.903-04:00", "updated_at": "2025-07-22T21:35:33.868-04:00", "avatar": "https://secure.gravatar.com/avatar/09194911d963c2c3776b6932d48cde12.jpg?s=512&d=https%3A%2F%2Fa.slack-edge.com%2Fdf10d%2Fimg%2Favatars%2Fava_0018-512.png", "custom_css": null}, {"id": 18002, "slack_id": "U096D2CHBRV", "display_name": "Kyle", "bio": null, "projects_count": 0, "devlogs_count": 0, "votes_count": 0, "ships_count": 0, "projects": [], "coding_time_seconds": 0, "coding_time_seconds_today": 0, "balance": "You need to have a pocket watcher badge to view this.", "badges": [], "created_at": "2025-07-22T11:06:02.348-04:00", "updated_at": "2025-07-22T21:35:33.952-04:00", "avatar": "https://avatars.slack-edge.com/2025-07-22/9233326074118_46afdf6c4a4f5a37dcda_original.png", "custom_css": null}, {"id": 18003, "slack_id": "U096T1327T5", "display_name": "vairag", "bio": null, "projects_count": 0, "devlogs_count": 0, "votes_count": 0, "ships_count": 0, "projects": [], "coding_time_seconds": 0, "coding_time_seconds_today": 0, "balance": "You need to have a pocket watcher badge to view this.", "badges": [], "created_at": "2025-07-22T11:06:28.618-04:00", "updated_at": "2025-07-22T21:35:34.038-04:00", "avatar": "https://secure.gravatar.com/avatar/3db74cda8cf48102be14ed987f7119c6.jpg?s=512&d=https%3A%2F%2Fa.slack-edge.com%2Fdf10d%2Fimg%2Favatars%2Fava_0026-512.png", "custom_css": null}, {"id": 18004, "slack_id": "U096YBSPTTL", "display_name": "T\u1ea5n", "bio": null, "projects_count": 0, "devlogs_count": 0, "votes_count": 0, "ships_count": 0, "projects": [], "coding_time_seconds": 0, "coding_time_seconds_today": 0, "balance": "You need to have a pocket watcher badge to view this.", "badges": [], "created_at": "2025-07-22T11:07:59.038-04:00", "updated_at": "2025-07-22T21:35:34.121-04:00", "avatar": "https://secure.gravatar.com/avatar/b7ab8c1962c657f086edbdbe3f55bde0.jpg?s=512&d=https%3A%2F%2Fa.slack-edge.com%2Fdf10d%2Fimg%2Favatars%2Fava_0019-512.png", "custom_css": null}, {"id": 18005, "slack_id": "U016MGQSLA2", "display_name": "Vineet", "bio": null, "projects_count": 0, "devlogs_count": 0, "votes_count": 0, "ships_count": 0, "projects": [], "coding_time_seconds": 157556, "coding_time_seconds_today": 3418, "balance": "You need to have a pocket watcher badge to view this.", "badges": [], "created_at": "2025-07-22T11:08:22.182-04:00", "updated_at": "2025-07-22T11:27:54.166-04:00", "avatar": "https://avatars.slack-edge.com/2023-05-06/5224829086500_ea9fbe8369d51068e388_original.png", "custom_css": null}], "pagination": {"page": 896, "pages": 1192, "count": 23828, "items": 20}}