{"users": [{"id": 18046, "slack_id": "U096HNNNRP1", "display_name": "Vinay Kumar Goyal", "bio": null, "projects_count": 0, "devlogs_count": 0, "votes_count": 0, "ships_count": 0, "projects": [], "coding_time_seconds": 294245, "coding_time_seconds_today": 0, "balance": "You need to have a pocket watcher badge to view this.", "badges": [], "created_at": "2025-07-22T11:49:14.862-04:00", "updated_at": "2025-07-23T01:37:10.391-04:00", "avatar": "https://secure.gravatar.com/avatar/11af361b8b2e2acc180d1f664731aa42.jpg?s=512&d=https%3A%2F%2Fa.slack-edge.com%2Fdf10d%2Fimg%2Favatars%2Fava_0017-512.png", "custom_css": null}, {"id": 18047, "slack_id": "U097BPZ0A01", "display_name": "Tanishk Dhope", "bio": null, "projects_count": 0, "devlogs_count": 0, "votes_count": 0, "ships_count": 0, "projects": [], "coding_time_seconds": 91824, "coding_time_seconds_today": 0, "balance": "You need to have a pocket watcher badge to view this.", "badges": [], "created_at": "2025-07-22T11:49:27.566-04:00", "updated_at": "2025-07-22T21:35:54.056-04:00", "avatar": "https://avatars.slack-edge.com/2025-07-22/9233622305990_e27cc1950e11f64ffd30_original.png", "custom_css": null}, {"id": 18048, "slack_id": "U096N5HTGN7", "display_name": "Minh Cong", "bio": null, "projects_count": 0, "devlogs_count": 0, "votes_count": 0, "ships_count": 0, "projects": [], "coding_time_seconds": 0, "coding_time_seconds_today": 0, "balance": "You need to have a pocket watcher badge to view this.", "badges": [], "created_at": "2025-07-22T11:50:19.853-04:00", "updated_at": "2025-07-22T21:35:54.135-04:00", "avatar": "https://secure.gravatar.com/avatar/8b73420444d85fc3479b4d6c1a93fda3.jpg?s=512&d=https%3A%2F%2Fa.slack-edge.com%2Fdf10d%2Fimg%2Favatars%2Fava_0015-512.png", "custom_css": null}, {"id": 18049, "slack_id": "U097LTY174Y", "display_name": "Meet", "bio": null, "projects_count": 0, "devlogs_count": 0, "votes_count": 0, "ships_count": 0, "projects": [], "coding_time_seconds": 0, "coding_time_seconds_today": 0, "balance": "You need to have a pocket watcher badge to view this.", "badges": [], "created_at": "2025-07-22T11:52:30.625-04:00", "updated_at": "2025-07-22T21:35:54.218-04:00", "avatar": "https://avatars.slack-edge.com/2025-07-22/9249889301345_b2509bd556c982d9f20b_original.jpg", "custom_css": null}, {"id": 18050, "slack_id": "U096YKXVBLJ", "display_name": "Yu-Cheng Chang", "bio": null, "projects_count": 0, "devlogs_count": 0, "votes_count": 0, "ships_count": 0, "projects": [], "coding_time_seconds": 0, "coding_time_seconds_today": 0, "balance": "You need to have a pocket watcher badge to view this.", "badges": [], "created_at": "2025-07-22T11:52:31.829-04:00", "updated_at": "2025-07-22T21:35:58.358-04:00", "avatar": "https://secure.gravatar.com/avatar/39b0d60225761eb5099c87402be57619.jpg?s=512&d=https%3A%2F%2Fa.slack-edge.com%2Fdf10d%2Fimg%2Favatars%2Fava_0021-512.png", "custom_css": null}, {"id": 18051, "slack_id": "U096YLPP074", "display_name": "Francisco Saucedo", "bio": null, "projects_count": 0, "devlogs_count": 0, "votes_count": 0, "ships_count": 0, "projects": [], "coding_time_seconds": 0, "coding_time_seconds_today": 0, "balance": "You need to have a pocket watcher badge to view this.", "badges": [], "created_at": "2025-07-22T11:54:01.768-04:00", "updated_at": "2025-07-22T21:35:58.435-04:00", "avatar": "https://secure.gravatar.com/avatar/5e49d8e81bdc7b4218dea7bc96038c7f.jpg?s=512&d=https%3A%2F%2Fa.slack-edge.com%2Fdf10d%2Fimg%2Favatars%2Fava_0025-512.png", "custom_css": null}, {"id": 18052, "slack_id": "U0979AZPW01", "display_name": "Oytun", "bio": null, "projects_count": 0, "devlogs_count": 0, "votes_count": 0, "ships_count": 0, "projects": [], "coding_time_seconds": 0, "coding_time_seconds_today": 0, "balance": "You need to have a pocket watcher badge to view this.", "badges": [], "created_at": "2025-07-22T11:54:04.753-04:00", "updated_at": "2025-07-22T21:35:58.543-04:00", "avatar": "https://secure.gravatar.com/avatar/c9300da041e7bd225cd4ac832a1c7be7.jpg?s=512&d=https%3A%2F%2Fa.slack-edge.com%2Fdf10d%2Fimg%2Favatars%2Fava_0003-512.png", "custom_css": null}, {"id": 18053, "slack_id": "U096WLC88GM", "display_name": "Shreya Singh", "bio": null, "projects_count": 1, "devlogs_count": 3, "votes_count": 1, "ships_count": 0, "projects": [{"id": 7663, "title": "Calorie Counter", "devlogs_count": 3, "created_at": "2025-07-22T12:40:01.178-04:00"}], "coding_time_seconds": 67477, "coding_time_seconds_today": 0, "balance": "You need to have a pocket watcher badge to view this.", "badges": [], "created_at": "2025-07-22T11:54:48.500-04:00", "updated_at": "2025-08-13T00:09:46.938-04:00", "avatar": "https://secure.gravatar.com/avatar/f96a7416195c9aa6716b3a1c2dab22de.jpg?s=512&d=https%3A%2F%2Fa.slack-edge.com%2Fdf10d%2Fimg%2Favatars%2Fava_0008-512.png", "custom_css": null}, {"id": 18054, "slack_id": "U097BRS10RX", "display_name": "Raif Guizani", "bio": null, "projects_count": 0, "devlogs_count": 0, "votes_count": 0, "ships_count": 0, "projects": [], "coding_time_seconds": 0, "coding_time_seconds_today": 0, "balance": "You need to have a pocket watcher badge to view this.", "badges": [], "created_at": "2025-07-22T11:56:14.912-04:00", "updated_at": "2025-07-22T21:35:58.711-04:00", "avatar": "https://avatars.slack-edge.com/2025-07-22/9259011875760_40e7f3e814d4e7af6e0a_original.png", "custom_css": null}, {"id": 18055, "slack_id": "U096ZSFHNUU", "display_name": "Md Faizaan Alam", "bio": null, "projects_count": 0, "devlogs_count": 0, "votes_count": 0, "ships_count": 0, "projects": [], "coding_time_seconds": 0, "coding_time_seconds_today": 0, "balance": "You need to have a pocket watcher badge to view this.", "badges": [], "created_at": "2025-07-22T11:56:28.323-04:00", "updated_at": "2025-07-23T06:26:43.884-04:00", "avatar": "https://secure.gravatar.com/avatar/a4ce38c19500d484c0e79628ba161799.jpg?s=512&d=https%3A%2F%2Fa.slack-edge.com%2Fdf10d%2Fimg%2Favatars%2Fava_0014-512.png", "custom_css": null}, {"id": 18056, "slack_id": "U097LV7T73J", "display_name": "Sampreet Samaje", "bio": null, "projects_count": 0, "devlogs_count": 0, "votes_count": 0, "ships_count": 0, "projects": [], "coding_time_seconds": 0, "coding_time_seconds_today": 0, "balance": "You need to have a pocket watcher badge to view this.", "badges": [], "created_at": "2025-07-22T11:56:40.459-04:00", "updated_at": "2025-07-25T02:02:54.355-04:00", "avatar": "https://avatars.slack-edge.com/2025-07-22/9237932532692_5b80474ee0660ad17628_original.jpg", "custom_css": null}, {"id": 18057, "slack_id": "U096VKGDYP8", "display_name": "Mc4 Minta", "bio": null, "projects_count": 0, "devlogs_count": 0, "votes_count": 0, "ships_count": 0, "projects": [], "coding_time_seconds": 2844, "coding_time_seconds_today": 120, "balance": "You need to have a pocket watcher badge to view this.", "badges": [], "created_at": "2025-07-22T11:57:48.815-04:00", "updated_at": "2025-07-22T21:35:59.012-04:00", "avatar": "https://avatars.slack-edge.com/2025-07-22/9237939906660_5783a67ee4de97aa7f88_original.png", "custom_css": null}, {"id": 18058, "slack_id": "U096ZSTUYBE", "display_name": "Apoorv Pal", "bio": null, "projects_count": 0, "devlogs_count": 0, "votes_count": 0, "ships_count": 0, "projects": [], "coding_time_seconds": 0, "coding_time_seconds_today": 0, "balance": "You need to have a pocket watcher badge to view this.", "badges": [], "created_at": "2025-07-22T11:57:52.475-04:00", "updated_at": "2025-07-22T21:35:59.108-04:00", "avatar": "https://secure.gravatar.com/avatar/2e7a9aeedd570ecc7a8866e382284c64.jpg?s=512&d=https%3A%2F%2Fa.slack-edge.com%2Fdf10d%2Fimg%2Favatars%2Fava_0022-512.png", "custom_css": null}, {"id": 18059, "slack_id": "U096RAHTX2R", "display_name": "Debashish Sahu (debsahu)", "bio": null, "projects_count": 0, "devlogs_count": 0, "votes_count": 0, "ships_count": 0, "projects": [], "coding_time_seconds": 0, "coding_time_seconds_today": 0, "balance": "You need to have a pocket watcher badge to view this.", "badges": [], "created_at": "2025-07-22T11:58:33.437-04:00", "updated_at": "2025-07-22T21:35:59.204-04:00", "avatar": "https://avatars.slack-edge.com/2025-07-22/9249914345361_09b6ee7ecfa7015c032b_original.jpg", "custom_css": null}, {"id": 18060, "slack_id": "U096VQ15684", "display_name": "divy", "bio": null, "projects_count": 0, "devlogs_count": 0, "votes_count": 0, "ships_count": 0, "projects": [], "coding_time_seconds": 0, "coding_time_seconds_today": 0, "balance": "You need to have a pocket watcher badge to view this.", "badges": [], "created_at": "2025-07-22T11:59:21.232-04:00", "updated_at": "2025-07-22T21:35:59.296-04:00", "avatar": "https://secure.gravatar.com/avatar/7e7eb3f20f648d9f880ebcc943c0b80d.jpg?s=512&d=https%3A%2F%2Fa.slack-edge.com%2Fdf10d%2Fimg%2Favatars%2Fava_0020-512.png", "custom_css": null}, {"id": 18061, "slack_id": "U097LFR3XAL", "display_name": "Shehan Maleeza", "bio": null, "projects_count": 0, "devlogs_count": 0, "votes_count": 0, "ships_count": 0, "projects": [], "coding_time_seconds": 0, "coding_time_seconds_today": 0, "balance": "You need to have a pocket watcher badge to view this.", "badges": [], "created_at": "2025-07-22T11:59:35.408-04:00", "updated_at": "2025-07-22T21:35:59.398-04:00", "avatar": "https://secure.gravatar.com/avatar/153698ff3ec9a8532c395ce49a702bfd.jpg?s=512&d=https%3A%2F%2Fa.slack-edge.com%2Fdf10d%2Fimg%2Favatars%2Fava_0007-512.png", "custom_css": null}, {"id": 18062, "slack_id": "U096HQT05F1", "display_name": "Anna M", "bio": null, "projects_count": 0, "devlogs_count": 0, "votes_count": 0, "ships_count": 0, "projects": [], "coding_time_seconds": 449, "coding_time_seconds_today": 0, "balance": "You need to have a pocket watcher badge to view this.", "badges": [], "created_at": "2025-07-22T12:00:00.036-04:00", "updated_at": "2025-07-22T21:35:59.488-04:00", "avatar": "https://secure.gravatar.com/avatar/2a1e2f35348fe2d11335609f41489966.jpg?s=512&d=https%3A%2F%2Fa.slack-edge.com%2Fdf10d%2Fimg%2Favatars%2Fava_0003-512.png", "custom_css": null}, {"id": 18063, "slack_id": "U096TBRG35H", "display_name": "Robin Schnaiter", "bio": null, "projects_count": 0, "devlogs_count": 0, "votes_count": 0, "ships_count": 0, "projects": [], "coding_time_seconds": 0, "coding_time_seconds_today": 0, "balance": "You need to have a pocket watcher badge to view this.", "badges": [], "created_at": "2025-07-22T12:00:41.431-04:00", "updated_at": "2025-07-22T21:35:59.583-04:00", "avatar": "https://secure.gravatar.com/avatar/c36ad974e865a81561985c415ea07117.jpg?s=512&d=https%3A%2F%2Fa.slack-edge.com%2Fdf10d%2Fimg%2Favatars%2Fava_0005-512.png", "custom_css": null}, {"id": 18064, "slack_id": "U097BSZTH3K", "display_name": "INUKURTHI SURYA PRAKASH", "bio": null, "projects_count": 0, "devlogs_count": 0, "votes_count": 0, "ships_count": 0, "projects": [], "coding_time_seconds": 51686, "coding_time_seconds_today": 0, "balance": "You need to have a pocket watcher badge to view this.", "badges": [], "created_at": "2025-07-22T12:01:04.072-04:00", "updated_at": "2025-07-22T21:35:59.680-04:00", "avatar": "https://secure.gravatar.com/avatar/22a5d124854753e272545ef5fdf60604.jpg?s=512&d=https%3A%2F%2Fa.slack-edge.com%2Fdf10d%2Fimg%2Favatars%2Fava_0003-512.png", "custom_css": null}, {"id": 18065, "slack_id": "U096ZTZ73E0", "display_name": "Nikolas", "bio": "languages i know: C#, JS, learning C++", "projects_count": 6, "devlogs_count": 8, "votes_count": 16, "ships_count": 1, "projects": [{"id": 7664, "title": "screen", "devlogs_count": 1, "created_at": "2025-07-22T12:47:03.113-04:00"}, {"id": 7753, "title": "query", "devlogs_count": 3, "created_at": "2025-07-22T21:53:35.050-04:00"}, {"id": 9559, "title": "GoDash", "devlogs_count": 1, "created_at": "2025-08-01T16:38:51.154-04:00"}, {"id": 12545, "title": "talon", "devlogs_count": 0, "created_at": "2025-08-29T08:47:11.411-04:00"}, {"id": 8259, "title": "Radiance", "devlogs_count": 0, "created_at": "2025-07-25T18:09:33.957-04:00"}, {"id": 10044, "title": "Clawtainer", "devlogs_count": 3, "created_at": "2025-08-03T16:56:23.998-04:00"}], "coding_time_seconds": 165678, "coding_time_seconds_today": 0, "balance": "You need to have a pocket watcher badge to view this.", "badges": [], "created_at": "2025-07-22T12:01:16.923-04:00", "updated_at": "2025-09-18T15:46:02.990-04:00", "avatar": "https://avatars.slack-edge.com/2025-08-01/9284623814611_2202dde4a52fb8a58473_original.jpg", "custom_css": null}], "pagination": {"page": 899, "pages": 1192, "count": 23828, "items": 20}}