{"users": [{"id": 161, "slack_id": "U082FBF4MV5", "display_name": "ella[meow]", "bio": null, "projects_count": 0, "devlogs_count": 3, "votes_count": 0, "ships_count": 0, "projects": [], "coding_time_seconds": 260521, "coding_time_seconds_today": 0, "balance": "You need to have a pocket watcher badge to view this.", "badges": [], "created_at": "2025-06-16T04:01:21.747-04:00", "updated_at": "2025-08-20T22:47:54.746-04:00", "avatar": "https://avatars.slack-edge.com/2025-07-16/9210608193012_950568242357251d6ea2_original.jpg", "custom_css": null}, {"id": 162, "slack_id": "U08AS03UXAN", "display_name": "Lumethra", "bio": null, "projects_count": 3, "devlogs_count": 2, "votes_count": 67, "ships_count": 1, "projects": [{"id": 10896, "title": "AuthTrack", "devlogs_count": 0, "created_at": "2025-08-11T16:04:21.814-04:00"}, {"id": 33, "title": "HackClub-Wallpaper-App", "devlogs_count": 0, "created_at": "2025-06-16T04:24:56.868-04:00"}, {"id": 6354, "title": "Overwatch", "devlogs_count": 2, "created_at": "2025-07-12T16:09:34.421-04:00"}], "coding_time_seconds": 273290, "coding_time_seconds_today": 0, "balance": "You need to have a pocket watcher badge to view this.", "badges": [{"name": "Maiden Voyage", "text": "you shipped your first project! the journey begins...", "icon": "\ud83d\udea2"}], "created_at": "2025-06-16T04:02:23.499-04:00", "updated_at": "2025-09-14T03:45:32.898-04:00", "avatar": "https://avatars.slack-edge.com/2025-08-01/9311593687536_540ab8befc5a134086b6_original.webp", "custom_css": null}, {"id": 163, "slack_id": "U0794TACKMG", "display_name": "advaitconty", "bio": null, "projects_count": 4, "devlogs_count": 42, "votes_count": 83, "ships_count": 4, "projects": [{"id": 605, "title": "Wakatime Playgrounds", "devlogs_count": 13, "created_at": "2025-06-17T02:36:53.303-04:00"}, {"id": 34, "title": "Elara: The ultimate time tracker, where time meets tranquility", "devlogs_count": 11, "created_at": "2025-06-16T04:44:03.691-04:00"}, {"id": 6418, "title": "Elara for Windows XP", "devlogs_count": 10, "created_at": "2025-07-13T05:50:13.079-04:00"}, {"id": 9456, "title": "Unplug - your digital life, your rules", "devlogs_count": 8, "created_at": "2025-08-01T09:30:42.280-04:00"}], "coding_time_seconds": 306503, "coding_time_seconds_today": 0, "balance": "You need to have a pocket watcher badge to view this.", "badges": [{"name": "Maiden Voyage", "text": "you shipped your first project! the journey begins...", "icon": "\ud83d\udea2"}], "created_at": "2025-06-16T04:06:09.156-04:00", "updated_at": "2025-09-15T09:37:33.454-04:00", "avatar": "https://avatars.slack-edge.com/2025-06-27/9108037619171_f7586e8e0d75f134678e_original.png", "custom_css": null}, {"id": 164, "slack_id": "U054VC2KM9P", "display_name": "amber", "bio": "hi i'm amber from britland!\r\n\r\ni do support for summer of making and various stuff around hq\r\n\r\ni like trains and am definitely a very normal person :D", "projects_count": 2, "devlogs_count": 8, "votes_count": 2, "ships_count": 1, "projects": [{"id": 6466, "title": "Charon", "devlogs_count": 3, "created_at": "2025-07-13T15:30:40.946-04:00"}, {"id": 40, "title": "Nephthys", "devlogs_count": 5, "created_at": "2025-06-16T07:39:05.993-04:00"}], "coding_time_seconds": 338363, "coding_time_seconds_today": 0, "balance": "You need to have a pocket watcher badge to view this.", "badges": [{"name": "<%= admin_tool do %>", "text": "with great power comes great responsibility... and a ban hammer.", "icon": "\ud83d\udd28"}, {"name": "Maiden Voyage", "text": "you shipped your first project! the journey begins...", "icon": "\ud83d\udea2"}, {"name": "Graphic Design is My Passion", "text": "Oh God How Did This Get Here I Am Not Good With Computer", "icon": "\ud83c\udfa8"}], "created_at": "2025-06-16T04:16:19.012-04:00", "updated_at": "2025-09-10T22:51:11.101-04:00", "avatar": "https://avatars.slack-edge.com/2025-08-08/9327033237525_5e8696f1e755813754a5_original.jpg", "custom_css": "* {\r\ncolor: pink;\r\nfont-family: \"Comic Sans MS\", cursive;\r\n}"}, {"id": 165, "slack_id": "U083EP11GCS", "display_name": "Anay", "bio": null, "projects_count": 0, "devlogs_count": 0, "votes_count": 0, "ships_count": 0, "projects": [], "coding_time_seconds": 0, "coding_time_seconds_today": 0, "balance": "You need to have a pocket watcher badge to view this.", "badges": [], "created_at": "2025-06-16T04:23:48.023-04:00", "updated_at": "2025-08-01T14:00:17.498-04:00", "avatar": "https://avatars.slack-edge.com/2025-08-01/9306812662241_7e89db7d4347fd9ee1ff_original.jpg", "custom_css": null}, {"id": 166, "slack_id": "U04K5EPMZM1", "display_name": "karthik", "bio": null, "projects_count": 1, "devlogs_count": 0, "votes_count": 0, "ships_count": 0, "projects": [{"id": 9918, "title": "Karthik's Blog!", "devlogs_count": 0, "created_at": "2025-08-02T22:24:34.073-04:00"}], "coding_time_seconds": 112251, "coding_time_seconds_today": 0, "balance": "You need to have a pocket watcher badge to view this.", "badges": [], "created_at": "2025-06-16T04:27:01.814-04:00", "updated_at": "2025-07-03T19:11:43.638-04:00", "avatar": "https://avatars.slack-edge.com/2024-07-01/7355061425442_7f18ec9deb3be42b4c97_original.jpg", "custom_css": null}, {"id": 167, "slack_id": "U07DK1S7KTP", "display_name": "Qwatrum", "bio": "", "projects_count": 4, "devlogs_count": 24, "votes_count": 44, "ships_count": 2, "projects": [{"id": 12272, "title": "Higher Lower Game with GitHub Stars", "devlogs_count": 0, "created_at": "2025-08-25T05:52:45.017-04:00"}, {"id": 57, "title": "A Difficult Game About Delivering Food", "devlogs_count": 5, "created_at": "2025-06-16T10:13:05.848-04:00"}, {"id": 6191, "title": "QwatGames", "devlogs_count": 11, "created_at": "2025-07-11T07:59:16.074-04:00"}, {"id": 2628, "title": "CivisRate", "devlogs_count": 8, "created_at": "2025-06-21T13:58:47.547-04:00"}], "coding_time_seconds": 335951, "coding_time_seconds_today": 0, "balance": "You need to have a pocket watcher badge to view this.", "badges": [{"name": "Maiden Voyage", "text": "you shipped your first project! the journey begins...", "icon": "\ud83d\udea2"}], "created_at": "2025-06-16T04:39:49.238-04:00", "updated_at": "2025-09-10T22:51:11.203-04:00", "avatar": "https://avatars.slack-edge.com/2024-09-10/7705989791794_ea1cb8a577d0e639528f_original.png", "custom_css": null}, {"id": 168, "slack_id": "U07E2S26BM3", "display_name": "Praveenkushinpi", "bio": null, "projects_count": 0, "devlogs_count": 65, "votes_count": 25, "ships_count": 0, "projects": [], "coding_time_seconds": 1211901, "coding_time_seconds_today": 2378, "balance": "You need to have a pocket watcher badge to view this.", "badges": [{"name": "Maiden Voyage", "text": "you shipped your first project! the journey begins...", "icon": "\ud83d\udea2"}, {"name": "Yapper I", "text": "Posted 10 comments on devlogs.", "icon": "\ud83d\udcac"}], "created_at": "2025-06-16T04:43:00.648-04:00", "updated_at": "2025-09-10T22:51:11.238-04:00", "avatar": "https://avatars.slack-edge.com/2025-08-24/9427746887056_5bfcdc295791cd31572b_original.jpg", "custom_css": null}, {"id": 169, "slack_id": "U07FBU5MM8U", "display_name": "Craig", "bio": null, "projects_count": 2, "devlogs_count": 0, "votes_count": 1, "ships_count": 0, "projects": [{"id": 4753, "title": "The Mine", "devlogs_count": 0, "created_at": "2025-07-01T11:27:37.893-04:00"}, {"id": 43, "title": "pkgman", "devlogs_count": 0, "created_at": "2025-06-16T08:11:47.064-04:00"}], "coding_time_seconds": 40300, "coding_time_seconds_today": 0, "balance": "You need to have a pocket watcher badge to view this.", "badges": [], "created_at": "2025-06-16T04:51:05.358-04:00", "updated_at": "2025-09-16T14:33:49.949-04:00", "avatar": "https://avatars.slack-edge.com/2025-06-20/9073636616227_54c49e761e9eab2e8034_original.png", "custom_css": null}, {"id": 170, "slack_id": "U090M3C59D5", "display_name": "DrPanayioths", "bio": null, "projects_count": 1, "devlogs_count": 7, "votes_count": 20, "ships_count": 1, "projects": [{"id": 93, "title": "MakeYourDay", "devlogs_count": 7, "created_at": "2025-06-16T12:46:13.530-04:00"}], "coding_time_seconds": 179866, "coding_time_seconds_today": 0, "balance": "You need to have a pocket watcher badge to view this.", "badges": [{"name": "Maiden Voyage", "text": "you shipped your first project! the journey begins...", "icon": "\ud83d\udea2"}], "created_at": "2025-06-16T04:58:01.575-04:00", "updated_at": "2025-09-17T14:17:37.638-04:00", "avatar": "https://avatars.slack-edge.com/2025-06-12/9059846524560_d2698d30cdbddc1e24b7_original.jpg", "custom_css": null}, {"id": 171, "slack_id": "U08R49H9VRV", "display_name": "BnaJns", "bio": "BananaJeans | Full Stack Developer | JavaScript, Python, Lua | Estonian", "projects_count": 8, "devlogs_count": 60, "votes_count": 185, "ships_count": 6, "projects": [{"id": 11660, "title": "BnaJns Portfolio v2", "devlogs_count": 0, "created_at": "2025-08-18T07:57:58.187-04:00"}, {"id": 12558, "title": "slack.fm", "devlogs_count": 6, "created_at": "2025-08-29T13:23:55.995-04:00"}, {"id": 13529, "title": "readmefm", "devlogs_count": 8, "created_at": "2025-09-18T17:13:10.689-04:00"}, {"id": 13738, "title": "limonaad - a C++ chess engine", "devlogs_count": 0, "created_at": "2025-09-24T11:43:51.530-04:00"}, {"id": 4430, "title": "roblox-outfit-finder", "devlogs_count": 3, "created_at": "2025-06-29T19:47:14.827-04:00"}, {"id": 12037, "title": "faucet - a c++ http server", "devlogs_count": 29, "created_at": "2025-08-22T10:14:41.571-04:00"}, {"id": 65, "title": "visittallinn-waffles", "devlogs_count": 1, "created_at": "2025-06-16T11:54:59.473-04:00"}, {"id": 4136, "title": "ralseibot", "devlogs_count": 14, "created_at": "2025-06-27T17:26:29.379-04:00"}], "coding_time_seconds": 552147, "coding_time_seconds_today": 0, "balance": "You need to have a pocket watcher badge to view this.", "badges": [{"name": "Maiden Voyage", "text": "you shipped your first project! the journey begins...", "icon": "\ud83d\udea2"}, {"name": "Graphic Design is My Passion", "text": "Oh God How Did This Get Here I Am Not Good With Computer", "icon": "\ud83c\udfa8"}, {"name": "Ballot Stuffer", "text": "vote 100 times.", "icon": "https://summer.hackclub.com/assets/i_voted-bf851b48.png"}], "created_at": "2025-06-16T05:16:23.900-04:00", "updated_at": "2025-09-10T22:51:11.334-04:00", "avatar": "https://avatars.slack-edge.com/2025-09-03/9468407103233_ec775ed712e91f58bdb8_original.jpg", "custom_css": ".profile-avatar {\r\n  width: 200px;\r\n  height: 200px;\r\n  border-radius: 25px;\r\n}\r\n\r\nbody::before {\r\n  background: url(\"https://deltarune.wiki/images/Castle_Town_location.png?cb=ij4yss\");\r\n  background-size: cover;\r\n  background-repeat: no-repeat;\r\n  background-position: center center;\r\n}\r\n\r\n.flex.flex-wrap.gap-2.items-center > * {\r\n    border-radius: 25%;\r\n}\r\n\r\n.card-with-gradient {\r\n  background: rgba(0, 0, 0, 0.7) !important;\r\n}\r\n\r\nh2.text-2xl.font-bold.text-gray-800 {\r\n    color: white;\r\n}\r\n\r\nimg.w-full.object-contain.cursor-pointer.hover\\:opacity-90.transition-opacity.rounded-lg.max-h-96 {\r\n    transition: transform 0.5s; /* Transition the transform property */\r\n}\r\n\r\nimg.w-full.object-contain.cursor-pointer.hover\\:opacity-90.transition-opacity.rounded-lg.max-h-96:hover {\r\n    transform: scale(1.05); /* Apply the scaling effect on hover */\r\n}"}, {"id": 172, "slack_id": "U071V9FM6K1", "display_name": "Max", "bio": null, "projects_count": 0, "devlogs_count": 0, "votes_count": 0, "ships_count": 0, "projects": [], "coding_time_seconds": 44410, "coding_time_seconds_today": 0, "balance": "You need to have a pocket watcher badge to view this.", "badges": [], "created_at": "2025-06-16T05:22:44.737-04:00", "updated_at": "2025-07-03T19:11:45.261-04:00", "avatar": "https://secure.gravatar.com/avatar/8bab5e794d02787fe8f4b77d833821a8.jpg?s=512&d=https%3A%2F%2Fa.slack-edge.com%2Fdf10d%2Fimg%2Favatars%2Fava_0017-512.png", "custom_css": null}, {"id": 173, "slack_id": "U07CU1WD35J", "display_name": "idksarah", "bio": null, "projects_count": 1, "devlogs_count": 6, "votes_count": 0, "ships_count": 0, "projects": [{"id": 12756, "title": "spn personal site", "devlogs_count": 1, "created_at": "2025-09-02T03:12:28.120-04:00"}], "coding_time_seconds": 595576, "coding_time_seconds_today": 0, "balance": "You need to have a pocket watcher badge to view this.", "badges": [], "created_at": "2025-06-16T05:23:30.118-04:00", "updated_at": "2025-09-02T03:09:54.531-04:00", "avatar": "https://avatars.slack-edge.com/2025-08-22/9385086192119_6de6f37bfaf6aae15951_original.png", "custom_css": null}, {"id": 174, "slack_id": "U07H08JHT2L", "display_name": "Magic", "bio": null, "projects_count": 1, "devlogs_count": 4, "votes_count": 7, "ships_count": 1, "projects": [{"id": 12504, "title": "Water can recognise numbers!!!", "devlogs_count": 5, "created_at": "2025-08-28T14:18:05.747-04:00"}], "coding_time_seconds": 62679, "coding_time_seconds_today": 0, "balance": "You need to have a pocket watcher badge to view this.", "badges": [{"name": "Maiden Voyage", "text": "you shipped your first project! the journey begins...", "icon": "\ud83d\udea2"}], "created_at": "2025-06-16T05:28:45.818-04:00", "updated_at": "2025-09-10T22:51:11.428-04:00", "avatar": "https://avatars.slack-edge.com/2025-05-25/8941421185971_d7605da8867582b8622a_original.jpg", "custom_css": null}, {"id": 175, "slack_id": "U07PVKLCJ7R", "display_name": "CP-0", "bio": null, "projects_count": 0, "devlogs_count": 0, "votes_count": 0, "ships_count": 0, "projects": [], "coding_time_seconds": 0, "coding_time_seconds_today": 0, "balance": "You need to have a pocket watcher badge to view this.", "badges": [], "created_at": "2025-06-16T05:30:24.665-04:00", "updated_at": "2025-08-24T03:49:03.819-04:00", "avatar": "https://avatars.slack-edge.com/2025-05-28/8947984647543_7d533777eed1b8a62fc0_original.png", "custom_css": null}, {"id": 176, "slack_id": "U08TNRZAQES", "display_name": "Danerack", "bio": null, "projects_count": 2, "devlogs_count": 3, "votes_count": 0, "ships_count": 0, "projects": [{"id": 2175, "title": "HackPad", "devlogs_count": 1, "created_at": "2025-06-20T11:17:07.188-04:00"}, {"id": 13545, "title": "Web Templates", "devlogs_count": 2, "created_at": "2025-09-19T03:48:33.170-04:00"}], "coding_time_seconds": 56640, "coding_time_seconds_today": 0, "balance": "You need to have a pocket watcher badge to view this.", "badges": [], "created_at": "2025-06-16T05:32:43.139-04:00", "updated_at": "2025-09-19T03:46:44.768-04:00", "avatar": "https://avatars.slack-edge.com/2025-05-24/8939787288275_0ef2380df903f3c6efd7_original.png", "custom_css": null}, {"id": 177, "slack_id": "U091ZLX7Y9X", "display_name": "Test25", "bio": null, "projects_count": 0, "devlogs_count": 0, "votes_count": 0, "ships_count": 0, "projects": [], "coding_time_seconds": 5161, "coding_time_seconds_today": 0, "balance": "You need to have a pocket watcher badge to view this.", "badges": [], "created_at": "2025-06-16T05:38:38.227-04:00", "updated_at": "2025-07-03T19:11:48.082-04:00", "avatar": "https://secure.gravatar.com/avatar/b42b8e81d013a40d012b8e5956202136.jpg?s=512&d=https%3A%2F%2Fa.slack-edge.com%2Fdf10d%2Fimg%2Favatars%2Fava_0013-512.png", "custom_css": null}, {"id": 178, "slack_id": "U07958C9S5P", "display_name": "thet pai", "bio": null, "projects_count": 5, "devlogs_count": 7, "votes_count": 23, "ships_count": 4, "projects": [{"id": 8167, "title": "Relation", "devlogs_count": 2, "created_at": "2025-07-25T03:35:15.324-04:00"}, {"id": 9787, "title": "Notesverse-TUI", "devlogs_count": 1, "created_at": "2025-08-02T09:56:24.453-04:00"}, {"id": 8947, "title": "my personal website!", "devlogs_count": 1, "created_at": "2025-07-29T21:47:35.342-04:00"}, {"id": 8311, "title": "TimeKeeper", "devlogs_count": 2, "created_at": "2025-07-26T05:35:54.805-04:00"}, {"id": 5272, "title": "PhyoID", "devlogs_count": 1, "created_at": "2025-07-04T06:07:41.004-04:00"}], "coding_time_seconds": 310619, "coding_time_seconds_today": 0, "balance": "You need to have a pocket watcher badge to view this.", "badges": [{"name": "Maiden Voyage", "text": "you shipped your first project! the journey begins...", "icon": "\ud83d\udea2"}], "created_at": "2025-06-16T05:38:54.628-04:00", "updated_at": "2025-09-10T22:51:11.528-04:00", "avatar": "https://avatars.slack-edge.com/2025-09-09/9481119879445_de95c00077bd0dd8074b_original.png", "custom_css": null}, {"id": 179, "slack_id": "U08MMSBPZNV", "display_name": "Hectoridade", "bio": null, "projects_count": 0, "devlogs_count": 0, "votes_count": 0, "ships_count": 0, "projects": [], "coding_time_seconds": 13705, "coding_time_seconds_today": 0, "balance": "You need to have a pocket watcher badge to view this.", "badges": [], "created_at": "2025-06-16T05:39:43.416-04:00", "updated_at": "2025-08-11T20:00:28.170-04:00", "avatar": "https://avatars.slack-edge.com/2025-08-11/9338449862598_27ff980eb464ac3d92d0_original.jpg", "custom_css": null}, {"id": 180, "slack_id": "U083T3ZP6AV", "display_name": "Navdeep", "bio": "I'm Navdeep! I make cool and inspiring things!", "projects_count": 0, "devlogs_count": 20, "votes_count": 20, "ships_count": 0, "projects": [], "coding_time_seconds": 145048, "coding_time_seconds_today": 0, "balance": "You need to have a pocket watcher badge to view this.", "badges": [{"name": "Maiden Voyage", "text": "you shipped your first project! the journey begins...", "icon": "\ud83d\udea2"}], "created_at": "2025-06-16T05:42:11.672-04:00", "updated_at": "2025-09-10T22:51:11.583-04:00", "avatar": "https://avatars.slack-edge.com/2025-07-15/9194996842758_5fe39181f81523ead762_original.jpg", "custom_css": null}], "pagination": {"page": 9, "pages": 1192, "count": 23827, "items": 20}}