{"users": [{"id": 1781, "slack_id": "U091GU5EB9C", "display_name": "Mohit Chaudhary", "bio": null, "projects_count": 0, "devlogs_count": 0, "votes_count": 0, "ships_count": 0, "projects": [], "coding_time_seconds": 2887, "coding_time_seconds_today": 0, "balance": "You need to have a pocket watcher badge to view this.", "badges": [], "created_at": "2025-06-16T13:57:09.884-04:00", "updated_at": "2025-07-03T19:19:11.946-04:00", "avatar": "https://avatars.slack-edge.com/2025-06-16/9056051148741_8cbcad7d88072ba0961c_original.png", "custom_css": null}, {"id": 1782, "slack_id": "U091Q62131A", "display_name": "Darius Alexander Frobeen", "bio": null, "projects_count": 0, "devlogs_count": 0, "votes_count": 0, "ships_count": 0, "projects": [], "coding_time_seconds": 0, "coding_time_seconds_today": 0, "balance": "You need to have a pocket watcher badge to view this.", "badges": [], "created_at": "2025-06-16T13:57:28.702-04:00", "updated_at": "2025-07-03T19:19:12.214-04:00", "avatar": "https://secure.gravatar.com/avatar/dc56de15e0c14e7ee2ec8c8a88287f51.jpg?s=512&d=https%3A%2F%2Fa.slack-edge.com%2Fdf10d%2Fimg%2Favatars%2Fava_0000-512.png", "custom_css": null}, {"id": 1783, "slack_id": "U091Q56LXT6", "display_name": "Sepehr Naseri", "bio": null, "projects_count": 0, "devlogs_count": 0, "votes_count": 0, "ships_count": 0, "projects": [], "coding_time_seconds": 0, "coding_time_seconds_today": 0, "balance": "You need to have a pocket watcher badge to view this.", "badges": [], "created_at": "2025-06-16T13:57:32.884-04:00", "updated_at": "2025-07-03T19:19:12.477-04:00", "avatar": "https://secure.gravatar.com/avatar/6306a1536fd91c1e2038d631b27a50a9.jpg?s=512&d=https%3A%2F%2Fa.slack-edge.com%2Fdf10d%2Fimg%2Favatars%2Fava_0015-512.png", "custom_css": null}, {"id": 1784, "slack_id": "U091Q65AQH2", "display_name": "Paolo", "bio": null, "projects_count": 3, "devlogs_count": 20, "votes_count": 100, "ships_count": 2, "projects": [{"id": 9140, "title": "AmpUp", "devlogs_count": 3, "created_at": "2025-07-30T18:32:02.381-04:00"}, {"id": 3183, "title": "soundInspector", "devlogs_count": 11, "created_at": "2025-06-23T11:00:00.790-04:00"}, {"id": 291, "title": "betterSummerHC", "devlogs_count": 6, "created_at": "2025-06-16T17:16:22.540-04:00"}], "coding_time_seconds": 304514, "coding_time_seconds_today": 0, "balance": "You need to have a pocket watcher badge to view this.", "badges": [{"name": "Maiden Voyage", "text": "you shipped your first project! the journey begins...", "icon": "\ud83d\udea2"}, {"name": "Ballot Stuffer", "text": "vote 100 times.", "icon": "https://summer.hackclub.com/assets/i_voted-bf851b48.png"}], "created_at": "2025-06-16T13:57:46.776-04:00", "updated_at": "2025-09-14T04:36:57.344-04:00", "avatar": "https://secure.gravatar.com/avatar/af6c0804db2cda9240f08d45d0fcb8c5.jpg?s=512&d=https%3A%2F%2Fa.slack-edge.com%2Fdf10d%2Fimg%2Favatars%2Fava_0026-512.png", "custom_css": null}, {"id": 1785, "slack_id": "U091GR9A1EF", "display_name": "Henderson", "bio": null, "projects_count": 3, "devlogs_count": 0, "votes_count": 0, "ships_count": 0, "projects": [{"id": 248, "title": "Cat Library", "devlogs_count": 0, "created_at": "2025-06-16T16:19:38.620-04:00"}, {"id": 1163, "title": "DisMail", "devlogs_count": 0, "created_at": "2025-06-17T19:29:42.044-04:00"}, {"id": 1164, "title": "Clever Custom Countdowns", "devlogs_count": 0, "created_at": "2025-06-17T19:34:18.527-04:00"}], "coding_time_seconds": 72148, "coding_time_seconds_today": 0, "balance": "You need to have a pocket watcher badge to view this.", "badges": [], "created_at": "2025-06-16T13:57:54.231-04:00", "updated_at": "2025-07-03T19:19:13.017-04:00", "avatar": "https://avatars.slack-edge.com/2025-06-23/9091555538789_917f0d78d73b7d6bede7_original.jpg", "custom_css": null}, {"id": 1786, "slack_id": "U091N16TH6H", "display_name": "Ansh", "bio": null, "projects_count": 0, "devlogs_count": 0, "votes_count": 0, "ships_count": 0, "projects": [], "coding_time_seconds": 128833, "coding_time_seconds_today": 0, "balance": "You need to have a pocket watcher badge to view this.", "badges": [], "created_at": "2025-06-16T13:57:56.255-04:00", "updated_at": "2025-07-03T19:19:13.294-04:00", "avatar": "https://secure.gravatar.com/avatar/08d150df4bb7d98ea4ea41e97da9c418.jpg?s=512&d=https%3A%2F%2Fa.slack-edge.com%2Fdf10d%2Fimg%2Favatars%2Fava_0022-512.png", "custom_css": null}, {"id": 1787, "slack_id": "U092C85U03S", "display_name": "Rizmy Abdulla", "bio": null, "projects_count": 0, "devlogs_count": 0, "votes_count": 0, "ships_count": 0, "projects": [], "coding_time_seconds": 0, "coding_time_seconds_today": 0, "balance": "You need to have a pocket watcher badge to view this.", "badges": [], "created_at": "2025-06-16T13:58:02.497-04:00", "updated_at": "2025-07-03T19:19:13.560-04:00", "avatar": "https://secure.gravatar.com/avatar/e9806a2ea7c558750c263cd361c3d463.jpg?s=512&d=https%3A%2F%2Fa.slack-edge.com%2Fdf10d%2Fimg%2Favatars%2Fava_0000-512.png", "custom_css": null}, {"id": 1788, "slack_id": "U090H43TYTU", "display_name": "Samuel Konrad", "bio": null, "projects_count": 4, "devlogs_count": 18, "votes_count": 44, "ships_count": 2, "projects": [{"id": 163, "title": "LifeFlow", "devlogs_count": 3, "created_at": "2025-06-16T14:43:00.925-04:00"}, {"id": 3861, "title": "Sentelly", "devlogs_count": 4, "created_at": "2025-06-26T03:12:12.923-04:00"}, {"id": 5158, "title": "Codeforces", "devlogs_count": 4, "created_at": "2025-07-03T14:01:56.846-04:00"}, {"id": 4709, "title": "askC", "devlogs_count": 7, "created_at": "2025-07-01T07:10:48.958-04:00"}], "coding_time_seconds": 367117, "coding_time_seconds_today": 3499, "balance": "You need to have a pocket watcher badge to view this.", "badges": [{"name": "Maiden Voyage", "text": "you shipped your first project! the journey begins...", "icon": "\ud83d\udea2"}], "created_at": "2025-06-16T13:58:06.275-04:00", "updated_at": "2025-09-10T22:52:03.212-04:00", "avatar": "https://avatars.slack-edge.com/2025-06-16/9070381034225_5ad9b8efd10fa949dbc1_original.png", "custom_css": null}, {"id": 1789, "slack_id": "U0922AUL01F", "display_name": "Kimberley Ni", "bio": null, "projects_count": 0, "devlogs_count": 0, "votes_count": 0, "ships_count": 0, "projects": [], "coding_time_seconds": 0, "coding_time_seconds_today": 0, "balance": "You need to have a pocket watcher badge to view this.", "badges": [], "created_at": "2025-06-16T13:58:21.515-04:00", "updated_at": "2025-07-03T19:19:14.104-04:00", "avatar": "https://secure.gravatar.com/avatar/fc19dd1e41681f3939d6328e2fde18ca.jpg?s=512&d=https%3A%2F%2Fa.slack-edge.com%2Fdf10d%2Fimg%2Favatars%2Fava_0000-512.png", "custom_css": null}, {"id": 1790, "slack_id": "U091GRCNKV1", "display_name": "Chirag Chaudhary", "bio": null, "projects_count": 1, "devlogs_count": 1, "votes_count": 0, "ships_count": 0, "projects": [{"id": 3510, "title": "EZ Doors", "devlogs_count": 1, "created_at": "2025-06-24T14:35:18.988-04:00"}], "coding_time_seconds": 11811, "coding_time_seconds_today": 0, "balance": "You need to have a pocket watcher badge to view this.", "badges": [], "created_at": "2025-06-16T13:58:44.808-04:00", "updated_at": "2025-07-03T19:19:14.378-04:00", "avatar": "https://secure.gravatar.com/avatar/3a5daf725a4659c68543975f0efc26bd.jpg?s=512&d=https%3A%2F%2Fa.slack-edge.com%2Fdf10d%2Fimg%2Favatars%2Fava_0026-512.png", "custom_css": null}, {"id": 1791, "slack_id": "U092C8HBW9W", "display_name": "Mohamed", "bio": null, "projects_count": 1, "devlogs_count": 0, "votes_count": 0, "ships_count": 0, "projects": [{"id": 1042, "title": "AXiom", "devlogs_count": 0, "created_at": "2025-06-17T14:14:56.007-04:00"}], "coding_time_seconds": 3883, "coding_time_seconds_today": 0, "balance": "You need to have a pocket watcher badge to view this.", "badges": [], "created_at": "2025-06-16T13:58:48.148-04:00", "updated_at": "2025-07-03T19:19:14.653-04:00", "avatar": "https://secure.gravatar.com/avatar/5b5c28147b72198b134c7a94065b09cb.jpg?s=512&d=https%3A%2F%2Fa.slack-edge.com%2Fdf10d%2Fimg%2Favatars%2Fava_0011-512.png", "custom_css": null}, {"id": 1792, "slack_id": "U0918EPASTH", "display_name": "Shubham", "bio": null, "projects_count": 1, "devlogs_count": 0, "votes_count": 0, "ships_count": 0, "projects": [{"id": 583, "title": "WebGenMachine", "devlogs_count": 0, "created_at": "2025-06-17T02:00:03.285-04:00"}], "coding_time_seconds": 109212, "coding_time_seconds_today": 0, "balance": "You need to have a pocket watcher badge to view this.", "badges": [], "created_at": "2025-06-16T13:58:50.323-04:00", "updated_at": "2025-07-23T04:36:21.096-04:00", "avatar": "https://secure.gravatar.com/avatar/629ebd876c099dd0af5a81b3d267663a.jpg?s=512&d=https%3A%2F%2Fa.slack-edge.com%2Fdf10d%2Fimg%2Favatars%2Fava_0005-512.png", "custom_css": null}, {"id": 1793, "slack_id": "U091GRJHBDZ", "display_name": "Jayabrota", "bio": null, "projects_count": 0, "devlogs_count": 0, "votes_count": 0, "ships_count": 0, "projects": [], "coding_time_seconds": 0, "coding_time_seconds_today": 0, "balance": "You need to have a pocket watcher badge to view this.", "badges": [], "created_at": "2025-06-16T13:58:59.903-04:00", "updated_at": "2025-07-03T19:19:15.183-04:00", "avatar": "https://secure.gravatar.com/avatar/222ef2a926b37f824a8b865119153709.jpg?s=512&d=https%3A%2F%2Fa.slack-edge.com%2Fdf10d%2Fimg%2Favatars%2Fava_0011-512.png", "custom_css": null}, {"id": 1794, "slack_id": "U0922B1FMCZ", "display_name": "Shobhit Kumar", "bio": null, "projects_count": 0, "devlogs_count": 0, "votes_count": 0, "ships_count": 0, "projects": [], "coding_time_seconds": 54531, "coding_time_seconds_today": 0, "balance": "You need to have a pocket watcher badge to view this.", "badges": [], "created_at": "2025-06-16T13:59:10.729-04:00", "updated_at": "2025-07-03T19:19:15.456-04:00", "avatar": "https://secure.gravatar.com/avatar/90a1f0c76dbad4bd0f11e2214f37361b.jpg?s=512&d=https%3A%2F%2Fa.slack-edge.com%2Fdf10d%2Fimg%2Favatars%2Fava_0000-512.png", "custom_css": null}, {"id": 1795, "slack_id": "U092C6RMX1N", "display_name": "Eya Besbes", "bio": null, "projects_count": 0, "devlogs_count": 0, "votes_count": 0, "ships_count": 0, "projects": [], "coding_time_seconds": 0, "coding_time_seconds_today": 0, "balance": "You need to have a pocket watcher badge to view this.", "badges": [], "created_at": "2025-06-16T13:59:16.536-04:00", "updated_at": "2025-07-03T19:19:15.764-04:00", "avatar": "https://avatars.slack-edge.com/2025-06-16/9050986563494_bd9dffe674b5d768b52b_original.png", "custom_css": null}, {"id": 1796, "slack_id": "U091PQ22J8J", "display_name": "Anshika Mishra", "bio": null, "projects_count": 0, "devlogs_count": 0, "votes_count": 0, "ships_count": 0, "projects": [], "coding_time_seconds": 0, "coding_time_seconds_today": 0, "balance": "You need to have a pocket watcher badge to view this.", "badges": [], "created_at": "2025-06-16T13:59:24.893-04:00", "updated_at": "2025-07-03T19:19:16.032-04:00", "avatar": "https://avatars.slack-edge.com/2025-06-16/9050886220499_93b574fb0facbb798472_original.png", "custom_css": null}, {"id": 1797, "slack_id": "U091N10ULER", "display_name": "amogh souri", "bio": null, "projects_count": 1, "devlogs_count": 3, "votes_count": 0, "ships_count": 0, "projects": [{"id": 1026, "title": "The Open Source Scanning Electron Microscope Controller Program", "devlogs_count": 3, "created_at": "2025-06-17T14:02:06.051-04:00"}], "coding_time_seconds": 95649, "coding_time_seconds_today": 0, "balance": "You need to have a pocket watcher badge to view this.", "badges": [], "created_at": "2025-06-16T13:59:28.696-04:00", "updated_at": "2025-07-03T19:19:16.304-04:00", "avatar": "https://avatars.slack-edge.com/2025-06-16/9080303655168_95c172d817d7c3272231_original.jpg", "custom_css": null}, {"id": 1798, "slack_id": "U0918F8LB8X", "display_name": "sunny", "bio": null, "projects_count": 0, "devlogs_count": 0, "votes_count": 0, "ships_count": 0, "projects": [], "coding_time_seconds": 0, "coding_time_seconds_today": 0, "balance": "You need to have a pocket watcher badge to view this.", "badges": [], "created_at": "2025-06-16T13:59:37.096-04:00", "updated_at": "2025-07-03T19:19:16.606-04:00", "avatar": "https://secure.gravatar.com/avatar/f13b252a7e5ddfd8464488f8ae0bb5cd.jpg?s=512&d=https%3A%2F%2Fa.slack-edge.com%2Fdf10d%2Fimg%2Favatars%2Fava_0022-512.png", "custom_css": null}, {"id": 1799, "slack_id": "U091GBHMLSJ", "display_name": "KhushiPandey", "bio": null, "projects_count": 0, "devlogs_count": 0, "votes_count": 0, "ships_count": 0, "projects": [], "coding_time_seconds": 0, "coding_time_seconds_today": 0, "balance": "You need to have a pocket watcher badge to view this.", "badges": [], "created_at": "2025-06-16T13:59:42.076-04:00", "updated_at": "2025-07-03T19:19:16.885-04:00", "avatar": "https://secure.gravatar.com/avatar/4c2d5846e0a780f5d6120cd9e1755c83.jpg?s=512&d=https%3A%2F%2Fa.slack-edge.com%2Fdf10d%2Fimg%2Favatars%2Fava_0016-512.png", "custom_css": null}, {"id": 1800, "slack_id": "U08RLHLSRGA", "display_name": "Alfonsoce11", "bio": null, "projects_count": 1, "devlogs_count": 7, "votes_count": 3, "ships_count": 1, "projects": [{"id": 2395, "title": "CodeBoard", "devlogs_count": 5, "created_at": "2025-06-20T23:00:46.130-04:00"}], "coding_time_seconds": 292361, "coding_time_seconds_today": 0, "balance": "You need to have a pocket watcher badge to view this.", "badges": [{"name": "Maiden Voyage", "text": "you shipped your first project! the journey begins...", "icon": "\ud83d\udea2"}], "created_at": "2025-06-16T13:59:42.080-04:00", "updated_at": "2025-09-10T22:52:03.538-04:00", "avatar": "https://avatars.slack-edge.com/2025-08-08/9327768555378_3b15c868c8f0b5010ac4_original.png", "custom_css": null}], "pagination": {"page": 90, "pages": 1192, "count": 23828, "items": 20}}