{"users": [{"id": 18066, "slack_id": "U096ZUA2HRA", "display_name": "Nish", "bio": null, "projects_count": 0, "devlogs_count": 0, "votes_count": 0, "ships_count": 0, "projects": [], "coding_time_seconds": 0, "coding_time_seconds_today": 0, "balance": "You need to have a pocket watcher badge to view this.", "badges": [], "created_at": "2025-07-22T12:02:13.342-04:00", "updated_at": "2025-07-22T21:36:03.873-04:00", "avatar": "https://secure.gravatar.com/avatar/5d35a452b1b909a838bbfaa6093d52e1.jpg?s=512&d=https%3A%2F%2Fa.slack-edge.com%2Fdf10d%2Fimg%2Favatars%2Fava_0000-512.png", "custom_css": null}, {"id": 18067, "slack_id": "U096WPP4W85", "display_name": "Subham", "bio": null, "projects_count": 1, "devlogs_count": 2, "votes_count": 0, "ships_count": 0, "projects": [{"id": 7656, "title": "BattleShip Game", "devlogs_count": 2, "created_at": "2025-07-22T12:27:53.884-04:00"}], "coding_time_seconds": 16872, "coding_time_seconds_today": 0, "balance": "You need to have a pocket watcher badge to view this.", "badges": [], "created_at": "2025-07-22T12:05:31.905-04:00", "updated_at": "2025-07-23T02:01:46.876-04:00", "avatar": "https://secure.gravatar.com/avatar/93f012f94d3cd31dd9163d20bd64f347.jpg?s=512&d=https%3A%2F%2Fa.slack-edge.com%2Fdf10d%2Fimg%2Favatars%2Fava_0011-512.png", "custom_css": null}, {"id": 18068, "slack_id": "U096VM90R5L", "display_name": "Dueoksini", "bio": null, "projects_count": 0, "devlogs_count": 0, "votes_count": 0, "ships_count": 0, "projects": [], "coding_time_seconds": 0, "coding_time_seconds_today": 0, "balance": "You need to have a pocket watcher badge to view this.", "badges": [], "created_at": "2025-07-22T12:07:10.777-04:00", "updated_at": "2025-07-22T21:36:04.056-04:00", "avatar": "https://secure.gravatar.com/avatar/feb086ae8d009d41844113ff7bab9422.jpg?s=512&d=https%3A%2F%2Fa.slack-edge.com%2Fdf10d%2Fimg%2Favatars%2Fava_0026-512.png", "custom_css": null}, {"id": 18069, "slack_id": "U096EGNS2SK", "display_name": "Samy Kouidri", "bio": null, "projects_count": 0, "devlogs_count": 0, "votes_count": 0, "ships_count": 0, "projects": [], "coding_time_seconds": 0, "coding_time_seconds_today": 0, "balance": "You need to have a pocket watcher badge to view this.", "badges": [], "created_at": "2025-07-22T12:07:16.168-04:00", "updated_at": "2025-07-22T21:36:08.177-04:00", "avatar": "https://avatars.slack-edge.com/2025-07-22/9238011916020_a5915e9d38e8e471e9fa_original.png", "custom_css": null}, {"id": 18070, "slack_id": "U0976QW356D", "display_name": "Ludo", "bio": null, "projects_count": 0, "devlogs_count": 0, "votes_count": 0, "ships_count": 0, "projects": [], "coding_time_seconds": 19028, "coding_time_seconds_today": 0, "balance": "You need to have a pocket watcher badge to view this.", "badges": [], "created_at": "2025-07-22T12:07:29.228-04:00", "updated_at": "2025-07-22T21:36:08.281-04:00", "avatar": "https://secure.gravatar.com/avatar/33033de1cd35a27660e2cfcbfee54e1d.jpg?s=512&d=https%3A%2F%2Fa.slack-edge.com%2Fdf10d%2Fimg%2Favatars%2Fava_0000-512.png", "custom_css": null}, {"id": 18071, "slack_id": "U096CKKLTF1", "display_name": "Prasanjit Dutta", "bio": null, "projects_count": 0, "devlogs_count": 0, "votes_count": 0, "ships_count": 0, "projects": [], "coding_time_seconds": 0, "coding_time_seconds_today": 0, "balance": "You need to have a pocket watcher badge to view this.", "badges": [], "created_at": "2025-07-22T12:09:37.255-04:00", "updated_at": "2025-07-22T21:36:08.374-04:00", "avatar": "https://avatars.slack-edge.com/2025-07-22/9236831858754_0b135f026ffd7ba71dbb_original.png", "custom_css": null}, {"id": 18072, "slack_id": "U096WR691V3", "display_name": "Maha", "bio": null, "projects_count": 0, "devlogs_count": 0, "votes_count": 0, "ships_count": 0, "projects": [], "coding_time_seconds": 0, "coding_time_seconds_today": 0, "balance": "You need to have a pocket watcher badge to view this.", "badges": [], "created_at": "2025-07-22T12:13:38.655-04:00", "updated_at": "2025-07-22T21:36:08.470-04:00", "avatar": "https://secure.gravatar.com/avatar/96b16dd8e68f02142443c0c499ed25c9.jpg?s=512&d=https%3A%2F%2Fa.slack-edge.com%2Fdf10d%2Fimg%2Favatars%2Fava_0000-512.png", "custom_css": null}, {"id": 18073, "slack_id": "U096TEX3MDH", "display_name": "Dhruv Karmokar", "bio": null, "projects_count": 0, "devlogs_count": 0, "votes_count": 0, "ships_count": 0, "projects": [], "coding_time_seconds": 0, "coding_time_seconds_today": 0, "balance": "You need to have a pocket watcher badge to view this.", "badges": [], "created_at": "2025-07-22T12:14:20.346-04:00", "updated_at": "2025-07-22T21:36:08.565-04:00", "avatar": "https://secure.gravatar.com/avatar/6ac1a1ed66fcaf4477dee40e27f027aa.jpg?s=512&d=https%3A%2F%2Fa.slack-edge.com%2Fdf10d%2Fimg%2Favatars%2Fava_0015-512.png", "custom_css": null}, {"id": 18074, "slack_id": "U096WR6Q1NZ", "display_name": "Vihari", "bio": null, "projects_count": 0, "devlogs_count": 0, "votes_count": 0, "ships_count": 0, "projects": [], "coding_time_seconds": 0, "coding_time_seconds_today": 0, "balance": "You need to have a pocket watcher badge to view this.", "badges": [], "created_at": "2025-07-22T12:14:20.587-04:00", "updated_at": "2025-07-22T21:36:08.665-04:00", "avatar": "https://secure.gravatar.com/avatar/2d3ed5e867bc527a5ba8a8cc599eccc2.jpg?s=512&d=https%3A%2F%2Fa.slack-edge.com%2Fdf10d%2Fimg%2Favatars%2Fava_0005-512.png", "custom_css": null}, {"id": 18075, "slack_id": "U096YQZV3V0", "display_name": "Capy", "bio": null, "projects_count": 5, "devlogs_count": 45, "votes_count": 45, "ships_count": 3, "projects": [{"id": 8727, "title": "Somnu", "devlogs_count": 3, "created_at": "2025-07-29T03:26:17.975-04:00"}, {"id": 11764, "title": "Panell", "devlogs_count": 19, "created_at": "2025-08-19T10:25:10.457-04:00"}, {"id": 7793, "title": "LeafLife", "devlogs_count": 3, "created_at": "2025-07-23T04:19:14.928-04:00"}, {"id": 8310, "title": "Monii", "devlogs_count": 11, "created_at": "2025-07-26T05:28:55.500-04:00"}, {"id": 10576, "title": "Verba", "devlogs_count": 7, "created_at": "2025-08-08T10:46:05.166-04:00"}], "coding_time_seconds": 158688, "coding_time_seconds_today": 0, "balance": "You need to have a pocket watcher badge to view this.", "badges": [], "created_at": "2025-07-22T12:15:03.615-04:00", "updated_at": "2025-08-23T14:49:34.780-04:00", "avatar": "https://avatars.slack-edge.com/2025-07-22/9251069313777_2c0d85e3d0621fa6376a_original.png", "custom_css": null}, {"id": 18076, "slack_id": "U096TF7G3T5", "display_name": "Franky", "bio": null, "projects_count": 0, "devlogs_count": 0, "votes_count": 0, "ships_count": 0, "projects": [], "coding_time_seconds": 0, "coding_time_seconds_today": 0, "balance": "You need to have a pocket watcher badge to view this.", "badges": [], "created_at": "2025-07-22T12:16:35.266-04:00", "updated_at": "2025-07-22T21:36:08.874-04:00", "avatar": "https://secure.gravatar.com/avatar/fcef330bcb302c26a5645e5d2ab6d9a9.jpg?s=512&d=https%3A%2F%2Fa.slack-edge.com%2Fdf10d%2Fimg%2Favatars%2Fava_0012-512.png", "custom_css": null}, {"id": 18077, "slack_id": "U096VPP8ZAS", "display_name": "Dinesh Paladugula", "bio": null, "projects_count": 0, "devlogs_count": 0, "votes_count": 0, "ships_count": 0, "projects": [], "coding_time_seconds": 54366, "coding_time_seconds_today": 0, "balance": "You need to have a pocket watcher badge to view this.", "badges": [], "created_at": "2025-07-22T12:18:56.769-04:00", "updated_at": "2025-07-22T21:36:08.977-04:00", "avatar": "https://secure.gravatar.com/avatar/b17afcabfd730fab9fd8591e94a30d07.jpg?s=512&d=https%3A%2F%2Fa.slack-edge.com%2Fdf10d%2Fimg%2Favatars%2Fava_0023-512.png", "custom_css": null}, {"id": 18078, "slack_id": "U096WSG53SR", "display_name": "otter rose", "bio": null, "projects_count": 0, "devlogs_count": 0, "votes_count": 0, "ships_count": 0, "projects": [], "coding_time_seconds": 0, "coding_time_seconds_today": 0, "balance": "You need to have a pocket watcher badge to view this.", "badges": [], "created_at": "2025-07-22T12:20:54.057-04:00", "updated_at": "2025-07-22T21:36:09.056-04:00", "avatar": "https://secure.gravatar.com/avatar/872add835f4d7f50373ae63f75b8f173.jpg?s=512&d=https%3A%2F%2Fa.slack-edge.com%2Fdf10d%2Fimg%2Favatars%2Fava_0002-512.png", "custom_css": null}, {"id": 18079, "slack_id": "U09702EUCCU", "display_name": "Florian Golemo", "bio": null, "projects_count": 0, "devlogs_count": 0, "votes_count": 0, "ships_count": 0, "projects": [], "coding_time_seconds": 41081, "coding_time_seconds_today": 0, "balance": "You need to have a pocket watcher badge to view this.", "badges": [], "created_at": "2025-07-22T12:20:56.746-04:00", "updated_at": "2025-07-22T21:36:09.133-04:00", "avatar": "https://secure.gravatar.com/avatar/b587ab346e4f8a60dc96c6d23665afd4.jpg?s=512&d=https%3A%2F%2Fa.slack-edge.com%2Fdf10d%2Fimg%2Favatars%2Fava_0023-512.png", "custom_css": null}, {"id": 18080, "slack_id": "U096VQBAHNJ", "display_name": "SB", "bio": null, "projects_count": 0, "devlogs_count": 16, "votes_count": 78, "ships_count": 0, "projects": [], "coding_time_seconds": 249836, "coding_time_seconds_today": 0, "balance": "You need to have a pocket watcher badge to view this.", "badges": [], "created_at": "2025-07-22T12:22:32.619-04:00", "updated_at": "2025-08-31T01:45:44.000-04:00", "avatar": "https://secure.gravatar.com/avatar/b1f502a480f68ccac004bd8dc6276cc5.jpg?s=512&d=https%3A%2F%2Fa.slack-edge.com%2Fdf10d%2Fimg%2Favatars%2Fava_0016-512.png", "custom_css": null}, {"id": 18081, "slack_id": "U097M56CKEU", "display_name": "Hasan Faraz Khan", "bio": null, "projects_count": 1, "devlogs_count": 0, "votes_count": 0, "ships_count": 0, "projects": [{"id": 11619, "title": "slush", "devlogs_count": 0, "created_at": "2025-08-17T18:48:40.041-04:00"}], "coding_time_seconds": 2056, "coding_time_seconds_today": 0, "balance": "You need to have a pocket watcher badge to view this.", "badges": [], "created_at": "2025-07-22T12:23:26.101-04:00", "updated_at": "2025-08-17T18:54:32.366-04:00", "avatar": "https://secure.gravatar.com/avatar/b2aa1bed6170e4883432e02d1bcdc194.jpg?s=512&d=https%3A%2F%2Fa.slack-edge.com%2Fdf10d%2Fimg%2Favatars%2Fava_0013-512.png", "custom_css": null}, {"id": 18082, "slack_id": "U096HVA1TAB", "display_name": "Francisco Alfonso Bahamondes Parraguez", "bio": null, "projects_count": 0, "devlogs_count": 0, "votes_count": 0, "ships_count": 0, "projects": [], "coding_time_seconds": 0, "coding_time_seconds_today": 0, "balance": "You need to have a pocket watcher badge to view this.", "badges": [], "created_at": "2025-07-22T12:23:29.931-04:00", "updated_at": "2025-07-22T21:36:09.364-04:00", "avatar": "https://avatars.slack-edge.com/2025-07-22/9236914547282_9a55784661ef7849ad44_original.png", "custom_css": null}, {"id": 18083, "slack_id": "U097C231WQ1", "display_name": "Jacques", "bio": null, "projects_count": 0, "devlogs_count": 20, "votes_count": 90, "ships_count": 0, "projects": [], "coding_time_seconds": 412946, "coding_time_seconds_today": 0, "balance": "You need to have a pocket watcher badge to view this.", "badges": [], "created_at": "2025-07-22T12:23:55.370-04:00", "updated_at": "2025-09-03T10:08:35.343-04:00", "avatar": "https://secure.gravatar.com/avatar/da8527dd6682d686c1e9988d488331aa.jpg?s=512&d=https%3A%2F%2Fa.slack-edge.com%2Fdf10d%2Fimg%2Favatars%2Fava_0017-512.png", "custom_css": null}, {"id": 18084, "slack_id": "U096TGCUW6P", "display_name": "Darshan", "bio": null, "projects_count": 0, "devlogs_count": 0, "votes_count": 0, "ships_count": 0, "projects": [], "coding_time_seconds": 0, "coding_time_seconds_today": 0, "balance": "You need to have a pocket watcher badge to view this.", "badges": [], "created_at": "2025-07-22T12:24:27.471-04:00", "updated_at": "2025-07-22T21:36:13.557-04:00", "avatar": "https://secure.gravatar.com/avatar/c8d28c948da51ee858ab4ced50b47403.jpg?s=512&d=https%3A%2F%2Fa.slack-edge.com%2Fdf10d%2Fimg%2Favatars%2Fava_0021-512.png", "custom_css": null}, {"id": 18085, "slack_id": "U097031TUSG", "display_name": "Aadarsh Kumawat", "bio": null, "projects_count": 0, "devlogs_count": 0, "votes_count": 0, "ships_count": 0, "projects": [], "coding_time_seconds": 26417, "coding_time_seconds_today": 0, "balance": "You need to have a pocket watcher badge to view this.", "badges": [], "created_at": "2025-07-22T12:25:49.363-04:00", "updated_at": "2025-07-22T21:36:13.656-04:00", "avatar": "https://avatars.slack-edge.com/2025-07-22/9231588214275_1d7895760b36c6ba9537_original.png", "custom_css": null}], "pagination": {"page": 900, "pages": 1192, "count": 23828, "items": 20}}