{"users": [{"id": 18086, "slack_id": "U097M5HNBME", "display_name": "Sharukhali Syed", "bio": null, "projects_count": 0, "devlogs_count": 0, "votes_count": 0, "ships_count": 0, "projects": [], "coding_time_seconds": 0, "coding_time_seconds_today": 0, "balance": "You need to have a pocket watcher badge to view this.", "badges": [], "created_at": "2025-07-22T12:26:21.337-04:00", "updated_at": "2025-07-22T21:36:13.750-04:00", "avatar": "https://secure.gravatar.com/avatar/e9f4b4e854114b838e343f1f6ee5b382.jpg?s=512&d=https%3A%2F%2Fa.slack-edge.com%2Fdf10d%2Fimg%2Favatars%2Fava_0002-512.png", "custom_css": null}, {"id": 18087, "slack_id": "U096YSXUF8S", "display_name": "Aditya", "bio": null, "projects_count": 0, "devlogs_count": 0, "votes_count": 0, "ships_count": 0, "projects": [], "coding_time_seconds": 0, "coding_time_seconds_today": 0, "balance": "You need to have a pocket watcher badge to view this.", "badges": [], "created_at": "2025-07-22T12:27:50.693-04:00", "updated_at": "2025-08-19T03:19:07.275-04:00", "avatar": "https://secure.gravatar.com/avatar/aeedb7bab2ad9eb930bd1bce443e2aea.jpg?s=512&d=https%3A%2F%2Fa.slack-edge.com%2Fdf10d%2Fimg%2Favatars%2Fava_0023-512.png", "custom_css": null}, {"id": 18088, "slack_id": "U096VRWK3C6", "display_name": "Zainab", "bio": null, "projects_count": 0, "devlogs_count": 0, "votes_count": 0, "ships_count": 0, "projects": [], "coding_time_seconds": 0, "coding_time_seconds_today": 0, "balance": "You need to have a pocket watcher badge to view this.", "badges": [], "created_at": "2025-07-22T12:31:57.327-04:00", "updated_at": "2025-07-22T21:36:13.932-04:00", "avatar": "https://secure.gravatar.com/avatar/0e843be9134640f5392a779b9e75abd2.jpg?s=512&d=https%3A%2F%2Fa.slack-edge.com%2Fdf10d%2Fimg%2Favatars%2Fava_0010-512.png", "custom_css": null}, {"id": 18089, "slack_id": "U097G2DA63S", "display_name": "Nahusenay Yifter", "bio": null, "projects_count": 0, "devlogs_count": 0, "votes_count": 0, "ships_count": 0, "projects": [], "coding_time_seconds": 0, "coding_time_seconds_today": 0, "balance": "You need to have a pocket watcher badge to view this.", "badges": [], "created_at": "2025-07-22T12:32:34.192-04:00", "updated_at": "2025-07-22T21:36:14.028-04:00", "avatar": "https://avatars.slack-edge.com/2025-07-22/9234998754005_d6c6ff6db4745667f7a0_original.png", "custom_css": null}, {"id": 18090, "slack_id": "U096TJ8KJ4B", "display_name": "Yash Grover", "bio": null, "projects_count": 0, "devlogs_count": 0, "votes_count": 0, "ships_count": 0, "projects": [], "coding_time_seconds": 0, "coding_time_seconds_today": 0, "balance": "You need to have a pocket watcher badge to view this.", "badges": [], "created_at": "2025-07-22T12:32:57.758-04:00", "updated_at": "2025-07-22T21:36:14.116-04:00", "avatar": "https://secure.gravatar.com/avatar/4c25da555c33e32a9ffb0649ce7a5b2e.jpg?s=512&d=https%3A%2F%2Fa.slack-edge.com%2Fdf10d%2Fimg%2Favatars%2Fava_0001-512.png", "custom_css": null}, {"id": 18091, "slack_id": "U0976R49PFB", "display_name": "Faizan Siddiqui", "bio": null, "projects_count": 0, "devlogs_count": 0, "votes_count": 0, "ships_count": 0, "projects": [], "coding_time_seconds": 0, "coding_time_seconds_today": 0, "balance": "You need to have a pocket watcher badge to view this.", "badges": [], "created_at": "2025-07-22T12:38:29.323-04:00", "updated_at": "2025-07-22T21:36:14.237-04:00", "avatar": "https://secure.gravatar.com/avatar/590c23d64fd7b07abbfe0917a4473ac1.jpg?s=512&d=https%3A%2F%2Fa.slack-edge.com%2Fdf10d%2Fimg%2Favatars%2Fava_0013-512.png", "custom_css": null}, {"id": 18092, "slack_id": "U097068FQFN", "display_name": "Giovanna Chavez", "bio": null, "projects_count": 0, "devlogs_count": 0, "votes_count": 0, "ships_count": 0, "projects": [], "coding_time_seconds": 0, "coding_time_seconds_today": 0, "balance": "You need to have a pocket watcher badge to view this.", "badges": [], "created_at": "2025-07-22T12:42:55.838-04:00", "updated_at": "2025-07-22T21:36:14.323-04:00", "avatar": "https://secure.gravatar.com/avatar/bfd45fd3f9d9f8759bb847cf580bdc4b.jpg?s=512&d=https%3A%2F%2Fa.slack-edge.com%2Fdf10d%2Fimg%2Favatars%2Fava_0013-512.png", "custom_css": null}, {"id": 18093, "slack_id": "U097KS15V40", "display_name": "Aarush", "bio": null, "projects_count": 0, "devlogs_count": 0, "votes_count": 0, "ships_count": 0, "projects": [], "coding_time_seconds": 0, "coding_time_seconds_today": 0, "balance": "You need to have a pocket watcher badge to view this.", "badges": [], "created_at": "2025-07-22T12:44:00.694-04:00", "updated_at": "2025-07-22T21:36:14.406-04:00", "avatar": "https://secure.gravatar.com/avatar/78af34b713c7f273d1325c166061e0f2.jpg?s=512&d=https%3A%2F%2Fa.slack-edge.com%2Fdf10d%2Fimg%2Favatars%2Fava_0011-512.png", "custom_css": null}, {"id": 18094, "slack_id": "U096J3FADJB", "display_name": "Bobby Yao", "bio": null, "projects_count": 0, "devlogs_count": 0, "votes_count": 0, "ships_count": 0, "projects": [], "coding_time_seconds": 0, "coding_time_seconds_today": 0, "balance": "You need to have a pocket watcher badge to view this.", "badges": [], "created_at": "2025-07-22T12:45:47.345-04:00", "updated_at": "2025-07-22T21:36:14.507-04:00", "avatar": "https://avatars.slack-edge.com/2025-07-22/9235078773077_55a3a53ce0d16d6ade89_original.png", "custom_css": null}, {"id": 18095, "slack_id": "U096UT8P8RJ", "display_name": "Rob.dll", "bio": null, "projects_count": 0, "devlogs_count": 0, "votes_count": 0, "ships_count": 0, "projects": [], "coding_time_seconds": 433036, "coding_time_seconds_today": 0, "balance": "You need to have a pocket watcher badge to view this.", "badges": [], "created_at": "2025-07-22T12:48:50.742-04:00", "updated_at": "2025-07-23T06:28:09.878-04:00", "avatar": "https://secure.gravatar.com/avatar/14550ace15cbefe67aba9aae5120270d.jpg?s=512&d=https%3A%2F%2Fa.slack-edge.com%2Fdf10d%2Fimg%2Favatars%2Fava_0011-512.png", "custom_css": null}, {"id": 18096, "slack_id": "U097C6G26KT", "display_name": "Raman", "bio": null, "projects_count": 0, "devlogs_count": 0, "votes_count": 0, "ships_count": 0, "projects": [], "coding_time_seconds": 387, "coding_time_seconds_today": 0, "balance": "You need to have a pocket watcher badge to view this.", "badges": [], "created_at": "2025-07-22T12:49:27.947-04:00", "updated_at": "2025-07-22T21:36:14.677-04:00", "avatar": "https://secure.gravatar.com/avatar/8a223c214462de01f41c9c7f6b3bc13d.jpg?s=512&d=https%3A%2F%2Fa.slack-edge.com%2Fdf10d%2Fimg%2Favatars%2Fava_0018-512.png", "custom_css": null}, {"id": 18097, "slack_id": "U097M9UJ3KJ", "display_name": "Ronivaldo D. Andrade", "bio": null, "projects_count": 0, "devlogs_count": 0, "votes_count": 0, "ships_count": 0, "projects": [], "coding_time_seconds": 0, "coding_time_seconds_today": 0, "balance": "You need to have a pocket watcher badge to view this.", "badges": [], "created_at": "2025-07-22T12:50:35.898-04:00", "updated_at": "2025-07-22T21:36:14.761-04:00", "avatar": "https://secure.gravatar.com/avatar/03a30d13614c4b1d86fc3bd8bdb2438c.jpg?s=512&d=https%3A%2F%2Fa.slack-edge.com%2Fdf10d%2Fimg%2Favatars%2Fava_0010-512.png", "custom_css": null}, {"id": 18098, "slack_id": "U097C6XQ76V", "display_name": "Bayu Rifki Alghifari", "bio": null, "projects_count": 0, "devlogs_count": 0, "votes_count": 0, "ships_count": 0, "projects": [], "coding_time_seconds": 0, "coding_time_seconds_today": 0, "balance": "You need to have a pocket watcher badge to view this.", "badges": [], "created_at": "2025-07-22T12:53:04.682-04:00", "updated_at": "2025-07-22T21:36:14.842-04:00", "avatar": "https://avatars.slack-edge.com/2025-07-22/9237089808882_03bfa2f5ad9642a22d15_original.png", "custom_css": null}, {"id": 18099, "slack_id": "U097C744URX", "display_name": "ivy", "bio": null, "projects_count": 0, "devlogs_count": 0, "votes_count": 0, "ships_count": 0, "projects": [], "coding_time_seconds": 0, "coding_time_seconds_today": 0, "balance": "You need to have a pocket watcher badge to view this.", "badges": [], "created_at": "2025-07-22T12:53:11.567-04:00", "updated_at": "2025-07-22T21:36:14.929-04:00", "avatar": "https://secure.gravatar.com/avatar/9eba9b381343b6e8273dafc2d6c2ea0e.jpg?s=512&d=https%3A%2F%2Fa.slack-edge.com%2Fdf10d%2Fimg%2Favatars%2Fava_0019-512.png", "custom_css": null}, {"id": 18100, "slack_id": "U09707V3MT6", "display_name": "Karli", "bio": null, "projects_count": 0, "devlogs_count": 0, "votes_count": 0, "ships_count": 0, "projects": [], "coding_time_seconds": 0, "coding_time_seconds_today": 0, "balance": "You need to have a pocket watcher badge to view this.", "badges": [], "created_at": "2025-07-22T12:53:51.623-04:00", "updated_at": "2025-07-22T21:36:15.014-04:00", "avatar": "https://avatars.slack-edge.com/2025-07-22/9250459262657_5436099100eda57a0878_original.png", "custom_css": null}, {"id": 18101, "slack_id": "U096TMUD6R1", "display_name": "tsering", "bio": null, "projects_count": 0, "devlogs_count": 0, "votes_count": 0, "ships_count": 0, "projects": [], "coding_time_seconds": 0, "coding_time_seconds_today": 0, "balance": "You need to have a pocket watcher badge to view this.", "badges": [], "created_at": "2025-07-22T12:54:53.833-04:00", "updated_at": "2025-07-23T00:09:10.752-04:00", "avatar": "https://secure.gravatar.com/avatar/574bf3047a0369ef3def6ecdaea7442c.jpg?s=512&d=https%3A%2F%2Fa.slack-edge.com%2Fdf10d%2Fimg%2Favatars%2Fava_0003-512.png", "custom_css": null}, {"id": 18102, "slack_id": "U097MARJ1EC", "display_name": "Syan", "bio": null, "projects_count": 0, "devlogs_count": 0, "votes_count": 0, "ships_count": 0, "projects": [], "coding_time_seconds": 0, "coding_time_seconds_today": 0, "balance": "You need to have a pocket watcher badge to view this.", "badges": [], "created_at": "2025-07-22T12:56:05.400-04:00", "updated_at": "2025-07-22T21:36:15.177-04:00", "avatar": "https://secure.gravatar.com/avatar/3b94631b4346d3308f2bd5a5b5f4268a.jpg?s=512&d=https%3A%2F%2Fa.slack-edge.com%2Fdf10d%2Fimg%2Favatars%2Fava_0021-512.png", "custom_css": null}, {"id": 18103, "slack_id": "U096TN2DZEX", "display_name": "lukasino1214", "bio": null, "projects_count": 0, "devlogs_count": 0, "votes_count": 0, "ships_count": 0, "projects": [], "coding_time_seconds": 318718, "coding_time_seconds_today": 0, "balance": "You need to have a pocket watcher badge to view this.", "badges": [], "created_at": "2025-07-22T12:56:20.361-04:00", "updated_at": "2025-07-22T21:36:15.255-04:00", "avatar": "https://secure.gravatar.com/avatar/4bba45b22e2f0bd56777812ded91e946.jpg?s=512&d=https%3A%2F%2Fa.slack-edge.com%2Fdf10d%2Fimg%2Favatars%2Fava_0010-512.png", "custom_css": null}, {"id": 18104, "slack_id": "U097MB5CYEL", "display_name": "Dara", "bio": null, "projects_count": 0, "devlogs_count": 0, "votes_count": 0, "ships_count": 0, "projects": [], "coding_time_seconds": 0, "coding_time_seconds_today": 0, "balance": "You need to have a pocket watcher badge to view this.", "badges": [], "created_at": "2025-07-22T12:57:34.559-04:00", "updated_at": "2025-07-22T21:36:15.337-04:00", "avatar": "https://secure.gravatar.com/avatar/694f918e6bf77de6ac921383e6686539.jpg?s=512&d=https%3A%2F%2Fa.slack-edge.com%2Fdf10d%2Fimg%2Favatars%2Fava_0018-512.png", "custom_css": null}, {"id": 18105, "slack_id": "U07E96YST6D", "display_name": "RedCrafter07", "bio": null, "projects_count": 1, "devlogs_count": 6, "votes_count": 9, "ships_count": 1, "projects": [{"id": 8560, "title": "RedNotes Plus", "devlogs_count": 6, "created_at": "2025-07-28T06:46:11.337-04:00"}], "coding_time_seconds": 209544, "coding_time_seconds_today": 0, "balance": "You need to have a pocket watcher badge to view this.", "badges": [{"name": "Maiden Voyage", "text": "you shipped your first project! the journey begins...", "icon": "\ud83d\udea2"}], "created_at": "2025-07-22T12:57:39.359-04:00", "updated_at": "2025-09-16T05:41:11.251-04:00", "avatar": "https://avatars.slack-edge.com/2024-12-06/8151221668145_f345e19f241ad18300d1_original.jpg", "custom_css": null}], "pagination": {"page": 901, "pages": 1192, "count": 23828, "items": 20}}