{"users": [{"id": 18106, "slack_id": "U097MC7APUY", "display_name": "\u0645\u062d\u0645\u062f \u0631\u0628\u064a\u0639 \u0645\u062d\u0645\u062f", "bio": null, "projects_count": 0, "devlogs_count": 0, "votes_count": 0, "ships_count": 0, "projects": [], "coding_time_seconds": 0, "coding_time_seconds_today": 0, "balance": "You need to have a pocket watcher badge to view this.", "badges": [], "created_at": "2025-07-22T13:03:31.063-04:00", "updated_at": "2025-07-22T21:36:15.480-04:00", "avatar": "https://avatars.slack-edge.com/2025-07-22/9222248025111_ca734738b7895334921b_original.jpg", "custom_css": null}, {"id": 18107, "slack_id": "U096YVBCXPC", "display_name": "Madara", "bio": null, "projects_count": 0, "devlogs_count": 0, "votes_count": 0, "ships_count": 0, "projects": [], "coding_time_seconds": 0, "coding_time_seconds_today": 0, "balance": "You need to have a pocket watcher badge to view this.", "badges": [], "created_at": "2025-07-22T13:04:41.554-04:00", "updated_at": "2025-07-22T21:36:15.555-04:00", "avatar": "https://secure.gravatar.com/avatar/599d74625cd5e56b83a79a9f58ef223b.jpg?s=512&d=https%3A%2F%2Fa.slack-edge.com%2Fdf10d%2Fimg%2Favatars%2Fava_0018-512.png", "custom_css": null}, {"id": 18108, "slack_id": "U08UW3E6MV1", "display_name": "James", "bio": null, "projects_count": 0, "devlogs_count": 0, "votes_count": 0, "ships_count": 0, "projects": [], "coding_time_seconds": 0, "coding_time_seconds_today": 0, "balance": "You need to have a pocket watcher badge to view this.", "badges": [], "created_at": "2025-07-22T13:05:34.584-04:00", "updated_at": "2025-07-23T20:19:15.544-04:00", "avatar": "https://avatars.slack-edge.com/2025-06-03/8994400525300_9191b28ed7969ad98a63_original.jpg", "custom_css": null}, {"id": 18109, "slack_id": "U096X48URTP", "display_name": "Anuj Kumar", "bio": null, "projects_count": 0, "devlogs_count": 0, "votes_count": 0, "ships_count": 0, "projects": [], "coding_time_seconds": 0, "coding_time_seconds_today": 0, "balance": "You need to have a pocket watcher badge to view this.", "badges": [], "created_at": "2025-07-22T13:05:34.765-04:00", "updated_at": "2025-07-23T20:19:17.046-04:00", "avatar": "https://avatars.slack-edge.com/2025-07-22/9237171508354_b8ff4c467e7eb9ee76cf_original.png", "custom_css": null}, {"id": 18110, "slack_id": "U096Z4WQ21G", "display_name": "Stephen", "bio": null, "projects_count": 0, "devlogs_count": 0, "votes_count": 0, "ships_count": 0, "projects": [], "coding_time_seconds": 0, "coding_time_seconds_today": 0, "balance": "You need to have a pocket watcher badge to view this.", "badges": [], "created_at": "2025-07-22T13:08:05.566-04:00", "updated_at": "2025-07-22T21:36:15.804-04:00", "avatar": "https://secure.gravatar.com/avatar/52e6471b3ac5ffcd992f02de56a0be40.jpg?s=512&d=https%3A%2F%2Fa.slack-edge.com%2Fdf10d%2Fimg%2Favatars%2Fava_0004-512.png", "custom_css": null}, {"id": 18111, "slack_id": "U0970ALUR7E", "display_name": "Tharanetharan S", "bio": null, "projects_count": 0, "devlogs_count": 0, "votes_count": 0, "ships_count": 0, "projects": [], "coding_time_seconds": 360, "coding_time_seconds_today": 0, "balance": "You need to have a pocket watcher badge to view this.", "badges": [], "created_at": "2025-07-22T13:08:08.213-04:00", "updated_at": "2025-07-22T21:36:15.911-04:00", "avatar": "https://secure.gravatar.com/avatar/2674fcf3ccf666ae31169ae02240769c.jpg?s=512&d=https%3A%2F%2Fa.slack-edge.com%2Fdf10d%2Fimg%2Favatars%2Fava_0014-512.png", "custom_css": null}, {"id": 18112, "slack_id": "U097CAC7WFK", "display_name": "Rishav", "bio": null, "projects_count": 0, "devlogs_count": 0, "votes_count": 0, "ships_count": 0, "projects": [], "coding_time_seconds": 127, "coding_time_seconds_today": 0, "balance": "You need to have a pocket watcher badge to view this.", "badges": [], "created_at": "2025-07-22T13:09:39.446-04:00", "updated_at": "2025-07-22T21:36:16.017-04:00", "avatar": "https://secure.gravatar.com/avatar/c4847fc77f24cfcdfe2d3cdb870256d8.jpg?s=512&d=https%3A%2F%2Fa.slack-edge.com%2Fdf10d%2Fimg%2Favatars%2Fava_0014-512.png", "custom_css": null}, {"id": 18113, "slack_id": "U096W3SF3K8", "display_name": "Chang Zeyu", "bio": null, "projects_count": 0, "devlogs_count": 0, "votes_count": 0, "ships_count": 0, "projects": [], "coding_time_seconds": 0, "coding_time_seconds_today": 0, "balance": "You need to have a pocket watcher badge to view this.", "badges": [], "created_at": "2025-07-22T13:10:01.675-04:00", "updated_at": "2025-07-25T02:57:27.954-04:00", "avatar": "https://secure.gravatar.com/avatar/2a2e1598b709ae1af5691a6da64d366d.jpg?s=512&d=https%3A%2F%2Fa.slack-edge.com%2Fdf10d%2Fimg%2Favatars%2Fava_0006-512.png", "custom_css": null}, {"id": 18114, "slack_id": "U096TQYK4N7", "display_name": "Gautam", "bio": null, "projects_count": 0, "devlogs_count": 0, "votes_count": 0, "ships_count": 0, "projects": [], "coding_time_seconds": 0, "coding_time_seconds_today": 0, "balance": "You need to have a pocket watcher badge to view this.", "badges": [], "created_at": "2025-07-22T13:11:07.012-04:00", "updated_at": "2025-07-22T21:36:20.231-04:00", "avatar": "https://secure.gravatar.com/avatar/130e659e4f951193388e15a4aecdab56.jpg?s=512&d=https%3A%2F%2Fa.slack-edge.com%2Fdf10d%2Fimg%2Favatars%2Fava_0001-512.png", "custom_css": null}, {"id": 18115, "slack_id": "U0970B7FEQ4", "display_name": "Ashwin Ranjan", "bio": null, "projects_count": 0, "devlogs_count": 0, "votes_count": 0, "ships_count": 0, "projects": [], "coding_time_seconds": 0, "coding_time_seconds_today": 0, "balance": "You need to have a pocket watcher badge to view this.", "badges": [], "created_at": "2025-07-22T13:11:16.880-04:00", "updated_at": "2025-07-22T21:36:20.308-04:00", "avatar": "https://secure.gravatar.com/avatar/e60ee57ed8ccc355cd043c903318b5ed.jpg?s=512&d=https%3A%2F%2Fa.slack-edge.com%2Fdf10d%2Fimg%2Favatars%2Fava_0021-512.png", "custom_css": null}, {"id": 18116, "slack_id": "U0970B50EMA", "display_name": "Yash Singh", "bio": null, "projects_count": 0, "devlogs_count": 0, "votes_count": 0, "ships_count": 0, "projects": [], "coding_time_seconds": 0, "coding_time_seconds_today": 0, "balance": "You need to have a pocket watcher badge to view this.", "badges": [], "created_at": "2025-07-22T13:11:19.493-04:00", "updated_at": "2025-07-22T21:36:20.402-04:00", "avatar": "https://secure.gravatar.com/avatar/9de62cec713afad26abdae844b6f610e.jpg?s=512&d=https%3A%2F%2Fa.slack-edge.com%2Fdf10d%2Fimg%2Favatars%2Fava_0009-512.png", "custom_css": null}, {"id": 18117, "slack_id": "U096TR2398T", "display_name": "ambika", "bio": null, "projects_count": 0, "devlogs_count": 0, "votes_count": 0, "ships_count": 0, "projects": [], "coding_time_seconds": 0, "coding_time_seconds_today": 0, "balance": "You need to have a pocket watcher badge to view this.", "badges": [], "created_at": "2025-07-22T13:12:25.282-04:00", "updated_at": "2025-07-22T21:36:20.482-04:00", "avatar": "https://secure.gravatar.com/avatar/f42892b040e38c9218bf3b3250ff74c8.jpg?s=512&d=https%3A%2F%2Fa.slack-edge.com%2Fdf10d%2Fimg%2Favatars%2Fava_0005-512.png", "custom_css": null}, {"id": 18118, "slack_id": "U096W02B1ML", "display_name": "Skai Sloan", "bio": null, "projects_count": 0, "devlogs_count": 8, "votes_count": 7, "ships_count": 0, "projects": [], "coding_time_seconds": 97330, "coding_time_seconds_today": 0, "balance": "You need to have a pocket watcher badge to view this.", "badges": [], "created_at": "2025-07-22T13:12:29.898-04:00", "updated_at": "2025-08-15T16:29:28.085-04:00", "avatar": "https://secure.gravatar.com/avatar/711d2526d8b4a419bd82523aca2ac698.jpg?s=512&d=https%3A%2F%2Fa.slack-edge.com%2Fdf10d%2Fimg%2Favatars%2Fava_0002-512.png", "custom_css": null}, {"id": 18119, "slack_id": "U097MDZJCP2", "display_name": "ankitKnight", "bio": null, "projects_count": 0, "devlogs_count": 0, "votes_count": 0, "ships_count": 0, "projects": [], "coding_time_seconds": 0, "coding_time_seconds_today": 0, "balance": "You need to have a pocket watcher badge to view this.", "badges": [], "created_at": "2025-07-22T13:12:38.795-04:00", "updated_at": "2025-07-22T21:36:20.654-04:00", "avatar": "https://secure.gravatar.com/avatar/a3cbb02fdcc505d1c924e94c2cf1c2df.jpg?s=512&d=https%3A%2F%2Fa.slack-edge.com%2Fdf10d%2Fimg%2Favatars%2Fava_0004-512.png", "custom_css": null}, {"id": 18120, "slack_id": "U096TR8DCG3", "display_name": "shiv", "bio": null, "projects_count": 0, "devlogs_count": 0, "votes_count": 0, "ships_count": 0, "projects": [], "coding_time_seconds": 0, "coding_time_seconds_today": 0, "balance": "You need to have a pocket watcher badge to view this.", "badges": [], "created_at": "2025-07-22T13:13:08.970-04:00", "updated_at": "2025-07-23T03:22:01.926-04:00", "avatar": "https://secure.gravatar.com/avatar/715741814df1b7ccafdcf0d31f7c2308.jpg?s=512&d=https%3A%2F%2Fa.slack-edge.com%2Fdf10d%2Fimg%2Favatars%2Fava_0002-512.png", "custom_css": null}, {"id": 18121, "slack_id": "U097ME9FMNU", "display_name": "Mohamed Boolean", "bio": null, "projects_count": 3, "devlogs_count": 3, "votes_count": 40, "ships_count": 3, "projects": [{"id": 11507, "title": "ArE YOu a RoBoT ? (Web Game)", "devlogs_count": 1, "created_at": "2025-08-16T13:30:24.405-04:00"}, {"id": 12859, "title": "A_Square", "devlogs_count": 1, "created_at": "2025-09-03T19:36:35.267-04:00"}, {"id": 10674, "title": "Quran", "devlogs_count": 1, "created_at": "2025-08-09T14:02:22.468-04:00"}], "coding_time_seconds": 77987, "coding_time_seconds_today": 0, "balance": "You need to have a pocket watcher badge to view this.", "badges": [], "created_at": "2025-07-22T13:13:50.555-04:00", "updated_at": "2025-08-09T13:50:50.601-04:00", "avatar": "https://avatars.slack-edge.com/2025-07-22/9222304004855_1b09519e9ced93c4078a_original.png", "custom_css": null}, {"id": 18122, "slack_id": "U096X76LAUV", "display_name": "mudit", "bio": null, "projects_count": 0, "devlogs_count": 0, "votes_count": 0, "ships_count": 0, "projects": [], "coding_time_seconds": 0, "coding_time_seconds_today": 0, "balance": "You need to have a pocket watcher badge to view this.", "badges": [], "created_at": "2025-07-22T13:14:28.569-04:00", "updated_at": "2025-07-22T21:36:20.983-04:00", "avatar": "https://secure.gravatar.com/avatar/cff9310556e8ffbf399e34b0c688301b.jpg?s=512&d=https%3A%2F%2Fa.slack-edge.com%2Fdf10d%2Fimg%2Favatars%2Fava_0024-512.png", "custom_css": null}, {"id": 18123, "slack_id": "U096TRAC5M1", "display_name": "Pujitha", "bio": null, "projects_count": 0, "devlogs_count": 0, "votes_count": 0, "ships_count": 0, "projects": [], "coding_time_seconds": 0, "coding_time_seconds_today": 0, "balance": "You need to have a pocket watcher badge to view this.", "badges": [], "created_at": "2025-07-22T13:14:41.073-04:00", "updated_at": "2025-07-22T21:36:21.072-04:00", "avatar": "https://secure.gravatar.com/avatar/9f3bf262408ee720459b588f429800f9.jpg?s=512&d=https%3A%2F%2Fa.slack-edge.com%2Fdf10d%2Fimg%2Favatars%2Fava_0021-512.png", "custom_css": null}, {"id": 18124, "slack_id": "U096J8V3ANT", "display_name": "Branko Arnaudovski", "bio": null, "projects_count": 0, "devlogs_count": 0, "votes_count": 0, "ships_count": 0, "projects": [], "coding_time_seconds": 0, "coding_time_seconds_today": 0, "balance": "You need to have a pocket watcher badge to view this.", "badges": [], "created_at": "2025-07-22T13:15:50.873-04:00", "updated_at": "2025-07-22T21:36:21.162-04:00", "avatar": "https://secure.gravatar.com/avatar/812c29ac26957caa978dee5701456a53.jpg?s=512&d=https%3A%2F%2Fa.slack-edge.com%2Fdf10d%2Fimg%2Favatars%2Fava_0023-512.png", "custom_css": null}, {"id": 18125, "slack_id": "U0820KWU5U5", "display_name": "Cleon", "bio": null, "projects_count": 0, "devlogs_count": 0, "votes_count": 0, "ships_count": 0, "projects": [], "coding_time_seconds": 0, "coding_time_seconds_today": 0, "balance": "You need to have a pocket watcher badge to view this.", "badges": [], "created_at": "2025-07-22T13:16:05.370-04:00", "updated_at": "2025-08-06T18:28:00.700-04:00", "avatar": "https://secure.gravatar.com/avatar/b97cf002b99a5df0f0c52d3be690cbe2.jpg?s=512&d=https%3A%2F%2Fa.slack-edge.com%2Fdf10d%2Fimg%2Favatars%2Fava_0024-512.png", "custom_css": null}], "pagination": {"page": 902, "pages": 1192, "count": 23828, "items": 20}}