{"users": [{"id": 18126, "slack_id": "U096J8R5C9M", "display_name": "Amaya", "bio": null, "projects_count": 0, "devlogs_count": 0, "votes_count": 0, "ships_count": 0, "projects": [], "coding_time_seconds": 27591, "coding_time_seconds_today": 0, "balance": "You need to have a pocket watcher badge to view this.", "badges": [], "created_at": "2025-07-22T13:16:35.285-04:00", "updated_at": "2025-07-22T21:36:21.335-04:00", "avatar": "https://secure.gravatar.com/avatar/67ea9833169b6e886cab2643b2109c1f.jpg?s=512&d=https%3A%2F%2Fa.slack-edge.com%2Fdf10d%2Fimg%2Favatars%2Fava_0023-512.png", "custom_css": null}, {"id": 18127, "slack_id": "U097C91HJKB", "display_name": "Sanchit", "bio": null, "projects_count": 0, "devlogs_count": 0, "votes_count": 0, "ships_count": 0, "projects": [], "coding_time_seconds": 0, "coding_time_seconds_today": 0, "balance": "You need to have a pocket watcher badge to view this.", "badges": [], "created_at": "2025-07-22T13:17:35.771-04:00", "updated_at": "2025-07-22T21:36:21.416-04:00", "avatar": "https://secure.gravatar.com/avatar/88404a90145679aa95e997a5e4edbf31.jpg?s=512&d=https%3A%2F%2Fa.slack-edge.com%2Fdf10d%2Fimg%2Favatars%2Fava_0011-512.png", "custom_css": null}, {"id": 18128, "slack_id": "U0976GXHJV7", "display_name": "kaylee", "bio": null, "projects_count": 0, "devlogs_count": 0, "votes_count": 0, "ships_count": 0, "projects": [], "coding_time_seconds": 0, "coding_time_seconds_today": 0, "balance": "You need to have a pocket watcher badge to view this.", "badges": [], "created_at": "2025-07-22T13:18:00.614-04:00", "updated_at": "2025-07-22T21:36:25.533-04:00", "avatar": "https://secure.gravatar.com/avatar/e9116ca2a0724c12b65f04bd6842daf3.jpg?s=512&d=https%3A%2F%2Fa.slack-edge.com%2Fdf10d%2Fimg%2Favatars%2Fava_0023-512.png", "custom_css": null}, {"id": 18129, "slack_id": "U0970201YMA", "display_name": "Wojtek", "bio": null, "projects_count": 3, "devlogs_count": 2, "votes_count": 6, "ships_count": 0, "projects": [{"id": 7721, "title": "Unneh Engine", "devlogs_count": 1, "created_at": "2025-07-22T17:37:57.452-04:00"}, {"id": 7728, "title": "ReactorTech", "devlogs_count": 1, "created_at": "2025-07-22T18:01:27.807-04:00"}, {"id": 8087, "title": "Webii", "devlogs_count": 0, "created_at": "2025-07-24T13:40:34.475-04:00"}], "coding_time_seconds": 319703, "coding_time_seconds_today": 0, "balance": "You need to have a pocket watcher badge to view this.", "badges": [], "created_at": "2025-07-22T13:18:21.130-04:00", "updated_at": "2025-08-26T17:03:44.230-04:00", "avatar": "https://avatars.slack-edge.com/2025-07-23/9254890530433_cdc41868df9cc37221fb_original.png", "custom_css": null}, {"id": 18130, "slack_id": "U096TS3MDLK", "display_name": "Akansha Negi", "bio": null, "projects_count": 0, "devlogs_count": 0, "votes_count": 0, "ships_count": 0, "projects": [], "coding_time_seconds": 0, "coding_time_seconds_today": 0, "balance": "You need to have a pocket watcher badge to view this.", "badges": [], "created_at": "2025-07-22T13:18:24.352-04:00", "updated_at": "2025-07-22T21:36:25.694-04:00", "avatar": "https://secure.gravatar.com/avatar/feaceb976658cb58d13e7885d156e5cf.jpg?s=512&d=https%3A%2F%2Fa.slack-edge.com%2Fdf10d%2Fimg%2Favatars%2Fava_0022-512.png", "custom_css": null}, {"id": 18131, "slack_id": "U096Z6QEYAE", "display_name": "chi", "bio": "too many project ideas, so little time...", "projects_count": 0, "devlogs_count": 0, "votes_count": 0, "ships_count": 0, "projects": [], "coding_time_seconds": 846, "coding_time_seconds_today": 0, "balance": "You need to have a pocket watcher badge to view this.", "badges": [], "created_at": "2025-07-22T13:19:29.405-04:00", "updated_at": "2025-07-22T21:36:25.781-04:00", "avatar": "https://avatars.slack-edge.com/2025-07-22/9222430939479_8ecda433ceed9e229290_original.png", "custom_css": null}, {"id": 18132, "slack_id": "U0970CJB4S0", "display_name": "Semanu", "bio": null, "projects_count": 0, "devlogs_count": 0, "votes_count": 0, "ships_count": 0, "projects": [], "coding_time_seconds": 20414, "coding_time_seconds_today": 0, "balance": "You need to have a pocket watcher badge to view this.", "badges": [], "created_at": "2025-07-22T13:20:16.385-04:00", "updated_at": "2025-07-22T21:36:25.871-04:00", "avatar": "https://secure.gravatar.com/avatar/189a6dd78e2b2264404ff9467ffed86d.jpg?s=512&d=https%3A%2F%2Fa.slack-edge.com%2Fdf10d%2Fimg%2Favatars%2Fava_0020-512.png", "custom_css": null}, {"id": 18133, "slack_id": "U096W60BB0E", "display_name": "sudarshan", "bio": null, "projects_count": 0, "devlogs_count": 0, "votes_count": 0, "ships_count": 0, "projects": [], "coding_time_seconds": 0, "coding_time_seconds_today": 0, "balance": "You need to have a pocket watcher badge to view this.", "badges": [], "created_at": "2025-07-22T13:20:27.407-04:00", "updated_at": "2025-07-22T21:36:25.953-04:00", "avatar": "https://secure.gravatar.com/avatar/411eb5a811fa7758290d2ef7df466f42.jpg?s=512&d=https%3A%2F%2Fa.slack-edge.com%2Fdf10d%2Fimg%2Favatars%2Fava_0021-512.png", "custom_css": null}, {"id": 18134, "slack_id": "U096X90C6SH", "display_name": "Aditya Rastogi", "bio": null, "projects_count": 0, "devlogs_count": 0, "votes_count": 0, "ships_count": 0, "projects": [], "coding_time_seconds": 0, "coding_time_seconds_today": 0, "balance": "You need to have a pocket watcher badge to view this.", "badges": [], "created_at": "2025-07-22T13:27:17.360-04:00", "updated_at": "2025-07-22T21:36:26.039-04:00", "avatar": "https://avatars.slack-edge.com/2025-07-22/9235333057653_db7408d26469ed96a467_original.jpg", "custom_css": null}, {"id": 18135, "slack_id": "U097CC47Y3T", "display_name": "Jax", "bio": null, "projects_count": 0, "devlogs_count": 0, "votes_count": 0, "ships_count": 0, "projects": [], "coding_time_seconds": 0, "coding_time_seconds_today": 0, "balance": "You need to have a pocket watcher badge to view this.", "badges": [], "created_at": "2025-07-22T13:27:29.555-04:00", "updated_at": "2025-07-22T21:36:26.133-04:00", "avatar": "https://secure.gravatar.com/avatar/395e5842ad1adda49d977803d8008f61.jpg?s=512&d=https%3A%2F%2Fa.slack-edge.com%2Fdf10d%2Fimg%2Favatars%2Fava_0021-512.png", "custom_css": null}, {"id": 18136, "slack_id": "U096TU6SSP5", "display_name": "Pawl", "bio": null, "projects_count": 0, "devlogs_count": 0, "votes_count": 0, "ships_count": 0, "projects": [], "coding_time_seconds": 0, "coding_time_seconds_today": 0, "balance": "You need to have a pocket watcher badge to view this.", "badges": [], "created_at": "2025-07-22T13:31:35.616-04:00", "updated_at": "2025-07-22T21:36:26.218-04:00", "avatar": "https://secure.gravatar.com/avatar/c5edf55ded06e7a7cd4e18b901fb440b.jpg?s=512&d=https%3A%2F%2Fa.slack-edge.com%2Fdf10d%2Fimg%2Favatars%2Fava_0023-512.png", "custom_css": null}, {"id": 18137, "slack_id": "U096XAKMRFF", "display_name": "Totodon1212", "bio": null, "projects_count": 0, "devlogs_count": 0, "votes_count": 0, "ships_count": 0, "projects": [], "coding_time_seconds": 0, "coding_time_seconds_today": 0, "balance": "You need to have a pocket watcher badge to view this.", "badges": [], "created_at": "2025-07-22T13:33:38.259-04:00", "updated_at": "2025-07-22T21:36:26.304-04:00", "avatar": "https://secure.gravatar.com/avatar/5508040037be0195c7fa9994a3eddccd.jpg?s=512&d=https%3A%2F%2Fa.slack-edge.com%2Fdf10d%2Fimg%2Favatars%2Fava_0022-512.png", "custom_css": null}, {"id": 18138, "slack_id": "U097CEZEGSV", "display_name": "Saket Singh", "bio": null, "projects_count": 0, "devlogs_count": 0, "votes_count": 0, "ships_count": 0, "projects": [], "coding_time_seconds": 17905, "coding_time_seconds_today": 0, "balance": "You need to have a pocket watcher badge to view this.", "badges": [], "created_at": "2025-07-22T13:36:52.851-04:00", "updated_at": "2025-07-22T21:36:26.387-04:00", "avatar": "https://secure.gravatar.com/avatar/0876a87f30e08dcb2f8b8a3b3c9a50d2.jpg?s=512&d=https%3A%2F%2Fa.slack-edge.com%2Fdf10d%2Fimg%2Favatars%2Fava_0001-512.png", "custom_css": null}, {"id": 18139, "slack_id": "U096T7E76LA", "display_name": "Ning", "bio": null, "projects_count": 0, "devlogs_count": 0, "votes_count": 0, "ships_count": 0, "projects": [], "coding_time_seconds": 0, "coding_time_seconds_today": 0, "balance": "You need to have a pocket watcher badge to view this.", "badges": [], "created_at": "2025-07-22T13:36:59.393-04:00", "updated_at": "2025-07-22T21:36:26.469-04:00", "avatar": "https://secure.gravatar.com/avatar/2664ad331902fd222f96a410291f883e.jpg?s=512&d=https%3A%2F%2Fa.slack-edge.com%2Fdf10d%2Fimg%2Favatars%2Fava_0016-512.png", "custom_css": null}, {"id": 18140, "slack_id": "U0976F9RJNM", "display_name": "Halas Wolff", "bio": null, "projects_count": 0, "devlogs_count": 0, "votes_count": 0, "ships_count": 0, "projects": [], "coding_time_seconds": 0, "coding_time_seconds_today": 0, "balance": "You need to have a pocket watcher badge to view this.", "badges": [], "created_at": "2025-07-22T13:37:04.529-04:00", "updated_at": "2025-07-22T21:36:26.549-04:00", "avatar": "https://avatars.slack-edge.com/2025-07-22/9235394617077_c512d7678ad18fc8576c_original.png", "custom_css": null}, {"id": 18141, "slack_id": "U07VC809C6S", "display_name": "Jossaya", "bio": null, "projects_count": 0, "devlogs_count": 0, "votes_count": 0, "ships_count": 0, "projects": [], "coding_time_seconds": 265794, "coding_time_seconds_today": 0, "balance": "You need to have a pocket watcher badge to view this.", "badges": [], "created_at": "2025-07-22T13:38:34.572-04:00", "updated_at": "2025-07-22T14:10:36.276-04:00", "avatar": "https://secure.gravatar.com/avatar/b9a05330d125be644c9138db3487c037.jpg?s=512&d=https%3A%2F%2Fa.slack-edge.com%2Fdf10d%2Fimg%2Favatars%2Fava_0008-512.png", "custom_css": null}, {"id": 18142, "slack_id": "U0970GBCBHA", "display_name": "Paras", "bio": null, "projects_count": 0, "devlogs_count": 0, "votes_count": 0, "ships_count": 0, "projects": [], "coding_time_seconds": 2497, "coding_time_seconds_today": 0, "balance": "You need to have a pocket watcher badge to view this.", "badges": [], "created_at": "2025-07-22T13:42:43.559-04:00", "updated_at": "2025-07-22T21:36:26.694-04:00", "avatar": "https://secure.gravatar.com/avatar/1e0a95060b0a7f0acd115be07bbae7aa.jpg?s=512&d=https%3A%2F%2Fa.slack-edge.com%2Fdf10d%2Fimg%2Favatars%2Fava_0008-512.png", "custom_css": null}, {"id": 18143, "slack_id": "U07AEE40CLU", "display_name": "Ariadni Dalia", "bio": null, "projects_count": 0, "devlogs_count": 0, "votes_count": 0, "ships_count": 0, "projects": [], "coding_time_seconds": 0, "coding_time_seconds_today": 0, "balance": "You need to have a pocket watcher badge to view this.", "badges": [], "created_at": "2025-07-22T13:42:52.843-04:00", "updated_at": "2025-07-22T13:58:59.442-04:00", "avatar": "https://avatars.slack-edge.com/2024-06-29/7352011652402_f480c3cb1b51c67e2ef6_original.png", "custom_css": null}, {"id": 18144, "slack_id": "U096WA00KEJ", "display_name": "Sawan Badhwar", "bio": null, "projects_count": 0, "devlogs_count": 0, "votes_count": 0, "ships_count": 0, "projects": [], "coding_time_seconds": 0, "coding_time_seconds_today": 0, "balance": "You need to have a pocket watcher badge to view this.", "badges": [], "created_at": "2025-07-22T13:44:08.562-04:00", "updated_at": "2025-07-22T21:36:26.852-04:00", "avatar": "https://avatars.slack-edge.com/2025-07-22/9235434239829_34ea00d579becf43b90b_original.jpg", "custom_css": null}, {"id": 18145, "slack_id": "U096XBS8VT7", "display_name": "nitesh", "bio": null, "projects_count": 0, "devlogs_count": 0, "votes_count": 0, "ships_count": 0, "projects": [], "coding_time_seconds": 0, "coding_time_seconds_today": 0, "balance": "You need to have a pocket watcher badge to view this.", "badges": [], "created_at": "2025-07-22T13:44:25.028-04:00", "updated_at": "2025-07-22T21:36:26.930-04:00", "avatar": "https://secure.gravatar.com/avatar/3697c0f6e67b580d1e357f4cff1a933c.jpg?s=512&d=https%3A%2F%2Fa.slack-edge.com%2Fdf10d%2Fimg%2Favatars%2Fava_0011-512.png", "custom_css": null}], "pagination": {"page": 903, "pages": 1192, "count": 23828, "items": 20}}