{"users": [{"id": 18166, "slack_id": "U096WCA36EA", "display_name": "KalaiSelviMariyappan", "bio": null, "projects_count": 0, "devlogs_count": 0, "votes_count": 0, "ships_count": 0, "projects": [], "coding_time_seconds": 0, "coding_time_seconds_today": 0, "balance": "You need to have a pocket watcher badge to view this.", "badges": [], "created_at": "2025-07-22T14:07:41.501-04:00", "updated_at": "2025-07-22T21:36:32.795-04:00", "avatar": "https://secure.gravatar.com/avatar/c74f3b5bde7680bd359aa55186a90c24.jpg?s=512&d=https%3A%2F%2Fa.slack-edge.com%2Fdf10d%2Fimg%2Favatars%2Fava_0000-512.png", "custom_css": null}, {"id": 18167, "slack_id": "U097CLBP0GZ", "display_name": "Prasoon Rai", "bio": null, "projects_count": 1, "devlogs_count": 1, "votes_count": 0, "ships_count": 1, "projects": [{"id": 7703, "title": "Snake Game", "devlogs_count": 1, "created_at": "2025-07-22T16:01:47.437-04:00"}], "coding_time_seconds": 278643, "coding_time_seconds_today": 240, "balance": "You need to have a pocket watcher badge to view this.", "badges": [], "created_at": "2025-07-22T14:08:04.775-04:00", "updated_at": "2025-08-20T22:43:36.446-04:00", "avatar": "https://avatars.slack-edge.com/2025-07-22/9238714945092_dfd8f894f487052d1288_original.jpg", "custom_css": null}, {"id": 18168, "slack_id": "U096XH5AX7F", "display_name": "Jamie McLaren", "bio": null, "projects_count": 1, "devlogs_count": 0, "votes_count": 0, "ships_count": 0, "projects": [{"id": 7700, "title": "NXA Password manager", "devlogs_count": 0, "created_at": "2025-07-22T15:44:38.095-04:00"}], "coding_time_seconds": 11120, "coding_time_seconds_today": 0, "balance": "You need to have a pocket watcher badge to view this.", "badges": [], "created_at": "2025-07-22T14:11:15.207-04:00", "updated_at": "2025-07-22T15:21:38.268-04:00", "avatar": "https://secure.gravatar.com/avatar/6e892e3bace0ad0d6ca281a691ce9a87.jpg?s=512&d=https%3A%2F%2Fa.slack-edge.com%2Fdf10d%2Fimg%2Favatars%2Fava_0003-512.png", "custom_css": null}, {"id": 18169, "slack_id": "U0970M1CJJ0", "display_name": "Jonathan", "bio": null, "projects_count": 0, "devlogs_count": 0, "votes_count": 0, "ships_count": 0, "projects": [], "coding_time_seconds": 0, "coding_time_seconds_today": 0, "balance": "You need to have a pocket watcher badge to view this.", "badges": [], "created_at": "2025-07-22T14:11:33.877-04:00", "updated_at": "2025-07-22T21:36:33.035-04:00", "avatar": "https://secure.gravatar.com/avatar/ccc1a8e1a5f2ac7fafd4f6f2d52bb308.jpg?s=512&d=https%3A%2F%2Fa.slack-edge.com%2Fdf10d%2Fimg%2Favatars%2Fava_0012-512.png", "custom_css": null}, {"id": 18170, "slack_id": "U096XH8F6S1", "display_name": "Matheus dos Anjos", "bio": null, "projects_count": 0, "devlogs_count": 0, "votes_count": 0, "ships_count": 0, "projects": [], "coding_time_seconds": 0, "coding_time_seconds_today": 0, "balance": "You need to have a pocket watcher badge to view this.", "badges": [], "created_at": "2025-07-22T14:13:32.871-04:00", "updated_at": "2025-07-22T21:36:33.114-04:00", "avatar": "https://secure.gravatar.com/avatar/505e5ff6184af1972057a8caf6fd976b.jpg?s=512&d=https%3A%2F%2Fa.slack-edge.com%2Fdf10d%2Fimg%2Favatars%2Fava_0024-512.png", "custom_css": null}, {"id": 18171, "slack_id": "U097CLV67CZ", "display_name": "Arpan Kumar De", "bio": null, "projects_count": 0, "devlogs_count": 0, "votes_count": 0, "ships_count": 0, "projects": [], "coding_time_seconds": 494712, "coding_time_seconds_today": 2003, "balance": "You need to have a pocket watcher badge to view this.", "badges": [], "created_at": "2025-07-22T14:14:48.921-04:00", "updated_at": "2025-07-22T21:36:33.196-04:00", "avatar": "https://secure.gravatar.com/avatar/cd7ab7ced9304fb33131d23b8c0eb50b.jpg?s=512&d=https%3A%2F%2Fa.slack-edge.com%2Fdf10d%2Fimg%2Favatars%2Fava_0004-512.png", "custom_css": null}, {"id": 18172, "slack_id": "U096JJ571L7", "display_name": "Thanos", "bio": null, "projects_count": 0, "devlogs_count": 0, "votes_count": 0, "ships_count": 0, "projects": [], "coding_time_seconds": 0, "coding_time_seconds_today": 0, "balance": "You need to have a pocket watcher badge to view this.", "badges": [], "created_at": "2025-07-22T14:14:58.690-04:00", "updated_at": "2025-07-22T21:36:33.296-04:00", "avatar": "https://secure.gravatar.com/avatar/100f4807badd476b0049386ea2e0d22f.jpg?s=512&d=https%3A%2F%2Fa.slack-edge.com%2Fdf10d%2Fimg%2Favatars%2Fava_0008-512.png", "custom_css": null}, {"id": 18173, "slack_id": "U096XJ7MYUV", "display_name": "Anurag", "bio": null, "projects_count": 0, "devlogs_count": 0, "votes_count": 0, "ships_count": 0, "projects": [], "coding_time_seconds": 600462, "coding_time_seconds_today": 12757, "balance": "You need to have a pocket watcher badge to view this.", "badges": [], "created_at": "2025-07-22T14:17:58.099-04:00", "updated_at": "2025-07-22T21:36:33.369-04:00", "avatar": "https://secure.gravatar.com/avatar/667bee737b9848cda2bc32498aeab88f.jpg?s=512&d=https%3A%2F%2Fa.slack-edge.com%2Fdf10d%2Fimg%2Favatars%2Fava_0026-512.png", "custom_css": null}, {"id": 18174, "slack_id": "U096WG6FFCN", "display_name": "Anexus_Singh", "bio": null, "projects_count": 0, "devlogs_count": 0, "votes_count": 0, "ships_count": 0, "projects": [], "coding_time_seconds": 0, "coding_time_seconds_today": 0, "balance": "You need to have a pocket watcher badge to view this.", "badges": [], "created_at": "2025-07-22T14:20:57.331-04:00", "updated_at": "2025-07-22T21:36:33.487-04:00", "avatar": "https://secure.gravatar.com/avatar/f801c824823989f372584277bcb82422.jpg?s=512&d=https%3A%2F%2Fa.slack-edge.com%2Fdf10d%2Fimg%2Favatars%2Fava_0010-512.png", "custom_css": null}, {"id": 18175, "slack_id": "U096XJT1PFF", "display_name": "Devalor", "bio": null, "projects_count": 1, "devlogs_count": 1, "votes_count": 14, "ships_count": 1, "projects": [{"id": 7688, "title": "OVERPLAY Crosshair", "devlogs_count": 1, "created_at": "2025-07-22T14:50:10.704-04:00"}], "coding_time_seconds": 19013, "coding_time_seconds_today": 0, "balance": "You need to have a pocket watcher badge to view this.", "badges": [], "created_at": "2025-07-22T14:23:35.360-04:00", "updated_at": "2025-07-23T13:55:35.085-04:00", "avatar": "https://secure.gravatar.com/avatar/ba7e0a5de875165e8faeb888de5f94a8.jpg?s=512&d=https%3A%2F%2Fa.slack-edge.com%2Fdf10d%2Fimg%2Favatars%2Fava_0015-512.png", "custom_css": null}, {"id": 18176, "slack_id": "U097CNPLY73", "display_name": "Faseeh", "bio": null, "projects_count": 0, "devlogs_count": 0, "votes_count": 0, "ships_count": 0, "projects": [], "coding_time_seconds": 0, "coding_time_seconds_today": 0, "balance": "You need to have a pocket watcher badge to view this.", "badges": [], "created_at": "2025-07-22T14:25:04.183-04:00", "updated_at": "2025-07-22T21:36:33.638-04:00", "avatar": "https://secure.gravatar.com/avatar/30cd8d278852241d7b9da8bc0cd6250c.jpg?s=512&d=https%3A%2F%2Fa.slack-edge.com%2Fdf10d%2Fimg%2Favatars%2Fava_0008-512.png", "custom_css": null}, {"id": 18177, "slack_id": "U097MS3EP2L", "display_name": "A J", "bio": null, "projects_count": 0, "devlogs_count": 0, "votes_count": 0, "ships_count": 0, "projects": [], "coding_time_seconds": 0, "coding_time_seconds_today": 0, "balance": "You need to have a pocket watcher badge to view this.", "badges": [], "created_at": "2025-07-22T14:25:37.677-04:00", "updated_at": "2025-07-22T21:36:33.720-04:00", "avatar": "https://avatars.slack-edge.com/2025-07-22/9237621612162_d99252faeb761d48dd57_original.png", "custom_css": null}, {"id": 18178, "slack_id": "U096JM00UR5", "display_name": "wesdevpro", "bio": null, "projects_count": 0, "devlogs_count": 0, "votes_count": 0, "ships_count": 0, "projects": [], "coding_time_seconds": 0, "coding_time_seconds_today": 0, "balance": "You need to have a pocket watcher badge to view this.", "badges": [], "created_at": "2025-07-22T14:31:31.217-04:00", "updated_at": "2025-07-22T21:36:33.805-04:00", "avatar": "https://secure.gravatar.com/avatar/1d8ff04567b912be28818f2ac5b9897e.jpg?s=512&d=https%3A%2F%2Fa.slack-edge.com%2Fdf10d%2Fimg%2Favatars%2Fava_0019-512.png", "custom_css": null}, {"id": 18179, "slack_id": "U096ZK1QBJN", "display_name": "Revanth Rajaboina", "bio": null, "projects_count": 0, "devlogs_count": 0, "votes_count": 0, "ships_count": 0, "projects": [], "coding_time_seconds": 1769, "coding_time_seconds_today": 0, "balance": "You need to have a pocket watcher badge to view this.", "badges": [], "created_at": "2025-07-22T14:32:40.102-04:00", "updated_at": "2025-07-22T21:36:33.891-04:00", "avatar": "https://secure.gravatar.com/avatar/ab385bc41cb07d95f0da0f3a102492f2.jpg?s=512&d=https%3A%2F%2Fa.slack-edge.com%2Fdf10d%2Fimg%2Favatars%2Fava_0003-512.png", "custom_css": null}, {"id": 18180, "slack_id": "U05PL98EJ2D", "display_name": "Venu", "bio": null, "projects_count": 0, "devlogs_count": 0, "votes_count": 0, "ships_count": 0, "projects": [], "coding_time_seconds": 0, "coding_time_seconds_today": 0, "balance": "You need to have a pocket watcher badge to view this.", "badges": [], "created_at": "2025-07-22T14:33:21.103-04:00", "updated_at": "2025-07-22T21:36:34.001-04:00", "avatar": "https://avatars.slack-edge.com/2025-07-22/9222737414295_5ba9685aed94e6a2c70b_original.jpg", "custom_css": null}, {"id": 18181, "slack_id": "U097MRS1S00", "display_name": "Abdullah Ismail", "bio": null, "projects_count": 0, "devlogs_count": 0, "votes_count": 0, "ships_count": 0, "projects": [], "coding_time_seconds": 0, "coding_time_seconds_today": 0, "balance": "You need to have a pocket watcher badge to view this.", "badges": [], "created_at": "2025-07-22T14:33:54.086-04:00", "updated_at": "2025-07-24T01:22:06.952-04:00", "avatar": "https://secure.gravatar.com/avatar/e0ccac4906c6846388b2f6d71d0e9660.jpg?s=512&d=https%3A%2F%2Fa.slack-edge.com%2Fdf10d%2Fimg%2Favatars%2Fava_0006-512.png", "custom_css": null}, {"id": 18182, "slack_id": "U096ZKSKXHQ", "display_name": "Hurrinade (Hurrinade)", "bio": null, "projects_count": 0, "devlogs_count": 0, "votes_count": 0, "ships_count": 0, "projects": [], "coding_time_seconds": 5320, "coding_time_seconds_today": 0, "balance": "You need to have a pocket watcher badge to view this.", "badges": [], "created_at": "2025-07-22T14:37:14.264-04:00", "updated_at": "2025-07-23T01:31:48.464-04:00", "avatar": "https://avatars.slack-edge.com/2025-07-22/9234673322470_d9bb988aa8ab72932fc4_original.jpg", "custom_css": null}, {"id": 18183, "slack_id": "U096ZKWPTJN", "display_name": "Deepak Akash", "bio": null, "projects_count": 0, "devlogs_count": 0, "votes_count": 0, "ships_count": 0, "projects": [], "coding_time_seconds": 241954, "coding_time_seconds_today": 0, "balance": "You need to have a pocket watcher badge to view this.", "badges": [], "created_at": "2025-07-22T14:38:27.198-04:00", "updated_at": "2025-07-22T22:15:20.948-04:00", "avatar": "https://secure.gravatar.com/avatar/c079548adc83f87d29d8ef46f68247ac.jpg?s=512&d=https%3A%2F%2Fa.slack-edge.com%2Fdf10d%2Fimg%2Favatars%2Fava_0012-512.png", "custom_css": null}, {"id": 18184, "slack_id": "U096W9RD2CC", "display_name": "Ann Elizabeth Thomas", "bio": null, "projects_count": 0, "devlogs_count": 0, "votes_count": 0, "ships_count": 0, "projects": [], "coding_time_seconds": 0, "coding_time_seconds_today": 0, "balance": "You need to have a pocket watcher badge to view this.", "badges": [], "created_at": "2025-07-22T14:40:12.817-04:00", "updated_at": "2025-07-22T21:36:34.356-04:00", "avatar": "https://avatars.slack-edge.com/2025-07-22/9222772072711_0147bbd55758707f939d_original.jpg", "custom_css": null}, {"id": 18185, "slack_id": "U096WHZ9YMU", "display_name": "Levyn", "bio": null, "projects_count": 0, "devlogs_count": 0, "votes_count": 0, "ships_count": 0, "projects": [], "coding_time_seconds": 176533, "coding_time_seconds_today": 0, "balance": "You need to have a pocket watcher badge to view this.", "badges": [], "created_at": "2025-07-22T14:41:49.263-04:00", "updated_at": "2025-07-22T21:36:34.433-04:00", "avatar": "https://secure.gravatar.com/avatar/eb5bb62ec50ea8d096db7ab10fb46405.jpg?s=512&d=https%3A%2F%2Fa.slack-edge.com%2Fdf10d%2Fimg%2Favatars%2Fava_0000-512.png", "custom_css": null}], "pagination": {"page": 905, "pages": 1192, "count": 23828, "items": 20}}