{"users": [{"id": 18186, "slack_id": "U0970RUBNTW", "display_name": "lovi", "bio": null, "projects_count": 0, "devlogs_count": 0, "votes_count": 0, "ships_count": 0, "projects": [], "coding_time_seconds": 0, "coding_time_seconds_today": 0, "balance": "You need to have a pocket watcher badge to view this.", "badges": [], "created_at": "2025-07-22T14:41:49.968-04:00", "updated_at": "2025-07-22T21:36:34.514-04:00", "avatar": "https://secure.gravatar.com/avatar/13139c87536f353c0a64b65007fbf70e.jpg?s=512&d=https%3A%2F%2Fa.slack-edge.com%2Fdf10d%2Fimg%2Favatars%2Fava_0021-512.png", "custom_css": null}, {"id": 18187, "slack_id": "U096WLB0PQW", "display_name": "Abhishek Kumar", "bio": null, "projects_count": 0, "devlogs_count": 0, "votes_count": 0, "ships_count": 0, "projects": [], "coding_time_seconds": 0, "coding_time_seconds_today": 0, "balance": "You need to have a pocket watcher badge to view this.", "badges": [], "created_at": "2025-07-22T14:44:56.064-04:00", "updated_at": "2025-07-22T21:36:34.595-04:00", "avatar": "https://avatars.slack-edge.com/2025-07-22/9234714676038_2a14d1330d0ed5cf9738_original.jpg", "custom_css": null}, {"id": 18188, "slack_id": "U097MUGUJAC", "display_name": "Vojta", "bio": null, "projects_count": 0, "devlogs_count": 0, "votes_count": 0, "ships_count": 0, "projects": [], "coding_time_seconds": 0, "coding_time_seconds_today": 0, "balance": "You need to have a pocket watcher badge to view this.", "badges": [], "created_at": "2025-07-22T14:45:07.200-04:00", "updated_at": "2025-07-22T21:36:38.715-04:00", "avatar": "https://secure.gravatar.com/avatar/990a1707d54e3a9043122c45c9c17e2f.jpg?s=512&d=https%3A%2F%2Fa.slack-edge.com%2Fdf10d%2Fimg%2Favatars%2Fava_0026-512.png", "custom_css": null}, {"id": 18189, "slack_id": "U096WLM85KQ", "display_name": "Lakshay Hasija", "bio": null, "projects_count": 0, "devlogs_count": 0, "votes_count": 0, "ships_count": 0, "projects": [], "coding_time_seconds": 0, "coding_time_seconds_today": 0, "balance": "You need to have a pocket watcher badge to view this.", "badges": [], "created_at": "2025-07-22T14:45:59.331-04:00", "updated_at": "2025-07-22T21:36:38.809-04:00", "avatar": "https://secure.gravatar.com/avatar/8129e408cd2c05ba2424d084ff0703d3.jpg?s=512&d=https%3A%2F%2Fa.slack-edge.com%2Fdf10d%2Fimg%2Favatars%2Fava_0002-512.png", "custom_css": null}, {"id": 18190, "slack_id": "U096UB3KD7D", "display_name": "pradeepjoshi", "bio": null, "projects_count": 0, "devlogs_count": 0, "votes_count": 0, "ships_count": 0, "projects": [], "coding_time_seconds": 0, "coding_time_seconds_today": 0, "balance": "You need to have a pocket watcher badge to view this.", "badges": [], "created_at": "2025-07-22T14:46:08.516-04:00", "updated_at": "2025-07-22T21:36:38.907-04:00", "avatar": "https://secure.gravatar.com/avatar/1ce518ee39df7897f1382671aaa297f8.jpg?s=512&d=https%3A%2F%2Fa.slack-edge.com%2Fdf10d%2Fimg%2Favatars%2Fava_0019-512.png", "custom_css": null}, {"id": 18191, "slack_id": "U096ZM39E82", "display_name": "Nikhil", "bio": null, "projects_count": 0, "devlogs_count": 0, "votes_count": 0, "ships_count": 0, "projects": [], "coding_time_seconds": 0, "coding_time_seconds_today": 0, "balance": "You need to have a pocket watcher badge to view this.", "badges": [], "created_at": "2025-07-22T14:46:11.271-04:00", "updated_at": "2025-07-22T21:36:39.000-04:00", "avatar": "https://secure.gravatar.com/avatar/7646ffdb95e5236dd3ed84f030843766.jpg?s=512&d=https%3A%2F%2Fa.slack-edge.com%2Fdf10d%2Fimg%2Favatars%2Fava_0000-512.png", "custom_css": null}, {"id": 18192, "slack_id": "U0970SN7Z44", "display_name": "Evan", "bio": null, "projects_count": 0, "devlogs_count": 0, "votes_count": 0, "ships_count": 0, "projects": [], "coding_time_seconds": 157968, "coding_time_seconds_today": 0, "balance": "You need to have a pocket watcher badge to view this.", "badges": [], "created_at": "2025-07-22T14:47:37.899-04:00", "updated_at": "2025-07-23T19:04:52.731-04:00", "avatar": "https://secure.gravatar.com/avatar/f970da88b7f2b5118fa050183413ece9.jpg?s=512&d=https%3A%2F%2Fa.slack-edge.com%2Fdf10d%2Fimg%2Favatars%2Fava_0006-512.png", "custom_css": null}, {"id": 18193, "slack_id": "U097N0GUA0Y", "display_name": "Lizi", "bio": null, "projects_count": 0, "devlogs_count": 0, "votes_count": 0, "ships_count": 0, "projects": [], "coding_time_seconds": 0, "coding_time_seconds_today": 0, "balance": "You need to have a pocket watcher badge to view this.", "badges": [], "created_at": "2025-07-22T14:48:00.875-04:00", "updated_at": "2025-07-22T21:36:39.159-04:00", "avatar": "https://secure.gravatar.com/avatar/2c07d0534f3f48bfd56caa054fc24657.jpg?s=512&d=https%3A%2F%2Fa.slack-edge.com%2Fdf10d%2Fimg%2Favatars%2Fava_0022-512.png", "custom_css": null}, {"id": 18194, "slack_id": "U096UBAJHU3", "display_name": "Sofia", "bio": null, "projects_count": 0, "devlogs_count": 0, "votes_count": 0, "ships_count": 0, "projects": [], "coding_time_seconds": 0, "coding_time_seconds_today": 0, "balance": "You need to have a pocket watcher badge to view this.", "badges": [], "created_at": "2025-07-22T14:48:42.604-04:00", "updated_at": "2025-07-22T21:36:43.293-04:00", "avatar": "https://secure.gravatar.com/avatar/98ceb3f0c7a6dfbc3e1b17edd2984b33.jpg?s=512&d=https%3A%2F%2Fa.slack-edge.com%2Fdf10d%2Fimg%2Favatars%2Fava_0018-512.png", "custom_css": null}, {"id": 18195, "slack_id": "U096JP48CLX", "display_name": "Lizi", "bio": null, "projects_count": 0, "devlogs_count": 0, "votes_count": 1, "ships_count": 0, "projects": [], "coding_time_seconds": 0, "coding_time_seconds_today": 0, "balance": "You need to have a pocket watcher badge to view this.", "badges": [], "created_at": "2025-07-22T14:49:06.165-04:00", "updated_at": "2025-07-23T17:00:51.585-04:00", "avatar": "https://secure.gravatar.com/avatar/ac28ac6e4fe2472ec141e86417a7ff08.jpg?s=512&d=https%3A%2F%2Fa.slack-edge.com%2Fdf10d%2Fimg%2Favatars%2Fava_0023-512.png", "custom_css": null}, {"id": 18196, "slack_id": "U096WM5869L", "display_name": "Gia Garback", "bio": null, "projects_count": 0, "devlogs_count": 0, "votes_count": 0, "ships_count": 0, "projects": [], "coding_time_seconds": 0, "coding_time_seconds_today": 0, "balance": "You need to have a pocket watcher badge to view this.", "badges": [], "created_at": "2025-07-22T14:49:08.463-04:00", "updated_at": "2025-07-22T21:36:43.458-04:00", "avatar": "https://secure.gravatar.com/avatar/69de6dc3f56b4370d145ab80a637d289.jpg?s=512&d=https%3A%2F%2Fa.slack-edge.com%2Fdf10d%2Fimg%2Favatars%2Fava_0010-512.png", "custom_css": null}, {"id": 18197, "slack_id": "U096WMA770E", "display_name": "jimmy", "bio": null, "projects_count": 0, "devlogs_count": 0, "votes_count": 0, "ships_count": 0, "projects": [], "coding_time_seconds": 0, "coding_time_seconds_today": 0, "balance": "You need to have a pocket watcher badge to view this.", "badges": [], "created_at": "2025-07-22T14:51:04.282-04:00", "updated_at": "2025-07-22T21:36:43.560-04:00", "avatar": "https://secure.gravatar.com/avatar/5f3863bafd022b8eae2daeb8fb52460b.jpg?s=512&d=https%3A%2F%2Fa.slack-edge.com%2Fdf10d%2Fimg%2Favatars%2Fava_0016-512.png", "custom_css": null}, {"id": 18198, "slack_id": "U096JPVFBF1", "display_name": "Anurag", "bio": null, "projects_count": 0, "devlogs_count": 0, "votes_count": 0, "ships_count": 0, "projects": [], "coding_time_seconds": 0, "coding_time_seconds_today": 0, "balance": "You need to have a pocket watcher badge to view this.", "badges": [], "created_at": "2025-07-22T14:51:20.031-04:00", "updated_at": "2025-07-22T21:36:43.649-04:00", "avatar": "https://avatars.slack-edge.com/2025-07-22/9260042691024_931d322a80be300ff96d_original.jpg", "custom_css": null}, {"id": 18199, "slack_id": "U097CU65VK3", "display_name": "lochan", "bio": null, "projects_count": 0, "devlogs_count": 0, "votes_count": 0, "ships_count": 0, "projects": [], "coding_time_seconds": 0, "coding_time_seconds_today": 0, "balance": "You need to have a pocket watcher badge to view this.", "badges": [], "created_at": "2025-07-22T14:59:26.215-04:00", "updated_at": "2025-07-22T21:36:43.730-04:00", "avatar": "https://secure.gravatar.com/avatar/9120d75cafdb96d535674e82c780e6c5.jpg?s=512&d=https%3A%2F%2Fa.slack-edge.com%2Fdf10d%2Fimg%2Favatars%2Fava_0011-512.png", "custom_css": null}, {"id": 18200, "slack_id": "U097D0ES1K3", "display_name": "AMEER AZAM", "bio": null, "projects_count": 0, "devlogs_count": 0, "votes_count": 0, "ships_count": 0, "projects": [], "coding_time_seconds": 0, "coding_time_seconds_today": 0, "balance": "You need to have a pocket watcher badge to view this.", "badges": [], "created_at": "2025-07-22T15:07:57.172-04:00", "updated_at": "2025-07-22T21:36:43.812-04:00", "avatar": "https://secure.gravatar.com/avatar/25d166e7f081fd6c23edf76b42b02349.jpg?s=512&d=https%3A%2F%2Fa.slack-edge.com%2Fdf10d%2Fimg%2Favatars%2Fava_0022-512.png", "custom_css": null}, {"id": 18201, "slack_id": "U09710KJHEY", "display_name": "Sidra", "bio": null, "projects_count": 0, "devlogs_count": 0, "votes_count": 0, "ships_count": 0, "projects": [], "coding_time_seconds": 0, "coding_time_seconds_today": 0, "balance": "You need to have a pocket watcher badge to view this.", "badges": [], "created_at": "2025-07-22T15:10:27.148-04:00", "updated_at": "2025-07-22T21:36:43.899-04:00", "avatar": "https://avatars.slack-edge.com/2025-07-23/9251185484097_0d780b62acb69942b220_original.jpg", "custom_css": null}, {"id": 18202, "slack_id": "U096JSW16T1", "display_name": "Sophia", "bio": null, "projects_count": 0, "devlogs_count": 0, "votes_count": 0, "ships_count": 0, "projects": [], "coding_time_seconds": 1699, "coding_time_seconds_today": 0, "balance": "You need to have a pocket watcher badge to view this.", "badges": [], "created_at": "2025-07-22T15:10:32.882-04:00", "updated_at": "2025-08-27T18:04:50.155-04:00", "avatar": "https://secure.gravatar.com/avatar/2c64af76c339358629982046dcabbb4c.jpg?s=512&d=https%3A%2F%2Fa.slack-edge.com%2Fdf10d%2Fimg%2Favatars%2Fava_0014-512.png", "custom_css": null}, {"id": 18203, "slack_id": "U096XU2KATF", "display_name": "Eli Klaus", "bio": null, "projects_count": 0, "devlogs_count": 0, "votes_count": 0, "ships_count": 0, "projects": [], "coding_time_seconds": 439, "coding_time_seconds_today": 0, "balance": "You need to have a pocket watcher badge to view this.", "badges": [], "created_at": "2025-07-22T15:15:48.936-04:00", "updated_at": "2025-09-12T19:22:14.268-04:00", "avatar": "https://avatars.slack-edge.com/2025-08-19/9363554155527_00451f04088734b03273_original.png", "custom_css": null}, {"id": 18204, "slack_id": "U096ZRPUETU", "display_name": "Podengos", "bio": null, "projects_count": 0, "devlogs_count": 0, "votes_count": 0, "ships_count": 0, "projects": [], "coding_time_seconds": 0, "coding_time_seconds_today": 0, "balance": "You need to have a pocket watcher badge to view this.", "badges": [], "created_at": "2025-07-22T15:15:58.653-04:00", "updated_at": "2025-07-22T21:36:44.139-04:00", "avatar": "https://secure.gravatar.com/avatar/3b0c4f65b329d4a6e560f75124aa6a60.jpg?s=512&d=https%3A%2F%2Fa.slack-edge.com%2Fdf10d%2Fimg%2Favatars%2Fava_0022-512.png", "custom_css": null}, {"id": 18205, "slack_id": "U096UFL1NMR", "display_name": "Anishka", "bio": null, "projects_count": 0, "devlogs_count": 0, "votes_count": 0, "ships_count": 0, "projects": [], "coding_time_seconds": 0, "coding_time_seconds_today": 0, "balance": "You need to have a pocket watcher badge to view this.", "badges": [], "created_at": "2025-07-22T15:19:31.017-04:00", "updated_at": "2025-07-22T21:36:44.221-04:00", "avatar": "https://secure.gravatar.com/avatar/541e33ca68cbdccf5147f802d6932aa6.jpg?s=512&d=https%3A%2F%2Fa.slack-edge.com%2Fdf10d%2Fimg%2Favatars%2Fava_0012-512.png", "custom_css": null}], "pagination": {"page": 906, "pages": 1192, "count": 23828, "items": 20}}