{"users": [{"id": 18226, "slack_id": "U0971C04T8U", "display_name": "Ismael TG", "bio": null, "projects_count": 0, "devlogs_count": 0, "votes_count": 0, "ships_count": 0, "projects": [], "coding_time_seconds": 0, "coding_time_seconds_today": 0, "balance": "You need to have a pocket watcher badge to view this.", "badges": [], "created_at": "2025-07-22T16:27:21.249-04:00", "updated_at": "2025-07-22T21:36:50.162-04:00", "avatar": "https://avatars.slack-edge.com/2025-07-22/9239437669380_f68199831b2db007b922_original.jpg", "custom_css": null}, {"id": 18227, "slack_id": "U09704WP9GS", "display_name": "Kenza", "bio": null, "projects_count": 0, "devlogs_count": 0, "votes_count": 0, "ships_count": 0, "projects": [], "coding_time_seconds": 0, "coding_time_seconds_today": 0, "balance": "You need to have a pocket watcher badge to view this.", "badges": [], "created_at": "2025-07-22T16:27:26.038-04:00", "updated_at": "2025-07-22T21:36:50.242-04:00", "avatar": "https://secure.gravatar.com/avatar/e9b31a7ff38e2ec9d7ef5b6edcbbb4ca.jpg?s=512&d=https%3A%2F%2Fa.slack-edge.com%2Fdf10d%2Fimg%2Favatars%2Fava_0011-512.png", "custom_css": null}, {"id": 18228, "slack_id": "U096VDY7EJ0", "display_name": "Aditya", "bio": null, "projects_count": 0, "devlogs_count": 0, "votes_count": 0, "ships_count": 0, "projects": [], "coding_time_seconds": 15240, "coding_time_seconds_today": 0, "balance": "You need to have a pocket watcher badge to view this.", "badges": [], "created_at": "2025-07-22T16:27:48.839-04:00", "updated_at": "2025-08-18T09:47:25.371-04:00", "avatar": "https://secure.gravatar.com/avatar/13f4089cca98f05903148d8a4002d519.jpg?s=512&d=https%3A%2F%2Fa.slack-edge.com%2Fdf10d%2Fimg%2Favatars%2Fava_0000-512.png", "custom_css": null}, {"id": 18229, "slack_id": "U096USWT291", "display_name": "Rishan Thangaraj", "bio": null, "projects_count": 0, "devlogs_count": 0, "votes_count": 0, "ships_count": 0, "projects": [], "coding_time_seconds": 28449, "coding_time_seconds_today": 0, "balance": "You need to have a pocket watcher badge to view this.", "badges": [], "created_at": "2025-07-22T16:30:08.686-04:00", "updated_at": "2025-08-12T00:13:48.651-04:00", "avatar": "https://avatars.slack-edge.com/2025-07-22/9232931932579_c8c3e908eb9070b38640_original.png", "custom_css": null}, {"id": 18230, "slack_id": "U096YB63YR3", "display_name": "Rajaa", "bio": null, "projects_count": 0, "devlogs_count": 0, "votes_count": 0, "ships_count": 0, "projects": [], "coding_time_seconds": 0, "coding_time_seconds_today": 0, "balance": "You need to have a pocket watcher badge to view this.", "badges": [], "created_at": "2025-07-22T16:34:12.537-04:00", "updated_at": "2025-07-22T21:36:50.505-04:00", "avatar": "https://secure.gravatar.com/avatar/699be318a98e14f308e248b02f3b9880.jpg?s=512&d=https%3A%2F%2Fa.slack-edge.com%2Fdf10d%2Fimg%2Favatars%2Fava_0015-512.png", "custom_css": null}, {"id": 18231, "slack_id": "U096K9RSLBZ", "display_name": "Oink Oink", "bio": null, "projects_count": 1, "devlogs_count": 6, "votes_count": 3, "ships_count": 1, "projects": [{"id": 7751, "title": "CandyQuest", "devlogs_count": 6, "created_at": "2025-07-22T21:28:20.124-04:00"}], "coding_time_seconds": 661639, "coding_time_seconds_today": 0, "balance": "You need to have a pocket watcher badge to view this.", "badges": [], "created_at": "2025-07-22T16:34:16.573-04:00", "updated_at": "2025-08-06T12:36:21.985-04:00", "avatar": "https://avatars.slack-edge.com/2025-07-22/9251472260129_0b9ad7bc81a0b9fe3f4b_original.png", "custom_css": null}, {"id": 18232, "slack_id": "U097DDQ0EQ1", "display_name": "Yashaswi", "bio": null, "projects_count": 0, "devlogs_count": 0, "votes_count": 0, "ships_count": 0, "projects": [], "coding_time_seconds": 0, "coding_time_seconds_today": 0, "balance": "You need to have a pocket watcher badge to view this.", "badges": [], "created_at": "2025-07-22T16:36:36.051-04:00", "updated_at": "2025-07-22T21:36:50.688-04:00", "avatar": "https://secure.gravatar.com/avatar/286d3de2d2fa924f2f805db4f4ed5714.jpg?s=512&d=https%3A%2F%2Fa.slack-edge.com%2Fdf10d%2Fimg%2Favatars%2Fava_0021-512.png", "custom_css": null}, {"id": 18233, "slack_id": "U096X9KM4EA", "display_name": "ash", "bio": null, "projects_count": 0, "devlogs_count": 0, "votes_count": 0, "ships_count": 0, "projects": [], "coding_time_seconds": 0, "coding_time_seconds_today": 0, "balance": "You need to have a pocket watcher badge to view this.", "badges": [], "created_at": "2025-07-22T16:40:04.149-04:00", "updated_at": "2025-07-22T21:36:50.775-04:00", "avatar": "https://secure.gravatar.com/avatar/d4d1bf829371c47432f538da1bfea6d2.jpg?s=512&d=https%3A%2F%2Fa.slack-edge.com%2Fdf10d%2Fimg%2Favatars%2Fava_0016-512.png", "custom_css": null}, {"id": 18234, "slack_id": "U096X97JZC6", "display_name": "Nandhayogesh Samson", "bio": null, "projects_count": 0, "devlogs_count": 0, "votes_count": 0, "ships_count": 0, "projects": [], "coding_time_seconds": 0, "coding_time_seconds_today": 0, "balance": "You need to have a pocket watcher badge to view this.", "badges": [], "created_at": "2025-07-22T16:40:43.233-04:00", "updated_at": "2025-07-22T21:36:50.858-04:00", "avatar": "https://secure.gravatar.com/avatar/57b0623d987e9fa4168b83499a6eace5.jpg?s=512&d=https%3A%2F%2Fa.slack-edge.com%2Fdf10d%2Fimg%2Favatars%2Fava_0006-512.png", "custom_css": null}, {"id": 18235, "slack_id": "U096KBS1W9M", "display_name": "pratik", "bio": null, "projects_count": 0, "devlogs_count": 0, "votes_count": 0, "ships_count": 0, "projects": [], "coding_time_seconds": 25820, "coding_time_seconds_today": 0, "balance": "You need to have a pocket watcher badge to view this.", "badges": [], "created_at": "2025-07-22T16:48:44.079-04:00", "updated_at": "2025-07-23T14:15:29.580-04:00", "avatar": "https://secure.gravatar.com/avatar/ba679fff3c128ff5ba9a8b800f94960e.jpg?s=512&d=https%3A%2F%2Fa.slack-edge.com%2Fdf10d%2Fimg%2Favatars%2Fava_0013-512.png", "custom_css": null}, {"id": 18236, "slack_id": "U0971FVN7D2", "display_name": "Clem", "bio": null, "projects_count": 0, "devlogs_count": 0, "votes_count": 0, "ships_count": 0, "projects": [], "coding_time_seconds": 2511, "coding_time_seconds_today": 0, "balance": "You need to have a pocket watcher badge to view this.", "badges": [], "created_at": "2025-07-22T16:51:27.799-04:00", "updated_at": "2025-07-23T14:57:51.646-04:00", "avatar": "https://secure.gravatar.com/avatar/06bf1328bf2a3a45f446247ba49fa04c.jpg?s=512&d=https%3A%2F%2Fa.slack-edge.com%2Fdf10d%2Fimg%2Favatars%2Fava_0011-512.png", "custom_css": null}, {"id": 18237, "slack_id": "U096KC782NB", "display_name": "Devyanshie Rautela", "bio": null, "projects_count": 0, "devlogs_count": 0, "votes_count": 0, "ships_count": 0, "projects": [], "coding_time_seconds": 0, "coding_time_seconds_today": 0, "balance": "You need to have a pocket watcher badge to view this.", "badges": [], "created_at": "2025-07-22T16:52:53.793-04:00", "updated_at": "2025-07-22T21:36:51.107-04:00", "avatar": "https://secure.gravatar.com/avatar/a0f86203f3704ccbb6e92905f1c6f003.jpg?s=512&d=https%3A%2F%2Fa.slack-edge.com%2Fdf10d%2Fimg%2Favatars%2Fava_0007-512.png", "custom_css": null}, {"id": 18238, "slack_id": "U0971GH14CC", "display_name": "Pragati Nangare", "bio": null, "projects_count": 0, "devlogs_count": 0, "votes_count": 0, "ships_count": 0, "projects": [], "coding_time_seconds": 0, "coding_time_seconds_today": 0, "balance": "You need to have a pocket watcher badge to view this.", "badges": [], "created_at": "2025-07-22T16:56:33.048-04:00", "updated_at": "2025-07-22T21:36:51.203-04:00", "avatar": "https://secure.gravatar.com/avatar/1624c61170bf1f16816f49210a1f347c.jpg?s=512&d=https%3A%2F%2Fa.slack-edge.com%2Fdf10d%2Fimg%2Favatars%2Fava_0026-512.png", "custom_css": null}, {"id": 18239, "slack_id": "U0970BD0RM0", "display_name": "Dharmendra Singh Chaudhary", "bio": null, "projects_count": 0, "devlogs_count": 0, "votes_count": 0, "ships_count": 0, "projects": [], "coding_time_seconds": 0, "coding_time_seconds_today": 0, "balance": "You need to have a pocket watcher badge to view this.", "badges": [], "created_at": "2025-07-22T16:58:25.647-04:00", "updated_at": "2025-07-22T21:36:51.286-04:00", "avatar": "https://secure.gravatar.com/avatar/4c55daefb89453680f223cbd869cfdd2.jpg?s=512&d=https%3A%2F%2Fa.slack-edge.com%2Fdf10d%2Fimg%2Favatars%2Fava_0010-512.png", "custom_css": null}, {"id": 18240, "slack_id": "U096XCB922J", "display_name": "Tomas", "bio": null, "projects_count": 0, "devlogs_count": 0, "votes_count": 0, "ships_count": 0, "projects": [], "coding_time_seconds": 0, "coding_time_seconds_today": 0, "balance": "You need to have a pocket watcher badge to view this.", "badges": [], "created_at": "2025-07-22T16:59:20.542-04:00", "updated_at": "2025-07-22T21:36:51.394-04:00", "avatar": "https://secure.gravatar.com/avatar/ce6cb7a6f7161808d3c8a1685b55f093.jpg?s=512&d=https%3A%2F%2Fa.slack-edge.com%2Fdf10d%2Fimg%2Favatars%2Fava_0016-512.png", "custom_css": null}, {"id": 18241, "slack_id": "U096YEQPBPX", "display_name": "AltOfDeployor", "bio": null, "projects_count": 0, "devlogs_count": 0, "votes_count": 0, "ships_count": 0, "projects": [], "coding_time_seconds": 0, "coding_time_seconds_today": 0, "balance": "You need to have a pocket watcher badge to view this.", "badges": [], "created_at": "2025-07-22T17:00:28.568-04:00", "updated_at": "2025-07-22T21:36:51.481-04:00", "avatar": "https://secure.gravatar.com/avatar/8bfe24a72c9ac27e85f41dd4201445e7.jpg?s=512&d=https%3A%2F%2Fa.slack-edge.com%2Fdf10d%2Fimg%2Favatars%2Fava_0013-512.png", "custom_css": null}, {"id": 18242, "slack_id": "U0971HJDREG", "display_name": "Owen", "bio": null, "projects_count": 0, "devlogs_count": 0, "votes_count": 0, "ships_count": 0, "projects": [], "coding_time_seconds": 0, "coding_time_seconds_today": 0, "balance": "You need to have a pocket watcher badge to view this.", "badges": [], "created_at": "2025-07-22T17:01:38.474-04:00", "updated_at": "2025-07-22T21:36:51.564-04:00", "avatar": "https://secure.gravatar.com/avatar/204376bf20a10670da5e8183e63d7c42.jpg?s=512&d=https%3A%2F%2Fa.slack-edge.com%2Fdf10d%2Fimg%2Favatars%2Fava_0014-512.png", "custom_css": null}, {"id": 18243, "slack_id": "U0970BKJBV0", "display_name": "vncnt.dev", "bio": null, "projects_count": 0, "devlogs_count": 0, "votes_count": 0, "ships_count": 0, "projects": [], "coding_time_seconds": 15135, "coding_time_seconds_today": 0, "balance": "You need to have a pocket watcher badge to view this.", "badges": [], "created_at": "2025-07-22T17:02:16.816-04:00", "updated_at": "2025-08-18T18:11:40.039-04:00", "avatar": "https://secure.gravatar.com/avatar/5577413ae5f8724a7af27b9f261e6f3c.jpg?s=512&d=https%3A%2F%2Fa.slack-edge.com%2Fdf10d%2Fimg%2Favatars%2Fava_0016-512.png", "custom_css": null}, {"id": 18244, "slack_id": "U096V1K631R", "display_name": "Zhanyan Xu", "bio": null, "projects_count": 0, "devlogs_count": 0, "votes_count": 0, "ships_count": 0, "projects": [], "coding_time_seconds": 0, "coding_time_seconds_today": 0, "balance": "You need to have a pocket watcher badge to view this.", "badges": [], "created_at": "2025-07-22T17:07:32.411-04:00", "updated_at": "2025-07-23T10:40:10.732-04:00", "avatar": "https://secure.gravatar.com/avatar/e5f187e3c37392583c6b8223eafcccb9.jpg?s=512&d=https%3A%2F%2Fa.slack-edge.com%2Fdf10d%2Fimg%2Favatars%2Fava_0023-512.png", "custom_css": null}, {"id": 18245, "slack_id": "U096U0JTVJ6", "display_name": "Davey", "bio": null, "projects_count": 0, "devlogs_count": 0, "votes_count": 1, "ships_count": 0, "projects": [], "coding_time_seconds": 48395, "coding_time_seconds_today": 0, "balance": "You need to have a pocket watcher badge to view this.", "badges": [], "created_at": "2025-07-22T17:08:44.865-04:00", "updated_at": "2025-07-23T10:10:22.235-04:00", "avatar": "https://secure.gravatar.com/avatar/0a8e9459b007d2b37d29ad08b296ed8f.jpg?s=512&d=https%3A%2F%2Fa.slack-edge.com%2Fdf10d%2Fimg%2Favatars%2Fava_0026-512.png", "custom_css": null}], "pagination": {"page": 908, "pages": 1192, "count": 23828, "items": 20}}