{"users": [{"id": 18246, "slack_id": "U096XDYE5F0", "display_name": "Kyna P", "bio": null, "projects_count": 0, "devlogs_count": 0, "votes_count": 0, "ships_count": 0, "projects": [], "coding_time_seconds": 0, "coding_time_seconds_today": 0, "balance": "You need to have a pocket watcher badge to view this.", "badges": [], "created_at": "2025-07-22T17:10:54.693-04:00", "updated_at": "2025-07-22T21:36:55.943-04:00", "avatar": "https://avatars.slack-edge.com/2025-07-22/9233123406675_46eea3c0dd2329392d84_original.png", "custom_css": null}, {"id": 18247, "slack_id": "U096V3A2CTD", "display_name": "chizzy", "bio": null, "projects_count": 0, "devlogs_count": 0, "votes_count": 0, "ships_count": 0, "projects": [], "coding_time_seconds": 0, "coding_time_seconds_today": 0, "balance": "You need to have a pocket watcher badge to view this.", "badges": [], "created_at": "2025-07-22T17:11:19.084-04:00", "updated_at": "2025-07-22T21:37:00.060-04:00", "avatar": "https://secure.gravatar.com/avatar/60e081f85713d21bdd3d99980cd979a7.jpg?s=512&d=https%3A%2F%2Fa.slack-edge.com%2Fdf10d%2Fimg%2Favatars%2Fava_0012-512.png", "custom_css": null}, {"id": 18248, "slack_id": "U096XE5G8J2", "display_name": "Karthik", "bio": null, "projects_count": 0, "devlogs_count": 0, "votes_count": 0, "ships_count": 0, "projects": [], "coding_time_seconds": 0, "coding_time_seconds_today": 0, "balance": "You need to have a pocket watcher badge to view this.", "badges": [], "created_at": "2025-07-22T17:11:46.352-04:00", "updated_at": "2025-07-22T21:37:00.147-04:00", "avatar": "https://secure.gravatar.com/avatar/7facbf8c9f09a228d87abdee415bc147.jpg?s=512&d=https%3A%2F%2Fa.slack-edge.com%2Fdf10d%2Fimg%2Favatars%2Fava_0005-512.png", "custom_css": null}, {"id": 18249, "slack_id": "U097NKYP5DE", "display_name": "Franco", "bio": null, "projects_count": 0, "devlogs_count": 0, "votes_count": 0, "ships_count": 0, "projects": [], "coding_time_seconds": 0, "coding_time_seconds_today": 0, "balance": "You need to have a pocket watcher badge to view this.", "badges": [], "created_at": "2025-07-22T17:11:46.398-04:00", "updated_at": "2025-07-22T21:37:00.246-04:00", "avatar": "https://secure.gravatar.com/avatar/118b80ecdf53eaee023d0e2a974d0560.jpg?s=512&d=https%3A%2F%2Fa.slack-edge.com%2Fdf10d%2Fimg%2Favatars%2Fava_0001-512.png", "custom_css": null}, {"id": 18250, "slack_id": "U08R9Q080QY", "display_name": "Mohit", "bio": null, "projects_count": 1, "devlogs_count": 0, "votes_count": 2, "ships_count": 0, "projects": [{"id": 7717, "title": "Momentum", "devlogs_count": 0, "created_at": "2025-07-22T17:20:53.129-04:00"}], "coding_time_seconds": 31191, "coding_time_seconds_today": 0, "balance": "You need to have a pocket watcher badge to view this.", "badges": [], "created_at": "2025-07-22T17:13:33.419-04:00", "updated_at": "2025-07-23T17:11:39.433-04:00", "avatar": "https://avatars.slack-edge.com/2025-05-05/8872205390976_27330d2720c4dfc3f6e4_original.png", "custom_css": null}, {"id": 18251, "slack_id": "U091GDZCG59", "display_name": "bov", "bio": null, "projects_count": 0, "devlogs_count": 0, "votes_count": 0, "ships_count": 0, "projects": [], "coding_time_seconds": 0, "coding_time_seconds_today": 0, "balance": "You need to have a pocket watcher badge to view this.", "badges": [], "created_at": "2025-07-22T17:16:08.595-04:00", "updated_at": "2025-07-22T21:37:00.404-04:00", "avatar": "https://secure.gravatar.com/avatar/878bee9e4121e8d9d9e49b30781b1c74.jpg?s=512&d=https%3A%2F%2Fa.slack-edge.com%2Fdf10d%2Fimg%2Favatars%2Fava_0009-512.png", "custom_css": null}, {"id": 18252, "slack_id": "U096V498HDH", "display_name": "Atiksh Gupta", "bio": null, "projects_count": 0, "devlogs_count": 0, "votes_count": 0, "ships_count": 0, "projects": [], "coding_time_seconds": 0, "coding_time_seconds_today": 0, "balance": "You need to have a pocket watcher badge to view this.", "badges": [], "created_at": "2025-07-22T17:19:13.627-04:00", "updated_at": "2025-07-22T21:37:04.523-04:00", "avatar": "https://avatars.slack-edge.com/2025-07-22/9238500445522_740057fe0e5d78eba547_original.png", "custom_css": null}, {"id": 18253, "slack_id": "U0971LCE8VA", "display_name": "Autumn Pan", "bio": null, "projects_count": 0, "devlogs_count": 0, "votes_count": 0, "ships_count": 0, "projects": [], "coding_time_seconds": 100329, "coding_time_seconds_today": 0, "balance": "You need to have a pocket watcher badge to view this.", "badges": [], "created_at": "2025-07-22T17:23:28.752-04:00", "updated_at": "2025-07-22T22:00:22.190-04:00", "avatar": "https://secure.gravatar.com/avatar/b74a04fcd0c7017806afa3008bef01c0.jpg?s=512&d=https%3A%2F%2Fa.slack-edge.com%2Fdf10d%2Fimg%2Favatars%2Fava_0022-512.png", "custom_css": null}, {"id": 18254, "slack_id": "U08RWQTM9CH", "display_name": "dnttr", "bio": null, "projects_count": 2, "devlogs_count": 0, "votes_count": 0, "ships_count": 0, "projects": [{"id": 8649, "title": "Zephyr", "devlogs_count": 0, "created_at": "2025-07-28T19:10:46.955-04:00"}, {"id": 11124, "title": "MindKeep", "devlogs_count": 0, "created_at": "2025-08-13T10:45:32.632-04:00"}], "coding_time_seconds": 644576, "coding_time_seconds_today": 0, "balance": "You need to have a pocket watcher badge to view this.", "badges": [], "created_at": "2025-07-22T17:27:42.706-04:00", "updated_at": "2025-09-16T01:16:41.574-04:00", "avatar": "https://avatars.slack-edge.com/2025-05-08/8891161100512_a6766193f88a721d226c_original.jpg", "custom_css": null}, {"id": 18255, "slack_id": "U096XGHSJBY", "display_name": "Jonah Kapski", "bio": null, "projects_count": 0, "devlogs_count": 0, "votes_count": 0, "ships_count": 0, "projects": [], "coding_time_seconds": 339968, "coding_time_seconds_today": 0, "balance": "You need to have a pocket watcher badge to view this.", "badges": [], "created_at": "2025-07-22T17:29:09.558-04:00", "updated_at": "2025-07-22T21:37:04.805-04:00", "avatar": "https://secure.gravatar.com/avatar/38a937da65759c1475816ebaed2b2f64.jpg?s=512&d=https%3A%2F%2Fa.slack-edge.com%2Fdf10d%2Fimg%2Favatars%2Fava_0012-512.png", "custom_css": null}, {"id": 18256, "slack_id": "U0971M9PKT6", "display_name": "Timothy H.", "bio": null, "projects_count": 0, "devlogs_count": 0, "votes_count": 0, "ships_count": 0, "projects": [], "coding_time_seconds": 30773, "coding_time_seconds_today": 0, "balance": "You need to have a pocket watcher badge to view this.", "badges": [], "created_at": "2025-07-22T17:31:47.214-04:00", "updated_at": "2025-07-22T21:37:04.891-04:00", "avatar": "https://secure.gravatar.com/avatar/50fbc2ead96720ad01504507f0e491e5.jpg?s=512&d=https%3A%2F%2Fa.slack-edge.com%2Fdf10d%2Fimg%2Favatars%2Fava_0024-512.png", "custom_css": null}, {"id": 18257, "slack_id": "U097NPX0C9W", "display_name": "Varun Kashyap", "bio": "I am just a learner and a game dev enthusiast. \r\ni am fairly new to this coding stuff and all but i enjoy that and want to see how i can perform here.", "projects_count": 0, "devlogs_count": 0, "votes_count": 0, "ships_count": 0, "projects": [], "coding_time_seconds": 29669, "coding_time_seconds_today": 0, "balance": "You need to have a pocket watcher badge to view this.", "badges": [], "created_at": "2025-07-22T17:32:33.350-04:00", "updated_at": "2025-07-22T21:37:04.986-04:00", "avatar": "https://secure.gravatar.com/avatar/eee300402839688224cfdd22f714b764.jpg?s=512&d=https%3A%2F%2Fa.slack-edge.com%2Fdf10d%2Fimg%2Favatars%2Fava_0024-512.png", "custom_css": null}, {"id": 18258, "slack_id": "U096SD383FV", "display_name": "RappyTV", "bio": null, "projects_count": 1, "devlogs_count": 0, "votes_count": 0, "ships_count": 0, "projects": [{"id": 7724, "title": "GlobalTags API", "devlogs_count": 0, "created_at": "2025-07-22T17:47:37.601-04:00"}], "coding_time_seconds": 36896, "coding_time_seconds_today": 0, "balance": "You need to have a pocket watcher badge to view this.", "badges": [], "created_at": "2025-07-22T17:35:29.298-04:00", "updated_at": "2025-07-24T00:53:02.217-04:00", "avatar": "https://secure.gravatar.com/avatar/796308d068e67bec3ad91e090e7ed248.jpg?s=512&d=https%3A%2F%2Fa.slack-edge.com%2Fdf10d%2Fimg%2Favatars%2Fava_0004-512.png", "custom_css": null}, {"id": 18259, "slack_id": "U096XHURY4W", "display_name": "Srikar Sampangi", "bio": null, "projects_count": 0, "devlogs_count": 0, "votes_count": 0, "ships_count": 0, "projects": [], "coding_time_seconds": 0, "coding_time_seconds_today": 0, "balance": "You need to have a pocket watcher badge to view this.", "badges": [], "created_at": "2025-07-22T17:42:09.777-04:00", "updated_at": "2025-07-23T11:57:46.436-04:00", "avatar": "https://avatars.slack-edge.com/2025-07-22/9223642706279_1f39cd0747000e4b53eb_original.jpg", "custom_css": null}, {"id": 18260, "slack_id": "U096V74N77D", "display_name": "Aviv", "bio": null, "projects_count": 0, "devlogs_count": 0, "votes_count": 0, "ships_count": 0, "projects": [], "coding_time_seconds": 0, "coding_time_seconds_today": 0, "balance": "You need to have a pocket watcher badge to view this.", "badges": [], "created_at": "2025-07-22T17:43:59.113-04:00", "updated_at": "2025-07-22T21:37:05.298-04:00", "avatar": "https://secure.gravatar.com/avatar/0733bbcf7c3ad373ae99968e31dce5f9.jpg?s=512&d=https%3A%2F%2Fa.slack-edge.com%2Fdf10d%2Fimg%2Favatars%2Fava_0007-512.png", "custom_css": null}, {"id": 18261, "slack_id": "U096XH44RM3", "display_name": "Eason Lu", "bio": null, "projects_count": 0, "devlogs_count": 0, "votes_count": 0, "ships_count": 0, "projects": [], "coding_time_seconds": 0, "coding_time_seconds_today": 0, "balance": "You need to have a pocket watcher badge to view this.", "badges": [], "created_at": "2025-07-22T17:44:59.691-04:00", "updated_at": "2025-07-22T21:37:05.382-04:00", "avatar": "https://avatars.slack-edge.com/2025-07-22/9260890242624_cb1159d258ba75a58134_original.png", "custom_css": null}, {"id": 18262, "slack_id": "U0971NWRFS8", "display_name": "Adam Rimanek", "bio": null, "projects_count": 1, "devlogs_count": 1, "votes_count": 2, "ships_count": 0, "projects": [{"id": 8372, "title": "Cancer Detection Algorithm", "devlogs_count": 1, "created_at": "2025-07-26T16:42:58.616-04:00"}], "coding_time_seconds": 13307, "coding_time_seconds_today": 0, "balance": "You need to have a pocket watcher badge to view this.", "badges": [], "created_at": "2025-07-22T17:49:10.402-04:00", "updated_at": "2025-08-01T10:14:10.825-04:00", "avatar": "https://avatars.slack-edge.com/2025-07-22/9236759452133_cd666c11a74ed89a53f1_original.png", "custom_css": null}, {"id": 18263, "slack_id": "U096YMHRAAH", "display_name": "Jea Martin", "bio": null, "projects_count": 0, "devlogs_count": 0, "votes_count": 0, "ships_count": 0, "projects": [], "coding_time_seconds": 64690, "coding_time_seconds_today": 0, "balance": "You need to have a pocket watcher badge to view this.", "badges": [], "created_at": "2025-07-22T17:50:48.961-04:00", "updated_at": "2025-07-22T21:37:05.576-04:00", "avatar": "https://secure.gravatar.com/avatar/35945412babb32f4db8a69f2577f90b2.jpg?s=512&d=https%3A%2F%2Fa.slack-edge.com%2Fdf10d%2Fimg%2Favatars%2Fava_0002-512.png", "custom_css": null}, {"id": 18264, "slack_id": "U096KKGE2ET", "display_name": "Virginia Cruz", "bio": null, "projects_count": 0, "devlogs_count": 0, "votes_count": 0, "ships_count": 0, "projects": [], "coding_time_seconds": 0, "coding_time_seconds_today": 0, "balance": "You need to have a pocket watcher badge to view this.", "badges": [], "created_at": "2025-07-22T17:51:10.199-04:00", "updated_at": "2025-07-22T21:37:05.660-04:00", "avatar": "https://avatars.slack-edge.com/2025-07-22/9238625098818_7037ac8211f7bdd609f1_original.jpg", "custom_css": null}, {"id": 18265, "slack_id": "U096V847JBD", "display_name": "Eastside", "bio": null, "projects_count": 0, "devlogs_count": 0, "votes_count": 0, "ships_count": 0, "projects": [], "coding_time_seconds": 0, "coding_time_seconds_today": 0, "balance": "You need to have a pocket watcher badge to view this.", "badges": [], "created_at": "2025-07-22T17:53:08.619-04:00", "updated_at": "2025-07-22T21:37:05.758-04:00", "avatar": "https://secure.gravatar.com/avatar/f2c7765cf47c2779485abb499d89ad60.jpg?s=512&d=https%3A%2F%2Fa.slack-edge.com%2Fdf10d%2Fimg%2Favatars%2Fava_0022-512.png", "custom_css": null}], "pagination": {"page": 909, "pages": 1192, "count": 23828, "items": 20}}