{"users": [{"id": 1801, "slack_id": "U091GUHKGPQ", "display_name": "AloneAlex", "bio": "", "projects_count": 4, "devlogs_count": 39, "votes_count": 59, "ships_count": 3, "projects": [{"id": 11604, "title": "Dorothy", "devlogs_count": 0, "created_at": "2025-08-17T16:01:40.616-04:00"}, {"id": 9727, "title": "Loopy Golf", "devlogs_count": 10, "created_at": "2025-08-02T05:41:31.969-04:00"}, {"id": 6570, "title": "Procrastination", "devlogs_count": 10, "created_at": "2025-07-14T10:00:38.452-04:00"}, {"id": 363, "title": "Crossnotes", "devlogs_count": 19, "created_at": "2025-06-16T19:16:55.941-04:00"}], "coding_time_seconds": 120585, "coding_time_seconds_today": 0, "balance": "You need to have a pocket watcher badge to view this.", "badges": [{"name": "Maiden Voyage", "text": "you shipped your first project! the journey begins...", "icon": "\ud83d\udea2"}], "created_at": "2025-06-16T13:59:44.503-04:00", "updated_at": "2025-09-20T12:05:43.121-04:00", "avatar": "https://avatars.slack-edge.com/2025-09-20/9551288167701_4f9eeec7f9a8a19bbd78_original.png", "custom_css": null}, {"id": 1802, "slack_id": "U091GUGN5LN", "display_name": "Marcos Abraao", "bio": null, "projects_count": 0, "devlogs_count": 0, "votes_count": 0, "ships_count": 0, "projects": [], "coding_time_seconds": 241, "coding_time_seconds_today": 0, "balance": "You need to have a pocket watcher badge to view this.", "badges": [], "created_at": "2025-06-16T13:59:51.669-04:00", "updated_at": "2025-07-03T19:19:17.743-04:00", "avatar": "https://secure.gravatar.com/avatar/8e8ba28d3077153cfa0b37898ebf8a5c.jpg?s=512&d=https%3A%2F%2Fa.slack-edge.com%2Fdf10d%2Fimg%2Favatars%2Fava_0024-512.png", "custom_css": null}, {"id": 1803, "slack_id": "U091GRLAEJF", "display_name": "Kumar Aprameya", "bio": null, "projects_count": 0, "devlogs_count": 0, "votes_count": 0, "ships_count": 0, "projects": [], "coding_time_seconds": 120, "coding_time_seconds_today": 0, "balance": "You need to have a pocket watcher badge to view this.", "badges": [], "created_at": "2025-06-16T13:59:55.838-04:00", "updated_at": "2025-07-03T19:19:18.028-04:00", "avatar": "https://secure.gravatar.com/avatar/dd96d8314ac3fb413bb1299169f1e91a.jpg?s=512&d=https%3A%2F%2Fa.slack-edge.com%2Fdf10d%2Fimg%2Favatars%2Fava_0009-512.png", "custom_css": null}, {"id": 1804, "slack_id": "U091GRFBT2P", "display_name": "D Pranav", "bio": null, "projects_count": 1, "devlogs_count": 0, "votes_count": 0, "ships_count": 0, "projects": [{"id": 176, "title": "TechScrap-Central Job Aggregator", "devlogs_count": 0, "created_at": "2025-06-16T14:58:42.231-04:00"}], "coding_time_seconds": 118329, "coding_time_seconds_today": 0, "balance": "You need to have a pocket watcher badge to view this.", "badges": [], "created_at": "2025-06-16T14:00:04.758-04:00", "updated_at": "2025-07-03T19:19:18.306-04:00", "avatar": "https://secure.gravatar.com/avatar/6487240c0510c626ee87702f98cf8c27.jpg?s=512&d=https%3A%2F%2Fa.slack-edge.com%2Fdf10d%2Fimg%2Favatars%2Fava_0006-512.png", "custom_css": null}, {"id": 1805, "slack_id": "U081VJCBD7A", "display_name": "Omar Sherif", "bio": null, "projects_count": 0, "devlogs_count": 0, "votes_count": 0, "ships_count": 0, "projects": [], "coding_time_seconds": 0, "coding_time_seconds_today": 0, "balance": "You need to have a pocket watcher badge to view this.", "badges": [], "created_at": "2025-06-16T14:00:08.480-04:00", "updated_at": "2025-07-03T19:19:18.577-04:00", "avatar": "https://secure.gravatar.com/avatar/7c2b982213f2a15017df36cd2c669655.jpg?s=512&d=https%3A%2F%2Fa.slack-edge.com%2Fdf10d%2Fimg%2Favatars%2Fava_0014-512.png", "custom_css": null}, {"id": 1806, "slack_id": "U091GUH41FY", "display_name": "John Wright", "bio": null, "projects_count": 0, "devlogs_count": 0, "votes_count": 0, "ships_count": 0, "projects": [], "coding_time_seconds": 0, "coding_time_seconds_today": 0, "balance": "You need to have a pocket watcher badge to view this.", "badges": [], "created_at": "2025-06-16T14:00:09.634-04:00", "updated_at": "2025-07-03T19:19:18.860-04:00", "avatar": "https://secure.gravatar.com/avatar/c657acf879e28d8d3057c962798eb13a.jpg?s=512&d=https%3A%2F%2Fa.slack-edge.com%2Fdf10d%2Fimg%2Favatars%2Fava_0004-512.png", "custom_css": null}, {"id": 1807, "slack_id": "U09229MQ7MX", "display_name": "Leander Kafemann", "bio": null, "projects_count": 0, "devlogs_count": 0, "votes_count": 0, "ships_count": 0, "projects": [], "coding_time_seconds": 0, "coding_time_seconds_today": 0, "balance": "You need to have a pocket watcher badge to view this.", "badges": [], "created_at": "2025-06-16T14:00:23.650-04:00", "updated_at": "2025-07-03T19:19:19.132-04:00", "avatar": "https://secure.gravatar.com/avatar/6391b37396d594522d2ee1f891f67306.jpg?s=512&d=https%3A%2F%2Fa.slack-edge.com%2Fdf10d%2Fimg%2Favatars%2Fava_0002-512.png", "custom_css": null}, {"id": 1808, "slack_id": "U091PQ5R742", "display_name": "Shaileshkumar Bhadani", "bio": null, "projects_count": 0, "devlogs_count": 0, "votes_count": 0, "ships_count": 0, "projects": [], "coding_time_seconds": 0, "coding_time_seconds_today": 0, "balance": "You need to have a pocket watcher badge to view this.", "badges": [], "created_at": "2025-06-16T14:00:42.004-04:00", "updated_at": "2025-07-03T19:19:19.418-04:00", "avatar": "https://secure.gravatar.com/avatar/4e478109976567e36cabbfffb4c31408.jpg?s=512&d=https%3A%2F%2Fa.slack-edge.com%2Fdf10d%2Fimg%2Favatars%2Fava_0023-512.png", "custom_css": null}, {"id": 1809, "slack_id": "U092C8EAF16", "display_name": "Simon Rechberger (gamersi)", "bio": null, "projects_count": 0, "devlogs_count": 0, "votes_count": 0, "ships_count": 0, "projects": [], "coding_time_seconds": 167411, "coding_time_seconds_today": 0, "balance": "You need to have a pocket watcher badge to view this.", "badges": [], "created_at": "2025-06-16T14:00:48.841-04:00", "updated_at": "2025-07-03T19:19:19.699-04:00", "avatar": "https://avatars.slack-edge.com/2025-06-16/9050900409555_fde712df5633d1db9ad4_original.jpg", "custom_css": null}, {"id": 1810, "slack_id": "U092C8GS2TA", "display_name": "vaskatevas", "bio": null, "projects_count": 0, "devlogs_count": 0, "votes_count": 0, "ships_count": 0, "projects": [], "coding_time_seconds": 0, "coding_time_seconds_today": 0, "balance": "You need to have a pocket watcher badge to view this.", "badges": [], "created_at": "2025-06-16T14:00:50.903-04:00", "updated_at": "2025-07-03T19:19:19.964-04:00", "avatar": "https://secure.gravatar.com/avatar/24ecf8fa3f1ccc36309aa9ed96496dd6.jpg?s=512&d=https%3A%2F%2Fa.slack-edge.com%2Fdf10d%2Fimg%2Favatars%2Fava_0005-512.png", "custom_css": null}, {"id": 1811, "slack_id": "U092C7XR5EC", "display_name": "Malin Kjeller", "bio": null, "projects_count": 0, "devlogs_count": 0, "votes_count": 0, "ships_count": 0, "projects": [], "coding_time_seconds": 0, "coding_time_seconds_today": 0, "balance": "You need to have a pocket watcher badge to view this.", "badges": [], "created_at": "2025-06-16T14:00:57.481-04:00", "updated_at": "2025-07-03T19:19:20.229-04:00", "avatar": "https://secure.gravatar.com/avatar/5dd6b4cc01667cadb671711ffe2e651a.jpg?s=512&d=https%3A%2F%2Fa.slack-edge.com%2Fdf10d%2Fimg%2Favatars%2Fava_0020-512.png", "custom_css": null}, {"id": 1812, "slack_id": "U091Q6VTHV2", "display_name": "Arka Dash", "bio": null, "projects_count": 0, "devlogs_count": 0, "votes_count": 0, "ships_count": 0, "projects": [], "coding_time_seconds": 0, "coding_time_seconds_today": 0, "balance": "You need to have a pocket watcher badge to view this.", "badges": [], "created_at": "2025-06-16T14:01:16.988-04:00", "updated_at": "2025-07-03T19:19:20.495-04:00", "avatar": "https://avatars.slack-edge.com/2025-06-16/9051005812070_dfc22c3aaf888290af4e_original.png", "custom_css": null}, {"id": 1813, "slack_id": "U091Q6G0MV2", "display_name": "3bthakuri", "bio": null, "projects_count": 0, "devlogs_count": 0, "votes_count": 0, "ships_count": 0, "projects": [], "coding_time_seconds": 0, "coding_time_seconds_today": 0, "balance": "You need to have a pocket watcher badge to view this.", "badges": [], "created_at": "2025-06-16T14:01:22.263-04:00", "updated_at": "2025-07-03T19:19:20.780-04:00", "avatar": "https://secure.gravatar.com/avatar/ab0d951ca0b29a49a8bd1934f6481a96.jpg?s=512&d=https%3A%2F%2Fa.slack-edge.com%2Fdf10d%2Fimg%2Favatars%2Fava_0010-512.png", "custom_css": null}, {"id": 1814, "slack_id": "U07DBH0B60N", "display_name": "Galax", "bio": null, "projects_count": 0, "devlogs_count": 0, "votes_count": 3, "ships_count": 0, "projects": [], "coding_time_seconds": 440465, "coding_time_seconds_today": 0, "balance": "You need to have a pocket watcher badge to view this.", "badges": [], "created_at": "2025-06-16T14:01:22.763-04:00", "updated_at": "2025-07-03T19:19:21.048-04:00", "avatar": "https://avatars.slack-edge.com/2024-08-05/7529083630228_d041de75a660c47f94e4_original.png", "custom_css": null}, {"id": 1815, "slack_id": "U078KDM5C2Y", "display_name": "ExplodingCB", "bio": null, "projects_count": 1, "devlogs_count": 1, "votes_count": 10, "ships_count": 0, "projects": [{"id": 1089, "title": "Apple Weather Online", "devlogs_count": 1, "created_at": "2025-06-17T15:48:43.744-04:00"}], "coding_time_seconds": 60067, "coding_time_seconds_today": 0, "balance": "You need to have a pocket watcher badge to view this.", "badges": [], "created_at": "2025-06-16T14:01:25.205-04:00", "updated_at": "2025-07-03T19:19:21.310-04:00", "avatar": "https://avatars.slack-edge.com/2025-06-30/9141009676673_19ea00253189a91cd681_original.jpg", "custom_css": null}, {"id": 1816, "slack_id": "U091PJPJXC2", "display_name": "Rizmy Abdulla", "bio": null, "projects_count": 0, "devlogs_count": 0, "votes_count": 0, "ships_count": 0, "projects": [], "coding_time_seconds": 708547, "coding_time_seconds_today": 868, "balance": "You need to have a pocket watcher badge to view this.", "badges": [], "created_at": "2025-06-16T14:01:36.102-04:00", "updated_at": "2025-07-03T19:19:21.577-04:00", "avatar": "https://secure.gravatar.com/avatar/fd7b697082cdacdec8b783335736483f.jpg?s=512&d=https%3A%2F%2Fa.slack-edge.com%2Fdf10d%2Fimg%2Favatars%2Fava_0000-512.png", "custom_css": null}, {"id": 1817, "slack_id": "U091GV4QSMC", "display_name": "hasan gendig\u00fcl", "bio": null, "projects_count": 0, "devlogs_count": 0, "votes_count": 0, "ships_count": 0, "projects": [], "coding_time_seconds": 0, "coding_time_seconds_today": 0, "balance": "You need to have a pocket watcher badge to view this.", "badges": [], "created_at": "2025-06-16T14:01:45.568-04:00", "updated_at": "2025-07-03T19:19:21.848-04:00", "avatar": "https://secure.gravatar.com/avatar/3c744ffb17c2b4081bbdb74124dfd11c.jpg?s=512&d=https%3A%2F%2Fa.slack-edge.com%2Fdf10d%2Fimg%2Favatars%2Fava_0002-512.png", "custom_css": null}, {"id": 1818, "slack_id": "U091Q6SMUCC", "display_name": "Mateus Rodrigues Silva", "bio": null, "projects_count": 0, "devlogs_count": 0, "votes_count": 0, "ships_count": 0, "projects": [], "coding_time_seconds": 0, "coding_time_seconds_today": 0, "balance": "You need to have a pocket watcher badge to view this.", "badges": [], "created_at": "2025-06-16T14:02:07.370-04:00", "updated_at": "2025-07-03T19:19:22.112-04:00", "avatar": "https://secure.gravatar.com/avatar/58fbe4b8531807da29e0d020abea5d21.jpg?s=512&d=https%3A%2F%2Fa.slack-edge.com%2Fdf10d%2Fimg%2Favatars%2Fava_0001-512.png", "custom_css": null}, {"id": 1819, "slack_id": "U0922BN117T", "display_name": "0xCaptainFahim", "bio": null, "projects_count": 0, "devlogs_count": 0, "votes_count": 0, "ships_count": 0, "projects": [], "coding_time_seconds": 0, "coding_time_seconds_today": 0, "balance": "You need to have a pocket watcher badge to view this.", "badges": [], "created_at": "2025-06-16T14:02:07.621-04:00", "updated_at": "2025-07-03T19:19:22.382-04:00", "avatar": "https://avatars.slack-edge.com/2025-06-17/9058449917204_5668014dd23688935ffb_original.jpg", "custom_css": null}, {"id": 1820, "slack_id": "U092C92S32L", "display_name": "Mulka Madhav", "bio": null, "projects_count": 1, "devlogs_count": 0, "votes_count": 0, "ships_count": 0, "projects": [{"id": 140, "title": "NEWS WEBSITE", "devlogs_count": 0, "created_at": "2025-06-16T14:25:40.438-04:00"}], "coding_time_seconds": 2980, "coding_time_seconds_today": 0, "balance": "You need to have a pocket watcher badge to view this.", "badges": [], "created_at": "2025-06-16T14:02:17.234-04:00", "updated_at": "2025-07-03T19:19:22.652-04:00", "avatar": "https://avatars.slack-edge.com/2025-06-16/9080327451504_27f034a008e9655dbd75_original.png", "custom_css": null}], "pagination": {"page": 91, "pages": 1192, "count": 23828, "items": 20}}