{"users": [{"id": 18266, "slack_id": "U0970JB6ESW", "display_name": "Angel Eduardo Mancilla Godinez", "bio": null, "projects_count": 1, "devlogs_count": 1, "votes_count": 0, "ships_count": 1, "projects": [{"id": 8529, "title": "StudentOverflow", "devlogs_count": 1, "created_at": "2025-07-28T00:25:12.160-04:00"}], "coding_time_seconds": 31797, "coding_time_seconds_today": 0, "balance": "You need to have a pocket watcher badge to view this.", "badges": [], "created_at": "2025-07-22T17:55:30.721-04:00", "updated_at": "2025-07-28T00:15:52.350-04:00", "avatar": "https://avatars.slack-edge.com/2025-07-22/9260927510576_e89606de2d5abf1959e4_original.jpg", "custom_css": null}, {"id": 18267, "slack_id": "U07A47LC6P8", "display_name": "mini", "bio": null, "projects_count": 3, "devlogs_count": 9, "votes_count": 2, "ships_count": 2, "projects": [{"id": 8650, "title": "Musix", "devlogs_count": 1, "created_at": "2025-07-28T19:10:54.776-04:00"}, {"id": 7904, "title": "miniaturity's personal website", "devlogs_count": 4, "created_at": "2025-07-23T14:06:38.381-04:00"}, {"id": 8647, "title": "CROSSWARD", "devlogs_count": 4, "created_at": "2025-07-28T19:08:20.948-04:00"}], "coding_time_seconds": 327844, "coding_time_seconds_today": 0, "balance": "You need to have a pocket watcher badge to view this.", "badges": [], "created_at": "2025-07-22T18:00:02.027-04:00", "updated_at": "2025-08-07T14:56:32.887-04:00", "avatar": "https://avatars.slack-edge.com/2025-05-01/8838803307234_c238d07f47e74223a795_original.jpg", "custom_css": null}, {"id": 18268, "slack_id": "U097DS78QTB", "display_name": "braxton", "bio": null, "projects_count": 2, "devlogs_count": 1, "votes_count": 1, "ships_count": 1, "projects": [{"id": 7938, "title": "SquadScout", "devlogs_count": 1, "created_at": "2025-07-23T18:07:24.509-04:00"}, {"id": 11728, "title": "Sound Playground", "devlogs_count": 0, "created_at": "2025-08-18T22:38:56.295-04:00"}], "coding_time_seconds": 10277, "coding_time_seconds_today": 0, "balance": "You need to have a pocket watcher badge to view this.", "badges": [], "created_at": "2025-07-22T18:16:54.163-04:00", "updated_at": "2025-08-18T20:57:23.551-04:00", "avatar": "https://secure.gravatar.com/avatar/bf70476dbbf6684eccb8a24467a3e442.jpg?s=512&d=https%3A%2F%2Fa.slack-edge.com%2Fdf10d%2Fimg%2Favatars%2Fava_0010-512.png", "custom_css": null}, {"id": 18269, "slack_id": "U096ND9MJ59", "display_name": "alex", "bio": null, "projects_count": 0, "devlogs_count": 0, "votes_count": 0, "ships_count": 0, "projects": [], "coding_time_seconds": 0, "coding_time_seconds_today": 0, "balance": "You need to have a pocket watcher badge to view this.", "badges": [], "created_at": "2025-07-22T18:24:02.930-04:00", "updated_at": "2025-07-22T21:37:10.139-04:00", "avatar": "https://secure.gravatar.com/avatar/7d514e9e21b2c975564276bf9d83088f.jpg?s=512&d=https%3A%2F%2Fa.slack-edge.com%2Fdf10d%2Fimg%2Favatars%2Fava_0020-512.png", "custom_css": null}, {"id": 18270, "slack_id": "U096UP0HXR9", "display_name": "Donald Shunn", "bio": null, "projects_count": 0, "devlogs_count": 0, "votes_count": 0, "ships_count": 0, "projects": [], "coding_time_seconds": 0, "coding_time_seconds_today": 0, "balance": "You need to have a pocket watcher badge to view this.", "badges": [], "created_at": "2025-07-22T18:28:12.961-04:00", "updated_at": "2025-07-22T21:37:10.223-04:00", "avatar": "https://avatars.slack-edge.com/2025-07-22/9261043625280_b1b794adca123ea7fa95_original.png", "custom_css": null}, {"id": 18271, "slack_id": "U097DS07DBK", "display_name": "Goodness", "bio": null, "projects_count": 0, "devlogs_count": 0, "votes_count": 0, "ships_count": 0, "projects": [], "coding_time_seconds": 0, "coding_time_seconds_today": 0, "balance": "You need to have a pocket watcher badge to view this.", "badges": [], "created_at": "2025-07-22T18:28:33.214-04:00", "updated_at": "2025-07-22T21:37:10.306-04:00", "avatar": "https://secure.gravatar.com/avatar/7eeda28116d3d99566018b190248b754.jpg?s=512&d=https%3A%2F%2Fa.slack-edge.com%2Fdf10d%2Fimg%2Favatars%2Fava_0023-512.png", "custom_css": null}, {"id": 18272, "slack_id": "U096YRTUL0M", "display_name": "alex", "bio": "Im alex and I like anime.\r\nI'm also torturing myself with information I cant understand.\r\nEver felt like that?\r\nAnd how do you change your profile picture?\r\n", "projects_count": 1, "devlogs_count": 2, "votes_count": 2, "ships_count": 0, "projects": [{"id": 9316, "title": "Chip Design", "devlogs_count": 2, "created_at": "2025-07-31T14:15:13.074-04:00"}], "coding_time_seconds": 98110, "coding_time_seconds_today": 0, "balance": "You need to have a pocket watcher badge to view this.", "badges": [], "created_at": "2025-07-22T18:31:45.711-04:00", "updated_at": "2025-07-31T17:07:39.627-04:00", "avatar": "https://avatars.slack-edge.com/2025-07-31/9271432395447_d1576e8d3cbdfe36c82b_original.png", "custom_css": null}, {"id": 18273, "slack_id": "U097P1L04MN", "display_name": "AraaRobot", "bio": null, "projects_count": 0, "devlogs_count": 0, "votes_count": 0, "ships_count": 0, "projects": [], "coding_time_seconds": 0, "coding_time_seconds_today": 0, "balance": "You need to have a pocket watcher badge to view this.", "badges": [], "created_at": "2025-07-22T18:33:33.440-04:00", "updated_at": "2025-07-22T21:37:10.479-04:00", "avatar": "https://secure.gravatar.com/avatar/fb6f5f7aebee5a6b396fdf0bd6c01a99.jpg?s=512&d=https%3A%2F%2Fa.slack-edge.com%2Fdf10d%2Fimg%2Favatars%2Fava_0011-512.png", "custom_css": null}, {"id": 18274, "slack_id": "U0971UG38DS", "display_name": "Nicolas", "bio": null, "projects_count": 0, "devlogs_count": 0, "votes_count": 0, "ships_count": 0, "projects": [], "coding_time_seconds": 0, "coding_time_seconds_today": 0, "balance": "You need to have a pocket watcher badge to view this.", "badges": [], "created_at": "2025-07-22T18:39:45.864-04:00", "updated_at": "2025-07-22T21:37:10.568-04:00", "avatar": "https://secure.gravatar.com/avatar/9b98eada5e8e0b9d1b305562d92d15a7.jpg?s=512&d=https%3A%2F%2Fa.slack-edge.com%2Fdf10d%2Fimg%2Favatars%2Fava_0011-512.png", "custom_css": null}, {"id": 18275, "slack_id": "U096XREUR62", "display_name": "Michael", "bio": "Delete profile\r\n", "projects_count": 0, "devlogs_count": 0, "votes_count": 0, "ships_count": 0, "projects": [], "coding_time_seconds": 247, "coding_time_seconds_today": 0, "balance": "You need to have a pocket watcher badge to view this.", "badges": [], "created_at": "2025-07-22T18:54:11.275-04:00", "updated_at": "2025-07-22T21:37:10.653-04:00", "avatar": "https://secure.gravatar.com/avatar/501552ceef58f2e8851f8123e947a8e7.jpg?s=512&d=https%3A%2F%2Fa.slack-edge.com%2Fdf10d%2Fimg%2Favatars%2Fava_0022-512.png", "custom_css": null}, {"id": 18276, "slack_id": "U096R566FM4", "display_name": "Charu", "bio": null, "projects_count": 0, "devlogs_count": 0, "votes_count": 0, "ships_count": 0, "projects": [], "coding_time_seconds": 0, "coding_time_seconds_today": 0, "balance": "You need to have a pocket watcher badge to view this.", "badges": [], "created_at": "2025-07-22T19:01:24.784-04:00", "updated_at": "2025-07-22T21:37:10.747-04:00", "avatar": "https://secure.gravatar.com/avatar/e4d25749f4306c98113ea5ba65e1cf89.jpg?s=512&d=https%3A%2F%2Fa.slack-edge.com%2Fdf10d%2Fimg%2Favatars%2Fava_0019-512.png", "custom_css": null}, {"id": 18277, "slack_id": "U096VF3NRNF", "display_name": "Yuan Chen", "bio": null, "projects_count": 0, "devlogs_count": 0, "votes_count": 0, "ships_count": 0, "projects": [], "coding_time_seconds": 0, "coding_time_seconds_today": 0, "balance": "You need to have a pocket watcher badge to view this.", "badges": [], "created_at": "2025-07-22T19:05:32.361-04:00", "updated_at": "2025-07-22T21:37:10.848-04:00", "avatar": "https://secure.gravatar.com/avatar/6c5ab24a228c285f567bf8c8792d8457.jpg?s=512&d=https%3A%2F%2Fa.slack-edge.com%2Fdf10d%2Fimg%2Favatars%2Fava_0024-512.png", "custom_css": null}, {"id": 18278, "slack_id": "U096XSQFGMC", "display_name": "Connor Merk", "bio": null, "projects_count": 0, "devlogs_count": 0, "votes_count": 0, "ships_count": 0, "projects": [], "coding_time_seconds": 51368, "coding_time_seconds_today": 0, "balance": "You need to have a pocket watcher badge to view this.", "badges": [], "created_at": "2025-07-22T19:06:07.045-04:00", "updated_at": "2025-07-22T21:37:10.942-04:00", "avatar": "https://avatars.slack-edge.com/2025-07-22/9252066974737_0492fa0c62e8d28ce23d_original.png", "custom_css": null}, {"id": 18279, "slack_id": "U09721MGC0L", "display_name": "NCBPFluffyBear o.o (FluffyBear)", "bio": null, "projects_count": 0, "devlogs_count": 0, "votes_count": 0, "ships_count": 0, "projects": [], "coding_time_seconds": 396, "coding_time_seconds_today": 0, "balance": "You need to have a pocket watcher badge to view this.", "badges": [], "created_at": "2025-07-22T19:06:34.347-04:00", "updated_at": "2025-07-22T21:41:26.547-04:00", "avatar": "https://avatars.slack-edge.com/2025-07-22/9252068345649_f0460163d1bdb651d4d7_original.jpg", "custom_css": null}, {"id": 18280, "slack_id": "U096Z135XQV", "display_name": "Divin", "bio": null, "projects_count": 1, "devlogs_count": 1, "votes_count": 0, "ships_count": 1, "projects": [{"id": 9056, "title": "Learn Web Dev", "devlogs_count": 1, "created_at": "2025-07-30T10:40:54.282-04:00"}], "coding_time_seconds": 81596, "coding_time_seconds_today": 0, "balance": "You need to have a pocket watcher badge to view this.", "badges": [], "created_at": "2025-07-22T19:18:56.732-04:00", "updated_at": "2025-07-30T12:46:12.708-04:00", "avatar": "https://secure.gravatar.com/avatar/32ecbe5dc5376b7948e80519ce1085af.jpg?s=512&d=https%3A%2F%2Fa.slack-edge.com%2Fdf10d%2Fimg%2Favatars%2Fava_0020-512.png", "custom_css": null}, {"id": 18281, "slack_id": "U097P5DHY2U", "display_name": "Vaibhav Seth", "bio": null, "projects_count": 0, "devlogs_count": 0, "votes_count": 0, "ships_count": 0, "projects": [], "coding_time_seconds": 0, "coding_time_seconds_today": 0, "balance": "You need to have a pocket watcher badge to view this.", "badges": [], "created_at": "2025-07-22T19:19:03.502-04:00", "updated_at": "2025-07-22T21:37:11.186-04:00", "avatar": "https://avatars.slack-edge.com/2025-07-22/9237052478469_9cd30e0427a5842aa06d_original.jpg", "custom_css": null}, {"id": 18282, "slack_id": "U096Z1Z2A93", "display_name": "Kiwi", "bio": "", "projects_count": 0, "devlogs_count": 0, "votes_count": 0, "ships_count": 0, "projects": [], "coding_time_seconds": 0, "coding_time_seconds_today": 0, "balance": "You need to have a pocket watcher badge to view this.", "badges": [], "created_at": "2025-07-22T19:28:32.203-04:00", "updated_at": "2025-08-13T18:25:03.933-04:00", "avatar": "https://secure.gravatar.com/avatar/052fa9afd0f63e29622e029913b6beb4.jpg?s=512&d=https%3A%2F%2Fa.slack-edge.com%2Fdf10d%2Fimg%2Favatars%2Fava_0009-512.png", "custom_css": null}, {"id": 18283, "slack_id": "U0970SY3XA6", "display_name": "ken", "bio": null, "projects_count": 0, "devlogs_count": 0, "votes_count": 0, "ships_count": 0, "projects": [], "coding_time_seconds": 0, "coding_time_seconds_today": 0, "balance": "You need to have a pocket watcher badge to view this.", "badges": [], "created_at": "2025-07-22T19:41:21.497-04:00", "updated_at": "2025-07-22T21:37:11.354-04:00", "avatar": "https://secure.gravatar.com/avatar/aafec597f43988a9efed8dab0c8f372f.jpg?s=512&d=https%3A%2F%2Fa.slack-edge.com%2Fdf10d%2Fimg%2Favatars%2Fava_0020-512.png", "custom_css": null}, {"id": 18284, "slack_id": "U096L08U00P", "display_name": "Andrew Lee", "bio": null, "projects_count": 0, "devlogs_count": 0, "votes_count": 0, "ships_count": 0, "projects": [], "coding_time_seconds": 0, "coding_time_seconds_today": 0, "balance": "You need to have a pocket watcher badge to view this.", "badges": [], "created_at": "2025-07-22T19:41:25.774-04:00", "updated_at": "2025-07-22T21:37:11.463-04:00", "avatar": "https://secure.gravatar.com/avatar/b98a0100d7afa08642e702d2d4d03290.jpg?s=512&d=https%3A%2F%2Fa.slack-edge.com%2Fdf10d%2Fimg%2Favatars%2Fava_0003-512.png", "custom_css": null}, {"id": 18285, "slack_id": "U097P7MLB8Q", "display_name": "chiubear", "bio": null, "projects_count": 0, "devlogs_count": 0, "votes_count": 0, "ships_count": 0, "projects": [], "coding_time_seconds": 16628, "coding_time_seconds_today": 120, "balance": "You need to have a pocket watcher badge to view this.", "badges": [], "created_at": "2025-07-22T19:42:56.491-04:00", "updated_at": "2025-07-22T21:37:11.561-04:00", "avatar": "https://secure.gravatar.com/avatar/8078f470d3c587bf46930bbd35876b08.jpg?s=512&d=https%3A%2F%2Fa.slack-edge.com%2Fdf10d%2Fimg%2Favatars%2Fava_0015-512.png", "custom_css": null}], "pagination": {"page": 910, "pages": 1192, "count": 23828, "items": 20}}