{"users": [{"id": 18286, "slack_id": "U096VJP8PA7", "display_name": "khaled", "bio": null, "projects_count": 0, "devlogs_count": 0, "votes_count": 0, "ships_count": 0, "projects": [], "coding_time_seconds": 0, "coding_time_seconds_today": 0, "balance": "You need to have a pocket watcher badge to view this.", "badges": [], "created_at": "2025-07-22T19:47:14.402-04:00", "updated_at": "2025-07-27T01:33:52.558-04:00", "avatar": "https://secure.gravatar.com/avatar/b963d950791d4f642a971c53f54888f4.jpg?s=512&d=https%3A%2F%2Fa.slack-edge.com%2Fdf10d%2Fimg%2Favatars%2Fava_0021-512.png", "custom_css": null}, {"id": 18287, "slack_id": "U097E5YUL49", "display_name": "10f7c7", "bio": null, "projects_count": 0, "devlogs_count": 0, "votes_count": 0, "ships_count": 0, "projects": [], "coding_time_seconds": 33865, "coding_time_seconds_today": 0, "balance": "You need to have a pocket watcher badge to view this.", "badges": [], "created_at": "2025-07-22T19:56:23.690-04:00", "updated_at": "2025-07-24T01:12:49.870-04:00", "avatar": "https://avatars.slack-edge.com/2025-07-22/9236075639398_c6039edfaa68e8d5e660_original.png", "custom_css": null}, {"id": 18288, "slack_id": "U097P9G80M6", "display_name": "Joe", "bio": null, "projects_count": 0, "devlogs_count": 0, "votes_count": 0, "ships_count": 0, "projects": [], "coding_time_seconds": 0, "coding_time_seconds_today": 0, "balance": "You need to have a pocket watcher badge to view this.", "badges": [], "created_at": "2025-07-22T20:01:40.448-04:00", "updated_at": "2025-08-13T16:14:20.259-04:00", "avatar": "https://secure.gravatar.com/avatar/45be968fcf67d02151fe55e9f64d824c.jpg?s=512&d=https%3A%2F%2Fa.slack-edge.com%2Fdf10d%2Fimg%2Favatars%2Fava_0020-512.png", "custom_css": null}, {"id": 18289, "slack_id": "U09726UKQUC", "display_name": "Ari", "bio": null, "projects_count": 1, "devlogs_count": 0, "votes_count": 1, "ships_count": 0, "projects": [{"id": 7949, "title": "Reverse Darts", "devlogs_count": 0, "created_at": "2025-07-23T19:07:47.006-04:00"}], "coding_time_seconds": 4606, "coding_time_seconds_today": 0, "balance": "You need to have a pocket watcher badge to view this.", "badges": [], "created_at": "2025-07-22T20:05:08.833-04:00", "updated_at": "2025-07-23T18:41:59.003-04:00", "avatar": "https://avatars.slack-edge.com/2025-07-22/9239608978658_94aad2b67287625e2909_original.jpg", "custom_css": null}, {"id": 18290, "slack_id": "U09711HASCS", "display_name": "JITHUTHEFOX", "bio": null, "projects_count": 0, "devlogs_count": 0, "votes_count": 0, "ships_count": 0, "projects": [], "coding_time_seconds": 0, "coding_time_seconds_today": 0, "balance": "You need to have a pocket watcher badge to view this.", "badges": [], "created_at": "2025-07-22T20:05:45.369-04:00", "updated_at": "2025-07-22T21:37:12.015-04:00", "avatar": "https://secure.gravatar.com/avatar/083a87ca684cf35e4f453172af8bd44d.jpg?s=512&d=https%3A%2F%2Fa.slack-edge.com%2Fdf10d%2Fimg%2Favatars%2Fava_0017-512.png", "custom_css": null}, {"id": 18291, "slack_id": "U09711U7A82", "display_name": "poojitha ganta", "bio": null, "projects_count": 0, "devlogs_count": 0, "votes_count": 0, "ships_count": 0, "projects": [], "coding_time_seconds": 0, "coding_time_seconds_today": 0, "balance": "You need to have a pocket watcher badge to view this.", "badges": [], "created_at": "2025-07-22T20:08:01.694-04:00", "updated_at": "2025-07-22T21:37:12.096-04:00", "avatar": "https://secure.gravatar.com/avatar/b57f50d700c910cdada857504543586c.jpg?s=512&d=https%3A%2F%2Fa.slack-edge.com%2Fdf10d%2Fimg%2Favatars%2Fava_0009-512.png", "custom_css": null}, {"id": 18292, "slack_id": "U096L2THFUP", "display_name": "Nevil Padariya", "bio": null, "projects_count": 0, "devlogs_count": 0, "votes_count": 0, "ships_count": 0, "projects": [], "coding_time_seconds": 7397, "coding_time_seconds_today": 0, "balance": "You need to have a pocket watcher badge to view this.", "badges": [], "created_at": "2025-07-22T20:08:29.243-04:00", "updated_at": "2025-07-22T21:37:16.227-04:00", "avatar": "https://secure.gravatar.com/avatar/ff701f4819133580a80f3de0cfc1e004.jpg?s=512&d=https%3A%2F%2Fa.slack-edge.com%2Fdf10d%2Fimg%2Favatars%2Fava_0002-512.png", "custom_css": null}, {"id": 18293, "slack_id": "U096VM16S03", "display_name": "Hardeep Mehta", "bio": null, "projects_count": 0, "devlogs_count": 0, "votes_count": 0, "ships_count": 0, "projects": [], "coding_time_seconds": 0, "coding_time_seconds_today": 0, "balance": "You need to have a pocket watcher badge to view this.", "badges": [], "created_at": "2025-07-22T20:09:43.738-04:00", "updated_at": "2025-07-22T21:37:16.325-04:00", "avatar": "https://secure.gravatar.com/avatar/6ab221af06c69ee6c5f187ed0216e03f.jpg?s=512&d=https%3A%2F%2Fa.slack-edge.com%2Fdf10d%2Fimg%2Favatars%2Fava_0017-512.png", "custom_css": null}, {"id": 18294, "slack_id": "U096Q59EC86", "display_name": "Calvin", "bio": null, "projects_count": 0, "devlogs_count": 0, "votes_count": 0, "ships_count": 0, "projects": [], "coding_time_seconds": 0, "coding_time_seconds_today": 0, "balance": "You need to have a pocket watcher badge to view this.", "badges": [], "created_at": "2025-07-22T20:11:59.119-04:00", "updated_at": "2025-07-22T21:37:16.424-04:00", "avatar": "https://secure.gravatar.com/avatar/43f4e7db8ce8e45103d982eb224a7b90.jpg?s=512&d=https%3A%2F%2Fa.slack-edge.com%2Fdf10d%2Fimg%2Favatars%2Fava_0010-512.png", "custom_css": null}, {"id": 18295, "slack_id": "U0801VB47HU", "display_name": "Morris Richman", "bio": null, "projects_count": 0, "devlogs_count": 0, "votes_count": 0, "ships_count": 0, "projects": [], "coding_time_seconds": 6285, "coding_time_seconds_today": 0, "balance": "You need to have a pocket watcher badge to view this.", "badges": [], "created_at": "2025-07-22T20:12:46.060-04:00", "updated_at": "2025-07-24T04:05:28.284-04:00", "avatar": "https://avatars.slack-edge.com/2024-11-10/8008619931762_2d92831e6a6b788bc29b_original.png", "custom_css": null}, {"id": 18296, "slack_id": "U096RCVF477", "display_name": "Mengjia Kira Wei", "bio": null, "projects_count": 0, "devlogs_count": 0, "votes_count": 0, "ships_count": 0, "projects": [], "coding_time_seconds": 322494, "coding_time_seconds_today": 0, "balance": "You need to have a pocket watcher badge to view this.", "badges": [], "created_at": "2025-07-22T20:12:51.771-04:00", "updated_at": "2025-07-22T21:37:16.567-04:00", "avatar": "https://avatars.slack-edge.com/2025-07-22/9240267276868_0cb54c2a32ac7e9c3941_original.jpg", "custom_css": null}, {"id": 18297, "slack_id": "U097G6B9ZLG", "display_name": "Sam", "bio": null, "projects_count": 0, "devlogs_count": 0, "votes_count": 0, "ships_count": 0, "projects": [], "coding_time_seconds": 0, "coding_time_seconds_today": 0, "balance": "You need to have a pocket watcher badge to view this.", "badges": [], "created_at": "2025-07-22T20:13:50.212-04:00", "updated_at": "2025-07-23T15:53:55.985-04:00", "avatar": "https://secure.gravatar.com/avatar/3ec21b7953b9b9bd9913ae3e93ac6cc2.jpg?s=512&d=https%3A%2F%2Fa.slack-edge.com%2Fdf10d%2Fimg%2Favatars%2Fava_0009-512.png", "custom_css": null}, {"id": 18298, "slack_id": "U096QHCHY9L", "display_name": "Abeha Hussain", "bio": null, "projects_count": 0, "devlogs_count": 0, "votes_count": 0, "ships_count": 0, "projects": [], "coding_time_seconds": 0, "coding_time_seconds_today": 0, "balance": "You need to have a pocket watcher badge to view this.", "badges": [], "created_at": "2025-07-22T20:19:18.588-04:00", "updated_at": "2025-07-22T21:37:16.737-04:00", "avatar": "https://secure.gravatar.com/avatar/f3a2d4f1120fb64d486f058820fc8267.jpg?s=512&d=https%3A%2F%2Fa.slack-edge.com%2Fdf10d%2Fimg%2Favatars%2Fava_0018-512.png", "custom_css": null}, {"id": 18299, "slack_id": "U096Z6Z8REZ", "display_name": "Bond Liu", "bio": null, "projects_count": 2, "devlogs_count": 1, "votes_count": 20, "ships_count": 1, "projects": [{"id": 7752, "title": "Wake up morning app", "devlogs_count": 0, "created_at": "2025-07-22T21:34:51.686-04:00"}, {"id": 13562, "title": "My Portfolio", "devlogs_count": 1, "created_at": "2025-09-19T14:40:42.884-04:00"}], "coding_time_seconds": 70401, "coding_time_seconds_today": 0, "balance": "You need to have a pocket watcher badge to view this.", "badges": [{"name": "Maiden Voyage", "text": "you shipped your first project! the journey begins...", "icon": "\ud83d\udea2"}], "created_at": "2025-07-22T20:20:17.851-04:00", "updated_at": "2025-09-22T16:15:15.663-04:00", "avatar": "https://avatars.slack-edge.com/2025-09-13/9509828862067_2aa2d2ef75e9a9942786_original.jpg", "custom_css": null}, {"id": 18300, "slack_id": "U096Y4CDC86", "display_name": "CursedMushroom", "bio": null, "projects_count": 0, "devlogs_count": 0, "votes_count": 0, "ships_count": 0, "projects": [], "coding_time_seconds": 0, "coding_time_seconds_today": 0, "balance": "You need to have a pocket watcher badge to view this.", "badges": [], "created_at": "2025-07-22T20:20:57.431-04:00", "updated_at": "2025-07-22T21:37:20.931-04:00", "avatar": "https://secure.gravatar.com/avatar/ad989596d5acef3b38df84678efffa82.jpg?s=512&d=https%3A%2F%2Fa.slack-edge.com%2Fdf10d%2Fimg%2Favatars%2Fava_0003-512.png", "custom_css": null}, {"id": 18301, "slack_id": "U097288BADA", "display_name": "Ryan Zheng", "bio": null, "projects_count": 0, "devlogs_count": 0, "votes_count": 0, "ships_count": 0, "projects": [], "coding_time_seconds": 20930, "coding_time_seconds_today": 0, "balance": "You need to have a pocket watcher badge to view this.", "badges": [], "created_at": "2025-07-22T20:20:58.393-04:00", "updated_at": "2025-07-23T01:20:00.779-04:00", "avatar": "https://secure.gravatar.com/avatar/a912fa018211ba3fedc551572c10c23f.jpg?s=512&d=https%3A%2F%2Fa.slack-edge.com%2Fdf10d%2Fimg%2Favatars%2Fava_0026-512.png", "custom_css": null}, {"id": 18302, "slack_id": "U096VN78W03", "display_name": "Iaroslav", "bio": null, "projects_count": 0, "devlogs_count": 0, "votes_count": 0, "ships_count": 0, "projects": [], "coding_time_seconds": 153647, "coding_time_seconds_today": 0, "balance": "You need to have a pocket watcher badge to view this.", "badges": [], "created_at": "2025-07-22T20:21:28.950-04:00", "updated_at": "2025-07-26T19:19:20.700-04:00", "avatar": "https://secure.gravatar.com/avatar/7a7087b20e352ba8236933096b41244c.jpg?s=512&d=https%3A%2F%2Fa.slack-edge.com%2Fdf10d%2Fimg%2Favatars%2Fava_0008-512.png", "custom_css": null}, {"id": 18303, "slack_id": "U096Z79PG9K", "display_name": "setofR", "bio": null, "projects_count": 1, "devlogs_count": 0, "votes_count": 3, "ships_count": 0, "projects": [{"id": 7745, "title": "StarGuard", "devlogs_count": 0, "created_at": "2025-07-22T20:44:47.490-04:00"}], "coding_time_seconds": 2413, "coding_time_seconds_today": 0, "balance": "You need to have a pocket watcher badge to view this.", "badges": [], "created_at": "2025-07-22T20:25:59.715-04:00", "updated_at": "2025-08-16T05:41:35.088-04:00", "avatar": "https://avatars.slack-edge.com/2025-07-23/9236265918518_8ff79cbf1e277d07a4e4_original.png", "custom_css": null}, {"id": 18304, "slack_id": "U096L5RP05V", "display_name": "Kearsley Erawan", "bio": null, "projects_count": 1, "devlogs_count": 0, "votes_count": 0, "ships_count": 0, "projects": [{"id": 8091, "title": "She Makes Cents", "devlogs_count": 0, "created_at": "2025-07-24T14:29:22.735-04:00"}], "coding_time_seconds": 4389, "coding_time_seconds_today": 0, "balance": "You need to have a pocket watcher badge to view this.", "badges": [], "created_at": "2025-07-22T20:41:59.245-04:00", "updated_at": "2025-07-24T04:47:07.045-04:00", "avatar": "https://secure.gravatar.com/avatar/dea99358b67961bddb1f7d5333a308fe.jpg?s=512&d=https%3A%2F%2Fa.slack-edge.com%2Fdf10d%2Fimg%2Favatars%2Fava_0009-512.png", "custom_css": null}, {"id": 18305, "slack_id": "U096VQ6UETV", "display_name": "Narasimha Karthik  Jwalapuram", "bio": null, "projects_count": 0, "devlogs_count": 0, "votes_count": 0, "ships_count": 0, "projects": [], "coding_time_seconds": 0, "coding_time_seconds_today": 0, "balance": "You need to have a pocket watcher badge to view this.", "badges": [], "created_at": "2025-07-22T20:45:59.228-04:00", "updated_at": "2025-07-22T21:37:21.349-04:00", "avatar": "https://secure.gravatar.com/avatar/6f95c290f3fea932e1546832470a1000.jpg?s=512&d=https%3A%2F%2Fa.slack-edge.com%2Fdf10d%2Fimg%2Favatars%2Fava_0023-512.png", "custom_css": null}], "pagination": {"page": 911, "pages": 1192, "count": 23828, "items": 20}}