{"users": [{"id": 18306, "slack_id": "U096VR60X6F", "display_name": "Ramit Neupane", "bio": null, "projects_count": 1, "devlogs_count": 0, "votes_count": 0, "ships_count": 0, "projects": [{"id": 13228, "title": "Writasy", "devlogs_count": 0, "created_at": "2025-09-12T04:29:27.897-04:00"}], "coding_time_seconds": 75161, "coding_time_seconds_today": 869, "balance": "You need to have a pocket watcher badge to view this.", "badges": [], "created_at": "2025-07-22T20:53:51.773-04:00", "updated_at": "2025-09-11T09:49:01.825-04:00", "avatar": "https://avatars.slack-edge.com/2025-09-02/9445267958229_bdb857835220a60bc1eb_original.jpg", "custom_css": null}, {"id": 18307, "slack_id": "U096VR235FD", "display_name": "Shridhar kumar", "bio": null, "projects_count": 0, "devlogs_count": 0, "votes_count": 0, "ships_count": 0, "projects": [], "coding_time_seconds": 0, "coding_time_seconds_today": 0, "balance": "You need to have a pocket watcher badge to view this.", "badges": [], "created_at": "2025-07-22T20:55:50.056-04:00", "updated_at": "2025-07-22T21:37:21.511-04:00", "avatar": "https://secure.gravatar.com/avatar/d930c0ff97d7d40d1d3e7ca8229cdcea.jpg?s=512&d=https%3A%2F%2Fa.slack-edge.com%2Fdf10d%2Fimg%2Favatars%2Fava_0009-512.png", "custom_css": null}, {"id": 18308, "slack_id": "U096L7W93F1", "display_name": "Alex Lu", "bio": null, "projects_count": 0, "devlogs_count": 0, "votes_count": 0, "ships_count": 0, "projects": [], "coding_time_seconds": 68199, "coding_time_seconds_today": 0, "balance": "You need to have a pocket watcher badge to view this.", "badges": [], "created_at": "2025-07-22T21:04:47.722-04:00", "updated_at": "2025-07-23T13:35:59.020-04:00", "avatar": "https://secure.gravatar.com/avatar/b2bdda5b17a13daf6f2c5de204f90443.jpg?s=512&d=https%3A%2F%2Fa.slack-edge.com%2Fdf10d%2Fimg%2Favatars%2Fava_0010-512.png", "custom_css": null}, {"id": 18309, "slack_id": "U09719CHRMG", "display_name": "Jainish Patel", "bio": null, "projects_count": 0, "devlogs_count": 0, "votes_count": 0, "ships_count": 0, "projects": [], "coding_time_seconds": 0, "coding_time_seconds_today": 0, "balance": "You need to have a pocket watcher badge to view this.", "badges": [], "created_at": "2025-07-22T21:26:48.652-04:00", "updated_at": "2025-07-23T03:37:47.555-04:00", "avatar": "https://secure.gravatar.com/avatar/4fbc3e484a61291126baee7c725d29a0.jpg?s=512&d=https%3A%2F%2Fa.slack-edge.com%2Fdf10d%2Fimg%2Favatars%2Fava_0010-512.png", "custom_css": null}, {"id": 18310, "slack_id": "U097PH1628Y", "display_name": "Sabari R S", "bio": null, "projects_count": 3, "devlogs_count": 3, "votes_count": 51, "ships_count": 2, "projects": [{"id": 8300, "title": "WhenWorks", "devlogs_count": 0, "created_at": "2025-07-26T03:47:13.742-04:00"}, {"id": 11264, "title": "Did I lock my Door ?", "devlogs_count": 1, "created_at": "2025-08-14T11:48:59.042-04:00"}, {"id": 8211, "title": "Explain-it", "devlogs_count": 1, "created_at": "2025-07-25T09:16:24.927-04:00"}], "coding_time_seconds": 25035, "coding_time_seconds_today": 0, "balance": "You need to have a pocket watcher badge to view this.", "badges": [], "created_at": "2025-07-22T21:27:14.749-04:00", "updated_at": "2025-08-07T09:51:12.295-04:00", "avatar": "https://secure.gravatar.com/avatar/3a7504c29174bf0dc31074aeb87c977e.jpg?s=512&d=https%3A%2F%2Fa.slack-edge.com%2Fdf10d%2Fimg%2Favatars%2Fava_0024-512.png", "custom_css": null}, {"id": 18311, "slack_id": "U096VUP6T43", "display_name": "THNho", "bio": null, "projects_count": 0, "devlogs_count": 0, "votes_count": 0, "ships_count": 0, "projects": [], "coding_time_seconds": 0, "coding_time_seconds_today": 0, "balance": "You need to have a pocket watcher badge to view this.", "badges": [], "created_at": "2025-07-22T21:30:53.439-04:00", "updated_at": "2025-07-23T03:37:47.739-04:00", "avatar": "https://secure.gravatar.com/avatar/c95b99a587df9ef7ef7f4db44dcebb36.jpg?s=512&d=https%3A%2F%2Fa.slack-edge.com%2Fdf10d%2Fimg%2Favatars%2Fava_0019-512.png", "custom_css": null}, {"id": 18312, "slack_id": "U096VSSN7M1", "display_name": "Shravan", "bio": null, "projects_count": 0, "devlogs_count": 0, "votes_count": 0, "ships_count": 0, "projects": [], "coding_time_seconds": 0, "coding_time_seconds_today": 0, "balance": "You need to have a pocket watcher badge to view this.", "badges": [], "created_at": "2025-07-22T21:34:11.615-04:00", "updated_at": "2025-07-23T03:37:47.819-04:00", "avatar": "https://secure.gravatar.com/avatar/d22809050328fbc3c01190085af81ba5.jpg?s=512&d=https%3A%2F%2Fa.slack-edge.com%2Fdf10d%2Fimg%2Favatars%2Fava_0012-512.png", "custom_css": null}, {"id": 18313, "slack_id": "U096ZEN1T45", "display_name": "Samanyu Mahadevan", "bio": null, "projects_count": 0, "devlogs_count": 0, "votes_count": 0, "ships_count": 0, "projects": [], "coding_time_seconds": 33385, "coding_time_seconds_today": 0, "balance": "You need to have a pocket watcher badge to view this.", "badges": [], "created_at": "2025-07-22T21:39:31.728-04:00", "updated_at": "2025-07-23T03:37:47.903-04:00", "avatar": "https://avatars.slack-edge.com/2025-07-22/9236414153926_1608530746bb8188e1ee_original.jpg", "custom_css": null}, {"id": 18314, "slack_id": "U096LB3HN2K", "display_name": "MaxiF", "bio": null, "projects_count": 0, "devlogs_count": 0, "votes_count": 0, "ships_count": 0, "projects": [], "coding_time_seconds": 28679, "coding_time_seconds_today": 0, "balance": "You need to have a pocket watcher badge to view this.", "badges": [], "created_at": "2025-07-22T21:40:00.515-04:00", "updated_at": "2025-07-23T03:37:47.985-04:00", "avatar": "https://secure.gravatar.com/avatar/897d3563dfcaf83e157964e68f493537.jpg?s=512&d=https%3A%2F%2Fa.slack-edge.com%2Fdf10d%2Fimg%2Favatars%2Fava_0012-512.png", "custom_css": null}, {"id": 18315, "slack_id": "U096LB5UF71", "display_name": "Ronak Rupani", "bio": null, "projects_count": 2, "devlogs_count": 3, "votes_count": 2, "ships_count": 1, "projects": [{"id": 7923, "title": "SillyFilz", "devlogs_count": 2, "created_at": "2025-07-23T16:42:26.747-04:00"}, {"id": 7994, "title": "RecipeSaver", "devlogs_count": 1, "created_at": "2025-07-24T00:10:50.806-04:00"}], "coding_time_seconds": 20334, "coding_time_seconds_today": 0, "balance": "You need to have a pocket watcher badge to view this.", "badges": [], "created_at": "2025-07-22T21:40:14.711-04:00", "updated_at": "2025-08-07T22:30:33.408-04:00", "avatar": "https://avatars.slack-edge.com/2025-07-22/9261640246032_a180fdb13a9045c2f686_original.jpg", "custom_css": null}, {"id": 18316, "slack_id": "U0972F80PE0", "display_name": "Tomas Gorodetzky", "bio": null, "projects_count": 0, "devlogs_count": 0, "votes_count": 0, "ships_count": 0, "projects": [], "coding_time_seconds": 0, "coding_time_seconds_today": 0, "balance": "You need to have a pocket watcher badge to view this.", "badges": [], "created_at": "2025-07-22T21:41:19.584-04:00", "updated_at": "2025-07-23T03:37:48.153-04:00", "avatar": "https://avatars.slack-edge.com/2025-07-22/9261643497552_2b1f0ef99d0794301513_original.jpg", "custom_css": null}, {"id": 18317, "slack_id": "U096YC3PLNA", "display_name": "Deepak Denre", "bio": null, "projects_count": 0, "devlogs_count": 0, "votes_count": 0, "ships_count": 0, "projects": [], "coding_time_seconds": 0, "coding_time_seconds_today": 0, "balance": "You need to have a pocket watcher badge to view this.", "badges": [], "created_at": "2025-07-22T21:42:10.806-04:00", "updated_at": "2025-07-23T03:37:48.239-04:00", "avatar": "https://secure.gravatar.com/avatar/d57e0f707d52daeb5d3375663e470260.jpg?s=512&d=https%3A%2F%2Fa.slack-edge.com%2Fdf10d%2Fimg%2Favatars%2Fava_0021-512.png", "custom_css": null}, {"id": 18318, "slack_id": "U096NGQA58B", "display_name": "Jayant Anand Jha", "bio": null, "projects_count": 0, "devlogs_count": 0, "votes_count": 0, "ships_count": 0, "projects": [], "coding_time_seconds": 0, "coding_time_seconds_today": 0, "balance": "You need to have a pocket watcher badge to view this.", "badges": [], "created_at": "2025-07-22T21:43:05.039-04:00", "updated_at": "2025-07-23T03:37:48.349-04:00", "avatar": "https://secure.gravatar.com/avatar/523ffa88f8d0c29ff535bee7bd6dc020.jpg?s=512&d=https%3A%2F%2Fa.slack-edge.com%2Fdf10d%2Fimg%2Favatars%2Fava_0007-512.png", "custom_css": null}, {"id": 18319, "slack_id": "U07QKHJKLN6", "display_name": "ved patel", "bio": null, "projects_count": 1, "devlogs_count": 2, "votes_count": 6, "ships_count": 1, "projects": [{"id": 8074, "title": "AlbumMagic", "devlogs_count": 2, "created_at": "2025-07-24T11:56:04.921-04:00"}], "coding_time_seconds": 293062, "coding_time_seconds_today": 0, "balance": "You need to have a pocket watcher badge to view this.", "badges": [], "created_at": "2025-07-22T21:47:02.934-04:00", "updated_at": "2025-08-26T16:23:14.411-04:00", "avatar": "https://avatars.slack-edge.com/2024-10-07/7840511863685_eb28b8e7a797038037c6_original.png", "custom_css": null}, {"id": 18320, "slack_id": "U096W0W1X2P", "display_name": "Krishay Suresh", "bio": null, "projects_count": 0, "devlogs_count": 0, "votes_count": 0, "ships_count": 0, "projects": [], "coding_time_seconds": 0, "coding_time_seconds_today": 0, "balance": "You need to have a pocket watcher badge to view this.", "badges": [], "created_at": "2025-07-22T21:48:54.101-04:00", "updated_at": "2025-07-23T03:37:48.504-04:00", "avatar": "https://secure.gravatar.com/avatar/8e03e83873080a6c9ffe93f04ac70664.jpg?s=512&d=https%3A%2F%2Fa.slack-edge.com%2Fdf10d%2Fimg%2Favatars%2Fava_0021-512.png", "custom_css": null}, {"id": 18321, "slack_id": "U096W1G7Q83", "display_name": "Violet", "bio": null, "projects_count": 0, "devlogs_count": 0, "votes_count": 0, "ships_count": 0, "projects": [], "coding_time_seconds": 0, "coding_time_seconds_today": 0, "balance": "You need to have a pocket watcher badge to view this.", "badges": [], "created_at": "2025-07-22T21:56:16.608-04:00", "updated_at": "2025-07-23T03:37:48.613-04:00", "avatar": "https://secure.gravatar.com/avatar/219102d1bbfd7ff0727f4042a5514079.jpg?s=512&d=https%3A%2F%2Fa.slack-edge.com%2Fdf10d%2Fimg%2Favatars%2Fava_0024-512.png", "custom_css": null}, {"id": 18322, "slack_id": "U0972GU06NQ", "display_name": "Seyon Satheesh", "bio": null, "projects_count": 2, "devlogs_count": 0, "votes_count": 0, "ships_count": 0, "projects": [{"id": 13474, "title": "FreeBoard Microcontroller", "devlogs_count": 0, "created_at": "2025-09-17T09:57:54.723-04:00"}, {"id": 8514, "title": "Centrolin", "devlogs_count": 0, "created_at": "2025-07-27T18:30:45.174-04:00"}], "coding_time_seconds": 62750, "coding_time_seconds_today": 0, "balance": "You need to have a pocket watcher badge to view this.", "badges": [], "created_at": "2025-07-22T21:56:45.190-04:00", "updated_at": "2025-09-18T12:12:22.864-04:00", "avatar": "https://secure.gravatar.com/avatar/24b4e2f433280bea5a930183aee5090b.jpg?s=512&d=https%3A%2F%2Fa.slack-edge.com%2Fdf10d%2Fimg%2Favatars%2Fava_0022-512.png", "custom_css": null}, {"id": 18323, "slack_id": "U096YF2ELNA", "display_name": "Aliyon", "bio": null, "projects_count": 0, "devlogs_count": 0, "votes_count": 0, "ships_count": 0, "projects": [], "coding_time_seconds": 0, "coding_time_seconds_today": 0, "balance": "You need to have a pocket watcher badge to view this.", "badges": [], "created_at": "2025-07-22T22:13:45.295-04:00", "updated_at": "2025-07-23T03:37:48.780-04:00", "avatar": "https://secure.gravatar.com/avatar/57e04e57fd61564aa7ce439688f52eee.jpg?s=512&d=https%3A%2F%2Fa.slack-edge.com%2Fdf10d%2Fimg%2Favatars%2Fava_0012-512.png", "custom_css": null}, {"id": 18324, "slack_id": "U097EJUT79P", "display_name": "Knight", "bio": null, "projects_count": 0, "devlogs_count": 0, "votes_count": 0, "ships_count": 0, "projects": [], "coding_time_seconds": 0, "coding_time_seconds_today": 0, "balance": "You need to have a pocket watcher badge to view this.", "badges": [], "created_at": "2025-07-22T22:20:30.638-04:00", "updated_at": "2025-07-23T03:37:48.867-04:00", "avatar": "https://secure.gravatar.com/avatar/f811e713d5dcc68007f492f60400274e.jpg?s=512&d=https%3A%2F%2Fa.slack-edge.com%2Fdf10d%2Fimg%2Favatars%2Fava_0012-512.png", "custom_css": null}, {"id": 18325, "slack_id": "U096W47EWDR", "display_name": "SAURABH VISHWAKARMA", "bio": null, "projects_count": 0, "devlogs_count": 0, "votes_count": 0, "ships_count": 0, "projects": [], "coding_time_seconds": 0, "coding_time_seconds_today": 0, "balance": "You need to have a pocket watcher badge to view this.", "badges": [], "created_at": "2025-07-22T22:24:16.600-04:00", "updated_at": "2025-07-23T03:37:52.981-04:00", "avatar": "https://avatars.slack-edge.com/2025-07-22/9237652330949_70d2cee6bfa1af6f5512_original.png", "custom_css": null}], "pagination": {"page": 912, "pages": 1192, "count": 23828, "items": 20}}