{"users": [{"id": 18326, "slack_id": "U096LF5FDST", "display_name": "Mehak Priyadarshi", "bio": null, "projects_count": 0, "devlogs_count": 0, "votes_count": 0, "ships_count": 0, "projects": [], "coding_time_seconds": 46436, "coding_time_seconds_today": 0, "balance": "You need to have a pocket watcher badge to view this.", "badges": [], "created_at": "2025-07-22T22:25:21.601-04:00", "updated_at": "2025-07-23T03:37:53.061-04:00", "avatar": "https://avatars.slack-edge.com/2025-07-22/9239508553986_e165eefdeceaaa91e1b8_original.png", "custom_css": null}, {"id": 18327, "slack_id": "U0866AKK00L", "display_name": "Kenzie", "bio": "", "projects_count": 4, "devlogs_count": 7, "votes_count": 28, "ships_count": 2, "projects": [{"id": 7859, "title": "[PLACEHOLDER] Allkeys", "devlogs_count": 2, "created_at": "2025-07-23T10:23:46.011-04:00"}, {"id": 10630, "title": "Rayshark", "devlogs_count": 3, "created_at": "2025-08-09T06:08:20.765-04:00"}, {"id": 12551, "title": "StudyPal", "devlogs_count": 1, "created_at": "2025-08-29T10:52:37.636-04:00"}, {"id": 9697, "title": "Personal website", "devlogs_count": 1, "created_at": "2025-08-02T03:56:43.601-04:00"}], "coding_time_seconds": 191235, "coding_time_seconds_today": 12558, "balance": "You need to have a pocket watcher badge to view this.", "badges": [], "created_at": "2025-07-22T22:33:31.863-04:00", "updated_at": "2025-08-09T07:03:17.514-04:00", "avatar": "https://secure.gravatar.com/avatar/97d3d039154a98073550d51e3e5e3897.jpg?s=512&d=https%3A%2F%2Fa.slack-edge.com%2Fdf10d%2Fimg%2Favatars%2Fava_0018-512.png", "custom_css": null}, {"id": 18328, "slack_id": "U096HGN69CP", "display_name": "Chary Workspace", "bio": null, "projects_count": 0, "devlogs_count": 0, "votes_count": 0, "ships_count": 0, "projects": [], "coding_time_seconds": 0, "coding_time_seconds_today": 0, "balance": "You need to have a pocket watcher badge to view this.", "badges": [], "created_at": "2025-07-22T22:34:42.305-04:00", "updated_at": "2025-07-23T03:37:57.273-04:00", "avatar": "https://secure.gravatar.com/avatar/5cdc01c0ecc31f7db58a456c3b7c7555.jpg?s=512&d=https%3A%2F%2Fa.slack-edge.com%2Fdf10d%2Fimg%2Favatars%2Fava_0023-512.png", "custom_css": null}, {"id": 18329, "slack_id": "U0972LU7420", "display_name": "Levi Kuhaulua", "bio": null, "projects_count": 0, "devlogs_count": 0, "votes_count": 0, "ships_count": 0, "projects": [], "coding_time_seconds": 0, "coding_time_seconds_today": 0, "balance": "You need to have a pocket watcher badge to view this.", "badges": [], "created_at": "2025-07-22T22:37:52.734-04:00", "updated_at": "2025-07-23T03:37:57.365-04:00", "avatar": "https://secure.gravatar.com/avatar/9575da7b0b8a91dbc93e90affe4299f9.jpg?s=512&d=https%3A%2F%2Fa.slack-edge.com%2Fdf10d%2Fimg%2Favatars%2Fava_0013-512.png", "custom_css": null}, {"id": 18330, "slack_id": "U096ZKXE6AH", "display_name": "Abhishek Maurya", "bio": "", "projects_count": 0, "devlogs_count": 0, "votes_count": 0, "ships_count": 0, "projects": [], "coding_time_seconds": 133388, "coding_time_seconds_today": 2662, "balance": "You need to have a pocket watcher badge to view this.", "badges": [], "created_at": "2025-07-22T22:38:26.985-04:00", "updated_at": "2025-08-17T11:46:02.866-04:00", "avatar": "https://secure.gravatar.com/avatar/ddcd1463ad54b1ba6afa0920e5118ead.jpg?s=512&d=https%3A%2F%2Fa.slack-edge.com%2Fdf10d%2Fimg%2Favatars%2Fava_0002-512.png", "custom_css": null}, {"id": 18331, "slack_id": "U096YJELELE", "display_name": "Anabelle Ahteck", "bio": null, "projects_count": 3, "devlogs_count": 2, "votes_count": 0, "ships_count": 0, "projects": [{"id": 7966, "title": "Silly Car Game", "devlogs_count": 0, "created_at": "2025-07-23T21:47:45.045-04:00"}, {"id": 7976, "title": "2048 Eeveelutions", "devlogs_count": 0, "created_at": "2025-07-23T22:31:00.112-04:00"}, {"id": 7965, "title": "UAS-SAR", "devlogs_count": 2, "created_at": "2025-07-23T21:46:22.391-04:00"}], "coding_time_seconds": 62104, "coding_time_seconds_today": 0, "balance": "You need to have a pocket watcher badge to view this.", "badges": [], "created_at": "2025-07-22T22:52:22.209-04:00", "updated_at": "2025-07-25T22:46:28.705-04:00", "avatar": "https://avatars.slack-edge.com/2025-07-22/9240758893700_827b949520177fee6c30_original.jpg", "custom_css": null}, {"id": 18332, "slack_id": "U0971H5A5QA", "display_name": "Dinh Tan", "bio": null, "projects_count": 0, "devlogs_count": 0, "votes_count": 0, "ships_count": 0, "projects": [], "coding_time_seconds": 0, "coding_time_seconds_today": 0, "balance": "You need to have a pocket watcher badge to view this.", "badges": [], "created_at": "2025-07-22T22:56:03.541-04:00", "updated_at": "2025-07-23T03:37:57.613-04:00", "avatar": "https://secure.gravatar.com/avatar/7eff96278f8a30034dbc3eedcb138683.jpg?s=512&d=https%3A%2F%2Fa.slack-edge.com%2Fdf10d%2Fimg%2Favatars%2Fava_0010-512.png", "custom_css": null}, {"id": 18333, "slack_id": "U096ZMXV19T", "display_name": "Leonardo Rangel", "bio": null, "projects_count": 0, "devlogs_count": 0, "votes_count": 0, "ships_count": 0, "projects": [], "coding_time_seconds": 94825, "coding_time_seconds_today": 0, "balance": "You need to have a pocket watcher badge to view this.", "badges": [], "created_at": "2025-07-22T22:59:50.683-04:00", "updated_at": "2025-07-23T03:37:57.718-04:00", "avatar": "https://secure.gravatar.com/avatar/5654914a807be0031ae244f6df099e0b.jpg?s=512&d=https%3A%2F%2Fa.slack-edge.com%2Fdf10d%2Fimg%2Favatars%2Fava_0024-512.png", "custom_css": null}, {"id": 18334, "slack_id": "U015PF52MH8", "display_name": "rotense", "bio": null, "projects_count": 0, "devlogs_count": 0, "votes_count": 0, "ships_count": 0, "projects": [], "coding_time_seconds": 0, "coding_time_seconds_today": 0, "balance": "You need to have a pocket watcher badge to view this.", "badges": [], "created_at": "2025-07-22T23:03:51.033-04:00", "updated_at": "2025-07-23T03:37:57.813-04:00", "avatar": "https://avatars.slack-edge.com/2020-06-18/1217357888864_d1cff1e3fe4d75ba0946_original.jpg", "custom_css": null}, {"id": 18335, "slack_id": "U096VU1P42X", "display_name": "Deepanshu Pathak", "bio": null, "projects_count": 1, "devlogs_count": 1, "votes_count": 2, "ships_count": 0, "projects": [{"id": 7833, "title": "Real-time-chat app", "devlogs_count": 1, "created_at": "2025-07-23T08:02:27.445-04:00"}], "coding_time_seconds": 6127, "coding_time_seconds_today": 0, "balance": "You need to have a pocket watcher badge to view this.", "badges": [], "created_at": "2025-07-22T23:03:57.253-04:00", "updated_at": "2025-08-28T08:26:31.485-04:00", "avatar": "https://secure.gravatar.com/avatar/528730715934bbd8903786e65382d7f1.jpg?s=512&d=https%3A%2F%2Fa.slack-edge.com%2Fdf10d%2Fimg%2Favatars%2Fava_0021-512.png", "custom_css": null}, {"id": 18336, "slack_id": "U0972P6DDAQ", "display_name": "matt", "bio": null, "projects_count": 0, "devlogs_count": 0, "votes_count": 0, "ships_count": 0, "projects": [], "coding_time_seconds": 0, "coding_time_seconds_today": 0, "balance": "You need to have a pocket watcher badge to view this.", "badges": [], "created_at": "2025-07-22T23:04:24.707-04:00", "updated_at": "2025-07-23T03:37:58.021-04:00", "avatar": "https://secure.gravatar.com/avatar/22e89fa9d7b7869dd46a04b13586f522.jpg?s=512&d=https%3A%2F%2Fa.slack-edge.com%2Fdf10d%2Fimg%2Favatars%2Fava_0009-512.png", "custom_css": null}, {"id": 18337, "slack_id": "U096YKP8D70", "display_name": "Sarah P", "bio": null, "projects_count": 0, "devlogs_count": 0, "votes_count": 0, "ships_count": 0, "projects": [], "coding_time_seconds": 0, "coding_time_seconds_today": 0, "balance": "You need to have a pocket watcher badge to view this.", "badges": [], "created_at": "2025-07-22T23:04:44.744-04:00", "updated_at": "2025-07-23T03:37:58.109-04:00", "avatar": "https://secure.gravatar.com/avatar/d5b87144a98470fb610dc3b5507c6494.jpg?s=512&d=https%3A%2F%2Fa.slack-edge.com%2Fdf10d%2Fimg%2Favatars%2Fava_0010-512.png", "custom_css": null}, {"id": 18338, "slack_id": "U097ER78PUZ", "display_name": "Md. Amanullah", "bio": null, "projects_count": 0, "devlogs_count": 0, "votes_count": 0, "ships_count": 0, "projects": [], "coding_time_seconds": 0, "coding_time_seconds_today": 0, "balance": "You need to have a pocket watcher badge to view this.", "badges": [], "created_at": "2025-07-22T23:22:56.949-04:00", "updated_at": "2025-07-24T07:33:22.140-04:00", "avatar": "https://secure.gravatar.com/avatar/a7b91437e7accaa64801cadf68d0100f.jpg?s=512&d=https%3A%2F%2Fa.slack-edge.com%2Fdf10d%2Fimg%2Favatars%2Fava_0011-512.png", "custom_css": null}, {"id": 18339, "slack_id": "U0971K7FGNN", "display_name": "PRATEEKSHA NAYAK", "bio": null, "projects_count": 0, "devlogs_count": 0, "votes_count": 0, "ships_count": 0, "projects": [], "coding_time_seconds": 0, "coding_time_seconds_today": 0, "balance": "You need to have a pocket watcher badge to view this.", "badges": [], "created_at": "2025-07-22T23:24:47.978-04:00", "updated_at": "2025-07-23T07:31:42.360-04:00", "avatar": "https://secure.gravatar.com/avatar/d6e30337acd5909a58c7b46980bace37.jpg?s=512&d=https%3A%2F%2Fa.slack-edge.com%2Fdf10d%2Fimg%2Favatars%2Fava_0000-512.png", "custom_css": null}, {"id": 18340, "slack_id": "U096W85ELQ3", "display_name": "Manya", "bio": null, "projects_count": 0, "devlogs_count": 0, "votes_count": 0, "ships_count": 0, "projects": [], "coding_time_seconds": 0, "coding_time_seconds_today": 0, "balance": "You need to have a pocket watcher badge to view this.", "badges": [], "created_at": "2025-07-22T23:28:27.626-04:00", "updated_at": "2025-07-23T03:37:58.416-04:00", "avatar": "https://secure.gravatar.com/avatar/23aa09d7cf4cba4a359e60372aa03d40.jpg?s=512&d=https%3A%2F%2Fa.slack-edge.com%2Fdf10d%2Fimg%2Favatars%2Fava_0019-512.png", "custom_css": null}, {"id": 18341, "slack_id": "U097PTW4M16", "display_name": "Naman", "bio": null, "projects_count": 0, "devlogs_count": 0, "votes_count": 0, "ships_count": 0, "projects": [], "coding_time_seconds": 0, "coding_time_seconds_today": 0, "balance": "You need to have a pocket watcher badge to view this.", "badges": [], "created_at": "2025-07-22T23:29:50.881-04:00", "updated_at": "2025-07-23T03:37:58.864-04:00", "avatar": "https://secure.gravatar.com/avatar/f5959476ae4d4c020ae11aafa1b4a614.jpg?s=512&d=https%3A%2F%2Fa.slack-edge.com%2Fdf10d%2Fimg%2Favatars%2Fava_0008-512.png", "custom_css": null}, {"id": 18342, "slack_id": "U07B937J278", "display_name": "Vansh Goel", "bio": null, "projects_count": 0, "devlogs_count": 0, "votes_count": 0, "ships_count": 0, "projects": [], "coding_time_seconds": 0, "coding_time_seconds_today": 0, "balance": "You need to have a pocket watcher badge to view this.", "badges": [], "created_at": "2025-07-22T23:38:24.687-04:00", "updated_at": "2025-07-23T03:37:58.960-04:00", "avatar": "https://secure.gravatar.com/avatar/0b1a189a0fb3289c57d977e63cee5af1.jpg?s=512&d=https%3A%2F%2Fa.slack-edge.com%2Fdf10d%2Fimg%2Favatars%2Fava_0023-512.png", "custom_css": null}, {"id": 18343, "slack_id": "U0971L9TEE6", "display_name": "Renata C", "bio": null, "projects_count": 0, "devlogs_count": 0, "votes_count": 0, "ships_count": 0, "projects": [], "coding_time_seconds": 0, "coding_time_seconds_today": 0, "balance": "You need to have a pocket watcher badge to view this.", "badges": [], "created_at": "2025-07-22T23:38:51.457-04:00", "updated_at": "2025-07-23T03:38:03.184-04:00", "avatar": "https://avatars.slack-edge.com/2025-07-22/9252914868705_73b47c075102deb72418_original.png", "custom_css": null}, {"id": 18344, "slack_id": "U0892DPQRC6", "display_name": "cooldood", "bio": null, "projects_count": 0, "devlogs_count": 0, "votes_count": 0, "ships_count": 0, "projects": [], "coding_time_seconds": 0, "coding_time_seconds_today": 0, "balance": "You need to have a pocket watcher badge to view this.", "badges": [], "created_at": "2025-07-22T23:41:51.957-04:00", "updated_at": "2025-07-22T23:41:58.859-04:00", "avatar": "https://secure.gravatar.com/avatar/7e8ceb7196706296f06b90d62184a19a.jpg?s=512&d=https%3A%2F%2Fa.slack-edge.com%2Fdf10d%2Fimg%2Favatars%2Fava_0013-512.png", "custom_css": null}, {"id": 18345, "slack_id": "U097ET77BCZ", "display_name": "Anuj Jain", "bio": null, "projects_count": 0, "devlogs_count": 0, "votes_count": 0, "ships_count": 0, "projects": [], "coding_time_seconds": 0, "coding_time_seconds_today": 0, "balance": "You need to have a pocket watcher badge to view this.", "badges": [], "created_at": "2025-07-22T23:47:04.535-04:00", "updated_at": "2025-07-23T03:38:03.391-04:00", "avatar": "https://avatars.slack-edge.com/2025-07-22/9236797784438_0ddc0f1dd0bb3e373fca_original.jpg", "custom_css": null}], "pagination": {"page": 913, "pages": 1192, "count": 23828, "items": 20}}