{"users": [{"id": 18346, "slack_id": "U096ZSFEQLV", "display_name": "Edwin Jose George", "bio": null, "projects_count": 0, "devlogs_count": 0, "votes_count": 0, "ships_count": 0, "projects": [], "coding_time_seconds": 0, "coding_time_seconds_today": 0, "balance": "You need to have a pocket watcher badge to view this.", "badges": [], "created_at": "2025-07-22T23:51:36.434-04:00", "updated_at": "2025-07-23T03:38:03.547-04:00", "avatar": "https://secure.gravatar.com/avatar/fa32e6011033b5e53533943bd4bfda3c.jpg?s=512&d=https%3A%2F%2Fa.slack-edge.com%2Fdf10d%2Fimg%2Favatars%2Fava_0021-512.png", "custom_css": null}, {"id": 18347, "slack_id": "U096WC1V1D1", "display_name": "tianyimc", "bio": null, "projects_count": 1, "devlogs_count": 0, "votes_count": 0, "ships_count": 0, "projects": [{"id": 8027, "title": "yimc web", "devlogs_count": 0, "created_at": "2025-07-24T05:43:38.361-04:00"}], "coding_time_seconds": 3510, "coding_time_seconds_today": 0, "balance": "You need to have a pocket watcher badge to view this.", "badges": [], "created_at": "2025-07-23T00:03:24.161-04:00", "updated_at": "2025-07-24T05:36:54.877-04:00", "avatar": "https://secure.gravatar.com/avatar/9f4cb8054b1836d153d3bf57f9218ec1.jpg?s=512&d=https%3A%2F%2Fa.slack-edge.com%2Fdf10d%2Fimg%2Favatars%2Fava_0026-512.png", "custom_css": null}, {"id": 18348, "slack_id": "U0971P1K8KC", "display_name": "Hemanth", "bio": null, "projects_count": 0, "devlogs_count": 0, "votes_count": 0, "ships_count": 0, "projects": [], "coding_time_seconds": 0, "coding_time_seconds_today": 0, "balance": "You need to have a pocket watcher badge to view this.", "badges": [], "created_at": "2025-07-23T00:07:16.344-04:00", "updated_at": "2025-07-23T03:38:03.749-04:00", "avatar": "https://secure.gravatar.com/avatar/b0ca1ffed5360d559d36dfbcdcc1e614.jpg?s=512&d=https%3A%2F%2Fa.slack-edge.com%2Fdf10d%2Fimg%2Favatars%2Fava_0016-512.png", "custom_css": null}, {"id": 18349, "slack_id": "U08SS8CKDL1", "display_name": "Dhron Patel", "bio": null, "projects_count": 0, "devlogs_count": 0, "votes_count": 1, "ships_count": 0, "projects": [], "coding_time_seconds": 382260, "coding_time_seconds_today": 0, "balance": "You need to have a pocket watcher badge to view this.", "badges": [], "created_at": "2025-07-23T00:08:32.080-04:00", "updated_at": "2025-08-05T08:37:32.492-04:00", "avatar": "https://secure.gravatar.com/avatar/8c8c0453f0f047bdb7401823c15fa615.jpg?s=512&d=https%3A%2F%2Fa.slack-edge.com%2Fdf10d%2Fimg%2Favatars%2Fava_0017-512.png", "custom_css": null}, {"id": 18350, "slack_id": "U096RE9PSJH", "display_name": "jason", "bio": null, "projects_count": 0, "devlogs_count": 0, "votes_count": 0, "ships_count": 0, "projects": [], "coding_time_seconds": 0, "coding_time_seconds_today": 0, "balance": "You need to have a pocket watcher badge to view this.", "badges": [], "created_at": "2025-07-23T00:12:05.718-04:00", "updated_at": "2025-07-23T03:38:03.939-04:00", "avatar": "https://secure.gravatar.com/avatar/c96f1210ccab733e7bb85e7fedd06e80.jpg?s=512&d=https%3A%2F%2Fa.slack-edge.com%2Fdf10d%2Fimg%2Favatars%2Fava_0006-512.png", "custom_css": null}, {"id": 18351, "slack_id": "U096GEAVCT1", "display_name": "Aditya", "bio": null, "projects_count": 0, "devlogs_count": 0, "votes_count": 0, "ships_count": 0, "projects": [], "coding_time_seconds": 11684, "coding_time_seconds_today": 0, "balance": "You need to have a pocket watcher badge to view this.", "badges": [], "created_at": "2025-07-23T00:14:46.725-04:00", "updated_at": "2025-07-23T03:38:04.028-04:00", "avatar": "https://secure.gravatar.com/avatar/d62b1ad524076498f9ca3da2acdbbc84.jpg?s=512&d=https%3A%2F%2Fa.slack-edge.com%2Fdf10d%2Fimg%2Favatars%2Fava_0000-512.png", "custom_css": null}, {"id": 18352, "slack_id": "U097303PCNQ", "display_name": "Sanvi Rathore", "bio": null, "projects_count": 0, "devlogs_count": 0, "votes_count": 0, "ships_count": 0, "projects": [], "coding_time_seconds": 0, "coding_time_seconds_today": 0, "balance": "You need to have a pocket watcher badge to view this.", "badges": [], "created_at": "2025-07-23T00:20:29.147-04:00", "updated_at": "2025-07-23T03:38:04.108-04:00", "avatar": "https://avatars.slack-edge.com/2025-07-22/9224852510743_bc281966fa5e6e0335c0_original.jpg", "custom_css": null}, {"id": 18353, "slack_id": "U097F0KRTAM", "display_name": "Omkar Potangale", "bio": null, "projects_count": 0, "devlogs_count": 0, "votes_count": 0, "ships_count": 0, "projects": [], "coding_time_seconds": 0, "coding_time_seconds_today": 0, "balance": "You need to have a pocket watcher badge to view this.", "badges": [], "created_at": "2025-07-23T00:21:13.955-04:00", "updated_at": "2025-07-23T03:38:04.222-04:00", "avatar": "https://secure.gravatar.com/avatar/873eeda855406ab7a363c01d1903eba5.jpg?s=512&d=https%3A%2F%2Fa.slack-edge.com%2Fdf10d%2Fimg%2Favatars%2Fava_0023-512.png", "custom_css": null}, {"id": 18354, "slack_id": "U096WF6SW1H", "display_name": "tah", "bio": null, "projects_count": 1, "devlogs_count": 0, "votes_count": 0, "ships_count": 0, "projects": [{"id": 8092, "title": "AI Moderation", "devlogs_count": 0, "created_at": "2025-07-24T14:35:27.665-04:00"}], "coding_time_seconds": 161408, "coding_time_seconds_today": 0, "balance": "You need to have a pocket watcher badge to view this.", "badges": [], "created_at": "2025-07-23T00:32:48.062-04:00", "updated_at": "2025-07-24T14:35:56.891-04:00", "avatar": "https://secure.gravatar.com/avatar/b433f026eab91b1609f1a2199a7e2bf6.jpg?s=512&d=https%3A%2F%2Fa.slack-edge.com%2Fdf10d%2Fimg%2Favatars%2Fava_0020-512.png", "custom_css": null}, {"id": 18355, "slack_id": "U096YTR7ZP0", "display_name": "Haider Murtaza", "bio": null, "projects_count": 0, "devlogs_count": 0, "votes_count": 0, "ships_count": 0, "projects": [], "coding_time_seconds": 17289, "coding_time_seconds_today": 0, "balance": "You need to have a pocket watcher badge to view this.", "badges": [], "created_at": "2025-07-23T00:38:02.263-04:00", "updated_at": "2025-07-23T03:38:04.413-04:00", "avatar": "https://secure.gravatar.com/avatar/33a014dd952f253645d0b7cf905afa5f.jpg?s=512&d=https%3A%2F%2Fa.slack-edge.com%2Fdf10d%2Fimg%2Favatars%2Fava_0000-512.png", "custom_css": null}, {"id": 18356, "slack_id": "U096T1SA606", "display_name": "fenilmodi", "bio": null, "projects_count": 0, "devlogs_count": 0, "votes_count": 0, "ships_count": 0, "projects": [], "coding_time_seconds": 0, "coding_time_seconds_today": 0, "balance": "You need to have a pocket watcher badge to view this.", "badges": [], "created_at": "2025-07-23T00:38:42.798-04:00", "updated_at": "2025-07-23T03:38:08.543-04:00", "avatar": "https://secure.gravatar.com/avatar/a7835cc2c3a1abf7dcb8a47697cac79f.jpg?s=512&d=https%3A%2F%2Fa.slack-edge.com%2Fdf10d%2Fimg%2Favatars%2Fava_0001-512.png", "custom_css": null}, {"id": 18357, "slack_id": "U097013S59B", "display_name": "anidoesdev", "bio": null, "projects_count": 0, "devlogs_count": 0, "votes_count": 0, "ships_count": 0, "projects": [], "coding_time_seconds": 137328, "coding_time_seconds_today": 0, "balance": "You need to have a pocket watcher badge to view this.", "badges": [], "created_at": "2025-07-23T00:40:16.804-04:00", "updated_at": "2025-07-28T12:10:23.520-04:00", "avatar": "https://secure.gravatar.com/avatar/569343fb3b4b596de2e8413cd22db6ea.jpg?s=512&d=https%3A%2F%2Fa.slack-edge.com%2Fdf10d%2Fimg%2Favatars%2Fava_0018-512.png", "custom_css": null}, {"id": 18358, "slack_id": "U09701B5K0V", "display_name": "TRIJAL P G", "bio": null, "projects_count": 0, "devlogs_count": 0, "votes_count": 0, "ships_count": 0, "projects": [], "coding_time_seconds": 5371, "coding_time_seconds_today": 0, "balance": "You need to have a pocket watcher badge to view this.", "badges": [], "created_at": "2025-07-23T00:40:18.706-04:00", "updated_at": "2025-07-23T03:38:08.822-04:00", "avatar": "https://avatars.slack-edge.com/2025-07-22/9262162306320_940be095227ec6bfd27f_original.jpg", "custom_css": null}, {"id": 18359, "slack_id": "U0971SF235G", "display_name": "Pranav Patil", "bio": null, "projects_count": 0, "devlogs_count": 0, "votes_count": 0, "ships_count": 0, "projects": [], "coding_time_seconds": 0, "coding_time_seconds_today": 0, "balance": "You need to have a pocket watcher badge to view this.", "badges": [], "created_at": "2025-07-23T00:45:12.477-04:00", "updated_at": "2025-07-23T03:38:08.917-04:00", "avatar": "https://secure.gravatar.com/avatar/dccc6ef7c8a20e849d2785316306ad5a.jpg?s=512&d=https%3A%2F%2Fa.slack-edge.com%2Fdf10d%2Fimg%2Favatars%2Fava_0014-512.png", "custom_css": null}, {"id": 18360, "slack_id": "U096XKA6718", "display_name": "Yashasvi", "bio": null, "projects_count": 0, "devlogs_count": 0, "votes_count": 0, "ships_count": 0, "projects": [], "coding_time_seconds": 0, "coding_time_seconds_today": 0, "balance": "You need to have a pocket watcher badge to view this.", "badges": [], "created_at": "2025-07-23T00:46:56.657-04:00", "updated_at": "2025-07-23T03:38:13.033-04:00", "avatar": "https://secure.gravatar.com/avatar/8c53e7878fbb2cdbab543a4afb5eeb84.jpg?s=512&d=https%3A%2F%2Fa.slack-edge.com%2Fdf10d%2Fimg%2Favatars%2Fava_0010-512.png", "custom_css": null}, {"id": 18361, "slack_id": "U096VB7B2QN", "display_name": "Duy \u0110\u1ed7 Ph\u00fac", "bio": null, "projects_count": 0, "devlogs_count": 0, "votes_count": 0, "ships_count": 0, "projects": [], "coding_time_seconds": 0, "coding_time_seconds_today": 0, "balance": "You need to have a pocket watcher badge to view this.", "badges": [], "created_at": "2025-07-23T00:51:13.910-04:00", "updated_at": "2025-07-28T20:26:55.589-04:00", "avatar": "https://avatars.slack-edge.com/2025-07-22/9241103253780_a476d45ec89f3dad6a90_original.jpg", "custom_css": null}, {"id": 18362, "slack_id": "U096WH28FNX", "display_name": "Usertim", "bio": null, "projects_count": 0, "devlogs_count": 0, "votes_count": 0, "ships_count": 0, "projects": [], "coding_time_seconds": 0, "coding_time_seconds_today": 0, "balance": "You need to have a pocket watcher badge to view this.", "badges": [], "created_at": "2025-07-23T00:56:27.958-04:00", "updated_at": "2025-07-23T03:38:13.205-04:00", "avatar": "https://secure.gravatar.com/avatar/17206080f496b160a6b8327e00d74769.jpg?s=512&d=https%3A%2F%2Fa.slack-edge.com%2Fdf10d%2Fimg%2Favatars%2Fava_0013-512.png", "custom_css": null}, {"id": 18363, "slack_id": "U096YV76M54", "display_name": "SATHISH .S", "bio": null, "projects_count": 0, "devlogs_count": 0, "votes_count": 0, "ships_count": 0, "projects": [], "coding_time_seconds": 0, "coding_time_seconds_today": 0, "balance": "You need to have a pocket watcher badge to view this.", "badges": [], "created_at": "2025-07-23T00:57:09.303-04:00", "updated_at": "2025-07-23T03:38:17.323-04:00", "avatar": "https://secure.gravatar.com/avatar/5413daa04bb117c4639f4683aac74e77.jpg?s=512&d=https%3A%2F%2Fa.slack-edge.com%2Fdf10d%2Fimg%2Favatars%2Fava_0021-512.png", "custom_css": null}, {"id": 18364, "slack_id": "U096Z0GMC6A", "display_name": "Sanji", "bio": null, "projects_count": 0, "devlogs_count": 0, "votes_count": 0, "ships_count": 0, "projects": [], "coding_time_seconds": 0, "coding_time_seconds_today": 0, "balance": "You need to have a pocket watcher badge to view this.", "badges": [], "created_at": "2025-07-23T01:05:58.157-04:00", "updated_at": "2025-07-23T03:38:17.406-04:00", "avatar": "https://secure.gravatar.com/avatar/e6c3a9fb1ff98af62808702436daee48.jpg?s=512&d=https%3A%2F%2Fa.slack-edge.com%2Fdf10d%2Fimg%2Favatars%2Fava_0022-512.png", "custom_css": null}, {"id": 18365, "slack_id": "U096LUXRM1D", "display_name": "Golam Alif", "bio": null, "projects_count": 2, "devlogs_count": 5, "votes_count": 19, "ships_count": 1, "projects": [{"id": 7843, "title": "Coder Music", "devlogs_count": 3, "created_at": "2025-07-23T08:49:33.788-04:00"}, {"id": 7883, "title": "Roaster AI", "devlogs_count": 2, "created_at": "2025-07-23T12:21:24.668-04:00"}], "coding_time_seconds": 10724, "coding_time_seconds_today": 0, "balance": "You need to have a pocket watcher badge to view this.", "badges": [], "created_at": "2025-07-23T01:07:07.115-04:00", "updated_at": "2025-07-23T03:38:17.486-04:00", "avatar": "https://avatars.slack-edge.com/2025-07-22/9239982922018_bd8ae2c9f40df860024e_original.png", "custom_css": null}], "pagination": {"page": 914, "pages": 1192, "count": 23828, "items": 20}}