{"users": [{"id": 18366, "slack_id": "U096WJRCJJX", "display_name": "Lovey", "bio": null, "projects_count": 0, "devlogs_count": 0, "votes_count": 0, "ships_count": 0, "projects": [], "coding_time_seconds": 0, "coding_time_seconds_today": 0, "balance": "You need to have a pocket watcher badge to view this.", "badges": [], "created_at": "2025-07-23T01:10:41.935-04:00", "updated_at": "2025-07-23T03:38:17.585-04:00", "avatar": "https://secure.gravatar.com/avatar/5bd90eec38c25aadaac31f2faf05264a.jpg?s=512&d=https%3A%2F%2Fa.slack-edge.com%2Fdf10d%2Fimg%2Favatars%2Fava_0016-512.png", "custom_css": null}, {"id": 18367, "slack_id": "U07FSGU68LF", "display_name": "Avyan", "bio": null, "projects_count": 2, "devlogs_count": 6, "votes_count": 20, "ships_count": 2, "projects": [{"id": 8219, "title": "Emotional Commiter", "devlogs_count": 2, "created_at": "2025-07-25T10:42:34.970-04:00"}, {"id": 7942, "title": "labX-iOS", "devlogs_count": 4, "created_at": "2025-07-23T18:23:12.785-04:00"}], "coding_time_seconds": 119028, "coding_time_seconds_today": 0, "balance": "You need to have a pocket watcher badge to view this.", "badges": [], "created_at": "2025-07-23T01:11:53.070-04:00", "updated_at": "2025-08-27T04:19:01.997-04:00", "avatar": "https://secure.gravatar.com/avatar/ea0f268f9ad001e588a026fa9630f677.jpg?s=512&d=https%3A%2F%2Fa.slack-edge.com%2Fdf10d%2Fimg%2Favatars%2Fava_0016-512.png", "custom_css": null}, {"id": 18368, "slack_id": "U096LVD9PQF", "display_name": "Raj Shah", "bio": null, "projects_count": 0, "devlogs_count": 0, "votes_count": 0, "ships_count": 0, "projects": [], "coding_time_seconds": 0, "coding_time_seconds_today": 0, "balance": "You need to have a pocket watcher badge to view this.", "badges": [], "created_at": "2025-07-23T01:13:44.271-04:00", "updated_at": "2025-07-23T03:38:17.769-04:00", "avatar": "https://secure.gravatar.com/avatar/0ad6d90d700897f41d6012051ecc7f62.jpg?s=512&d=https%3A%2F%2Fa.slack-edge.com%2Fdf10d%2Fimg%2Favatars%2Fava_0026-512.png", "custom_css": null}, {"id": 18369, "slack_id": "U096Z1WTF5L", "display_name": "dhruv", "bio": "", "projects_count": 0, "devlogs_count": 0, "votes_count": 0, "ships_count": 0, "projects": [], "coding_time_seconds": 70463, "coding_time_seconds_today": 0, "balance": "You need to have a pocket watcher badge to view this.", "badges": [], "created_at": "2025-07-23T01:16:28.575-04:00", "updated_at": "2025-07-23T03:38:17.845-04:00", "avatar": "https://secure.gravatar.com/avatar/4c55c58a9a752999efaf286bfc8f84d7.jpg?s=512&d=https%3A%2F%2Fa.slack-edge.com%2Fdf10d%2Fimg%2Favatars%2Fava_0016-512.png", "custom_css": null}, {"id": 18370, "slack_id": "U097Q7Z6S1W", "display_name": "Jake", "bio": null, "projects_count": 0, "devlogs_count": 0, "votes_count": 0, "ships_count": 0, "projects": [], "coding_time_seconds": 0, "coding_time_seconds_today": 0, "balance": "You need to have a pocket watcher badge to view this.", "badges": [], "created_at": "2025-07-23T01:19:14.587-04:00", "updated_at": "2025-07-23T03:38:17.927-04:00", "avatar": "https://secure.gravatar.com/avatar/6f862c80c40eff608a9aed8634891a9a.jpg?s=512&d=https%3A%2F%2Fa.slack-edge.com%2Fdf10d%2Fimg%2Favatars%2Fava_0024-512.png", "custom_css": null}, {"id": 18371, "slack_id": "U09721JG4N6", "display_name": "Adarsh", "bio": null, "projects_count": 1, "devlogs_count": 0, "votes_count": 0, "ships_count": 0, "projects": [{"id": 7779, "title": "OptiBlogAi", "devlogs_count": 0, "created_at": "2025-07-23T02:15:36.360-04:00"}], "coding_time_seconds": 21510, "coding_time_seconds_today": 0, "balance": "You need to have a pocket watcher badge to view this.", "badges": [], "created_at": "2025-07-23T01:32:24.373-04:00", "updated_at": "2025-07-24T07:24:01.149-04:00", "avatar": "https://secure.gravatar.com/avatar/987d240e551ab796760473635494c383.jpg?s=512&d=https%3A%2F%2Fa.slack-edge.com%2Fdf10d%2Fimg%2Favatars%2Fava_0006-512.png", "custom_css": null}, {"id": 18372, "slack_id": "U096X6LCXAR", "display_name": "faham", "bio": null, "projects_count": 0, "devlogs_count": 0, "votes_count": 0, "ships_count": 0, "projects": [], "coding_time_seconds": 0, "coding_time_seconds_today": 0, "balance": "You need to have a pocket watcher badge to view this.", "badges": [], "created_at": "2025-07-23T01:32:39.071-04:00", "updated_at": "2025-07-23T03:38:18.108-04:00", "avatar": "https://secure.gravatar.com/avatar/82431e3e648953e8dcbd0108f096f67a.jpg?s=512&d=https%3A%2F%2Fa.slack-edge.com%2Fdf10d%2Fimg%2Favatars%2Fava_0021-512.png", "custom_css": null}, {"id": 18373, "slack_id": "U097PUW95PS", "display_name": "Kushal Desai", "bio": null, "projects_count": 0, "devlogs_count": 0, "votes_count": 0, "ships_count": 0, "projects": [], "coding_time_seconds": 0, "coding_time_seconds_today": 0, "balance": "You need to have a pocket watcher badge to view this.", "badges": [], "created_at": "2025-07-23T01:34:31.735-04:00", "updated_at": "2025-07-23T03:38:18.187-04:00", "avatar": "https://secure.gravatar.com/avatar/c140cd52d27229329659bf20e6111c5e.jpg?s=512&d=https%3A%2F%2Fa.slack-edge.com%2Fdf10d%2Fimg%2Favatars%2Fava_0012-512.png", "custom_css": null}, {"id": 18374, "slack_id": "U09680DBEJV", "display_name": "MansiN", "bio": null, "projects_count": 0, "devlogs_count": 0, "votes_count": 0, "ships_count": 0, "projects": [], "coding_time_seconds": 0, "coding_time_seconds_today": 0, "balance": "You need to have a pocket watcher badge to view this.", "badges": [], "created_at": "2025-07-23T01:35:10.284-04:00", "updated_at": "2025-07-23T03:38:18.266-04:00", "avatar": "https://secure.gravatar.com/avatar/88d6634e9fabd1942beeff9cb5b76f30.jpg?s=512&d=https%3A%2F%2Fa.slack-edge.com%2Fdf10d%2Fimg%2Favatars%2Fava_0003-512.png", "custom_css": null}, {"id": 18375, "slack_id": "U09736SGMCL", "display_name": "B Sri Manikanta", "bio": null, "projects_count": 0, "devlogs_count": 0, "votes_count": 0, "ships_count": 0, "projects": [], "coding_time_seconds": 0, "coding_time_seconds_today": 0, "balance": "You need to have a pocket watcher badge to view this.", "badges": [], "created_at": "2025-07-23T01:36:14.691-04:00", "updated_at": "2025-07-23T03:38:18.343-04:00", "avatar": "https://secure.gravatar.com/avatar/f27ddf97a857d7a6d6b072caa0e93d53.jpg?s=512&d=https%3A%2F%2Fa.slack-edge.com%2Fdf10d%2Fimg%2Favatars%2Fava_0021-512.png", "custom_css": null}, {"id": 18376, "slack_id": "U097Q1TFFDW", "display_name": "Vishwesh Nair", "bio": null, "projects_count": 0, "devlogs_count": 0, "votes_count": 0, "ships_count": 0, "projects": [], "coding_time_seconds": 0, "coding_time_seconds_today": 0, "balance": "You need to have a pocket watcher badge to view this.", "badges": [], "created_at": "2025-07-23T01:39:41.304-04:00", "updated_at": "2025-07-23T03:38:18.428-04:00", "avatar": "https://secure.gravatar.com/avatar/4a110703561d6111ecbaeb231da06e6d.jpg?s=512&d=https%3A%2F%2Fa.slack-edge.com%2Fdf10d%2Fimg%2Favatars%2Fava_0025-512.png", "custom_css": null}, {"id": 18377, "slack_id": "U09737G278U", "display_name": "Rajeshwari Senthilkumar", "bio": null, "projects_count": 1, "devlogs_count": 2, "votes_count": 3, "ships_count": 1, "projects": [{"id": 10430, "title": "Decision game", "devlogs_count": 2, "created_at": "2025-08-07T00:13:39.806-04:00"}], "coding_time_seconds": 4401, "coding_time_seconds_today": 0, "balance": "You need to have a pocket watcher badge to view this.", "badges": [], "created_at": "2025-07-23T01:43:17.160-04:00", "updated_at": "2025-08-07T08:26:02.000-04:00", "avatar": "https://secure.gravatar.com/avatar/6e56c2be667e23ba990c76f9aa779a59.jpg?s=512&d=https%3A%2F%2Fa.slack-edge.com%2Fdf10d%2Fimg%2Favatars%2Fava_0024-512.png", "custom_css": null}, {"id": 18378, "slack_id": "U096LV0HZQX", "display_name": "SK TAJUDDIN", "bio": null, "projects_count": 0, "devlogs_count": 0, "votes_count": 0, "ships_count": 0, "projects": [], "coding_time_seconds": 0, "coding_time_seconds_today": 0, "balance": "You need to have a pocket watcher badge to view this.", "badges": [], "created_at": "2025-07-23T01:45:41.013-04:00", "updated_at": "2025-07-23T03:38:22.632-04:00", "avatar": "https://avatars.slack-edge.com/2025-07-22/9262367837056_15b228cfddf333b90a27_original.jpg", "custom_css": null}, {"id": 18379, "slack_id": "U09722T56D8", "display_name": "Ryan Pan", "bio": null, "projects_count": 0, "devlogs_count": 0, "votes_count": 0, "ships_count": 0, "projects": [], "coding_time_seconds": 1694, "coding_time_seconds_today": 0, "balance": "You need to have a pocket watcher badge to view this.", "badges": [], "created_at": "2025-07-23T01:46:30.605-04:00", "updated_at": "2025-07-23T03:38:22.728-04:00", "avatar": "https://avatars.slack-edge.com/2025-07-22/9238282047109_20695bc8e24860e59879_original.jpg", "custom_css": null}, {"id": 18380, "slack_id": "U096M2TJULF", "display_name": "Kartik Singh", "bio": null, "projects_count": 1, "devlogs_count": 2, "votes_count": 24, "ships_count": 1, "projects": [{"id": 9944, "title": "Movie List", "devlogs_count": 2, "created_at": "2025-08-03T04:22:12.294-04:00"}], "coding_time_seconds": 55460, "coding_time_seconds_today": 0, "balance": "You need to have a pocket watcher badge to view this.", "badges": [], "created_at": "2025-07-23T01:47:34.008-04:00", "updated_at": "2025-08-16T04:56:13.136-04:00", "avatar": "https://avatars.slack-edge.com/2025-07-22/9241287824132_a0902de8e2b97a58aa2f_original.png", "custom_css": null}, {"id": 18381, "slack_id": "U097F96JBFT", "display_name": "Sanskar Gupta", "bio": null, "projects_count": 0, "devlogs_count": 0, "votes_count": 0, "ships_count": 0, "projects": [], "coding_time_seconds": 7955, "coding_time_seconds_today": 0, "balance": "You need to have a pocket watcher badge to view this.", "badges": [], "created_at": "2025-07-23T01:49:07.765-04:00", "updated_at": "2025-07-24T00:01:43.794-04:00", "avatar": "https://secure.gravatar.com/avatar/806a91517d9aee6c9264c172d5618501.jpg?s=512&d=https%3A%2F%2Fa.slack-edge.com%2Fdf10d%2Fimg%2Favatars%2Fava_0026-512.png", "custom_css": null}, {"id": 18382, "slack_id": "U09738BN15J", "display_name": "Aman Raghuvanshi", "bio": null, "projects_count": 0, "devlogs_count": 0, "votes_count": 0, "ships_count": 0, "projects": [], "coding_time_seconds": 0, "coding_time_seconds_today": 0, "balance": "You need to have a pocket watcher badge to view this.", "badges": [], "created_at": "2025-07-23T01:51:15.144-04:00", "updated_at": "2025-07-23T03:38:22.972-04:00", "avatar": "https://secure.gravatar.com/avatar/856cdd32322ce1c45b03598e0f320c5d.jpg?s=512&d=https%3A%2F%2Fa.slack-edge.com%2Fdf10d%2Fimg%2Favatars%2Fava_0019-512.png", "custom_css": null}, {"id": 18383, "slack_id": "U096R2JCC6S", "display_name": "Shahid Nawaz", "bio": null, "projects_count": 0, "devlogs_count": 0, "votes_count": 0, "ships_count": 0, "projects": [], "coding_time_seconds": 0, "coding_time_seconds_today": 0, "balance": "You need to have a pocket watcher badge to view this.", "badges": [], "created_at": "2025-07-23T01:56:17.446-04:00", "updated_at": "2025-07-23T03:38:23.048-04:00", "avatar": "https://avatars.slack-edge.com/2025-07-22/9240141679666_e14b6327a9931f2be3a8_original.gif", "custom_css": null}, {"id": 18384, "slack_id": "U09724433FU", "display_name": "Aarush", "bio": null, "projects_count": 0, "devlogs_count": 0, "votes_count": 0, "ships_count": 0, "projects": [], "coding_time_seconds": 0, "coding_time_seconds_today": 0, "balance": "You need to have a pocket watcher badge to view this.", "badges": [], "created_at": "2025-07-23T02:01:19.022-04:00", "updated_at": "2025-07-23T03:38:23.128-04:00", "avatar": "https://secure.gravatar.com/avatar/c8cd31f19c2449fcb179c949a7b00703.jpg?s=512&d=https%3A%2F%2Fa.slack-edge.com%2Fdf10d%2Fimg%2Favatars%2Fava_0022-512.png", "custom_css": null}, {"id": 18385, "slack_id": "U0970949BGD", "display_name": "DISHANT RAJPUT", "bio": null, "projects_count": 0, "devlogs_count": 0, "votes_count": 0, "ships_count": 0, "projects": [], "coding_time_seconds": 0, "coding_time_seconds_today": 0, "balance": "You need to have a pocket watcher badge to view this.", "badges": [], "created_at": "2025-07-23T02:01:44.321-04:00", "updated_at": "2025-07-23T03:38:23.212-04:00", "avatar": "https://avatars.slack-edge.com/2025-07-22/9262427328592_0370ee13a02e38c4c542_original.png", "custom_css": null}], "pagination": {"page": 915, "pages": 1192, "count": 23828, "items": 20}}