{"users": [{"id": 18386, "slack_id": "U097388NVL4", "display_name": "vishal", "bio": null, "projects_count": 0, "devlogs_count": 0, "votes_count": 0, "ships_count": 0, "projects": [], "coding_time_seconds": 0, "coding_time_seconds_today": 0, "balance": "You need to have a pocket watcher badge to view this.", "badges": [], "created_at": "2025-07-23T02:05:55.600-04:00", "updated_at": "2025-07-23T03:38:23.312-04:00", "avatar": "https://secure.gravatar.com/avatar/9475ea93f76b7b08890a056174f5be78.jpg?s=512&d=https%3A%2F%2Fa.slack-edge.com%2Fdf10d%2Fimg%2Favatars%2Fava_0003-512.png", "custom_css": null}, {"id": 18387, "slack_id": "U0976H48XQ9", "display_name": "Can Tuncbilek", "bio": null, "projects_count": 0, "devlogs_count": 0, "votes_count": 0, "ships_count": 0, "projects": [], "coding_time_seconds": 0, "coding_time_seconds_today": 0, "balance": "You need to have a pocket watcher badge to view this.", "badges": [], "created_at": "2025-07-23T02:06:31.229-04:00", "updated_at": "2025-07-23T03:38:23.410-04:00", "avatar": "https://avatars.slack-edge.com/2025-07-22/9225186862871_a1728f8c8f5bdd57debe_original.png", "custom_css": null}, {"id": 18388, "slack_id": "U096Z6XPZSS", "display_name": "Divyarajsinh Sindhav", "bio": null, "projects_count": 0, "devlogs_count": 0, "votes_count": 0, "ships_count": 0, "projects": [], "coding_time_seconds": 0, "coding_time_seconds_today": 0, "balance": "You need to have a pocket watcher badge to view this.", "badges": [], "created_at": "2025-07-23T02:07:08.221-04:00", "updated_at": "2025-07-23T03:38:23.490-04:00", "avatar": "https://secure.gravatar.com/avatar/77a7eb9f5359af8dbd315a25ab806374.jpg?s=512&d=https%3A%2F%2Fa.slack-edge.com%2Fdf10d%2Fimg%2Favatars%2Fava_0024-512.png", "custom_css": null}, {"id": 18389, "slack_id": "U096M58U81M", "display_name": "hasnat rasool", "bio": null, "projects_count": 0, "devlogs_count": 0, "votes_count": 0, "ships_count": 0, "projects": [], "coding_time_seconds": 0, "coding_time_seconds_today": 0, "balance": "You need to have a pocket watcher badge to view this.", "badges": [], "created_at": "2025-07-23T02:07:10.276-04:00", "updated_at": "2025-07-24T10:49:04.018-04:00", "avatar": "https://avatars.slack-edge.com/2025-07-22/9238361907973_bec686b5e58deafddde5_original.jpg", "custom_css": null}, {"id": 18390, "slack_id": "U096WQHDB1R", "display_name": "Asfak Ahmed", "bio": null, "projects_count": 0, "devlogs_count": 0, "votes_count": 0, "ships_count": 0, "projects": [], "coding_time_seconds": 513938, "coding_time_seconds_today": 1565, "balance": "You need to have a pocket watcher badge to view this.", "badges": [], "created_at": "2025-07-23T02:07:21.587-04:00", "updated_at": "2025-07-23T03:38:24.060-04:00", "avatar": "https://secure.gravatar.com/avatar/cfdd878d37e437c8e48fe4f488742cd4.jpg?s=512&d=https%3A%2F%2Fa.slack-edge.com%2Fdf10d%2Fimg%2Favatars%2Fava_0026-512.png", "custom_css": null}, {"id": 18391, "slack_id": "U0970AMABJR", "display_name": "Sujan S", "bio": null, "projects_count": 0, "devlogs_count": 0, "votes_count": 0, "ships_count": 0, "projects": [], "coding_time_seconds": 0, "coding_time_seconds_today": 0, "balance": "You need to have a pocket watcher badge to view this.", "badges": [], "created_at": "2025-07-23T02:12:22.484-04:00", "updated_at": "2025-07-23T03:38:24.154-04:00", "avatar": "https://secure.gravatar.com/avatar/c59db16ac7dd749f8926a451154077d3.jpg?s=512&d=https%3A%2F%2Fa.slack-edge.com%2Fdf10d%2Fimg%2Favatars%2Fava_0016-512.png", "custom_css": null}, {"id": 18392, "slack_id": "U092NJ5AH24", "display_name": "Jeevan", "bio": null, "projects_count": 0, "devlogs_count": 0, "votes_count": 0, "ships_count": 0, "projects": [], "coding_time_seconds": 0, "coding_time_seconds_today": 0, "balance": "You need to have a pocket watcher badge to view this.", "badges": [], "created_at": "2025-07-23T02:16:45.511-04:00", "updated_at": "2025-07-23T03:38:24.261-04:00", "avatar": "https://avatars.slack-edge.com/2025-07-23/9241412082228_7ca896ab6224e944aed4_original.jpg", "custom_css": null}, {"id": 18393, "slack_id": "U096WRX5YFM", "display_name": "Mariya Khan", "bio": null, "projects_count": 0, "devlogs_count": 0, "votes_count": 0, "ships_count": 0, "projects": [], "coding_time_seconds": 0, "coding_time_seconds_today": 0, "balance": "You need to have a pocket watcher badge to view this.", "badges": [], "created_at": "2025-07-23T02:20:40.371-04:00", "updated_at": "2025-07-23T03:38:24.358-04:00", "avatar": "https://avatars.slack-edge.com/2025-07-22/9234896337075_20a4e49218471c021533_original.jpg", "custom_css": null}, {"id": 18394, "slack_id": "U097QEBRDJ4", "display_name": "Yash", "bio": null, "projects_count": 0, "devlogs_count": 0, "votes_count": 0, "ships_count": 0, "projects": [], "coding_time_seconds": 0, "coding_time_seconds_today": 0, "balance": "You need to have a pocket watcher badge to view this.", "badges": [], "created_at": "2025-07-23T02:22:10.246-04:00", "updated_at": "2025-07-23T03:38:24.439-04:00", "avatar": "https://secure.gravatar.com/avatar/97e9550e0ad00c02e31c4d29b32bbaab.jpg?s=512&d=https%3A%2F%2Fa.slack-edge.com%2Fdf10d%2Fimg%2Favatars%2Fava_0021-512.png", "custom_css": null}, {"id": 18395, "slack_id": "U096Z8JFMAS", "display_name": "Asadullah Nadeem", "bio": null, "projects_count": 2, "devlogs_count": 1, "votes_count": 0, "ships_count": 1, "projects": [{"id": 7787, "title": "OopsFire Wolf \u2014 Backend API", "devlogs_count": 0, "created_at": "2025-07-23T03:42:46.849-04:00"}, {"id": 7790, "title": "OopsFire Wolf \u2014 Frontend (React)", "devlogs_count": 1, "created_at": "2025-07-23T03:48:03.659-04:00"}], "coding_time_seconds": 37452, "coding_time_seconds_today": 0, "balance": "You need to have a pocket watcher badge to view this.", "badges": [], "created_at": "2025-07-23T02:22:42.633-04:00", "updated_at": "2025-08-14T13:43:30.320-04:00", "avatar": "https://secure.gravatar.com/avatar/4f37b237d26930d8771c688643bf339b.jpg?s=512&d=https%3A%2F%2Fa.slack-edge.com%2Fdf10d%2Fimg%2Favatars%2Fava_0006-512.png", "custom_css": null}, {"id": 18396, "slack_id": "U096Z7HT43Y", "display_name": "Afukam", "bio": null, "projects_count": 0, "devlogs_count": 0, "votes_count": 0, "ships_count": 0, "projects": [], "coding_time_seconds": 0, "coding_time_seconds_today": 0, "balance": "You need to have a pocket watcher badge to view this.", "badges": [], "created_at": "2025-07-23T02:23:06.444-04:00", "updated_at": "2025-07-23T03:38:28.683-04:00", "avatar": "https://secure.gravatar.com/avatar/c3aa3d4216a7b6ec9187dab7183e4736.jpg?s=512&d=https%3A%2F%2Fa.slack-edge.com%2Fdf10d%2Fimg%2Favatars%2Fava_0003-512.png", "custom_css": null}, {"id": 18397, "slack_id": "U096Z8QTR2A", "display_name": "Arman Wali", "bio": null, "projects_count": 0, "devlogs_count": 0, "votes_count": 0, "ships_count": 0, "projects": [], "coding_time_seconds": 3954, "coding_time_seconds_today": 0, "balance": "You need to have a pocket watcher badge to view this.", "badges": [], "created_at": "2025-07-23T02:23:55.151-04:00", "updated_at": "2025-07-23T03:38:28.766-04:00", "avatar": "https://secure.gravatar.com/avatar/b2bad6acd223b5f3e72fbc635281ebcb.jpg?s=512&d=https%3A%2F%2Fa.slack-edge.com%2Fdf10d%2Fimg%2Favatars%2Fava_0022-512.png", "custom_css": null}, {"id": 18398, "slack_id": "U096Z8KE6DU", "display_name": "Beraq08", "bio": null, "projects_count": 0, "devlogs_count": 0, "votes_count": 0, "ships_count": 0, "projects": [], "coding_time_seconds": 14020, "coding_time_seconds_today": 0, "balance": "You need to have a pocket watcher badge to view this.", "badges": [], "created_at": "2025-07-23T02:24:35.941-04:00", "updated_at": "2025-07-23T03:38:28.838-04:00", "avatar": "https://secure.gravatar.com/avatar/5f17de5c263ff3de75012a37d73bc5db.jpg?s=512&d=https%3A%2F%2Fa.slack-edge.com%2Fdf10d%2Fimg%2Favatars%2Fava_0007-512.png", "custom_css": null}, {"id": 18399, "slack_id": "U096ZD40UJ0", "display_name": "Mustafa", "bio": null, "projects_count": 0, "devlogs_count": 0, "votes_count": 0, "ships_count": 0, "projects": [], "coding_time_seconds": 0, "coding_time_seconds_today": 0, "balance": "You need to have a pocket watcher badge to view this.", "badges": [], "created_at": "2025-07-23T02:25:36.554-04:00", "updated_at": "2025-07-23T03:38:28.916-04:00", "avatar": "https://secure.gravatar.com/avatar/f405500ed72a71f194501bb86c0963de.jpg?s=512&d=https%3A%2F%2Fa.slack-edge.com%2Fdf10d%2Fimg%2Favatars%2Fava_0019-512.png", "custom_css": null}, {"id": 18400, "slack_id": "U096WP4UBD1", "display_name": "Biruk simachew", "bio": null, "projects_count": 0, "devlogs_count": 0, "votes_count": 0, "ships_count": 0, "projects": [], "coding_time_seconds": 0, "coding_time_seconds_today": 0, "balance": "You need to have a pocket watcher badge to view this.", "badges": [], "created_at": "2025-07-23T02:33:45.478-04:00", "updated_at": "2025-07-23T09:03:43.181-04:00", "avatar": "https://secure.gravatar.com/avatar/b6a1e2e9f9bf99a248d02d210da6d255.jpg?s=512&d=https%3A%2F%2Fa.slack-edge.com%2Fdf10d%2Fimg%2Favatars%2Fava_0002-512.png", "custom_css": null}, {"id": 18401, "slack_id": "U097FDFBK89", "display_name": "Dolba", "bio": null, "projects_count": 0, "devlogs_count": 0, "votes_count": 0, "ships_count": 0, "projects": [], "coding_time_seconds": 0, "coding_time_seconds_today": 0, "balance": "You need to have a pocket watcher badge to view this.", "badges": [], "created_at": "2025-07-23T02:38:44.109-04:00", "updated_at": "2025-07-23T03:38:29.088-04:00", "avatar": "https://secure.gravatar.com/avatar/a6a6b4a8d35fe1d30150fbd887d8802b.jpg?s=512&d=https%3A%2F%2Fa.slack-edge.com%2Fdf10d%2Fimg%2Favatars%2Fava_0026-512.png", "custom_css": null}, {"id": 18402, "slack_id": "U096W9J9BK5", "display_name": "madhukarmayank", "bio": null, "projects_count": 0, "devlogs_count": 0, "votes_count": 0, "ships_count": 0, "projects": [], "coding_time_seconds": 0, "coding_time_seconds_today": 0, "balance": "You need to have a pocket watcher badge to view this.", "badges": [], "created_at": "2025-07-23T02:48:23.869-04:00", "updated_at": "2025-07-23T03:38:29.188-04:00", "avatar": "https://secure.gravatar.com/avatar/580a4a393d3b930b168ab5309327b1b0.jpg?s=512&d=https%3A%2F%2Fa.slack-edge.com%2Fdf10d%2Fimg%2Favatars%2Fava_0023-512.png", "custom_css": null}, {"id": 18403, "slack_id": "U09729MU0MQ", "display_name": "Danish Ahmed", "bio": null, "projects_count": 1, "devlogs_count": 0, "votes_count": 1, "ships_count": 0, "projects": [{"id": 7795, "title": "Start Smart", "devlogs_count": 0, "created_at": "2025-07-23T04:24:57.981-04:00"}], "coding_time_seconds": 1714, "coding_time_seconds_today": 0, "balance": "You need to have a pocket watcher badge to view this.", "badges": [], "created_at": "2025-07-23T02:48:25.765-04:00", "updated_at": "2025-07-23T08:57:40.294-04:00", "avatar": "https://secure.gravatar.com/avatar/d55c7106686cdacee0513c1ed62a910c.jpg?s=512&d=https%3A%2F%2Fa.slack-edge.com%2Fdf10d%2Fimg%2Favatars%2Fava_0016-512.png", "custom_css": null}, {"id": 18404, "slack_id": "U097G8DFT16", "display_name": "Anca", "bio": null, "projects_count": 0, "devlogs_count": 0, "votes_count": 0, "ships_count": 0, "projects": [], "coding_time_seconds": 0, "coding_time_seconds_today": 0, "balance": "You need to have a pocket watcher badge to view this.", "badges": [], "created_at": "2025-07-23T02:48:50.781-04:00", "updated_at": "2025-07-23T03:38:29.357-04:00", "avatar": "https://secure.gravatar.com/avatar/0a93497b7da65b26c19365dcc095d2a4.jpg?s=512&d=https%3A%2F%2Fa.slack-edge.com%2Fdf10d%2Fimg%2Favatars%2Fava_0010-512.png", "custom_css": null}, {"id": 18405, "slack_id": "U097QHMAXA4", "display_name": "Amjad Ali", "bio": "Senior Full-Stack Software Engineer | JavaScript, TypeScript, React.js, Next.js, Node.js | AI, ML & Data Science Enthusiast | Built Scalable Web Platforms & AI Dashboards", "projects_count": 0, "devlogs_count": 0, "votes_count": 0, "ships_count": 0, "projects": [], "coding_time_seconds": 0, "coding_time_seconds_today": 0, "balance": "You need to have a pocket watcher badge to view this.", "badges": [], "created_at": "2025-07-23T02:50:00.355-04:00", "updated_at": "2025-07-23T08:42:20.127-04:00", "avatar": "https://avatars.slack-edge.com/2025-07-22/9237416423062_5a9652be446350171050_original.png", "custom_css": null}], "pagination": {"page": 916, "pages": 1192, "count": 23828, "items": 20}}