{"users": [{"id": 18406, "slack_id": "U0973F9BNSY", "display_name": "Deniz G\u00f6cen", "bio": null, "projects_count": 0, "devlogs_count": 0, "votes_count": 0, "ships_count": 0, "projects": [], "coding_time_seconds": 8691, "coding_time_seconds_today": 0, "balance": "You need to have a pocket watcher badge to view this.", "badges": [], "created_at": "2025-07-23T02:50:37.696-04:00", "updated_at": "2025-07-24T13:49:06.768-04:00", "avatar": "https://secure.gravatar.com/avatar/a6bf4f52a180da63eeceab4c1d94e0ae.jpg?s=512&d=https%3A%2F%2Fa.slack-edge.com%2Fdf10d%2Fimg%2Favatars%2Fava_0016-512.png", "custom_css": null}, {"id": 18407, "slack_id": "U096M9U2X63", "display_name": "Katakam Varun Kumar", "bio": null, "projects_count": 0, "devlogs_count": 0, "votes_count": 0, "ships_count": 0, "projects": [], "coding_time_seconds": 0, "coding_time_seconds_today": 0, "balance": "You need to have a pocket watcher badge to view this.", "badges": [], "created_at": "2025-07-23T02:50:55.024-04:00", "updated_at": "2025-07-23T03:38:29.636-04:00", "avatar": "https://secure.gravatar.com/avatar/79cde749ad137e588c701e9a2090dbef.jpg?s=512&d=https%3A%2F%2Fa.slack-edge.com%2Fdf10d%2Fimg%2Favatars%2Fava_0009-512.png", "custom_css": null}, {"id": 18408, "slack_id": "U096X0UPDEX", "display_name": "Jaya Ganguly", "bio": null, "projects_count": 0, "devlogs_count": 0, "votes_count": 0, "ships_count": 0, "projects": [], "coding_time_seconds": 0, "coding_time_seconds_today": 0, "balance": "You need to have a pocket watcher badge to view this.", "badges": [], "created_at": "2025-07-23T02:58:10.914-04:00", "updated_at": "2025-07-23T03:38:29.721-04:00", "avatar": "https://avatars.slack-edge.com/2025-07-22/9225382165735_37df0c0fe51c3b69ae5a_original.jpg", "custom_css": null}, {"id": 18409, "slack_id": "U097FH29F25", "display_name": "MD Imran Mansuri", "bio": null, "projects_count": 0, "devlogs_count": 0, "votes_count": 0, "ships_count": 0, "projects": [], "coding_time_seconds": 0, "coding_time_seconds_today": 0, "balance": "You need to have a pocket watcher badge to view this.", "badges": [], "created_at": "2025-07-23T03:00:38.265-04:00", "updated_at": "2025-07-23T03:38:29.800-04:00", "avatar": "https://secure.gravatar.com/avatar/b795efcd0092b11b4029ceeed2c72809.jpg?s=512&d=https%3A%2F%2Fa.slack-edge.com%2Fdf10d%2Fimg%2Favatars%2Fava_0016-512.png", "custom_css": null}, {"id": 18410, "slack_id": "U0973GC5PBN", "display_name": "Solomanu Meriga", "bio": null, "projects_count": 0, "devlogs_count": 0, "votes_count": 0, "ships_count": 0, "projects": [], "coding_time_seconds": 0, "coding_time_seconds_today": 0, "balance": "You need to have a pocket watcher badge to view this.", "badges": [], "created_at": "2025-07-23T03:01:35.403-04:00", "updated_at": "2025-07-23T03:38:29.887-04:00", "avatar": "https://secure.gravatar.com/avatar/0afdc61899e38357db533749acb18060.jpg?s=512&d=https%3A%2F%2Fa.slack-edge.com%2Fdf10d%2Fimg%2Favatars%2Fava_0022-512.png", "custom_css": null}, {"id": 18411, "slack_id": "U097QKGE0N4", "display_name": "Muaz Aqdas", "bio": null, "projects_count": 0, "devlogs_count": 0, "votes_count": 0, "ships_count": 0, "projects": [], "coding_time_seconds": 0, "coding_time_seconds_today": 0, "balance": "You need to have a pocket watcher badge to view this.", "badges": [], "created_at": "2025-07-23T03:04:24.304-04:00", "updated_at": "2025-07-23T03:38:29.994-04:00", "avatar": "https://secure.gravatar.com/avatar/64f8f0e791d4e83422c32ab98042c7a5.jpg?s=512&d=https%3A%2F%2Fa.slack-edge.com%2Fdf10d%2Fimg%2Favatars%2Fava_0013-512.png", "custom_css": null}, {"id": 18412, "slack_id": "U096MD8319D", "display_name": "Syed Mohammad Suhail", "bio": null, "projects_count": 0, "devlogs_count": 0, "votes_count": 0, "ships_count": 0, "projects": [], "coding_time_seconds": 0, "coding_time_seconds_today": 0, "balance": "You need to have a pocket watcher badge to view this.", "badges": [], "created_at": "2025-07-23T03:15:15.222-04:00", "updated_at": "2025-07-23T03:38:30.097-04:00", "avatar": "https://secure.gravatar.com/avatar/a08b26ecea4061db734c1022cb695a06.jpg?s=512&d=https%3A%2F%2Fa.slack-edge.com%2Fdf10d%2Fimg%2Favatars%2Fava_0017-512.png", "custom_css": null}, {"id": 18413, "slack_id": "U097D7F9ZND", "display_name": "Deniz Aksoy", "bio": null, "projects_count": 1, "devlogs_count": 1, "votes_count": 20, "ships_count": 1, "projects": [{"id": 7812, "title": "Machine", "devlogs_count": 1, "created_at": "2025-07-23T05:57:08.424-04:00"}], "coding_time_seconds": 6926, "coding_time_seconds_today": 0, "balance": "You need to have a pocket watcher badge to view this.", "badges": [], "created_at": "2025-07-23T03:16:41.407-04:00", "updated_at": "2025-08-19T05:41:18.155-04:00", "avatar": "https://secure.gravatar.com/avatar/576c332ae1880ba9ae996e4430d8ed09.jpg?s=512&d=https%3A%2F%2Fa.slack-edge.com%2Fdf10d%2Fimg%2Favatars%2Fava_0020-512.png", "custom_css": null}, {"id": 18414, "slack_id": "U0973EQ9R6Y", "display_name": "Yar Muhammad", "bio": null, "projects_count": 0, "devlogs_count": 0, "votes_count": 0, "ships_count": 0, "projects": [], "coding_time_seconds": 65264, "coding_time_seconds_today": 0, "balance": "You need to have a pocket watcher badge to view this.", "badges": [], "created_at": "2025-07-23T03:26:31.343-04:00", "updated_at": "2025-07-23T10:26:42.009-04:00", "avatar": "https://secure.gravatar.com/avatar/ef434293222f11e74e9eecc43942ac34.jpg?s=512&d=https%3A%2F%2Fa.slack-edge.com%2Fdf10d%2Fimg%2Favatars%2Fava_0000-512.png", "custom_css": null}, {"id": 18415, "slack_id": "U097FMECT2M", "display_name": "Arib Zeeshan", "bio": null, "projects_count": 0, "devlogs_count": 0, "votes_count": 0, "ships_count": 0, "projects": [], "coding_time_seconds": 0, "coding_time_seconds_today": 0, "balance": "You need to have a pocket watcher badge to view this.", "badges": [], "created_at": "2025-07-23T03:30:13.285-04:00", "updated_at": "2025-07-23T09:37:14.844-04:00", "avatar": "https://avatars.slack-edge.com/2025-07-23/9262793219248_bc972a7feebe28ec1a52_original.png", "custom_css": null}, {"id": 18416, "slack_id": "U01B48S201L", "display_name": "Pallavi", "bio": null, "projects_count": 0, "devlogs_count": 0, "votes_count": 0, "ships_count": 0, "projects": [], "coding_time_seconds": 0, "coding_time_seconds_today": 0, "balance": "You need to have a pocket watcher badge to view this.", "badges": [], "created_at": "2025-07-23T03:40:07.630-04:00", "updated_at": "2025-07-23T03:40:15.756-04:00", "avatar": "https://secure.gravatar.com/avatar/981b37e26e1e8e98ff3c936a324f6e24.jpg?s=512&d=https%3A%2F%2Fa.slack-edge.com%2Fdf10d%2Fimg%2Favatars%2Fava_0014-512.png", "custom_css": null}, {"id": 18417, "slack_id": "U096ZJU6U1L", "display_name": "Md Mim Akhtar", "bio": null, "projects_count": 0, "devlogs_count": 0, "votes_count": 0, "ships_count": 0, "projects": [], "coding_time_seconds": 0, "coding_time_seconds_today": 0, "balance": "You need to have a pocket watcher badge to view this.", "badges": [], "created_at": "2025-07-23T03:43:02.639-04:00", "updated_at": "2025-07-23T09:37:15.000-04:00", "avatar": "https://avatars.slack-edge.com/2025-07-23/9253806614305_1e7269532d0e1c59f34f_original.jpg", "custom_css": null}, {"id": 18418, "slack_id": "U097209AGE6", "display_name": "A22126510072 BESETTISANDEEP", "bio": null, "projects_count": 0, "devlogs_count": 0, "votes_count": 0, "ships_count": 0, "projects": [], "coding_time_seconds": 0, "coding_time_seconds_today": 0, "balance": "You need to have a pocket watcher badge to view this.", "badges": [], "created_at": "2025-07-23T03:45:15.184-04:00", "updated_at": "2025-07-25T23:59:27.214-04:00", "avatar": "https://avatars.slack-edge.com/2025-07-23/9238794763589_190c831c2c4a59bfa97c_original.jpg", "custom_css": null}, {"id": 18419, "slack_id": "U096ZG28KJA", "display_name": "Apple_knight", "bio": null, "projects_count": 0, "devlogs_count": 0, "votes_count": 0, "ships_count": 0, "projects": [], "coding_time_seconds": 0, "coding_time_seconds_today": 0, "balance": "You need to have a pocket watcher badge to view this.", "badges": [], "created_at": "2025-07-23T03:46:55.174-04:00", "updated_at": "2025-07-23T09:37:15.209-04:00", "avatar": "https://avatars.slack-edge.com/2025-07-23/9262876843248_31a6de618bbc8d5326b9_original.jpg", "custom_css": null}, {"id": 18420, "slack_id": "U097BRQT5LH", "display_name": "Eya Frikha", "bio": null, "projects_count": 0, "devlogs_count": 0, "votes_count": 0, "ships_count": 0, "projects": [], "coding_time_seconds": 0, "coding_time_seconds_today": 0, "balance": "You need to have a pocket watcher badge to view this.", "badges": [], "created_at": "2025-07-23T03:49:17.660-04:00", "updated_at": "2025-07-23T09:37:15.296-04:00", "avatar": "https://secure.gravatar.com/avatar/e9a160aaa2927677928b145d8829447e.jpg?s=512&d=https%3A%2F%2Fa.slack-edge.com%2Fdf10d%2Fimg%2Favatars%2Fava_0000-512.png", "custom_css": null}, {"id": 18421, "slack_id": "U0970Q3FFS9", "display_name": "Anuoluwapo", "bio": null, "projects_count": 0, "devlogs_count": 0, "votes_count": 0, "ships_count": 0, "projects": [], "coding_time_seconds": 0, "coding_time_seconds_today": 0, "balance": "You need to have a pocket watcher badge to view this.", "badges": [], "created_at": "2025-07-23T03:53:46.684-04:00", "updated_at": "2025-07-23T09:37:15.412-04:00", "avatar": "https://secure.gravatar.com/avatar/5d7a6facf1e133579b56e5de59f0949d.jpg?s=512&d=https%3A%2F%2Fa.slack-edge.com%2Fdf10d%2Fimg%2Favatars%2Fava_0014-512.png", "custom_css": null}, {"id": 18422, "slack_id": "U097QS7AUHE", "display_name": "Adarsh", "bio": null, "projects_count": 0, "devlogs_count": 0, "votes_count": 0, "ships_count": 0, "projects": [], "coding_time_seconds": 0, "coding_time_seconds_today": 0, "balance": "You need to have a pocket watcher badge to view this.", "badges": [], "created_at": "2025-07-23T03:54:59.789-04:00", "updated_at": "2025-07-23T09:37:15.494-04:00", "avatar": "https://secure.gravatar.com/avatar/74f01090ebc9cfec2c4a8d37b2fdf40c.jpg?s=512&d=https%3A%2F%2Fa.slack-edge.com%2Fdf10d%2Fimg%2Favatars%2Fava_0015-512.png", "custom_css": null}, {"id": 18423, "slack_id": "U0973HH4CMA", "display_name": "Shomya", "bio": null, "projects_count": 0, "devlogs_count": 12, "votes_count": 37, "ships_count": 0, "projects": [], "coding_time_seconds": 218654, "coding_time_seconds_today": 0, "balance": "You need to have a pocket watcher badge to view this.", "badges": [], "created_at": "2025-07-23T03:55:52.332-04:00", "updated_at": "2025-08-12T18:26:25.606-04:00", "avatar": "https://secure.gravatar.com/avatar/5c18f822afb10e6875965fd80845f99c.jpg?s=512&d=https%3A%2F%2Fa.slack-edge.com%2Fdf10d%2Fimg%2Favatars%2Fava_0008-512.png", "custom_css": null}, {"id": 18424, "slack_id": "U0970QF6CKF", "display_name": "A-TOS", "bio": null, "projects_count": 0, "devlogs_count": 0, "votes_count": 0, "ships_count": 0, "projects": [], "coding_time_seconds": 1, "coding_time_seconds_today": 0, "balance": "You need to have a pocket watcher badge to view this.", "badges": [], "created_at": "2025-07-23T03:55:59.227-04:00", "updated_at": "2025-07-23T09:37:15.669-04:00", "avatar": "https://secure.gravatar.com/avatar/6f892f73a2f248bf4fb1928628941258.jpg?s=512&d=https%3A%2F%2Fa.slack-edge.com%2Fdf10d%2Fimg%2Favatars%2Fava_0013-512.png", "custom_css": null}, {"id": 18425, "slack_id": "U0970EFNTD3", "display_name": "TheLonlyKnight", "bio": null, "projects_count": 3, "devlogs_count": 0, "votes_count": 5, "ships_count": 0, "projects": [{"id": 10379, "title": "introduction menu", "devlogs_count": 0, "created_at": "2025-08-06T13:04:45.140-04:00"}, {"id": 10486, "title": "chess online", "devlogs_count": 0, "created_at": "2025-08-07T12:41:44.961-04:00"}, {"id": 11857, "title": "islamic books", "devlogs_count": 0, "created_at": "2025-08-20T11:00:07.359-04:00"}], "coding_time_seconds": 2036, "coding_time_seconds_today": 0, "balance": "You need to have a pocket watcher badge to view this.", "badges": [], "created_at": "2025-07-23T03:56:07.203-04:00", "updated_at": "2025-08-06T13:26:11.820-04:00", "avatar": "https://secure.gravatar.com/avatar/21cf20a9c9cae5f4be84cad5a37e8f0c.jpg?s=512&d=https%3A%2F%2Fa.slack-edge.com%2Fdf10d%2Fimg%2Favatars%2Fava_0005-512.png", "custom_css": null}], "pagination": {"page": 917, "pages": 1192, "count": 23828, "items": 20}}