{"users": [{"id": 18446, "slack_id": "U02NCS5D207", "display_name": "Samuel Ajala", "bio": null, "projects_count": 0, "devlogs_count": 0, "votes_count": 0, "ships_count": 0, "projects": [], "coding_time_seconds": 0, "coding_time_seconds_today": 0, "balance": "You need to have a pocket watcher badge to view this.", "badges": [], "created_at": "2025-07-23T04:36:59.341-04:00", "updated_at": "2025-07-23T09:37:25.673-04:00", "avatar": "https://secure.gravatar.com/avatar/db003c171cdeebb935cea74c03e5f52a.jpg?s=512&d=https%3A%2F%2Fa.slack-edge.com%2Fdf10d%2Fimg%2Favatars%2Fava_0019-512.png", "custom_css": null}, {"id": 18447, "slack_id": "U096XG1M1U3", "display_name": "Muhammad Sufiyan Baig", "bio": null, "projects_count": 0, "devlogs_count": 0, "votes_count": 0, "ships_count": 0, "projects": [], "coding_time_seconds": 0, "coding_time_seconds_today": 0, "balance": "You need to have a pocket watcher badge to view this.", "badges": [], "created_at": "2025-07-23T04:39:27.138-04:00", "updated_at": "2025-07-23T09:37:25.777-04:00", "avatar": "https://secure.gravatar.com/avatar/e8b08067dbcf3666db0216234ba09faa.jpg?s=512&d=https%3A%2F%2Fa.slack-edge.com%2Fdf10d%2Fimg%2Favatars%2Fava_0023-512.png", "custom_css": null}, {"id": 18448, "slack_id": "U096MR1TLP9", "display_name": "Muhammad Zaeem ALtaf", "bio": null, "projects_count": 0, "devlogs_count": 0, "votes_count": 0, "ships_count": 0, "projects": [], "coding_time_seconds": 0, "coding_time_seconds_today": 0, "balance": "You need to have a pocket watcher badge to view this.", "badges": [], "created_at": "2025-07-23T04:40:16.486-04:00", "updated_at": "2025-07-23T09:37:25.862-04:00", "avatar": "https://avatars.slack-edge.com/2025-07-23/9237951341366_f519f6e0dbd7e374713c_original.png", "custom_css": null}, {"id": 18449, "slack_id": "U096V29FCLC", "display_name": "Chamod Perera", "bio": null, "projects_count": 0, "devlogs_count": 0, "votes_count": 0, "ships_count": 0, "projects": [], "coding_time_seconds": 0, "coding_time_seconds_today": 0, "balance": "You need to have a pocket watcher badge to view this.", "badges": [], "created_at": "2025-07-23T04:45:07.806-04:00", "updated_at": "2025-07-23T09:37:25.946-04:00", "avatar": "https://avatars.slack-edge.com/2025-07-23/9242082266196_937d36697cd3f73910a9_original.jpg", "custom_css": null}, {"id": 18450, "slack_id": "U097QLDD35W", "display_name": "AISHIK CHAKRABORTY", "bio": null, "projects_count": 0, "devlogs_count": 0, "votes_count": 0, "ships_count": 0, "projects": [], "coding_time_seconds": 0, "coding_time_seconds_today": 0, "balance": "You need to have a pocket watcher badge to view this.", "badges": [], "created_at": "2025-07-23T04:47:27.943-04:00", "updated_at": "2025-07-23T09:37:26.022-04:00", "avatar": "https://avatars.slack-edge.com/2025-07-23/9239114129525_93ac6123ed9263161ae9_original.jpg", "custom_css": null}, {"id": 18451, "slack_id": "U096VPKT6G5", "display_name": "Yasmiin", "bio": null, "projects_count": 0, "devlogs_count": 0, "votes_count": 0, "ships_count": 0, "projects": [], "coding_time_seconds": 0, "coding_time_seconds_today": 0, "balance": "You need to have a pocket watcher badge to view this.", "badges": [], "created_at": "2025-07-23T04:48:18.122-04:00", "updated_at": "2025-07-23T09:37:26.105-04:00", "avatar": "https://secure.gravatar.com/avatar/0795a1bf8ef85ca024ac9f81bdfb0d86.jpg?s=512&d=https%3A%2F%2Fa.slack-edge.com%2Fdf10d%2Fimg%2Favatars%2Fava_0015-512.png", "custom_css": null}, {"id": 18452, "slack_id": "U08S71EAWLQ", "display_name": "Adam Svoboda", "bio": null, "projects_count": 0, "devlogs_count": 0, "votes_count": 0, "ships_count": 0, "projects": [], "coding_time_seconds": 1012, "coding_time_seconds_today": 0, "balance": "You need to have a pocket watcher badge to view this.", "badges": [], "created_at": "2025-07-23T04:51:15.485-04:00", "updated_at": "2025-08-08T10:52:12.787-04:00", "avatar": "https://secure.gravatar.com/avatar/f14baa23cbfd235f834f3e52f86c948e.jpg?s=512&d=https%3A%2F%2Fa.slack-edge.com%2Fdf10d%2Fimg%2Favatars%2Fava_0021-512.png", "custom_css": null}, {"id": 18453, "slack_id": "U096XJ2SA1Z", "display_name": "Aditya Yadav", "bio": "", "projects_count": 2, "devlogs_count": 0, "votes_count": 0, "ships_count": 0, "projects": [{"id": 7807, "title": "RC Car Code", "devlogs_count": 0, "created_at": "2025-07-23T05:08:22.493-04:00"}, {"id": 9774, "title": "Cicada-The Weather Station", "devlogs_count": 0, "created_at": "2025-08-02T08:43:26.582-04:00"}], "coding_time_seconds": 7134, "coding_time_seconds_today": 0, "balance": "You need to have a pocket watcher badge to view this.", "badges": [], "created_at": "2025-07-23T04:52:55.443-04:00", "updated_at": "2025-07-23T09:37:26.267-04:00", "avatar": "https://secure.gravatar.com/avatar/2e477070511791ce6ee3abf34da289f1.jpg?s=512&d=https%3A%2F%2Fa.slack-edge.com%2Fdf10d%2Fimg%2Favatars%2Fava_0016-512.png", "custom_css": null}, {"id": 18454, "slack_id": "U096ZV2G0MC", "display_name": "Mayara Cristina Xavier Marques", "bio": null, "projects_count": 0, "devlogs_count": 0, "votes_count": 0, "ships_count": 0, "projects": [], "coding_time_seconds": 0, "coding_time_seconds_today": 0, "balance": "You need to have a pocket watcher badge to view this.", "badges": [], "created_at": "2025-07-23T04:53:16.041-04:00", "updated_at": "2025-07-23T09:37:26.350-04:00", "avatar": "https://avatars.slack-edge.com/2025-07-23/9263201397184_4aec84572ea50fff6f7d_original.jpg", "custom_css": null}, {"id": 18455, "slack_id": "U09743VBLCU", "display_name": "plap", "bio": null, "projects_count": 0, "devlogs_count": 0, "votes_count": 0, "ships_count": 0, "projects": [], "coding_time_seconds": 0, "coding_time_seconds_today": 0, "balance": "You need to have a pocket watcher badge to view this.", "badges": [], "created_at": "2025-07-23T04:58:32.092-04:00", "updated_at": "2025-07-23T09:37:26.437-04:00", "avatar": "https://secure.gravatar.com/avatar/285c139471e4372ed307d1c1e882d853.jpg?s=512&d=https%3A%2F%2Fa.slack-edge.com%2Fdf10d%2Fimg%2Favatars%2Fava_0020-512.png", "custom_css": null}, {"id": 18456, "slack_id": "U096XQ86TJN", "display_name": "Princess", "bio": null, "projects_count": 0, "devlogs_count": 0, "votes_count": 0, "ships_count": 0, "projects": [], "coding_time_seconds": 0, "coding_time_seconds_today": 0, "balance": "You need to have a pocket watcher badge to view this.", "badges": [], "created_at": "2025-07-23T05:06:38.018-04:00", "updated_at": "2025-07-23T09:37:26.521-04:00", "avatar": "https://secure.gravatar.com/avatar/31b162ea9fd63285cfa5c3f99ed05704.jpg?s=512&d=https%3A%2F%2Fa.slack-edge.com%2Fdf10d%2Fimg%2Favatars%2Fava_0001-512.png", "custom_css": null}, {"id": 18457, "slack_id": "U096XLVCPC3", "display_name": "krish", "bio": null, "projects_count": 0, "devlogs_count": 0, "votes_count": 0, "ships_count": 0, "projects": [], "coding_time_seconds": 0, "coding_time_seconds_today": 0, "balance": "You need to have a pocket watcher badge to view this.", "badges": [], "created_at": "2025-07-23T05:14:36.091-04:00", "updated_at": "2025-07-23T09:37:26.609-04:00", "avatar": "https://secure.gravatar.com/avatar/f819e2ea77e0d1bda5b5fe3b210267ed.jpg?s=512&d=https%3A%2F%2Fa.slack-edge.com%2Fdf10d%2Fimg%2Favatars%2Fava_0005-512.png", "custom_css": null}, {"id": 18458, "slack_id": "U09746FN3LL", "display_name": "Rajeshkumar", "bio": null, "projects_count": 0, "devlogs_count": 0, "votes_count": 0, "ships_count": 0, "projects": [], "coding_time_seconds": 0, "coding_time_seconds_today": 0, "balance": "You need to have a pocket watcher badge to view this.", "badges": [], "created_at": "2025-07-23T05:18:11.806-04:00", "updated_at": "2025-07-23T09:37:26.691-04:00", "avatar": "https://secure.gravatar.com/avatar/12dc8b69b4d91ccf7e7a674fcbd75063.jpg?s=512&d=https%3A%2F%2Fa.slack-edge.com%2Fdf10d%2Fimg%2Favatars%2Fava_0020-512.png", "custom_css": null}, {"id": 18459, "slack_id": "U096XFP8PAP", "display_name": "Asc1g", "bio": null, "projects_count": 0, "devlogs_count": 0, "votes_count": 0, "ships_count": 0, "projects": [], "coding_time_seconds": 0, "coding_time_seconds_today": 0, "balance": "You need to have a pocket watcher badge to view this.", "badges": [], "created_at": "2025-07-23T05:20:20.801-04:00", "updated_at": "2025-07-23T09:37:26.790-04:00", "avatar": "https://secure.gravatar.com/avatar/df326298ff618f5704c027f261908120.jpg?s=512&d=https%3A%2F%2Fa.slack-edge.com%2Fdf10d%2Fimg%2Favatars%2Fava_0010-512.png", "custom_css": null}, {"id": 18460, "slack_id": "U0972VAC474", "display_name": "EZOIHCAI", "bio": null, "projects_count": 0, "devlogs_count": 0, "votes_count": 0, "ships_count": 0, "projects": [], "coding_time_seconds": 0, "coding_time_seconds_today": 0, "balance": "You need to have a pocket watcher badge to view this.", "badges": [], "created_at": "2025-07-23T05:20:39.249-04:00", "updated_at": "2025-07-23T09:37:26.870-04:00", "avatar": "https://secure.gravatar.com/avatar/a029840df34252141d9525c1533f7cc9.jpg?s=512&d=https%3A%2F%2Fa.slack-edge.com%2Fdf10d%2Fimg%2Favatars%2Fava_0006-512.png", "custom_css": null}, {"id": 18461, "slack_id": "U096N1A10KZ", "display_name": "Abhishek Prajapatt", "bio": null, "projects_count": 0, "devlogs_count": 0, "votes_count": 0, "ships_count": 0, "projects": [], "coding_time_seconds": 0, "coding_time_seconds_today": 0, "balance": "You need to have a pocket watcher badge to view this.", "badges": [], "created_at": "2025-07-23T05:22:56.041-04:00", "updated_at": "2025-07-23T09:37:26.957-04:00", "avatar": "https://secure.gravatar.com/avatar/3ba549ab440e8326076563847466d3c7.jpg?s=512&d=https%3A%2F%2Fa.slack-edge.com%2Fdf10d%2Fimg%2Favatars%2Fava_0011-512.png", "custom_css": null}, {"id": 18462, "slack_id": "U096XP0C13M", "display_name": "Yonatan Yerushalmy", "bio": null, "projects_count": 0, "devlogs_count": 0, "votes_count": 0, "ships_count": 0, "projects": [], "coding_time_seconds": 0, "coding_time_seconds_today": 0, "balance": "You need to have a pocket watcher badge to view this.", "badges": [], "created_at": "2025-07-23T05:25:24.782-04:00", "updated_at": "2025-07-23T09:37:27.047-04:00", "avatar": "https://secure.gravatar.com/avatar/f24269d2499c54d5083e34ebd7984c7d.jpg?s=512&d=https%3A%2F%2Fa.slack-edge.com%2Fdf10d%2Fimg%2Favatars%2Fava_0019-512.png", "custom_css": null}, {"id": 18463, "slack_id": "U097GARDMDX", "display_name": "Sourav Pandey", "bio": null, "projects_count": 0, "devlogs_count": 0, "votes_count": 0, "ships_count": 0, "projects": [], "coding_time_seconds": 0, "coding_time_seconds_today": 0, "balance": "You need to have a pocket watcher badge to view this.", "badges": [], "created_at": "2025-07-23T05:35:30.117-04:00", "updated_at": "2025-07-23T09:37:27.160-04:00", "avatar": "https://avatars.slack-edge.com/2025-07-23/9241163298482_72d806b7aee4e742a1c6_original.jpg", "custom_css": null}, {"id": 18464, "slack_id": "U097RCAP740", "display_name": "Andreu", "bio": null, "projects_count": 0, "devlogs_count": 0, "votes_count": 0, "ships_count": 0, "projects": [], "coding_time_seconds": 277630, "coding_time_seconds_today": 126, "balance": "You need to have a pocket watcher badge to view this.", "badges": [], "created_at": "2025-07-23T05:39:13.316-04:00", "updated_at": "2025-07-23T09:37:27.258-04:00", "avatar": "https://secure.gravatar.com/avatar/754da1aa41461c9b84af7e01ce266dfa.jpg?s=512&d=https%3A%2F%2Fa.slack-edge.com%2Fdf10d%2Fimg%2Favatars%2Fava_0007-512.png", "custom_css": null}, {"id": 18465, "slack_id": "U097GB6PQGH", "display_name": "JB", "bio": null, "projects_count": 0, "devlogs_count": 0, "votes_count": 0, "ships_count": 0, "projects": [], "coding_time_seconds": 0, "coding_time_seconds_today": 0, "balance": "You need to have a pocket watcher badge to view this.", "badges": [], "created_at": "2025-07-23T05:40:29.048-04:00", "updated_at": "2025-07-23T09:37:27.357-04:00", "avatar": "https://avatars.slack-edge.com/2025-07-23/9235881570179_83995a30030840272d4d_original.jpg", "custom_css": null}], "pagination": {"page": 919, "pages": 1192, "count": 23828, "items": 20}}