{"users": [{"id": 1821, "slack_id": "U08D22QNUVD", "display_name": "Akaalroop", "bio": "I am a passionate coder! I love cats! :3 Meow! Also, I am learning Rust and love it! Alongside Python + Svelte <3!", "projects_count": 9, "devlogs_count": 96, "votes_count": 120, "ships_count": 6, "projects": [{"id": 4807, "title": "WORD BAN", "devlogs_count": 9, "created_at": "2025-07-01T16:34:27.028-04:00"}, {"id": 10377, "title": "justCount", "devlogs_count": 3, "created_at": "2025-08-06T12:59:50.693-04:00"}, {"id": 12312, "title": "Winter of Making minecraft mod", "devlogs_count": 13, "created_at": "2025-08-25T12:58:46.167-04:00"}, {"id": 13600, "title": "WWF Support", "devlogs_count": 4, "created_at": "2025-09-20T13:22:53.508-04:00"}, {"id": 13199, "title": "Shy bridge", "devlogs_count": 8, "created_at": "2025-09-11T12:11:26.969-04:00"}, {"id": 6305, "title": "Trafalgar to Trenches", "devlogs_count": 8, "created_at": "2025-07-12T07:18:44.413-04:00"}, {"id": 8808, "title": "Let's do it!", "devlogs_count": 11, "created_at": "2025-07-29T10:27:49.674-04:00"}, {"id": 9892, "title": "Rust Is The Best", "devlogs_count": 6, "created_at": "2025-08-02T17:26:09.709-04:00"}, {"id": 1359, "title": "CloudCat", "devlogs_count": 34, "created_at": "2025-06-18T11:46:06.517-04:00"}], "coding_time_seconds": 435044, "coding_time_seconds_today": 0, "balance": "You need to have a pocket watcher badge to view this.", "badges": [{"name": "Maiden Voyage", "text": "you shipped your first project! the journey begins...", "icon": "\ud83d\udea2"}, {"name": "Graphic Design is My Passion", "text": "Oh God How Did This Get Here I Am Not Good With Computer", "icon": "\ud83c\udfa8"}, {"name": "Spider", "text": "this user has a pet!", "icon": "\ud83d\udd77\ufe0f"}, {"name": "Yapper I", "text": "Posted 10 comments on devlogs.", "icon": "\ud83d\udcac"}, {"name": "Ballot Stuffer", "text": "vote 100 times.", "icon": "https://summer.hackclub.com/assets/i_voted-bf851b48.png"}], "created_at": "2025-06-16T14:02:48.594-04:00", "updated_at": "2025-09-10T22:52:04.153-04:00", "avatar": "https://avatars.slack-edge.com/2025-09-03/9455259986946_0132317829bad75a5ad5_original.jpg", "custom_css": ".profile-name { \r\nfont-size: 3rem; \r\ncolor: dark-green; \r\n}\r\n\r\n.profile-bio { \r\ntext-color: green;\r\n}\r\n\r\n.profile {\r\nbackground: magenta;\r\n}\r\n\r\nbody::before {\r\n  background: url(\"https://hc-cdn.hel1.your-objectstorage.com/s/v3/284728b1368d7f0082a6f47e423c80245d22be27_space_wallpaper_desktop.jpg\");\r\n  background-size: cover;\r\n  background-repeat: no-repeat;\r\n  background-position: center center;\r\n}\r\n\r\n.card-with-gradient {\r\n  background: rebeccapurple !important;\r\n}"}, {"id": 1822, "slack_id": "U091Q79C98C", "display_name": "yguo", "bio": null, "projects_count": 0, "devlogs_count": 0, "votes_count": 0, "ships_count": 0, "projects": [], "coding_time_seconds": 0, "coding_time_seconds_today": 0, "balance": "You need to have a pocket watcher badge to view this.", "badges": [], "created_at": "2025-06-16T14:02:52.630-04:00", "updated_at": "2025-07-03T19:19:23.194-04:00", "avatar": "https://secure.gravatar.com/avatar/652b1744eb37cc2b3877bc75670242bf.jpg?s=512&d=https%3A%2F%2Fa.slack-edge.com%2Fdf10d%2Fimg%2Favatars%2Fava_0026-512.png", "custom_css": null}, {"id": 1823, "slack_id": "U091PQRE42W", "display_name": "Shyam", "bio": null, "projects_count": 0, "devlogs_count": 0, "votes_count": 0, "ships_count": 0, "projects": [], "coding_time_seconds": 0, "coding_time_seconds_today": 0, "balance": "You need to have a pocket watcher badge to view this.", "badges": [], "created_at": "2025-06-16T14:02:55.939-04:00", "updated_at": "2025-07-03T19:19:23.470-04:00", "avatar": "https://secure.gravatar.com/avatar/3bf3ddc372f545a74ce34ed007f5f084.jpg?s=512&d=https%3A%2F%2Fa.slack-edge.com%2Fdf10d%2Fimg%2Favatars%2Fava_0011-512.png", "custom_css": null}, {"id": 1824, "slack_id": "U091GSCFX1R", "display_name": "Yaniv", "bio": null, "projects_count": 1, "devlogs_count": 0, "votes_count": 0, "ships_count": 0, "projects": [{"id": 316, "title": "Mace", "devlogs_count": 0, "created_at": "2025-06-16T17:55:54.643-04:00"}], "coding_time_seconds": 412910, "coding_time_seconds_today": 0, "balance": "You need to have a pocket watcher badge to view this.", "badges": [], "created_at": "2025-06-16T14:03:05.529-04:00", "updated_at": "2025-07-03T19:19:23.737-04:00", "avatar": "https://secure.gravatar.com/avatar/0d3f5ab279ed1a90e26e9f1b03c9d557.jpg?s=512&d=https%3A%2F%2Fa.slack-edge.com%2Fdf10d%2Fimg%2Favatars%2Fava_0006-512.png", "custom_css": null}, {"id": 1825, "slack_id": "U08290982KU", "display_name": "StrawberryPuding", "bio": null, "projects_count": 6, "devlogs_count": 20, "votes_count": 8, "ships_count": 1, "projects": [{"id": 2973, "title": "GraphCalc", "devlogs_count": 3, "created_at": "2025-06-22T15:59:27.395-04:00"}, {"id": 4820, "title": "Binyary", "devlogs_count": 2, "created_at": "2025-07-01T17:41:35.623-04:00"}, {"id": 11533, "title": "Queue/stack API", "devlogs_count": 5, "created_at": "2025-08-16T19:23:12.115-04:00"}, {"id": 13052, "title": "[Siege, do not ship] SoM devlog CLI", "devlogs_count": 6, "created_at": "2025-09-07T18:01:06.560-04:00"}, {"id": 13150, "title": "Shootdown", "devlogs_count": 2, "created_at": "2025-09-09T19:39:40.171-04:00"}, {"id": 12788, "title": "STM32 devboard", "devlogs_count": 2, "created_at": "2025-09-02T12:27:05.357-04:00"}], "coding_time_seconds": 165284, "coding_time_seconds_today": 0, "balance": "You need to have a pocket watcher badge to view this.", "badges": [{"name": "Maiden Voyage", "text": "you shipped your first project! the journey begins...", "icon": "\ud83d\udea2"}], "created_at": "2025-06-16T14:03:17.859-04:00", "updated_at": "2025-09-23T21:09:50.165-04:00", "avatar": "https://secure.gravatar.com/avatar/0abfdd66d7ef788618aa5686d8d5c501.jpg?s=512&d=https%3A%2F%2Fa.slack-edge.com%2Fdf10d%2Fimg%2Favatars%2Fava_0003-512.png", "custom_css": null}, {"id": 1826, "slack_id": "U091N2AM8Q5", "display_name": "niemand", "bio": null, "projects_count": 0, "devlogs_count": 0, "votes_count": 0, "ships_count": 0, "projects": [], "coding_time_seconds": 0, "coding_time_seconds_today": 0, "balance": "You need to have a pocket watcher badge to view this.", "badges": [], "created_at": "2025-06-16T14:03:37.779-04:00", "updated_at": "2025-07-03T19:19:24.274-04:00", "avatar": "https://avatars.slack-edge.com/2025-06-16/9056095053077_2beac6ec25b8ba5c73cc_original.png", "custom_css": null}, {"id": 1827, "slack_id": "U091N1V12GM", "display_name": "Manu BG", "bio": null, "projects_count": 0, "devlogs_count": 0, "votes_count": 0, "ships_count": 0, "projects": [], "coding_time_seconds": 0, "coding_time_seconds_today": 0, "balance": "You need to have a pocket watcher badge to view this.", "badges": [], "created_at": "2025-06-16T14:03:39.469-04:00", "updated_at": "2025-07-03T19:19:24.542-04:00", "avatar": "https://avatars.slack-edge.com/2025-06-16/9042561794631_9a3402a071b6d26fc3fe_original.jpg", "custom_css": null}, {"id": 1828, "slack_id": "U0918C93YUF", "display_name": "Shea Kelso", "bio": null, "projects_count": 1, "devlogs_count": 3, "votes_count": 0, "ships_count": 0, "projects": [{"id": 306, "title": "MCC Island Bingo", "devlogs_count": 3, "created_at": "2025-06-16T17:37:10.019-04:00"}], "coding_time_seconds": 183971, "coding_time_seconds_today": 0, "balance": "You need to have a pocket watcher badge to view this.", "badges": [], "created_at": "2025-06-16T14:03:44.956-04:00", "updated_at": "2025-07-03T19:19:24.803-04:00", "avatar": "https://avatars.slack-edge.com/2025-06-16/9070420793681_de50de4c63d99c477125_original.png", "custom_css": null}, {"id": 1829, "slack_id": "U091GUPRCEA", "display_name": "Alper Karaca", "bio": null, "projects_count": 0, "devlogs_count": 0, "votes_count": 0, "ships_count": 0, "projects": [], "coding_time_seconds": 0, "coding_time_seconds_today": 0, "balance": "You need to have a pocket watcher badge to view this.", "badges": [], "created_at": "2025-06-16T14:03:53.900-04:00", "updated_at": "2025-07-03T19:19:25.066-04:00", "avatar": "https://secure.gravatar.com/avatar/fc700a64a7ab5d8597bff99ed2395888.jpg?s=512&d=https%3A%2F%2Fa.slack-edge.com%2Fdf10d%2Fimg%2Favatars%2Fava_0025-512.png", "custom_css": null}, {"id": 1830, "slack_id": "U0918G0RC79", "display_name": "Nujan", "bio": null, "projects_count": 0, "devlogs_count": 0, "votes_count": 0, "ships_count": 0, "projects": [], "coding_time_seconds": 0, "coding_time_seconds_today": 0, "balance": "You need to have a pocket watcher badge to view this.", "badges": [], "created_at": "2025-06-16T14:04:08.893-04:00", "updated_at": "2025-07-03T19:19:25.343-04:00", "avatar": "https://secure.gravatar.com/avatar/3043070e69a481dc3b8c8726ee4def3d.jpg?s=512&d=https%3A%2F%2Fa.slack-edge.com%2Fdf10d%2Fimg%2Favatars%2Fava_0002-512.png", "custom_css": null}, {"id": 1831, "slack_id": "U091N2EDGRK", "display_name": "Yashwant", "bio": null, "projects_count": 0, "devlogs_count": 0, "votes_count": 0, "ships_count": 0, "projects": [], "coding_time_seconds": 0, "coding_time_seconds_today": 0, "balance": "You need to have a pocket watcher badge to view this.", "badges": [], "created_at": "2025-06-16T14:04:19.436-04:00", "updated_at": "2025-07-03T19:19:25.640-04:00", "avatar": "https://secure.gravatar.com/avatar/f96851816f2b39a776dc8e286f8df069.jpg?s=512&d=https%3A%2F%2Fa.slack-edge.com%2Fdf10d%2Fimg%2Favatars%2Fava_0004-512.png", "custom_css": null}, {"id": 1832, "slack_id": "U087170R2QN", "display_name": "Areeb", "bio": null, "projects_count": 0, "devlogs_count": 0, "votes_count": 0, "ships_count": 0, "projects": [], "coding_time_seconds": 728, "coding_time_seconds_today": 0, "balance": "You need to have a pocket watcher badge to view this.", "badges": [], "created_at": "2025-06-16T14:04:19.987-04:00", "updated_at": "2025-07-03T19:19:25.907-04:00", "avatar": "https://secure.gravatar.com/avatar/a82c443410996ccaf09000ee2ef4bd24.jpg?s=512&d=https%3A%2F%2Fa.slack-edge.com%2Fdf10d%2Fimg%2Favatars%2Fava_0016-512.png", "custom_css": null}, {"id": 1833, "slack_id": "U091GRMUNSF", "display_name": "Erik Horn", "bio": null, "projects_count": 0, "devlogs_count": 0, "votes_count": 0, "ships_count": 0, "projects": [], "coding_time_seconds": 254625, "coding_time_seconds_today": 0, "balance": "You need to have a pocket watcher badge to view this.", "badges": [], "created_at": "2025-06-16T14:04:28.437-04:00", "updated_at": "2025-07-03T19:19:26.174-04:00", "avatar": "https://secure.gravatar.com/avatar/1de9997220fb4e953f5d06c0d7b2ca83.jpg?s=512&d=https%3A%2F%2Fa.slack-edge.com%2Fdf10d%2Fimg%2Favatars%2Fava_0010-512.png", "custom_css": null}, {"id": 1834, "slack_id": "U091H0022K0", "display_name": "Aakriti", "bio": null, "projects_count": 7, "devlogs_count": 16, "votes_count": 97, "ships_count": 5, "projects": [{"id": 4953, "title": "The Bun Lab", "devlogs_count": 1, "created_at": "2025-07-02T11:30:32.680-04:00"}, {"id": 13038, "title": "Echoes in Red", "devlogs_count": 4, "created_at": "2025-09-07T11:31:45.812-04:00"}, {"id": 1052, "title": "Anime Quotes", "devlogs_count": 2, "created_at": "2025-06-17T14:31:31.556-04:00"}, {"id": 7826, "title": "Pong War", "devlogs_count": 4, "created_at": "2025-07-23T07:19:25.073-04:00"}, {"id": 5865, "title": "To-Do List", "devlogs_count": 1, "created_at": "2025-07-08T15:25:39.964-04:00"}, {"id": 10020, "title": "Pretty Cal", "devlogs_count": 1, "created_at": "2025-08-03T13:53:26.260-04:00"}, {"id": 170, "title": "Rock Paper Scissors ", "devlogs_count": 2, "created_at": "2025-06-16T14:53:35.059-04:00"}], "coding_time_seconds": 196112, "coding_time_seconds_today": 0, "balance": "You need to have a pocket watcher badge to view this.", "badges": [{"name": "Maiden Voyage", "text": "you shipped your first project! the journey begins...", "icon": "\ud83d\udea2"}, {"name": "Ballot Stuffer", "text": "vote 100 times.", "icon": "https://summer.hackclub.com/assets/i_voted-bf851b48.png"}], "created_at": "2025-06-16T14:04:33.227-04:00", "updated_at": "2025-09-23T16:46:13.341-04:00", "avatar": "https://avatars.slack-edge.com/2025-06-16/9080349245440_f81a8ead8370bbabc62e_original.jpg", "custom_css": null}, {"id": 1835, "slack_id": "U091N2JD5RB", "display_name": "Sachin Sharma", "bio": null, "projects_count": 0, "devlogs_count": 0, "votes_count": 0, "ships_count": 0, "projects": [], "coding_time_seconds": 12684, "coding_time_seconds_today": 0, "balance": "You need to have a pocket watcher badge to view this.", "badges": [], "created_at": "2025-06-16T14:05:07.335-04:00", "updated_at": "2025-07-03T19:19:26.712-04:00", "avatar": "https://secure.gravatar.com/avatar/8ed08b95e56e0b0e25c3122462d12222.jpg?s=512&d=https%3A%2F%2Fa.slack-edge.com%2Fdf10d%2Fimg%2Favatars%2Fava_0012-512.png", "custom_css": null}, {"id": 1836, "slack_id": "U0922C4UGKB", "display_name": "Junianto Endra", "bio": null, "projects_count": 0, "devlogs_count": 0, "votes_count": 0, "ships_count": 0, "projects": [], "coding_time_seconds": 0, "coding_time_seconds_today": 0, "balance": "You need to have a pocket watcher badge to view this.", "badges": [], "created_at": "2025-06-16T14:05:37.605-04:00", "updated_at": "2025-07-03T19:19:26.985-04:00", "avatar": "https://secure.gravatar.com/avatar/9f95866ea5d29545badfc2dbe9ceb893.jpg?s=512&d=https%3A%2F%2Fa.slack-edge.com%2Fdf10d%2Fimg%2Favatars%2Fava_0005-512.png", "custom_css": null}, {"id": 1837, "slack_id": "U091Q7MU6CU", "display_name": "Luca Crispino", "bio": null, "projects_count": 0, "devlogs_count": 0, "votes_count": 0, "ships_count": 0, "projects": [], "coding_time_seconds": 2045, "coding_time_seconds_today": 0, "balance": "You need to have a pocket watcher badge to view this.", "badges": [], "created_at": "2025-06-16T14:05:38.035-04:00", "updated_at": "2025-07-03T19:19:27.258-04:00", "avatar": "https://secure.gravatar.com/avatar/21bde853ab6bf2132f59021b70d2bd8e.jpg?s=512&d=https%3A%2F%2Fa.slack-edge.com%2Fdf10d%2Fimg%2Favatars%2Fava_0017-512.png", "custom_css": null}, {"id": 1838, "slack_id": "U091H013ZL6", "display_name": "Gecko Pie", "bio": null, "projects_count": 0, "devlogs_count": 0, "votes_count": 0, "ships_count": 0, "projects": [], "coding_time_seconds": 11326, "coding_time_seconds_today": 0, "balance": "You need to have a pocket watcher badge to view this.", "badges": [], "created_at": "2025-06-16T14:05:54.460-04:00", "updated_at": "2025-07-03T19:19:27.591-04:00", "avatar": "https://secure.gravatar.com/avatar/b3cf5ab869e14bdb2396a314fb6f8ab7.jpg?s=512&d=https%3A%2F%2Fa.slack-edge.com%2Fdf10d%2Fimg%2Favatars%2Fava_0011-512.png", "custom_css": null}, {"id": 1839, "slack_id": "U091GSY7MH9", "display_name": "Tobias", "bio": "", "projects_count": 2, "devlogs_count": 3, "votes_count": 35, "ships_count": 1, "projects": [{"id": 8111, "title": "CounterApp", "devlogs_count": 2, "created_at": "2025-07-24T17:19:21.807-04:00"}, {"id": 12936, "title": "GhostPixel", "devlogs_count": 0, "created_at": "2025-09-05T16:31:53.768-04:00"}], "coding_time_seconds": 166331, "coding_time_seconds_today": 0, "balance": "You need to have a pocket watcher badge to view this.", "badges": [{"name": "Maiden Voyage", "text": "you shipped your first project! the journey begins...", "icon": "\ud83d\udea2"}], "created_at": "2025-06-16T14:05:58.636-04:00", "updated_at": "2025-09-10T22:52:04.575-04:00", "avatar": "https://secure.gravatar.com/avatar/a67e3937105b88a1d4b86b1350021518.jpg?s=512&d=https%3A%2F%2Fa.slack-edge.com%2Fdf10d%2Fimg%2Favatars%2Fava_0009-512.png", "custom_css": null}, {"id": 1840, "slack_id": "U091Q5Q0Z7W", "display_name": "MrEmerson", "bio": null, "projects_count": 0, "devlogs_count": 0, "votes_count": 0, "ships_count": 0, "projects": [], "coding_time_seconds": 0, "coding_time_seconds_today": 0, "balance": "You need to have a pocket watcher badge to view this.", "badges": [], "created_at": "2025-06-16T14:06:13.433-04:00", "updated_at": "2025-07-03T19:19:28.144-04:00", "avatar": "https://secure.gravatar.com/avatar/a084024fcebc82f34abf33ca04b8754b.jpg?s=512&d=https%3A%2F%2Fa.slack-edge.com%2Fdf10d%2Fimg%2Favatars%2Fava_0004-512.png", "custom_css": null}], "pagination": {"page": 92, "pages": 1192, "count": 23828, "items": 20}}