{"users": [{"id": 18466, "slack_id": "U096XRL83PD", "display_name": "HaLim", "bio": null, "projects_count": 0, "devlogs_count": 0, "votes_count": 0, "ships_count": 0, "projects": [], "coding_time_seconds": 0, "coding_time_seconds_today": 0, "balance": "You need to have a pocket watcher badge to view this.", "badges": [], "created_at": "2025-07-23T05:40:43.922-04:00", "updated_at": "2025-07-23T09:37:27.454-04:00", "avatar": "https://secure.gravatar.com/avatar/7e6e1362fb381a5a2087015d0c9ad9e5.jpg?s=512&d=https%3A%2F%2Fa.slack-edge.com%2Fdf10d%2Fimg%2Favatars%2Fava_0017-512.png", "custom_css": null}, {"id": 18467, "slack_id": "U097RCERXJL", "display_name": "Srinivas", "bio": null, "projects_count": 0, "devlogs_count": 0, "votes_count": 0, "ships_count": 0, "projects": [], "coding_time_seconds": 0, "coding_time_seconds_today": 0, "balance": "You need to have a pocket watcher badge to view this.", "badges": [], "created_at": "2025-07-23T05:40:45.237-04:00", "updated_at": "2025-07-23T09:37:27.539-04:00", "avatar": "https://secure.gravatar.com/avatar/1fc4816c6cd2f087d3525e84bee17af5.jpg?s=512&d=https%3A%2F%2Fa.slack-edge.com%2Fdf10d%2Fimg%2Favatars%2Fava_0001-512.png", "custom_css": null}, {"id": 18468, "slack_id": "U097RCRLXQ8", "display_name": "Mihai", "bio": null, "projects_count": 0, "devlogs_count": 0, "votes_count": 0, "ships_count": 0, "projects": [], "coding_time_seconds": 0, "coding_time_seconds_today": 0, "balance": "You need to have a pocket watcher badge to view this.", "badges": [], "created_at": "2025-07-23T05:44:04.999-04:00", "updated_at": "2025-07-23T09:37:27.635-04:00", "avatar": "https://secure.gravatar.com/avatar/555ba59525eef138f44d033ca92c4132.jpg?s=512&d=https%3A%2F%2Fa.slack-edge.com%2Fdf10d%2Fimg%2Favatars%2Fava_0023-512.png", "custom_css": null}, {"id": 18469, "slack_id": "U096TSERM5Y", "display_name": "Mateusz", "bio": null, "projects_count": 0, "devlogs_count": 0, "votes_count": 0, "ships_count": 0, "projects": [], "coding_time_seconds": 3175, "coding_time_seconds_today": 0, "balance": "You need to have a pocket watcher badge to view this.", "badges": [], "created_at": "2025-07-23T05:44:33.082-04:00", "updated_at": "2025-07-23T09:37:31.749-04:00", "avatar": "https://secure.gravatar.com/avatar/67728f086d51522e63abd28af5ec1a75.jpg?s=512&d=https%3A%2F%2Fa.slack-edge.com%2Fdf10d%2Fimg%2Favatars%2Fava_0020-512.png", "custom_css": null}, {"id": 18470, "slack_id": "U096XS670JF", "display_name": "Waleed Ajmal", "bio": null, "projects_count": 0, "devlogs_count": 0, "votes_count": 0, "ships_count": 0, "projects": [], "coding_time_seconds": 0, "coding_time_seconds_today": 0, "balance": "You need to have a pocket watcher badge to view this.", "badges": [], "created_at": "2025-07-23T05:45:30.673-04:00", "updated_at": "2025-07-23T09:37:31.835-04:00", "avatar": "https://secure.gravatar.com/avatar/a0a8026a3d690437ca861ea3240be20a.jpg?s=512&d=https%3A%2F%2Fa.slack-edge.com%2Fdf10d%2Fimg%2Favatars%2Fava_0001-512.png", "custom_css": null}, {"id": 18471, "slack_id": "U09707PQHHU", "display_name": "Himkar Singh", "bio": null, "projects_count": 0, "devlogs_count": 0, "votes_count": 0, "ships_count": 0, "projects": [], "coding_time_seconds": 0, "coding_time_seconds_today": 0, "balance": "You need to have a pocket watcher badge to view this.", "badges": [], "created_at": "2025-07-23T05:47:17.713-04:00", "updated_at": "2025-07-23T09:37:31.915-04:00", "avatar": "https://secure.gravatar.com/avatar/93c19a5e9186047cf214e97c4ff4aae7.jpg?s=512&d=https%3A%2F%2Fa.slack-edge.com%2Fdf10d%2Fimg%2Favatars%2Fava_0008-512.png", "custom_css": null}, {"id": 18472, "slack_id": "U097RD7DSUQ", "display_name": "HaLim", "bio": null, "projects_count": 0, "devlogs_count": 0, "votes_count": 0, "ships_count": 0, "projects": [], "coding_time_seconds": 55807, "coding_time_seconds_today": 0, "balance": "You need to have a pocket watcher badge to view this.", "badges": [], "created_at": "2025-07-23T05:48:14.068-04:00", "updated_at": "2025-07-23T09:37:32.001-04:00", "avatar": "https://secure.gravatar.com/avatar/dc9210a54fcdc899b3b88b271c4675d2.jpg?s=512&d=https%3A%2F%2Fa.slack-edge.com%2Fdf10d%2Fimg%2Favatars%2Fava_0013-512.png", "custom_css": null}, {"id": 18473, "slack_id": "U097RDJ6HQ8", "display_name": "Aqdas Ikram", "bio": null, "projects_count": 0, "devlogs_count": 0, "votes_count": 0, "ships_count": 0, "projects": [], "coding_time_seconds": 0, "coding_time_seconds_today": 0, "balance": "You need to have a pocket watcher badge to view this.", "badges": [], "created_at": "2025-07-23T05:49:14.813-04:00", "updated_at": "2025-07-23T09:37:32.084-04:00", "avatar": "https://secure.gravatar.com/avatar/3cb63117caceb357425d8f80116c6218.jpg?s=512&d=https%3A%2F%2Fa.slack-edge.com%2Fdf10d%2Fimg%2Favatars%2Fava_0019-512.png", "custom_css": null}, {"id": 18474, "slack_id": "U0971C3C44D", "display_name": "sebastian", "bio": null, "projects_count": 4, "devlogs_count": 35, "votes_count": 21, "ships_count": 2, "projects": [{"id": 7816, "title": "nSimon", "devlogs_count": 5, "created_at": "2025-07-23T06:14:56.907-04:00"}, {"id": 10705, "title": "TimeTrove", "devlogs_count": 11, "created_at": "2025-08-10T00:02:02.898-04:00"}, {"id": 12636, "title": "Portfolio", "devlogs_count": 14, "created_at": "2025-08-30T19:50:54.662-04:00"}, {"id": 13314, "title": "terminalPlace", "devlogs_count": 5, "created_at": "2025-09-13T20:50:35.122-04:00"}], "coding_time_seconds": 336706, "coding_time_seconds_today": 11703, "balance": "You need to have a pocket watcher badge to view this.", "badges": [], "created_at": "2025-07-23T05:50:25.849-04:00", "updated_at": "2025-09-13T20:50:12.291-04:00", "avatar": "https://avatars.slack-edge.com/2025-09-05/9467378320548_54b51ac1ae132b815ad2_original.png", "custom_css": null}, {"id": 18475, "slack_id": "U0971CETWCV", "display_name": "Arooj Abbas", "bio": null, "projects_count": 0, "devlogs_count": 0, "votes_count": 0, "ships_count": 0, "projects": [], "coding_time_seconds": 0, "coding_time_seconds_today": 0, "balance": "You need to have a pocket watcher badge to view this.", "badges": [], "created_at": "2025-07-23T05:55:33.611-04:00", "updated_at": "2025-07-23T09:37:32.266-04:00", "avatar": "https://secure.gravatar.com/avatar/dc5f3af2027f39ba8c19bea20c0a67cd.jpg?s=512&d=https%3A%2F%2Fa.slack-edge.com%2Fdf10d%2Fimg%2Favatars%2Fava_0008-512.png", "custom_css": null}, {"id": 18476, "slack_id": "U09736WR9L2", "display_name": "Samuel Nummela", "bio": null, "projects_count": 0, "devlogs_count": 0, "votes_count": 0, "ships_count": 0, "projects": [], "coding_time_seconds": 0, "coding_time_seconds_today": 0, "balance": "You need to have a pocket watcher badge to view this.", "badges": [], "created_at": "2025-07-23T05:56:30.709-04:00", "updated_at": "2025-07-23T09:37:32.382-04:00", "avatar": "https://secure.gravatar.com/avatar/8280ae386892a674df43b3a3a944000b.jpg?s=512&d=https%3A%2F%2Fa.slack-edge.com%2Fdf10d%2Fimg%2Favatars%2Fava_0002-512.png", "custom_css": null}, {"id": 18477, "slack_id": "U097GDDQY81", "display_name": "Govin Bhandari", "bio": null, "projects_count": 0, "devlogs_count": 0, "votes_count": 0, "ships_count": 0, "projects": [], "coding_time_seconds": 0, "coding_time_seconds_today": 0, "balance": "You need to have a pocket watcher badge to view this.", "badges": [], "created_at": "2025-07-23T05:58:42.380-04:00", "updated_at": "2025-07-23T09:37:32.466-04:00", "avatar": "https://avatars.slack-edge.com/2025-07-23/9241269646402_ff40d1ba4e1e3a24c1eb_original.png", "custom_css": null}, {"id": 18478, "slack_id": "U096XU5LSRH", "display_name": "Shreyash Rakhunde", "bio": null, "projects_count": 0, "devlogs_count": 0, "votes_count": 0, "ships_count": 0, "projects": [], "coding_time_seconds": 0, "coding_time_seconds_today": 0, "balance": "You need to have a pocket watcher badge to view this.", "badges": [], "created_at": "2025-07-23T06:01:08.503-04:00", "updated_at": "2025-07-23T09:37:32.553-04:00", "avatar": "https://secure.gravatar.com/avatar/615e6fb502e34b5ebbce86dbd8016e16.jpg?s=512&d=https%3A%2F%2Fa.slack-edge.com%2Fdf10d%2Fimg%2Favatars%2Fava_0007-512.png", "custom_css": null}, {"id": 18479, "slack_id": "U097GEWGX5X", "display_name": "Dewmi Hennayake", "bio": null, "projects_count": 0, "devlogs_count": 0, "votes_count": 0, "ships_count": 0, "projects": [], "coding_time_seconds": 0, "coding_time_seconds_today": 0, "balance": "You need to have a pocket watcher badge to view this.", "badges": [], "created_at": "2025-07-23T06:06:14.473-04:00", "updated_at": "2025-07-23T09:37:32.656-04:00", "avatar": "https://secure.gravatar.com/avatar/1f9148804262924f549520a8f81a0d8b.jpg?s=512&d=https%3A%2F%2Fa.slack-edge.com%2Fdf10d%2Fimg%2Favatars%2Fava_0020-512.png", "custom_css": null}, {"id": 18480, "slack_id": "U0971EVDVM3", "display_name": "Prateek", "bio": null, "projects_count": 0, "devlogs_count": 0, "votes_count": 0, "ships_count": 0, "projects": [], "coding_time_seconds": 0, "coding_time_seconds_today": 0, "balance": "You need to have a pocket watcher badge to view this.", "badges": [], "created_at": "2025-07-23T06:10:00.739-04:00", "updated_at": "2025-07-23T09:37:32.739-04:00", "avatar": "https://secure.gravatar.com/avatar/a573e4a22a9011f6746e8a79d98916cc.jpg?s=512&d=https%3A%2F%2Fa.slack-edge.com%2Fdf10d%2Fimg%2Favatars%2Fava_0000-512.png", "custom_css": null}, {"id": 18481, "slack_id": "U096Y0F106P", "display_name": "Bipratip karmakar", "bio": null, "projects_count": 0, "devlogs_count": 0, "votes_count": 0, "ships_count": 0, "projects": [], "coding_time_seconds": 0, "coding_time_seconds_today": 0, "balance": "You need to have a pocket watcher badge to view this.", "badges": [], "created_at": "2025-07-23T06:11:17.791-04:00", "updated_at": "2025-07-23T09:37:32.816-04:00", "avatar": "https://secure.gravatar.com/avatar/a4b0bfb51e10e9f1f72d9aa956dba710.jpg?s=512&d=https%3A%2F%2Fa.slack-edge.com%2Fdf10d%2Fimg%2Favatars%2Fava_0018-512.png", "custom_css": null}, {"id": 18482, "slack_id": "U096Y0WT8UT", "display_name": "moiz", "bio": null, "projects_count": 0, "devlogs_count": 0, "votes_count": 0, "ships_count": 0, "projects": [], "coding_time_seconds": 0, "coding_time_seconds_today": 0, "balance": "You need to have a pocket watcher badge to view this.", "badges": [], "created_at": "2025-07-23T06:14:38.248-04:00", "updated_at": "2025-07-23T09:37:32.932-04:00", "avatar": "https://secure.gravatar.com/avatar/85867150090e8c61a09c2261fabc5ec9.jpg?s=512&d=https%3A%2F%2Fa.slack-edge.com%2Fdf10d%2Fimg%2Favatars%2Fava_0015-512.png", "custom_css": null}, {"id": 18483, "slack_id": "U0973A43918", "display_name": "Sam", "bio": null, "projects_count": 0, "devlogs_count": 0, "votes_count": 0, "ships_count": 0, "projects": [], "coding_time_seconds": 0, "coding_time_seconds_today": 0, "balance": "You need to have a pocket watcher badge to view this.", "badges": [], "created_at": "2025-07-23T06:18:06.452-04:00", "updated_at": "2025-07-23T09:37:33.017-04:00", "avatar": "https://secure.gravatar.com/avatar/c66c14935e46d638cbfd32390fdb2d95.jpg?s=512&d=https%3A%2F%2Fa.slack-edge.com%2Fdf10d%2Fimg%2Favatars%2Fava_0018-512.png", "custom_css": null}, {"id": 18484, "slack_id": "U096N9DL8T1", "display_name": "Srinith Reddy", "bio": null, "projects_count": 0, "devlogs_count": 0, "votes_count": 0, "ships_count": 0, "projects": [], "coding_time_seconds": 0, "coding_time_seconds_today": 0, "balance": "You need to have a pocket watcher badge to view this.", "badges": [], "created_at": "2025-07-23T06:19:13.359-04:00", "updated_at": "2025-07-23T09:37:33.115-04:00", "avatar": "https://secure.gravatar.com/avatar/5fdaa2f200e2339d4fba02bc86b08e80.jpg?s=512&d=https%3A%2F%2Fa.slack-edge.com%2Fdf10d%2Fimg%2Favatars%2Fava_0014-512.png", "custom_css": null}, {"id": 18485, "slack_id": "U0974FE91D2", "display_name": "Adam Baira", "bio": null, "projects_count": 0, "devlogs_count": 0, "votes_count": 0, "ships_count": 0, "projects": [], "coding_time_seconds": 0, "coding_time_seconds_today": 0, "balance": "You need to have a pocket watcher badge to view this.", "badges": [], "created_at": "2025-07-23T06:20:11.324-04:00", "updated_at": "2025-07-23T09:37:33.194-04:00", "avatar": "https://secure.gravatar.com/avatar/8416ec7469bda0c94700eb9e8ece1327.jpg?s=512&d=https%3A%2F%2Fa.slack-edge.com%2Fdf10d%2Fimg%2Favatars%2Fava_0022-512.png", "custom_css": null}], "pagination": {"page": 920, "pages": 1192, "count": 23828, "items": 20}}