{"users": [{"id": 18506, "slack_id": "U097RN6MXPS", "display_name": "Hamza Wahab", "bio": null, "projects_count": 1, "devlogs_count": 0, "votes_count": 0, "ships_count": 0, "projects": [{"id": 7829, "title": "Nemesis", "devlogs_count": 0, "created_at": "2025-07-23T07:34:55.776-04:00"}], "coding_time_seconds": 413420, "coding_time_seconds_today": 0, "balance": "You need to have a pocket watcher badge to view this.", "badges": [], "created_at": "2025-07-23T06:56:19.747-04:00", "updated_at": "2025-07-23T09:37:39.167-04:00", "avatar": "https://avatars.slack-edge.com/2025-07-23/9226481793863_b42fea592970348cace1_original.jpg", "custom_css": null}, {"id": 18507, "slack_id": "U096Y6DP49Z", "display_name": "Anthony Glegola", "bio": null, "projects_count": 0, "devlogs_count": 0, "votes_count": 0, "ships_count": 0, "projects": [], "coding_time_seconds": 0, "coding_time_seconds_today": 0, "balance": "You need to have a pocket watcher badge to view this.", "badges": [], "created_at": "2025-07-23T06:57:52.695-04:00", "updated_at": "2025-07-23T09:37:39.258-04:00", "avatar": "https://secure.gravatar.com/avatar/a1500ad8e4fbc875f02288cb6373294a.jpg?s=512&d=https%3A%2F%2Fa.slack-edge.com%2Fdf10d%2Fimg%2Favatars%2Fava_0018-512.png", "custom_css": null}, {"id": 18508, "slack_id": "U097RN5U17S", "display_name": "moeez", "bio": null, "projects_count": 0, "devlogs_count": 0, "votes_count": 0, "ships_count": 0, "projects": [], "coding_time_seconds": 0, "coding_time_seconds_today": 0, "balance": "You need to have a pocket watcher badge to view this.", "badges": [], "created_at": "2025-07-23T06:58:35.835-04:00", "updated_at": "2025-07-23T09:37:39.346-04:00", "avatar": "https://secure.gravatar.com/avatar/29be10679dcca1b2d61c00b3d6290486.jpg?s=512&d=https%3A%2F%2Fa.slack-edge.com%2Fdf10d%2Fimg%2Favatars%2Fava_0002-512.png", "custom_css": null}, {"id": 18509, "slack_id": "U096V0T4N1H", "display_name": "Joseph Braithwaite", "bio": null, "projects_count": 0, "devlogs_count": 0, "votes_count": 0, "ships_count": 0, "projects": [], "coding_time_seconds": 9438, "coding_time_seconds_today": 0, "balance": "You need to have a pocket watcher badge to view this.", "badges": [], "created_at": "2025-07-23T07:02:38.720-04:00", "updated_at": "2025-07-24T08:22:48.710-04:00", "avatar": "https://secure.gravatar.com/avatar/c8c3312c58bb6ca23141c86cd79e014d.jpg?s=512&d=https%3A%2F%2Fa.slack-edge.com%2Fdf10d%2Fimg%2Favatars%2Fava_0020-512.png", "custom_css": null}, {"id": 18510, "slack_id": "U096NEMDD63", "display_name": "Vidun", "bio": null, "projects_count": 0, "devlogs_count": 0, "votes_count": 0, "ships_count": 0, "projects": [], "coding_time_seconds": 0, "coding_time_seconds_today": 0, "balance": "You need to have a pocket watcher badge to view this.", "badges": [], "created_at": "2025-07-23T07:02:50.273-04:00", "updated_at": "2025-07-23T09:37:39.545-04:00", "avatar": "https://secure.gravatar.com/avatar/6adb324c80de7382dac28ef77f8567f9.jpg?s=512&d=https%3A%2F%2Fa.slack-edge.com%2Fdf10d%2Fimg%2Favatars%2Fava_0014-512.png", "custom_css": null}, {"id": 18511, "slack_id": "U097RPMC5PS", "display_name": "vegito", "bio": null, "projects_count": 0, "devlogs_count": 0, "votes_count": 0, "ships_count": 0, "projects": [], "coding_time_seconds": 0, "coding_time_seconds_today": 0, "balance": "You need to have a pocket watcher badge to view this.", "badges": [], "created_at": "2025-07-23T07:05:48.952-04:00", "updated_at": "2025-07-23T09:37:43.682-04:00", "avatar": "https://secure.gravatar.com/avatar/1e967ac1143b10150af474c39932e278.jpg?s=512&d=https%3A%2F%2Fa.slack-edge.com%2Fdf10d%2Fimg%2Favatars%2Fava_0006-512.png", "custom_css": null}, {"id": 18512, "slack_id": "U097RPM6FNC", "display_name": "Shubhit", "bio": null, "projects_count": 0, "devlogs_count": 0, "votes_count": 0, "ships_count": 0, "projects": [], "coding_time_seconds": 0, "coding_time_seconds_today": 0, "balance": "You need to have a pocket watcher badge to view this.", "badges": [], "created_at": "2025-07-23T07:07:05.601-04:00", "updated_at": "2025-07-23T09:37:43.780-04:00", "avatar": "https://secure.gravatar.com/avatar/05f1184e01847b531c552d667af1d6f4.jpg?s=512&d=https%3A%2F%2Fa.slack-edge.com%2Fdf10d%2Fimg%2Favatars%2Fava_0007-512.png", "custom_css": null}, {"id": 18513, "slack_id": "U097RPHUJ5N", "display_name": "Md Eaman Adeep", "bio": null, "projects_count": 0, "devlogs_count": 0, "votes_count": 0, "ships_count": 0, "projects": [], "coding_time_seconds": 144653, "coding_time_seconds_today": 0, "balance": "You need to have a pocket watcher badge to view this.", "badges": [], "created_at": "2025-07-23T07:07:06.581-04:00", "updated_at": "2025-07-23T09:37:43.863-04:00", "avatar": "https://secure.gravatar.com/avatar/21928c175e04e46686858b41e0914f27.jpg?s=512&d=https%3A%2F%2Fa.slack-edge.com%2Fdf10d%2Fimg%2Favatars%2Fava_0001-512.png", "custom_css": null}, {"id": 18514, "slack_id": "U097GPEFYBT", "display_name": "davi", "bio": null, "projects_count": 0, "devlogs_count": 0, "votes_count": 0, "ships_count": 0, "projects": [], "coding_time_seconds": 0, "coding_time_seconds_today": 0, "balance": "You need to have a pocket watcher badge to view this.", "badges": [], "created_at": "2025-07-23T07:13:49.124-04:00", "updated_at": "2025-07-23T09:37:43.950-04:00", "avatar": "https://secure.gravatar.com/avatar/791b24fb9178321fcb911da3229c5c65.jpg?s=512&d=https%3A%2F%2Fa.slack-edge.com%2Fdf10d%2Fimg%2Favatars%2Fava_0025-512.png", "custom_css": null}, {"id": 18515, "slack_id": "U0970JE0VF0", "display_name": "Muhammad Shafiq", "bio": null, "projects_count": 0, "devlogs_count": 0, "votes_count": 0, "ships_count": 0, "projects": [], "coding_time_seconds": 3193, "coding_time_seconds_today": 0, "balance": "You need to have a pocket watcher badge to view this.", "badges": [], "created_at": "2025-07-23T07:14:28.277-04:00", "updated_at": "2025-07-23T09:37:44.045-04:00", "avatar": "https://avatars.slack-edge.com/2025-07-23/9239805313765_38c177ec6e6e82fca2dd_original.png", "custom_css": null}, {"id": 18516, "slack_id": "U096NFTU6MV", "display_name": "\ud559\uc0dd\uae40\uc131\uc8fc", "bio": null, "projects_count": 0, "devlogs_count": 0, "votes_count": 0, "ships_count": 0, "projects": [], "coding_time_seconds": 0, "coding_time_seconds_today": 0, "balance": "You need to have a pocket watcher badge to view this.", "badges": [], "created_at": "2025-07-23T07:16:16.634-04:00", "updated_at": "2025-07-23T09:37:44.136-04:00", "avatar": "https://avatars.slack-edge.com/2025-07-23/9254827782865_0d203c3c49657adae00d_original.png", "custom_css": null}, {"id": 18517, "slack_id": "U0971P4E05B", "display_name": "paradox", "bio": null, "projects_count": 0, "devlogs_count": 0, "votes_count": 0, "ships_count": 0, "projects": [], "coding_time_seconds": 959, "coding_time_seconds_today": 0, "balance": "You need to have a pocket watcher badge to view this.", "badges": [], "created_at": "2025-07-23T07:16:28.052-04:00", "updated_at": "2025-07-24T14:16:07.624-04:00", "avatar": "https://secure.gravatar.com/avatar/fcf1c7ff415dc1f2985ee3c0ea6c29cd.jpg?s=512&d=https%3A%2F%2Fa.slack-edge.com%2Fdf10d%2Fimg%2Favatars%2Fava_0009-512.png", "custom_css": null}, {"id": 18518, "slack_id": "U097GQN275X", "display_name": "Swagnik Dutta", "bio": null, "projects_count": 0, "devlogs_count": 0, "votes_count": 0, "ships_count": 0, "projects": [], "coding_time_seconds": 0, "coding_time_seconds_today": 0, "balance": "You need to have a pocket watcher badge to view this.", "badges": [], "created_at": "2025-07-23T07:21:18.284-04:00", "updated_at": "2025-07-23T09:37:48.350-04:00", "avatar": "https://secure.gravatar.com/avatar/faa7a6253e9af949e0809e93caddf2c9.jpg?s=512&d=https%3A%2F%2Fa.slack-edge.com%2Fdf10d%2Fimg%2Favatars%2Fava_0006-512.png", "custom_css": null}, {"id": 18519, "slack_id": "U096Y5Z704B", "display_name": "Amina Amjad", "bio": null, "projects_count": 0, "devlogs_count": 0, "votes_count": 0, "ships_count": 0, "projects": [], "coding_time_seconds": 0, "coding_time_seconds_today": 0, "balance": "You need to have a pocket watcher badge to view this.", "badges": [], "created_at": "2025-07-23T07:27:33.113-04:00", "updated_at": "2025-07-23T09:37:48.438-04:00", "avatar": "https://secure.gravatar.com/avatar/9bda1101282afb1f41bd90bfdefd582a.jpg?s=512&d=https%3A%2F%2Fa.slack-edge.com%2Fdf10d%2Fimg%2Favatars%2Fava_0007-512.png", "custom_css": null}, {"id": 18520, "slack_id": "U096YAZNHJP", "display_name": "Usman Ali", "bio": null, "projects_count": 0, "devlogs_count": 0, "votes_count": 0, "ships_count": 0, "projects": [], "coding_time_seconds": 0, "coding_time_seconds_today": 0, "balance": "You need to have a pocket watcher badge to view this.", "badges": [], "created_at": "2025-07-23T07:31:57.541-04:00", "updated_at": "2025-07-23T09:37:48.516-04:00", "avatar": "https://avatars.slack-edge.com/2025-07-23/9236391439475_666483c5a36e9dcef801_original.jpg", "custom_css": null}, {"id": 18521, "slack_id": "U097RSD9F16", "display_name": "Ayaan", "bio": null, "projects_count": 0, "devlogs_count": 0, "votes_count": 0, "ships_count": 0, "projects": [], "coding_time_seconds": 0, "coding_time_seconds_today": 0, "balance": "You need to have a pocket watcher badge to view this.", "badges": [], "created_at": "2025-07-23T07:32:06.409-04:00", "updated_at": "2025-07-23T09:37:48.595-04:00", "avatar": "https://secure.gravatar.com/avatar/1465d89be463a72e2070bdb4988a6212.jpg?s=512&d=https%3A%2F%2Fa.slack-edge.com%2Fdf10d%2Fimg%2Favatars%2Fava_0010-512.png", "custom_css": null}, {"id": 18522, "slack_id": "U0970LNPYKG", "display_name": "Pathipati Rajeev Lokesh", "bio": null, "projects_count": 0, "devlogs_count": 0, "votes_count": 0, "ships_count": 0, "projects": [], "coding_time_seconds": 0, "coding_time_seconds_today": 0, "balance": "You need to have a pocket watcher badge to view this.", "badges": [], "created_at": "2025-07-23T07:34:51.625-04:00", "updated_at": "2025-07-23T09:37:48.698-04:00", "avatar": "https://secure.gravatar.com/avatar/de678215ee3470ddde4e3d319eb6281c.jpg?s=512&d=https%3A%2F%2Fa.slack-edge.com%2Fdf10d%2Fimg%2Favatars%2Fava_0018-512.png", "custom_css": null}, {"id": 18523, "slack_id": "U097RT6J48G", "display_name": "KTrain", "bio": null, "projects_count": 0, "devlogs_count": 0, "votes_count": 0, "ships_count": 0, "projects": [], "coding_time_seconds": 486619, "coding_time_seconds_today": 9204, "balance": "You need to have a pocket watcher badge to view this.", "badges": [], "created_at": "2025-07-23T07:36:05.877-04:00", "updated_at": "2025-07-23T09:37:48.808-04:00", "avatar": "https://secure.gravatar.com/avatar/f2aeeca7e7c67d1b12a6edf0860f0467.jpg?s=512&d=https%3A%2F%2Fa.slack-edge.com%2Fdf10d%2Fimg%2Favatars%2Fava_0013-512.png", "custom_css": null}, {"id": 18524, "slack_id": "U096YBEM6P5", "display_name": "Binit", "bio": null, "projects_count": 0, "devlogs_count": 0, "votes_count": 0, "ships_count": 0, "projects": [], "coding_time_seconds": 0, "coding_time_seconds_today": 0, "balance": "You need to have a pocket watcher badge to view this.", "badges": [], "created_at": "2025-07-23T07:36:51.681-04:00", "updated_at": "2025-07-23T09:37:48.913-04:00", "avatar": "https://secure.gravatar.com/avatar/31560d9a39d3d38977eb352c23baa7a9.jpg?s=512&d=https%3A%2F%2Fa.slack-edge.com%2Fdf10d%2Fimg%2Favatars%2Fava_0022-512.png", "custom_css": null}, {"id": 18525, "slack_id": "U096NJSF571", "display_name": "amy", "bio": null, "projects_count": 0, "devlogs_count": 0, "votes_count": 0, "ships_count": 0, "projects": [], "coding_time_seconds": 0, "coding_time_seconds_today": 0, "balance": "You need to have a pocket watcher badge to view this.", "badges": [], "created_at": "2025-07-23T07:39:59.242-04:00", "updated_at": "2025-07-23T09:37:48.992-04:00", "avatar": "https://secure.gravatar.com/avatar/1c0cc38c950ecad385ab1e2ca0bec1b5.jpg?s=512&d=https%3A%2F%2Fa.slack-edge.com%2Fdf10d%2Fimg%2Favatars%2Fava_0025-512.png", "custom_css": null}], "pagination": {"page": 922, "pages": 1192, "count": 23828, "items": 20}}