{"users": [{"id": 18546, "slack_id": "U09722WQ03X", "display_name": "Oyerinde Gideon Abisola", "bio": null, "projects_count": 0, "devlogs_count": 0, "votes_count": 0, "ships_count": 0, "projects": [], "coding_time_seconds": 0, "coding_time_seconds_today": 0, "balance": "You need to have a pocket watcher badge to view this.", "badges": [], "created_at": "2025-07-23T08:39:51.614-04:00", "updated_at": "2025-09-08T09:37:51.496-04:00", "avatar": "https://avatars.slack-edge.com/2025-09-08/9479435992130_4a3c5f63335b12cf6a6a_original.jpg", "custom_css": null}, {"id": 18547, "slack_id": "U0970PZ0DV4", "display_name": "Musharraf", "bio": null, "projects_count": 0, "devlogs_count": 0, "votes_count": 0, "ships_count": 0, "projects": [], "coding_time_seconds": 132620, "coding_time_seconds_today": 1202, "balance": "You need to have a pocket watcher badge to view this.", "badges": [], "created_at": "2025-07-23T08:42:31.918-04:00", "updated_at": "2025-07-23T09:37:59.102-04:00", "avatar": "https://avatars.slack-edge.com/2025-07-23/9236727637523_a0041f8c4b6509d1ebe4_original.jpg", "custom_css": null}, {"id": 18548, "slack_id": "U08RR0K0A76", "display_name": "Rufus Sommer", "bio": null, "projects_count": 1, "devlogs_count": 5, "votes_count": 18, "ships_count": 1, "projects": [{"id": 8651, "title": "Algorithmic Challenges", "devlogs_count": 5, "created_at": "2025-07-28T19:12:31.176-04:00"}], "coding_time_seconds": 27543, "coding_time_seconds_today": 0, "balance": "You need to have a pocket watcher badge to view this.", "badges": [], "created_at": "2025-07-23T08:49:02.172-04:00", "updated_at": "2025-08-01T08:58:32.598-04:00", "avatar": "https://secure.gravatar.com/avatar/75386a8b7bda6bf4e9345bb703a47618.jpg?s=512&d=https%3A%2F%2Fa.slack-edge.com%2Fdf10d%2Fimg%2Favatars%2Fava_0011-512.png", "custom_css": null}, {"id": 18549, "slack_id": "U097S7MT0JC", "display_name": "Rushi Thorat", "bio": null, "projects_count": 0, "devlogs_count": 0, "votes_count": 0, "ships_count": 0, "projects": [], "coding_time_seconds": 0, "coding_time_seconds_today": 0, "balance": "You need to have a pocket watcher badge to view this.", "badges": [], "created_at": "2025-07-23T08:49:18.927-04:00", "updated_at": "2025-08-05T05:55:45.952-04:00", "avatar": "https://secure.gravatar.com/avatar/898164de47283559acc1ae9d8e94c847.jpg?s=512&d=https%3A%2F%2Fa.slack-edge.com%2Fdf10d%2Fimg%2Favatars%2Fava_0003-512.png", "custom_css": null}, {"id": 18550, "slack_id": "U097H7J8YM7", "display_name": "Andrew", "bio": null, "projects_count": 0, "devlogs_count": 0, "votes_count": 0, "ships_count": 0, "projects": [], "coding_time_seconds": 7097, "coding_time_seconds_today": 0, "balance": "You need to have a pocket watcher badge to view this.", "badges": [], "created_at": "2025-07-23T08:55:31.005-04:00", "updated_at": "2025-07-23T09:38:03.378-04:00", "avatar": "https://secure.gravatar.com/avatar/c5967e705e134ba720b8747b1fa6a6a1.jpg?s=512&d=https%3A%2F%2Fa.slack-edge.com%2Fdf10d%2Fimg%2Favatars%2Fava_0026-512.png", "custom_css": null}, {"id": 18551, "slack_id": "U097S968G3A", "display_name": "Gnanasekar Mani", "bio": null, "projects_count": 0, "devlogs_count": 0, "votes_count": 0, "ships_count": 0, "projects": [], "coding_time_seconds": 64909, "coding_time_seconds_today": 0, "balance": "You need to have a pocket watcher badge to view this.", "badges": [], "created_at": "2025-07-23T08:59:46.978-04:00", "updated_at": "2025-07-23T09:38:03.490-04:00", "avatar": "https://avatars.slack-edge.com/2025-07-23/9240299869269_6344a2f7852a4faf331e_original.jpg", "custom_css": null}, {"id": 18552, "slack_id": "U096P2N193R", "display_name": "Linh \u0110\u1eb7ng Duy", "bio": null, "projects_count": 0, "devlogs_count": 0, "votes_count": 0, "ships_count": 0, "projects": [], "coding_time_seconds": 0, "coding_time_seconds_today": 0, "balance": "You need to have a pocket watcher badge to view this.", "badges": [], "created_at": "2025-07-23T09:12:39.861-04:00", "updated_at": "2025-07-23T09:38:03.576-04:00", "avatar": "https://avatars.slack-edge.com/2025-07-23/9240384023525_59866835f596d41819bf_original.jpg", "custom_css": null}, {"id": 18553, "slack_id": "U097SBRU9AL", "display_name": "LRNSlime", "bio": null, "projects_count": 0, "devlogs_count": 0, "votes_count": 0, "ships_count": 0, "projects": [], "coding_time_seconds": 0, "coding_time_seconds_today": 0, "balance": "You need to have a pocket watcher badge to view this.", "badges": [], "created_at": "2025-07-23T09:12:57.948-04:00", "updated_at": "2025-07-23T09:38:03.680-04:00", "avatar": "https://avatars.slack-edge.com/2025-07-23/9227105041543_1e9f17465f709d482c9d_original.jpg", "custom_css": null}, {"id": 18554, "slack_id": "U08R0EWSDC1", "display_name": "Dev Suraj", "bio": null, "projects_count": 0, "devlogs_count": 0, "votes_count": 0, "ships_count": 0, "projects": [], "coding_time_seconds": 304695, "coding_time_seconds_today": 0, "balance": "You need to have a pocket watcher badge to view this.", "badges": [], "created_at": "2025-07-23T09:17:33.693-04:00", "updated_at": "2025-07-23T09:38:03.761-04:00", "avatar": "https://avatars.slack-edge.com/2025-05-11/8873100334742_745663dffe0811e74b6f_original.png", "custom_css": null}, {"id": 18555, "slack_id": "U097SD72LFJ", "display_name": "Sardar Ahmed", "bio": null, "projects_count": 1, "devlogs_count": 0, "votes_count": 0, "ships_count": 0, "projects": [{"id": 7851, "title": "Web Scraping", "devlogs_count": 0, "created_at": "2025-07-23T09:38:36.013-04:00"}], "coding_time_seconds": 10203, "coding_time_seconds_today": 0, "balance": "You need to have a pocket watcher badge to view this.", "badges": [], "created_at": "2025-07-23T09:23:15.667-04:00", "updated_at": "2025-07-23T21:40:51.858-04:00", "avatar": "https://avatars.slack-edge.com/2025-07-23/9239310977446_3fa1f1c952cec1319785_original.jpg", "custom_css": null}, {"id": 18556, "slack_id": "U096YUJ6QUB", "display_name": "Paul Manoha", "bio": null, "projects_count": 0, "devlogs_count": 0, "votes_count": 0, "ships_count": 0, "projects": [], "coding_time_seconds": 0, "coding_time_seconds_today": 0, "balance": "You need to have a pocket watcher badge to view this.", "badges": [], "created_at": "2025-07-23T09:28:36.466-04:00", "updated_at": "2025-07-23T21:40:51.944-04:00", "avatar": "https://secure.gravatar.com/avatar/1386cb16891fc3228475ed9f2b8ab227.jpg?s=512&d=https%3A%2F%2Fa.slack-edge.com%2Fdf10d%2Fimg%2Favatars%2Fava_0003-512.png", "custom_css": null}, {"id": 18557, "slack_id": "U096P5PKBV5", "display_name": "Aviral Nagpal", "bio": null, "projects_count": 0, "devlogs_count": 0, "votes_count": 0, "ships_count": 0, "projects": [], "coding_time_seconds": 0, "coding_time_seconds_today": 0, "balance": "You need to have a pocket watcher badge to view this.", "badges": [], "created_at": "2025-07-23T09:30:54.974-04:00", "updated_at": "2025-07-23T21:40:52.033-04:00", "avatar": "https://avatars.slack-edge.com/2025-07-23/9264522249424_2482b4a6bbf08ebc351a_original.jpg", "custom_css": null}, {"id": 18558, "slack_id": "U0975EPH6G4", "display_name": "yuee", "bio": null, "projects_count": 0, "devlogs_count": 0, "votes_count": 0, "ships_count": 0, "projects": [], "coding_time_seconds": 118517, "coding_time_seconds_today": 0, "balance": "You need to have a pocket watcher badge to view this.", "badges": [], "created_at": "2025-07-23T09:41:11.061-04:00", "updated_at": "2025-07-26T11:23:35.013-04:00", "avatar": "https://secure.gravatar.com/avatar/a167900ea01dc28f211e1555dea06bde.jpg?s=512&d=https%3A%2F%2Fa.slack-edge.com%2Fdf10d%2Fimg%2Favatars%2Fava_0025-512.png", "custom_css": null}, {"id": 18559, "slack_id": "U097103R63F", "display_name": "Deniel Tomenio", "bio": null, "projects_count": 0, "devlogs_count": 0, "votes_count": 0, "ships_count": 0, "projects": [], "coding_time_seconds": 0, "coding_time_seconds_today": 0, "balance": "You need to have a pocket watcher badge to view this.", "badges": [], "created_at": "2025-07-23T09:42:08.440-04:00", "updated_at": "2025-07-23T21:40:52.202-04:00", "avatar": "https://avatars.slack-edge.com/2025-07-23/9240567803525_8a17130f0e0f6f89e59e_original.jpg", "custom_css": null}, {"id": 18560, "slack_id": "U0975FAMW3W", "display_name": "AYUSH KUMAR", "bio": null, "projects_count": 2, "devlogs_count": 0, "votes_count": 0, "ships_count": 0, "projects": [{"id": 7854, "title": "LLM-Insurance", "devlogs_count": 0, "created_at": "2025-07-23T10:04:24.698-04:00"}, {"id": 7861, "title": "SYSTEM-SELL ", "devlogs_count": 0, "created_at": "2025-07-23T10:26:27.857-04:00"}], "coding_time_seconds": 94092, "coding_time_seconds_today": 0, "balance": "You need to have a pocket watcher badge to view this.", "badges": [], "created_at": "2025-07-23T09:45:31.170-04:00", "updated_at": "2025-07-23T21:40:52.279-04:00", "avatar": "https://secure.gravatar.com/avatar/9653174248af17aebda45388a44429b0.jpg?s=512&d=https%3A%2F%2Fa.slack-edge.com%2Fdf10d%2Fimg%2Favatars%2Fava_0012-512.png", "custom_css": null}, {"id": 18561, "slack_id": "U091NRZ9YG5", "display_name": "Brajesh Kumar", "bio": null, "projects_count": 0, "devlogs_count": 0, "votes_count": 0, "ships_count": 0, "projects": [], "coding_time_seconds": 0, "coding_time_seconds_today": 0, "balance": "You need to have a pocket watcher badge to view this.", "badges": [], "created_at": "2025-07-23T09:47:53.019-04:00", "updated_at": "2025-07-23T21:40:56.407-04:00", "avatar": "https://avatars.slack-edge.com/2025-07-23/9227338744183_86d41440dad421214f2c_original.jpg", "custom_css": null}, {"id": 18562, "slack_id": "U096Z4MHXH9", "display_name": "NIshant Kumar", "bio": null, "projects_count": 1, "devlogs_count": 1, "votes_count": 19, "ships_count": 1, "projects": [{"id": 7857, "title": "Want-an-idea", "devlogs_count": 1, "created_at": "2025-07-23T10:14:47.890-04:00"}], "coding_time_seconds": 23156, "coding_time_seconds_today": 0, "balance": "You need to have a pocket watcher badge to view this.", "badges": [], "created_at": "2025-07-23T09:55:25.521-04:00", "updated_at": "2025-08-07T09:13:56.028-04:00", "avatar": "https://avatars.slack-edge.com/2025-07-23/9237176093763_49e2ec596cf59b5cbecd_original.jpg", "custom_css": null}, {"id": 18563, "slack_id": "U0975H2DMSQ", "display_name": "Manab", "bio": "I'm a web-dev", "projects_count": 0, "devlogs_count": 0, "votes_count": 0, "ships_count": 0, "projects": [], "coding_time_seconds": 0, "coding_time_seconds_today": 0, "balance": "You need to have a pocket watcher badge to view this.", "badges": [], "created_at": "2025-07-23T09:55:54.677-04:00", "updated_at": "2025-07-23T21:40:56.575-04:00", "avatar": "https://secure.gravatar.com/avatar/747deb4ce74693db5bff1cc562f2cf0d.jpg?s=512&d=https%3A%2F%2Fa.slack-edge.com%2Fdf10d%2Fimg%2Favatars%2Fava_0021-512.png", "custom_css": null}, {"id": 18564, "slack_id": "U096Z4UNQUB", "display_name": "BeMeritus", "bio": null, "projects_count": 0, "devlogs_count": 0, "votes_count": 0, "ships_count": 0, "projects": [], "coding_time_seconds": 19960, "coding_time_seconds_today": 0, "balance": "You need to have a pocket watcher badge to view this.", "badges": [], "created_at": "2025-07-23T09:57:09.950-04:00", "updated_at": "2025-07-23T21:40:56.666-04:00", "avatar": "https://secure.gravatar.com/avatar/3acc582bdcfd538b093368f24314b1da.jpg?s=512&d=https%3A%2F%2Fa.slack-edge.com%2Fdf10d%2Fimg%2Favatars%2Fava_0007-512.png", "custom_css": null}, {"id": 18565, "slack_id": "U096PB6QYTH", "display_name": "Mal Athanaton", "bio": null, "projects_count": 0, "devlogs_count": 0, "votes_count": 0, "ships_count": 0, "projects": [], "coding_time_seconds": 0, "coding_time_seconds_today": 0, "balance": "You need to have a pocket watcher badge to view this.", "badges": [], "created_at": "2025-07-23T10:02:23.454-04:00", "updated_at": "2025-07-23T21:40:56.748-04:00", "avatar": "https://secure.gravatar.com/avatar/5a5a9b66e0e537b672611159c5cb4c90.jpg?s=512&d=https%3A%2F%2Fa.slack-edge.com%2Fdf10d%2Fimg%2Favatars%2Fava_0001-512.png", "custom_css": null}], "pagination": {"page": 924, "pages": 1192, "count": 23828, "items": 20}}