{"users": [{"id": 18566, "slack_id": "U0974ELTMJN", "display_name": "DEEPAK RAM", "bio": null, "projects_count": 0, "devlogs_count": 0, "votes_count": 0, "ships_count": 0, "projects": [], "coding_time_seconds": 0, "coding_time_seconds_today": 0, "balance": "You need to have a pocket watcher badge to view this.", "badges": [], "created_at": "2025-07-23T10:07:24.632-04:00", "updated_at": "2025-07-23T21:40:56.839-04:00", "avatar": "https://secure.gravatar.com/avatar/525eb8bdd6d6422726d386aafdb6dcb5.jpg?s=512&d=https%3A%2F%2Fa.slack-edge.com%2Fdf10d%2Fimg%2Favatars%2Fava_0007-512.png", "custom_css": null}, {"id": 18567, "slack_id": "U097HNMDATT", "display_name": "Rebecca Xiong", "bio": null, "projects_count": 1, "devlogs_count": 1, "votes_count": 0, "ships_count": 0, "projects": [{"id": 7865, "title": "work", "devlogs_count": 1, "created_at": "2025-07-23T10:34:35.174-04:00"}], "coding_time_seconds": 302013, "coding_time_seconds_today": 0, "balance": "You need to have a pocket watcher badge to view this.", "badges": [], "created_at": "2025-07-23T10:11:44.844-04:00", "updated_at": "2025-07-23T21:40:56.928-04:00", "avatar": "https://avatars.slack-edge.com/2025-07-23/9264792939408_f4a694c5284f220b7b0e_original.png", "custom_css": null}, {"id": 18568, "slack_id": "U0974FY1V6W", "display_name": "Payuth", "bio": null, "projects_count": 0, "devlogs_count": 0, "votes_count": 0, "ships_count": 0, "projects": [], "coding_time_seconds": 0, "coding_time_seconds_today": 0, "balance": "You need to have a pocket watcher badge to view this.", "badges": [], "created_at": "2025-07-23T10:12:21.869-04:00", "updated_at": "2025-07-23T21:40:57.006-04:00", "avatar": "https://secure.gravatar.com/avatar/96ef4a40ac8b56b983d758494c45cb35.jpg?s=512&d=https%3A%2F%2Fa.slack-edge.com%2Fdf10d%2Fimg%2Favatars%2Fava_0000-512.png", "custom_css": null}, {"id": 18569, "slack_id": "U096ZB66A3V", "display_name": "Shalev Toroker", "bio": null, "projects_count": 0, "devlogs_count": 0, "votes_count": 0, "ships_count": 0, "projects": [], "coding_time_seconds": 0, "coding_time_seconds_today": 0, "balance": "You need to have a pocket watcher badge to view this.", "badges": [], "created_at": "2025-07-23T10:27:19.749-04:00", "updated_at": "2025-07-24T20:17:25.564-04:00", "avatar": "https://avatars.slack-edge.com/2025-07-23/9242658984722_823a499044253dd264b5_original.png", "custom_css": null}, {"id": 18570, "slack_id": "U06E5LBGE73", "display_name": "Shayan", "bio": null, "projects_count": 0, "devlogs_count": 0, "votes_count": 0, "ships_count": 0, "projects": [], "coding_time_seconds": 0, "coding_time_seconds_today": 0, "balance": "You need to have a pocket watcher badge to view this.", "badges": [], "created_at": "2025-07-23T10:27:28.033-04:00", "updated_at": "2025-07-23T21:40:57.182-04:00", "avatar": "https://avatars.slack-edge.com/2024-05-15/7121241102597_93e695dbffce691734af_original.png", "custom_css": null}, {"id": 18571, "slack_id": "U096PFUDT1D", "display_name": "ash", "bio": null, "projects_count": 0, "devlogs_count": 0, "votes_count": 0, "ships_count": 0, "projects": [], "coding_time_seconds": 0, "coding_time_seconds_today": 0, "balance": "You need to have a pocket watcher badge to view this.", "badges": [], "created_at": "2025-07-23T10:28:28.905-04:00", "updated_at": "2025-07-23T21:40:57.281-04:00", "avatar": "https://secure.gravatar.com/avatar/ffee2e7450108d527a2d417096b1de07.jpg?s=512&d=https%3A%2F%2Fa.slack-edge.com%2Fdf10d%2Fimg%2Favatars%2Fava_0003-512.png", "custom_css": null}, {"id": 18572, "slack_id": "U096PGPAKFZ", "display_name": "shroom", "bio": null, "projects_count": 0, "devlogs_count": 0, "votes_count": 0, "ships_count": 0, "projects": [], "coding_time_seconds": 333, "coding_time_seconds_today": 0, "balance": "You need to have a pocket watcher badge to view this.", "badges": [], "created_at": "2025-07-23T10:31:08.355-04:00", "updated_at": "2025-07-23T21:40:57.370-04:00", "avatar": "https://secure.gravatar.com/avatar/aaac8af5cd709b6a2e018ecface697e1.jpg?s=512&d=https%3A%2F%2Fa.slack-edge.com%2Fdf10d%2Fimg%2Favatars%2Fava_0011-512.png", "custom_css": null}, {"id": 18573, "slack_id": "U07BH2GLXNX", "display_name": "Lunarien", "bio": null, "projects_count": 0, "devlogs_count": 0, "votes_count": 0, "ships_count": 0, "projects": [], "coding_time_seconds": 0, "coding_time_seconds_today": 0, "balance": "You need to have a pocket watcher badge to view this.", "badges": [], "created_at": "2025-07-23T10:33:04.123-04:00", "updated_at": "2025-07-23T10:33:12.304-04:00", "avatar": "https://secure.gravatar.com/avatar/f3c0472f0674db7c7085e70bf0dcdb74.jpg?s=512&d=https%3A%2F%2Fa.slack-edge.com%2Fdf10d%2Fimg%2Favatars%2Fava_0005-512.png", "custom_css": null}, {"id": 18574, "slack_id": "U096EMUBBTR", "display_name": "Sara", "bio": null, "projects_count": 3, "devlogs_count": 0, "votes_count": 0, "ships_count": 0, "projects": [{"id": 7899, "title": "Elysium", "devlogs_count": 0, "created_at": "2025-07-23T13:49:29.250-04:00"}, {"id": 7900, "title": "snap-chef", "devlogs_count": 0, "created_at": "2025-07-23T13:50:25.399-04:00"}, {"id": 7901, "title": "chess website", "devlogs_count": 0, "created_at": "2025-07-23T13:52:29.424-04:00"}], "coding_time_seconds": 0, "coding_time_seconds_today": 0, "balance": "You need to have a pocket watcher badge to view this.", "badges": [], "created_at": "2025-07-23T10:35:34.742-04:00", "updated_at": "2025-07-23T21:40:57.521-04:00", "avatar": "https://secure.gravatar.com/avatar/8af44039ed5bbf7f51827c30c97e0a45.jpg?s=512&d=https%3A%2F%2Fa.slack-edge.com%2Fdf10d%2Fimg%2Favatars%2Fava_0005-512.png", "custom_css": null}, {"id": 18575, "slack_id": "U0975RGS4DS", "display_name": "Eric", "bio": null, "projects_count": 0, "devlogs_count": 0, "votes_count": 0, "ships_count": 0, "projects": [], "coding_time_seconds": 0, "coding_time_seconds_today": 0, "balance": "You need to have a pocket watcher badge to view this.", "badges": [], "created_at": "2025-07-23T10:37:39.743-04:00", "updated_at": "2025-07-23T21:41:01.635-04:00", "avatar": "https://secure.gravatar.com/avatar/46ffbce50fa0026941a73796a961e04d.jpg?s=512&d=https%3A%2F%2Fa.slack-edge.com%2Fdf10d%2Fimg%2Favatars%2Fava_0006-512.png", "custom_css": null}, {"id": 18576, "slack_id": "U0975RJDD36", "display_name": "Samarjit Sahoo", "bio": "I am an enthusiastic coder driven by an unyielding passion for programming. With a strong dedication to mastering new technologies and solving complex problems.", "projects_count": 1, "devlogs_count": 0, "votes_count": 0, "ships_count": 0, "projects": [{"id": 8019, "title": "Samarjit Java World", "devlogs_count": 0, "created_at": "2025-07-24T04:19:58.273-04:00"}], "coding_time_seconds": 0, "coding_time_seconds_today": 0, "balance": "You need to have a pocket watcher badge to view this.", "badges": [], "created_at": "2025-07-23T10:37:40.871-04:00", "updated_at": "2025-07-24T04:26:19.780-04:00", "avatar": "https://avatars.slack-edge.com/2025-07-23/9240946466789_087f6d193ce96aeb516a_original.jpg", "custom_css": null}, {"id": 18577, "slack_id": "U097HU1FSG1", "display_name": "Casey", "bio": null, "projects_count": 0, "devlogs_count": 0, "votes_count": 0, "ships_count": 0, "projects": [], "coding_time_seconds": 0, "coding_time_seconds_today": 0, "balance": "You need to have a pocket watcher badge to view this.", "badges": [], "created_at": "2025-07-23T10:39:05.279-04:00", "updated_at": "2025-07-23T21:41:01.815-04:00", "avatar": "https://secure.gravatar.com/avatar/c785ced5fa600f5b277fe3447007b481.jpg?s=512&d=https%3A%2F%2Fa.slack-edge.com%2Fdf10d%2Fimg%2Favatars%2Fava_0001-512.png", "custom_css": null}, {"id": 18578, "slack_id": "U0974270LH0", "display_name": "Jia Xuan Wong", "bio": null, "projects_count": 0, "devlogs_count": 0, "votes_count": 0, "ships_count": 0, "projects": [], "coding_time_seconds": 0, "coding_time_seconds_today": 0, "balance": "You need to have a pocket watcher badge to view this.", "badges": [], "created_at": "2025-07-23T10:42:26.181-04:00", "updated_at": "2025-07-23T21:41:01.893-04:00", "avatar": "https://avatars.slack-edge.com/2025-07-23/9243915127700_4c6b554b2a4706ce415a_original.png", "custom_css": null}, {"id": 18579, "slack_id": "U0975SFD24U", "display_name": "Alamin Haque", "bio": null, "projects_count": 0, "devlogs_count": 0, "votes_count": 0, "ships_count": 0, "projects": [], "coding_time_seconds": 0, "coding_time_seconds_today": 0, "balance": "You need to have a pocket watcher badge to view this.", "badges": [], "created_at": "2025-07-23T10:42:51.222-04:00", "updated_at": "2025-07-23T21:41:06.018-04:00", "avatar": "https://secure.gravatar.com/avatar/bacf7455a7bdc3184b289379fc3c06f8.jpg?s=512&d=https%3A%2F%2Fa.slack-edge.com%2Fdf10d%2Fimg%2Favatars%2Fava_0014-512.png", "custom_css": null}, {"id": 18580, "slack_id": "U09730C8ZBP", "display_name": "Thiviyan", "bio": null, "projects_count": 0, "devlogs_count": 0, "votes_count": 0, "ships_count": 0, "projects": [], "coding_time_seconds": 0, "coding_time_seconds_today": 0, "balance": "You need to have a pocket watcher badge to view this.", "badges": [], "created_at": "2025-07-23T10:49:58.991-04:00", "updated_at": "2025-07-23T21:41:06.106-04:00", "avatar": "https://secure.gravatar.com/avatar/f5b4bd22f0b33723f3edf36e0f509307.jpg?s=512&d=https%3A%2F%2Fa.slack-edge.com%2Fdf10d%2Fimg%2Favatars%2Fava_0000-512.png", "custom_css": null}, {"id": 18581, "slack_id": "U09730JS7MK", "display_name": "Aditya Banerjee", "bio": null, "projects_count": 1, "devlogs_count": 0, "votes_count": 0, "ships_count": 0, "projects": [{"id": 8475, "title": "A form using HTML and CSS", "devlogs_count": 0, "created_at": "2025-07-27T12:16:56.842-04:00"}], "coding_time_seconds": 7573, "coding_time_seconds_today": 0, "balance": "You need to have a pocket watcher badge to view this.", "badges": [], "created_at": "2025-07-23T10:52:40.620-04:00", "updated_at": "2025-08-23T13:24:52.942-04:00", "avatar": "https://secure.gravatar.com/avatar/f2d7b08e30f648343be4c86165b888cf.jpg?s=512&d=https%3A%2F%2Fa.slack-edge.com%2Fdf10d%2Fimg%2Favatars%2Fava_0004-512.png", "custom_css": null}, {"id": 18582, "slack_id": "U097S963Y8G", "display_name": "NIBIR", "bio": null, "projects_count": 0, "devlogs_count": 0, "votes_count": 0, "ships_count": 0, "projects": [], "coding_time_seconds": 0, "coding_time_seconds_today": 0, "balance": "You need to have a pocket watcher badge to view this.", "badges": [], "created_at": "2025-07-23T10:53:40.117-04:00", "updated_at": "2025-07-23T21:41:06.309-04:00", "avatar": "https://secure.gravatar.com/avatar/dc4c90c8c6371bbb9d59049e9ff14950.jpg?s=512&d=https%3A%2F%2Fa.slack-edge.com%2Fdf10d%2Fimg%2Favatars%2Fava_0017-512.png", "custom_css": null}, {"id": 18583, "slack_id": "U097J29UHUZ", "display_name": "Aadityaa N", "bio": null, "projects_count": 0, "devlogs_count": 0, "votes_count": 0, "ships_count": 0, "projects": [], "coding_time_seconds": 0, "coding_time_seconds_today": 0, "balance": "You need to have a pocket watcher badge to view this.", "badges": [], "created_at": "2025-07-23T10:59:07.087-04:00", "updated_at": "2025-07-23T21:41:06.391-04:00", "avatar": "https://avatars.slack-edge.com/2025-07-23/9241087748069_1dcfd96840ac60612dfa_original.jpg", "custom_css": null}, {"id": 18584, "slack_id": "U0971TJH4Q6", "display_name": "ChandraSekhar", "bio": null, "projects_count": 0, "devlogs_count": 0, "votes_count": 0, "ships_count": 0, "projects": [], "coding_time_seconds": 0, "coding_time_seconds_today": 0, "balance": "You need to have a pocket watcher badge to view this.", "badges": [], "created_at": "2025-07-23T11:02:00.816-04:00", "updated_at": "2025-07-23T21:41:06.474-04:00", "avatar": "https://secure.gravatar.com/avatar/532a05a883f014532dab18fe9c18b6e2.jpg?s=512&d=https%3A%2F%2Fa.slack-edge.com%2Fdf10d%2Fimg%2Favatars%2Fava_0000-512.png", "custom_css": null}, {"id": 18585, "slack_id": "U096ZJS9LCT", "display_name": "Heba Riaz", "bio": null, "projects_count": 0, "devlogs_count": 0, "votes_count": 0, "ships_count": 0, "projects": [], "coding_time_seconds": 0, "coding_time_seconds_today": 0, "balance": "You need to have a pocket watcher badge to view this.", "badges": [], "created_at": "2025-07-23T11:04:19.798-04:00", "updated_at": "2025-07-23T21:41:06.569-04:00", "avatar": "https://avatars.slack-edge.com/2025-07-23/9256145828737_767ee5c64e0af3d9147b_original.png", "custom_css": null}], "pagination": {"page": 925, "pages": 1192, "count": 23828, "items": 20}}