{"users": [{"id": 18586, "slack_id": "U096T7GAGE9", "display_name": "Deepak", "bio": null, "projects_count": 0, "devlogs_count": 0, "votes_count": 0, "ships_count": 0, "projects": [], "coding_time_seconds": 0, "coding_time_seconds_today": 0, "balance": "You need to have a pocket watcher badge to view this.", "badges": [], "created_at": "2025-07-23T11:04:51.180-04:00", "updated_at": "2025-07-23T21:41:06.658-04:00", "avatar": "https://secure.gravatar.com/avatar/c01976ed3f10ad941a56f528abb5fb3f.jpg?s=512&d=https%3A%2F%2Fa.slack-edge.com%2Fdf10d%2Fimg%2Favatars%2Fava_0004-512.png", "custom_css": null}, {"id": 18587, "slack_id": "U09733LQCKF", "display_name": "thugbignose", "bio": null, "projects_count": 0, "devlogs_count": 0, "votes_count": 0, "ships_count": 0, "projects": [], "coding_time_seconds": 722074, "coding_time_seconds_today": 3413, "balance": "You need to have a pocket watcher badge to view this.", "badges": [], "created_at": "2025-07-23T11:05:40.526-04:00", "updated_at": "2025-07-30T21:19:01.315-04:00", "avatar": "https://secure.gravatar.com/avatar/5c9465319189d0d23d7c93651cd21c41.jpg?s=512&d=https%3A%2F%2Fa.slack-edge.com%2Fdf10d%2Fimg%2Favatars%2Fava_0004-512.png", "custom_css": null}, {"id": 18588, "slack_id": "U097T4B1KK2", "display_name": "Juan David Ardila", "bio": null, "projects_count": 0, "devlogs_count": 0, "votes_count": 0, "ships_count": 0, "projects": [], "coding_time_seconds": 0, "coding_time_seconds_today": 0, "balance": "You need to have a pocket watcher badge to view this.", "badges": [], "created_at": "2025-07-23T11:06:44.087-04:00", "updated_at": "2025-07-23T21:41:06.843-04:00", "avatar": "https://avatars.slack-edge.com/2025-07-23/9256162769793_ffb3ea3fae19b394784e_original.png", "custom_css": null}, {"id": 18589, "slack_id": "U0974TC8K3L", "display_name": "Edward Flint", "bio": null, "projects_count": 0, "devlogs_count": 0, "votes_count": 0, "ships_count": 0, "projects": [], "coding_time_seconds": 48, "coding_time_seconds_today": 0, "balance": "You need to have a pocket watcher badge to view this.", "badges": [], "created_at": "2025-07-23T11:08:39.354-04:00", "updated_at": "2025-07-30T22:14:14.344-04:00", "avatar": "https://secure.gravatar.com/avatar/f34b98f47a84fe17b256bf1306036fa0.jpg?s=512&d=https%3A%2F%2Fa.slack-edge.com%2Fdf10d%2Fimg%2Favatars%2Fava_0008-512.png", "custom_css": null}, {"id": 18590, "slack_id": "U097L0V5BB2", "display_name": "zimal fatima", "bio": null, "projects_count": 0, "devlogs_count": 0, "votes_count": 0, "ships_count": 0, "projects": [], "coding_time_seconds": 0, "coding_time_seconds_today": 0, "balance": "You need to have a pocket watcher badge to view this.", "badges": [], "created_at": "2025-07-23T11:08:46.139-04:00", "updated_at": "2025-07-23T21:41:07.029-04:00", "avatar": "https://avatars.slack-edge.com/2025-07-23/9240023606342_9e9e0a3f8471cc3ebda7_original.png", "custom_css": null}, {"id": 18591, "slack_id": "U097B8GBEEM", "display_name": "anurag patel", "bio": null, "projects_count": 0, "devlogs_count": 0, "votes_count": 0, "ships_count": 0, "projects": [], "coding_time_seconds": 0, "coding_time_seconds_today": 0, "balance": "You need to have a pocket watcher badge to view this.", "badges": [], "created_at": "2025-07-23T11:09:15.257-04:00", "updated_at": "2025-07-23T21:41:07.113-04:00", "avatar": "https://secure.gravatar.com/avatar/b4d04a76b0515ab69a66036770138a93.jpg?s=512&d=https%3A%2F%2Fa.slack-edge.com%2Fdf10d%2Fimg%2Favatars%2Fava_0021-512.png", "custom_css": null}, {"id": 18592, "slack_id": "U0974TH9A9G", "display_name": "tranminh hieu", "bio": null, "projects_count": 0, "devlogs_count": 0, "votes_count": 0, "ships_count": 0, "projects": [], "coding_time_seconds": 116288, "coding_time_seconds_today": 1272, "balance": "You need to have a pocket watcher badge to view this.", "badges": [], "created_at": "2025-07-23T11:10:30.927-04:00", "updated_at": "2025-07-24T02:07:47.130-04:00", "avatar": "https://secure.gravatar.com/avatar/1c93a511d43fbbfccd01016500206d91.jpg?s=512&d=https%3A%2F%2Fa.slack-edge.com%2Fdf10d%2Fimg%2Favatars%2Fava_0017-512.png", "custom_css": null}, {"id": 18593, "slack_id": "U096ZA4RQ9Z", "display_name": "Harsith", "bio": null, "projects_count": 0, "devlogs_count": 0, "votes_count": 0, "ships_count": 0, "projects": [], "coding_time_seconds": 0, "coding_time_seconds_today": 0, "balance": "You need to have a pocket watcher badge to view this.", "badges": [], "created_at": "2025-07-23T11:12:08.024-04:00", "updated_at": "2025-07-23T21:41:07.276-04:00", "avatar": "https://secure.gravatar.com/avatar/3e0661ce7921e648fff5500d0987c245.jpg?s=512&d=https%3A%2F%2Fa.slack-edge.com%2Fdf10d%2Fimg%2Favatars%2Fava_0025-512.png", "custom_css": null}, {"id": 18594, "slack_id": "U09734GPY9K", "display_name": "Harshit", "bio": null, "projects_count": 0, "devlogs_count": 0, "votes_count": 4, "ships_count": 0, "projects": [], "coding_time_seconds": 1681, "coding_time_seconds_today": 0, "balance": "You need to have a pocket watcher badge to view this.", "badges": [], "created_at": "2025-07-23T11:13:04.054-04:00", "updated_at": "2025-07-23T21:41:07.365-04:00", "avatar": "https://secure.gravatar.com/avatar/3e7f217a86cb19e8f507e482bf087101.jpg?s=512&d=https%3A%2F%2Fa.slack-edge.com%2Fdf10d%2Fimg%2Favatars%2Fava_0005-512.png", "custom_css": null}, {"id": 18595, "slack_id": "U096Y4KQT7E", "display_name": "Arman", "bio": null, "projects_count": 0, "devlogs_count": 0, "votes_count": 0, "ships_count": 0, "projects": [], "coding_time_seconds": 283, "coding_time_seconds_today": 0, "balance": "You need to have a pocket watcher badge to view this.", "badges": [], "created_at": "2025-07-23T11:15:07.008-04:00", "updated_at": "2025-07-23T21:41:07.443-04:00", "avatar": "https://avatars.slack-edge.com/2025-07-23/9244138057588_9307754dc7349f4bff0c_original.png", "custom_css": null}, {"id": 18596, "slack_id": "U097CLLJM33", "display_name": "Habiba", "bio": null, "projects_count": 0, "devlogs_count": 0, "votes_count": 0, "ships_count": 0, "projects": [], "coding_time_seconds": 0, "coding_time_seconds_today": 0, "balance": "You need to have a pocket watcher badge to view this.", "badges": [], "created_at": "2025-07-23T11:15:48.579-04:00", "updated_at": "2025-07-23T21:41:07.524-04:00", "avatar": "https://secure.gravatar.com/avatar/b6f8d7b4799619943f35cd2fdc18b403.jpg?s=512&d=https%3A%2F%2Fa.slack-edge.com%2Fdf10d%2Fimg%2Favatars%2Fava_0009-512.png", "custom_css": null}, {"id": 18597, "slack_id": "U09736L44JZ", "display_name": "Satyam Raj", "bio": "I am a generous coder, who loves to learn more. Very Enthusiastic about tech and latest technological advancements. Tinkering more is my style of saying, I love it!!", "projects_count": 3, "devlogs_count": 46, "votes_count": 345, "ships_count": 2, "projects": [{"id": 8068, "title": "HTMLab Experiments", "devlogs_count": 27, "created_at": "2025-07-24T11:31:41.986-04:00"}, {"id": 13276, "title": "Extension Adventure", "devlogs_count": 12, "created_at": "2025-09-13T05:22:06.799-04:00"}, {"id": 8018, "title": "Stock Simulator", "devlogs_count": 7, "created_at": "2025-07-24T04:14:02.558-04:00"}], "coding_time_seconds": 356367, "coding_time_seconds_today": 0, "balance": "You need to have a pocket watcher badge to view this.", "badges": [], "created_at": "2025-07-23T11:19:42.055-04:00", "updated_at": "2025-09-19T15:06:35.646-04:00", "avatar": "https://avatars.slack-edge.com/2025-09-19/9577172238240_ca93b692b12938796d47_original.jpg", "custom_css": null}, {"id": 18598, "slack_id": "U097Q39SQSC", "display_name": "Rachapudi Sai Sree", "bio": null, "projects_count": 0, "devlogs_count": 0, "votes_count": 0, "ships_count": 0, "projects": [], "coding_time_seconds": 0, "coding_time_seconds_today": 0, "balance": "You need to have a pocket watcher badge to view this.", "badges": [], "created_at": "2025-07-23T11:26:28.184-04:00", "updated_at": "2025-07-23T21:41:11.722-04:00", "avatar": "https://secure.gravatar.com/avatar/627139ba307c251d8905557d726ae129.jpg?s=512&d=https%3A%2F%2Fa.slack-edge.com%2Fdf10d%2Fimg%2Favatars%2Fava_0022-512.png", "custom_css": null}, {"id": 18599, "slack_id": "U097620R820", "display_name": "Manvik Bhagat", "bio": null, "projects_count": 0, "devlogs_count": 0, "votes_count": 0, "ships_count": 0, "projects": [], "coding_time_seconds": 0, "coding_time_seconds_today": 0, "balance": "You need to have a pocket watcher badge to view this.", "badges": [], "created_at": "2025-07-23T11:27:41.613-04:00", "updated_at": "2025-07-23T21:41:11.819-04:00", "avatar": "https://secure.gravatar.com/avatar/0244e5c11bba82abbb5db6f79ad6d9a3.jpg?s=512&d=https%3A%2F%2Fa.slack-edge.com%2Fdf10d%2Fimg%2Favatars%2Fava_0008-512.png", "custom_css": null}, {"id": 18600, "slack_id": "U096PTFBKLP", "display_name": "binfin binfin", "bio": null, "projects_count": 1, "devlogs_count": 0, "votes_count": 0, "ships_count": 0, "projects": [{"id": 7876, "title": "E-COMMERCE API DEVELOPEMENT ", "devlogs_count": 0, "created_at": "2025-07-23T11:49:24.494-04:00"}], "coding_time_seconds": 57820, "coding_time_seconds_today": 0, "balance": "You need to have a pocket watcher badge to view this.", "badges": [], "created_at": "2025-07-23T11:28:44.036-04:00", "updated_at": "2025-07-23T21:41:11.897-04:00", "avatar": "https://secure.gravatar.com/avatar/c0fc58bb0a8f50915355159875a5f974.jpg?s=512&d=https%3A%2F%2Fa.slack-edge.com%2Fdf10d%2Fimg%2Favatars%2Fava_0016-512.png", "custom_css": null}, {"id": 18601, "slack_id": "U09750E0CH0", "display_name": "Ashutosh Ghosh", "bio": null, "projects_count": 0, "devlogs_count": 0, "votes_count": 0, "ships_count": 0, "projects": [], "coding_time_seconds": 3556, "coding_time_seconds_today": 0, "balance": "You need to have a pocket watcher badge to view this.", "badges": [], "created_at": "2025-07-23T11:29:54.715-04:00", "updated_at": "2025-07-24T21:25:36.955-04:00", "avatar": "https://avatars.slack-edge.com/2025-07-23/9256315837937_b4cded688f4e996e6c4e_original.png", "custom_css": null}, {"id": 18602, "slack_id": "U096X0ZHBAQ", "display_name": "sma", "bio": null, "projects_count": 0, "devlogs_count": 0, "votes_count": 0, "ships_count": 0, "projects": [], "coding_time_seconds": 0, "coding_time_seconds_today": 0, "balance": "You need to have a pocket watcher badge to view this.", "badges": [], "created_at": "2025-07-23T11:30:23.564-04:00", "updated_at": "2025-07-23T21:41:12.089-04:00", "avatar": "https://secure.gravatar.com/avatar/f15e9130e8644af0189b21c0fd34d210.jpg?s=512&d=https%3A%2F%2Fa.slack-edge.com%2Fdf10d%2Fimg%2Favatars%2Fava_0008-512.png", "custom_css": null}, {"id": 18603, "slack_id": "U097390R5N1", "display_name": "Melih DUMAN", "bio": null, "projects_count": 0, "devlogs_count": 0, "votes_count": 0, "ships_count": 0, "projects": [], "coding_time_seconds": 0, "coding_time_seconds_today": 0, "balance": "You need to have a pocket watcher badge to view this.", "badges": [], "created_at": "2025-07-23T11:31:44.227-04:00", "updated_at": "2025-07-23T21:41:12.171-04:00", "avatar": "https://secure.gravatar.com/avatar/ff083c7920c6f11a8c41c57c0ebc946d.jpg?s=512&d=https%3A%2F%2Fa.slack-edge.com%2Fdf10d%2Fimg%2Favatars%2Fava_0011-512.png", "custom_css": null}, {"id": 18604, "slack_id": "U0920JB4DU1", "display_name": "sid", "bio": null, "projects_count": 1, "devlogs_count": 2, "votes_count": 16, "ships_count": 1, "projects": [{"id": 7884, "title": "SnakeGame", "devlogs_count": 2, "created_at": "2025-07-23T12:24:57.515-04:00"}], "coding_time_seconds": 32231, "coding_time_seconds_today": 0, "balance": "You need to have a pocket watcher badge to view this.", "badges": [], "created_at": "2025-07-23T11:35:41.192-04:00", "updated_at": "2025-08-12T21:39:13.859-04:00", "avatar": "https://avatars.slack-edge.com/2025-08-13/9330579703095_ca3ddc76c781aa9b8546_original.png", "custom_css": null}, {"id": 18605, "slack_id": "U09725RCG2J", "display_name": "Musab Abdullah", "bio": null, "projects_count": 0, "devlogs_count": 0, "votes_count": 0, "ships_count": 0, "projects": [], "coding_time_seconds": 0, "coding_time_seconds_today": 0, "balance": "You need to have a pocket watcher badge to view this.", "badges": [], "created_at": "2025-07-23T11:36:49.470-04:00", "updated_at": "2025-07-23T21:41:12.335-04:00", "avatar": "https://secure.gravatar.com/avatar/c685fac6304833389ac4aa2aac2c7d73.jpg?s=512&d=https%3A%2F%2Fa.slack-edge.com%2Fdf10d%2Fimg%2Favatars%2Fava_0024-512.png", "custom_css": null}], "pagination": {"page": 926, "pages": 1192, "count": 23828, "items": 20}}