{"users": [{"id": 18606, "slack_id": "U097TB69N0G", "display_name": "Varun_XD", "bio": null, "projects_count": 0, "devlogs_count": 0, "votes_count": 0, "ships_count": 0, "projects": [], "coding_time_seconds": 109595, "coding_time_seconds_today": 0, "balance": "You need to have a pocket watcher badge to view this.", "badges": [], "created_at": "2025-07-23T11:40:03.786-04:00", "updated_at": "2025-07-24T21:46:11.853-04:00", "avatar": "https://avatars.slack-edge.com/2025-07-24/9230959483495_f961448805c22ce28c26_original.jpg", "custom_css": null}, {"id": 18607, "slack_id": "U097JB745R7", "display_name": "Tanuj Rathi", "bio": null, "projects_count": 2, "devlogs_count": 1, "votes_count": 0, "ships_count": 0, "projects": [{"id": 8037, "title": "Mythos", "devlogs_count": 1, "created_at": "2025-07-24T08:29:49.272-04:00"}, {"id": 10754, "title": "Practice for my Exam", "devlogs_count": 0, "created_at": "2025-08-10T11:34:00.491-04:00"}], "coding_time_seconds": 8105, "coding_time_seconds_today": 0, "balance": "You need to have a pocket watcher badge to view this.", "badges": [], "created_at": "2025-07-23T11:43:00.343-04:00", "updated_at": "2025-08-10T11:38:01.193-04:00", "avatar": "https://avatars.slack-edge.com/2025-07-24/9250058756644_f7a981b398143bd9c792_original.jpg", "custom_css": null}, {"id": 18608, "slack_id": "U096Q1S0U2K", "display_name": "Amit Cohen", "bio": null, "projects_count": 0, "devlogs_count": 0, "votes_count": 0, "ships_count": 0, "projects": [], "coding_time_seconds": 0, "coding_time_seconds_today": 0, "balance": "You need to have a pocket watcher badge to view this.", "badges": [], "created_at": "2025-07-23T11:48:07.834-04:00", "updated_at": "2025-07-23T21:41:12.642-04:00", "avatar": "https://avatars.slack-edge.com/2025-07-23/9265450430368_435753626892b24e7d82_original.jpg", "custom_css": null}, {"id": 18609, "slack_id": "U096ZTFECRH", "display_name": "Viraj Chauhan", "bio": null, "projects_count": 0, "devlogs_count": 0, "votes_count": 0, "ships_count": 0, "projects": [], "coding_time_seconds": 0, "coding_time_seconds_today": 0, "balance": "You need to have a pocket watcher badge to view this.", "badges": [], "created_at": "2025-07-23T11:48:43.481-04:00", "updated_at": "2025-08-02T05:05:26.646-04:00", "avatar": "https://secure.gravatar.com/avatar/892b3c8f3bf25b7cce92fce2a2b416f0.jpg?s=512&d=https%3A%2F%2Fa.slack-edge.com%2Fdf10d%2Fimg%2Favatars%2Fava_0005-512.png", "custom_css": null}, {"id": 18610, "slack_id": "U097TDD0MT2", "display_name": "Aadarsh bharttarai", "bio": null, "projects_count": 0, "devlogs_count": 0, "votes_count": 0, "ships_count": 0, "projects": [], "coding_time_seconds": 0, "coding_time_seconds_today": 0, "balance": "You need to have a pocket watcher badge to view this.", "badges": [], "created_at": "2025-07-23T11:51:55.671-04:00", "updated_at": "2025-08-23T00:03:05.287-04:00", "avatar": "https://secure.gravatar.com/avatar/136c556ef0a8dece82e465b3ed0e0123.jpg?s=512&d=https%3A%2F%2Fa.slack-edge.com%2Fdf10d%2Fimg%2Favatars%2Fava_0023-512.png", "custom_css": null}, {"id": 18611, "slack_id": "U096Q8X2JKG", "display_name": "Arjeeah", "bio": null, "projects_count": 0, "devlogs_count": 0, "votes_count": 0, "ships_count": 0, "projects": [], "coding_time_seconds": 96271, "coding_time_seconds_today": 0, "balance": "You need to have a pocket watcher badge to view this.", "badges": [], "created_at": "2025-07-23T11:59:29.476-04:00", "updated_at": "2025-07-30T09:25:16.560-04:00", "avatar": "https://secure.gravatar.com/avatar/d69eff0b18196c0a5ee0b5662e817f6e.jpg?s=512&d=https%3A%2F%2Fa.slack-edge.com%2Fdf10d%2Fimg%2Favatars%2Fava_0019-512.png", "custom_css": null}, {"id": 18612, "slack_id": "U0972AMPKTQ", "display_name": "Mridul M Kumar", "bio": null, "projects_count": 0, "devlogs_count": 0, "votes_count": 0, "ships_count": 0, "projects": [], "coding_time_seconds": 0, "coding_time_seconds_today": 0, "balance": "You need to have a pocket watcher badge to view this.", "badges": [], "created_at": "2025-07-23T12:02:22.145-04:00", "updated_at": "2025-07-23T21:41:13.063-04:00", "avatar": "https://secure.gravatar.com/avatar/1562f8e88c99645ea65d3ae16ea9e046.jpg?s=512&d=https%3A%2F%2Fa.slack-edge.com%2Fdf10d%2Fimg%2Favatars%2Fava_0015-512.png", "custom_css": null}, {"id": 18613, "slack_id": "U097TF35WU8", "display_name": "Yurii", "bio": null, "projects_count": 0, "devlogs_count": 0, "votes_count": 0, "ships_count": 0, "projects": [], "coding_time_seconds": 0, "coding_time_seconds_today": 0, "balance": "You need to have a pocket watcher badge to view this.", "badges": [], "created_at": "2025-07-23T12:03:20.237-04:00", "updated_at": "2025-07-23T21:41:13.181-04:00", "avatar": "https://secure.gravatar.com/avatar/4a269c0bde24d876862112572ef63b76.jpg?s=512&d=https%3A%2F%2Fa.slack-edge.com%2Fdf10d%2Fimg%2Favatars%2Fava_0026-512.png", "custom_css": null}, {"id": 18614, "slack_id": "U097JEYG8AD", "display_name": "Santanu Mondal", "bio": null, "projects_count": 0, "devlogs_count": 0, "votes_count": 0, "ships_count": 0, "projects": [], "coding_time_seconds": 0, "coding_time_seconds_today": 0, "balance": "You need to have a pocket watcher badge to view this.", "badges": [], "created_at": "2025-07-23T12:05:03.403-04:00", "updated_at": "2025-07-23T21:41:13.303-04:00", "avatar": "https://secure.gravatar.com/avatar/25fe120659ccc61ff5a6d4311d73957f.jpg?s=512&d=https%3A%2F%2Fa.slack-edge.com%2Fdf10d%2Fimg%2Favatars%2Fava_0014-512.png", "custom_css": null}, {"id": 18615, "slack_id": "U097TG9S4PJ", "display_name": "Charlie", "bio": null, "projects_count": 0, "devlogs_count": 0, "votes_count": 0, "ships_count": 0, "projects": [], "coding_time_seconds": 0, "coding_time_seconds_today": 0, "balance": "You need to have a pocket watcher badge to view this.", "badges": [], "created_at": "2025-07-23T12:05:37.087-04:00", "updated_at": "2025-08-27T06:25:39.347-04:00", "avatar": "https://avatars.slack-edge.com/2025-07-23/9265580918752_40695c774e7882a232f0_original.jpg", "custom_css": null}, {"id": 18616, "slack_id": "U09701LGT6X", "display_name": "R4ZEREVAN", "bio": null, "projects_count": 0, "devlogs_count": 0, "votes_count": 0, "ships_count": 0, "projects": [], "coding_time_seconds": 0, "coding_time_seconds_today": 0, "balance": "You need to have a pocket watcher badge to view this.", "badges": [], "created_at": "2025-07-23T12:06:52.513-04:00", "updated_at": "2025-07-23T21:41:13.522-04:00", "avatar": "https://secure.gravatar.com/avatar/11a84cc4dde66691ca1d79e5b64ce703.jpg?s=512&d=https%3A%2F%2Fa.slack-edge.com%2Fdf10d%2Fimg%2Favatars%2Fava_0023-512.png", "custom_css": null}, {"id": 18617, "slack_id": "U097JGAU849", "display_name": "Daniel", "bio": null, "projects_count": 1, "devlogs_count": 1, "votes_count": 0, "ships_count": 0, "projects": [{"id": 7889, "title": "Studer", "devlogs_count": 1, "created_at": "2025-07-23T12:42:10.145-04:00"}], "coding_time_seconds": 4125, "coding_time_seconds_today": 0, "balance": "You need to have a pocket watcher badge to view this.", "badges": [], "created_at": "2025-07-23T12:07:52.320-04:00", "updated_at": "2025-07-23T21:41:13.623-04:00", "avatar": "https://secure.gravatar.com/avatar/0493b1ad72923091c285f9ede07f9730.jpg?s=512&d=https%3A%2F%2Fa.slack-edge.com%2Fdf10d%2Fimg%2Favatars%2Fava_0025-512.png", "custom_css": null}, {"id": 18618, "slack_id": "U096MV5EGQK", "display_name": "Saad", "bio": null, "projects_count": 0, "devlogs_count": 0, "votes_count": 0, "ships_count": 0, "projects": [], "coding_time_seconds": 0, "coding_time_seconds_today": 0, "balance": "You need to have a pocket watcher badge to view this.", "badges": [], "created_at": "2025-07-23T12:08:02.877-04:00", "updated_at": "2025-07-23T21:41:13.733-04:00", "avatar": "https://secure.gravatar.com/avatar/b34f8e5fa943728780e9c779a4fdb598.jpg?s=512&d=https%3A%2F%2Fa.slack-edge.com%2Fdf10d%2Fimg%2Favatars%2Fava_0004-512.png", "custom_css": null}, {"id": 18619, "slack_id": "U0977D52S1F", "display_name": "adriany2kx", "bio": null, "projects_count": 0, "devlogs_count": 0, "votes_count": 1, "ships_count": 0, "projects": [], "coding_time_seconds": 0, "coding_time_seconds_today": 0, "balance": "You need to have a pocket watcher badge to view this.", "badges": [], "created_at": "2025-07-23T12:08:55.133-04:00", "updated_at": "2025-07-23T21:41:13.826-04:00", "avatar": "https://secure.gravatar.com/avatar/b846db52fe961d9cb81afb2a2edde540.jpg?s=512&d=https%3A%2F%2Fa.slack-edge.com%2Fdf10d%2Fimg%2Favatars%2Fava_0008-512.png", "custom_css": null}, {"id": 18620, "slack_id": "U096E09EWLX", "display_name": "Abhishek Saini", "bio": null, "projects_count": 0, "devlogs_count": 0, "votes_count": 0, "ships_count": 0, "projects": [], "coding_time_seconds": 72884, "coding_time_seconds_today": 0, "balance": "You need to have a pocket watcher badge to view this.", "badges": [], "created_at": "2025-07-23T12:09:38.901-04:00", "updated_at": "2025-08-03T12:16:08.448-04:00", "avatar": "https://avatars.slack-edge.com/2025-07-23/9238101142371_c397308ec03cc07d3527_original.jpg", "custom_css": null}, {"id": 18621, "slack_id": "U0975AEPKFU", "display_name": "Justin Lee", "bio": null, "projects_count": 0, "devlogs_count": 0, "votes_count": 0, "ships_count": 0, "projects": [], "coding_time_seconds": 0, "coding_time_seconds_today": 0, "balance": "You need to have a pocket watcher badge to view this.", "badges": [], "created_at": "2025-07-23T12:10:06.632-04:00", "updated_at": "2025-07-23T21:41:14.011-04:00", "avatar": "https://avatars.slack-edge.com/2025-07-23/9228221159767_e3dd95c400744a4af6c3_original.png", "custom_css": null}, {"id": 18622, "slack_id": "U097THFF4QY", "display_name": "Yusuf Hasan", "bio": null, "projects_count": 0, "devlogs_count": 0, "votes_count": 0, "ships_count": 0, "projects": [], "coding_time_seconds": 0, "coding_time_seconds_today": 0, "balance": "You need to have a pocket watcher badge to view this.", "badges": [], "created_at": "2025-07-23T12:11:29.017-04:00", "updated_at": "2025-07-23T21:41:14.107-04:00", "avatar": "https://secure.gravatar.com/avatar/6da6481b3cdfbee84e0789dbb5f0bb4b.jpg?s=512&d=https%3A%2F%2Fa.slack-edge.com%2Fdf10d%2Fimg%2Favatars%2Fava_0012-512.png", "custom_css": null}, {"id": 18623, "slack_id": "U0973HDF0LD", "display_name": "Himanshu Dubey", "bio": null, "projects_count": 0, "devlogs_count": 0, "votes_count": 0, "ships_count": 0, "projects": [], "coding_time_seconds": 0, "coding_time_seconds_today": 0, "balance": "You need to have a pocket watcher badge to view this.", "badges": [], "created_at": "2025-07-23T12:12:46.706-04:00", "updated_at": "2025-07-24T11:23:37.198-04:00", "avatar": "https://secure.gravatar.com/avatar/1c767a8fddb2074201b3b9fe3956544c.jpg?s=512&d=https%3A%2F%2Fa.slack-edge.com%2Fdf10d%2Fimg%2Favatars%2Fava_0015-512.png", "custom_css": null}, {"id": 18624, "slack_id": "U096Q6MML07", "display_name": "Sergio Mir", "bio": null, "projects_count": 0, "devlogs_count": 0, "votes_count": 0, "ships_count": 0, "projects": [], "coding_time_seconds": 0, "coding_time_seconds_today": 0, "balance": "You need to have a pocket watcher badge to view this.", "badges": [], "created_at": "2025-07-23T12:15:07.730-04:00", "updated_at": "2025-07-23T21:41:14.300-04:00", "avatar": "https://avatars.slack-edge.com/2025-07-23/9238134784323_f7997c501a1239bfa6eb_original.png", "custom_css": null}, {"id": 18625, "slack_id": "U096UJRAJ58", "display_name": "Siddhant", "bio": null, "projects_count": 1, "devlogs_count": 3, "votes_count": 1, "ships_count": 1, "projects": [{"id": 7940, "title": "Yeetcode", "devlogs_count": 3, "created_at": "2025-07-23T18:08:09.675-04:00"}], "coding_time_seconds": 131612, "coding_time_seconds_today": 0, "balance": "You need to have a pocket watcher badge to view this.", "badges": [], "created_at": "2025-07-23T12:17:53.109-04:00", "updated_at": "2025-09-05T15:42:44.667-04:00", "avatar": "https://secure.gravatar.com/avatar/71ceebabc169160f18996c98d632c608.jpg?s=512&d=https%3A%2F%2Fa.slack-edge.com%2Fdf10d%2Fimg%2Favatars%2Fava_0023-512.png", "custom_css": null}], "pagination": {"page": 927, "pages": 1192, "count": 23828, "items": 20}}