{"users": [{"id": 18626, "slack_id": "U09703Q1CNP", "display_name": "Igor Miranda", "bio": null, "projects_count": 0, "devlogs_count": 0, "votes_count": 0, "ships_count": 0, "projects": [], "coding_time_seconds": 9729, "coding_time_seconds_today": 0, "balance": "You need to have a pocket watcher badge to view this.", "badges": [], "created_at": "2025-07-23T12:18:40.733-04:00", "updated_at": "2025-07-23T21:41:14.494-04:00", "avatar": "https://secure.gravatar.com/avatar/24dfe2cd954f9ca00d028476cb8485bf.jpg?s=512&d=https%3A%2F%2Fa.slack-edge.com%2Fdf10d%2Fimg%2Favatars%2Fava_0007-512.png", "custom_css": null}, {"id": 18627, "slack_id": "U0976F88SNQ", "display_name": "Hamza khan", "bio": null, "projects_count": 0, "devlogs_count": 0, "votes_count": 0, "ships_count": 0, "projects": [], "coding_time_seconds": 0, "coding_time_seconds_today": 0, "balance": "You need to have a pocket watcher badge to view this.", "badges": [], "created_at": "2025-07-23T12:20:56.080-04:00", "updated_at": "2025-07-23T21:41:18.616-04:00", "avatar": "https://avatars.slack-edge.com/2025-07-23/9243437287154_bec350dbaf81e0928030_original.jpg", "custom_css": null}, {"id": 18628, "slack_id": "U092VFK78DS", "display_name": "Priyanshu Verma", "bio": null, "projects_count": 0, "devlogs_count": 0, "votes_count": 0, "ships_count": 0, "projects": [], "coding_time_seconds": 0, "coding_time_seconds_today": 0, "balance": "You need to have a pocket watcher badge to view this.", "badges": [], "created_at": "2025-07-23T12:22:12.230-04:00", "updated_at": "2025-07-23T21:41:18.731-04:00", "avatar": "https://secure.gravatar.com/avatar/7de60d21a69015e08f5106c37e261d21.jpg?s=512&d=https%3A%2F%2Fa.slack-edge.com%2Fdf10d%2Fimg%2Favatars%2Fava_0012-512.png", "custom_css": null}, {"id": 18629, "slack_id": "U097JK595TK", "display_name": "tarakoshka", "bio": null, "projects_count": 1, "devlogs_count": 1, "votes_count": 0, "ships_count": 1, "projects": [{"id": 9087, "title": "glance", "devlogs_count": 1, "created_at": "2025-07-30T14:17:12.593-04:00"}], "coding_time_seconds": 60376, "coding_time_seconds_today": 0, "balance": "You need to have a pocket watcher badge to view this.", "badges": [], "created_at": "2025-07-23T12:22:48.331-04:00", "updated_at": "2025-07-29T16:38:47.590-04:00", "avatar": "https://secure.gravatar.com/avatar/22ca2320faa3b42e3f547068c531af1c.jpg?s=512&d=https%3A%2F%2Fa.slack-edge.com%2Fdf10d%2Fimg%2Favatars%2Fava_0006-512.png", "custom_css": null}, {"id": 18630, "slack_id": "U0975CRSBA6", "display_name": "Jay Karia", "bio": null, "projects_count": 1, "devlogs_count": 8, "votes_count": 0, "ships_count": 1, "projects": [{"id": 7892, "title": "Finance Sync", "devlogs_count": 8, "created_at": "2025-07-23T12:52:19.675-04:00"}], "coding_time_seconds": 22486, "coding_time_seconds_today": 0, "balance": "You need to have a pocket watcher badge to view this.", "badges": [], "created_at": "2025-07-23T12:26:35.829-04:00", "updated_at": "2025-07-24T05:49:27.524-04:00", "avatar": "https://secure.gravatar.com/avatar/3b25ec4ed80936df11410653c9190aae.jpg?s=512&d=https%3A%2F%2Fa.slack-edge.com%2Fdf10d%2Fimg%2Favatars%2Fava_0026-512.png", "custom_css": null}, {"id": 18631, "slack_id": "U0973LY57AR", "display_name": "Triqzs", "bio": null, "projects_count": 0, "devlogs_count": 0, "votes_count": 0, "ships_count": 0, "projects": [], "coding_time_seconds": 0, "coding_time_seconds_today": 0, "balance": "You need to have a pocket watcher badge to view this.", "badges": [], "created_at": "2025-07-23T12:31:23.181-04:00", "updated_at": "2025-07-23T21:41:19.025-04:00", "avatar": "https://secure.gravatar.com/avatar/694ae20320d81820ca8686b75b05f3bb.jpg?s=512&d=https%3A%2F%2Fa.slack-edge.com%2Fdf10d%2Fimg%2Favatars%2Fava_0002-512.png", "custom_css": null}, {"id": 18632, "slack_id": "U09706SGWTV", "display_name": "Gopalakrishna panditi", "bio": null, "projects_count": 0, "devlogs_count": 0, "votes_count": 0, "ships_count": 0, "projects": [], "coding_time_seconds": 0, "coding_time_seconds_today": 0, "balance": "You need to have a pocket watcher badge to view this.", "badges": [], "created_at": "2025-07-23T12:32:24.788-04:00", "updated_at": "2025-07-23T21:41:19.119-04:00", "avatar": "https://secure.gravatar.com/avatar/59b3f708874a625efd45bcde0dc83250.jpg?s=512&d=https%3A%2F%2Fa.slack-edge.com%2Fdf10d%2Fimg%2Favatars%2Fava_0009-512.png", "custom_css": null}, {"id": 18633, "slack_id": "U097TMHT11N", "display_name": "Gaurav Mahajan", "bio": null, "projects_count": 0, "devlogs_count": 0, "votes_count": 0, "ships_count": 0, "projects": [], "coding_time_seconds": 0, "coding_time_seconds_today": 0, "balance": "You need to have a pocket watcher badge to view this.", "badges": [], "created_at": "2025-07-23T12:33:09.389-04:00", "updated_at": "2025-07-23T21:41:19.212-04:00", "avatar": "https://secure.gravatar.com/avatar/11c48763b5c396e54bc7db39c5da0124.jpg?s=512&d=https%3A%2F%2Fa.slack-edge.com%2Fdf10d%2Fimg%2Favatars%2Fava_0003-512.png", "custom_css": null}, {"id": 18634, "slack_id": "U097TMD9B3J", "display_name": "Kola Divya", "bio": null, "projects_count": 0, "devlogs_count": 0, "votes_count": 0, "ships_count": 0, "projects": [], "coding_time_seconds": 0, "coding_time_seconds_today": 0, "balance": "You need to have a pocket watcher badge to view this.", "badges": [], "created_at": "2025-07-23T12:33:18.381-04:00", "updated_at": "2025-07-23T21:41:19.297-04:00", "avatar": "https://secure.gravatar.com/avatar/023ce4410d93e1d22ae15753192a10bf.jpg?s=512&d=https%3A%2F%2Fa.slack-edge.com%2Fdf10d%2Fimg%2Favatars%2Fava_0005-512.png", "custom_css": null}, {"id": 18635, "slack_id": "U0973MPRTJ9", "display_name": "kamal", "bio": null, "projects_count": 2, "devlogs_count": 0, "votes_count": 0, "ships_count": 0, "projects": [{"id": 7986, "title": "My Devops Protfolio Project", "devlogs_count": 0, "created_at": "2025-07-23T23:23:10.977-04:00"}, {"id": 7988, "title": "Interview Copilit", "devlogs_count": 0, "created_at": "2025-07-23T23:32:46.051-04:00"}], "coding_time_seconds": 7156, "coding_time_seconds_today": 0, "balance": "You need to have a pocket watcher badge to view this.", "badges": [], "created_at": "2025-07-23T12:36:41.406-04:00", "updated_at": "2025-07-25T03:44:26.950-04:00", "avatar": "https://secure.gravatar.com/avatar/cd3657f38ce3f541b66f03f5023a02cb.jpg?s=512&d=https%3A%2F%2Fa.slack-edge.com%2Fdf10d%2Fimg%2Favatars%2Fava_0013-512.png", "custom_css": null}, {"id": 18636, "slack_id": "U09707HMYFM", "display_name": "SalehAli", "bio": null, "projects_count": 0, "devlogs_count": 0, "votes_count": 0, "ships_count": 0, "projects": [], "coding_time_seconds": 0, "coding_time_seconds_today": 0, "balance": "You need to have a pocket watcher badge to view this.", "badges": [], "created_at": "2025-07-23T12:38:34.153-04:00", "updated_at": "2025-07-23T21:41:19.469-04:00", "avatar": "https://secure.gravatar.com/avatar/b62259aa6fb0cf747c0943e5418ec2c1.jpg?s=512&d=https%3A%2F%2Fa.slack-edge.com%2Fdf10d%2Fimg%2Favatars%2Fava_0008-512.png", "custom_css": null}, {"id": 18637, "slack_id": "U097TN9N68Y", "display_name": "Balls", "bio": null, "projects_count": 0, "devlogs_count": 0, "votes_count": 0, "ships_count": 0, "projects": [], "coding_time_seconds": 0, "coding_time_seconds_today": 0, "balance": "You need to have a pocket watcher badge to view this.", "badges": [], "created_at": "2025-07-23T12:39:12.789-04:00", "updated_at": "2025-07-23T21:41:19.565-04:00", "avatar": "https://secure.gravatar.com/avatar/16a3929090108a5cbe2a570d1f0baf2e.jpg?s=512&d=https%3A%2F%2Fa.slack-edge.com%2Fdf10d%2Fimg%2Favatars%2Fava_0005-512.png", "custom_css": null}, {"id": 18638, "slack_id": "U0976L4HYA0", "display_name": "Bartoszz", "bio": "yoink, my account now :3 -felix", "projects_count": 0, "devlogs_count": 0, "votes_count": 0, "ships_count": 0, "projects": [], "coding_time_seconds": 0, "coding_time_seconds_today": 0, "balance": "You need to have a pocket watcher badge to view this.", "badges": [], "created_at": "2025-07-23T12:42:47.097-04:00", "updated_at": "2025-07-23T21:41:19.658-04:00", "avatar": "https://secure.gravatar.com/avatar/64b23299c04a26bea0037740c3e58789.jpg?s=512&d=https%3A%2F%2Fa.slack-edge.com%2Fdf10d%2Fimg%2Favatars%2Fava_0005-512.png", "custom_css": null}, {"id": 18639, "slack_id": "U096QBNFG7R", "display_name": "Mufaro \u3061\u3083\u3093", "bio": null, "projects_count": 0, "devlogs_count": 0, "votes_count": 0, "ships_count": 0, "projects": [], "coding_time_seconds": 0, "coding_time_seconds_today": 0, "balance": "You need to have a pocket watcher badge to view this.", "badges": [], "created_at": "2025-07-23T12:43:08.959-04:00", "updated_at": "2025-07-23T21:41:23.778-04:00", "avatar": "https://avatars.slack-edge.com/2025-07-23/9238305224067_079d4ef9aedb812cb66d_original.jpg", "custom_css": null}, {"id": 18640, "slack_id": "U0972JCCR4N", "display_name": "Anu", "bio": null, "projects_count": 0, "devlogs_count": 0, "votes_count": 0, "ships_count": 0, "projects": [], "coding_time_seconds": 0, "coding_time_seconds_today": 0, "balance": "You need to have a pocket watcher badge to view this.", "badges": [], "created_at": "2025-07-23T12:44:00.675-04:00", "updated_at": "2025-07-23T21:41:23.867-04:00", "avatar": "https://secure.gravatar.com/avatar/09afd8fd5af2936a4be08ccdae0c9074.jpg?s=512&d=https%3A%2F%2Fa.slack-edge.com%2Fdf10d%2Fimg%2Favatars%2Fava_0024-512.png", "custom_css": null}, {"id": 18641, "slack_id": "U096WGNQ284", "display_name": "Naitik Kumar", "bio": null, "projects_count": 0, "devlogs_count": 0, "votes_count": 0, "ships_count": 0, "projects": [], "coding_time_seconds": 0, "coding_time_seconds_today": 0, "balance": "You need to have a pocket watcher badge to view this.", "badges": [], "created_at": "2025-07-23T12:44:23.686-04:00", "updated_at": "2025-07-23T21:41:23.938-04:00", "avatar": "https://secure.gravatar.com/avatar/f40f4503d89a42cbdd3fb108c05b0778.jpg?s=512&d=https%3A%2F%2Fa.slack-edge.com%2Fdf10d%2Fimg%2Favatars%2Fava_0014-512.png", "custom_css": null}, {"id": 18642, "slack_id": "U097JNW8UD7", "display_name": "SuhaybOn1FPS", "bio": null, "projects_count": 0, "devlogs_count": 0, "votes_count": 0, "ships_count": 0, "projects": [], "coding_time_seconds": 0, "coding_time_seconds_today": 0, "balance": "You need to have a pocket watcher badge to view this.", "badges": [], "created_at": "2025-07-23T12:45:28.211-04:00", "updated_at": "2025-08-12T13:49:29.574-04:00", "avatar": "https://avatars.slack-edge.com/2025-07-28/9265360974229_09dc1ce018162274a93e_original.jpg", "custom_css": null}, {"id": 18643, "slack_id": "U0975G95W66", "display_name": "Rishab", "bio": null, "projects_count": 0, "devlogs_count": 0, "votes_count": 0, "ships_count": 0, "projects": [], "coding_time_seconds": 0, "coding_time_seconds_today": 0, "balance": "You need to have a pocket watcher badge to view this.", "badges": [], "created_at": "2025-07-23T12:45:58.279-04:00", "updated_at": "2025-07-23T21:41:24.116-04:00", "avatar": "https://avatars.slack-edge.com/2025-07-23/9244719722404_14309b126eb575234e9b_original.jpg", "custom_css": null}, {"id": 18644, "slack_id": "U0973PQATA9", "display_name": "Anderson Lozano", "bio": null, "projects_count": 0, "devlogs_count": 0, "votes_count": 0, "ships_count": 0, "projects": [], "coding_time_seconds": 0, "coding_time_seconds_today": 0, "balance": "You need to have a pocket watcher badge to view this.", "badges": [], "created_at": "2025-07-23T12:46:44.605-04:00", "updated_at": "2025-07-23T21:41:24.205-04:00", "avatar": "https://secure.gravatar.com/avatar/9368bae34c61e7520c39e0e3e7ec4a74.jpg?s=512&d=https%3A%2F%2Fa.slack-edge.com%2Fdf10d%2Fimg%2Favatars%2Fava_0014-512.png", "custom_css": null}, {"id": 18645, "slack_id": "U0972LTJT4N", "display_name": "Manoj", "bio": null, "projects_count": 0, "devlogs_count": 0, "votes_count": 0, "ships_count": 0, "projects": [], "coding_time_seconds": 0, "coding_time_seconds_today": 0, "balance": "You need to have a pocket watcher badge to view this.", "badges": [], "created_at": "2025-07-23T12:56:57.759-04:00", "updated_at": "2025-07-23T21:41:24.277-04:00", "avatar": "https://secure.gravatar.com/avatar/39791a669f9756cbd9aa3e65cd10e24e.jpg?s=512&d=https%3A%2F%2Fa.slack-edge.com%2Fdf10d%2Fimg%2Favatars%2Fava_0014-512.png", "custom_css": null}], "pagination": {"page": 928, "pages": 1192, "count": 23828, "items": 20}}