{"users": [{"id": 18646, "slack_id": "U097SGH0M3J", "display_name": "Kingrane", "bio": null, "projects_count": 0, "devlogs_count": 0, "votes_count": 0, "ships_count": 0, "projects": [], "coding_time_seconds": 0, "coding_time_seconds_today": 0, "balance": "You need to have a pocket watcher badge to view this.", "badges": [], "created_at": "2025-07-23T12:58:01.501-04:00", "updated_at": "2025-07-23T21:41:24.357-04:00", "avatar": "https://avatars.slack-edge.com/2025-07-23/9238392673603_7c9b8a870cfc1d828360_original.jpg", "custom_css": null}, {"id": 18647, "slack_id": "U0975JZ8MJ6", "display_name": "sanu kumar", "bio": null, "projects_count": 1, "devlogs_count": 0, "votes_count": 0, "ships_count": 0, "projects": [{"id": 7898, "title": "HERITAGE_HUB", "devlogs_count": 0, "created_at": "2025-07-23T13:39:50.396-04:00"}], "coding_time_seconds": 2052, "coding_time_seconds_today": 0, "balance": "You need to have a pocket watcher badge to view this.", "badges": [], "created_at": "2025-07-23T12:58:48.266-04:00", "updated_at": "2025-07-23T21:41:24.430-04:00", "avatar": "https://avatars.slack-edge.com/2025-07-23/9228495480311_55be87778344e9b7c02a_original.png", "custom_css": null}, {"id": 18648, "slack_id": "U096VBKRFGU", "display_name": "titoshadow", "bio": null, "projects_count": 0, "devlogs_count": 0, "votes_count": 0, "ships_count": 0, "projects": [], "coding_time_seconds": 0, "coding_time_seconds_today": 0, "balance": "You need to have a pocket watcher badge to view this.", "badges": [], "created_at": "2025-07-23T13:01:59.302-04:00", "updated_at": "2025-07-23T21:41:24.511-04:00", "avatar": "https://secure.gravatar.com/avatar/acdaff72d6a59907ae3a451fd63d1ade.jpg?s=512&d=https%3A%2F%2Fa.slack-edge.com%2Fdf10d%2Fimg%2Favatars%2Fava_0006-512.png", "custom_css": null}, {"id": 18649, "slack_id": "U097JSTD2SV", "display_name": "Nandish", "bio": null, "projects_count": 0, "devlogs_count": 0, "votes_count": 0, "ships_count": 0, "projects": [], "coding_time_seconds": 0, "coding_time_seconds_today": 0, "balance": "You need to have a pocket watcher badge to view this.", "badges": [], "created_at": "2025-07-23T13:06:22.988-04:00", "updated_at": "2025-07-23T21:41:24.595-04:00", "avatar": "https://secure.gravatar.com/avatar/b9c91e673244331a33d30715d442405a.jpg?s=512&d=https%3A%2F%2Fa.slack-edge.com%2Fdf10d%2Fimg%2Favatars%2Fava_0007-512.png", "custom_css": null}, {"id": 18650, "slack_id": "U0970CWR6D9", "display_name": "Nurdaulet", "bio": null, "projects_count": 0, "devlogs_count": 0, "votes_count": 0, "ships_count": 0, "projects": [], "coding_time_seconds": 5906, "coding_time_seconds_today": 0, "balance": "You need to have a pocket watcher badge to view this.", "badges": [], "created_at": "2025-07-23T13:07:24.306-04:00", "updated_at": "2025-07-23T21:41:28.719-04:00", "avatar": "https://secure.gravatar.com/avatar/4b4e95b5879ad329e813efe586f95ac1.jpg?s=512&d=https%3A%2F%2Fa.slack-edge.com%2Fdf10d%2Fimg%2Favatars%2Fava_0011-512.png", "custom_css": null}, {"id": 18651, "slack_id": "U097JT689U1", "display_name": "freast", "bio": null, "projects_count": 0, "devlogs_count": 0, "votes_count": 0, "ships_count": 0, "projects": [], "coding_time_seconds": 0, "coding_time_seconds_today": 0, "balance": "You need to have a pocket watcher badge to view this.", "badges": [], "created_at": "2025-07-23T13:08:15.207-04:00", "updated_at": "2025-07-23T21:41:28.816-04:00", "avatar": "https://secure.gravatar.com/avatar/91b79e5f83f940f2a2cceacf09800a1f.jpg?s=512&d=https%3A%2F%2Fa.slack-edge.com%2Fdf10d%2Fimg%2Favatars%2Fava_0019-512.png", "custom_css": null}, {"id": 18652, "slack_id": "U096QFTA6EB", "display_name": "Sridhar", "bio": null, "projects_count": 0, "devlogs_count": 0, "votes_count": 0, "ships_count": 0, "projects": [], "coding_time_seconds": 12546, "coding_time_seconds_today": 0, "balance": "You need to have a pocket watcher badge to view this.", "badges": [], "created_at": "2025-07-23T13:08:45.221-04:00", "updated_at": "2025-07-23T21:41:28.920-04:00", "avatar": "https://secure.gravatar.com/avatar/b32b45c49d448bc2126e23794e3eb692.jpg?s=512&d=https%3A%2F%2Fa.slack-edge.com%2Fdf10d%2Fimg%2Favatars%2Fava_0023-512.png", "custom_css": null}, {"id": 18653, "slack_id": "U0973ULMEER", "display_name": "Bek", "bio": null, "projects_count": 0, "devlogs_count": 0, "votes_count": 0, "ships_count": 0, "projects": [], "coding_time_seconds": 253370, "coding_time_seconds_today": 0, "balance": "You need to have a pocket watcher badge to view this.", "badges": [], "created_at": "2025-07-23T13:13:17.763-04:00", "updated_at": "2025-07-23T21:41:28.992-04:00", "avatar": "https://secure.gravatar.com/avatar/0a3409026f971f633098d341cdc2a793.jpg?s=512&d=https%3A%2F%2Fa.slack-edge.com%2Fdf10d%2Fimg%2Favatars%2Fava_0014-512.png", "custom_css": null}, {"id": 18654, "slack_id": "U0976S36B6Y", "display_name": "Alish", "bio": null, "projects_count": 1, "devlogs_count": 0, "votes_count": 0, "ships_count": 0, "projects": [{"id": 7903, "title": "yt downloader cli", "devlogs_count": 0, "created_at": "2025-07-23T14:05:50.757-04:00"}], "coding_time_seconds": 532, "coding_time_seconds_today": 0, "balance": "You need to have a pocket watcher badge to view this.", "badges": [], "created_at": "2025-07-23T13:17:24.731-04:00", "updated_at": "2025-07-23T21:41:29.074-04:00", "avatar": "https://secure.gravatar.com/avatar/82b900aa7166bfeda9220eff76f23d44.jpg?s=512&d=https%3A%2F%2Fa.slack-edge.com%2Fdf10d%2Fimg%2Favatars%2Fava_0019-512.png", "custom_css": null}, {"id": 18655, "slack_id": "U0972QNCMFG", "display_name": "Karthikeya J. S.", "bio": null, "projects_count": 0, "devlogs_count": 0, "votes_count": 0, "ships_count": 0, "projects": [], "coding_time_seconds": 0, "coding_time_seconds_today": 0, "balance": "You need to have a pocket watcher badge to view this.", "badges": [], "created_at": "2025-07-23T13:18:03.689-04:00", "updated_at": "2025-07-23T21:41:29.188-04:00", "avatar": "https://avatars.slack-edge.com/2025-07-23/9238522197235_4d157f6cab9f8001a18b_original.png", "custom_css": null}, {"id": 18656, "slack_id": "U097KT0S5B2", "display_name": "praaz", "bio": null, "projects_count": 0, "devlogs_count": 0, "votes_count": 0, "ships_count": 0, "projects": [], "coding_time_seconds": 0, "coding_time_seconds_today": 0, "balance": "You need to have a pocket watcher badge to view this.", "badges": [], "created_at": "2025-07-23T13:25:32.792-04:00", "updated_at": "2025-07-23T21:41:29.274-04:00", "avatar": "https://secure.gravatar.com/avatar/b3e436dbfbbd3f3b96f3f4d4b97a29ef.jpg?s=512&d=https%3A%2F%2Fa.slack-edge.com%2Fdf10d%2Fimg%2Favatars%2Fava_0023-512.png", "custom_css": null}, {"id": 18657, "slack_id": "U0976T3TMU4", "display_name": "William Jewell", "bio": null, "projects_count": 0, "devlogs_count": 0, "votes_count": 0, "ships_count": 0, "projects": [], "coding_time_seconds": 0, "coding_time_seconds_today": 0, "balance": "You need to have a pocket watcher badge to view this.", "badges": [], "created_at": "2025-07-23T13:25:56.292-04:00", "updated_at": "2025-07-23T21:41:33.397-04:00", "avatar": "https://secure.gravatar.com/avatar/b79952780279e60b6fb79bd87d198123.jpg?s=512&d=https%3A%2F%2Fa.slack-edge.com%2Fdf10d%2Fimg%2Favatars%2Fava_0005-512.png", "custom_css": null}, {"id": 18658, "slack_id": "U096GLHDR9V", "display_name": "Jeferson Hernandez", "bio": null, "projects_count": 0, "devlogs_count": 0, "votes_count": 0, "ships_count": 0, "projects": [], "coding_time_seconds": 0, "coding_time_seconds_today": 0, "balance": "You need to have a pocket watcher badge to view this.", "badges": [], "created_at": "2025-07-23T13:33:13.066-04:00", "updated_at": "2025-07-23T21:41:33.492-04:00", "avatar": "https://avatars.slack-edge.com/2025-07-23/9240928042566_9bda76422981ddea906e_original.jpg", "custom_css": null}, {"id": 18659, "slack_id": "U0970HM2HLK", "display_name": "Nazar Kleban", "bio": null, "projects_count": 1, "devlogs_count": 1, "votes_count": 4, "ships_count": 1, "projects": [{"id": 9763, "title": "Memory Card Game", "devlogs_count": 1, "created_at": "2025-08-02T07:45:18.059-04:00"}], "coding_time_seconds": 87930, "coding_time_seconds_today": 444, "balance": "You need to have a pocket watcher badge to view this.", "badges": [], "created_at": "2025-07-23T13:33:32.068-04:00", "updated_at": "2025-08-09T11:57:02.915-04:00", "avatar": "https://avatars.slack-edge.com/2025-08-09/9329159248261_412cef122292003e21e7_original.jpg", "custom_css": null}, {"id": 18660, "slack_id": "U0976URAAMS", "display_name": "Zaki", "bio": null, "projects_count": 0, "devlogs_count": 0, "votes_count": 0, "ships_count": 0, "projects": [], "coding_time_seconds": 24880, "coding_time_seconds_today": 0, "balance": "You need to have a pocket watcher badge to view this.", "badges": [], "created_at": "2025-07-23T13:34:04.450-04:00", "updated_at": "2025-07-23T21:41:33.718-04:00", "avatar": "https://secure.gravatar.com/avatar/7663edcf04ffc7ad144e5afe7314d4ec.jpg?s=512&d=https%3A%2F%2Fa.slack-edge.com%2Fdf10d%2Fimg%2Favatars%2Fava_0010-512.png", "custom_css": null}, {"id": 18661, "slack_id": "U096Z0JQZV1", "display_name": "Austin", "bio": null, "projects_count": 0, "devlogs_count": 0, "votes_count": 0, "ships_count": 0, "projects": [], "coding_time_seconds": 0, "coding_time_seconds_today": 0, "balance": "You need to have a pocket watcher badge to view this.", "badges": [], "created_at": "2025-07-23T13:36:39.114-04:00", "updated_at": "2025-07-23T21:41:33.831-04:00", "avatar": "https://secure.gravatar.com/avatar/31edb547245cd6b0c28d305b9fccf86e.jpg?s=512&d=https%3A%2F%2Fa.slack-edge.com%2Fdf10d%2Fimg%2Favatars%2Fava_0000-512.png", "custom_css": null}, {"id": 18662, "slack_id": "U0976V3340L", "display_name": "Siddharth", "bio": null, "projects_count": 0, "devlogs_count": 0, "votes_count": 0, "ships_count": 0, "projects": [], "coding_time_seconds": 0, "coding_time_seconds_today": 0, "balance": "You need to have a pocket watcher badge to view this.", "badges": [], "created_at": "2025-07-23T13:37:10.574-04:00", "updated_at": "2025-07-23T21:41:33.921-04:00", "avatar": "https://secure.gravatar.com/avatar/05151e2f19bbb95b9d066b2ab4031d7c.jpg?s=512&d=https%3A%2F%2Fa.slack-edge.com%2Fdf10d%2Fimg%2Favatars%2Fava_0018-512.png", "custom_css": null}, {"id": 18663, "slack_id": "U0974P0KP5G", "display_name": "Dominik K.", "bio": null, "projects_count": 0, "devlogs_count": 0, "votes_count": 0, "ships_count": 0, "projects": [], "coding_time_seconds": 0, "coding_time_seconds_today": 0, "balance": "You need to have a pocket watcher badge to view this.", "badges": [], "created_at": "2025-07-23T13:38:12.378-04:00", "updated_at": "2025-07-23T21:41:34.037-04:00", "avatar": "https://avatars.slack-edge.com/2025-07-23/9242138161381_3497098a953b365bf202_original.png", "custom_css": null}, {"id": 18664, "slack_id": "U097U3T4YGY", "display_name": "Darshit", "bio": null, "projects_count": 1, "devlogs_count": 0, "votes_count": 0, "ships_count": 0, "projects": [{"id": 7907, "title": "My Personal Website", "devlogs_count": 0, "created_at": "2025-07-23T14:20:03.009-04:00"}], "coding_time_seconds": 32524, "coding_time_seconds_today": 0, "balance": "You need to have a pocket watcher badge to view this.", "badges": [], "created_at": "2025-07-23T13:39:56.475-04:00", "updated_at": "2025-07-23T21:41:34.122-04:00", "avatar": "https://secure.gravatar.com/avatar/2d3011e3f8ca42eccd6db7dcb94af962.jpg?s=512&d=https%3A%2F%2Fa.slack-edge.com%2Fdf10d%2Fimg%2Favatars%2Fava_0015-512.png", "custom_css": null}, {"id": 18665, "slack_id": "U096QM1N0CX", "display_name": "badboy17", "bio": null, "projects_count": 0, "devlogs_count": 0, "votes_count": 0, "ships_count": 0, "projects": [], "coding_time_seconds": 0, "coding_time_seconds_today": 0, "balance": "You need to have a pocket watcher badge to view this.", "badges": [], "created_at": "2025-07-23T13:40:50.865-04:00", "updated_at": "2025-07-23T21:41:34.212-04:00", "avatar": "https://secure.gravatar.com/avatar/6b0c1a54a8ccc863b4ce00025ec8e507.jpg?s=512&d=https%3A%2F%2Fa.slack-edge.com%2Fdf10d%2Fimg%2Favatars%2Fava_0026-512.png", "custom_css": null}], "pagination": {"page": 929, "pages": 1192, "count": 23828, "items": 20}}