{"users": [{"id": 1841, "slack_id": "U091H0901F0", "display_name": "Alejo Marin Iparraguirre", "bio": null, "projects_count": 0, "devlogs_count": 0, "votes_count": 0, "ships_count": 0, "projects": [], "coding_time_seconds": 1093, "coding_time_seconds_today": 0, "balance": "You need to have a pocket watcher badge to view this.", "badges": [], "created_at": "2025-06-16T14:06:16.676-04:00", "updated_at": "2025-07-03T19:19:28.415-04:00", "avatar": "https://avatars.slack-edge.com/2025-06-16/9042575024103_e77cae87c20fbdc29cec_original.jpg", "custom_css": null}, {"id": 1842, "slack_id": "U08TH3JV9V4", "display_name": "unowen", "bio": null, "projects_count": 0, "devlogs_count": 8, "votes_count": 60, "ships_count": 0, "projects": [], "coding_time_seconds": 531298, "coding_time_seconds_today": 0, "balance": "You need to have a pocket watcher badge to view this.", "badges": [{"name": "Maiden Voyage", "text": "you shipped your first project! the journey begins...", "icon": "\ud83d\udea2"}], "created_at": "2025-06-16T14:06:37.019-04:00", "updated_at": "2025-09-10T22:52:04.666-04:00", "avatar": "https://secure.gravatar.com/avatar/7ad227520b805a58e22cfcc3d2ba48fe.jpg?s=512&d=https%3A%2F%2Fa.slack-edge.com%2Fdf10d%2Fimg%2Favatars%2Fava_0014-512.png", "custom_css": null}, {"id": 1843, "slack_id": "U092C0N9Q2U", "display_name": "ANGER Matis", "bio": null, "projects_count": 0, "devlogs_count": 0, "votes_count": 0, "ships_count": 0, "projects": [], "coding_time_seconds": 0, "coding_time_seconds_today": 0, "balance": "You need to have a pocket watcher badge to view this.", "badges": [], "created_at": "2025-06-16T14:06:37.273-04:00", "updated_at": "2025-07-03T19:19:28.969-04:00", "avatar": "https://secure.gravatar.com/avatar/c283d549255ab0e5af708a0620deedd0.jpg?s=512&d=https%3A%2F%2Fa.slack-edge.com%2Fdf10d%2Fimg%2Favatars%2Fava_0021-512.png", "custom_css": null}, {"id": 1844, "slack_id": "U091N2WLQ1K", "display_name": "BlueDragon_space", "bio": "Salutations!!!\r\n\r\nI'm a Godot Game Dev, and currently working with the Jumpstart YSWS.", "projects_count": 3, "devlogs_count": 8, "votes_count": 18, "ships_count": 1, "projects": [{"id": 3223, "title": "Kitty's Game", "devlogs_count": 1, "created_at": "2025-06-23T13:55:51.517-04:00"}, {"id": 6386, "title": "Mower Game", "devlogs_count": 1, "created_at": "2025-07-12T23:24:43.809-04:00"}, {"id": 5712, "title": "Centroid", "devlogs_count": 2, "created_at": "2025-07-07T11:28:10.423-04:00"}], "coding_time_seconds": 188521, "coding_time_seconds_today": 0, "balance": "You need to have a pocket watcher badge to view this.", "badges": [{"name": "Maiden Voyage", "text": "you shipped your first project! the journey begins...", "icon": "\ud83d\udea2"}], "created_at": "2025-06-16T14:06:37.326-04:00", "updated_at": "2025-09-10T22:52:04.724-04:00", "avatar": "https://avatars.slack-edge.com/2025-08-26/9416166958854_314e22490094bd8cb402_original.png", "custom_css": null}, {"id": 1845, "slack_id": "U091Q704TD2", "display_name": "dev_arun", "bio": null, "projects_count": 0, "devlogs_count": 0, "votes_count": 0, "ships_count": 0, "projects": [], "coding_time_seconds": 0, "coding_time_seconds_today": 0, "balance": "You need to have a pocket watcher badge to view this.", "badges": [], "created_at": "2025-06-16T14:07:02.677-04:00", "updated_at": "2025-07-03T19:19:29.515-04:00", "avatar": "https://secure.gravatar.com/avatar/a310fa1fafd9b0a0eabfa279e90e17cd.jpg?s=512&d=https%3A%2F%2Fa.slack-edge.com%2Fdf10d%2Fimg%2Favatars%2Fava_0013-512.png", "custom_css": null}, {"id": 1846, "slack_id": "U091H0HPMGW", "display_name": "Miyuru Amarasiri", "bio": null, "projects_count": 0, "devlogs_count": 0, "votes_count": 0, "ships_count": 0, "projects": [], "coding_time_seconds": 0, "coding_time_seconds_today": 0, "balance": "You need to have a pocket watcher badge to view this.", "badges": [], "created_at": "2025-06-16T14:07:07.165-04:00", "updated_at": "2025-07-03T19:19:29.785-04:00", "avatar": "https://secure.gravatar.com/avatar/171e4705f72d76e00eb54be6a39f4fd4.jpg?s=512&d=https%3A%2F%2Fa.slack-edge.com%2Fdf10d%2Fimg%2Favatars%2Fava_0000-512.png", "custom_css": null}, {"id": 1847, "slack_id": "U091H0L61NJ", "display_name": "manish", "bio": null, "projects_count": 0, "devlogs_count": 0, "votes_count": 0, "ships_count": 0, "projects": [], "coding_time_seconds": 0, "coding_time_seconds_today": 0, "balance": "You need to have a pocket watcher badge to view this.", "badges": [], "created_at": "2025-06-16T14:07:13.528-04:00", "updated_at": "2025-07-03T19:19:30.056-04:00", "avatar": "https://secure.gravatar.com/avatar/26740596298a620f18787585da45d8b8.jpg?s=512&d=https%3A%2F%2Fa.slack-edge.com%2Fdf10d%2Fimg%2Favatars%2Fava_0026-512.png", "custom_css": null}, {"id": 1848, "slack_id": "U091H0LLM5L", "display_name": "Adarsh", "bio": null, "projects_count": 2, "devlogs_count": 3, "votes_count": 16, "ships_count": 1, "projects": [{"id": 152, "title": "ConvoRoom", "devlogs_count": 2, "created_at": "2025-06-16T14:36:59.415-04:00"}, {"id": 771, "title": "FindCheap", "devlogs_count": 1, "created_at": "2025-06-17T07:53:15.635-04:00"}], "coding_time_seconds": 421912, "coding_time_seconds_today": 0, "balance": "You need to have a pocket watcher badge to view this.", "badges": [{"name": "Maiden Voyage", "text": "you shipped your first project! the journey begins...", "icon": "\ud83d\udea2"}], "created_at": "2025-06-16T14:07:15.123-04:00", "updated_at": "2025-09-10T22:52:04.853-04:00", "avatar": "https://avatars.slack-edge.com/2025-06-17/9062256318946_f5a3da5b79f57f205fbf_original.jpg", "custom_css": null}, {"id": 1849, "slack_id": "U0666VATMT5", "display_name": "Saif Abdelrazek", "bio": "\r\nJust love Coding and Hackclub\r\nLook at my website:\r\nhttps://saifabdelrazek.com", "projects_count": 7, "devlogs_count": 48, "votes_count": 76, "ships_count": 5, "projects": [{"id": 4278, "title": "TechLogs", "devlogs_count": 7, "created_at": "2025-06-28T16:25:45.907-04:00"}, {"id": 5422, "title": "SaifURLs-bot", "devlogs_count": 6, "created_at": "2025-07-05T07:17:22.387-04:00"}, {"id": 12895, "title": "Secret Share", "devlogs_count": 1, "created_at": "2025-09-04T15:10:33.834-04:00"}, {"id": 3761, "title": "Site", "devlogs_count": 14, "created_at": "2025-06-25T16:12:23.061-04:00"}, {"id": 379, "title": "SaifURLs", "devlogs_count": 7, "created_at": "2025-06-16T19:42:53.317-04:00"}, {"id": 1229, "title": "SaifMARKs", "devlogs_count": 12, "created_at": "2025-06-18T00:23:19.720-04:00"}, {"id": 7066, "title": "SaifBOOKS", "devlogs_count": 1, "created_at": "2025-07-18T17:11:32.946-04:00"}], "coding_time_seconds": 1222997, "coding_time_seconds_today": 0, "balance": "You need to have a pocket watcher badge to view this.", "badges": [{"name": "Maiden Voyage", "text": "you shipped your first project! the journey begins...", "icon": "\ud83d\udea2"}, {"name": "Spider", "text": "this user has a pet!", "icon": "\ud83d\udd77\ufe0f"}], "created_at": "2025-06-16T14:07:16.461-04:00", "updated_at": "2025-09-10T22:52:04.881-04:00", "avatar": "https://avatars.slack-edge.com/2025-04-04/8718809197329_286f155c27b6ce1c9cb2_original.jpg", "custom_css": null}, {"id": 1850, "slack_id": "U091H0EEKHU", "display_name": "Jaxon", "bio": null, "projects_count": 1, "devlogs_count": 15, "votes_count": 13, "ships_count": 1, "projects": [{"id": 1175, "title": "LifeLog - Automatic Life Tracking", "devlogs_count": 15, "created_at": "2025-06-17T20:29:41.753-04:00"}], "coding_time_seconds": 292286, "coding_time_seconds_today": 0, "balance": "You need to have a pocket watcher badge to view this.", "badges": [{"name": "Maiden Voyage", "text": "you shipped your first project! the journey begins...", "icon": "\ud83d\udea2"}], "created_at": "2025-06-16T14:07:21.013-04:00", "updated_at": "2025-09-10T22:52:04.918-04:00", "avatar": "https://avatars.slack-edge.com/2025-06-23/9091072720277_a20312b90d50c18694bc_original.png", "custom_css": null}, {"id": 1851, "slack_id": "U0918G43KL7", "display_name": "PS", "bio": null, "projects_count": 0, "devlogs_count": 0, "votes_count": 0, "ships_count": 0, "projects": [], "coding_time_seconds": 0, "coding_time_seconds_today": 0, "balance": "You need to have a pocket watcher badge to view this.", "badges": [], "created_at": "2025-06-16T14:07:39.058-04:00", "updated_at": "2025-07-03T19:19:31.160-04:00", "avatar": "https://secure.gravatar.com/avatar/cf05a802b554c7a94a4c5d88ae9d8c74.jpg?s=512&d=https%3A%2F%2Fa.slack-edge.com%2Fdf10d%2Fimg%2Favatars%2Fava_0025-512.png", "custom_css": null}, {"id": 1852, "slack_id": "U0915SEM0KA", "display_name": "Axel", "bio": null, "projects_count": 0, "devlogs_count": 0, "votes_count": 3, "ships_count": 0, "projects": [], "coding_time_seconds": 321370, "coding_time_seconds_today": 0, "balance": "You need to have a pocket watcher badge to view this.", "badges": [], "created_at": "2025-06-16T14:07:41.119-04:00", "updated_at": "2025-08-26T20:05:26.265-04:00", "avatar": "https://avatars.slack-edge.com/2025-08-26/9413508070306_606def3a0618c89aabc7_original.jpg", "custom_css": null}, {"id": 1853, "slack_id": "U091MVCMWGM", "display_name": "Gurpreet Singh", "bio": null, "projects_count": 0, "devlogs_count": 0, "votes_count": 0, "ships_count": 0, "projects": [], "coding_time_seconds": 0, "coding_time_seconds_today": 0, "balance": "You need to have a pocket watcher badge to view this.", "badges": [], "created_at": "2025-06-16T14:07:58.930-04:00", "updated_at": "2025-07-03T19:19:31.703-04:00", "avatar": "https://secure.gravatar.com/avatar/99df42610a4d86d19bb3320cee065872.jpg?s=512&d=https%3A%2F%2Fa.slack-edge.com%2Fdf10d%2Fimg%2Favatars%2Fava_0013-512.png", "custom_css": null}, {"id": 1854, "slack_id": "U08RS94JH1N", "display_name": "Hasbiy", "bio": null, "projects_count": 0, "devlogs_count": 3, "votes_count": 0, "ships_count": 0, "projects": [], "coding_time_seconds": 506697, "coding_time_seconds_today": 0, "balance": "You need to have a pocket watcher badge to view this.", "badges": [], "created_at": "2025-06-16T14:08:03.917-04:00", "updated_at": "2025-09-02T22:10:32.997-04:00", "avatar": "https://avatars.slack-edge.com/2025-09-01/9446275727524_57a11208a5671756079b_original.jpg", "custom_css": null}, {"id": 1855, "slack_id": "U092C9779UG", "display_name": "Tomo Sasaki", "bio": null, "projects_count": 0, "devlogs_count": 0, "votes_count": 0, "ships_count": 0, "projects": [], "coding_time_seconds": 243782, "coding_time_seconds_today": 0, "balance": "You need to have a pocket watcher badge to view this.", "badges": [], "created_at": "2025-06-16T14:08:04.148-04:00", "updated_at": "2025-07-03T19:19:32.258-04:00", "avatar": "https://secure.gravatar.com/avatar/a37c5ff85c947b362ef5f94cc80f87a5.jpg?s=512&d=https%3A%2F%2Fa.slack-edge.com%2Fdf10d%2Fimg%2Favatars%2Fava_0000-512.png", "custom_css": null}, {"id": 1856, "slack_id": "U0918GTGYGP", "display_name": "Halil", "bio": null, "projects_count": 0, "devlogs_count": 0, "votes_count": 0, "ships_count": 0, "projects": [], "coding_time_seconds": 0, "coding_time_seconds_today": 0, "balance": "You need to have a pocket watcher badge to view this.", "badges": [], "created_at": "2025-06-16T14:08:14.884-04:00", "updated_at": "2025-07-03T19:19:32.540-04:00", "avatar": "https://secure.gravatar.com/avatar/ed5168c03dd1f331cd79fa18a1e3a2fa.jpg?s=512&d=https%3A%2F%2Fa.slack-edge.com%2Fdf10d%2Fimg%2Favatars%2Fava_0009-512.png", "custom_css": null}, {"id": 1857, "slack_id": "U091N30BZJ9", "display_name": "Asli", "bio": null, "projects_count": 0, "devlogs_count": 0, "votes_count": 0, "ships_count": 0, "projects": [], "coding_time_seconds": 0, "coding_time_seconds_today": 0, "balance": "You need to have a pocket watcher badge to view this.", "badges": [], "created_at": "2025-06-16T14:08:19.088-04:00", "updated_at": "2025-07-03T19:19:32.810-04:00", "avatar": "https://secure.gravatar.com/avatar/d3e9a2529fadb384b839d9b48a967581.jpg?s=512&d=https%3A%2F%2Fa.slack-edge.com%2Fdf10d%2Fimg%2Favatars%2Fava_0002-512.png", "custom_css": null}, {"id": 1858, "slack_id": "U091N34G3GD", "display_name": "Abdullokh Tulkinov", "bio": null, "projects_count": 0, "devlogs_count": 0, "votes_count": 0, "ships_count": 0, "projects": [], "coding_time_seconds": 498, "coding_time_seconds_today": 0, "balance": "You need to have a pocket watcher badge to view this.", "badges": [], "created_at": "2025-06-16T14:08:34.246-04:00", "updated_at": "2025-07-03T19:19:33.082-04:00", "avatar": "https://avatars.slack-edge.com/2025-06-16/9058292409684_644975e0c99f373bba96_original.jpg", "custom_css": null}, {"id": 1859, "slack_id": "U091Q83V7M2", "display_name": "Abhiram2k03", "bio": null, "projects_count": 0, "devlogs_count": 0, "votes_count": 0, "ships_count": 0, "projects": [], "coding_time_seconds": 327176, "coding_time_seconds_today": 240, "balance": "You need to have a pocket watcher badge to view this.", "badges": [], "created_at": "2025-06-16T14:08:48.382-04:00", "updated_at": "2025-07-03T19:19:33.361-04:00", "avatar": "https://secure.gravatar.com/avatar/4a416e5a3d0b64347a1ff37cbca6b8b1.jpg?s=512&d=https%3A%2F%2Fa.slack-edge.com%2Fdf10d%2Fimg%2Favatars%2Fava_0008-512.png", "custom_css": null}, {"id": 1860, "slack_id": "U092CA7SS00", "display_name": "jay", "bio": null, "projects_count": 0, "devlogs_count": 0, "votes_count": 0, "ships_count": 0, "projects": [], "coding_time_seconds": 0, "coding_time_seconds_today": 0, "balance": "You need to have a pocket watcher badge to view this.", "badges": [], "created_at": "2025-06-16T14:09:11.464-04:00", "updated_at": "2025-07-03T19:19:33.632-04:00", "avatar": "https://secure.gravatar.com/avatar/8ac6027fd82147baa3f0759499146aa1.jpg?s=512&d=https%3A%2F%2Fa.slack-edge.com%2Fdf10d%2Fimg%2Favatars%2Fava_0019-512.png", "custom_css": null}], "pagination": {"page": 93, "pages": 1192, "count": 23828, "items": 20}}