{"users": [{"id": 18666, "slack_id": "U097R688HH6", "display_name": "Mohsin", "bio": null, "projects_count": 0, "devlogs_count": 0, "votes_count": 0, "ships_count": 0, "projects": [], "coding_time_seconds": 0, "coding_time_seconds_today": 0, "balance": "You need to have a pocket watcher badge to view this.", "badges": [], "created_at": "2025-07-23T13:41:58.659-04:00", "updated_at": "2025-07-23T21:41:34.319-04:00", "avatar": "https://secure.gravatar.com/avatar/96eb886f19eca7de02587e1954dfacac.jpg?s=512&d=https%3A%2F%2Fa.slack-edge.com%2Fdf10d%2Fimg%2Favatars%2Fava_0009-512.png", "custom_css": null}, {"id": 18667, "slack_id": "U0970KC6SAF", "display_name": "Marwan Hany Abd elhakim", "bio": null, "projects_count": 0, "devlogs_count": 0, "votes_count": 0, "ships_count": 0, "projects": [], "coding_time_seconds": 4780, "coding_time_seconds_today": 0, "balance": "You need to have a pocket watcher badge to view this.", "badges": [], "created_at": "2025-07-23T13:44:41.583-04:00", "updated_at": "2025-07-23T21:41:38.438-04:00", "avatar": "https://avatars.slack-edge.com/2025-07-23/9241003506582_91e3862a07b06afe789d_original.jpg", "custom_css": null}, {"id": 18668, "slack_id": "U097U4S4WV6", "display_name": "Zakary", "bio": null, "projects_count": 1, "devlogs_count": 11, "votes_count": 1, "ships_count": 1, "projects": [{"id": 10261, "title": "Terrorism", "devlogs_count": 11, "created_at": "2025-08-05T12:11:08.700-04:00"}], "coding_time_seconds": 198143, "coding_time_seconds_today": 0, "balance": "You need to have a pocket watcher badge to view this.", "badges": [], "created_at": "2025-07-23T13:45:39.365-04:00", "updated_at": "2025-08-06T19:09:18.801-04:00", "avatar": "https://secure.gravatar.com/avatar/0df65addd37c3731dd61418da1dc1d00.jpg?s=512&d=https%3A%2F%2Fa.slack-edge.com%2Fdf10d%2Fimg%2Favatars%2Fava_0024-512.png", "custom_css": null}, {"id": 18669, "slack_id": "U0975TY1HB4", "display_name": "Abdul", "bio": null, "projects_count": 0, "devlogs_count": 0, "votes_count": 0, "ships_count": 0, "projects": [], "coding_time_seconds": 0, "coding_time_seconds_today": 0, "balance": "You need to have a pocket watcher badge to view this.", "badges": [], "created_at": "2025-07-23T13:49:43.986-04:00", "updated_at": "2025-07-23T21:41:38.627-04:00", "avatar": "https://secure.gravatar.com/avatar/e05488a7863149df9dc0c25bb48f9f01.jpg?s=512&d=https%3A%2F%2Fa.slack-edge.com%2Fdf10d%2Fimg%2Favatars%2Fava_0024-512.png", "custom_css": null}, {"id": 18670, "slack_id": "U096SUAV3HT", "display_name": "Abhiroop Kar", "bio": null, "projects_count": 0, "devlogs_count": 0, "votes_count": 0, "ships_count": 0, "projects": [], "coding_time_seconds": 0, "coding_time_seconds_today": 0, "balance": "You need to have a pocket watcher badge to view this.", "badges": [], "created_at": "2025-07-23T13:50:33.593-04:00", "updated_at": "2025-07-23T21:41:38.728-04:00", "avatar": "https://secure.gravatar.com/avatar/a0356fc2b2385b4e91812a9e5b996641.jpg?s=512&d=https%3A%2F%2Fa.slack-edge.com%2Fdf10d%2Fimg%2Favatars%2Fava_0001-512.png", "custom_css": null}, {"id": 18671, "slack_id": "U096QNQVANB", "display_name": "Rushikesh Atole", "bio": null, "projects_count": 0, "devlogs_count": 0, "votes_count": 0, "ships_count": 0, "projects": [], "coding_time_seconds": 0, "coding_time_seconds_today": 0, "balance": "You need to have a pocket watcher badge to view this.", "badges": [], "created_at": "2025-07-23T13:51:14.876-04:00", "updated_at": "2025-07-24T00:30:01.188-04:00", "avatar": "https://avatars.slack-edge.com/2025-07-23/9241039549350_5e82f5591acd7f9b7bac_original.jpg", "custom_css": null}, {"id": 18672, "slack_id": "U09730G56Q6", "display_name": "SSj", "bio": null, "projects_count": 0, "devlogs_count": 0, "votes_count": 0, "ships_count": 0, "projects": [], "coding_time_seconds": 0, "coding_time_seconds_today": 0, "balance": "You need to have a pocket watcher badge to view this.", "badges": [], "created_at": "2025-07-23T13:51:34.138-04:00", "updated_at": "2025-07-23T21:41:38.926-04:00", "avatar": "https://secure.gravatar.com/avatar/20c84b22eaa052a79a4ae58fcffe0e70.jpg?s=512&d=https%3A%2F%2Fa.slack-edge.com%2Fdf10d%2Fimg%2Favatars%2Fava_0026-512.png", "custom_css": null}, {"id": 18673, "slack_id": "U09745D2269", "display_name": "Talh", "bio": null, "projects_count": 0, "devlogs_count": 0, "votes_count": 0, "ships_count": 0, "projects": [], "coding_time_seconds": 0, "coding_time_seconds_today": 0, "balance": "You need to have a pocket watcher badge to view this.", "badges": [], "created_at": "2025-07-23T13:53:31.062-04:00", "updated_at": "2025-07-23T21:41:39.014-04:00", "avatar": "https://secure.gravatar.com/avatar/0280eab21874958ec0be6b06163321d8.jpg?s=512&d=https%3A%2F%2Fa.slack-edge.com%2Fdf10d%2Fimg%2Favatars%2Fava_0013-512.png", "custom_css": null}, {"id": 18674, "slack_id": "U097725BJ4U", "display_name": "Asmit", "bio": null, "projects_count": 0, "devlogs_count": 0, "votes_count": 0, "ships_count": 0, "projects": [], "coding_time_seconds": 0, "coding_time_seconds_today": 0, "balance": "You need to have a pocket watcher badge to view this.", "badges": [], "created_at": "2025-07-23T13:53:33.249-04:00", "updated_at": "2025-07-23T21:41:39.112-04:00", "avatar": "https://avatars.slack-edge.com/2025-07-23/9257209360097_78dc8d6d55ba2b35b8da_original.jpg", "custom_css": null}, {"id": 18675, "slack_id": "U096V1FNN1Y", "display_name": "Akhilesh Singh", "bio": null, "projects_count": 0, "devlogs_count": 0, "votes_count": 0, "ships_count": 0, "projects": [], "coding_time_seconds": 0, "coding_time_seconds_today": 0, "balance": "You need to have a pocket watcher badge to view this.", "badges": [], "created_at": "2025-07-23T13:55:22.469-04:00", "updated_at": "2025-07-23T21:41:39.224-04:00", "avatar": "https://secure.gravatar.com/avatar/097e772edcfcc52a7b98774c1c8b3071.jpg?s=512&d=https%3A%2F%2Fa.slack-edge.com%2Fdf10d%2Fimg%2Favatars%2Fava_0026-512.png", "custom_css": null}, {"id": 18676, "slack_id": "U096U4F6A74", "display_name": "Sirmed Mahmood Ali", "bio": null, "projects_count": 1, "devlogs_count": 1, "votes_count": 0, "ships_count": 0, "projects": [{"id": 7905, "title": "Next Papers", "devlogs_count": 1, "created_at": "2025-07-23T14:08:39.650-04:00"}], "coding_time_seconds": 257827, "coding_time_seconds_today": 1630, "balance": "You need to have a pocket watcher badge to view this.", "badges": [], "created_at": "2025-07-23T13:56:07.602-04:00", "updated_at": "2025-07-25T00:09:41.009-04:00", "avatar": "https://secure.gravatar.com/avatar/b0b022141c734aabca1975cbe8c39d5e.jpg?s=512&d=https%3A%2F%2Fa.slack-edge.com%2Fdf10d%2Fimg%2Favatars%2Fava_0024-512.png", "custom_css": null}, {"id": 18677, "slack_id": "U0976T2Q0TE", "display_name": "saim", "bio": null, "projects_count": 0, "devlogs_count": 0, "votes_count": 0, "ships_count": 0, "projects": [], "coding_time_seconds": 0, "coding_time_seconds_today": 0, "balance": "You need to have a pocket watcher badge to view this.", "badges": [], "created_at": "2025-07-23T13:57:26.820-04:00", "updated_at": "2025-07-23T21:41:39.432-04:00", "avatar": "https://secure.gravatar.com/avatar/f4590a59f9a53cd652ce04feef83b1dd.jpg?s=512&d=https%3A%2F%2Fa.slack-edge.com%2Fdf10d%2Fimg%2Favatars%2Fava_0020-512.png", "custom_css": null}, {"id": 18678, "slack_id": "U097GPQL1AM", "display_name": "Ariane", "bio": null, "projects_count": 0, "devlogs_count": 0, "votes_count": 0, "ships_count": 0, "projects": [], "coding_time_seconds": 0, "coding_time_seconds_today": 0, "balance": "You need to have a pocket watcher badge to view this.", "badges": [], "created_at": "2025-07-23T13:59:40.780-04:00", "updated_at": "2025-07-23T21:41:39.515-04:00", "avatar": "https://secure.gravatar.com/avatar/53e4eb10e10b8d0e5877e393d6cdaab4.jpg?s=512&d=https%3A%2F%2Fa.slack-edge.com%2Fdf10d%2Fimg%2Favatars%2Fava_0016-512.png", "custom_css": null}, {"id": 18679, "slack_id": "U096WB91H1C", "display_name": "Ashir Kulshreshtha", "bio": null, "projects_count": 0, "devlogs_count": 0, "votes_count": 0, "ships_count": 0, "projects": [], "coding_time_seconds": 0, "coding_time_seconds_today": 0, "balance": "You need to have a pocket watcher badge to view this.", "badges": [], "created_at": "2025-07-23T14:02:40.420-04:00", "updated_at": "2025-07-23T21:41:39.630-04:00", "avatar": "https://avatars.slack-edge.com/2025-07-23/9245153777476_62efedbfbe3ad188791b_original.jpg", "custom_css": null}, {"id": 18680, "slack_id": "U09747C6XN1", "display_name": "Syed Hassan Tahir", "bio": null, "projects_count": 0, "devlogs_count": 0, "votes_count": 0, "ships_count": 0, "projects": [], "coding_time_seconds": 0, "coding_time_seconds_today": 0, "balance": "You need to have a pocket watcher badge to view this.", "badges": [], "created_at": "2025-07-23T14:02:43.510-04:00", "updated_at": "2025-07-23T21:41:39.728-04:00", "avatar": "https://secure.gravatar.com/avatar/d7fc16bc0fa5e635621e301f1d7c9111.jpg?s=512&d=https%3A%2F%2Fa.slack-edge.com%2Fdf10d%2Fimg%2Favatars%2Fava_0012-512.png", "custom_css": null}, {"id": 18681, "slack_id": "U09747X6WTX", "display_name": "Dwaipayan Nandi", "bio": null, "projects_count": 0, "devlogs_count": 0, "votes_count": 0, "ships_count": 0, "projects": [], "coding_time_seconds": 0, "coding_time_seconds_today": 0, "balance": "You need to have a pocket watcher badge to view this.", "badges": [], "created_at": "2025-07-23T14:03:17.144-04:00", "updated_at": "2025-07-23T21:41:39.821-04:00", "avatar": "https://avatars.slack-edge.com/2025-07-23/9266287630896_1c03ae65bfc5b180bd64_original.jpg", "custom_css": null}, {"id": 18682, "slack_id": "U09774C26LU", "display_name": "Manbhav Vohra", "bio": null, "projects_count": 0, "devlogs_count": 0, "votes_count": 0, "ships_count": 0, "projects": [], "coding_time_seconds": 0, "coding_time_seconds_today": 0, "balance": "You need to have a pocket watcher badge to view this.", "badges": [], "created_at": "2025-07-23T14:04:04.235-04:00", "updated_at": "2025-07-23T21:41:39.919-04:00", "avatar": "https://avatars.slack-edge.com/2025-07-23/9257265934785_e76d0f09810b14f499bd_original.png", "custom_css": null}, {"id": 18683, "slack_id": "U09774P927N", "display_name": "Tarun Kumar Maharana", "bio": null, "projects_count": 1, "devlogs_count": 0, "votes_count": 0, "ships_count": 0, "projects": [{"id": 7911, "title": "Portfolio", "devlogs_count": 0, "created_at": "2025-07-23T14:53:44.043-04:00"}], "coding_time_seconds": 10798, "coding_time_seconds_today": 0, "balance": "You need to have a pocket watcher badge to view this.", "badges": [], "created_at": "2025-07-23T14:06:28.589-04:00", "updated_at": "2025-07-24T10:34:15.684-04:00", "avatar": "https://avatars.slack-edge.com/2025-07-24/9247228592069_51ac293216aaae05d05f_original.png", "custom_css": null}, {"id": 18684, "slack_id": "U097K7SM1PB", "display_name": "Muhammad Junaid Bilal", "bio": null, "projects_count": 0, "devlogs_count": 0, "votes_count": 0, "ships_count": 0, "projects": [], "coding_time_seconds": 0, "coding_time_seconds_today": 0, "balance": "You need to have a pocket watcher badge to view this.", "badges": [], "created_at": "2025-07-23T14:06:54.354-04:00", "updated_at": "2025-07-23T21:41:40.156-04:00", "avatar": "https://secure.gravatar.com/avatar/31cb7f6d1c4d81355acea271177a9d6f.jpg?s=512&d=https%3A%2F%2Fa.slack-edge.com%2Fdf10d%2Fimg%2Favatars%2Fava_0023-512.png", "custom_css": null}, {"id": 18685, "slack_id": "U09749F0H4M", "display_name": "Oscar Eduardo Montalvo", "bio": null, "projects_count": 0, "devlogs_count": 0, "votes_count": 0, "ships_count": 0, "projects": [], "coding_time_seconds": 0, "coding_time_seconds_today": 0, "balance": "You need to have a pocket watcher badge to view this.", "badges": [], "created_at": "2025-07-23T14:12:14.675-04:00", "updated_at": "2025-07-24T08:16:19.549-04:00", "avatar": "https://secure.gravatar.com/avatar/fc713736a498d749c2880ff5da47cd18.jpg?s=512&d=https%3A%2F%2Fa.slack-edge.com%2Fdf10d%2Fimg%2Favatars%2Fava_0012-512.png", "custom_css": null}], "pagination": {"page": 930, "pages": 1192, "count": 23828, "items": 20}}