{"users": [{"id": 18686, "slack_id": "U0970QE8BKM", "display_name": "Chamika Gayashan", "bio": null, "projects_count": 0, "devlogs_count": 0, "votes_count": 0, "ships_count": 0, "projects": [], "coding_time_seconds": 130, "coding_time_seconds_today": 0, "balance": "You need to have a pocket watcher badge to view this.", "badges": [], "created_at": "2025-07-23T14:16:03.935-04:00", "updated_at": "2025-07-23T21:41:40.346-04:00", "avatar": "https://secure.gravatar.com/avatar/90d56e1596395d78a4d0a186e9d1e247.jpg?s=512&d=https%3A%2F%2Fa.slack-edge.com%2Fdf10d%2Fimg%2Favatars%2Fava_0005-512.png", "custom_css": null}, {"id": 18687, "slack_id": "U0970R16ZFD", "display_name": "Saad", "bio": null, "projects_count": 0, "devlogs_count": 0, "votes_count": 0, "ships_count": 0, "projects": [], "coding_time_seconds": 0, "coding_time_seconds_today": 0, "balance": "You need to have a pocket watcher badge to view this.", "badges": [], "created_at": "2025-07-23T14:18:45.632-04:00", "updated_at": "2025-07-23T21:41:40.441-04:00", "avatar": "https://secure.gravatar.com/avatar/7592246421d41a82349d123349c0eb68.jpg?s=512&d=https%3A%2F%2Fa.slack-edge.com%2Fdf10d%2Fimg%2Favatars%2Fava_0004-512.png", "custom_css": null}, {"id": 18688, "slack_id": "U096CPGG15M", "display_name": "William Theodorus", "bio": null, "projects_count": 0, "devlogs_count": 0, "votes_count": 0, "ships_count": 0, "projects": [], "coding_time_seconds": 0, "coding_time_seconds_today": 0, "balance": "You need to have a pocket watcher badge to view this.", "badges": [], "created_at": "2025-07-23T14:19:33.639-04:00", "updated_at": "2025-07-23T21:41:40.573-04:00", "avatar": "https://secure.gravatar.com/avatar/ad0fb186e7b6a9ac9b9f3edde1e0b8a2.jpg?s=512&d=https%3A%2F%2Fa.slack-edge.com%2Fdf10d%2Fimg%2Favatars%2Fava_0007-512.png", "custom_css": null}, {"id": 18689, "slack_id": "U0974AJF1N1", "display_name": "Lopez M", "bio": null, "projects_count": 0, "devlogs_count": 0, "votes_count": 0, "ships_count": 0, "projects": [], "coding_time_seconds": 0, "coding_time_seconds_today": 0, "balance": "You need to have a pocket watcher badge to view this.", "badges": [], "created_at": "2025-07-23T14:21:58.149-04:00", "updated_at": "2025-07-26T00:53:07.496-04:00", "avatar": "https://avatars.slack-edge.com/2025-07-25/9278058534640_298e648673e6b951e58c_original.jpg", "custom_css": null}, {"id": 18690, "slack_id": "U097U9CB0HE", "display_name": "Himanshu JOSHI 297", "bio": null, "projects_count": 0, "devlogs_count": 0, "votes_count": 0, "ships_count": 0, "projects": [], "coding_time_seconds": 0, "coding_time_seconds_today": 0, "balance": "You need to have a pocket watcher badge to view this.", "badges": [], "created_at": "2025-07-23T14:27:16.959-04:00", "updated_at": "2025-07-23T21:41:40.745-04:00", "avatar": "https://avatars.slack-edge.com/2025-07-23/9257388343473_461bf66a40fef6fcd650_original.png", "custom_css": null}, {"id": 18691, "slack_id": "U097781QUMA", "display_name": "Realz", "bio": null, "projects_count": 1, "devlogs_count": 2, "votes_count": 0, "ships_count": 0, "projects": [{"id": 7926, "title": "Explore", "devlogs_count": 2, "created_at": "2025-07-23T16:54:23.677-04:00"}], "coding_time_seconds": 81099, "coding_time_seconds_today": 0, "balance": "You need to have a pocket watcher badge to view this.", "badges": [], "created_at": "2025-07-23T14:28:09.970-04:00", "updated_at": "2025-07-23T21:41:40.831-04:00", "avatar": "https://secure.gravatar.com/avatar/c128c040267a27eb34ca38c60321d164.jpg?s=512&d=https%3A%2F%2Fa.slack-edge.com%2Fdf10d%2Fimg%2Favatars%2Fava_0002-512.png", "custom_css": null}, {"id": 18692, "slack_id": "U09736LJGTY", "display_name": "Deekshith", "bio": null, "projects_count": 0, "devlogs_count": 0, "votes_count": 0, "ships_count": 0, "projects": [], "coding_time_seconds": 0, "coding_time_seconds_today": 0, "balance": "You need to have a pocket watcher badge to view this.", "badges": [], "created_at": "2025-07-23T14:28:23.536-04:00", "updated_at": "2025-07-23T21:41:40.929-04:00", "avatar": "https://secure.gravatar.com/avatar/c2ac33890f9504c2f29a7a553a2cda94.jpg?s=512&d=https%3A%2F%2Fa.slack-edge.com%2Fdf10d%2Fimg%2Favatars%2Fava_0012-512.png", "custom_css": null}, {"id": 18693, "slack_id": "U0970SS36RH", "display_name": "peme969", "bio": "Hi!", "projects_count": 3, "devlogs_count": 3, "votes_count": 32, "ships_count": 2, "projects": [{"id": 10785, "title": "Avatar Editor", "devlogs_count": 0, "created_at": "2025-08-10T19:26:15.976-04:00"}, {"id": 11010, "title": "Hypria! - A noice Dashboard (hyprland simulator)", "devlogs_count": 2, "created_at": "2025-08-12T11:09:41.279-04:00"}, {"id": 10908, "title": "Linky!  - A noice url-shortener", "devlogs_count": 1, "created_at": "2025-08-11T17:43:29.343-04:00"}], "coding_time_seconds": 34855, "coding_time_seconds_today": 0, "balance": "You need to have a pocket watcher badge to view this.", "badges": [], "created_at": "2025-07-23T14:28:41.901-04:00", "updated_at": "2025-08-28T13:45:23.876-04:00", "avatar": "https://avatars.slack-edge.com/2025-08-10/9335492436660_6d646ab7c186bc07a1f6_original.png", "custom_css": null}, {"id": 18694, "slack_id": "U096WS9QAD8", "display_name": "Alexsandr", "bio": null, "projects_count": 0, "devlogs_count": 0, "votes_count": 0, "ships_count": 0, "projects": [], "coding_time_seconds": 0, "coding_time_seconds_today": 0, "balance": "You need to have a pocket watcher badge to view this.", "badges": [], "created_at": "2025-07-23T14:29:57.196-04:00", "updated_at": "2025-07-23T21:41:41.124-04:00", "avatar": "https://secure.gravatar.com/avatar/7fd6e7cb6d55e4823c5fe542190f5601.jpg?s=512&d=https%3A%2F%2Fa.slack-edge.com%2Fdf10d%2Fimg%2Favatars%2Fava_0007-512.png", "custom_css": null}, {"id": 18695, "slack_id": "U08RAUBG10X", "display_name": "Axwabo", "bio": null, "projects_count": 2, "devlogs_count": 38, "votes_count": 18, "ships_count": 1, "projects": [{"id": 8793, "title": "Botanic Code", "devlogs_count": 28, "created_at": "2025-07-29T09:43:38.374-04:00"}, {"id": 11570, "title": "K.A.T.I.E.", "devlogs_count": 10, "created_at": "2025-08-17T06:06:45.378-04:00"}], "coding_time_seconds": 356523, "coding_time_seconds_today": 0, "balance": "You need to have a pocket watcher badge to view this.", "badges": [], "created_at": "2025-07-23T14:32:33.283-04:00", "updated_at": "2025-09-03T12:53:06.296-04:00", "avatar": "https://avatars.slack-edge.com/2025-05-09/8887365474721_9f08e6b79fd13a75cacd_original.png", "custom_css": null}, {"id": 18696, "slack_id": "U09766WL266", "display_name": "aroosha fatima", "bio": null, "projects_count": 0, "devlogs_count": 0, "votes_count": 0, "ships_count": 0, "projects": [], "coding_time_seconds": 0, "coding_time_seconds_today": 0, "balance": "You need to have a pocket watcher badge to view this.", "badges": [], "created_at": "2025-07-23T14:40:07.211-04:00", "updated_at": "2025-07-23T21:41:41.288-04:00", "avatar": "https://secure.gravatar.com/avatar/9469ed2e8ef589a6fbbefbb851ebb33c.jpg?s=512&d=https%3A%2F%2Fa.slack-edge.com%2Fdf10d%2Fimg%2Favatars%2Fava_0001-512.png", "custom_css": null}, {"id": 18697, "slack_id": "U09779TAERJ", "display_name": "Ulisses Alves", "bio": null, "projects_count": 0, "devlogs_count": 0, "votes_count": 0, "ships_count": 0, "projects": [], "coding_time_seconds": 0, "coding_time_seconds_today": 0, "balance": "You need to have a pocket watcher badge to view this.", "badges": [], "created_at": "2025-07-23T14:41:55.458-04:00", "updated_at": "2025-07-23T21:41:41.379-04:00", "avatar": "https://secure.gravatar.com/avatar/28f083e6f7bdd9d6263bbfc287d8a528.jpg?s=512&d=https%3A%2F%2Fa.slack-edge.com%2Fdf10d%2Fimg%2Favatars%2Fava_0007-512.png", "custom_css": null}, {"id": 18698, "slack_id": "U09767K5XR8", "display_name": "Hikolakita", "bio": null, "projects_count": 0, "devlogs_count": 0, "votes_count": 0, "ships_count": 0, "projects": [], "coding_time_seconds": 0, "coding_time_seconds_today": 0, "balance": "You need to have a pocket watcher badge to view this.", "badges": [], "created_at": "2025-07-23T14:43:41.438-04:00", "updated_at": "2025-07-23T21:41:41.481-04:00", "avatar": "https://avatars.slack-edge.com/2025-07-23/9242513900789_7a9fb4027ef7ccdcf2f2_original.png", "custom_css": null}, {"id": 18699, "slack_id": "U0970UPJJN7", "display_name": "Aneeq Ibtesam", "bio": null, "projects_count": 0, "devlogs_count": 0, "votes_count": 0, "ships_count": 0, "projects": [], "coding_time_seconds": 0, "coding_time_seconds_today": 0, "balance": "You need to have a pocket watcher badge to view this.", "badges": [], "created_at": "2025-07-23T14:44:06.969-04:00", "updated_at": "2025-07-23T21:41:41.568-04:00", "avatar": "https://secure.gravatar.com/avatar/668c65a70c8b69bcd914064ec9f69875.jpg?s=512&d=https%3A%2F%2Fa.slack-edge.com%2Fdf10d%2Fimg%2Favatars%2Fava_0008-512.png", "custom_css": null}, {"id": 18700, "slack_id": "U097KDY894H", "display_name": "Usman Tariq", "bio": null, "projects_count": 0, "devlogs_count": 0, "votes_count": 0, "ships_count": 0, "projects": [], "coding_time_seconds": 0, "coding_time_seconds_today": 0, "balance": "You need to have a pocket watcher badge to view this.", "badges": [], "created_at": "2025-07-23T14:46:53.611-04:00", "updated_at": "2025-07-23T21:41:41.657-04:00", "avatar": "https://secure.gravatar.com/avatar/d7c75dda94a86a11c42c65e3e9115596.jpg?s=512&d=https%3A%2F%2Fa.slack-edge.com%2Fdf10d%2Fimg%2Favatars%2Fava_0002-512.png", "custom_css": null}, {"id": 18701, "slack_id": "U0974FD7KAR", "display_name": "Dani", "bio": null, "projects_count": 0, "devlogs_count": 0, "votes_count": 0, "ships_count": 0, "projects": [], "coding_time_seconds": 0, "coding_time_seconds_today": 0, "balance": "You need to have a pocket watcher badge to view this.", "badges": [], "created_at": "2025-07-23T14:49:02.903-04:00", "updated_at": "2025-07-23T21:41:41.736-04:00", "avatar": "https://secure.gravatar.com/avatar/73ada3bd5bd9d9c9f0fd787ab4eb7588.jpg?s=512&d=https%3A%2F%2Fa.slack-edge.com%2Fdf10d%2Fimg%2Favatars%2Fava_0001-512.png", "custom_css": null}, {"id": 18702, "slack_id": "U09710E9G2X", "display_name": "Rafid Farhad", "bio": null, "projects_count": 0, "devlogs_count": 0, "votes_count": 0, "ships_count": 0, "projects": [], "coding_time_seconds": 0, "coding_time_seconds_today": 0, "balance": "You need to have a pocket watcher badge to view this.", "badges": [], "created_at": "2025-07-23T14:52:20.847-04:00", "updated_at": "2025-07-23T21:41:45.869-04:00", "avatar": "https://avatars.slack-edge.com/2025-07-23/9257555607217_c0086c42620a3b589400_original.jpg", "custom_css": null}, {"id": 18703, "slack_id": "U097699CXTL", "display_name": "Asad Jamil", "bio": null, "projects_count": 0, "devlogs_count": 0, "votes_count": 2, "ships_count": 0, "projects": [], "coding_time_seconds": 4833, "coding_time_seconds_today": 0, "balance": "You need to have a pocket watcher badge to view this.", "badges": [], "created_at": "2025-07-23T14:56:22.388-04:00", "updated_at": "2025-07-24T01:34:10.718-04:00", "avatar": "https://secure.gravatar.com/avatar/ff3c403bffb36247940a845fbfdf2e43.jpg?s=512&d=https%3A%2F%2Fa.slack-edge.com%2Fdf10d%2Fimg%2Favatars%2Fava_0000-512.png", "custom_css": null}, {"id": 18704, "slack_id": "U096R3HQUSK", "display_name": "Sanchit", "bio": null, "projects_count": 1, "devlogs_count": 0, "votes_count": 0, "ships_count": 0, "projects": [{"id": 10016, "title": "Introduction ", "devlogs_count": 0, "created_at": "2025-08-03T12:59:34.586-04:00"}], "coding_time_seconds": 5232, "coding_time_seconds_today": 0, "balance": "You need to have a pocket watcher badge to view this.", "badges": [], "created_at": "2025-07-23T14:58:23.238-04:00", "updated_at": "2025-08-03T13:02:16.915-04:00", "avatar": "https://secure.gravatar.com/avatar/2231ddf84f339267308a50c3b71d6d48.jpg?s=512&d=https%3A%2F%2Fa.slack-edge.com%2Fdf10d%2Fimg%2Favatars%2Fava_0019-512.png", "custom_css": null}, {"id": 18705, "slack_id": "U092UN3KWDS", "display_name": "Jason", "bio": null, "projects_count": 0, "devlogs_count": 0, "votes_count": 0, "ships_count": 0, "projects": [], "coding_time_seconds": 0, "coding_time_seconds_today": 0, "balance": "You need to have a pocket watcher badge to view this.", "badges": [], "created_at": "2025-07-23T14:58:51.840-04:00", "updated_at": "2025-07-23T21:41:46.118-04:00", "avatar": "https://secure.gravatar.com/avatar/a317cd00999ab3812777a48196e3b485.jpg?s=512&d=https%3A%2F%2Fa.slack-edge.com%2Fdf10d%2Fimg%2Favatars%2Fava_0010-512.png", "custom_css": null}], "pagination": {"page": 931, "pages": 1192, "count": 23828, "items": 20}}