{"users": [{"id": 18706, "slack_id": "U0973B765UN", "display_name": "Faheem Ud Din Zia", "bio": null, "projects_count": 0, "devlogs_count": 0, "votes_count": 0, "ships_count": 0, "projects": [], "coding_time_seconds": 0, "coding_time_seconds_today": 0, "balance": "You need to have a pocket watcher badge to view this.", "badges": [], "created_at": "2025-07-23T15:02:37.870-04:00", "updated_at": "2025-07-23T21:41:46.210-04:00", "avatar": "https://secure.gravatar.com/avatar/08e95ca1304c701dcb3ecc68787f52e3.jpg?s=512&d=https%3A%2F%2Fa.slack-edge.com%2Fdf10d%2Fimg%2Favatars%2Fava_0022-512.png", "custom_css": null}, {"id": 18707, "slack_id": "U097KGVM0DP", "display_name": "Zohaib", "bio": null, "projects_count": 0, "devlogs_count": 0, "votes_count": 0, "ships_count": 0, "projects": [], "coding_time_seconds": 81430, "coding_time_seconds_today": 0, "balance": "You need to have a pocket watcher badge to view this.", "badges": [], "created_at": "2025-07-23T15:03:11.230-04:00", "updated_at": "2025-07-23T21:41:46.292-04:00", "avatar": "https://secure.gravatar.com/avatar/eb491dfed0732feb0f7f63006f63960a.jpg?s=512&d=https%3A%2F%2Fa.slack-edge.com%2Fdf10d%2Fimg%2Favatars%2Fava_0018-512.png", "custom_css": null}, {"id": 18708, "slack_id": "U0973B9PH2A", "display_name": "Kamal Singh", "bio": null, "projects_count": 0, "devlogs_count": 0, "votes_count": 0, "ships_count": 0, "projects": [], "coding_time_seconds": 1552, "coding_time_seconds_today": 0, "balance": "You need to have a pocket watcher badge to view this.", "badges": [], "created_at": "2025-07-23T15:03:24.921-04:00", "updated_at": "2025-07-23T21:41:46.386-04:00", "avatar": "https://secure.gravatar.com/avatar/3548cb389cb2ada637257400bd9452c7.jpg?s=512&d=https%3A%2F%2Fa.slack-edge.com%2Fdf10d%2Fimg%2Favatars%2Fava_0013-512.png", "custom_css": null}, {"id": 18709, "slack_id": "U096DPNLSB1", "display_name": "Mariana Ferreira", "bio": null, "projects_count": 0, "devlogs_count": 0, "votes_count": 0, "ships_count": 0, "projects": [], "coding_time_seconds": 0, "coding_time_seconds_today": 0, "balance": "You need to have a pocket watcher badge to view this.", "badges": [], "created_at": "2025-07-23T15:06:46.151-04:00", "updated_at": "2025-07-23T21:41:46.466-04:00", "avatar": "https://secure.gravatar.com/avatar/bdf08610526ff4be76d5aa9a2ddbee6f.jpg?s=512&d=https%3A%2F%2Fa.slack-edge.com%2Fdf10d%2Fimg%2Favatars%2Fava_0001-512.png", "custom_css": null}, {"id": 18710, "slack_id": "U096UV0PBUM", "display_name": "JDKabangu", "bio": null, "projects_count": 0, "devlogs_count": 0, "votes_count": 0, "ships_count": 0, "projects": [], "coding_time_seconds": 27763, "coding_time_seconds_today": 0, "balance": "You need to have a pocket watcher badge to view this.", "badges": [], "created_at": "2025-07-23T15:08:06.472-04:00", "updated_at": "2025-07-23T21:41:46.559-04:00", "avatar": "https://secure.gravatar.com/avatar/241f459b33ffab7d47ef4962e5306f01.jpg?s=512&d=https%3A%2F%2Fa.slack-edge.com%2Fdf10d%2Fimg%2Favatars%2Fava_0011-512.png", "custom_css": null}, {"id": 18711, "slack_id": "U096R5Q01ST", "display_name": "Renan", "bio": null, "projects_count": 0, "devlogs_count": 0, "votes_count": 0, "ships_count": 0, "projects": [], "coding_time_seconds": 0, "coding_time_seconds_today": 0, "balance": "You need to have a pocket watcher badge to view this.", "badges": [], "created_at": "2025-07-23T15:08:14.998-04:00", "updated_at": "2025-07-23T21:41:46.653-04:00", "avatar": "https://secure.gravatar.com/avatar/aa717f6975041350ce12082a10decdd5.jpg?s=512&d=https%3A%2F%2Fa.slack-edge.com%2Fdf10d%2Fimg%2Favatars%2Fava_0021-512.png", "custom_css": null}, {"id": 18712, "slack_id": "U097KJXGHHP", "display_name": "Leo Nguyen", "bio": null, "projects_count": 0, "devlogs_count": 0, "votes_count": 0, "ships_count": 0, "projects": [], "coding_time_seconds": 0, "coding_time_seconds_today": 0, "balance": "You need to have a pocket watcher badge to view this.", "badges": [], "created_at": "2025-07-23T15:16:09.438-04:00", "updated_at": "2025-07-23T21:41:46.731-04:00", "avatar": "https://secure.gravatar.com/avatar/55383582bd3cce5baef1bddacf8a86eb.jpg?s=512&d=https%3A%2F%2Fa.slack-edge.com%2Fdf10d%2Fimg%2Favatars%2Fava_0001-512.png", "custom_css": null}, {"id": 18713, "slack_id": "U07UEC2RPK8", "display_name": "Dimo", "bio": null, "projects_count": 1, "devlogs_count": 2, "votes_count": 4, "ships_count": 0, "projects": [{"id": 8184, "title": "Students", "devlogs_count": 2, "created_at": "2025-07-25T05:56:11.282-04:00"}], "coding_time_seconds": 122585, "coding_time_seconds_today": 0, "balance": "You need to have a pocket watcher badge to view this.", "badges": [], "created_at": "2025-07-23T15:18:47.829-04:00", "updated_at": "2025-08-07T06:20:03.815-04:00", "avatar": "https://avatars.slack-edge.com/2025-07-23/9243621595714_da01283ebdef11df7ad5_original.jpg", "custom_css": null}, {"id": 18714, "slack_id": "U0974LF1VB7", "display_name": "Bilal Ahsan", "bio": null, "projects_count": 0, "devlogs_count": 0, "votes_count": 0, "ships_count": 0, "projects": [], "coding_time_seconds": 0, "coding_time_seconds_today": 0, "balance": "You need to have a pocket watcher badge to view this.", "badges": [], "created_at": "2025-07-23T15:19:28.707-04:00", "updated_at": "2025-07-23T21:41:46.882-04:00", "avatar": "https://secure.gravatar.com/avatar/e4b2a98469ddddff05195c20261c5350.jpg?s=512&d=https%3A%2F%2Fa.slack-edge.com%2Fdf10d%2Fimg%2Favatars%2Fava_0012-512.png", "custom_css": null}, {"id": 18715, "slack_id": "U097ULARCTA", "display_name": "Vojt\u011bch Mach\u00e1\u010dek", "bio": null, "projects_count": 1, "devlogs_count": 7, "votes_count": 27, "ships_count": 1, "projects": [{"id": 8029, "title": "Drone Shoot Recommender", "devlogs_count": 7, "created_at": "2025-07-24T06:10:26.202-04:00"}], "coding_time_seconds": 66836, "coding_time_seconds_today": 0, "balance": "You need to have a pocket watcher badge to view this.", "badges": [], "created_at": "2025-07-23T15:21:07.851-04:00", "updated_at": "2025-08-12T05:45:30.662-04:00", "avatar": "https://avatars.slack-edge.com/2025-07-24/9231368413255_ac26d10178364c12f1f1_original.png", "custom_css": null}, {"id": 18716, "slack_id": "U096HRM0N4V", "display_name": "WorldWarrior428", "bio": null, "projects_count": 0, "devlogs_count": 0, "votes_count": 0, "ships_count": 0, "projects": [], "coding_time_seconds": 0, "coding_time_seconds_today": 0, "balance": "You need to have a pocket watcher badge to view this.", "badges": [], "created_at": "2025-07-23T15:23:16.290-04:00", "updated_at": "2025-07-23T21:41:51.148-04:00", "avatar": "https://secure.gravatar.com/avatar/b0497271bf56e848c1d1c88c3ef19479.jpg?s=512&d=https%3A%2F%2Fa.slack-edge.com%2Fdf10d%2Fimg%2Favatars%2Fava_0025-512.png", "custom_css": null}, {"id": 18717, "slack_id": "U0974MH027P", "display_name": "rbv", "bio": null, "projects_count": 0, "devlogs_count": 0, "votes_count": 0, "ships_count": 0, "projects": [], "coding_time_seconds": 0, "coding_time_seconds_today": 0, "balance": "You need to have a pocket watcher badge to view this.", "badges": [], "created_at": "2025-07-23T15:26:12.707-04:00", "updated_at": "2025-07-23T21:41:51.233-04:00", "avatar": "https://secure.gravatar.com/avatar/2670c454b22e6341d670442ab0f40633.jpg?s=512&d=https%3A%2F%2Fa.slack-edge.com%2Fdf10d%2Fimg%2Favatars%2Fava_0020-512.png", "custom_css": null}, {"id": 18718, "slack_id": "U096R931FJT", "display_name": "Muhammad", "bio": null, "projects_count": 0, "devlogs_count": 0, "votes_count": 0, "ships_count": 0, "projects": [], "coding_time_seconds": 0, "coding_time_seconds_today": 0, "balance": "You need to have a pocket watcher badge to view this.", "badges": [], "created_at": "2025-07-23T15:32:43.167-04:00", "updated_at": "2025-07-23T21:41:51.323-04:00", "avatar": "https://secure.gravatar.com/avatar/2a74df93afda8e0da0c3dd2249095361.jpg?s=512&d=https%3A%2F%2Fa.slack-edge.com%2Fdf10d%2Fimg%2Favatars%2Fava_0013-512.png", "custom_css": null}, {"id": 18719, "slack_id": "U097UNN2U0G", "display_name": "Ghazi", "bio": null, "projects_count": 0, "devlogs_count": 0, "votes_count": 0, "ships_count": 0, "projects": [], "coding_time_seconds": 15776, "coding_time_seconds_today": 0, "balance": "You need to have a pocket watcher badge to view this.", "badges": [], "created_at": "2025-07-23T15:36:53.338-04:00", "updated_at": "2025-07-23T21:41:51.405-04:00", "avatar": "https://secure.gravatar.com/avatar/aef71defe26cfdef5fb576d16945b507.jpg?s=512&d=https%3A%2F%2Fa.slack-edge.com%2Fdf10d%2Fimg%2Favatars%2Fava_0004-512.png", "custom_css": null}, {"id": 18720, "slack_id": "U0973GN6X5L", "display_name": "MAnas Javed", "bio": null, "projects_count": 0, "devlogs_count": 0, "votes_count": 0, "ships_count": 0, "projects": [], "coding_time_seconds": 14056, "coding_time_seconds_today": 0, "balance": "You need to have a pocket watcher badge to view this.", "badges": [], "created_at": "2025-07-23T15:42:49.939-04:00", "updated_at": "2025-07-23T21:41:51.495-04:00", "avatar": "https://avatars.slack-edge.com/2025-07-23/9229378880039_3aae87323366512764a0_original.jpg", "custom_css": null}, {"id": 18721, "slack_id": "U097UN0BD5W", "display_name": "shaimaa", "bio": null, "projects_count": 0, "devlogs_count": 0, "votes_count": 0, "ships_count": 0, "projects": [], "coding_time_seconds": 0, "coding_time_seconds_today": 0, "balance": "You need to have a pocket watcher badge to view this.", "badges": [], "created_at": "2025-07-23T15:43:07.206-04:00", "updated_at": "2025-07-24T02:45:15.388-04:00", "avatar": "https://secure.gravatar.com/avatar/0ec460474a1d0dc47e27d535b2858f76.jpg?s=512&d=https%3A%2F%2Fa.slack-edge.com%2Fdf10d%2Fimg%2Favatars%2Fava_0020-512.png", "custom_css": null}, {"id": 18722, "slack_id": "U0974QJ8VNZ", "display_name": "Karolina", "bio": null, "projects_count": 0, "devlogs_count": 0, "votes_count": 0, "ships_count": 0, "projects": [], "coding_time_seconds": 0, "coding_time_seconds_today": 0, "balance": "You need to have a pocket watcher badge to view this.", "badges": [], "created_at": "2025-07-23T15:45:05.036-04:00", "updated_at": "2025-07-23T21:41:51.663-04:00", "avatar": "https://secure.gravatar.com/avatar/7bd40f6f4f170c9fdeab020d0ffd00ae.jpg?s=512&d=https%3A%2F%2Fa.slack-edge.com%2Fdf10d%2Fimg%2Favatars%2Fava_0002-512.png", "custom_css": null}, {"id": 18723, "slack_id": "U097KPNUDLZ", "display_name": "Kaitlyn", "bio": null, "projects_count": 0, "devlogs_count": 0, "votes_count": 0, "ships_count": 0, "projects": [], "coding_time_seconds": 0, "coding_time_seconds_today": 0, "balance": "You need to have a pocket watcher badge to view this.", "badges": [], "created_at": "2025-07-23T15:49:04.624-04:00", "updated_at": "2025-07-23T21:41:51.759-04:00", "avatar": "https://secure.gravatar.com/avatar/10115922364800d2aacd9d2c43a52f0c.jpg?s=512&d=https%3A%2F%2Fa.slack-edge.com%2Fdf10d%2Fimg%2Favatars%2Fava_0004-512.png", "custom_css": null}, {"id": 18724, "slack_id": "U097UQWAQ4Q", "display_name": "Berat Ahmetaj", "bio": null, "projects_count": 0, "devlogs_count": 0, "votes_count": 0, "ships_count": 0, "projects": [], "coding_time_seconds": 0, "coding_time_seconds_today": 0, "balance": "You need to have a pocket watcher badge to view this.", "badges": [], "created_at": "2025-07-23T15:50:49.716-04:00", "updated_at": "2025-07-23T21:41:51.935-04:00", "avatar": "https://avatars.slack-edge.com/2025-07-23/9229416756023_18db09dd19fc83d48900_original.jpg", "custom_css": null}, {"id": 18725, "slack_id": "U0971AE0WPM", "display_name": "Niki", "bio": null, "projects_count": 0, "devlogs_count": 0, "votes_count": 0, "ships_count": 0, "projects": [], "coding_time_seconds": 0, "coding_time_seconds_today": 0, "balance": "You need to have a pocket watcher badge to view this.", "badges": [], "created_at": "2025-07-23T15:51:07.984-04:00", "updated_at": "2025-07-23T21:41:56.093-04:00", "avatar": "https://secure.gravatar.com/avatar/47d05e2b9e7a392f09128d17f1f1eafa.jpg?s=512&d=https%3A%2F%2Fa.slack-edge.com%2Fdf10d%2Fimg%2Favatars%2Fava_0023-512.png", "custom_css": null}], "pagination": {"page": 932, "pages": 1192, "count": 23828, "items": 20}}