{"users": [{"id": 18726, "slack_id": "U096VSA00JG", "display_name": "Nathanael Johnson", "bio": null, "projects_count": 0, "devlogs_count": 0, "votes_count": 0, "ships_count": 0, "projects": [], "coding_time_seconds": 0, "coding_time_seconds_today": 0, "balance": "You need to have a pocket watcher badge to view this.", "badges": [], "created_at": "2025-07-23T15:56:26.679-04:00", "updated_at": "2025-07-23T21:41:56.212-04:00", "avatar": "https://avatars.slack-edge.com/2025-07-23/9266890179872_fbc40e0e38007abe4835_original.jpg", "custom_css": null}, {"id": 18727, "slack_id": "U096QTE8J7R", "display_name": "Dhruvil", "bio": null, "projects_count": 0, "devlogs_count": 0, "votes_count": 0, "ships_count": 0, "projects": [], "coding_time_seconds": 0, "coding_time_seconds_today": 0, "balance": "You need to have a pocket watcher badge to view this.", "badges": [], "created_at": "2025-07-23T15:58:23.956-04:00", "updated_at": "2025-07-23T21:41:56.326-04:00", "avatar": "https://secure.gravatar.com/avatar/ca91f780746eedc26dbd434f1d005f95.jpg?s=512&d=https%3A%2F%2Fa.slack-edge.com%2Fdf10d%2Fimg%2Favatars%2Fava_0013-512.png", "custom_css": null}, {"id": 18728, "slack_id": "U096RCVVBT9", "display_name": "Fatima Ezzahra Kasmi", "bio": null, "projects_count": 0, "devlogs_count": 0, "votes_count": 0, "ships_count": 0, "projects": [], "coding_time_seconds": 31679, "coding_time_seconds_today": 0, "balance": "You need to have a pocket watcher badge to view this.", "badges": [], "created_at": "2025-07-23T15:59:28.016-04:00", "updated_at": "2025-07-23T21:41:56.433-04:00", "avatar": "https://secure.gravatar.com/avatar/3770eaed9cee74c880657149fbbe58dc.jpg?s=512&d=https%3A%2F%2Fa.slack-edge.com%2Fdf10d%2Fimg%2Favatars%2Fava_0007-512.png", "custom_css": null}, {"id": 18729, "slack_id": "U096RCTF6B1", "display_name": "Adriana Cristina Ferraresi", "bio": null, "projects_count": 0, "devlogs_count": 0, "votes_count": 0, "ships_count": 0, "projects": [], "coding_time_seconds": 0, "coding_time_seconds_today": 0, "balance": "You need to have a pocket watcher badge to view this.", "badges": [], "created_at": "2025-07-23T15:59:57.881-04:00", "updated_at": "2025-07-23T21:41:56.512-04:00", "avatar": "https://secure.gravatar.com/avatar/cbed232bd8a8088b6e69d81d36678c49.jpg?s=512&d=https%3A%2F%2Fa.slack-edge.com%2Fdf10d%2Fimg%2Favatars%2Fava_0000-512.png", "custom_css": null}, {"id": 18730, "slack_id": "U096TL7HE4S", "display_name": "Iris", "bio": null, "projects_count": 0, "devlogs_count": 0, "votes_count": 0, "ships_count": 0, "projects": [], "coding_time_seconds": 0, "coding_time_seconds_today": 0, "balance": "You need to have a pocket watcher badge to view this.", "badges": [], "created_at": "2025-07-23T16:04:59.491-04:00", "updated_at": "2025-07-23T21:41:56.590-04:00", "avatar": "https://secure.gravatar.com/avatar/5eeba201a9591638c83970444a62cf88.jpg?s=512&d=https%3A%2F%2Fa.slack-edge.com%2Fdf10d%2Fimg%2Favatars%2Fava_0025-512.png", "custom_css": null}, {"id": 18731, "slack_id": "U096RFPPUF9", "display_name": "Eesha Singh", "bio": null, "projects_count": 0, "devlogs_count": 0, "votes_count": 0, "ships_count": 0, "projects": [], "coding_time_seconds": 0, "coding_time_seconds_today": 0, "balance": "You need to have a pocket watcher badge to view this.", "badges": [], "created_at": "2025-07-23T16:17:50.364-04:00", "updated_at": "2025-07-23T21:41:56.681-04:00", "avatar": "https://secure.gravatar.com/avatar/792e67e5dff736bea7ebb7c73f9782cb.jpg?s=512&d=https%3A%2F%2Fa.slack-edge.com%2Fdf10d%2Fimg%2Favatars%2Fava_0006-512.png", "custom_css": null}, {"id": 18732, "slack_id": "U0976N77GP4", "display_name": "akli", "bio": null, "projects_count": 0, "devlogs_count": 0, "votes_count": 0, "ships_count": 0, "projects": [], "coding_time_seconds": 0, "coding_time_seconds_today": 0, "balance": "You need to have a pocket watcher badge to view this.", "badges": [], "created_at": "2025-07-23T16:18:43.545-04:00", "updated_at": "2025-07-23T21:41:56.782-04:00", "avatar": "https://secure.gravatar.com/avatar/4353e45d7688b3b285934d62d95dc3ee.jpg?s=512&d=https%3A%2F%2Fa.slack-edge.com%2Fdf10d%2Fimg%2Favatars%2Fava_0014-512.png", "custom_css": null}, {"id": 18733, "slack_id": "U0973BHR48N", "display_name": "Karol Markowski", "bio": null, "projects_count": 0, "devlogs_count": 0, "votes_count": 0, "ships_count": 0, "projects": [], "coding_time_seconds": 69271, "coding_time_seconds_today": 0, "balance": "You need to have a pocket watcher badge to view this.", "badges": [], "created_at": "2025-07-23T16:24:20.380-04:00", "updated_at": "2025-07-24T14:53:24.046-04:00", "avatar": "https://secure.gravatar.com/avatar/ba6770c0a2661af35052f7c11b2fd42a.jpg?s=512&d=https%3A%2F%2Fa.slack-edge.com%2Fdf10d%2Fimg%2Favatars%2Fava_0014-512.png", "custom_css": null}, {"id": 18734, "slack_id": "U097V0RV76U", "display_name": "Amulya Jain", "bio": null, "projects_count": 0, "devlogs_count": 0, "votes_count": 0, "ships_count": 0, "projects": [], "coding_time_seconds": 140, "coding_time_seconds_today": 0, "balance": "You need to have a pocket watcher badge to view this.", "badges": [], "created_at": "2025-07-23T16:25:44.541-04:00", "updated_at": "2025-07-23T21:41:56.951-04:00", "avatar": "https://avatars.slack-edge.com/2025-07-23/9229590889079_136478b6fb295c2e8897_original.jpg", "custom_css": null}, {"id": 18735, "slack_id": "U096RH1B8HM", "display_name": "Elizabeth Chanda", "bio": null, "projects_count": 0, "devlogs_count": 0, "votes_count": 0, "ships_count": 0, "projects": [], "coding_time_seconds": 0, "coding_time_seconds_today": 0, "balance": "You need to have a pocket watcher badge to view this.", "badges": [], "created_at": "2025-07-23T16:26:30.905-04:00", "updated_at": "2025-07-23T21:41:57.032-04:00", "avatar": "https://avatars.slack-edge.com/2025-07-23/9244809050338_8234028d82e46fb8a191_original.jpg", "custom_css": null}, {"id": 18736, "slack_id": "U0971GCRJ83", "display_name": "Opstic", "bio": null, "projects_count": 3, "devlogs_count": 0, "votes_count": 0, "ships_count": 0, "projects": [{"id": 7925, "title": "GDClone", "devlogs_count": 0, "created_at": "2025-07-23T16:50:30.671-04:00"}, {"id": 7955, "title": "Stratum Engine", "devlogs_count": 0, "created_at": "2025-07-23T20:04:44.400-04:00"}, {"id": 8283, "title": "Rhythm game", "devlogs_count": 0, "created_at": "2025-07-26T00:30:13.147-04:00"}], "coding_time_seconds": 2783, "coding_time_seconds_today": 0, "balance": "You need to have a pocket watcher badge to view this.", "badges": [], "created_at": "2025-07-23T16:31:12.624-04:00", "updated_at": "2025-07-25T03:18:22.246-04:00", "avatar": "https://secure.gravatar.com/avatar/04356d3ce70e3bce18fa12bbe92202d3.jpg?s=512&d=https%3A%2F%2Fa.slack-edge.com%2Fdf10d%2Fimg%2Favatars%2Fava_0009-512.png", "custom_css": null}, {"id": 18737, "slack_id": "U097L0VNZ3K", "display_name": "Random", "bio": null, "projects_count": 3, "devlogs_count": 16, "votes_count": 6, "ships_count": 0, "projects": [{"id": 8281, "title": "Legendary Investor", "devlogs_count": 1, "created_at": "2025-07-26T00:14:42.171-04:00"}, {"id": 13644, "title": "Debato 3000", "devlogs_count": 4, "created_at": "2025-09-21T20:08:24.474-04:00"}, {"id": 13299, "title": "Cringe Canyon (Survey Scene 31)", "devlogs_count": 8, "created_at": "2025-09-13T16:29:19.587-04:00"}], "coding_time_seconds": 123644, "coding_time_seconds_today": 0, "balance": "You need to have a pocket watcher badge to view this.", "badges": [], "created_at": "2025-07-23T16:31:53.212-04:00", "updated_at": "2025-09-10T00:30:19.130-04:00", "avatar": "https://secure.gravatar.com/avatar/c97dcd3c06f69eb22cc2c99c8c14e14a.jpg?s=512&d=https%3A%2F%2Fa.slack-edge.com%2Fdf10d%2Fimg%2Favatars%2Fava_0011-512.png", "custom_css": null}, {"id": 18738, "slack_id": "U0971JKMMKM", "display_name": "Krish Puri", "bio": null, "projects_count": 0, "devlogs_count": 0, "votes_count": 0, "ships_count": 0, "projects": [], "coding_time_seconds": 0, "coding_time_seconds_today": 0, "balance": "You need to have a pocket watcher badge to view this.", "badges": [], "created_at": "2025-07-23T16:44:17.272-04:00", "updated_at": "2025-08-18T15:18:26.904-04:00", "avatar": "https://secure.gravatar.com/avatar/0b26a9074defe0e12442e789387b044e.jpg?s=512&d=https%3A%2F%2Fa.slack-edge.com%2Fdf10d%2Fimg%2Favatars%2Fava_0025-512.png", "custom_css": null}, {"id": 18739, "slack_id": "U0977UE33RS", "display_name": "Muhammad Usman", "bio": null, "projects_count": 0, "devlogs_count": 0, "votes_count": 0, "ships_count": 0, "projects": [], "coding_time_seconds": 0, "coding_time_seconds_today": 0, "balance": "You need to have a pocket watcher badge to view this.", "badges": [], "created_at": "2025-07-23T16:44:28.525-04:00", "updated_at": "2025-07-23T21:41:57.380-04:00", "avatar": "https://secure.gravatar.com/avatar/7119f9d0200aff5dbcca029f312a5cb7.jpg?s=512&d=https%3A%2F%2Fa.slack-edge.com%2Fdf10d%2Fimg%2Favatars%2Fava_0009-512.png", "custom_css": null}, {"id": 18740, "slack_id": "U096THHQXLJ", "display_name": "Amin Borghei", "bio": null, "projects_count": 0, "devlogs_count": 0, "votes_count": 0, "ships_count": 0, "projects": [], "coding_time_seconds": 5233, "coding_time_seconds_today": 0, "balance": "You need to have a pocket watcher badge to view this.", "badges": [], "created_at": "2025-07-23T16:47:16.970-04:00", "updated_at": "2025-07-23T21:41:57.469-04:00", "avatar": "https://secure.gravatar.com/avatar/e66d18fd8439e6d745a8e1065cd48dcb.jpg?s=512&d=https%3A%2F%2Fa.slack-edge.com%2Fdf10d%2Fimg%2Favatars%2Fava_0006-512.png", "custom_css": null}, {"id": 18741, "slack_id": "U0973U56KCN", "display_name": "Mushfiqa", "bio": null, "projects_count": 0, "devlogs_count": 0, "votes_count": 0, "ships_count": 0, "projects": [], "coding_time_seconds": 0, "coding_time_seconds_today": 0, "balance": "You need to have a pocket watcher badge to view this.", "badges": [], "created_at": "2025-07-23T16:49:45.192-04:00", "updated_at": "2025-07-23T21:41:57.557-04:00", "avatar": "https://secure.gravatar.com/avatar/01dcf413dd1a3df477cedc01f168d224.jpg?s=512&d=https%3A%2F%2Fa.slack-edge.com%2Fdf10d%2Fimg%2Favatars%2Fava_0005-512.png", "custom_css": null}, {"id": 18742, "slack_id": "U097804EVKN", "display_name": "Chetan", "bio": null, "projects_count": 0, "devlogs_count": 0, "votes_count": 0, "ships_count": 0, "projects": [], "coding_time_seconds": 0, "coding_time_seconds_today": 0, "balance": "You need to have a pocket watcher badge to view this.", "badges": [], "created_at": "2025-07-23T16:53:00.336-04:00", "updated_at": "2025-07-23T21:42:01.683-04:00", "avatar": "https://secure.gravatar.com/avatar/5a26e68017bbfb61c944c47fa0244d22.jpg?s=512&d=https%3A%2F%2Fa.slack-edge.com%2Fdf10d%2Fimg%2Favatars%2Fava_0012-512.png", "custom_css": null}, {"id": 18743, "slack_id": "U097L3X7EDP", "display_name": "Eshaan Modi", "bio": null, "projects_count": 1, "devlogs_count": 2, "votes_count": 2, "ships_count": 0, "projects": [{"id": 7944, "title": "SCHM AI", "devlogs_count": 2, "created_at": "2025-07-23T18:40:52.002-04:00"}], "coding_time_seconds": 52443, "coding_time_seconds_today": 0, "balance": "You need to have a pocket watcher badge to view this.", "badges": [], "created_at": "2025-07-23T16:53:10.410-04:00", "updated_at": "2025-08-08T11:05:56.091-04:00", "avatar": "https://avatars.slack-edge.com/2025-07-25/9256577859445_48dc11ff8ebf938c06a8_original.jpg", "custom_css": null}, {"id": 18744, "slack_id": "U09781G0W3W", "display_name": "Allen H", "bio": null, "projects_count": 0, "devlogs_count": 0, "votes_count": 0, "ships_count": 0, "projects": [], "coding_time_seconds": 19032, "coding_time_seconds_today": 0, "balance": "You need to have a pocket watcher badge to view this.", "badges": [], "created_at": "2025-07-23T17:01:26.790-04:00", "updated_at": "2025-08-07T18:38:20.950-04:00", "avatar": "https://secure.gravatar.com/avatar/1672c10f189caa3108e1ba36d67cdd13.jpg?s=512&d=https%3A%2F%2Fa.slack-edge.com%2Fdf10d%2Fimg%2Favatars%2Fava_0000-512.png", "custom_css": null}, {"id": 18745, "slack_id": "U096PQ80D8F", "display_name": "Vasilis", "bio": null, "projects_count": 0, "devlogs_count": 0, "votes_count": 0, "ships_count": 0, "projects": [], "coding_time_seconds": 0, "coding_time_seconds_today": 0, "balance": "You need to have a pocket watcher badge to view this.", "badges": [], "created_at": "2025-07-23T17:04:56.801-04:00", "updated_at": "2025-07-26T07:15:52.008-04:00", "avatar": "https://secure.gravatar.com/avatar/b5fdc5ecec8e8251e86ee9c785ccb3f6.jpg?s=512&d=https%3A%2F%2Fa.slack-edge.com%2Fdf10d%2Fimg%2Favatars%2Fava_0003-512.png", "custom_css": null}], "pagination": {"page": 933, "pages": 1192, "count": 23828, "items": 20}}