{"users": [{"id": 18746, "slack_id": "U0970819N5Q", "display_name": "Utkarsh Aryan", "bio": null, "projects_count": 0, "devlogs_count": 0, "votes_count": 0, "ships_count": 0, "projects": [], "coding_time_seconds": 0, "coding_time_seconds_today": 0, "balance": "You need to have a pocket watcher badge to view this.", "badges": [], "created_at": "2025-07-23T17:04:57.316-04:00", "updated_at": "2025-07-23T21:42:02.133-04:00", "avatar": "https://avatars.slack-edge.com/2025-07-23/9242052681814_001c976da35f95485264_original.png", "custom_css": null}, {"id": 18747, "slack_id": "U097T1A26KS", "display_name": "Rohith", "bio": null, "projects_count": 0, "devlogs_count": 0, "votes_count": 0, "ships_count": 0, "projects": [], "coding_time_seconds": 0, "coding_time_seconds_today": 0, "balance": "You need to have a pocket watcher badge to view this.", "badges": [], "created_at": "2025-07-23T17:05:02.030-04:00", "updated_at": "2025-07-23T21:42:06.255-04:00", "avatar": "https://secure.gravatar.com/avatar/e0aa35b75c32636c83189b88a9d121fc.jpg?s=512&d=https%3A%2F%2Fa.slack-edge.com%2Fdf10d%2Fimg%2Favatars%2Fava_0017-512.png", "custom_css": null}, {"id": 18748, "slack_id": "U04HX9JH0BD", "display_name": "rohanth", "bio": null, "projects_count": 0, "devlogs_count": 0, "votes_count": 0, "ships_count": 0, "projects": [], "coding_time_seconds": 144278, "coding_time_seconds_today": 0, "balance": "You need to have a pocket watcher badge to view this.", "badges": [], "created_at": "2025-07-23T17:08:27.490-04:00", "updated_at": "2025-07-25T03:58:39.237-04:00", "avatar": "https://avatars.slack-edge.com/2025-03-23/8638092165174_0c3d5e857ef5a6d35a50_original.png", "custom_css": null}, {"id": 18749, "slack_id": "U07UB2GJETF", "display_name": "ria saheta", "bio": null, "projects_count": 0, "devlogs_count": 0, "votes_count": 0, "ships_count": 0, "projects": [], "coding_time_seconds": 0, "coding_time_seconds_today": 0, "balance": "You need to have a pocket watcher badge to view this.", "badges": [], "created_at": "2025-07-23T17:10:57.832-04:00", "updated_at": "2025-09-01T11:23:47.567-04:00", "avatar": "https://avatars.slack-edge.com/2024-11-22/8085461803569_3074d83f9b27eb5e02d7_original.jpg", "custom_css": null}, {"id": 18750, "slack_id": "U0974260X70", "display_name": "Emily Taylor", "bio": null, "projects_count": 0, "devlogs_count": 0, "votes_count": 0, "ships_count": 0, "projects": [], "coding_time_seconds": 0, "coding_time_seconds_today": 0, "balance": "You need to have a pocket watcher badge to view this.", "badges": [], "created_at": "2025-07-23T17:13:07.943-04:00", "updated_at": "2025-07-24T17:22:17.989-04:00", "avatar": "https://avatars.slack-edge.com/2025-07-24/9273218227984_44d8ceaf808f269650c6_original.jpg", "custom_css": null}, {"id": 18751, "slack_id": "U097714HD9Q", "display_name": "John\u2019s", "bio": null, "projects_count": 0, "devlogs_count": 0, "votes_count": 0, "ships_count": 0, "projects": [], "coding_time_seconds": 0, "coding_time_seconds_today": 0, "balance": "You need to have a pocket watcher badge to view this.", "badges": [], "created_at": "2025-07-23T17:21:58.729-04:00", "updated_at": "2025-07-24T08:37:08.121-04:00", "avatar": "https://secure.gravatar.com/avatar/e7cabbe993b566e3fb60598af3e0d6b6.jpg?s=512&d=https%3A%2F%2Fa.slack-edge.com%2Fdf10d%2Fimg%2Favatars%2Fava_0003-512.png", "custom_css": null}, {"id": 18752, "slack_id": "U08RM8AA39R", "display_name": "Samuel", "bio": null, "projects_count": 0, "devlogs_count": 0, "votes_count": 0, "ships_count": 0, "projects": [], "coding_time_seconds": 264461, "coding_time_seconds_today": 0, "balance": "You need to have a pocket watcher badge to view this.", "badges": [], "created_at": "2025-07-23T17:28:53.072-04:00", "updated_at": "2025-07-23T21:42:06.649-04:00", "avatar": "https://secure.gravatar.com/avatar/0d40db3e083dc731c0479b36ab4ff11b.jpg?s=512&d=https%3A%2F%2Fa.slack-edge.com%2Fdf10d%2Fimg%2Favatars%2Fava_0026-512.png", "custom_css": null}, {"id": 18753, "slack_id": "U09785NN3M2", "display_name": "Luis Alonzo", "bio": null, "projects_count": 0, "devlogs_count": 0, "votes_count": 0, "ships_count": 0, "projects": [], "coding_time_seconds": 0, "coding_time_seconds_today": 0, "balance": "You need to have a pocket watcher badge to view this.", "badges": [], "created_at": "2025-07-23T17:35:31.682-04:00", "updated_at": "2025-07-23T21:42:06.733-04:00", "avatar": "https://secure.gravatar.com/avatar/55574d09f3db4d5dc5bb303eaad64faa.jpg?s=512&d=https%3A%2F%2Fa.slack-edge.com%2Fdf10d%2Fimg%2Favatars%2Fava_0009-512.png", "custom_css": null}, {"id": 18754, "slack_id": "U0975BJFPMK", "display_name": "Abdullah Pervez", "bio": null, "projects_count": 0, "devlogs_count": 0, "votes_count": 0, "ships_count": 0, "projects": [], "coding_time_seconds": 0, "coding_time_seconds_today": 0, "balance": "You need to have a pocket watcher badge to view this.", "badges": [], "created_at": "2025-07-23T17:37:58.832-04:00", "updated_at": "2025-07-23T21:42:06.828-04:00", "avatar": "https://secure.gravatar.com/avatar/aa01838fa16ed506f8c3feef55ffc4cf.jpg?s=512&d=https%3A%2F%2Fa.slack-edge.com%2Fdf10d%2Fimg%2Favatars%2Fava_0024-512.png", "custom_css": null}, {"id": 18755, "slack_id": "U0974605GCE", "display_name": "Wildguy", "bio": null, "projects_count": 0, "devlogs_count": 0, "votes_count": 0, "ships_count": 0, "projects": [], "coding_time_seconds": 0, "coding_time_seconds_today": 0, "balance": "You need to have a pocket watcher badge to view this.", "badges": [], "created_at": "2025-07-23T17:48:38.497-04:00", "updated_at": "2025-07-23T21:42:06.936-04:00", "avatar": "https://secure.gravatar.com/avatar/eb7233f5c72325d2d2dc7a9c0c017cc1.jpg?s=512&d=https%3A%2F%2Fa.slack-edge.com%2Fdf10d%2Fimg%2Favatars%2Fava_0014-512.png", "custom_css": null}, {"id": 18756, "slack_id": "U093GQT8ZL3", "display_name": "idk", "bio": null, "projects_count": 0, "devlogs_count": 0, "votes_count": 0, "ships_count": 0, "projects": [], "coding_time_seconds": 0, "coding_time_seconds_today": 0, "balance": "You need to have a pocket watcher badge to view this.", "badges": [], "created_at": "2025-07-23T17:50:57.038-04:00", "updated_at": "2025-07-23T21:42:07.042-04:00", "avatar": "https://secure.gravatar.com/avatar/160d9761c9c2eca57a3bb30ae06cd42f.jpg?s=512&d=https%3A%2F%2Fa.slack-edge.com%2Fdf10d%2Fimg%2Favatars%2Fava_0016-512.png", "custom_css": null}, {"id": 18757, "slack_id": "U0975DRFXM3", "display_name": "Nathan", "bio": null, "projects_count": 0, "devlogs_count": 0, "votes_count": 0, "ships_count": 0, "projects": [], "coding_time_seconds": 0, "coding_time_seconds_today": 0, "balance": "You need to have a pocket watcher badge to view this.", "badges": [], "created_at": "2025-07-23T17:57:11.649-04:00", "updated_at": "2025-07-23T21:42:07.144-04:00", "avatar": "https://secure.gravatar.com/avatar/f8f5bd699e09f2181ad26f0a45a904b3.jpg?s=512&d=https%3A%2F%2Fa.slack-edge.com%2Fdf10d%2Fimg%2Favatars%2Fava_0016-512.png", "custom_css": null}, {"id": 18758, "slack_id": "U09776B7290", "display_name": "Vince Linise", "bio": null, "projects_count": 1, "devlogs_count": 1, "votes_count": 8, "ships_count": 0, "projects": [{"id": 7939, "title": "Papillon v8", "devlogs_count": 1, "created_at": "2025-07-23T18:07:44.249-04:00"}], "coding_time_seconds": 276594, "coding_time_seconds_today": 1684, "balance": "You need to have a pocket watcher badge to view this.", "badges": [], "created_at": "2025-07-23T18:02:32.662-04:00", "updated_at": "2025-08-06T15:32:08.207-04:00", "avatar": "https://avatars.slack-edge.com/2025-07-23/9246313515380_8b17bbea308f89348d13_original.png", "custom_css": null}, {"id": 18759, "slack_id": "U0971UVEHMH", "display_name": "Deysi Belen Rufino Ramos", "bio": null, "projects_count": 0, "devlogs_count": 0, "votes_count": 0, "ships_count": 0, "projects": [], "coding_time_seconds": 0, "coding_time_seconds_today": 0, "balance": "You need to have a pocket watcher badge to view this.", "badges": [], "created_at": "2025-07-23T18:03:41.642-04:00", "updated_at": "2025-07-23T21:42:07.343-04:00", "avatar": "https://avatars.slack-edge.com/2025-07-23/9239994528339_827a71f009e05bbc5c92_original.jpg", "custom_css": null}, {"id": 18760, "slack_id": "U092JP4EY4S", "display_name": "Rapha\u00ebl Schr\u00f6der", "bio": null, "projects_count": 2, "devlogs_count": 6, "votes_count": 28, "ships_count": 1, "projects": [{"id": 7943, "title": "Papillon", "devlogs_count": 3, "created_at": "2025-07-23T18:24:31.949-04:00"}, {"id": 8109, "title": "Is it Worth It ?", "devlogs_count": 3, "created_at": "2025-07-24T16:57:39.760-04:00"}], "coding_time_seconds": 140124, "coding_time_seconds_today": 222, "balance": "You need to have a pocket watcher badge to view this.", "badges": [], "created_at": "2025-07-23T18:09:07.775-04:00", "updated_at": "2025-08-30T17:05:27.150-04:00", "avatar": "https://secure.gravatar.com/avatar/4fd67d7a2a239c85d4a077bba77ec736.jpg?s=512&d=https%3A%2F%2Fa.slack-edge.com%2Fdf10d%2Fimg%2Favatars%2Fava_0022-512.png", "custom_css": null}, {"id": 18761, "slack_id": "U096S0YV6KH", "display_name": "Mehak", "bio": null, "projects_count": 0, "devlogs_count": 0, "votes_count": 0, "ships_count": 0, "projects": [], "coding_time_seconds": 0, "coding_time_seconds_today": 0, "balance": "You need to have a pocket watcher badge to view this.", "badges": [], "created_at": "2025-07-23T18:16:52.321-04:00", "updated_at": "2025-07-23T21:42:07.510-04:00", "avatar": "https://secure.gravatar.com/avatar/9fd1b05d3a6283cbefab64bcd5b469ac.jpg?s=512&d=https%3A%2F%2Fa.slack-edge.com%2Fdf10d%2Fimg%2Favatars%2Fava_0008-512.png", "custom_css": null}, {"id": 18762, "slack_id": "U09749KQ1FY", "display_name": "DeTiveNC", "bio": null, "projects_count": 0, "devlogs_count": 0, "votes_count": 0, "ships_count": 0, "projects": [], "coding_time_seconds": 0, "coding_time_seconds_today": 0, "balance": "You need to have a pocket watcher badge to view this.", "badges": [], "created_at": "2025-07-23T18:19:55.591-04:00", "updated_at": "2025-07-23T21:42:07.604-04:00", "avatar": "https://secure.gravatar.com/avatar/e2a6ea0ba5a7d754a046768dff2154ee.jpg?s=512&d=https%3A%2F%2Fa.slack-edge.com%2Fdf10d%2Fimg%2Favatars%2Fava_0009-512.png", "custom_css": null}, {"id": 18763, "slack_id": "U096S1NCPGF", "display_name": "Alex Jando", "bio": null, "projects_count": 3, "devlogs_count": 10, "votes_count": 40, "ships_count": 3, "projects": [{"id": 8148, "title": "AI Short Story Video Maker", "devlogs_count": 2, "created_at": "2025-07-24T23:36:58.887-04:00"}, {"id": 7950, "title": "Personal Portfolio", "devlogs_count": 4, "created_at": "2025-07-23T19:18:01.348-04:00"}, {"id": 8220, "title": "HTTP-PyServer", "devlogs_count": 4, "created_at": "2025-07-25T10:48:52.433-04:00"}], "coding_time_seconds": 186969, "coding_time_seconds_today": 0, "balance": "You need to have a pocket watcher badge to view this.", "badges": [], "created_at": "2025-07-23T18:23:29.721-04:00", "updated_at": "2025-09-04T14:53:56.308-04:00", "avatar": "https://secure.gravatar.com/avatar/a9d2bd02f2623e70fce4204ad281559e.jpg?s=512&d=https%3A%2F%2Fa.slack-edge.com%2Fdf10d%2Fimg%2Favatars%2Fava_0018-512.png", "custom_css": null}, {"id": 18764, "slack_id": "U097VFJGL0G", "display_name": "Kimo", "bio": null, "projects_count": 0, "devlogs_count": 0, "votes_count": 0, "ships_count": 0, "projects": [], "coding_time_seconds": 0, "coding_time_seconds_today": 0, "balance": "You need to have a pocket watcher badge to view this.", "badges": [], "created_at": "2025-07-23T18:23:40.238-04:00", "updated_at": "2025-07-23T21:42:07.767-04:00", "avatar": "https://secure.gravatar.com/avatar/41a6b4997bc21a1cc2f049afa8beae93.jpg?s=512&d=https%3A%2F%2Fa.slack-edge.com%2Fdf10d%2Fimg%2Favatars%2Fava_0013-512.png", "custom_css": null}, {"id": 18765, "slack_id": "U0975GY9PV3", "display_name": "Zamama Hassan", "bio": null, "projects_count": 0, "devlogs_count": 0, "votes_count": 0, "ships_count": 0, "projects": [], "coding_time_seconds": 0, "coding_time_seconds_today": 0, "balance": "You need to have a pocket watcher badge to view this.", "badges": [], "created_at": "2025-07-23T18:28:15.595-04:00", "updated_at": "2025-07-23T21:42:07.859-04:00", "avatar": "https://secure.gravatar.com/avatar/4582b9a0609331f9838c46aa2cf02b18.jpg?s=512&d=https%3A%2F%2Fa.slack-edge.com%2Fdf10d%2Fimg%2Favatars%2Fava_0022-512.png", "custom_css": null}], "pagination": {"page": 934, "pages": 1192, "count": 23828, "items": 20}}