{"users": [{"id": 18766, "slack_id": "U0974BREZML", "display_name": "Asley Fernando Cruz Gonzalez", "bio": null, "projects_count": 0, "devlogs_count": 0, "votes_count": 0, "ships_count": 0, "projects": [], "coding_time_seconds": 0, "coding_time_seconds_today": 0, "balance": "You need to have a pocket watcher badge to view this.", "badges": [], "created_at": "2025-07-23T18:41:54.322-04:00", "updated_at": "2025-07-23T21:42:07.951-04:00", "avatar": "https://avatars.slack-edge.com/2025-07-23/9230126236359_86fcce35bd85f08bd5c6_original.jpg", "custom_css": null}, {"id": 18767, "slack_id": "U0974BQ4QMU", "display_name": "mxcrx", "bio": null, "projects_count": 0, "devlogs_count": 0, "votes_count": 0, "ships_count": 0, "projects": [], "coding_time_seconds": 0, "coding_time_seconds_today": 0, "balance": "You need to have a pocket watcher badge to view this.", "badges": [], "created_at": "2025-07-23T18:42:09.793-04:00", "updated_at": "2025-07-23T21:42:08.036-04:00", "avatar": "https://secure.gravatar.com/avatar/69711c942a22c220e1e69f3d1fd02396.jpg?s=512&d=https%3A%2F%2Fa.slack-edge.com%2Fdf10d%2Fimg%2Favatars%2Fava_0011-512.png", "custom_css": null}, {"id": 18768, "slack_id": "U097VHQU4UQ", "display_name": "Jamie", "bio": null, "projects_count": 0, "devlogs_count": 0, "votes_count": 0, "ships_count": 0, "projects": [], "coding_time_seconds": 0, "coding_time_seconds_today": 0, "balance": "You need to have a pocket watcher badge to view this.", "badges": [], "created_at": "2025-07-23T18:43:56.141-04:00", "updated_at": "2025-07-23T21:42:08.123-04:00", "avatar": "https://secure.gravatar.com/avatar/f4e8f26a30653553e3339e965d686f83.jpg?s=512&d=https%3A%2F%2Fa.slack-edge.com%2Fdf10d%2Fimg%2Favatars%2Fava_0015-512.png", "custom_css": null}, {"id": 18769, "slack_id": "U097LGBR40Z", "display_name": "Mr Clever", "bio": null, "projects_count": 0, "devlogs_count": 0, "votes_count": 0, "ships_count": 0, "projects": [], "coding_time_seconds": 0, "coding_time_seconds_today": 0, "balance": "You need to have a pocket watcher badge to view this.", "badges": [], "created_at": "2025-07-23T18:48:46.879-04:00", "updated_at": "2025-07-23T21:42:08.217-04:00", "avatar": "https://secure.gravatar.com/avatar/18c944d5b5312efb25965164e53652a2.jpg?s=512&d=https%3A%2F%2Fa.slack-edge.com%2Fdf10d%2Fimg%2Favatars%2Fava_0023-512.png", "custom_css": null}, {"id": 18770, "slack_id": "U0974DPC50E", "display_name": "Tom Heliere", "bio": null, "projects_count": 0, "devlogs_count": 0, "votes_count": 0, "ships_count": 0, "projects": [], "coding_time_seconds": 51388, "coding_time_seconds_today": 0, "balance": "You need to have a pocket watcher badge to view this.", "badges": [], "created_at": "2025-07-23T19:03:32.403-04:00", "updated_at": "2025-07-28T15:22:00.157-04:00", "avatar": "https://secure.gravatar.com/avatar/9cf6637673ee3d05ec900820e425d800.jpg?s=512&d=https%3A%2F%2Fa.slack-edge.com%2Fdf10d%2Fimg%2Favatars%2Fava_0022-512.png", "custom_css": null}, {"id": 18771, "slack_id": "U096S5V12H5", "display_name": "myat", "bio": null, "projects_count": 0, "devlogs_count": 0, "votes_count": 0, "ships_count": 0, "projects": [], "coding_time_seconds": 0, "coding_time_seconds_today": 0, "balance": "You need to have a pocket watcher badge to view this.", "badges": [], "created_at": "2025-07-23T19:09:59.178-04:00", "updated_at": "2025-07-23T21:42:08.390-04:00", "avatar": "https://secure.gravatar.com/avatar/02ae0befa81cd08fc351dfbd5884e136.jpg?s=512&d=https%3A%2F%2Fa.slack-edge.com%2Fdf10d%2Fimg%2Favatars%2Fava_0025-512.png", "custom_css": null}, {"id": 18772, "slack_id": "U0974ESFHFG", "display_name": "Vorix", "bio": null, "projects_count": 1, "devlogs_count": 0, "votes_count": 1, "ships_count": 0, "projects": [{"id": 10412, "title": "The Odin Project", "devlogs_count": 0, "created_at": "2025-08-06T18:47:32.615-04:00"}], "coding_time_seconds": 4111, "coding_time_seconds_today": 0, "balance": "You need to have a pocket watcher badge to view this.", "badges": [], "created_at": "2025-07-23T19:20:41.342-04:00", "updated_at": "2025-08-06T18:45:05.351-04:00", "avatar": "https://avatars.slack-edge.com/2025-07-23/9258698684881_c69bc79c01f46b98886d_original.jpg", "custom_css": null}, {"id": 18773, "slack_id": "U09726V24P5", "display_name": "Ira McLure", "bio": null, "projects_count": 0, "devlogs_count": 0, "votes_count": 0, "ships_count": 0, "projects": [], "coding_time_seconds": 0, "coding_time_seconds_today": 0, "balance": "You need to have a pocket watcher badge to view this.", "badges": [], "created_at": "2025-07-23T19:21:44.953-04:00", "updated_at": "2025-07-23T21:42:08.550-04:00", "avatar": "https://avatars.slack-edge.com/2025-07-23/9243770005381_060c153b3248452eab40_original.png", "custom_css": null}, {"id": 18774, "slack_id": "U09726ZBY2X", "display_name": "Mo Adel", "bio": null, "projects_count": 1, "devlogs_count": 0, "votes_count": 0, "ships_count": 0, "projects": [{"id": 7952, "title": "Day Flow", "devlogs_count": 0, "created_at": "2025-07-23T19:54:54.413-04:00"}], "coding_time_seconds": 25248, "coding_time_seconds_today": 702, "balance": "You need to have a pocket watcher badge to view this.", "badges": [], "created_at": "2025-07-23T19:25:17.105-04:00", "updated_at": "2025-07-23T21:42:08.653-04:00", "avatar": "https://secure.gravatar.com/avatar/ff9306601ef9a9d13ba27230ca6785e3.jpg?s=512&d=https%3A%2F%2Fa.slack-edge.com%2Fdf10d%2Fimg%2Favatars%2Fava_0019-512.png", "custom_css": null}, {"id": 18775, "slack_id": "U096S7DCX9V", "display_name": "Suvit", "bio": null, "projects_count": 0, "devlogs_count": 0, "votes_count": 0, "ships_count": 0, "projects": [], "coding_time_seconds": 3151, "coding_time_seconds_today": 0, "balance": "You need to have a pocket watcher badge to view this.", "badges": [], "created_at": "2025-07-23T19:29:43.068-04:00", "updated_at": "2025-07-23T21:42:08.750-04:00", "avatar": "https://secure.gravatar.com/avatar/adae7b3bb15a9dac40e28ca00897fd40.jpg?s=512&d=https%3A%2F%2Fa.slack-edge.com%2Fdf10d%2Fimg%2Favatars%2Fava_0018-512.png", "custom_css": null}, {"id": 18776, "slack_id": "U08C57EN7NV", "display_name": "Madelyn", "bio": null, "projects_count": 1, "devlogs_count": 0, "votes_count": 0, "ships_count": 0, "projects": [{"id": 7953, "title": "gun-throw-sillies", "devlogs_count": 0, "created_at": "2025-07-23T19:58:14.305-04:00"}], "coding_time_seconds": 76757, "coding_time_seconds_today": 0, "balance": "You need to have a pocket watcher badge to view this.", "badges": [], "created_at": "2025-07-23T19:43:09.573-04:00", "updated_at": "2025-07-24T19:06:47.017-04:00", "avatar": "https://avatars.slack-edge.com/2025-06-08/9040982278144_8ed0035f803dede4142c_original.jpg", "custom_css": null}, {"id": 18777, "slack_id": "U0974HUA42J", "display_name": "Luis Esteban Valdivieso Gonz\u00e1lez", "bio": null, "projects_count": 0, "devlogs_count": 0, "votes_count": 0, "ships_count": 0, "projects": [], "coding_time_seconds": 0, "coding_time_seconds_today": 0, "balance": "You need to have a pocket watcher badge to view this.", "badges": [], "created_at": "2025-07-23T19:53:47.012-04:00", "updated_at": "2025-07-23T21:42:12.922-04:00", "avatar": "https://avatars.slack-edge.com/2025-07-23/9258793706689_5a7e25c47b6293036ef6_original.png", "custom_css": null}, {"id": 18778, "slack_id": "U0977GUGBJ6", "display_name": "Muzammil Kohistani", "bio": null, "projects_count": 0, "devlogs_count": 0, "votes_count": 0, "ships_count": 0, "projects": [], "coding_time_seconds": 0, "coding_time_seconds_today": 0, "balance": "You need to have a pocket watcher badge to view this.", "badges": [], "created_at": "2025-07-23T19:54:10.968-04:00", "updated_at": "2025-07-23T21:42:12.997-04:00", "avatar": "https://secure.gravatar.com/avatar/1f7abaaec4ba8015b443642426bfeba5.jpg?s=512&d=https%3A%2F%2Fa.slack-edge.com%2Fdf10d%2Fimg%2Favatars%2Fava_0012-512.png", "custom_css": null}, {"id": 18779, "slack_id": "U0797QCR1FS", "display_name": "Geenk", "bio": null, "projects_count": 1, "devlogs_count": 0, "votes_count": 0, "ships_count": 0, "projects": [{"id": 9609, "title": "Whispers Below", "devlogs_count": 0, "created_at": "2025-08-01T20:55:05.808-04:00"}], "coding_time_seconds": 12564, "coding_time_seconds_today": 0, "balance": "You need to have a pocket watcher badge to view this.", "badges": [], "created_at": "2025-07-23T20:02:22.432-04:00", "updated_at": "2025-08-15T13:19:33.117-04:00", "avatar": "https://secure.gravatar.com/avatar/9bdfd5f3e007fa9e92a506e15b26decd.jpg?s=512&d=https%3A%2F%2Fa.slack-edge.com%2Fdf10d%2Fimg%2Favatars%2Fava_0010-512.png", "custom_css": null}, {"id": 18780, "slack_id": "U097VR2SV1N", "display_name": "Alex Wood", "bio": null, "projects_count": 0, "devlogs_count": 0, "votes_count": 0, "ships_count": 0, "projects": [], "coding_time_seconds": 2541, "coding_time_seconds_today": 0, "balance": "You need to have a pocket watcher badge to view this.", "badges": [], "created_at": "2025-07-23T20:04:23.943-04:00", "updated_at": "2025-07-24T09:10:20.789-04:00", "avatar": "https://avatars.slack-edge.com/2025-07-23/9246695023796_3acb6141a97b8b646245_original.jpg", "custom_css": null}, {"id": 18781, "slack_id": "U0974L1MNCE", "display_name": "Terraxwx", "bio": null, "projects_count": 0, "devlogs_count": 0, "votes_count": 0, "ships_count": 0, "projects": [], "coding_time_seconds": 0, "coding_time_seconds_today": 0, "balance": "You need to have a pocket watcher badge to view this.", "badges": [], "created_at": "2025-07-23T20:12:37.019-04:00", "updated_at": "2025-07-23T21:42:13.219-04:00", "avatar": "https://secure.gravatar.com/avatar/b4e4a72b345b1a0ea89503ecd5164e57.jpg?s=512&d=https%3A%2F%2Fa.slack-edge.com%2Fdf10d%2Fimg%2Favatars%2Fava_0024-512.png", "custom_css": null}, {"id": 18782, "slack_id": "U08PLRVQBL3", "display_name": "Justin", "bio": null, "projects_count": 1, "devlogs_count": 12, "votes_count": 59, "ships_count": 1, "projects": [{"id": 8291, "title": "hivemind", "devlogs_count": 12, "created_at": "2025-07-26T02:29:20.764-04:00"}], "coding_time_seconds": 350111, "coding_time_seconds_today": 1318, "balance": "You need to have a pocket watcher badge to view this.", "badges": [], "created_at": "2025-07-23T20:15:24.822-04:00", "updated_at": "2025-08-20T03:54:45.533-04:00", "avatar": "https://avatars.slack-edge.com/2025-04-25/8802859127781_5708adc3c1afca1b22ed_original.jpg", "custom_css": null}, {"id": 18783, "slack_id": "U0970TMRMLN", "display_name": "Prashant Raj Shrestha", "bio": null, "projects_count": 0, "devlogs_count": 0, "votes_count": 0, "ships_count": 0, "projects": [], "coding_time_seconds": 0, "coding_time_seconds_today": 0, "balance": "You need to have a pocket watcher badge to view this.", "badges": [], "created_at": "2025-07-23T20:16:10.913-04:00", "updated_at": "2025-07-23T21:42:13.395-04:00", "avatar": "https://secure.gravatar.com/avatar/96e1d86a039556fc817aef6d58a9b9eb.jpg?s=512&d=https%3A%2F%2Fa.slack-edge.com%2Fdf10d%2Fimg%2Favatars%2Fava_0007-512.png", "custom_css": null}, {"id": 18784, "slack_id": "U09789FJ51A", "display_name": "Marin Min Jannat", "bio": null, "projects_count": 0, "devlogs_count": 0, "votes_count": 0, "ships_count": 0, "projects": [], "coding_time_seconds": 0, "coding_time_seconds_today": 0, "balance": "You need to have a pocket watcher badge to view this.", "badges": [], "created_at": "2025-07-23T20:17:29.128-04:00", "updated_at": "2025-07-23T21:42:13.483-04:00", "avatar": "https://avatars.slack-edge.com/2025-07-23/9243948997637_1ddaa96559479adc8a14_original.png", "custom_css": null}, {"id": 18785, "slack_id": "U0977MEB1L2", "display_name": "Thais", "bio": null, "projects_count": 0, "devlogs_count": 0, "votes_count": 0, "ships_count": 0, "projects": [], "coding_time_seconds": 0, "coding_time_seconds_today": 0, "balance": "You need to have a pocket watcher badge to view this.", "badges": [], "created_at": "2025-07-23T20:43:28.289-04:00", "updated_at": "2025-07-23T21:42:13.567-04:00", "avatar": "https://secure.gravatar.com/avatar/527a2e24b4d83dedddc25def80bae466.jpg?s=512&d=https%3A%2F%2Fa.slack-edge.com%2Fdf10d%2Fimg%2Favatars%2Fava_0004-512.png", "custom_css": null}], "pagination": {"page": 935, "pages": 1192, "count": 23828, "items": 20}}