{"users": [{"id": 18786, "slack_id": "U0974NR9ZHC", "display_name": "Sid-S", "bio": null, "projects_count": 0, "devlogs_count": 0, "votes_count": 0, "ships_count": 0, "projects": [], "coding_time_seconds": 0, "coding_time_seconds_today": 0, "balance": "You need to have a pocket watcher badge to view this.", "badges": [], "created_at": "2025-07-23T20:45:27.867-04:00", "updated_at": "2025-07-23T21:42:17.704-04:00", "avatar": "https://secure.gravatar.com/avatar/3738e55f4740ae1263141fa98afcd9ad.jpg?s=512&d=https%3A%2F%2Fa.slack-edge.com%2Fdf10d%2Fimg%2Favatars%2Fava_0011-512.png", "custom_css": null}, {"id": 18787, "slack_id": "U0964JR9PAR", "display_name": "David", "bio": null, "projects_count": 0, "devlogs_count": 0, "votes_count": 0, "ships_count": 0, "projects": [], "coding_time_seconds": 0, "coding_time_seconds_today": 0, "balance": "You need to have a pocket watcher badge to view this.", "badges": [], "created_at": "2025-07-23T20:46:13.974-04:00", "updated_at": "2025-07-23T21:42:17.858-04:00", "avatar": "https://secure.gravatar.com/avatar/664c4f600161c15b1a6bc2c355304471.jpg?s=512&d=https%3A%2F%2Fa.slack-edge.com%2Fdf10d%2Fimg%2Favatars%2Fava_0019-512.png", "custom_css": null}, {"id": 18788, "slack_id": "U097LU3SL2D", "display_name": "DriftingOtter", "bio": null, "projects_count": 0, "devlogs_count": 0, "votes_count": 0, "ships_count": 0, "projects": [], "coding_time_seconds": 0, "coding_time_seconds_today": 0, "balance": "You need to have a pocket watcher badge to view this.", "badges": [], "created_at": "2025-07-23T20:49:33.813-04:00", "updated_at": "2025-07-23T21:42:18.013-04:00", "avatar": "https://secure.gravatar.com/avatar/847a44d1e9df3468601b9dde58e2408d.jpg?s=512&d=https%3A%2F%2Fa.slack-edge.com%2Fdf10d%2Fimg%2Favatars%2Fava_0013-512.png", "custom_css": null}, {"id": 18789, "slack_id": "U097625T57F", "display_name": "GAN JOO HAN", "bio": null, "projects_count": 0, "devlogs_count": 0, "votes_count": 0, "ships_count": 0, "projects": [], "coding_time_seconds": 0, "coding_time_seconds_today": 0, "balance": "You need to have a pocket watcher badge to view this.", "badges": [], "created_at": "2025-07-23T21:01:04.322-04:00", "updated_at": "2025-07-23T21:42:18.127-04:00", "avatar": "https://avatars.slack-edge.com/2025-07-23/9230541217127_cb72bb2d665134e29659_original.jpg", "custom_css": null}, {"id": 18790, "slack_id": "U097LTT2TND", "display_name": "Noelia GAP", "bio": null, "projects_count": 0, "devlogs_count": 0, "votes_count": 0, "ships_count": 0, "projects": [], "coding_time_seconds": 0, "coding_time_seconds_today": 0, "balance": "You need to have a pocket watcher badge to view this.", "badges": [], "created_at": "2025-07-23T21:23:53.215-04:00", "updated_at": "2025-07-29T03:03:32.090-04:00", "avatar": "https://secure.gravatar.com/avatar/fcab0be136daa90c2c941d1ebcac57b4.jpg?s=512&d=https%3A%2F%2Fa.slack-edge.com%2Fdf10d%2Fimg%2Favatars%2Fava_0019-512.png", "custom_css": null}, {"id": 18791, "slack_id": "U096UM2QEJ1", "display_name": "Jerome", "bio": null, "projects_count": 0, "devlogs_count": 0, "votes_count": 0, "ships_count": 0, "projects": [], "coding_time_seconds": 646440, "coding_time_seconds_today": 2294, "balance": "You need to have a pocket watcher badge to view this.", "badges": [], "created_at": "2025-07-23T21:26:23.600-04:00", "updated_at": "2025-07-31T11:05:00.196-04:00", "avatar": "https://secure.gravatar.com/avatar/d5a57bcfa8f06b00ec7e58eb2e9bdc33.jpg?s=512&d=https%3A%2F%2Fa.slack-edge.com%2Fdf10d%2Fimg%2Favatars%2Fava_0012-512.png", "custom_css": null}, {"id": 18792, "slack_id": "U0978U9GY2G", "display_name": "Carlos Pinheiro", "bio": null, "projects_count": 0, "devlogs_count": 0, "votes_count": 0, "ships_count": 0, "projects": [], "coding_time_seconds": 89877, "coding_time_seconds_today": 0, "balance": "You need to have a pocket watcher badge to view this.", "badges": [], "created_at": "2025-07-23T21:33:03.783-04:00", "updated_at": "2025-07-24T03:40:51.613-04:00", "avatar": "https://secure.gravatar.com/avatar/66a279aff9e08f5fbd50ca1815881169.jpg?s=512&d=https%3A%2F%2Fa.slack-edge.com%2Fdf10d%2Fimg%2Favatars%2Fava_0012-512.png", "custom_css": null}, {"id": 18793, "slack_id": "U0978URJQFN", "display_name": "Ale", "bio": null, "projects_count": 0, "devlogs_count": 0, "votes_count": 0, "ships_count": 0, "projects": [], "coding_time_seconds": 0, "coding_time_seconds_today": 0, "balance": "You need to have a pocket watcher badge to view this.", "badges": [], "created_at": "2025-07-23T21:37:01.156-04:00", "updated_at": "2025-07-24T03:40:51.710-04:00", "avatar": "https://secure.gravatar.com/avatar/09119cd7ce702f448b2ff8bcdea7e964.jpg?s=512&d=https%3A%2F%2Fa.slack-edge.com%2Fdf10d%2Fimg%2Favatars%2Fava_0007-512.png", "custom_css": null}, {"id": 18794, "slack_id": "U081LUCMD4K", "display_name": "Lahari", "bio": null, "projects_count": 2, "devlogs_count": 2, "votes_count": 1, "ships_count": 2, "projects": [{"id": 8141, "title": "Pokedex", "devlogs_count": 1, "created_at": "2025-07-24T22:02:07.555-04:00"}, {"id": 10078, "title": "RWCC", "devlogs_count": 1, "created_at": "2025-08-03T22:19:23.042-04:00"}], "coding_time_seconds": 20625, "coding_time_seconds_today": 0, "balance": "You need to have a pocket watcher badge to view this.", "badges": [], "created_at": "2025-07-23T21:37:14.774-04:00", "updated_at": "2025-07-25T09:45:08.436-04:00", "avatar": "https://avatars.slack-edge.com/2024-11-19/8055061441954_83f6c994ab392b85060f_original.png", "custom_css": null}, {"id": 18795, "slack_id": "U097K8TB1UZ", "display_name": "vikash", "bio": null, "projects_count": 0, "devlogs_count": 0, "votes_count": 0, "ships_count": 0, "projects": [], "coding_time_seconds": 0, "coding_time_seconds_today": 0, "balance": "You need to have a pocket watcher badge to view this.", "badges": [], "created_at": "2025-07-23T21:38:07.367-04:00", "updated_at": "2025-07-24T03:40:51.850-04:00", "avatar": "https://secure.gravatar.com/avatar/c2568c5fb1d02d9ba2baeb68784685c4.jpg?s=512&d=https%3A%2F%2Fa.slack-edge.com%2Fdf10d%2Fimg%2Favatars%2Fava_0010-512.png", "custom_css": null}, {"id": 18796, "slack_id": "U09773JFD60", "display_name": "Rehan Abrar", "bio": null, "projects_count": 1, "devlogs_count": 0, "votes_count": 1, "ships_count": 0, "projects": [{"id": 8050, "title": "Portfolio", "devlogs_count": 0, "created_at": "2025-07-24T09:49:23.706-04:00"}], "coding_time_seconds": 40417, "coding_time_seconds_today": 0, "balance": "You need to have a pocket watcher badge to view this.", "badges": [], "created_at": "2025-07-23T21:39:49.445-04:00", "updated_at": "2025-07-24T09:34:50.571-04:00", "avatar": "https://secure.gravatar.com/avatar/90ce0575277f950d120e1965a15fa558.jpg?s=512&d=https%3A%2F%2Fa.slack-edge.com%2Fdf10d%2Fimg%2Favatars%2Fava_0025-512.png", "custom_css": null}, {"id": 18797, "slack_id": "U0978UW2M5J", "display_name": "Thinh Phan", "bio": null, "projects_count": 0, "devlogs_count": 0, "votes_count": 0, "ships_count": 0, "projects": [], "coding_time_seconds": 0, "coding_time_seconds_today": 0, "balance": "You need to have a pocket watcher badge to view this.", "badges": [], "created_at": "2025-07-23T21:41:49.937-04:00", "updated_at": "2025-07-26T07:59:20.170-04:00", "avatar": "https://secure.gravatar.com/avatar/540ddd86fb65bea446acb9521b5587d1.jpg?s=512&d=https%3A%2F%2Fa.slack-edge.com%2Fdf10d%2Fimg%2Favatars%2Fava_0007-512.png", "custom_css": null}, {"id": 18798, "slack_id": "U0972M59075", "display_name": "Udhayan Sundarapandian", "bio": null, "projects_count": 0, "devlogs_count": 0, "votes_count": 0, "ships_count": 0, "projects": [], "coding_time_seconds": 7369, "coding_time_seconds_today": 0, "balance": "You need to have a pocket watcher badge to view this.", "badges": [], "created_at": "2025-07-23T21:54:12.166-04:00", "updated_at": "2025-07-26T15:05:28.730-04:00", "avatar": "https://avatars.slack-edge.com/2025-07-23/9244267989237_2245f989183835dfec30_original.png", "custom_css": null}, {"id": 18799, "slack_id": "U0974VDK094", "display_name": "Srinath Sankar", "bio": null, "projects_count": 3, "devlogs_count": 5, "votes_count": 0, "ships_count": 0, "projects": [{"id": 8135, "title": "Book writer thingimajig", "devlogs_count": 4, "created_at": "2025-07-24T20:33:05.643-04:00"}, {"id": 13672, "title": "Pong Game", "devlogs_count": 1, "created_at": "2025-09-22T12:03:37.233-04:00"}, {"id": 13361, "title": "Wordle with pygame", "devlogs_count": 0, "created_at": "2025-09-14T14:11:21.002-04:00"}], "coding_time_seconds": 70633, "coding_time_seconds_today": 0, "balance": "You need to have a pocket watcher badge to view this.", "badges": [], "created_at": "2025-07-23T21:54:12.416-04:00", "updated_at": "2025-08-17T18:51:14.656-04:00", "avatar": "https://secure.gravatar.com/avatar/2619ba5708ac2d95bcb9ed925f33ddfd.jpg?s=512&d=https%3A%2F%2Fa.slack-edge.com%2Fdf10d%2Fimg%2Favatars%2Fava_0011-512.png", "custom_css": null}, {"id": 18800, "slack_id": "U097931FKNY", "display_name": "Somesh Talligeri", "bio": null, "projects_count": 0, "devlogs_count": 0, "votes_count": 0, "ships_count": 0, "projects": [], "coding_time_seconds": 0, "coding_time_seconds_today": 0, "balance": "You need to have a pocket watcher badge to view this.", "badges": [], "created_at": "2025-07-23T22:21:06.119-04:00", "updated_at": "2025-07-24T03:40:56.354-04:00", "avatar": "https://avatars.slack-edge.com/2025-07-23/9259262570113_fd28d76bcac1245dd894_original.png", "custom_css": null}, {"id": 18801, "slack_id": "U0972PZMTA7", "display_name": "Paulo Blazquez", "bio": null, "projects_count": 0, "devlogs_count": 0, "votes_count": 0, "ships_count": 0, "projects": [], "coding_time_seconds": 0, "coding_time_seconds_today": 0, "balance": "You need to have a pocket watcher badge to view this.", "badges": [], "created_at": "2025-07-23T22:22:46.755-04:00", "updated_at": "2025-07-24T03:41:00.480-04:00", "avatar": "https://secure.gravatar.com/avatar/ce0cd06980bb7c9c57986b0c3b8c8bde.jpg?s=512&d=https%3A%2F%2Fa.slack-edge.com%2Fdf10d%2Fimg%2Favatars%2Fava_0008-512.png", "custom_css": null}, {"id": 18802, "slack_id": "U097M7V7VL1", "display_name": "Nabila", "bio": null, "projects_count": 0, "devlogs_count": 0, "votes_count": 0, "ships_count": 0, "projects": [], "coding_time_seconds": 62, "coding_time_seconds_today": 0, "balance": "You need to have a pocket watcher badge to view this.", "badges": [], "created_at": "2025-07-23T22:26:48.412-04:00", "updated_at": "2025-07-24T03:41:00.565-04:00", "avatar": "https://secure.gravatar.com/avatar/e241f857f479226d75aeaf20de3adf90.jpg?s=512&d=https%3A%2F%2Fa.slack-edge.com%2Fdf10d%2Fimg%2Favatars%2Fava_0003-512.png", "custom_css": null}, {"id": 18803, "slack_id": "U096SPMMFL7", "display_name": "dylan", "bio": null, "projects_count": 0, "devlogs_count": 0, "votes_count": 0, "ships_count": 0, "projects": [], "coding_time_seconds": 44329, "coding_time_seconds_today": 0, "balance": "You need to have a pocket watcher badge to view this.", "badges": [], "created_at": "2025-07-23T22:28:19.221-04:00", "updated_at": "2025-07-25T10:26:24.268-04:00", "avatar": "https://secure.gravatar.com/avatar/9fdc32d9d11240869b81cf0bdb7dcd05.jpg?s=512&d=https%3A%2F%2Fa.slack-edge.com%2Fdf10d%2Fimg%2Favatars%2Fava_0012-512.png", "custom_css": null}, {"id": 18804, "slack_id": "U08R5KS1XBR", "display_name": "SwastikALT", "bio": null, "projects_count": 0, "devlogs_count": 0, "votes_count": 0, "ships_count": 0, "projects": [], "coding_time_seconds": 0, "coding_time_seconds_today": 0, "balance": "You need to have a pocket watcher badge to view this.", "badges": [], "created_at": "2025-07-23T22:30:18.318-04:00", "updated_at": "2025-07-23T22:30:33.160-04:00", "avatar": "https://secure.gravatar.com/avatar/1cd39694fb3f9cd1179874b806da9d56.jpg?s=512&d=https%3A%2F%2Fa.slack-edge.com%2Fdf10d%2Fimg%2Favatars%2Fava_0005-512.png", "custom_css": null}, {"id": 18805, "slack_id": "U09794GHB3N", "display_name": "Hannah Compton", "bio": null, "projects_count": 0, "devlogs_count": 0, "votes_count": 0, "ships_count": 0, "projects": [], "coding_time_seconds": 0, "coding_time_seconds_today": 0, "balance": "You need to have a pocket watcher badge to view this.", "badges": [], "created_at": "2025-07-23T22:35:28.425-04:00", "updated_at": "2025-07-24T03:41:00.825-04:00", "avatar": "https://secure.gravatar.com/avatar/bb6653a7676ada1bcc254ac41e9dd7f1.jpg?s=512&d=https%3A%2F%2Fa.slack-edge.com%2Fdf10d%2Fimg%2Favatars%2Fava_0011-512.png", "custom_css": null}], "pagination": {"page": 936, "pages": 1192, "count": 23828, "items": 20}}