{"users": [{"id": 18806, "slack_id": "U097M7N1FNV", "display_name": "Sky", "bio": "Hey I am Sky from Nepal, i love coding. My Goal is to get Baofeng and Raspberry pi 5", "projects_count": 1, "devlogs_count": 0, "votes_count": 0, "ships_count": 0, "projects": [{"id": 9661, "title": "TechStack", "devlogs_count": 0, "created_at": "2025-08-02T01:36:09.431-04:00"}], "coding_time_seconds": 28911, "coding_time_seconds_today": 0, "balance": "You need to have a pocket watcher badge to view this.", "badges": [], "created_at": "2025-07-23T22:35:38.615-04:00", "updated_at": "2025-07-26T09:24:05.453-04:00", "avatar": "https://avatars.slack-edge.com/2025-07-25/9251781884886_f0429397c5e20e3de0bf_original.jpg", "custom_css": null}, {"id": 18807, "slack_id": "U097543ULB0", "display_name": "Neel", "bio": null, "projects_count": 0, "devlogs_count": 0, "votes_count": 0, "ships_count": 0, "projects": [], "coding_time_seconds": 4919, "coding_time_seconds_today": 0, "balance": "You need to have a pocket watcher badge to view this.", "badges": [], "created_at": "2025-07-23T22:35:50.679-04:00", "updated_at": "2025-08-11T23:50:48.811-04:00", "avatar": "https://secure.gravatar.com/avatar/13ac4ca0c2821ddf675ebadb1f21c210.jpg?s=512&d=https%3A%2F%2Fa.slack-edge.com%2Fdf10d%2Fimg%2Favatars%2Fava_0023-512.png", "custom_css": null}, {"id": 18808, "slack_id": "U0972RKHX1R", "display_name": "Priyanka", "bio": null, "projects_count": 0, "devlogs_count": 0, "votes_count": 0, "ships_count": 0, "projects": [], "coding_time_seconds": 0, "coding_time_seconds_today": 0, "balance": "You need to have a pocket watcher badge to view this.", "badges": [], "created_at": "2025-07-23T22:39:13.834-04:00", "updated_at": "2025-07-24T03:41:01.097-04:00", "avatar": "https://avatars.slack-edge.com/2025-07-23/9246117470866_ac2cc9a3c566a9b4e936_original.png", "custom_css": null}, {"id": 18809, "slack_id": "U097M98LVRP", "display_name": "Jyothirmayi Seelam", "bio": null, "projects_count": 0, "devlogs_count": 0, "votes_count": 0, "ships_count": 0, "projects": [], "coding_time_seconds": 0, "coding_time_seconds_today": 0, "balance": "You need to have a pocket watcher badge to view this.", "badges": [], "created_at": "2025-07-23T22:42:27.701-04:00", "updated_at": "2025-08-13T23:56:20.864-04:00", "avatar": "https://avatars.slack-edge.com/2025-07-23/9243170148646_428d0f721eb388712ab0_original.jpg", "custom_css": null}, {"id": 18810, "slack_id": "U09754DSCHL", "display_name": "saikat", "bio": null, "projects_count": 0, "devlogs_count": 0, "votes_count": 0, "ships_count": 0, "projects": [], "coding_time_seconds": 0, "coding_time_seconds_today": 0, "balance": "You need to have a pocket watcher badge to view this.", "badges": [], "created_at": "2025-07-23T22:43:37.745-04:00", "updated_at": "2025-07-24T03:41:01.262-04:00", "avatar": "https://avatars.slack-edge.com/2025-07-24/9246154454722_61076f0832c818342f67_original.jpg", "custom_css": null}, {"id": 18811, "slack_id": "U06PZVA40CE", "display_name": "Flavius", "bio": null, "projects_count": 1, "devlogs_count": 4, "votes_count": 6, "ships_count": 0, "projects": [{"id": 7984, "title": "Larumi Lamp", "devlogs_count": 4, "created_at": "2025-07-23T23:14:41.893-04:00"}], "coding_time_seconds": 34254, "coding_time_seconds_today": 449, "balance": "You need to have a pocket watcher badge to view this.", "badges": [], "created_at": "2025-07-23T22:44:35.296-04:00", "updated_at": "2025-08-12T22:11:27.636-04:00", "avatar": "https://avatars.slack-edge.com/2024-04-17/6974648063795_3815a6a321e84afcfacc_original.png", "custom_css": null}, {"id": 18812, "slack_id": "U097HCQUGKS", "display_name": "venkatesh", "bio": null, "projects_count": 0, "devlogs_count": 0, "votes_count": 0, "ships_count": 0, "projects": [], "coding_time_seconds": 25049, "coding_time_seconds_today": 0, "balance": "You need to have a pocket watcher badge to view this.", "badges": [], "created_at": "2025-07-23T22:46:55.312-04:00", "updated_at": "2025-07-24T03:41:01.438-04:00", "avatar": "https://secure.gravatar.com/avatar/3110cd84d9ec935e53c5e97d6a619f35.jpg?s=512&d=https%3A%2F%2Fa.slack-edge.com%2Fdf10d%2Fimg%2Favatars%2Fava_0020-512.png", "custom_css": null}, {"id": 18813, "slack_id": "U08RCGPR4B0", "display_name": "Jorge Felipe", "bio": null, "projects_count": 2, "devlogs_count": 4, "votes_count": 2, "ships_count": 1, "projects": [{"id": 8652, "title": "Le Garde Manger", "devlogs_count": 4, "created_at": "2025-07-28T19:16:38.811-04:00"}, {"id": 8653, "title": "Stardew Fishing", "devlogs_count": 0, "created_at": "2025-07-28T19:17:59.413-04:00"}], "coding_time_seconds": 4172, "coding_time_seconds_today": 0, "balance": "You need to have a pocket watcher badge to view this.", "badges": [], "created_at": "2025-07-23T22:47:21.950-04:00", "updated_at": "2025-07-24T19:29:47.828-04:00", "avatar": "https://secure.gravatar.com/avatar/d2de6db514b6eb880506de8ed29414b7.jpg?s=512&d=https%3A%2F%2Fa.slack-edge.com%2Fdf10d%2Fimg%2Favatars%2Fava_0013-512.png", "custom_css": null}, {"id": 18814, "slack_id": "U09795SFKNY", "display_name": "Hafiz Muhammad Faizan", "bio": null, "projects_count": 0, "devlogs_count": 0, "votes_count": 0, "ships_count": 0, "projects": [], "coding_time_seconds": 0, "coding_time_seconds_today": 0, "balance": "You need to have a pocket watcher badge to view this.", "badges": [], "created_at": "2025-07-23T22:48:57.609-04:00", "updated_at": "2025-07-24T03:41:01.650-04:00", "avatar": "https://avatars.slack-edge.com/2025-07-24/9259351082641_56adfe0763880d34c4a6_original.jpg", "custom_css": null}, {"id": 18815, "slack_id": "U07BV1R8GP3", "display_name": "sosenteam", "bio": null, "projects_count": 0, "devlogs_count": 0, "votes_count": 1, "ships_count": 0, "projects": [], "coding_time_seconds": 18320, "coding_time_seconds_today": 0, "balance": "You need to have a pocket watcher badge to view this.", "badges": [], "created_at": "2025-07-23T22:56:44.142-04:00", "updated_at": "2025-07-25T10:27:46.290-04:00", "avatar": "https://avatars.slack-edge.com/2024-07-08/7390304784739_7fbd427c091db89925f5_original.png", "custom_css": null}, {"id": 18816, "slack_id": "U097WC5CKSL", "display_name": "Nolan", "bio": null, "projects_count": 0, "devlogs_count": 0, "votes_count": 0, "ships_count": 0, "projects": [], "coding_time_seconds": 0, "coding_time_seconds_today": 0, "balance": "You need to have a pocket watcher badge to view this.", "badges": [], "created_at": "2025-07-23T23:03:35.961-04:00", "updated_at": "2025-07-24T03:41:01.852-04:00", "avatar": "https://secure.gravatar.com/avatar/e08b3f2e05ffd89ef04eba5264c6476e.jpg?s=512&d=https%3A%2F%2Fa.slack-edge.com%2Fdf10d%2Fimg%2Favatars%2Fava_0008-512.png", "custom_css": null}, {"id": 18817, "slack_id": "U096VGSG5GW", "display_name": "Moksh Dudeja", "bio": null, "projects_count": 0, "devlogs_count": 0, "votes_count": 0, "ships_count": 0, "projects": [], "coding_time_seconds": 0, "coding_time_seconds_today": 0, "balance": "You need to have a pocket watcher badge to view this.", "badges": [], "created_at": "2025-07-23T23:07:29.402-04:00", "updated_at": "2025-08-02T05:05:18.845-04:00", "avatar": "https://secure.gravatar.com/avatar/8df239ad37e0695fc7e5b3e4292ce3a1.jpg?s=512&d=https%3A%2F%2Fa.slack-edge.com%2Fdf10d%2Fimg%2Favatars%2Fava_0016-512.png", "custom_css": null}, {"id": 18818, "slack_id": "U09785TCFQA", "display_name": "E", "bio": null, "projects_count": 0, "devlogs_count": 0, "votes_count": 0, "ships_count": 0, "projects": [], "coding_time_seconds": 0, "coding_time_seconds_today": 0, "balance": "You need to have a pocket watcher badge to view this.", "badges": [], "created_at": "2025-07-23T23:10:16.541-04:00", "updated_at": "2025-07-24T03:41:02.140-04:00", "avatar": "https://secure.gravatar.com/avatar/2c7f8470d389597b577980032f1628ed.jpg?s=512&d=https%3A%2F%2Fa.slack-edge.com%2Fdf10d%2Fimg%2Favatars%2Fava_0007-512.png", "custom_css": null}, {"id": 18819, "slack_id": "U096W8CAD36", "display_name": "Adi", "bio": null, "projects_count": 0, "devlogs_count": 0, "votes_count": 0, "ships_count": 0, "projects": [], "coding_time_seconds": 0, "coding_time_seconds_today": 0, "balance": "You need to have a pocket watcher badge to view this.", "badges": [], "created_at": "2025-07-23T23:11:10.383-04:00", "updated_at": "2025-07-24T03:41:02.242-04:00", "avatar": "https://secure.gravatar.com/avatar/28b2124e8c5488f867245d16bf3e6947.jpg?s=512&d=https%3A%2F%2Fa.slack-edge.com%2Fdf10d%2Fimg%2Favatars%2Fava_0002-512.png", "custom_css": null}, {"id": 18820, "slack_id": "U096ZPXRFR8", "display_name": "Abhishek Raj", "bio": null, "projects_count": 0, "devlogs_count": 0, "votes_count": 0, "ships_count": 0, "projects": [], "coding_time_seconds": 0, "coding_time_seconds_today": 0, "balance": "You need to have a pocket watcher badge to view this.", "badges": [], "created_at": "2025-07-23T23:14:12.321-04:00", "updated_at": "2025-07-24T03:41:06.378-04:00", "avatar": "https://secure.gravatar.com/avatar/a6ab514f478b4c81ee253bb996eba44c.jpg?s=512&d=https%3A%2F%2Fa.slack-edge.com%2Fdf10d%2Fimg%2Favatars%2Fava_0022-512.png", "custom_css": null}, {"id": 18821, "slack_id": "U0975PTA3BN", "display_name": "Unaiz", "bio": null, "projects_count": 0, "devlogs_count": 0, "votes_count": 0, "ships_count": 0, "projects": [], "coding_time_seconds": 0, "coding_time_seconds_today": 0, "balance": "You need to have a pocket watcher badge to view this.", "badges": [], "created_at": "2025-07-23T23:15:50.324-04:00", "updated_at": "2025-07-24T03:41:06.470-04:00", "avatar": "https://avatars.slack-edge.com/2025-07-23/9247282582868_28d3dc24886240599b35_original.jpg", "custom_css": null}, {"id": 18822, "slack_id": "U09757TSVUN", "display_name": "Amin", "bio": null, "projects_count": 0, "devlogs_count": 0, "votes_count": 0, "ships_count": 0, "projects": [], "coding_time_seconds": 6768, "coding_time_seconds_today": 0, "balance": "You need to have a pocket watcher badge to view this.", "badges": [], "created_at": "2025-07-23T23:16:43.264-04:00", "updated_at": "2025-07-27T20:17:08.020-04:00", "avatar": "https://secure.gravatar.com/avatar/32afe005d59de57020008cbd5e5b4407.jpg?s=512&d=https%3A%2F%2Fa.slack-edge.com%2Fdf10d%2Fimg%2Favatars%2Fava_0024-512.png", "custom_css": null}, {"id": 18823, "slack_id": "U096W3G2Z9S", "display_name": "Nagendra Sriram", "bio": null, "projects_count": 0, "devlogs_count": 0, "votes_count": 0, "ships_count": 0, "projects": [], "coding_time_seconds": 0, "coding_time_seconds_today": 0, "balance": "You need to have a pocket watcher badge to view this.", "badges": [], "created_at": "2025-07-23T23:18:13.257-04:00", "updated_at": "2025-07-24T03:41:06.637-04:00", "avatar": "https://secure.gravatar.com/avatar/255d47d6f1f6364b63a8e3775797b217.jpg?s=512&d=https%3A%2F%2Fa.slack-edge.com%2Fdf10d%2Fimg%2Favatars%2Fava_0001-512.png", "custom_css": null}, {"id": 18824, "slack_id": "U096SV3GJR5", "display_name": "HarmonicBroom02", "bio": null, "projects_count": 0, "devlogs_count": 0, "votes_count": 0, "ships_count": 0, "projects": [], "coding_time_seconds": 0, "coding_time_seconds_today": 0, "balance": "You need to have a pocket watcher badge to view this.", "badges": [], "created_at": "2025-07-23T23:36:08.618-04:00", "updated_at": "2025-07-24T10:35:02.813-04:00", "avatar": "https://avatars.slack-edge.com/2025-07-24/9246024482581_ba5a3de8092552a81ffd_original.png", "custom_css": null}, {"id": 18825, "slack_id": "U09787Y0BLJ", "display_name": "Seemi Kumari", "bio": null, "projects_count": 0, "devlogs_count": 0, "votes_count": 0, "ships_count": 0, "projects": [], "coding_time_seconds": 0, "coding_time_seconds_today": 0, "balance": "You need to have a pocket watcher badge to view this.", "badges": [], "created_at": "2025-07-23T23:36:11.394-04:00", "updated_at": "2025-07-24T03:41:06.857-04:00", "avatar": "https://avatars.slack-edge.com/2025-07-23/9246286583202_3082d00c2ab1a2542031_original.jpg", "custom_css": null}], "pagination": {"page": 937, "pages": 1192, "count": 23828, "items": 20}}