{"users": [{"id": 18826, "slack_id": "U09759EHSUE", "display_name": "Chengyao Jiang (Edward)", "bio": null, "projects_count": 0, "devlogs_count": 0, "votes_count": 0, "ships_count": 0, "projects": [], "coding_time_seconds": 144814, "coding_time_seconds_today": 0, "balance": "You need to have a pocket watcher badge to view this.", "badges": [], "created_at": "2025-07-23T23:38:20.964-04:00", "updated_at": "2025-07-28T20:42:03.064-04:00", "avatar": "https://avatars.slack-edge.com/2025-07-23/9259485713057_a295dd4db0355e604ffe_original.png", "custom_css": null}, {"id": 18827, "slack_id": "U09731UQQJX", "display_name": "Stack-dev-expert", "bio": null, "projects_count": 0, "devlogs_count": 0, "votes_count": 0, "ships_count": 0, "projects": [], "coding_time_seconds": 0, "coding_time_seconds_today": 0, "balance": "You need to have a pocket watcher badge to view this.", "badges": [], "created_at": "2025-07-23T23:44:55.660-04:00", "updated_at": "2025-08-19T16:16:50.270-04:00", "avatar": "https://secure.gravatar.com/avatar/fe86c55b2d6537ab4f80e811e2832fdd.jpg?s=512&d=https%3A%2F%2Fa.slack-edge.com%2Fdf10d%2Fimg%2Favatars%2Fava_0025-512.png", "custom_css": null}, {"id": 18828, "slack_id": "U096T31P3DK", "display_name": "Akshat", "bio": null, "projects_count": 0, "devlogs_count": 0, "votes_count": 0, "ships_count": 0, "projects": [], "coding_time_seconds": 0, "coding_time_seconds_today": 0, "balance": "You need to have a pocket watcher badge to view this.", "badges": [], "created_at": "2025-07-23T23:45:54.154-04:00", "updated_at": "2025-07-28T23:28:57.957-04:00", "avatar": "https://secure.gravatar.com/avatar/f6549903587747f5f3d8211ecf78295d.jpg?s=512&d=https%3A%2F%2Fa.slack-edge.com%2Fdf10d%2Fimg%2Favatars%2Fava_0004-512.png", "custom_css": null}, {"id": 18829, "slack_id": "U0975A0Q2G6", "display_name": "\u00c1lvaro Toro Martinez", "bio": null, "projects_count": 0, "devlogs_count": 0, "votes_count": 0, "ships_count": 0, "projects": [], "coding_time_seconds": 0, "coding_time_seconds_today": 0, "balance": "You need to have a pocket watcher badge to view this.", "badges": [], "created_at": "2025-07-23T23:46:45.669-04:00", "updated_at": "2025-08-02T11:19:28.126-04:00", "avatar": "https://avatars.slack-edge.com/2025-07-23/9243355497414_676a95796102dc68c549_original.jpg", "custom_css": null}, {"id": 18830, "slack_id": "U0976HV4W3F", "display_name": "Manoj oli", "bio": null, "projects_count": 0, "devlogs_count": 0, "votes_count": 0, "ships_count": 0, "projects": [], "coding_time_seconds": 12827, "coding_time_seconds_today": 0, "balance": "You need to have a pocket watcher badge to view this.", "badges": [], "created_at": "2025-07-23T23:48:42.921-04:00", "updated_at": "2025-07-24T03:41:07.376-04:00", "avatar": "https://secure.gravatar.com/avatar/036bc9fe59e378afa7d2873dd710e6ac.jpg?s=512&d=https%3A%2F%2Fa.slack-edge.com%2Fdf10d%2Fimg%2Favatars%2Fava_0013-512.png", "custom_css": null}, {"id": 18831, "slack_id": "U08207SM83G", "display_name": "Parin Khurana", "bio": null, "projects_count": 0, "devlogs_count": 0, "votes_count": 0, "ships_count": 0, "projects": [], "coding_time_seconds": 0, "coding_time_seconds_today": 0, "balance": "You need to have a pocket watcher badge to view this.", "badges": [], "created_at": "2025-07-23T23:48:43.959-04:00", "updated_at": "2025-09-15T13:58:58.504-04:00", "avatar": "https://avatars.slack-edge.com/2025-08-08/9325443457525_b0c1206b4ba21354f078_original.png", "custom_css": null}, {"id": 18832, "slack_id": "U096SUB0XGF", "display_name": "Pranav", "bio": null, "projects_count": 0, "devlogs_count": 0, "votes_count": 0, "ships_count": 0, "projects": [], "coding_time_seconds": 183282, "coding_time_seconds_today": 3141, "balance": "You need to have a pocket watcher badge to view this.", "badges": [], "created_at": "2025-07-23T23:49:38.519-04:00", "updated_at": "2025-07-24T03:41:07.595-04:00", "avatar": "https://secure.gravatar.com/avatar/e1ff650bb927fb82f76d06e872dc9b76.jpg?s=512&d=https%3A%2F%2Fa.slack-edge.com%2Fdf10d%2Fimg%2Favatars%2Fava_0023-512.png", "custom_css": null}, {"id": 18833, "slack_id": "U097MERG48H", "display_name": "Vishal Singh", "bio": null, "projects_count": 0, "devlogs_count": 0, "votes_count": 0, "ships_count": 0, "projects": [], "coding_time_seconds": 0, "coding_time_seconds_today": 0, "balance": "You need to have a pocket watcher badge to view this.", "badges": [], "created_at": "2025-07-23T23:49:56.518-04:00", "updated_at": "2025-07-26T13:15:42.202-04:00", "avatar": "https://secure.gravatar.com/avatar/82000a0b14308742534beb3f1cfb200a.jpg?s=512&d=https%3A%2F%2Fa.slack-edge.com%2Fdf10d%2Fimg%2Favatars%2Fava_0000-512.png", "custom_css": null}, {"id": 18834, "slack_id": "U097WFWJPEU", "display_name": "Ronaldo P", "bio": null, "projects_count": 0, "devlogs_count": 0, "votes_count": 0, "ships_count": 0, "projects": [], "coding_time_seconds": 0, "coding_time_seconds_today": 0, "balance": "You need to have a pocket watcher badge to view this.", "badges": [], "created_at": "2025-07-23T23:50:27.048-04:00", "updated_at": "2025-07-24T03:41:07.816-04:00", "avatar": "https://secure.gravatar.com/avatar/0743cc9d38afb0b3b2d2f72b3b87c398.jpg?s=512&d=https%3A%2F%2Fa.slack-edge.com%2Fdf10d%2Fimg%2Favatars%2Fava_0005-512.png", "custom_css": null}, {"id": 18835, "slack_id": "U07U5DJ4DGX", "display_name": "Harsh", "bio": null, "projects_count": 0, "devlogs_count": 0, "votes_count": 0, "ships_count": 0, "projects": [], "coding_time_seconds": 0, "coding_time_seconds_today": 0, "balance": "You need to have a pocket watcher badge to view this.", "badges": [], "created_at": "2025-07-23T23:53:01.534-04:00", "updated_at": "2025-07-24T04:55:29.755-04:00", "avatar": "https://secure.gravatar.com/avatar/a2fd4a1a5321bda6bb3fcf5d67e2fde5.jpg?s=512&d=https%3A%2F%2Fa.slack-edge.com%2Fdf10d%2Fimg%2Favatars%2Fava_0022-512.png", "custom_css": null}, {"id": 18836, "slack_id": "U097WGAJYAU", "display_name": "Nathan C.", "bio": null, "projects_count": 0, "devlogs_count": 0, "votes_count": 0, "ships_count": 0, "projects": [], "coding_time_seconds": 0, "coding_time_seconds_today": 0, "balance": "You need to have a pocket watcher badge to view this.", "badges": [], "created_at": "2025-07-23T23:54:26.999-04:00", "updated_at": "2025-07-24T03:41:08.027-04:00", "avatar": "https://avatars.slack-edge.com/2025-07-24/9243376779238_6db5785bceb7a079519a_original.png", "custom_css": null}, {"id": 18837, "slack_id": "U0979BDEBS8", "display_name": "PardhaSai K", "bio": null, "projects_count": 0, "devlogs_count": 0, "votes_count": 0, "ships_count": 0, "projects": [], "coding_time_seconds": 0, "coding_time_seconds_today": 0, "balance": "You need to have a pocket watcher badge to view this.", "badges": [], "created_at": "2025-07-23T23:58:33.357-04:00", "updated_at": "2025-07-24T03:41:08.134-04:00", "avatar": "https://avatars.slack-edge.com/2025-07-23/9244649340149_b94d8a7f30dc414f2649_original.png", "custom_css": null}, {"id": 18838, "slack_id": "U0976JRTF61", "display_name": "Chanaka Eshan", "bio": null, "projects_count": 0, "devlogs_count": 0, "votes_count": 0, "ships_count": 0, "projects": [], "coding_time_seconds": 0, "coding_time_seconds_today": 0, "balance": "You need to have a pocket watcher badge to view this.", "badges": [], "created_at": "2025-07-23T23:59:32.513-04:00", "updated_at": "2025-07-24T03:41:12.259-04:00", "avatar": "https://secure.gravatar.com/avatar/1bffbd16f1bce5a5638bf75f4b9beebc.jpg?s=512&d=https%3A%2F%2Fa.slack-edge.com%2Fdf10d%2Fimg%2Favatars%2Fava_0004-512.png", "custom_css": null}, {"id": 18839, "slack_id": "U097W7J1VFS", "display_name": "Muhammad Ahmed", "bio": null, "projects_count": 0, "devlogs_count": 0, "votes_count": 0, "ships_count": 0, "projects": [], "coding_time_seconds": 0, "coding_time_seconds_today": 0, "balance": "You need to have a pocket watcher badge to view this.", "badges": [], "created_at": "2025-07-24T00:07:09.162-04:00", "updated_at": "2025-07-25T11:42:42.031-04:00", "avatar": "https://secure.gravatar.com/avatar/f3f28ca58559ffb0222b24ad6ffa64c8.jpg?s=512&d=https%3A%2F%2Fa.slack-edge.com%2Fdf10d%2Fimg%2Favatars%2Fava_0005-512.png", "custom_css": null}, {"id": 18840, "slack_id": "U0979D87BTN", "display_name": "Marvis-Clare Asoronye-Ezenwa", "bio": "Passionate about ethical hacking and cybersecurity. I\u2019m a student with a sharp interest in how systems work\u2014and how to make them stronger. Currently learning penetration testing, network defense, and the art of thinking like an attacker. Here to explore, learn, and build skills to protect digital spaces. Future red-teamer or blue-teamer in the making.", "projects_count": 0, "devlogs_count": 0, "votes_count": 0, "ships_count": 0, "projects": [], "coding_time_seconds": 27800, "coding_time_seconds_today": 0, "balance": "You need to have a pocket watcher badge to view this.", "badges": [], "created_at": "2025-07-24T00:17:27.536-04:00", "updated_at": "2025-07-24T10:35:07.990-04:00", "avatar": "https://avatars.slack-edge.com/2025-07-24/9269972383712_eec949ceaf262b8a1cb0_original.png", "custom_css": null}, {"id": 18841, "slack_id": "U0975CM4TC6", "display_name": "Diana", "bio": null, "projects_count": 0, "devlogs_count": 0, "votes_count": 0, "ships_count": 0, "projects": [], "coding_time_seconds": 58170, "coding_time_seconds_today": 0, "balance": "You need to have a pocket watcher badge to view this.", "badges": [], "created_at": "2025-07-24T00:18:57.365-04:00", "updated_at": "2025-07-24T03:41:12.533-04:00", "avatar": "https://secure.gravatar.com/avatar/3b98cbf9fa6a90ee150a2a6a6697d29c.jpg?s=512&d=https%3A%2F%2Fa.slack-edge.com%2Fdf10d%2Fimg%2Favatars%2Fava_0010-512.png", "custom_css": null}, {"id": 18842, "slack_id": "U08SHL8MPCG", "display_name": "Prachi Chaudhary", "bio": null, "projects_count": 1, "devlogs_count": 0, "votes_count": 0, "ships_count": 0, "projects": [{"id": 8062, "title": "Bloom", "devlogs_count": 0, "created_at": "2025-07-24T10:59:12.104-04:00"}], "coding_time_seconds": 4755, "coding_time_seconds_today": 0, "balance": "You need to have a pocket watcher badge to view this.", "badges": [], "created_at": "2025-07-24T00:19:03.333-04:00", "updated_at": "2025-08-09T11:09:29.443-04:00", "avatar": "https://avatars.slack-edge.com/2025-05-11/8881466923490_37e99a32efb2747a2174_original.png", "custom_css": null}, {"id": 18843, "slack_id": "U09734X4MUK", "display_name": "ayush003", "bio": null, "projects_count": 0, "devlogs_count": 0, "votes_count": 0, "ships_count": 0, "projects": [], "coding_time_seconds": 368325, "coding_time_seconds_today": 0, "balance": "You need to have a pocket watcher badge to view this.", "badges": [], "created_at": "2025-07-24T00:19:29.157-04:00", "updated_at": "2025-07-24T03:41:12.711-04:00", "avatar": "https://secure.gravatar.com/avatar/4cae1999b448d4df5ae40130679e36e1.jpg?s=512&d=https%3A%2F%2Fa.slack-edge.com%2Fdf10d%2Fimg%2Favatars%2Fava_0021-512.png", "custom_css": null}, {"id": 18844, "slack_id": "U09734UN25R", "display_name": "Tehreem Mahmood", "bio": null, "projects_count": 0, "devlogs_count": 0, "votes_count": 0, "ships_count": 0, "projects": [], "coding_time_seconds": 0, "coding_time_seconds_today": 0, "balance": "You need to have a pocket watcher badge to view this.", "badges": [], "created_at": "2025-07-24T00:20:09.367-04:00", "updated_at": "2025-07-24T03:41:12.801-04:00", "avatar": "https://avatars.slack-edge.com/2025-07-23/9246416806434_94ac8f3722d653ddb831_original.png", "custom_css": null}, {"id": 18845, "slack_id": "U096T3WQK8X", "display_name": "Sujal Kishore Kumar Talreja", "bio": null, "projects_count": 0, "devlogs_count": 0, "votes_count": 0, "ships_count": 0, "projects": [], "coding_time_seconds": 0, "coding_time_seconds_today": 0, "balance": "You need to have a pocket watcher badge to view this.", "badges": [], "created_at": "2025-07-24T00:26:20.709-04:00", "updated_at": "2025-07-24T03:41:12.893-04:00", "avatar": "https://avatars.slack-edge.com/2025-07-23/9246434481090_c07b34e1c8e644d61939_original.png", "custom_css": null}], "pagination": {"page": 938, "pages": 1192, "count": 23828, "items": 20}}