{"users": [{"id": 18846, "slack_id": "U096T4BLE2K", "display_name": "A", "bio": null, "projects_count": 0, "devlogs_count": 20, "votes_count": 45, "ships_count": 0, "projects": [], "coding_time_seconds": 222807, "coding_time_seconds_today": 0, "balance": "You need to have a pocket watcher badge to view this.", "badges": [], "created_at": "2025-07-24T00:31:16.267-04:00", "updated_at": "2025-08-11T10:44:32.398-04:00", "avatar": "https://avatars.slack-edge.com/2025-07-31/9284741772564_bfc8d5a251ecd7f55644_original.jpg", "custom_css": null}, {"id": 18847, "slack_id": "U097WKFKC0G", "display_name": "Hemant", "bio": null, "projects_count": 0, "devlogs_count": 0, "votes_count": 0, "ships_count": 0, "projects": [], "coding_time_seconds": 10854, "coding_time_seconds_today": 0, "balance": "You need to have a pocket watcher badge to view this.", "badges": [], "created_at": "2025-07-24T00:31:29.608-04:00", "updated_at": "2025-07-24T03:41:13.053-04:00", "avatar": "https://secure.gravatar.com/avatar/95c1c726542b0aba7475c4aa1b835ff8.jpg?s=512&d=https%3A%2F%2Fa.slack-edge.com%2Fdf10d%2Fimg%2Favatars%2Fava_0026-512.png", "custom_css": null}, {"id": 18848, "slack_id": "U097WKQSK3J", "display_name": "Taqadas ur Rehman", "bio": null, "projects_count": 0, "devlogs_count": 0, "votes_count": 0, "ships_count": 0, "projects": [], "coding_time_seconds": 0, "coding_time_seconds_today": 0, "balance": "You need to have a pocket watcher badge to view this.", "badges": [], "created_at": "2025-07-24T00:33:35.997-04:00", "updated_at": "2025-07-24T03:41:13.240-04:00", "avatar": "https://secure.gravatar.com/avatar/bf2aa8b00388ff2e3ce2fe8ecb81c38e.jpg?s=512&d=https%3A%2F%2Fa.slack-edge.com%2Fdf10d%2Fimg%2Favatars%2Fava_0024-512.png", "custom_css": null}, {"id": 18849, "slack_id": "U0975FKMYH4", "display_name": "Devansh Singh", "bio": null, "projects_count": 0, "devlogs_count": 0, "votes_count": 0, "ships_count": 0, "projects": [], "coding_time_seconds": 14381, "coding_time_seconds_today": 0, "balance": "You need to have a pocket watcher badge to view this.", "badges": [], "created_at": "2025-07-24T00:49:38.892-04:00", "updated_at": "2025-07-24T03:41:13.329-04:00", "avatar": "https://secure.gravatar.com/avatar/8d4a083f8d679a99d6e0e242912cc4f0.jpg?s=512&d=https%3A%2F%2Fa.slack-edge.com%2Fdf10d%2Fimg%2Favatars%2Fava_0005-512.png", "custom_css": null}, {"id": 18850, "slack_id": "U096GEUEV7Z", "display_name": "Saikat Roy", "bio": null, "projects_count": 0, "devlogs_count": 0, "votes_count": 0, "ships_count": 0, "projects": [], "coding_time_seconds": 0, "coding_time_seconds_today": 0, "balance": "You need to have a pocket watcher badge to view this.", "badges": [], "created_at": "2025-07-24T00:50:15.184-04:00", "updated_at": "2025-07-24T03:41:13.407-04:00", "avatar": "https://secure.gravatar.com/avatar/c2aea428183218016c8be6d378bc3797.jpg?s=512&d=https%3A%2F%2Fa.slack-edge.com%2Fdf10d%2Fimg%2Favatars%2Fava_0020-512.png", "custom_css": null}, {"id": 18851, "slack_id": "U0976Q3733P", "display_name": "Mansi j", "bio": null, "projects_count": 0, "devlogs_count": 0, "votes_count": 0, "ships_count": 0, "projects": [], "coding_time_seconds": 0, "coding_time_seconds_today": 0, "balance": "You need to have a pocket watcher badge to view this.", "badges": [], "created_at": "2025-07-24T00:58:21.778-04:00", "updated_at": "2025-07-24T03:41:13.494-04:00", "avatar": "https://secure.gravatar.com/avatar/d92479cc96719c7ce06addd2b2db8c80.jpg?s=512&d=https%3A%2F%2Fa.slack-edge.com%2Fdf10d%2Fimg%2Favatars%2Fava_0015-512.png", "custom_css": null}, {"id": 18852, "slack_id": "U0976QKH9NH", "display_name": "yuta", "bio": null, "projects_count": 0, "devlogs_count": 0, "votes_count": 0, "ships_count": 0, "projects": [], "coding_time_seconds": 23198, "coding_time_seconds_today": 0, "balance": "You need to have a pocket watcher badge to view this.", "badges": [], "created_at": "2025-07-24T01:01:07.159-04:00", "updated_at": "2025-07-24T03:41:13.584-04:00", "avatar": "https://secure.gravatar.com/avatar/bf131a77493afe1f97f3cba02560488c.jpg?s=512&d=https%3A%2F%2Fa.slack-edge.com%2Fdf10d%2Fimg%2Favatars%2Fava_0002-512.png", "custom_css": null}, {"id": 18853, "slack_id": "U0976NMQM45", "display_name": "Muhammad Fahad", "bio": null, "projects_count": 0, "devlogs_count": 0, "votes_count": 0, "ships_count": 0, "projects": [], "coding_time_seconds": 0, "coding_time_seconds_today": 0, "balance": "You need to have a pocket watcher badge to view this.", "badges": [], "created_at": "2025-07-24T01:01:59.792-04:00", "updated_at": "2025-07-24T03:41:13.689-04:00", "avatar": "https://avatars.slack-edge.com/2025-07-23/9241310344467_c8dae3676d9cfafe0576_original.jpg", "custom_css": null}, {"id": 18854, "slack_id": "U06TU9N69A8", "display_name": "Aneeko", "bio": null, "projects_count": 0, "devlogs_count": 0, "votes_count": 0, "ships_count": 0, "projects": [], "coding_time_seconds": 0, "coding_time_seconds_today": 0, "balance": "You need to have a pocket watcher badge to view this.", "badges": [], "created_at": "2025-07-24T01:20:34.240-04:00", "updated_at": "2025-07-24T01:41:45.005-04:00", "avatar": "https://avatars.slack-edge.com/2025-01-02/8238960485109_a0d8be4ebdfb444003e3_original.gif", "custom_css": null}, {"id": 18855, "slack_id": "U0976TCF685", "display_name": "Rahul kewat", "bio": null, "projects_count": 0, "devlogs_count": 0, "votes_count": 0, "ships_count": 0, "projects": [], "coding_time_seconds": 8125, "coding_time_seconds_today": 0, "balance": "You need to have a pocket watcher badge to view this.", "badges": [], "created_at": "2025-07-24T01:30:22.527-04:00", "updated_at": "2025-08-10T01:55:42.898-04:00", "avatar": "https://secure.gravatar.com/avatar/52bf9c9f7eca5c4efb7de7dc68dc5468.jpg?s=512&d=https%3A%2F%2Fa.slack-edge.com%2Fdf10d%2Fimg%2Favatars%2Fava_0010-512.png", "custom_css": null}, {"id": 18856, "slack_id": "U097MQ5TPLH", "display_name": "L23CD195 GADDE TARUN KUMAR", "bio": null, "projects_count": 0, "devlogs_count": 0, "votes_count": 0, "ships_count": 0, "projects": [], "coding_time_seconds": 0, "coding_time_seconds_today": 0, "balance": "You need to have a pocket watcher badge to view this.", "badges": [], "created_at": "2025-07-24T01:33:21.021-04:00", "updated_at": "2025-07-24T03:41:13.954-04:00", "avatar": "https://avatars.slack-edge.com/2025-07-23/9259836662401_3b6f572e17965b30395f_original.png", "custom_css": null}, {"id": 18857, "slack_id": "U096SHWN0UV", "display_name": "Brody", "bio": null, "projects_count": 0, "devlogs_count": 0, "votes_count": 0, "ships_count": 0, "projects": [], "coding_time_seconds": 78465, "coding_time_seconds_today": 0, "balance": "You need to have a pocket watcher badge to view this.", "badges": [], "created_at": "2025-07-24T01:37:35.207-04:00", "updated_at": "2025-07-24T12:55:42.630-04:00", "avatar": "https://secure.gravatar.com/avatar/5d6e514c8e5a5fa22a58a2eac144b5ab.jpg?s=512&d=https%3A%2F%2Fa.slack-edge.com%2Fdf10d%2Fimg%2Favatars%2Fava_0001-512.png", "custom_css": null}, {"id": 18858, "slack_id": "U0976UDN1NZ", "display_name": "Aiden", "bio": null, "projects_count": 0, "devlogs_count": 0, "votes_count": 0, "ships_count": 0, "projects": [], "coding_time_seconds": 3583, "coding_time_seconds_today": 0, "balance": "You need to have a pocket watcher badge to view this.", "badges": [], "created_at": "2025-07-24T01:39:11.254-04:00", "updated_at": "2025-07-24T03:41:14.138-04:00", "avatar": "https://secure.gravatar.com/avatar/6647708dd761342557d3df927c96bcb7.jpg?s=512&d=https%3A%2F%2Fa.slack-edge.com%2Fdf10d%2Fimg%2Favatars%2Fava_0018-512.png", "custom_css": null}, {"id": 18859, "slack_id": "U096TAH7VPZ", "display_name": "Hau Chong", "bio": null, "projects_count": 1, "devlogs_count": 0, "votes_count": 0, "ships_count": 0, "projects": [{"id": 8004, "title": "Plan Pulse Agent", "devlogs_count": 0, "created_at": "2025-07-24T01:54:01.116-04:00"}], "coding_time_seconds": 711, "coding_time_seconds_today": 0, "balance": "You need to have a pocket watcher badge to view this.", "badges": [], "created_at": "2025-07-24T01:40:08.142-04:00", "updated_at": "2025-07-24T04:46:35.655-04:00", "avatar": "https://avatars.slack-edge.com/2025-07-23/9246674512034_940482f4d98088c0ec86_original.jpg", "custom_css": null}, {"id": 18860, "slack_id": "U0979LRU8SG", "display_name": "Mohit Mimani", "bio": null, "projects_count": 1, "devlogs_count": 4, "votes_count": 0, "ships_count": 1, "projects": [{"id": 8485, "title": "Gradio", "devlogs_count": 4, "created_at": "2025-07-27T13:31:48.047-04:00"}], "coding_time_seconds": 1269257, "coding_time_seconds_today": 4227, "balance": "You need to have a pocket watcher badge to view this.", "badges": [], "created_at": "2025-07-24T01:40:39.145-04:00", "updated_at": "2025-08-10T04:46:05.939-04:00", "avatar": "https://secure.gravatar.com/avatar/48dabcf8c5552505438caacaa441bcda.jpg?s=512&d=https%3A%2F%2Fa.slack-edge.com%2Fdf10d%2Fimg%2Favatars%2Fava_0024-512.png", "custom_css": null}, {"id": 18861, "slack_id": "U0978KE51D0", "display_name": "Rifqi", "bio": null, "projects_count": 0, "devlogs_count": 0, "votes_count": 0, "ships_count": 0, "projects": [], "coding_time_seconds": 21382, "coding_time_seconds_today": 0, "balance": "You need to have a pocket watcher badge to view this.", "badges": [], "created_at": "2025-07-24T01:41:27.319-04:00", "updated_at": "2025-07-24T03:41:14.400-04:00", "avatar": "https://secure.gravatar.com/avatar/8a7aa35dd1cc3d2723fcd15bfc3135bb.jpg?s=512&d=https%3A%2F%2Fa.slack-edge.com%2Fdf10d%2Fimg%2Favatars%2Fava_0019-512.png", "custom_css": null}, {"id": 18862, "slack_id": "U09770EHLTF", "display_name": "Shahzaib Sardar", "bio": null, "projects_count": 0, "devlogs_count": 0, "votes_count": 0, "ships_count": 0, "projects": [], "coding_time_seconds": 0, "coding_time_seconds_today": 0, "balance": "You need to have a pocket watcher badge to view this.", "badges": [], "created_at": "2025-07-24T01:55:03.687-04:00", "updated_at": "2025-07-24T03:41:14.486-04:00", "avatar": "https://avatars.slack-edge.com/2025-07-23/9231418368423_89c8731916907fdf15f9_original.png", "custom_css": null}, {"id": 18863, "slack_id": "U09770NPZJ9", "display_name": "Sai Jagadeesh Muralikrishnan", "bio": null, "projects_count": 0, "devlogs_count": 0, "votes_count": 0, "ships_count": 0, "projects": [], "coding_time_seconds": 11187, "coding_time_seconds_today": 0, "balance": "You need to have a pocket watcher badge to view this.", "badges": [], "created_at": "2025-07-24T01:56:07.832-04:00", "updated_at": "2025-08-01T23:36:12.060-04:00", "avatar": "https://secure.gravatar.com/avatar/77ab77382be977c95862493b89a39f3b.jpg?s=512&d=https%3A%2F%2Fa.slack-edge.com%2Fdf10d%2Fimg%2Favatars%2Fava_0005-512.png", "custom_css": null}, {"id": 18864, "slack_id": "U097MSHSEHF", "display_name": "Timothy Mugo", "bio": null, "projects_count": 0, "devlogs_count": 0, "votes_count": 0, "ships_count": 0, "projects": [], "coding_time_seconds": 0, "coding_time_seconds_today": 0, "balance": "You need to have a pocket watcher badge to view this.", "badges": [], "created_at": "2025-07-24T01:56:59.093-04:00", "updated_at": "2025-07-24T03:41:14.666-04:00", "avatar": "https://secure.gravatar.com/avatar/83002de7df0a22db28f7c46d3aa7d643.jpg?s=512&d=https%3A%2F%2Fa.slack-edge.com%2Fdf10d%2Fimg%2Favatars%2Fava_0006-512.png", "custom_css": null}, {"id": 18865, "slack_id": "U096LKVP879", "display_name": "Atul Krishna", "bio": null, "projects_count": 0, "devlogs_count": 0, "votes_count": 0, "ships_count": 0, "projects": [], "coding_time_seconds": 0, "coding_time_seconds_today": 0, "balance": "You need to have a pocket watcher badge to view this.", "badges": [], "created_at": "2025-07-24T02:03:46.535-04:00", "updated_at": "2025-07-24T03:41:14.755-04:00", "avatar": "https://secure.gravatar.com/avatar/d9191801af880ec49fae4d8e912f96a7.jpg?s=512&d=https%3A%2F%2Fa.slack-edge.com%2Fdf10d%2Fimg%2Favatars%2Fava_0011-512.png", "custom_css": null}], "pagination": {"page": 939, "pages": 1192, "count": 23828, "items": 20}}