{"users": [{"id": 1861, "slack_id": "U092C9J4L2C", "display_name": "NicholasMaehr", "bio": null, "projects_count": 0, "devlogs_count": 0, "votes_count": 0, "ships_count": 0, "projects": [], "coding_time_seconds": 0, "coding_time_seconds_today": 0, "balance": "You need to have a pocket watcher badge to view this.", "badges": [], "created_at": "2025-06-16T14:09:13.297-04:00", "updated_at": "2025-07-03T19:19:33.897-04:00", "avatar": "https://secure.gravatar.com/avatar/95c4d961c218ba528424c1e96e66e639.jpg?s=512&d=https%3A%2F%2Fa.slack-edge.com%2Fdf10d%2Fimg%2Favatars%2Fava_0020-512.png", "custom_css": null}, {"id": 1862, "slack_id": "U091GTEBKQB", "display_name": "Deepanshu Kumar", "bio": null, "projects_count": 0, "devlogs_count": 0, "votes_count": 0, "ships_count": 0, "projects": [], "coding_time_seconds": 1184, "coding_time_seconds_today": 0, "balance": "You need to have a pocket watcher badge to view this.", "badges": [], "created_at": "2025-06-16T14:09:26.542-04:00", "updated_at": "2025-07-03T19:19:34.167-04:00", "avatar": "https://secure.gravatar.com/avatar/30ccc28df04c0548d04155a7ea37b71b.jpg?s=512&d=https%3A%2F%2Fa.slack-edge.com%2Fdf10d%2Fimg%2Favatars%2Fava_0005-512.png", "custom_css": null}, {"id": 1863, "slack_id": "U07E6T6SDDW", "display_name": "indigo", "bio": null, "projects_count": 2, "devlogs_count": 3, "votes_count": 0, "ships_count": 0, "projects": [{"id": 135, "title": "juggle", "devlogs_count": 0, "created_at": "2025-06-16T14:21:51.684-04:00"}, {"id": 1983, "title": "ros-tools", "devlogs_count": 3, "created_at": "2025-06-19T20:05:57.228-04:00"}], "coding_time_seconds": 28673, "coding_time_seconds_today": 0, "balance": "You need to have a pocket watcher badge to view this.", "badges": [], "created_at": "2025-06-16T14:09:28.914-04:00", "updated_at": "2025-07-03T19:19:34.429-04:00", "avatar": "https://avatars.slack-edge.com/2025-06-19/9077253513090_bee77870912805202ae8_original.jpg", "custom_css": null}, {"id": 1864, "slack_id": "U08SB55SKMW", "display_name": "Jashanpreet Singh Dingra", "bio": null, "projects_count": 0, "devlogs_count": 0, "votes_count": 0, "ships_count": 0, "projects": [], "coding_time_seconds": 0, "coding_time_seconds_today": 0, "balance": "You need to have a pocket watcher badge to view this.", "badges": [], "created_at": "2025-06-16T14:09:50.224-04:00", "updated_at": "2025-07-03T19:19:34.716-04:00", "avatar": "https://avatars.slack-edge.com/2025-05-25/8971379898128_134bfd0a25168660f9ab_original.jpg", "custom_css": null}, {"id": 1865, "slack_id": "U091H16JSCE", "display_name": "PRATIK KUMAR SAHOO", "bio": null, "projects_count": 0, "devlogs_count": 0, "votes_count": 0, "ships_count": 0, "projects": [], "coding_time_seconds": 0, "coding_time_seconds_today": 0, "balance": "You need to have a pocket watcher badge to view this.", "badges": [], "created_at": "2025-06-16T14:09:53.613-04:00", "updated_at": "2025-07-03T19:19:34.978-04:00", "avatar": "https://secure.gravatar.com/avatar/61272368cf9bcd14c92319724243b6d3.jpg?s=512&d=https%3A%2F%2Fa.slack-edge.com%2Fdf10d%2Fimg%2Favatars%2Fava_0007-512.png", "custom_css": null}, {"id": 1866, "slack_id": "U091PS7SUHY", "display_name": "Avi", "bio": null, "projects_count": 0, "devlogs_count": 0, "votes_count": 0, "ships_count": 0, "projects": [], "coding_time_seconds": 0, "coding_time_seconds_today": 0, "balance": "You need to have a pocket watcher badge to view this.", "badges": [], "created_at": "2025-06-16T14:09:56.278-04:00", "updated_at": "2025-07-03T19:19:35.249-04:00", "avatar": "https://secure.gravatar.com/avatar/8c27d7f684ec94dd86a72a4eb4aa8317.jpg?s=512&d=https%3A%2F%2Fa.slack-edge.com%2Fdf10d%2Fimg%2Favatars%2Fava_0010-512.png", "custom_css": null}, {"id": 1867, "slack_id": "U0922CXL8V7", "display_name": "Huseyin", "bio": null, "projects_count": 0, "devlogs_count": 0, "votes_count": 0, "ships_count": 0, "projects": [], "coding_time_seconds": 0, "coding_time_seconds_today": 0, "balance": "You need to have a pocket watcher badge to view this.", "badges": [], "created_at": "2025-06-16T14:10:00.322-04:00", "updated_at": "2025-07-03T19:19:35.515-04:00", "avatar": "https://secure.gravatar.com/avatar/993c449db46fcb350ea748994ca778e9.jpg?s=512&d=https%3A%2F%2Fa.slack-edge.com%2Fdf10d%2Fimg%2Favatars%2Fava_0007-512.png", "custom_css": null}, {"id": 1868, "slack_id": "U092CADPT6U", "display_name": "Navaneeth N", "bio": null, "projects_count": 0, "devlogs_count": 0, "votes_count": 0, "ships_count": 0, "projects": [], "coding_time_seconds": 0, "coding_time_seconds_today": 0, "balance": "You need to have a pocket watcher badge to view this.", "badges": [], "created_at": "2025-06-16T14:10:10.062-04:00", "updated_at": "2025-07-03T19:19:35.775-04:00", "avatar": "https://avatars.slack-edge.com/2025-06-16/9050954369843_3b193222a4ec90ec6f20_original.gif", "custom_css": null}, {"id": 1869, "slack_id": "U092C9XNBUY", "display_name": "Mohammed Thaha", "bio": null, "projects_count": 1, "devlogs_count": 0, "votes_count": 0, "ships_count": 0, "projects": [{"id": 2505, "title": "HeroSpectra 3D", "devlogs_count": 0, "created_at": "2025-06-21T06:46:17.111-04:00"}], "coding_time_seconds": 326420, "coding_time_seconds_today": 0, "balance": "You need to have a pocket watcher badge to view this.", "badges": [], "created_at": "2025-06-16T14:10:12.430-04:00", "updated_at": "2025-07-03T19:19:36.040-04:00", "avatar": "https://secure.gravatar.com/avatar/88c468426d71643d7f3340b2cb4ea131.jpg?s=512&d=https%3A%2F%2Fa.slack-edge.com%2Fdf10d%2Fimg%2Favatars%2Fava_0015-512.png", "custom_css": null}, {"id": 1870, "slack_id": "U091Q8ANC04", "display_name": "YoyoChaud", "bio": null, "projects_count": 0, "devlogs_count": 0, "votes_count": 0, "ships_count": 0, "projects": [], "coding_time_seconds": 0, "coding_time_seconds_today": 0, "balance": "You need to have a pocket watcher badge to view this.", "badges": [], "created_at": "2025-06-16T14:10:17.664-04:00", "updated_at": "2025-07-03T19:19:36.300-04:00", "avatar": "https://secure.gravatar.com/avatar/e5365baeda5702d4317f9b0db7dc0c43.jpg?s=512&d=https%3A%2F%2Fa.slack-edge.com%2Fdf10d%2Fimg%2Favatars%2Fava_0008-512.png", "custom_css": null}, {"id": 1871, "slack_id": "U091GTJHYRH", "display_name": "Prajwal", "bio": null, "projects_count": 0, "devlogs_count": 0, "votes_count": 0, "ships_count": 0, "projects": [], "coding_time_seconds": 22772, "coding_time_seconds_today": 0, "balance": "You need to have a pocket watcher badge to view this.", "badges": [], "created_at": "2025-06-16T14:10:30.319-04:00", "updated_at": "2025-07-03T19:19:36.569-04:00", "avatar": "https://secure.gravatar.com/avatar/723a9efbe593fc2465e482d6399c91c4.jpg?s=512&d=https%3A%2F%2Fa.slack-edge.com%2Fdf10d%2Fimg%2Favatars%2Fava_0019-512.png", "custom_css": null}, {"id": 1872, "slack_id": "U091H1718G6", "display_name": "Imesh Madushan", "bio": null, "projects_count": 0, "devlogs_count": 0, "votes_count": 0, "ships_count": 0, "projects": [], "coding_time_seconds": 0, "coding_time_seconds_today": 0, "balance": "You need to have a pocket watcher badge to view this.", "badges": [], "created_at": "2025-06-16T14:10:31.292-04:00", "updated_at": "2025-07-03T19:19:36.842-04:00", "avatar": "https://avatars.slack-edge.com/2025-06-16/9070454297649_40560ec0a9177e2ac16d_original.png", "custom_css": null}, {"id": 1873, "slack_id": "U091N3E56CD", "display_name": "Youssef sherif muhammed aman", "bio": null, "projects_count": 0, "devlogs_count": 0, "votes_count": 0, "ships_count": 0, "projects": [], "coding_time_seconds": 10221, "coding_time_seconds_today": 0, "balance": "You need to have a pocket watcher badge to view this.", "badges": [], "created_at": "2025-06-16T14:10:35.194-04:00", "updated_at": "2025-07-03T19:19:37.113-04:00", "avatar": "https://secure.gravatar.com/avatar/2a9db4e4cc30b2c5280823cb23f6c69e.jpg?s=512&d=https%3A%2F%2Fa.slack-edge.com%2Fdf10d%2Fimg%2Favatars%2Fava_0003-512.png", "custom_css": null}, {"id": 1874, "slack_id": "U092CAFQ5DW", "display_name": "Ioannis Athanasiadis", "bio": null, "projects_count": 0, "devlogs_count": 0, "votes_count": 0, "ships_count": 0, "projects": [], "coding_time_seconds": 0, "coding_time_seconds_today": 0, "balance": "You need to have a pocket watcher badge to view this.", "badges": [], "created_at": "2025-06-16T14:10:35.497-04:00", "updated_at": "2025-07-03T19:19:37.378-04:00", "avatar": "https://avatars.slack-edge.com/2025-06-16/9070455287985_6b16420f452902186a3a_original.jpg", "custom_css": null}, {"id": 1875, "slack_id": "U091Q8F12J0", "display_name": "Anshuman", "bio": null, "projects_count": 0, "devlogs_count": 0, "votes_count": 0, "ships_count": 0, "projects": [], "coding_time_seconds": 0, "coding_time_seconds_today": 0, "balance": "You need to have a pocket watcher badge to view this.", "badges": [], "created_at": "2025-06-16T14:10:37.518-04:00", "updated_at": "2025-07-03T19:19:37.649-04:00", "avatar": "https://secure.gravatar.com/avatar/f5d523d818a0f9806b23b94173f4f679.jpg?s=512&d=https%3A%2F%2Fa.slack-edge.com%2Fdf10d%2Fimg%2Favatars%2Fava_0000-512.png", "custom_css": null}, {"id": 1876, "slack_id": "U08THH4MNV9", "display_name": "Gruff", "bio": null, "projects_count": 1, "devlogs_count": 1, "votes_count": 1, "ships_count": 1, "projects": [{"id": 161, "title": "planets!", "devlogs_count": 1, "created_at": "2025-06-16T14:42:26.496-04:00"}], "coding_time_seconds": 10534, "coding_time_seconds_today": 0, "balance": "You need to have a pocket watcher badge to view this.", "badges": [{"name": "Maiden Voyage", "text": "you shipped your first project! the journey begins...", "icon": "\ud83d\udea2"}], "created_at": "2025-06-16T14:10:51.374-04:00", "updated_at": "2025-09-10T22:52:05.686-04:00", "avatar": "https://avatars.slack-edge.com/2025-06-16/9054778481908_a9f12af0ec4f17adc897_original.png", "custom_css": null}, {"id": 1877, "slack_id": "U091PS69RH8", "display_name": "Yasmim", "bio": null, "projects_count": 0, "devlogs_count": 0, "votes_count": 0, "ships_count": 0, "projects": [], "coding_time_seconds": 0, "coding_time_seconds_today": 0, "balance": "You need to have a pocket watcher badge to view this.", "badges": [], "created_at": "2025-06-16T14:10:54.119-04:00", "updated_at": "2025-07-03T19:19:38.177-04:00", "avatar": "https://avatars.slack-edge.com/2025-06-16/9051059697782_a55ad52126f98f60b0f6_original.jpg", "custom_css": null}, {"id": 1878, "slack_id": "U091N0Q5293", "display_name": "Anubhav", "bio": null, "projects_count": 0, "devlogs_count": 0, "votes_count": 0, "ships_count": 0, "projects": [], "coding_time_seconds": 0, "coding_time_seconds_today": 0, "balance": "You need to have a pocket watcher badge to view this.", "badges": [], "created_at": "2025-06-16T14:10:56.678-04:00", "updated_at": "2025-07-03T19:19:38.455-04:00", "avatar": "https://secure.gravatar.com/avatar/3b2905a937cd8146a52d43b5f47a1bea.jpg?s=512&d=https%3A%2F%2Fa.slack-edge.com%2Fdf10d%2Fimg%2Favatars%2Fava_0022-512.png", "custom_css": null}, {"id": 1879, "slack_id": "U091H1ATTP0", "display_name": "SaadAj", "bio": null, "projects_count": 0, "devlogs_count": 0, "votes_count": 0, "ships_count": 0, "projects": [], "coding_time_seconds": 0, "coding_time_seconds_today": 0, "balance": "You need to have a pocket watcher badge to view this.", "badges": [], "created_at": "2025-06-16T14:10:58.104-04:00", "updated_at": "2025-07-03T19:19:38.725-04:00", "avatar": "https://secure.gravatar.com/avatar/a7719d84985d21adab3ee690ad815b87.jpg?s=512&d=https%3A%2F%2Fa.slack-edge.com%2Fdf10d%2Fimg%2Favatars%2Fava_0026-512.png", "custom_css": null}, {"id": 1880, "slack_id": "U091GTQ5CD9", "display_name": "Niraj kumar", "bio": null, "projects_count": 0, "devlogs_count": 0, "votes_count": 0, "ships_count": 0, "projects": [], "coding_time_seconds": 0, "coding_time_seconds_today": 0, "balance": "You need to have a pocket watcher badge to view this.", "badges": [], "created_at": "2025-06-16T14:10:58.469-04:00", "updated_at": "2025-07-03T19:19:38.987-04:00", "avatar": "https://secure.gravatar.com/avatar/d420f39ab61b5ba4e23fb23d92e350df.jpg?s=512&d=https%3A%2F%2Fa.slack-edge.com%2Fdf10d%2Fimg%2Favatars%2Fava_0012-512.png", "custom_css": null}], "pagination": {"page": 94, "pages": 1192, "count": 23828, "items": 20}}