{"users": [{"id": 18866, "slack_id": "U0978N4DPMY", "display_name": "Divyansh Vishwakarma", "bio": null, "projects_count": 0, "devlogs_count": 0, "votes_count": 0, "ships_count": 0, "projects": [], "coding_time_seconds": 0, "coding_time_seconds_today": 0, "balance": "You need to have a pocket watcher badge to view this.", "badges": [], "created_at": "2025-07-24T02:04:11.880-04:00", "updated_at": "2025-07-24T03:41:18.872-04:00", "avatar": "https://avatars.slack-edge.com/2025-07-23/9247800422564_ccc8405eba291bff2583_original.jpg", "custom_css": null}, {"id": 18867, "slack_id": "U0973G1FMT5", "display_name": "Aashir", "bio": null, "projects_count": 0, "devlogs_count": 0, "votes_count": 0, "ships_count": 0, "projects": [], "coding_time_seconds": 0, "coding_time_seconds_today": 0, "balance": "You need to have a pocket watcher badge to view this.", "badges": [], "created_at": "2025-07-24T02:11:18.985-04:00", "updated_at": "2025-07-24T06:42:19.301-04:00", "avatar": "https://avatars.slack-edge.com/2025-07-24/9231560079735_b943aa14c525feaf7872_original.png", "custom_css": null}, {"id": 18868, "slack_id": "U097MU81SHF", "display_name": "Hitaeshi Sehgal", "bio": null, "projects_count": 2, "devlogs_count": 1, "votes_count": 0, "ships_count": 1, "projects": [{"id": 8020, "title": "mY WEBSITE", "devlogs_count": 0, "created_at": "2025-07-24T04:34:10.477-04:00"}, {"id": 8085, "title": "Ping Pong Game", "devlogs_count": 1, "created_at": "2025-07-24T13:22:17.022-04:00"}], "coding_time_seconds": 1946, "coding_time_seconds_today": 0, "balance": "You need to have a pocket watcher badge to view this.", "badges": [], "created_at": "2025-07-24T02:15:54.773-04:00", "updated_at": "2025-07-24T03:41:19.051-04:00", "avatar": "https://secure.gravatar.com/avatar/5f9247fd02b592ad8b67ac8d35790512.jpg?s=512&d=https%3A%2F%2Fa.slack-edge.com%2Fdf10d%2Fimg%2Favatars%2Fava_0005-512.png", "custom_css": null}, {"id": 18869, "slack_id": "U0975JQ9STG", "display_name": "fireasset", "bio": null, "projects_count": 0, "devlogs_count": 0, "votes_count": 0, "ships_count": 0, "projects": [], "coding_time_seconds": 13503, "coding_time_seconds_today": 0, "balance": "You need to have a pocket watcher badge to view this.", "badges": [], "created_at": "2025-07-24T02:16:52.870-04:00", "updated_at": "2025-07-25T23:24:17.180-04:00", "avatar": "https://secure.gravatar.com/avatar/e86a8d62664219291dc269b65ed0bd40.jpg?s=512&d=https%3A%2F%2Fa.slack-edge.com%2Fdf10d%2Fimg%2Favatars%2Fava_0024-512.png", "custom_css": null}, {"id": 18870, "slack_id": "U0973G76QNP", "display_name": "gunashyam chiriki", "bio": null, "projects_count": 0, "devlogs_count": 0, "votes_count": 0, "ships_count": 0, "projects": [], "coding_time_seconds": 0, "coding_time_seconds_today": 0, "balance": "You need to have a pocket watcher badge to view this.", "badges": [], "created_at": "2025-07-24T02:18:08.640-04:00", "updated_at": "2025-07-24T03:41:19.235-04:00", "avatar": "https://secure.gravatar.com/avatar/aa3cc064e455d3baf29efc95f14b07a3.jpg?s=512&d=https%3A%2F%2Fa.slack-edge.com%2Fdf10d%2Fimg%2Favatars%2Fava_0000-512.png", "custom_css": null}, {"id": 18871, "slack_id": "U097WUZTLAU", "display_name": "Harsha vardan Vinnakota", "bio": null, "projects_count": 0, "devlogs_count": 0, "votes_count": 0, "ships_count": 0, "projects": [], "coding_time_seconds": 0, "coding_time_seconds_today": 0, "balance": "You need to have a pocket watcher badge to view this.", "badges": [], "created_at": "2025-07-24T02:18:09.053-04:00", "updated_at": "2025-07-24T06:51:45.603-04:00", "avatar": "https://avatars.slack-edge.com/2025-07-23/9243853594982_78f1c049d16a33e7c5f1_original.jpg", "custom_css": null}, {"id": 18872, "slack_id": "U0975Q6QXRC", "display_name": "gnanadeep vechalapu", "bio": null, "projects_count": 0, "devlogs_count": 0, "votes_count": 0, "ships_count": 0, "projects": [], "coding_time_seconds": 0, "coding_time_seconds_today": 0, "balance": "You need to have a pocket watcher badge to view this.", "badges": [], "created_at": "2025-07-24T02:18:09.808-04:00", "updated_at": "2025-07-24T03:41:19.416-04:00", "avatar": "https://avatars.slack-edge.com/2025-07-23/9269020261616_14d9c9060f0f78433b8f_original.jpg", "custom_css": null}, {"id": 18873, "slack_id": "U097MUC4U2D", "display_name": "chandrasekhar h", "bio": null, "projects_count": 0, "devlogs_count": 0, "votes_count": 0, "ships_count": 0, "projects": [], "coding_time_seconds": 0, "coding_time_seconds_today": 0, "balance": "You need to have a pocket watcher badge to view this.", "badges": [], "created_at": "2025-07-24T02:18:13.057-04:00", "updated_at": "2025-07-25T13:47:48.038-04:00", "avatar": "https://avatars.slack-edge.com/2025-07-23/9241582877523_b7940f6241cbadc91645_original.png", "custom_css": null}, {"id": 18874, "slack_id": "U097X077MS4", "display_name": "Karthik Dasari", "bio": null, "projects_count": 0, "devlogs_count": 0, "votes_count": 0, "ships_count": 0, "projects": [], "coding_time_seconds": 0, "coding_time_seconds_today": 0, "balance": "You need to have a pocket watcher badge to view this.", "badges": [], "created_at": "2025-07-24T02:18:13.745-04:00", "updated_at": "2025-07-25T13:47:45.108-04:00", "avatar": "https://avatars.slack-edge.com/2025-07-23/9269020537088_c56b34fae8ddf977c170_original.jpg", "custom_css": null}, {"id": 18875, "slack_id": "U0979Q61EUU", "display_name": "pranathi balireddy", "bio": null, "projects_count": 0, "devlogs_count": 0, "votes_count": 0, "ships_count": 0, "projects": [], "coding_time_seconds": 0, "coding_time_seconds_today": 0, "balance": "You need to have a pocket watcher badge to view this.", "badges": [], "created_at": "2025-07-24T02:18:22.589-04:00", "updated_at": "2025-07-24T03:41:19.693-04:00", "avatar": "https://avatars.slack-edge.com/2025-07-23/9231507759287_814116bfa199567fc9af_original.png", "custom_css": null}, {"id": 18876, "slack_id": "U097WUYV36C", "display_name": "saranya gompa", "bio": null, "projects_count": 0, "devlogs_count": 0, "votes_count": 0, "ships_count": 0, "projects": [], "coding_time_seconds": 0, "coding_time_seconds_today": 0, "balance": "You need to have a pocket watcher badge to view this.", "badges": [], "created_at": "2025-07-24T02:18:29.974-04:00", "updated_at": "2025-07-25T13:47:46.622-04:00", "avatar": "https://avatars.slack-edge.com/2025-07-23/9246818781938_a56639bc76024dfaa488_original.png", "custom_css": null}, {"id": 18877, "slack_id": "U0973GBBM6X", "display_name": "Kavya Siddija", "bio": null, "projects_count": 0, "devlogs_count": 0, "votes_count": 0, "ships_count": 0, "projects": [], "coding_time_seconds": 0, "coding_time_seconds_today": 0, "balance": "You need to have a pocket watcher badge to view this.", "badges": [], "created_at": "2025-07-24T02:18:42.496-04:00", "updated_at": "2025-07-25T13:47:51.021-04:00", "avatar": "https://avatars.slack-edge.com/2025-07-23/9247853530324_596802b978137f38da29_original.png", "custom_css": null}, {"id": 18878, "slack_id": "U097WV77G9E", "display_name": "Jaswanth.naidugavara Jaswanth", "bio": null, "projects_count": 0, "devlogs_count": 0, "votes_count": 0, "ships_count": 0, "projects": [], "coding_time_seconds": 0, "coding_time_seconds_today": 0, "balance": "You need to have a pocket watcher badge to view this.", "badges": [], "created_at": "2025-07-24T02:18:48.846-04:00", "updated_at": "2025-07-25T13:47:49.536-04:00", "avatar": "https://avatars.slack-edge.com/2025-07-23/9259998649473_def312728a34f1e9eb3e_original.jpg", "custom_css": null}, {"id": 18879, "slack_id": "U0973G4TGKD", "display_name": "Hammad Tahir", "bio": null, "projects_count": 0, "devlogs_count": 0, "votes_count": 0, "ships_count": 0, "projects": [], "coding_time_seconds": 1987, "coding_time_seconds_today": 0, "balance": "You need to have a pocket watcher badge to view this.", "badges": [], "created_at": "2025-07-24T02:19:02.648-04:00", "updated_at": "2025-07-24T03:41:24.074-04:00", "avatar": "https://avatars.slack-edge.com/2025-07-23/9243855515734_bffd85b351d6a2db41de_original.png", "custom_css": null}, {"id": 18880, "slack_id": "U097WV3TM88", "display_name": "Hemanth Gavara", "bio": null, "projects_count": 0, "devlogs_count": 0, "votes_count": 0, "ships_count": 0, "projects": [], "coding_time_seconds": 0, "coding_time_seconds_today": 0, "balance": "You need to have a pocket watcher badge to view this.", "badges": [], "created_at": "2025-07-24T02:19:43.964-04:00", "updated_at": "2025-07-25T13:49:20.390-04:00", "avatar": "https://avatars.slack-edge.com/2025-07-23/9260001001521_9b7e737a1c5db80f4072_original.jpg", "custom_css": null}, {"id": 18881, "slack_id": "U097X0PGZ6U", "display_name": "Oren", "bio": null, "projects_count": 0, "devlogs_count": 0, "votes_count": 0, "ships_count": 0, "projects": [], "coding_time_seconds": 35, "coding_time_seconds_today": 0, "balance": "You need to have a pocket watcher badge to view this.", "badges": [], "created_at": "2025-07-24T02:22:44.089-04:00", "updated_at": "2025-07-24T03:41:24.224-04:00", "avatar": "https://secure.gravatar.com/avatar/0b96516c0148aebe803e82eaae808c2e.jpg?s=512&d=https%3A%2F%2Fa.slack-edge.com%2Fdf10d%2Fimg%2Favatars%2Fava_0026-512.png", "custom_css": null}, {"id": 18882, "slack_id": "U097X168NDN", "display_name": "Gaurav Siwach", "bio": null, "projects_count": 0, "devlogs_count": 0, "votes_count": 0, "ships_count": 0, "projects": [], "coding_time_seconds": 0, "coding_time_seconds_today": 0, "balance": "You need to have a pocket watcher badge to view this.", "badges": [], "created_at": "2025-07-24T02:31:18.409-04:00", "updated_at": "2025-07-24T03:41:24.304-04:00", "avatar": "https://secure.gravatar.com/avatar/5d383b6ed6207d6c7eee6704c5cf86b6.jpg?s=512&d=https%3A%2F%2Fa.slack-edge.com%2Fdf10d%2Fimg%2Favatars%2Fava_0002-512.png", "custom_css": null}, {"id": 18883, "slack_id": "U097X1M0ZS4", "display_name": "Taisheng Chen", "bio": null, "projects_count": 0, "devlogs_count": 0, "votes_count": 0, "ships_count": 0, "projects": [], "coding_time_seconds": 0, "coding_time_seconds_today": 0, "balance": "You need to have a pocket watcher badge to view this.", "badges": [], "created_at": "2025-07-24T02:31:29.180-04:00", "updated_at": "2025-07-24T03:41:24.396-04:00", "avatar": "https://secure.gravatar.com/avatar/ebaa9dec829e8e6df53bef08ea432b8b.jpg?s=512&d=https%3A%2F%2Fa.slack-edge.com%2Fdf10d%2Fimg%2Favatars%2Fava_0003-512.png", "custom_css": null}, {"id": 18884, "slack_id": "U0979Q2PASG", "display_name": "Harsha Shanmugh", "bio": null, "projects_count": 0, "devlogs_count": 0, "votes_count": 0, "ships_count": 0, "projects": [], "coding_time_seconds": 0, "coding_time_seconds_today": 0, "balance": "You need to have a pocket watcher badge to view this.", "badges": [], "created_at": "2025-07-24T02:31:49.811-04:00", "updated_at": "2025-07-25T13:51:13.939-04:00", "avatar": "https://avatars.slack-edge.com/2025-07-23/9246872684850_b46056724ad862a8ae1a_original.jpg", "custom_css": null}, {"id": 18885, "slack_id": "U097X273XAL", "display_name": "Govin R", "bio": null, "projects_count": 0, "devlogs_count": 0, "votes_count": 0, "ships_count": 0, "projects": [], "coding_time_seconds": 0, "coding_time_seconds_today": 0, "balance": "You need to have a pocket watcher badge to view this.", "badges": [], "created_at": "2025-07-24T02:37:08.066-04:00", "updated_at": "2025-07-24T03:41:24.588-04:00", "avatar": "https://secure.gravatar.com/avatar/a3c9aeae8fe96c68416463a603e3a255.jpg?s=512&d=https%3A%2F%2Fa.slack-edge.com%2Fdf10d%2Fimg%2Favatars%2Fava_0007-512.png", "custom_css": null}], "pagination": {"page": 940, "pages": 1192, "count": 23828, "items": 20}}