{"users": [{"id": 18886, "slack_id": "U097X281YFJ", "display_name": "Satishsahu8737", "bio": null, "projects_count": 0, "devlogs_count": 0, "votes_count": 0, "ships_count": 0, "projects": [], "coding_time_seconds": 37143, "coding_time_seconds_today": 0, "balance": "You need to have a pocket watcher badge to view this.", "badges": [], "created_at": "2025-07-24T02:38:38.344-04:00", "updated_at": "2025-07-24T06:09:41.523-04:00", "avatar": "https://secure.gravatar.com/avatar/1db01f619dda91c1274594409daed517.jpg?s=512&d=https%3A%2F%2Fa.slack-edge.com%2Fdf10d%2Fimg%2Favatars%2Fava_0000-512.png", "custom_css": null}, {"id": 18887, "slack_id": "U0978SSUX9Q", "display_name": "yousummer", "bio": null, "projects_count": 0, "devlogs_count": 0, "votes_count": 0, "ships_count": 0, "projects": [], "coding_time_seconds": 0, "coding_time_seconds_today": 0, "balance": "You need to have a pocket watcher badge to view this.", "badges": [], "created_at": "2025-07-24T02:44:27.097-04:00", "updated_at": "2025-07-24T03:41:24.769-04:00", "avatar": "https://secure.gravatar.com/avatar/5c9a1d8e4e5256a4f4a59bad2ce3db61.jpg?s=512&d=https%3A%2F%2Fa.slack-edge.com%2Fdf10d%2Fimg%2Favatars%2Fava_0017-512.png", "custom_css": null}, {"id": 18888, "slack_id": "U0979Q67KEG", "display_name": "Lavanya Balireddi", "bio": null, "projects_count": 0, "devlogs_count": 0, "votes_count": 0, "ships_count": 0, "projects": [], "coding_time_seconds": 0, "coding_time_seconds_today": 0, "balance": "You need to have a pocket watcher badge to view this.", "badges": [], "created_at": "2025-07-24T02:44:52.432-04:00", "updated_at": "2025-07-25T14:17:14.375-04:00", "avatar": "https://avatars.slack-edge.com/2025-07-23/9245234562037_c8a18d7b0e474b577d2a_original.png", "custom_css": null}, {"id": 18889, "slack_id": "U0973KU6883", "display_name": "Oceanman", "bio": null, "projects_count": 5, "devlogs_count": 10, "votes_count": 47, "ships_count": 3, "projects": [{"id": 8030, "title": "Stressful Timer", "devlogs_count": 3, "created_at": "2025-07-24T06:35:56.003-04:00"}, {"id": 8040, "title": "diyController", "devlogs_count": 2, "created_at": "2025-07-24T08:37:52.055-04:00"}, {"id": 8053, "title": "myOverlay", "devlogs_count": 4, "created_at": "2025-07-24T10:07:44.061-04:00"}, {"id": 8364, "title": "requirements-engineering", "devlogs_count": 1, "created_at": "2025-07-26T15:05:45.917-04:00"}, {"id": 8384, "title": "website", "devlogs_count": 0, "created_at": "2025-07-26T17:58:46.823-04:00"}], "coding_time_seconds": 33159, "coding_time_seconds_today": 0, "balance": "You need to have a pocket watcher badge to view this.", "badges": [], "created_at": "2025-07-24T02:45:24.321-04:00", "updated_at": "2025-07-25T12:23:47.235-04:00", "avatar": "https://secure.gravatar.com/avatar/43a018a38de048f76ded85adc609eaa3.jpg?s=512&d=https%3A%2F%2Fa.slack-edge.com%2Fdf10d%2Fimg%2Favatars%2Fava_0001-512.png", "custom_css": null}, {"id": 18890, "slack_id": "U09789ZLBRP", "display_name": "xuhao", "bio": null, "projects_count": 0, "devlogs_count": 0, "votes_count": 0, "ships_count": 0, "projects": [], "coding_time_seconds": 0, "coding_time_seconds_today": 0, "balance": "You need to have a pocket watcher badge to view this.", "badges": [], "created_at": "2025-07-24T02:46:54.393-04:00", "updated_at": "2025-07-24T03:41:33.108-04:00", "avatar": "https://secure.gravatar.com/avatar/71d18a09c92061252b45e13cf9b13c94.jpg?s=512&d=https%3A%2F%2Fa.slack-edge.com%2Fdf10d%2Fimg%2Favatars%2Fava_0025-512.png", "custom_css": null}, {"id": 18891, "slack_id": "U09777YAGJZ", "display_name": "\u3088\u3063\u30ad\u30f3\u30b0", "bio": null, "projects_count": 1, "devlogs_count": 2, "votes_count": 2, "ships_count": 1, "projects": [{"id": 9937, "title": "SuperNewRoles", "devlogs_count": 2, "created_at": "2025-08-03T02:20:13.167-04:00"}], "coding_time_seconds": 291979, "coding_time_seconds_today": 2651, "balance": "You need to have a pocket watcher badge to view this.", "badges": [], "created_at": "2025-07-24T03:00:32.050-04:00", "updated_at": "2025-08-03T08:20:27.759-04:00", "avatar": "https://secure.gravatar.com/avatar/c4a1f28185541d186841b735f05cfc06.jpg?s=512&d=https%3A%2F%2Fa.slack-edge.com%2Fdf10d%2Fimg%2Favatars%2Fava_0002-512.png", "custom_css": null}, {"id": 18892, "slack_id": "U097A0K3668", "display_name": "Nipun Munasinghe", "bio": null, "projects_count": 0, "devlogs_count": 0, "votes_count": 0, "ships_count": 0, "projects": [], "coding_time_seconds": 0, "coding_time_seconds_today": 0, "balance": "You need to have a pocket watcher badge to view this.", "badges": [], "created_at": "2025-07-24T03:02:51.178-04:00", "updated_at": "2025-07-24T03:41:33.277-04:00", "avatar": "https://secure.gravatar.com/avatar/3bb8406afb11cfefd5f3d5d12b8ab9d6.jpg?s=512&d=https%3A%2F%2Fa.slack-edge.com%2Fdf10d%2Fimg%2Favatars%2Fava_0023-512.png", "custom_css": null}, {"id": 18893, "slack_id": "U097606RZ9C", "display_name": "Abhisek", "bio": "im a 18 year old guy with an old potato laptop trying to get a new laptop from this website for my further studies on coding,video editing,graphic design", "projects_count": 2, "devlogs_count": 2, "votes_count": 0, "ships_count": 1, "projects": [{"id": 8192, "title": "A ferris wheel ", "devlogs_count": 2, "created_at": "2025-07-25T06:57:55.436-04:00"}, {"id": 8231, "title": "coffee order", "devlogs_count": 0, "created_at": "2025-07-25T12:34:01.391-04:00"}], "coding_time_seconds": 19145, "coding_time_seconds_today": 0, "balance": "You need to have a pocket watcher badge to view this.", "badges": [], "created_at": "2025-07-24T03:03:29.351-04:00", "updated_at": "2025-07-25T09:11:03.893-04:00", "avatar": "https://secure.gravatar.com/avatar/0b3e4a125e68557f1462a57067957751.jpg?s=512&d=https%3A%2F%2Fa.slack-edge.com%2Fdf10d%2Fimg%2Favatars%2Fava_0013-512.png", "custom_css": null}, {"id": 18894, "slack_id": "U097N5PL4LR", "display_name": "Shaik Ahesanuddin", "bio": null, "projects_count": 0, "devlogs_count": 0, "votes_count": 0, "ships_count": 0, "projects": [], "coding_time_seconds": 0, "coding_time_seconds_today": 0, "balance": "You need to have a pocket watcher badge to view this.", "badges": [], "created_at": "2025-07-24T03:11:28.072-04:00", "updated_at": "2025-07-24T03:41:33.443-04:00", "avatar": "https://avatars.slack-edge.com/2025-07-24/9247044659058_5fbf7fae435e68659a77_original.png", "custom_css": null}, {"id": 18895, "slack_id": "U097JHZQKMX", "display_name": "Mirwais khan", "bio": null, "projects_count": 0, "devlogs_count": 0, "votes_count": 0, "ships_count": 0, "projects": [], "coding_time_seconds": 0, "coding_time_seconds_today": 0, "balance": "You need to have a pocket watcher badge to view this.", "badges": [], "created_at": "2025-07-24T03:12:54.971-04:00", "updated_at": "2025-07-24T03:41:33.534-04:00", "avatar": "https://secure.gravatar.com/avatar/58d60dae78f2543df7e0b5d556f8f9f3.jpg?s=512&d=https%3A%2F%2Fa.slack-edge.com%2Fdf10d%2Fimg%2Favatars%2Fava_0014-512.png", "custom_css": null}, {"id": 18896, "slack_id": "U097N6K7GNM", "display_name": "Julius Momanyi Kanani", "bio": null, "projects_count": 0, "devlogs_count": 0, "votes_count": 0, "ships_count": 0, "projects": [], "coding_time_seconds": 0, "coding_time_seconds_today": 0, "balance": "You need to have a pocket watcher badge to view this.", "badges": [], "created_at": "2025-07-24T03:16:55.503-04:00", "updated_at": "2025-07-24T03:42:15.292-04:00", "avatar": "https://secure.gravatar.com/avatar/d993d7858dd54adcf39f920af5f59d3a.jpg?s=512&d=https%3A%2F%2Fa.slack-edge.com%2Fdf10d%2Fimg%2Favatars%2Fava_0024-512.png", "custom_css": null}, {"id": 18897, "slack_id": "U09762TTUMU", "display_name": "Muvalika Gr", "bio": null, "projects_count": 0, "devlogs_count": 0, "votes_count": 0, "ships_count": 0, "projects": [], "coding_time_seconds": 0, "coding_time_seconds_today": 0, "balance": "You need to have a pocket watcher badge to view this.", "badges": [], "created_at": "2025-07-24T03:19:28.825-04:00", "updated_at": "2025-07-24T03:41:33.718-04:00", "avatar": "https://avatars.slack-edge.com/2025-07-24/9248105092868_be4215d6e121b0a28d3d_original.png", "custom_css": null}, {"id": 18898, "slack_id": "U09765WBE94", "display_name": "Pranav Sanderp", "bio": null, "projects_count": 0, "devlogs_count": 0, "votes_count": 0, "ships_count": 0, "projects": [], "coding_time_seconds": 1, "coding_time_seconds_today": 0, "balance": "You need to have a pocket watcher badge to view this.", "badges": [], "created_at": "2025-07-24T03:41:32.566-04:00", "updated_at": "2025-07-24T12:53:12.497-04:00", "avatar": "https://secure.gravatar.com/avatar/6089ae72e65583d12b769f268a546d99.jpg?s=512&d=https%3A%2F%2Fa.slack-edge.com%2Fdf10d%2Fimg%2Favatars%2Fava_0023-512.png", "custom_css": null}, {"id": 18899, "slack_id": "U09764FDGTY", "display_name": "Biruk Simachew", "bio": null, "projects_count": 3, "devlogs_count": 8, "votes_count": 0, "ships_count": 2, "projects": [{"id": 8032, "title": "Turbo rush", "devlogs_count": 4, "created_at": "2025-07-24T06:57:58.154-04:00"}, {"id": 8115, "title": "endless jump", "devlogs_count": 4, "created_at": "2025-07-24T17:47:40.061-04:00"}, {"id": 8569, "title": "chase game", "devlogs_count": 0, "created_at": "2025-07-28T07:29:43.181-04:00"}], "coding_time_seconds": 162648, "coding_time_seconds_today": 0, "balance": "You need to have a pocket watcher badge to view this.", "badges": [], "created_at": "2025-07-24T03:41:45.629-04:00", "updated_at": "2025-08-26T20:09:46.345-04:00", "avatar": "https://avatars.slack-edge.com/2025-07-24/9244219133062_accfd5fe7236b608fd7f_original.png", "custom_css": null}, {"id": 18900, "slack_id": "U0973UNHCCB", "display_name": "makeki", "bio": null, "projects_count": 0, "devlogs_count": 0, "votes_count": 0, "ships_count": 0, "projects": [], "coding_time_seconds": 0, "coding_time_seconds_today": 0, "balance": "You need to have a pocket watcher badge to view this.", "badges": [], "created_at": "2025-07-24T03:49:31.840-04:00", "updated_at": "2025-07-24T10:35:24.369-04:00", "avatar": "https://secure.gravatar.com/avatar/f40716a9f8e1ac91ac617842d9fa64fe.jpg?s=512&d=https%3A%2F%2Fa.slack-edge.com%2Fdf10d%2Fimg%2Favatars%2Fava_0010-512.png", "custom_css": null}, {"id": 18901, "slack_id": "U09765TBTTQ", "display_name": "KAK DIGITAL", "bio": null, "projects_count": 0, "devlogs_count": 0, "votes_count": 0, "ships_count": 0, "projects": [], "coding_time_seconds": 1143, "coding_time_seconds_today": 0, "balance": "You need to have a pocket watcher badge to view this.", "badges": [], "created_at": "2025-07-24T03:52:11.750-04:00", "updated_at": "2025-09-14T04:14:40.788-04:00", "avatar": "https://secure.gravatar.com/avatar/a50509f5b1c6980648d5e23c53d4ade1.jpg?s=512&d=https%3A%2F%2Fa.slack-edge.com%2Fdf10d%2Fimg%2Favatars%2Fava_0020-512.png", "custom_css": null}, {"id": 18902, "slack_id": "U097NB8AUF3", "display_name": "harshitha doddi", "bio": null, "projects_count": 0, "devlogs_count": 0, "votes_count": 0, "ships_count": 0, "projects": [], "coding_time_seconds": 0, "coding_time_seconds_today": 0, "balance": "You need to have a pocket watcher badge to view this.", "badges": [], "created_at": "2025-07-24T03:52:27.062-04:00", "updated_at": "2025-07-25T14:23:56.647-04:00", "avatar": "https://avatars.slack-edge.com/2025-07-24/9248251384788_1082c80ea2d70f383210_original.jpg", "custom_css": null}, {"id": 18903, "slack_id": "U097XBUKHLG", "display_name": "Sabbas Ahmad", "bio": null, "projects_count": 0, "devlogs_count": 0, "votes_count": 0, "ships_count": 0, "projects": [], "coding_time_seconds": 0, "coding_time_seconds_today": 0, "balance": "You need to have a pocket watcher badge to view this.", "badges": [], "created_at": "2025-07-24T03:54:31.181-04:00", "updated_at": "2025-07-24T10:35:28.687-04:00", "avatar": "https://avatars.slack-edge.com/2025-07-24/9248261443508_17855ef96a32863591e1_original.png", "custom_css": null}, {"id": 18904, "slack_id": "U097697QRQE", "display_name": "Sabaridev Balaji", "bio": null, "projects_count": 0, "devlogs_count": 0, "votes_count": 0, "ships_count": 0, "projects": [], "coding_time_seconds": 392, "coding_time_seconds_today": 0, "balance": "You need to have a pocket watcher badge to view this.", "badges": [], "created_at": "2025-07-24T04:03:17.999-04:00", "updated_at": "2025-08-01T05:20:07.297-04:00", "avatar": "https://avatars.slack-edge.com/2025-07-26/9253656260723_4a5b6e738be64c1ab01f_original.jpg", "custom_css": null}, {"id": 18905, "slack_id": "U0977JMTR29", "display_name": "Jakub", "bio": null, "projects_count": 0, "devlogs_count": 0, "votes_count": 0, "ships_count": 0, "projects": [], "coding_time_seconds": 0, "coding_time_seconds_today": 0, "balance": "You need to have a pocket watcher badge to view this.", "badges": [], "created_at": "2025-07-24T04:08:28.388-04:00", "updated_at": "2025-07-24T10:35:28.908-04:00", "avatar": "https://avatars.slack-edge.com/2025-07-24/9244355410870_b70e450130cf7b3f7321_original.png", "custom_css": null}], "pagination": {"page": 941, "pages": 1192, "count": 23828, "items": 20}}