{"users": [{"id": 18946, "slack_id": "U0976PF7T8W", "display_name": "LAXMAN SANDEEP KILLAMPALLI", "bio": null, "projects_count": 0, "devlogs_count": 0, "votes_count": 0, "ships_count": 0, "projects": [], "coding_time_seconds": 0, "coding_time_seconds_today": 0, "balance": "You need to have a pocket watcher badge to view this.", "badges": [], "created_at": "2025-07-24T05:37:42.122-04:00", "updated_at": "2025-07-25T15:51:51.583-04:00", "avatar": "https://avatars.slack-edge.com/2025-07-24/9269937908880_31d72b0017edc4fb4e93_original.png", "custom_css": null}, {"id": 18947, "slack_id": "U096UADLRKR", "display_name": "\ud558\ud558\ud558", "bio": null, "projects_count": 6, "devlogs_count": 37, "votes_count": 60, "ships_count": 6, "projects": [{"id": 10590, "title": "NCList-backend", "devlogs_count": 7, "created_at": "2025-08-08T13:46:58.492-04:00"}, {"id": 12946, "title": "Partiz", "devlogs_count": 3, "created_at": "2025-09-05T22:04:58.093-04:00"}, {"id": 13245, "title": "Fistol", "devlogs_count": 3, "created_at": "2025-09-12T12:31:17.333-04:00"}, {"id": 10007, "title": "NCList", "devlogs_count": 7, "created_at": "2025-08-03T12:17:16.333-04:00"}, {"id": 10961, "title": "say_something", "devlogs_count": 8, "created_at": "2025-08-12T03:42:14.727-04:00"}, {"id": 11050, "title": "say_something frontend", "devlogs_count": 9, "created_at": "2025-08-12T18:14:41.663-04:00"}], "coding_time_seconds": 489715, "coding_time_seconds_today": 0, "balance": "You need to have a pocket watcher badge to view this.", "badges": [], "created_at": "2025-07-24T05:37:55.477-04:00", "updated_at": "2025-08-08T13:52:26.417-04:00", "avatar": "https://avatars.slack-edge.com/2025-07-24/9232354059239_d083b154cff5361c6d3e_original.jpg", "custom_css": null}, {"id": 18948, "slack_id": "U097NS56AMP", "display_name": "Mukund Krishn Singh", "bio": null, "projects_count": 0, "devlogs_count": 8, "votes_count": 70, "ships_count": 0, "projects": [], "coding_time_seconds": 152749, "coding_time_seconds_today": 0, "balance": "You need to have a pocket watcher badge to view this.", "badges": [], "created_at": "2025-07-24T05:38:28.247-04:00", "updated_at": "2025-08-09T12:11:44.875-04:00", "avatar": "https://avatars.slack-edge.com/2025-08-09/9332498598884_1d5ae66008adbca7f108_original.jpg", "custom_css": null}, {"id": 18949, "slack_id": "U0976NZJEHL", "display_name": "Roshan", "bio": null, "projects_count": 0, "devlogs_count": 0, "votes_count": 0, "ships_count": 0, "projects": [], "coding_time_seconds": 0, "coding_time_seconds_today": 0, "balance": "You need to have a pocket watcher badge to view this.", "badges": [], "created_at": "2025-07-24T05:39:56.081-04:00", "updated_at": "2025-07-24T10:35:45.383-04:00", "avatar": "https://secure.gravatar.com/avatar/ffcedf6ffa3b5d058b4299e838219771.jpg?s=512&d=https%3A%2F%2Fa.slack-edge.com%2Fdf10d%2Fimg%2Favatars%2Fava_0009-512.png", "custom_css": null}, {"id": 18950, "slack_id": "U0974G0376F", "display_name": "Ninlan Alumni", "bio": null, "projects_count": 0, "devlogs_count": 0, "votes_count": 0, "ships_count": 0, "projects": [], "coding_time_seconds": 0, "coding_time_seconds_today": 0, "balance": "You need to have a pocket watcher badge to view this.", "badges": [], "created_at": "2025-07-24T05:42:24.379-04:00", "updated_at": "2025-07-24T10:35:45.463-04:00", "avatar": "https://avatars.slack-edge.com/2025-07-24/9246143787445_6b91b8cde114c7242975_original.png", "custom_css": null}, {"id": 18951, "slack_id": "U097NV1RRJM", "display_name": "Muhammad Hassan", "bio": null, "projects_count": 0, "devlogs_count": 0, "votes_count": 0, "ships_count": 0, "projects": [], "coding_time_seconds": 0, "coding_time_seconds_today": 0, "balance": "You need to have a pocket watcher badge to view this.", "badges": [], "created_at": "2025-07-24T05:55:34.565-04:00", "updated_at": "2025-07-24T10:35:45.544-04:00", "avatar": "https://secure.gravatar.com/avatar/99bfac0f5900a3f06c21a72ed29c9be0.jpg?s=512&d=https%3A%2F%2Fa.slack-edge.com%2Fdf10d%2Fimg%2Favatars%2Fava_0023-512.png", "custom_css": null}, {"id": 18952, "slack_id": "U0976S36RGE", "display_name": "ahmedllshafiey", "bio": null, "projects_count": 0, "devlogs_count": 0, "votes_count": 0, "ships_count": 0, "projects": [], "coding_time_seconds": 0, "coding_time_seconds_today": 0, "balance": "You need to have a pocket watcher badge to view this.", "badges": [], "created_at": "2025-07-24T05:57:51.097-04:00", "updated_at": "2025-07-24T10:35:45.646-04:00", "avatar": "https://secure.gravatar.com/avatar/7f8e0d71f5dd4520e37bafeb163cbf15.jpg?s=512&d=https%3A%2F%2Fa.slack-edge.com%2Fdf10d%2Fimg%2Favatars%2Fava_0004-512.png", "custom_css": null}, {"id": 18953, "slack_id": "U09786A1NR3", "display_name": "Joshua Oni", "bio": null, "projects_count": 0, "devlogs_count": 0, "votes_count": 0, "ships_count": 0, "projects": [], "coding_time_seconds": 0, "coding_time_seconds_today": 0, "balance": "You need to have a pocket watcher badge to view this.", "badges": [], "created_at": "2025-07-24T05:59:56.612-04:00", "updated_at": "2025-07-24T10:35:45.743-04:00", "avatar": "https://secure.gravatar.com/avatar/df2c365d1d8765b0964ebddb1c077b96.jpg?s=512&d=https%3A%2F%2Fa.slack-edge.com%2Fdf10d%2Fimg%2Favatars%2Fava_0018-512.png", "custom_css": null}, {"id": 18954, "slack_id": "U040RTX9CSZ", "display_name": "alex", "bio": null, "projects_count": 0, "devlogs_count": 0, "votes_count": 0, "ships_count": 0, "projects": [], "coding_time_seconds": 58497, "coding_time_seconds_today": 5660, "balance": "You need to have a pocket watcher badge to view this.", "badges": [], "created_at": "2025-07-24T06:09:05.276-04:00", "updated_at": "2025-07-25T15:57:14.710-04:00", "avatar": "https://avatars.slack-edge.com/2022-09-02/4025959630037_3936fc6215012ca64d5f_original.png", "custom_css": null}, {"id": 18955, "slack_id": "U0979SS8L6N", "display_name": "Daniel Calapez", "bio": null, "projects_count": 0, "devlogs_count": 0, "votes_count": 0, "ships_count": 0, "projects": [], "coding_time_seconds": 0, "coding_time_seconds_today": 0, "balance": "You need to have a pocket watcher badge to view this.", "badges": [], "created_at": "2025-07-24T06:13:10.133-04:00", "updated_at": "2025-07-24T06:13:18.695-04:00", "avatar": "https://secure.gravatar.com/avatar/1fb3ab8380167319e3202b41392ddb5f.jpg?s=512&d=https%3A%2F%2Fa.slack-edge.com%2Fdf10d%2Fimg%2Favatars%2Fava_0005-512.png", "custom_css": null}, {"id": 18956, "slack_id": "U097P38SVKK", "display_name": "Youssef Ayman", "bio": null, "projects_count": 0, "devlogs_count": 0, "votes_count": 0, "ships_count": 0, "projects": [], "coding_time_seconds": 0, "coding_time_seconds_today": 0, "balance": "You need to have a pocket watcher badge to view this.", "badges": [], "created_at": "2025-07-24T06:22:48.500-04:00", "updated_at": "2025-07-24T10:35:45.977-04:00", "avatar": "https://secure.gravatar.com/avatar/a86f4ef5523191e1ab5fdf62824c798b.jpg?s=512&d=https%3A%2F%2Fa.slack-edge.com%2Fdf10d%2Fimg%2Favatars%2Fava_0012-512.png", "custom_css": null}, {"id": 18957, "slack_id": "U097Y3YBVGQ", "display_name": "Annie", "bio": null, "projects_count": 1, "devlogs_count": 3, "votes_count": 12, "ships_count": 1, "projects": [{"id": 8134, "title": "Link Dash", "devlogs_count": 3, "created_at": "2025-07-24T20:27:27.688-04:00"}], "coding_time_seconds": 317722, "coding_time_seconds_today": 0, "balance": "You need to have a pocket watcher badge to view this.", "badges": [], "created_at": "2025-07-24T06:25:50.544-04:00", "updated_at": "2025-08-07T15:01:42.598-04:00", "avatar": "https://secure.gravatar.com/avatar/2293dec47f1c5f15191526c801bae2e4.jpg?s=512&d=https%3A%2F%2Fa.slack-edge.com%2Fdf10d%2Fimg%2Favatars%2Fava_0026-512.png", "custom_css": null}, {"id": 18958, "slack_id": "U0974M0FJSX", "display_name": "Indu", "bio": null, "projects_count": 0, "devlogs_count": 0, "votes_count": 0, "ships_count": 0, "projects": [], "coding_time_seconds": 0, "coding_time_seconds_today": 0, "balance": "You need to have a pocket watcher badge to view this.", "badges": [], "created_at": "2025-07-24T06:37:36.337-04:00", "updated_at": "2025-07-24T10:35:46.154-04:00", "avatar": "https://secure.gravatar.com/avatar/67b571d18da381ddebf1f89066196c14.jpg?s=512&d=https%3A%2F%2Fa.slack-edge.com%2Fdf10d%2Fimg%2Favatars%2Fava_0012-512.png", "custom_css": null}, {"id": 18959, "slack_id": "U096UKTQ1FH", "display_name": "SaySaeqo", "bio": null, "projects_count": 0, "devlogs_count": 0, "votes_count": 0, "ships_count": 0, "projects": [], "coding_time_seconds": 0, "coding_time_seconds_today": 0, "balance": "You need to have a pocket watcher badge to view this.", "badges": [], "created_at": "2025-07-24T06:37:41.833-04:00", "updated_at": "2025-07-24T10:35:46.261-04:00", "avatar": "https://secure.gravatar.com/avatar/70d7ff255af865c81f2a9f3900f478c4.jpg?s=512&d=https%3A%2F%2Fa.slack-edge.com%2Fdf10d%2Fimg%2Favatars%2Fava_0021-512.png", "custom_css": null}, {"id": 18960, "slack_id": "U0977MKQW3F", "display_name": "Shaik Mastanbi", "bio": null, "projects_count": 0, "devlogs_count": 0, "votes_count": 0, "ships_count": 0, "projects": [], "coding_time_seconds": 103180, "coding_time_seconds_today": 0, "balance": "You need to have a pocket watcher badge to view this.", "badges": [], "created_at": "2025-07-24T06:46:49.338-04:00", "updated_at": "2025-08-01T01:52:50.239-04:00", "avatar": "https://secure.gravatar.com/avatar/593f6386d0952dec5e9dcf26b08fa234.jpg?s=512&d=https%3A%2F%2Fa.slack-edge.com%2Fdf10d%2Fimg%2Favatars%2Fava_0018-512.png", "custom_css": null}, {"id": 18961, "slack_id": "U097Y8A3R7S", "display_name": "Alex", "bio": null, "projects_count": 0, "devlogs_count": 0, "votes_count": 0, "ships_count": 0, "projects": [], "coding_time_seconds": 0, "coding_time_seconds_today": 0, "balance": "You need to have a pocket watcher badge to view this.", "badges": [], "created_at": "2025-07-24T07:00:26.676-04:00", "updated_at": "2025-07-24T10:35:46.447-04:00", "avatar": "https://secure.gravatar.com/avatar/22c418a60a62e118c6d3c0fe2001e151.jpg?s=512&d=https%3A%2F%2Fa.slack-edge.com%2Fdf10d%2Fimg%2Favatars%2Fava_0013-512.png", "custom_css": null}, {"id": 18962, "slack_id": "U097Y8S9Q2U", "display_name": "Ali Abid", "bio": null, "projects_count": 0, "devlogs_count": 0, "votes_count": 0, "ships_count": 0, "projects": [], "coding_time_seconds": 0, "coding_time_seconds_today": 0, "balance": "You need to have a pocket watcher badge to view this.", "badges": [], "created_at": "2025-07-24T07:05:29.972-04:00", "updated_at": "2025-07-24T10:53:16.433-04:00", "avatar": "https://secure.gravatar.com/avatar/45e44960f829a82d032c247163217461.jpg?s=512&d=https%3A%2F%2Fa.slack-edge.com%2Fdf10d%2Fimg%2Favatars%2Fava_0021-512.png", "custom_css": null}, {"id": 18963, "slack_id": "U096UPCRWDV", "display_name": "Priyam Lahiri", "bio": null, "projects_count": 0, "devlogs_count": 0, "votes_count": 0, "ships_count": 0, "projects": [], "coding_time_seconds": 0, "coding_time_seconds_today": 0, "balance": "You need to have a pocket watcher badge to view this.", "badges": [], "created_at": "2025-07-24T07:07:01.467-04:00", "updated_at": "2025-07-24T10:35:46.624-04:00", "avatar": "https://secure.gravatar.com/avatar/af2b820d72c1ba7e864ef113b11ff911.jpg?s=512&d=https%3A%2F%2Fa.slack-edge.com%2Fdf10d%2Fimg%2Favatars%2Fava_0001-512.png", "custom_css": null}, {"id": 18964, "slack_id": "U0974T3AV1R", "display_name": "Solomon", "bio": null, "projects_count": 0, "devlogs_count": 0, "votes_count": 0, "ships_count": 0, "projects": [], "coding_time_seconds": 102045, "coding_time_seconds_today": 0, "balance": "You need to have a pocket watcher badge to view this.", "badges": [], "created_at": "2025-07-24T07:07:13.122-04:00", "updated_at": "2025-07-24T10:35:46.712-04:00", "avatar": "https://avatars.slack-edge.com/2025-07-24/9245212476166_3d04fd847498a8be880b_original.jpg", "custom_css": null}, {"id": 18965, "slack_id": "U0978FLLA3F", "display_name": "Ollie Wilson", "bio": null, "projects_count": 1, "devlogs_count": 0, "votes_count": 0, "ships_count": 0, "projects": [{"id": 8169, "title": "Learning Python", "devlogs_count": 0, "created_at": "2025-07-25T03:40:45.168-04:00"}], "coding_time_seconds": 48839, "coding_time_seconds_today": 0, "balance": "You need to have a pocket watcher badge to view this.", "badges": [], "created_at": "2025-07-24T07:09:05.773-04:00", "updated_at": "2025-07-25T03:37:42.830-04:00", "avatar": "https://secure.gravatar.com/avatar/2f0e86f7e9bc39cdfb041574e62330ed.jpg?s=512&d=https%3A%2F%2Fa.slack-edge.com%2Fdf10d%2Fimg%2Favatars%2Fava_0024-512.png", "custom_css": null}], "pagination": {"page": 944, "pages": 1192, "count": 23828, "items": 20}}