{"users": [{"id": 18966, "slack_id": "U097YAGJ2QG", "display_name": "Ayush Agarwal", "bio": null, "projects_count": 0, "devlogs_count": 0, "votes_count": 0, "ships_count": 0, "projects": [], "coding_time_seconds": 0, "coding_time_seconds_today": 0, "balance": "You need to have a pocket watcher badge to view this.", "badges": [], "created_at": "2025-07-24T07:20:06.833-04:00", "updated_at": "2025-07-24T10:35:46.905-04:00", "avatar": "https://secure.gravatar.com/avatar/e3af835643696bc25cc55b54a983a827.jpg?s=512&d=https%3A%2F%2Fa.slack-edge.com%2Fdf10d%2Fimg%2Favatars%2Fava_0015-512.png", "custom_css": null}, {"id": 18967, "slack_id": "U0974V68SLT", "display_name": "Noah", "bio": null, "projects_count": 0, "devlogs_count": 0, "votes_count": 0, "ships_count": 0, "projects": [], "coding_time_seconds": 0, "coding_time_seconds_today": 0, "balance": "You need to have a pocket watcher badge to view this.", "badges": [], "created_at": "2025-07-24T07:23:28.798-04:00", "updated_at": "2025-07-24T10:35:46.994-04:00", "avatar": "https://secure.gravatar.com/avatar/e1a3f43dfd8bfdce1e3599c2d266f9f8.jpg?s=512&d=https%3A%2F%2Fa.slack-edge.com%2Fdf10d%2Fimg%2Favatars%2Fava_0006-512.png", "custom_css": null}, {"id": 18968, "slack_id": "U0974V7F54K", "display_name": "Mohammed Huzaifa", "bio": null, "projects_count": 1, "devlogs_count": 2, "votes_count": 3, "ships_count": 1, "projects": [{"id": 8418, "title": "Math Solver", "devlogs_count": 2, "created_at": "2025-07-27T02:26:47.943-04:00"}], "coding_time_seconds": 9905, "coding_time_seconds_today": 0, "balance": "You need to have a pocket watcher badge to view this.", "badges": [], "created_at": "2025-07-24T07:27:21.846-04:00", "updated_at": "2025-07-26T05:48:55.196-04:00", "avatar": "https://secure.gravatar.com/avatar/2a84924309d8be5212818719644362df.jpg?s=512&d=https%3A%2F%2Fa.slack-edge.com%2Fdf10d%2Fimg%2Favatars%2Fava_0022-512.png", "custom_css": null}, {"id": 18969, "slack_id": "U09728N1NSW", "display_name": "Tiwari Naga Ganesh Prasad", "bio": null, "projects_count": 0, "devlogs_count": 0, "votes_count": 0, "ships_count": 0, "projects": [], "coding_time_seconds": 24031, "coding_time_seconds_today": 0, "balance": "You need to have a pocket watcher badge to view this.", "badges": [], "created_at": "2025-07-24T07:38:09.262-04:00", "updated_at": "2025-07-24T10:35:51.205-04:00", "avatar": "https://avatars.slack-edge.com/2025-07-24/9232929999431_281cbd6e5ce9d3a7a23f_original.jpg", "custom_css": null}, {"id": 18970, "slack_id": "U0978KKK1EZ", "display_name": "Andrej", "bio": null, "projects_count": 0, "devlogs_count": 0, "votes_count": 0, "ships_count": 0, "projects": [], "coding_time_seconds": 0, "coding_time_seconds_today": 0, "balance": "You need to have a pocket watcher badge to view this.", "badges": [], "created_at": "2025-07-24T07:39:24.976-04:00", "updated_at": "2025-07-24T10:35:51.314-04:00", "avatar": "https://secure.gravatar.com/avatar/f264fa72af972347839cf36db5cbfe62.jpg?s=512&d=https%3A%2F%2Fa.slack-edge.com%2Fdf10d%2Fimg%2Favatars%2Fava_0022-512.png", "custom_css": null}, {"id": 18971, "slack_id": "U097B9B80A0", "display_name": "Maxime Fran\u00e7ois", "bio": null, "projects_count": 0, "devlogs_count": 0, "votes_count": 0, "ships_count": 0, "projects": [], "coding_time_seconds": 0, "coding_time_seconds_today": 0, "balance": "You need to have a pocket watcher badge to view this.", "badges": [], "created_at": "2025-07-24T07:51:26.853-04:00", "updated_at": "2025-07-24T10:35:51.438-04:00", "avatar": "https://avatars.slack-edge.com/2025-07-24/9243114104259_5b5396f3779d425bb429_original.jpg", "custom_css": null}, {"id": 18972, "slack_id": "U097BA2KLTW", "display_name": "Eugene Powell", "bio": null, "projects_count": 0, "devlogs_count": 0, "votes_count": 0, "ships_count": 0, "projects": [], "coding_time_seconds": 0, "coding_time_seconds_today": 0, "balance": "You need to have a pocket watcher badge to view this.", "badges": [], "created_at": "2025-07-24T07:58:25.159-04:00", "updated_at": "2025-07-24T10:35:51.545-04:00", "avatar": "https://secure.gravatar.com/avatar/d9df48e619d49b473c82ef32f3a71dd6.jpg?s=512&d=https%3A%2F%2Fa.slack-edge.com%2Fdf10d%2Fimg%2Favatars%2Fava_0021-512.png", "custom_css": null}, {"id": 18973, "slack_id": "U0977BWL6H4", "display_name": "Revanth Reddy Avuthu", "bio": null, "projects_count": 0, "devlogs_count": 0, "votes_count": 0, "ships_count": 0, "projects": [], "coding_time_seconds": 0, "coding_time_seconds_today": 0, "balance": "You need to have a pocket watcher badge to view this.", "badges": [], "created_at": "2025-07-24T07:59:03.658-04:00", "updated_at": "2025-07-24T15:56:44.170-04:00", "avatar": "https://avatars.slack-edge.com/2025-07-24/9233010052375_305715d6a9176ed52bc5_original.png", "custom_css": null}, {"id": 18974, "slack_id": "U097YFT5TFS", "display_name": "Mohsina Parveen", "bio": null, "projects_count": 0, "devlogs_count": 0, "votes_count": 0, "ships_count": 0, "projects": [], "coding_time_seconds": 228734, "coding_time_seconds_today": 0, "balance": "You need to have a pocket watcher badge to view this.", "badges": [], "created_at": "2025-07-24T08:02:25.702-04:00", "updated_at": "2025-07-24T10:35:51.746-04:00", "avatar": "https://secure.gravatar.com/avatar/809552a9412db96e080101c62fde7d47.jpg?s=512&d=https%3A%2F%2Fa.slack-edge.com%2Fdf10d%2Fimg%2Favatars%2Fava_0004-512.png", "custom_css": null}, {"id": 18975, "slack_id": "U097BB4SRM2", "display_name": "Mihail Ilyin", "bio": null, "projects_count": 1, "devlogs_count": 4, "votes_count": 1, "ships_count": 0, "projects": [{"id": 8554, "title": "TinkFlow", "devlogs_count": 1, "created_at": "2025-07-28T06:20:00.951-04:00"}], "coding_time_seconds": 136822, "coding_time_seconds_today": 0, "balance": "You need to have a pocket watcher badge to view this.", "badges": [], "created_at": "2025-07-24T08:03:12.994-04:00", "updated_at": "2025-08-06T12:24:07.553-04:00", "avatar": "https://avatars.slack-edge.com/2025-07-24/9270590736704_634cd7266dbf7f13b805_original.jpg", "custom_css": null}, {"id": 18976, "slack_id": "U0971SF5EV8", "display_name": "Ivy", "bio": null, "projects_count": 0, "devlogs_count": 0, "votes_count": 0, "ships_count": 0, "projects": [], "coding_time_seconds": 50981, "coding_time_seconds_today": 0, "balance": "You need to have a pocket watcher badge to view this.", "badges": [], "created_at": "2025-07-24T08:03:58.239-04:00", "updated_at": "2025-07-24T10:35:51.935-04:00", "avatar": "https://secure.gravatar.com/avatar/f8f3bab36f7829bf7a98e32441dc195c.jpg?s=512&d=https%3A%2F%2Fa.slack-edge.com%2Fdf10d%2Fimg%2Favatars%2Fava_0017-512.png", "custom_css": null}, {"id": 18977, "slack_id": "U0978PHJZS9", "display_name": "Nandani Shukla", "bio": null, "projects_count": 0, "devlogs_count": 0, "votes_count": 0, "ships_count": 0, "projects": [], "coding_time_seconds": 0, "coding_time_seconds_today": 0, "balance": "You need to have a pocket watcher badge to view this.", "badges": [], "created_at": "2025-07-24T08:07:24.972-04:00", "updated_at": "2025-07-24T12:39:57.048-04:00", "avatar": "https://secure.gravatar.com/avatar/ca264a64da226c1eb0196779d5260c17.jpg?s=512&d=https%3A%2F%2Fa.slack-edge.com%2Fdf10d%2Fimg%2Favatars%2Fava_0026-512.png", "custom_css": null}, {"id": 18978, "slack_id": "U097AD65MQA", "display_name": "Martin Benny", "bio": null, "projects_count": 0, "devlogs_count": 0, "votes_count": 0, "ships_count": 0, "projects": [], "coding_time_seconds": 0, "coding_time_seconds_today": 0, "balance": "You need to have a pocket watcher badge to view this.", "badges": [], "created_at": "2025-07-24T08:07:32.141-04:00", "updated_at": "2025-07-24T10:35:52.112-04:00", "avatar": "https://secure.gravatar.com/avatar/5a9e0ef5bccd79377baa40f9eb70eeb4.jpg?s=512&d=https%3A%2F%2Fa.slack-edge.com%2Fdf10d%2Fimg%2Favatars%2Fava_0018-512.png", "custom_css": null}, {"id": 18979, "slack_id": "U0977DJQHF0", "display_name": "Amit Kumar Chaurasia", "bio": null, "projects_count": 0, "devlogs_count": 0, "votes_count": 0, "ships_count": 0, "projects": [], "coding_time_seconds": 0, "coding_time_seconds_today": 0, "balance": "You need to have a pocket watcher badge to view this.", "badges": [], "created_at": "2025-07-24T08:11:28.853-04:00", "updated_at": "2025-07-24T10:35:52.199-04:00", "avatar": "https://secure.gravatar.com/avatar/98ec11e124891f15096f6df1ef0e8647.jpg?s=512&d=https%3A%2F%2Fa.slack-edge.com%2Fdf10d%2Fimg%2Favatars%2Fava_0020-512.png", "custom_css": null}, {"id": 18980, "slack_id": "U08MB6F4CUE", "display_name": "Connor Denihan", "bio": "", "projects_count": 0, "devlogs_count": 0, "votes_count": 0, "ships_count": 0, "projects": [], "coding_time_seconds": 13865, "coding_time_seconds_today": 0, "balance": "You need to have a pocket watcher badge to view this.", "badges": [], "created_at": "2025-07-24T08:12:56.522-04:00", "updated_at": "2025-07-24T08:15:36.885-04:00", "avatar": "https://avatars.slack-edge.com/2025-04-09/8717986044967_43e7729f38a59b81b717_original.jpg", "custom_css": null}, {"id": 18981, "slack_id": "U09779F9VJS", "display_name": "miles zeilstra", "bio": null, "projects_count": 0, "devlogs_count": 0, "votes_count": 0, "ships_count": 0, "projects": [], "coding_time_seconds": 0, "coding_time_seconds_today": 0, "balance": "You need to have a pocket watcher badge to view this.", "badges": [], "created_at": "2025-07-24T08:16:18.187-04:00", "updated_at": "2025-07-24T10:35:52.353-04:00", "avatar": "https://avatars.slack-edge.com/2025-07-24/9233093671239_ec8adacc8f0cc8be6525_original.png", "custom_css": null}, {"id": 18982, "slack_id": "U097MECQ6C9", "display_name": "Ayushi Rahane", "bio": null, "projects_count": 0, "devlogs_count": 0, "votes_count": 0, "ships_count": 0, "projects": [], "coding_time_seconds": 1723, "coding_time_seconds_today": 0, "balance": "You need to have a pocket watcher badge to view this.", "badges": [], "created_at": "2025-07-24T08:37:43.218-04:00", "updated_at": "2025-07-24T10:35:52.452-04:00", "avatar": "https://secure.gravatar.com/avatar/9fb82a8ce7d548745e29eaeeb79639c3.jpg?s=512&d=https%3A%2F%2Fa.slack-edge.com%2Fdf10d%2Fimg%2Favatars%2Fava_0024-512.png", "custom_css": null}, {"id": 18983, "slack_id": "U097BFZ4CPN", "display_name": "Akeen Karkare", "bio": null, "projects_count": 0, "devlogs_count": 0, "votes_count": 0, "ships_count": 0, "projects": [], "coding_time_seconds": 0, "coding_time_seconds_today": 0, "balance": "You need to have a pocket watcher badge to view this.", "badges": [], "created_at": "2025-07-24T08:39:06.614-04:00", "updated_at": "2025-07-24T10:35:52.527-04:00", "avatar": "https://avatars.slack-edge.com/2025-07-24/9249558045316_d9b8c3e09e4a2aa55011_original.jpg", "custom_css": null}, {"id": 18984, "slack_id": "U097BGPKXMJ", "display_name": "Aldo mengo", "bio": null, "projects_count": 0, "devlogs_count": 0, "votes_count": 0, "ships_count": 0, "projects": [], "coding_time_seconds": 0, "coding_time_seconds_today": 0, "balance": "You need to have a pocket watcher badge to view this.", "badges": [], "created_at": "2025-07-24T08:45:31.024-04:00", "updated_at": "2025-07-24T10:35:52.645-04:00", "avatar": "https://secure.gravatar.com/avatar/e02c49b0f3c71d6accad9cf1d1040d2f.jpg?s=512&d=https%3A%2F%2Fa.slack-edge.com%2Fdf10d%2Fimg%2Favatars%2Fava_0005-512.png", "custom_css": null}, {"id": 18985, "slack_id": "U097YP0LJE4", "display_name": "Prime", "bio": null, "projects_count": 0, "devlogs_count": 0, "votes_count": 0, "ships_count": 0, "projects": [], "coding_time_seconds": 0, "coding_time_seconds_today": 0, "balance": "You need to have a pocket watcher badge to view this.", "badges": [], "created_at": "2025-07-24T08:56:28.370-04:00", "updated_at": "2025-07-24T10:35:52.755-04:00", "avatar": "https://secure.gravatar.com/avatar/06e391fbefc1aea0c632d0edda693531.jpg?s=512&d=https%3A%2F%2Fa.slack-edge.com%2Fdf10d%2Fimg%2Favatars%2Fava_0017-512.png", "custom_css": null}], "pagination": {"page": 945, "pages": 1192, "count": 23828, "items": 20}}