{"users": [{"id": 18986, "slack_id": "U0975DAUXNX", "display_name": "Rahul", "bio": null, "projects_count": 0, "devlogs_count": 0, "votes_count": 0, "ships_count": 0, "projects": [], "coding_time_seconds": 0, "coding_time_seconds_today": 0, "balance": "You need to have a pocket watcher badge to view this.", "badges": [], "created_at": "2025-07-24T09:01:21.234-04:00", "updated_at": "2025-07-24T10:35:52.851-04:00", "avatar": "https://secure.gravatar.com/avatar/42446182f4bb2504f2d9abfb3c8a8523.jpg?s=512&d=https%3A%2F%2Fa.slack-edge.com%2Fdf10d%2Fimg%2Favatars%2Fava_0007-512.png", "custom_css": null}, {"id": 18987, "slack_id": "U0975DWSYAF", "display_name": "Su Eason", "bio": null, "projects_count": 0, "devlogs_count": 0, "votes_count": 0, "ships_count": 0, "projects": [], "coding_time_seconds": 0, "coding_time_seconds_today": 0, "balance": "You need to have a pocket watcher badge to view this.", "badges": [], "created_at": "2025-07-24T09:05:29.162-04:00", "updated_at": "2025-07-24T10:35:52.940-04:00", "avatar": "https://avatars.slack-edge.com/2025-07-24/9233338595639_205c42649a5f13e637c6_original.jpg", "custom_css": null}, {"id": 18988, "slack_id": "U0975DXJP3M", "display_name": "Mariam Nadeem", "bio": "My name is Mariam Nadeem. Currently studying at university. I have completed my three semesters and will be joining my 4th semester in October. I have three months of vacation, and I want to use this time to improve my skills. Skills like development. I have already mastered languages like HTML, CSS, JavaScript, Java, and C++", "projects_count": 0, "devlogs_count": 0, "votes_count": 0, "ships_count": 0, "projects": [], "coding_time_seconds": 13717, "coding_time_seconds_today": 0, "balance": "You need to have a pocket watcher badge to view this.", "badges": [], "created_at": "2025-07-24T09:05:38.621-04:00", "updated_at": "2025-07-24T10:35:53.032-04:00", "avatar": "https://avatars.slack-edge.com/2025-07-24/9249882793908_d24d87deb246be709611_original.png", "custom_css": null}, {"id": 18989, "slack_id": "U097BJU42H2", "display_name": "tataverteee", "bio": null, "projects_count": 0, "devlogs_count": 0, "votes_count": 0, "ships_count": 0, "projects": [], "coding_time_seconds": 0, "coding_time_seconds_today": 0, "balance": "You need to have a pocket watcher badge to view this.", "badges": [], "created_at": "2025-07-24T09:17:37.636-04:00", "updated_at": "2025-08-05T20:59:07.785-04:00", "avatar": "https://secure.gravatar.com/avatar/f7b9ac7eb80e5d28edf304674ee1b10d.jpg?s=512&d=https%3A%2F%2Fa.slack-edge.com%2Fdf10d%2Fimg%2Favatars%2Fava_0016-512.png", "custom_css": null}, {"id": 18990, "slack_id": "U0975GNL54K", "display_name": "Henry Martij", "bio": "guys i mispelled my own name when signing up aghhhh", "projects_count": 5, "devlogs_count": 4, "votes_count": 21, "ships_count": 1, "projects": [{"id": 8130, "title": "abCTF", "devlogs_count": 2, "created_at": "2025-07-24T20:13:13.366-04:00"}, {"id": 10664, "title": "Honeycrisp", "devlogs_count": 1, "created_at": "2025-08-09T12:34:37.012-04:00"}, {"id": 11862, "title": "Lumos", "devlogs_count": 0, "created_at": "2025-08-20T12:02:09.659-04:00"}, {"id": 11868, "title": "librestop", "devlogs_count": 0, "created_at": "2025-08-20T13:22:15.793-04:00"}, {"id": 8593, "title": "My music taste, by the numbers", "devlogs_count": 1, "created_at": "2025-07-28T12:03:24.873-04:00"}], "coding_time_seconds": 340995, "coding_time_seconds_today": 0, "balance": "You need to have a pocket watcher badge to view this.", "badges": [], "created_at": "2025-07-24T09:22:02.758-04:00", "updated_at": "2025-08-09T11:53:40.275-04:00", "avatar": "https://secure.gravatar.com/avatar/413f829e6e90b705cf6dc7bbb6457f31.jpg?s=512&d=https%3A%2F%2Fa.slack-edge.com%2Fdf10d%2Fimg%2Favatars%2Fava_0003-512.png", "custom_css": null}, {"id": 18991, "slack_id": "U097BETG0G4", "display_name": "Robert Joseph", "bio": null, "projects_count": 0, "devlogs_count": 0, "votes_count": 0, "ships_count": 0, "projects": [], "coding_time_seconds": 120, "coding_time_seconds_today": 0, "balance": "You need to have a pocket watcher badge to view this.", "badges": [], "created_at": "2025-07-24T09:28:46.432-04:00", "updated_at": "2025-07-24T10:35:53.315-04:00", "avatar": "https://secure.gravatar.com/avatar/f1c625d1eaa75fe9808a49d13db4d415.jpg?s=512&d=https%3A%2F%2Fa.slack-edge.com%2Fdf10d%2Fimg%2Favatars%2Fava_0012-512.png", "custom_css": null}, {"id": 18992, "slack_id": "U09794SNJMT", "display_name": "BIT", "bio": null, "projects_count": 0, "devlogs_count": 0, "votes_count": 0, "ships_count": 0, "projects": [], "coding_time_seconds": 24584, "coding_time_seconds_today": 4459, "balance": "You need to have a pocket watcher badge to view this.", "badges": [], "created_at": "2025-07-24T09:30:40.380-04:00", "updated_at": "2025-07-24T10:35:57.432-04:00", "avatar": "https://secure.gravatar.com/avatar/2175a391aa47ae9ea61341d773dc6534.jpg?s=512&d=https%3A%2F%2Fa.slack-edge.com%2Fdf10d%2Fimg%2Favatars%2Fava_0022-512.png", "custom_css": null}, {"id": 18993, "slack_id": "U097AT32PFC", "display_name": "Sandhya _Kishanganj", "bio": null, "projects_count": 0, "devlogs_count": 0, "votes_count": 0, "ships_count": 0, "projects": [], "coding_time_seconds": 0, "coding_time_seconds_today": 0, "balance": "You need to have a pocket watcher badge to view this.", "badges": [], "created_at": "2025-07-24T09:36:25.835-04:00", "updated_at": "2025-07-24T10:35:57.510-04:00", "avatar": "https://avatars.slack-edge.com/2025-07-24/9262044440273_6fccc369a2565b82b021_original.png", "custom_css": null}, {"id": 18994, "slack_id": "U097Z0LGGSU", "display_name": "Thiru sakthivel", "bio": null, "projects_count": 0, "devlogs_count": 0, "votes_count": 0, "ships_count": 0, "projects": [], "coding_time_seconds": 8217, "coding_time_seconds_today": 0, "balance": "You need to have a pocket watcher badge to view this.", "badges": [], "created_at": "2025-07-24T09:38:23.243-04:00", "updated_at": "2025-07-24T10:35:57.597-04:00", "avatar": "https://avatars.slack-edge.com/2025-07-24/9248971331394_163a4573318605fff040_original.png", "custom_css": null}, {"id": 18995, "slack_id": "U097P2DJ3DX", "display_name": "Hassan", "bio": null, "projects_count": 0, "devlogs_count": 0, "votes_count": 0, "ships_count": 0, "projects": [], "coding_time_seconds": 0, "coding_time_seconds_today": 0, "balance": "You need to have a pocket watcher badge to view this.", "badges": [], "created_at": "2025-07-24T09:43:23.447-04:00", "updated_at": "2025-07-24T10:35:58.420-04:00", "avatar": "https://secure.gravatar.com/avatar/85b1552258715f4342c8bf03fbeca974.jpg?s=512&d=https%3A%2F%2Fa.slack-edge.com%2Fdf10d%2Fimg%2Favatars%2Fava_0008-512.png", "custom_css": null}, {"id": 18996, "slack_id": "U09799ZM05B", "display_name": "Hurkov", "bio": null, "projects_count": 0, "devlogs_count": 0, "votes_count": 0, "ships_count": 0, "projects": [], "coding_time_seconds": 0, "coding_time_seconds_today": 0, "balance": "You need to have a pocket watcher badge to view this.", "badges": [], "created_at": "2025-07-24T09:44:11.364-04:00", "updated_at": "2025-07-24T10:35:58.505-04:00", "avatar": "https://secure.gravatar.com/avatar/fd18f729c3d83a6e7256b90ba8445e86.jpg?s=512&d=https%3A%2F%2Fa.slack-edge.com%2Fdf10d%2Fimg%2Favatars%2Fava_0004-512.png", "custom_css": null}, {"id": 18997, "slack_id": "U0976TZ1BCN", "display_name": "ghost", "bio": null, "projects_count": 1, "devlogs_count": 33, "votes_count": 83, "ships_count": 0, "projects": [{"id": 8202, "title": "YappyYap", "devlogs_count": 33, "created_at": "2025-07-25T07:31:45.996-04:00"}], "coding_time_seconds": 411152, "coding_time_seconds_today": 471, "balance": "You need to have a pocket watcher badge to view this.", "badges": [], "created_at": "2025-07-24T09:44:17.262-04:00", "updated_at": "2025-08-07T08:36:41.760-04:00", "avatar": "https://secure.gravatar.com/avatar/3607cc5df82e06e76be1ef06515cc1b4.jpg?s=512&d=https%3A%2F%2Fa.slack-edge.com%2Fdf10d%2Fimg%2Favatars%2Fava_0016-512.png", "custom_css": null}, {"id": 18998, "slack_id": "U09748DAK9B", "display_name": "umar ahad usmani", "bio": null, "projects_count": 0, "devlogs_count": 0, "votes_count": 0, "ships_count": 0, "projects": [], "coding_time_seconds": 0, "coding_time_seconds_today": 0, "balance": "You need to have a pocket watcher badge to view this.", "badges": [], "created_at": "2025-07-24T09:49:07.687-04:00", "updated_at": "2025-07-24T11:00:04.458-04:00", "avatar": "https://secure.gravatar.com/avatar/17458bbc9b53b805acf4f306ba72ac5d.jpg?s=512&d=https%3A%2F%2Fa.slack-edge.com%2Fdf10d%2Fimg%2Favatars%2Fava_0001-512.png", "custom_css": null}, {"id": 18999, "slack_id": "U097BUAE57W", "display_name": "Priyanshu Paul", "bio": null, "projects_count": 0, "devlogs_count": 0, "votes_count": 0, "ships_count": 0, "projects": [], "coding_time_seconds": 0, "coding_time_seconds_today": 0, "balance": "You need to have a pocket watcher badge to view this.", "badges": [], "created_at": "2025-07-24T09:51:47.128-04:00", "updated_at": "2025-07-24T10:36:02.805-04:00", "avatar": "https://secure.gravatar.com/avatar/22dcc06e83f34617ea4ff12a4ef55105.jpg?s=512&d=https%3A%2F%2Fa.slack-edge.com%2Fdf10d%2Fimg%2Favatars%2Fava_0020-512.png", "custom_css": null}, {"id": 19000, "slack_id": "U097Z3MSJ9E", "display_name": "DaoJing", "bio": null, "projects_count": 0, "devlogs_count": 0, "votes_count": 0, "ships_count": 0, "projects": [], "coding_time_seconds": 48701, "coding_time_seconds_today": 0, "balance": "You need to have a pocket watcher badge to view this.", "badges": [], "created_at": "2025-07-24T09:53:03.382-04:00", "updated_at": "2025-07-24T10:36:02.898-04:00", "avatar": "https://secure.gravatar.com/avatar/aff22cfbacf13d634d289ff333b7241a.jpg?s=512&d=https%3A%2F%2Fa.slack-edge.com%2Fdf10d%2Fimg%2Favatars%2Fava_0007-512.png", "custom_css": null}, {"id": 19001, "slack_id": "U097BUTR43W", "display_name": "ArtZX", "bio": null, "projects_count": 0, "devlogs_count": 0, "votes_count": 0, "ships_count": 0, "projects": [], "coding_time_seconds": 0, "coding_time_seconds_today": 0, "balance": "You need to have a pocket watcher badge to view this.", "badges": [], "created_at": "2025-07-24T09:59:14.861-04:00", "updated_at": "2025-07-24T10:36:02.975-04:00", "avatar": "https://secure.gravatar.com/avatar/3a8e3a691e899759047f32b202ba471e.jpg?s=512&d=https%3A%2F%2Fa.slack-edge.com%2Fdf10d%2Fimg%2Favatars%2Fava_0014-512.png", "custom_css": null}, {"id": 19002, "slack_id": "U0978290HV4", "display_name": "Krrishnakrupa S", "bio": null, "projects_count": 0, "devlogs_count": 0, "votes_count": 0, "ships_count": 0, "projects": [], "coding_time_seconds": 0, "coding_time_seconds_today": 0, "balance": "You need to have a pocket watcher badge to view this.", "badges": [], "created_at": "2025-07-24T10:01:54.937-04:00", "updated_at": "2025-07-24T10:36:03.069-04:00", "avatar": "https://secure.gravatar.com/avatar/5ec7a36b6c1e0838c83a71ad20e39a1d.jpg?s=512&d=https%3A%2F%2Fa.slack-edge.com%2Fdf10d%2Fimg%2Favatars%2Fava_0008-512.png", "custom_css": null}, {"id": 19003, "slack_id": "U096NBZAZA9", "display_name": "Ajay Meena", "bio": null, "projects_count": 0, "devlogs_count": 7, "votes_count": 0, "ships_count": 0, "projects": [], "coding_time_seconds": 52219, "coding_time_seconds_today": 0, "balance": "You need to have a pocket watcher badge to view this.", "badges": [], "created_at": "2025-07-24T10:10:37.005-04:00", "updated_at": "2025-08-10T12:20:22.847-04:00", "avatar": "https://avatars.slack-edge.com/2025-07-24/9262264209409_1f67f53ec41642994b73_original.png", "custom_css": null}, {"id": 19004, "slack_id": "U097B5HG4LA", "display_name": "Chanied", "bio": null, "projects_count": 0, "devlogs_count": 0, "votes_count": 0, "ships_count": 0, "projects": [], "coding_time_seconds": 0, "coding_time_seconds_today": 0, "balance": "You need to have a pocket watcher badge to view this.", "badges": [], "created_at": "2025-07-24T10:13:29.095-04:00", "updated_at": "2025-07-24T10:36:03.233-04:00", "avatar": "https://secure.gravatar.com/avatar/d2baa76225dc7a27c8da9185a800201c.jpg?s=512&d=https%3A%2F%2Fa.slack-edge.com%2Fdf10d%2Fimg%2Favatars%2Fava_0023-512.png", "custom_css": null}, {"id": 19005, "slack_id": "U0975TFJY3V", "display_name": "Ouadie ZERHOUNI", "bio": null, "projects_count": 0, "devlogs_count": 0, "votes_count": 0, "ships_count": 0, "projects": [], "coding_time_seconds": 0, "coding_time_seconds_today": 0, "balance": "You need to have a pocket watcher badge to view this.", "badges": [], "created_at": "2025-07-24T10:20:20.290-04:00", "updated_at": "2025-07-25T03:29:08.306-04:00", "avatar": "https://avatars.slack-edge.com/2025-07-24/9262323917617_e4f4fe98951ab73333f2_original.png", "custom_css": null}], "pagination": {"page": 946, "pages": 1192, "count": 23828, "items": 20}}