{"users": [{"id": 19006, "slack_id": "U0979HZPTM3", "display_name": "Deep SenGupta", "bio": null, "projects_count": 0, "devlogs_count": 0, "votes_count": 0, "ships_count": 0, "projects": [], "coding_time_seconds": 0, "coding_time_seconds_today": 0, "balance": "You need to have a pocket watcher badge to view this.", "badges": [], "created_at": "2025-07-24T10:22:29.145-04:00", "updated_at": "2025-07-24T17:23:40.173-04:00", "avatar": "https://avatars.slack-edge.com/2025-07-24/9243964944707_a41f210941a52b6b7749_original.jpg", "custom_css": null}, {"id": 19007, "slack_id": "U097875MLPQ", "display_name": "Aarav", "bio": null, "projects_count": 0, "devlogs_count": 0, "votes_count": 0, "ships_count": 0, "projects": [], "coding_time_seconds": 0, "coding_time_seconds_today": 0, "balance": "You need to have a pocket watcher badge to view this.", "badges": [], "created_at": "2025-07-24T10:25:06.818-04:00", "updated_at": "2025-07-24T17:23:40.261-04:00", "avatar": "https://secure.gravatar.com/avatar/3a80df1e456087268d945f909ad978dd.jpg?s=512&d=https%3A%2F%2Fa.slack-edge.com%2Fdf10d%2Fimg%2Favatars%2Fava_0001-512.png", "custom_css": null}, {"id": 19008, "slack_id": "U097Z4H4QE4", "display_name": "Mrudani P Unnithan", "bio": null, "projects_count": 0, "devlogs_count": 0, "votes_count": 0, "ships_count": 0, "projects": [], "coding_time_seconds": 0, "coding_time_seconds_today": 0, "balance": "You need to have a pocket watcher badge to view this.", "badges": [], "created_at": "2025-07-24T10:25:25.114-04:00", "updated_at": "2025-07-24T17:23:40.361-04:00", "avatar": "https://secure.gravatar.com/avatar/7dc253133f2fe6e2d918b46e1f040e1e.jpg?s=512&d=https%3A%2F%2Fa.slack-edge.com%2Fdf10d%2Fimg%2Favatars%2Fava_0019-512.png", "custom_css": null}, {"id": 19009, "slack_id": "U097QD3SU1X", "display_name": "Vaibhav", "bio": null, "projects_count": 2, "devlogs_count": 1, "votes_count": 0, "ships_count": 0, "projects": [{"id": 9402, "title": "TalkZ", "devlogs_count": 1, "created_at": "2025-08-01T02:44:33.055-04:00"}, {"id": 9401, "title": "TalkZ", "devlogs_count": 0, "created_at": "2025-08-01T02:44:33.045-04:00"}], "coding_time_seconds": 260510, "coding_time_seconds_today": 0, "balance": "You need to have a pocket watcher badge to view this.", "badges": [], "created_at": "2025-07-24T10:42:00.284-04:00", "updated_at": "2025-08-01T02:40:18.017-04:00", "avatar": "https://avatars.slack-edge.com/2025-07-24/9271467593504_fec84f28bf3db7ee859f_original.png", "custom_css": null}, {"id": 19010, "slack_id": "U0978A1ETLN", "display_name": "Dominik", "bio": null, "projects_count": 0, "devlogs_count": 0, "votes_count": 0, "ships_count": 0, "projects": [], "coding_time_seconds": 0, "coding_time_seconds_today": 0, "balance": "You need to have a pocket watcher badge to view this.", "badges": [], "created_at": "2025-07-24T10:42:56.420-04:00", "updated_at": "2025-07-24T17:23:40.560-04:00", "avatar": "https://secure.gravatar.com/avatar/2c0953757c6c59b2692f7d0035f0c3a5.jpg?s=512&d=https%3A%2F%2Fa.slack-edge.com%2Fdf10d%2Fimg%2Favatars%2Fava_0017-512.png", "custom_css": null}, {"id": 19011, "slack_id": "U097BBUV9J6", "display_name": "diego m", "bio": null, "projects_count": 2, "devlogs_count": 2, "votes_count": 3, "ships_count": 0, "projects": [{"id": 8069, "title": "Mur des soutiens", "devlogs_count": 0, "created_at": "2025-07-24T11:32:19.136-04:00"}, {"id": 9539, "title": "OpenLoraNet (Website)", "devlogs_count": 2, "created_at": "2025-08-01T15:54:09.327-04:00"}], "coding_time_seconds": 161549, "coding_time_seconds_today": 0, "balance": "You need to have a pocket watcher badge to view this.", "badges": [], "created_at": "2025-07-24T10:46:09.127-04:00", "updated_at": "2025-09-13T03:40:07.584-04:00", "avatar": "https://avatars.slack-edge.com/2025-09-13/9512328992498_f92ad377779d89879957_original.png", "custom_css": null}, {"id": 19012, "slack_id": "U0971J81QRF", "display_name": "RK", "bio": null, "projects_count": 0, "devlogs_count": 0, "votes_count": 0, "ships_count": 0, "projects": [], "coding_time_seconds": 0, "coding_time_seconds_today": 0, "balance": "You need to have a pocket watcher badge to view this.", "badges": [], "created_at": "2025-07-24T10:50:51.671-04:00", "updated_at": "2025-07-24T17:23:40.754-04:00", "avatar": "https://secure.gravatar.com/avatar/258250726432187549cdb98b40435ec4.jpg?s=512&d=https%3A%2F%2Fa.slack-edge.com%2Fdf10d%2Fimg%2Favatars%2Fava_0005-512.png", "custom_css": null}, {"id": 19013, "slack_id": "U097QEZH2DP", "display_name": "Abanob", "bio": null, "projects_count": 0, "devlogs_count": 0, "votes_count": 0, "ships_count": 0, "projects": [], "coding_time_seconds": 0, "coding_time_seconds_today": 0, "balance": "You need to have a pocket watcher badge to view this.", "badges": [], "created_at": "2025-07-24T10:52:01.553-04:00", "updated_at": "2025-07-24T18:45:03.680-04:00", "avatar": "https://avatars.slack-edge.com/2025-07-24/9271528853136_28eea832c9cd0372baf9_original.png", "custom_css": null}, {"id": 19014, "slack_id": "U0973FUJH1T", "display_name": "Alysson Alc\u00e2ntara", "bio": null, "projects_count": 0, "devlogs_count": 0, "votes_count": 0, "ships_count": 0, "projects": [], "coding_time_seconds": 0, "coding_time_seconds_today": 0, "balance": "You need to have a pocket watcher badge to view this.", "badges": [], "created_at": "2025-07-24T11:02:06.401-04:00", "updated_at": "2025-07-24T17:23:40.974-04:00", "avatar": "https://avatars.slack-edge.com/2025-07-24/9234056339303_8bdd88462bc3a8e0a492_original.jpg", "custom_css": null}, {"id": 19015, "slack_id": "U097ZHPKAAC", "display_name": "chittesh", "bio": null, "projects_count": 0, "devlogs_count": 29, "votes_count": 31, "ships_count": 0, "projects": [], "coding_time_seconds": 746877, "coding_time_seconds_today": 0, "balance": "You need to have a pocket watcher badge to view this.", "badges": [], "created_at": "2025-07-24T11:03:59.303-04:00", "updated_at": "2025-08-07T22:35:24.235-04:00", "avatar": "https://secure.gravatar.com/avatar/6334f5adce84070799892ac3c3e1a0a8.jpg?s=512&d=https%3A%2F%2Fa.slack-edge.com%2Fdf10d%2Fimg%2Favatars%2Fava_0009-512.png", "custom_css": null}, {"id": 19016, "slack_id": "U097BG6GS10", "display_name": "antonin rousseau", "bio": null, "projects_count": 1, "devlogs_count": 0, "votes_count": 0, "ships_count": 0, "projects": [{"id": 8064, "title": "Internship on Metal 3D printing", "devlogs_count": 0, "created_at": "2025-07-24T11:14:26.262-04:00"}], "coding_time_seconds": 40371, "coding_time_seconds_today": 0, "balance": "You need to have a pocket watcher badge to view this.", "badges": [], "created_at": "2025-07-24T11:05:38.130-04:00", "updated_at": "2025-07-24T17:23:41.166-04:00", "avatar": "https://avatars.slack-edge.com/2025-07-24/9250482192852_3f487d1bd6ef83e083a1_original.jpg", "custom_css": null}, {"id": 19017, "slack_id": "U097ZJ20J2U", "display_name": "dima", "bio": null, "projects_count": 0, "devlogs_count": 0, "votes_count": 0, "ships_count": 0, "projects": [], "coding_time_seconds": 0, "coding_time_seconds_today": 0, "balance": "You need to have a pocket watcher badge to view this.", "badges": [], "created_at": "2025-07-24T11:07:02.575-04:00", "updated_at": "2025-07-24T17:23:41.263-04:00", "avatar": "https://secure.gravatar.com/avatar/15a6f308980933a3a77045b977b239ba.jpg?s=512&d=https%3A%2F%2Fa.slack-edge.com%2Fdf10d%2Fimg%2Favatars%2Fava_0006-512.png", "custom_css": null}, {"id": 19018, "slack_id": "U096NDVJ6UF", "display_name": "Aman Raj", "bio": null, "projects_count": 0, "devlogs_count": 0, "votes_count": 0, "ships_count": 0, "projects": [], "coding_time_seconds": 58605, "coding_time_seconds_today": 0, "balance": "You need to have a pocket watcher badge to view this.", "badges": [], "created_at": "2025-07-24T11:07:10.941-04:00", "updated_at": "2025-07-24T17:23:41.363-04:00", "avatar": "https://secure.gravatar.com/avatar/1e7436623d7ce7c1dd845b87bbffa90c.jpg?s=512&d=https%3A%2F%2Fa.slack-edge.com%2Fdf10d%2Fimg%2Favatars%2Fava_0019-512.png", "custom_css": null}, {"id": 19019, "slack_id": "U0974PG5SLA", "display_name": "Evan Hu", "bio": null, "projects_count": 0, "devlogs_count": 0, "votes_count": 0, "ships_count": 0, "projects": [], "coding_time_seconds": 0, "coding_time_seconds_today": 0, "balance": "You need to have a pocket watcher badge to view this.", "badges": [], "created_at": "2025-07-24T11:07:51.620-04:00", "updated_at": "2025-07-24T17:23:41.448-04:00", "avatar": "https://secure.gravatar.com/avatar/4576b35c60ba9b5ff6404609a32e5de4.jpg?s=512&d=https%3A%2F%2Fa.slack-edge.com%2Fdf10d%2Fimg%2Favatars%2Fava_0022-512.png", "custom_css": null}, {"id": 19020, "slack_id": "U097A08AJS1", "display_name": "2010person", "bio": null, "projects_count": 0, "devlogs_count": 0, "votes_count": 0, "ships_count": 0, "projects": [], "coding_time_seconds": 0, "coding_time_seconds_today": 0, "balance": "You need to have a pocket watcher badge to view this.", "badges": [], "created_at": "2025-07-24T11:16:58.033-04:00", "updated_at": "2025-07-24T17:23:41.530-04:00", "avatar": "https://secure.gravatar.com/avatar/fa685335d2adf7dfaacde7debe8ae88a.jpg?s=512&d=https%3A%2F%2Fa.slack-edge.com%2Fdf10d%2Fimg%2Favatars%2Fava_0001-512.png", "custom_css": null}, {"id": 19021, "slack_id": "U097QLB31LZ", "display_name": "ayushmann Chathli", "bio": null, "projects_count": 0, "devlogs_count": 0, "votes_count": 0, "ships_count": 0, "projects": [], "coding_time_seconds": 0, "coding_time_seconds_today": 0, "balance": "You need to have a pocket watcher badge to view this.", "badges": [], "created_at": "2025-07-24T11:17:17.728-04:00", "updated_at": "2025-07-24T17:23:41.637-04:00", "avatar": "https://avatars.slack-edge.com/2025-07-24/9244334472963_d974ad3fe815d95ff015_original.png", "custom_css": null}, {"id": 19022, "slack_id": "U096W4306LF", "display_name": "Zelal", "bio": null, "projects_count": 0, "devlogs_count": 0, "votes_count": 0, "ships_count": 0, "projects": [], "coding_time_seconds": 825, "coding_time_seconds_today": 0, "balance": "You need to have a pocket watcher badge to view this.", "badges": [], "created_at": "2025-07-24T11:17:27.090-04:00", "updated_at": "2025-07-25T11:53:53.543-04:00", "avatar": "https://secure.gravatar.com/avatar/a110ae1ada07896fce364116f9024b92.jpg?s=512&d=https%3A%2F%2Fa.slack-edge.com%2Fdf10d%2Fimg%2Favatars%2Fava_0026-512.png", "custom_css": null}, {"id": 19023, "slack_id": "U09769Q0CRH", "display_name": "HighShoal", "bio": null, "projects_count": 0, "devlogs_count": 0, "votes_count": 0, "ships_count": 0, "projects": [], "coding_time_seconds": 36610, "coding_time_seconds_today": 0, "balance": "You need to have a pocket watcher badge to view this.", "badges": [], "created_at": "2025-07-24T11:19:49.553-04:00", "updated_at": "2025-07-26T00:06:54.069-04:00", "avatar": "https://secure.gravatar.com/avatar/278c9d7dbbbd50b51ccaab2244f9525d.jpg?s=512&d=https%3A%2F%2Fa.slack-edge.com%2Fdf10d%2Fimg%2Favatars%2Fava_0015-512.png", "custom_css": null}, {"id": 19024, "slack_id": "U096Y7PFHPD", "display_name": "Vamshi Bachu", "bio": null, "projects_count": 0, "devlogs_count": 0, "votes_count": 0, "ships_count": 0, "projects": [], "coding_time_seconds": 0, "coding_time_seconds_today": 0, "balance": "You need to have a pocket watcher badge to view this.", "badges": [], "created_at": "2025-07-24T11:23:53.886-04:00", "updated_at": "2025-07-24T17:23:41.900-04:00", "avatar": "https://secure.gravatar.com/avatar/c36e50c8f1f6c19ebaf1857d0ab0a703.jpg?s=512&d=https%3A%2F%2Fa.slack-edge.com%2Fdf10d%2Fimg%2Favatars%2Fava_0026-512.png", "custom_css": null}, {"id": 19025, "slack_id": "U097A274LH3", "display_name": "Bikalpa", "bio": null, "projects_count": 0, "devlogs_count": 0, "votes_count": 0, "ships_count": 0, "projects": [], "coding_time_seconds": 0, "coding_time_seconds_today": 0, "balance": "You need to have a pocket watcher badge to view this.", "badges": [], "created_at": "2025-07-24T11:28:15.547-04:00", "updated_at": "2025-07-24T17:23:41.977-04:00", "avatar": "https://secure.gravatar.com/avatar/82c8f9e4c92f37f331c727a966ccf843.jpg?s=512&d=https%3A%2F%2Fa.slack-edge.com%2Fdf10d%2Fimg%2Favatars%2Fava_0008-512.png", "custom_css": null}], "pagination": {"page": 947, "pages": 1192, "count": 23828, "items": 20}}