{"users": [{"id": 19026, "slack_id": "U0978LY6KU6", "display_name": "AndriiQwq", "bio": null, "projects_count": 0, "devlogs_count": 0, "votes_count": 0, "ships_count": 0, "projects": [], "coding_time_seconds": 0, "coding_time_seconds_today": 0, "balance": "You need to have a pocket watcher badge to view this.", "badges": [], "created_at": "2025-07-24T11:33:46.208-04:00", "updated_at": "2025-09-24T17:34:02.708-04:00", "avatar": "https://secure.gravatar.com/avatar/784a47db182f5bda92a5cdf4206996e5.jpg?s=512&d=https%3A%2F%2Fa.slack-edge.com%2Fdf10d%2Fimg%2Favatars%2Fava_0020-512.png", "custom_css": null}, {"id": 19027, "slack_id": "U097GHSGWGG", "display_name": "Felicity Y", "bio": null, "projects_count": 0, "devlogs_count": 0, "votes_count": 0, "ships_count": 0, "projects": [], "coding_time_seconds": 0, "coding_time_seconds_today": 0, "balance": "You need to have a pocket watcher badge to view this.", "badges": [], "created_at": "2025-07-24T11:35:41.658-04:00", "updated_at": "2025-09-14T15:02:33.754-04:00", "avatar": "https://avatars.slack-edge.com/2025-09-14/9512649979589_9620c3ffe12544764f65_original.png", "custom_css": null}, {"id": 19028, "slack_id": "U07251QMKEG", "display_name": "Rababb", "bio": null, "projects_count": 0, "devlogs_count": 0, "votes_count": 0, "ships_count": 0, "projects": [], "coding_time_seconds": 18104, "coding_time_seconds_today": 0, "balance": "You need to have a pocket watcher badge to view this.", "badges": [], "created_at": "2025-07-24T11:36:28.412-04:00", "updated_at": "2025-07-25T01:45:29.111-04:00", "avatar": "https://secure.gravatar.com/avatar/5c09d9f13a37474a1bd05263e3b552eb.jpg?s=512&d=https%3A%2F%2Fa.slack-edge.com%2Fdf10d%2Fimg%2Favatars%2Fava_0010-512.png", "custom_css": null}, {"id": 19029, "slack_id": "U097A62T42Z", "display_name": "Huyen Huynh", "bio": null, "projects_count": 0, "devlogs_count": 0, "votes_count": 0, "ships_count": 0, "projects": [], "coding_time_seconds": 54073, "coding_time_seconds_today": 0, "balance": "You need to have a pocket watcher badge to view this.", "badges": [], "created_at": "2025-07-24T11:44:27.902-04:00", "updated_at": "2025-07-25T07:27:08.856-04:00", "avatar": "https://secure.gravatar.com/avatar/5c10ef03cd78667df0f2a9fdae7293ca.jpg?s=512&d=https%3A%2F%2Fa.slack-edge.com%2Fdf10d%2Fimg%2Favatars%2Fava_0024-512.png", "custom_css": null}, {"id": 19030, "slack_id": "U097BPRM2CA", "display_name": "Manha Fatema", "bio": null, "projects_count": 0, "devlogs_count": 0, "votes_count": 0, "ships_count": 0, "projects": [], "coding_time_seconds": 2540, "coding_time_seconds_today": 0, "balance": "You need to have a pocket watcher badge to view this.", "badges": [], "created_at": "2025-07-24T11:44:55.639-04:00", "updated_at": "2025-08-27T05:12:29.668-04:00", "avatar": "https://avatars.slack-edge.com/2025-07-24/9234326234903_0ae449d8f564c6f798ef_original.png", "custom_css": null}, {"id": 19031, "slack_id": "U05SY985RJL", "display_name": "Nishi Agrawal", "bio": null, "projects_count": 0, "devlogs_count": 0, "votes_count": 0, "ships_count": 0, "projects": [], "coding_time_seconds": 27924, "coding_time_seconds_today": 0, "balance": "You need to have a pocket watcher badge to view this.", "badges": [], "created_at": "2025-07-24T11:51:51.883-04:00", "updated_at": "2025-07-25T21:11:22.811-04:00", "avatar": "https://secure.gravatar.com/avatar/6c9609193597daae54b64f9803868b47.jpg?s=512&d=https%3A%2F%2Fa.slack-edge.com%2Fdf10d%2Fimg%2Favatars%2Fava_0017-512.png", "custom_css": null}, {"id": 19032, "slack_id": "U097QT0KQ3B", "display_name": "hen yosef", "bio": null, "projects_count": 2, "devlogs_count": 6, "votes_count": 75, "ships_count": 2, "projects": [{"id": 8831, "title": "seven rogue", "devlogs_count": 4, "created_at": "2025-07-29T11:48:16.756-04:00"}, {"id": 9978, "title": "7boom.py", "devlogs_count": 2, "created_at": "2025-08-03T08:55:26.137-04:00"}], "coding_time_seconds": 52748, "coding_time_seconds_today": 0, "balance": "You need to have a pocket watcher badge to view this.", "badges": [], "created_at": "2025-07-24T11:54:08.597-04:00", "updated_at": "2025-08-09T13:47:08.572-04:00", "avatar": "https://secure.gravatar.com/avatar/9cf393c95b5e931ddb42e6b41cc9a19b.jpg?s=512&d=https%3A%2F%2Fa.slack-edge.com%2Fdf10d%2Fimg%2Favatars%2Fava_0000-512.png", "custom_css": null}, {"id": 19033, "slack_id": "U0978RUMFFG", "display_name": "raj", "bio": null, "projects_count": 0, "devlogs_count": 0, "votes_count": 0, "ships_count": 0, "projects": [], "coding_time_seconds": 0, "coding_time_seconds_today": 0, "balance": "You need to have a pocket watcher badge to view this.", "badges": [], "created_at": "2025-07-24T12:00:08.014-04:00", "updated_at": "2025-07-24T17:23:46.637-04:00", "avatar": "https://secure.gravatar.com/avatar/b694be6437b6e5f57c41c2627d2298e6.jpg?s=512&d=https%3A%2F%2Fa.slack-edge.com%2Fdf10d%2Fimg%2Favatars%2Fava_0013-512.png", "custom_css": null}, {"id": 19034, "slack_id": "U0975AL98SZ", "display_name": "GMDEV", "bio": null, "projects_count": 0, "devlogs_count": 0, "votes_count": 0, "ships_count": 0, "projects": [], "coding_time_seconds": 7973, "coding_time_seconds_today": 0, "balance": "You need to have a pocket watcher badge to view this.", "badges": [], "created_at": "2025-07-24T12:00:45.769-04:00", "updated_at": "2025-07-24T17:23:46.728-04:00", "avatar": "https://secure.gravatar.com/avatar/a281fbe0d727f1f31a88375548cc7ed9.jpg?s=512&d=https%3A%2F%2Fa.slack-edge.com%2Fdf10d%2Fimg%2Favatars%2Fava_0016-512.png", "custom_css": null}, {"id": 19035, "slack_id": "U097CPQTJUC", "display_name": "Muhammad Saad", "bio": null, "projects_count": 0, "devlogs_count": 0, "votes_count": 0, "ships_count": 0, "projects": [], "coding_time_seconds": 4867, "coding_time_seconds_today": 0, "balance": "You need to have a pocket watcher badge to view this.", "badges": [], "created_at": "2025-07-24T12:08:42.512-04:00", "updated_at": "2025-07-24T17:23:46.809-04:00", "avatar": "https://secure.gravatar.com/avatar/66d789b3dfafdcd0d436de3579fd67b3.jpg?s=512&d=https%3A%2F%2Fa.slack-edge.com%2Fdf10d%2Fimg%2Favatars%2Fava_0010-512.png", "custom_css": null}, {"id": 19036, "slack_id": "U0978UX0W78", "display_name": "Nishant", "bio": null, "projects_count": 0, "devlogs_count": 0, "votes_count": 0, "ships_count": 0, "projects": [], "coding_time_seconds": 0, "coding_time_seconds_today": 0, "balance": "You need to have a pocket watcher badge to view this.", "badges": [], "created_at": "2025-07-24T12:17:28.935-04:00", "updated_at": "2025-07-24T17:23:46.893-04:00", "avatar": "https://secure.gravatar.com/avatar/22339802915eed1070a2793ffdf4d8fe.jpg?s=512&d=https%3A%2F%2Fa.slack-edge.com%2Fdf10d%2Fimg%2Favatars%2Fava_0006-512.png", "custom_css": null}, {"id": 19037, "slack_id": "U09771SAT0E", "display_name": "Adithyan Raj", "bio": null, "projects_count": 0, "devlogs_count": 0, "votes_count": 0, "ships_count": 0, "projects": [], "coding_time_seconds": 312363, "coding_time_seconds_today": 1235, "balance": "You need to have a pocket watcher badge to view this.", "badges": [], "created_at": "2025-07-24T12:20:26.371-04:00", "updated_at": "2025-07-28T20:13:40.327-04:00", "avatar": "https://avatars.slack-edge.com/2025-07-28/9250799079687_7d9ad2c296ebff021ad7_original.jpg", "custom_css": null}, {"id": 19038, "slack_id": "U096RU9411U", "display_name": "Joanna", "bio": null, "projects_count": 0, "devlogs_count": 0, "votes_count": 0, "ships_count": 0, "projects": [], "coding_time_seconds": 0, "coding_time_seconds_today": 0, "balance": "You need to have a pocket watcher badge to view this.", "badges": [], "created_at": "2025-07-24T12:29:17.796-04:00", "updated_at": "2025-07-24T17:23:51.088-04:00", "avatar": "https://secure.gravatar.com/avatar/ce1aa55739f2075819a0b09de5ceaf2e.jpg?s=512&d=https%3A%2F%2Fa.slack-edge.com%2Fdf10d%2Fimg%2Favatars%2Fava_0010-512.png", "custom_css": null}, {"id": 19039, "slack_id": "U096WHH2QQP", "display_name": "Ali F\u0131rat \u00c7EL\u0130K", "bio": null, "projects_count": 0, "devlogs_count": 0, "votes_count": 0, "ships_count": 0, "projects": [], "coding_time_seconds": 0, "coding_time_seconds_today": 0, "balance": "You need to have a pocket watcher badge to view this.", "badges": [], "created_at": "2025-07-24T12:29:50.414-04:00", "updated_at": "2025-07-24T17:23:51.180-04:00", "avatar": "https://secure.gravatar.com/avatar/3b65c16e68d65947476d229b3857b80a.jpg?s=512&d=https%3A%2F%2Fa.slack-edge.com%2Fdf10d%2Fimg%2Favatars%2Fava_0013-512.png", "custom_css": null}, {"id": 19040, "slack_id": "U0972KK6VNG", "display_name": "Krishna Kumar", "bio": null, "projects_count": 0, "devlogs_count": 0, "votes_count": 0, "ships_count": 0, "projects": [], "coding_time_seconds": 0, "coding_time_seconds_today": 0, "balance": "You need to have a pocket watcher badge to view this.", "badges": [], "created_at": "2025-07-24T12:37:12.133-04:00", "updated_at": "2025-07-24T17:23:51.278-04:00", "avatar": "https://secure.gravatar.com/avatar/f451488fcbfcdb8953e18291a23ba368.jpg?s=512&d=https%3A%2F%2Fa.slack-edge.com%2Fdf10d%2Fimg%2Favatars%2Fava_0025-512.png", "custom_css": null}, {"id": 19041, "slack_id": "U0976R8TWE7", "display_name": "Mehuli Lahiri", "bio": null, "projects_count": 0, "devlogs_count": 0, "votes_count": 0, "ships_count": 0, "projects": [], "coding_time_seconds": 0, "coding_time_seconds_today": 0, "balance": "You need to have a pocket watcher badge to view this.", "badges": [], "created_at": "2025-07-24T12:40:51.880-04:00", "updated_at": "2025-07-24T17:23:51.366-04:00", "avatar": "https://avatars.slack-edge.com/2025-07-24/9244873513539_ec6770ac0e2826002212_original.png", "custom_css": null}, {"id": 19042, "slack_id": "U0976RBTERZ", "display_name": "Ethan Rebello", "bio": null, "projects_count": 1, "devlogs_count": 0, "votes_count": 0, "ships_count": 0, "projects": [{"id": 8080, "title": "Grade Grub: a grade-scraping chrome extension", "devlogs_count": 0, "created_at": "2025-07-24T12:50:35.093-04:00"}], "coding_time_seconds": 60431, "coding_time_seconds_today": 0, "balance": "You need to have a pocket watcher badge to view this.", "badges": [], "created_at": "2025-07-24T12:41:37.256-04:00", "updated_at": "2025-07-24T21:56:07.406-04:00", "avatar": "https://secure.gravatar.com/avatar/76d88741d37985aa388dc59e18f5dac5.jpg?s=512&d=https%3A%2F%2Fa.slack-edge.com%2Fdf10d%2Fimg%2Favatars%2Fava_0006-512.png", "custom_css": null}, {"id": 19043, "slack_id": "U097C60C50A", "display_name": "ESWAR ACHUT VENKATESAN", "bio": null, "projects_count": 0, "devlogs_count": 0, "votes_count": 0, "ships_count": 0, "projects": [], "coding_time_seconds": 3534, "coding_time_seconds_today": 0, "balance": "You need to have a pocket watcher badge to view this.", "badges": [], "created_at": "2025-07-24T12:44:27.918-04:00", "updated_at": "2025-07-25T16:22:25.216-04:00", "avatar": "https://avatars.slack-edge.com/2025-07-24/9263262864881_54b2ce63d16431f460cd_original.png", "custom_css": null}, {"id": 19044, "slack_id": "U097AJ8C2H3", "display_name": "Alex-M21", "bio": null, "projects_count": 0, "devlogs_count": 0, "votes_count": 0, "ships_count": 0, "projects": [], "coding_time_seconds": 0, "coding_time_seconds_today": 0, "balance": "You need to have a pocket watcher badge to view this.", "badges": [], "created_at": "2025-07-24T12:46:21.239-04:00", "updated_at": "2025-07-24T17:23:51.633-04:00", "avatar": "https://secure.gravatar.com/avatar/06ed3ec9a6fb6cac582e7a700701fe7a.jpg?s=512&d=https%3A%2F%2Fa.slack-edge.com%2Fdf10d%2Fimg%2Favatars%2Fava_0019-512.png", "custom_css": null}, {"id": 19045, "slack_id": "U09806RLNKS", "display_name": "Vanshika Sambher", "bio": null, "projects_count": 0, "devlogs_count": 0, "votes_count": 0, "ships_count": 0, "projects": [], "coding_time_seconds": 0, "coding_time_seconds_today": 0, "balance": "You need to have a pocket watcher badge to view this.", "badges": [], "created_at": "2025-07-24T12:47:37.518-04:00", "updated_at": "2025-07-24T17:23:51.719-04:00", "avatar": "https://avatars.slack-edge.com/2025-07-24/9251125888932_3497053f18cf4517a99f_original.png", "custom_css": null}], "pagination": {"page": 948, "pages": 1192, "count": 23828, "items": 20}}