{"users": [{"id": 19046, "slack_id": "U09807HFLPJ", "display_name": "Mohammad Saad", "bio": null, "projects_count": 0, "devlogs_count": 0, "votes_count": 0, "ships_count": 0, "projects": [], "coding_time_seconds": 6607, "coding_time_seconds_today": 0, "balance": "You need to have a pocket watcher badge to view this.", "badges": [], "created_at": "2025-07-24T12:50:48.843-04:00", "updated_at": "2025-09-11T03:38:02.050-04:00", "avatar": "https://secure.gravatar.com/avatar/2ea5df3c50dac093c88586c3dcfd7ba2.jpg?s=512&d=https%3A%2F%2Fa.slack-edge.com%2Fdf10d%2Fimg%2Favatars%2Fava_0007-512.png", "custom_css": null}, {"id": 19047, "slack_id": "U097R8P087K", "display_name": "Heba Riaz", "bio": null, "projects_count": 0, "devlogs_count": 0, "votes_count": 0, "ships_count": 0, "projects": [], "coding_time_seconds": 62174, "coding_time_seconds_today": 1118, "balance": "You need to have a pocket watcher badge to view this.", "badges": [], "created_at": "2025-07-24T12:54:31.909-04:00", "updated_at": "2025-08-11T02:51:49.121-04:00", "avatar": "https://secure.gravatar.com/avatar/17aa046c64766f2b6408e18d53e6397a.jpg?s=512&d=https%3A%2F%2Fa.slack-edge.com%2Fdf10d%2Fimg%2Favatars%2Fava_0022-512.png", "custom_css": null}, {"id": 19048, "slack_id": "U09794M32G6", "display_name": "Sushant Shah", "bio": null, "projects_count": 1, "devlogs_count": 2, "votes_count": 0, "ships_count": 0, "projects": [{"id": 8088, "title": "X Spaces Recorder", "devlogs_count": 2, "created_at": "2025-07-24T14:10:26.925-04:00"}], "coding_time_seconds": 3449, "coding_time_seconds_today": 0, "balance": "You need to have a pocket watcher badge to view this.", "badges": [], "created_at": "2025-07-24T12:55:48.403-04:00", "updated_at": "2025-07-24T17:23:51.981-04:00", "avatar": "https://secure.gravatar.com/avatar/2304d0c881ebe01b76280f4368af6012.jpg?s=512&d=https%3A%2F%2Fa.slack-edge.com%2Fdf10d%2Fimg%2Favatars%2Fava_0006-512.png", "custom_css": null}, {"id": 19049, "slack_id": "U0976UAFGJX", "display_name": "Barbod", "bio": null, "projects_count": 0, "devlogs_count": 0, "votes_count": 0, "ships_count": 0, "projects": [], "coding_time_seconds": 0, "coding_time_seconds_today": 0, "balance": "You need to have a pocket watcher badge to view this.", "badges": [], "created_at": "2025-07-24T12:59:15.241-04:00", "updated_at": "2025-07-24T17:23:52.065-04:00", "avatar": "https://secure.gravatar.com/avatar/e799bf70b330970bda87e74ddb9a5da0.jpg?s=512&d=https%3A%2F%2Fa.slack-edge.com%2Fdf10d%2Fimg%2Favatars%2Fava_0008-512.png", "custom_css": null}, {"id": 19050, "slack_id": "U097ALMLS2Z", "display_name": "sam", "bio": null, "projects_count": 0, "devlogs_count": 0, "votes_count": 0, "ships_count": 0, "projects": [], "coding_time_seconds": 0, "coding_time_seconds_today": 0, "balance": "You need to have a pocket watcher badge to view this.", "badges": [], "created_at": "2025-07-24T13:00:15.112-04:00", "updated_at": "2025-08-04T13:42:57.576-04:00", "avatar": "https://secure.gravatar.com/avatar/bdd46f80f130d4e47eac79da0b3436ec.jpg?s=512&d=https%3A%2F%2Fa.slack-edge.com%2Fdf10d%2Fimg%2Favatars%2Fava_0024-512.png", "custom_css": null}, {"id": 19051, "slack_id": "U097D5WJ3NY", "display_name": "Callan", "bio": null, "projects_count": 0, "devlogs_count": 0, "votes_count": 0, "ships_count": 0, "projects": [], "coding_time_seconds": 0, "coding_time_seconds_today": 0, "balance": "You need to have a pocket watcher badge to view this.", "badges": [], "created_at": "2025-07-24T13:02:19.548-04:00", "updated_at": "2025-07-24T17:23:52.226-04:00", "avatar": "https://secure.gravatar.com/avatar/6468021156831983ff62b22940ce0453.jpg?s=512&d=https%3A%2F%2Fa.slack-edge.com%2Fdf10d%2Fimg%2Favatars%2Fava_0018-512.png", "custom_css": null}, {"id": 19052, "slack_id": "U07GA3LJNSH", "display_name": "Kaat", "bio": null, "projects_count": 0, "devlogs_count": 0, "votes_count": 0, "ships_count": 0, "projects": [], "coding_time_seconds": 0, "coding_time_seconds_today": 0, "balance": "You need to have a pocket watcher badge to view this.", "badges": [], "created_at": "2025-07-24T13:07:43.941-04:00", "updated_at": "2025-07-24T13:09:59.345-04:00", "avatar": "https://secure.gravatar.com/avatar/1b459a0a7b953f0a722cc67b47dfb960.jpg?s=512&d=https%3A%2F%2Fa.slack-edge.com%2Fdf10d%2Fimg%2Favatars%2Fava_0023-512.png", "custom_css": null}, {"id": 19053, "slack_id": "U098060N5BJ", "display_name": "Srishti Fupta", "bio": "", "projects_count": 0, "devlogs_count": 0, "votes_count": 0, "ships_count": 0, "projects": [], "coding_time_seconds": 0, "coding_time_seconds_today": 0, "balance": "You need to have a pocket watcher badge to view this.", "badges": [], "created_at": "2025-07-24T13:10:26.543-04:00", "updated_at": "2025-07-25T03:31:55.016-04:00", "avatar": "https://secure.gravatar.com/avatar/a834097ddbf01f4c1cf8cb5b46d35a35.jpg?s=512&d=https%3A%2F%2Fa.slack-edge.com%2Fdf10d%2Fimg%2Favatars%2Fava_0011-512.png", "custom_css": null}, {"id": 19054, "slack_id": "U096WQP48UX", "display_name": "Zyad", "bio": null, "projects_count": 0, "devlogs_count": 0, "votes_count": 0, "ships_count": 0, "projects": [], "coding_time_seconds": 0, "coding_time_seconds_today": 0, "balance": "You need to have a pocket watcher badge to view this.", "badges": [], "created_at": "2025-07-24T13:12:21.452-04:00", "updated_at": "2025-07-24T17:23:52.438-04:00", "avatar": "https://secure.gravatar.com/avatar/7b0045cdc450749bd23586218fb47461.jpg?s=512&d=https%3A%2F%2Fa.slack-edge.com%2Fdf10d%2Fimg%2Favatars%2Fava_0020-512.png", "custom_css": null}, {"id": 19055, "slack_id": "U096YAPS52A", "display_name": "Mohammed Inayath", "bio": null, "projects_count": 0, "devlogs_count": 0, "votes_count": 0, "ships_count": 0, "projects": [], "coding_time_seconds": 0, "coding_time_seconds_today": 0, "balance": "You need to have a pocket watcher badge to view this.", "badges": [], "created_at": "2025-07-24T13:15:46.034-04:00", "updated_at": "2025-07-25T02:25:18.693-04:00", "avatar": "https://avatars.slack-edge.com/2025-07-24/9250410684802_844d2001efab78992e61_original.jpg", "custom_css": null}, {"id": 19056, "slack_id": "U097APT4M45", "display_name": "sahana", "bio": null, "projects_count": 0, "devlogs_count": 0, "votes_count": 0, "ships_count": 0, "projects": [], "coding_time_seconds": 0, "coding_time_seconds_today": 0, "balance": "You need to have a pocket watcher badge to view this.", "badges": [], "created_at": "2025-07-24T13:16:23.151-04:00", "updated_at": "2025-07-24T17:23:52.619-04:00", "avatar": "https://secure.gravatar.com/avatar/15b31d574b89c193534c395b90b5915f.jpg?s=512&d=https%3A%2F%2Fa.slack-edge.com%2Fdf10d%2Fimg%2Favatars%2Fava_0001-512.png", "custom_css": null}, {"id": 19057, "slack_id": "U09772HQ4LB", "display_name": "ksenon", "bio": null, "projects_count": 0, "devlogs_count": 0, "votes_count": 0, "ships_count": 0, "projects": [], "coding_time_seconds": 0, "coding_time_seconds_today": 0, "balance": "You need to have a pocket watcher badge to view this.", "badges": [], "created_at": "2025-07-24T13:18:57.709-04:00", "updated_at": "2025-07-24T17:23:52.712-04:00", "avatar": "https://secure.gravatar.com/avatar/410f41228f5d55950b72a14200118457.jpg?s=512&d=https%3A%2F%2Fa.slack-edge.com%2Fdf10d%2Fimg%2Favatars%2Fava_0026-512.png", "custom_css": null}, {"id": 19058, "slack_id": "U0971GZAYH0", "display_name": "ayomahan", "bio": null, "projects_count": 0, "devlogs_count": 0, "votes_count": 0, "ships_count": 0, "projects": [], "coding_time_seconds": 0, "coding_time_seconds_today": 0, "balance": "You need to have a pocket watcher badge to view this.", "badges": [], "created_at": "2025-07-24T13:19:13.302-04:00", "updated_at": "2025-07-24T17:23:52.803-04:00", "avatar": "https://secure.gravatar.com/avatar/97f109276a4d13c34b910c0c2e892d82.jpg?s=512&d=https%3A%2F%2Fa.slack-edge.com%2Fdf10d%2Fimg%2Favatars%2Fava_0005-512.png", "custom_css": null}, {"id": 19059, "slack_id": "U09772VR3HR", "display_name": "Satwika Naidu", "bio": null, "projects_count": 0, "devlogs_count": 0, "votes_count": 0, "ships_count": 0, "projects": [], "coding_time_seconds": 0, "coding_time_seconds_today": 0, "balance": "You need to have a pocket watcher badge to view this.", "badges": [], "created_at": "2025-07-24T13:22:35.655-04:00", "updated_at": "2025-07-26T02:23:31.658-04:00", "avatar": "https://secure.gravatar.com/avatar/b058277099d12dd315f2a55b9ae4f5b9.jpg?s=512&d=https%3A%2F%2Fa.slack-edge.com%2Fdf10d%2Fimg%2Favatars%2Fava_0025-512.png", "custom_css": null}, {"id": 19060, "slack_id": "U097AR2QADB", "display_name": "MrSproutt", "bio": null, "projects_count": 0, "devlogs_count": 0, "votes_count": 0, "ships_count": 0, "projects": [], "coding_time_seconds": 0, "coding_time_seconds_today": 0, "balance": "You need to have a pocket watcher badge to view this.", "badges": [], "created_at": "2025-07-24T13:23:01.435-04:00", "updated_at": "2025-07-24T17:23:52.978-04:00", "avatar": "https://secure.gravatar.com/avatar/c7ccb077d2c235a0eebe106c9fedd412.jpg?s=512&d=https%3A%2F%2Fa.slack-edge.com%2Fdf10d%2Fimg%2Favatars%2Fava_0010-512.png", "custom_css": null}, {"id": 19061, "slack_id": "U096WRF2WDD", "display_name": "Kajetan Rutka", "bio": "", "projects_count": 0, "devlogs_count": 0, "votes_count": 0, "ships_count": 0, "projects": [], "coding_time_seconds": 0, "coding_time_seconds_today": 0, "balance": "You need to have a pocket watcher badge to view this.", "badges": [], "created_at": "2025-07-24T13:23:10.047-04:00", "updated_at": "2025-07-24T17:23:53.055-04:00", "avatar": "https://avatars.slack-edge.com/2025-07-24/9251331902068_6cedf0fdb733dfb753cb_original.jpg", "custom_css": null}, {"id": 19062, "slack_id": "U096X03PB4P", "display_name": "Shubhi M", "bio": null, "projects_count": 0, "devlogs_count": 0, "votes_count": 0, "ships_count": 0, "projects": [], "coding_time_seconds": 0, "coding_time_seconds_today": 0, "balance": "You need to have a pocket watcher badge to view this.", "badges": [], "created_at": "2025-07-24T13:43:33.788-04:00", "updated_at": "2025-07-24T17:23:57.411-04:00", "avatar": "https://secure.gravatar.com/avatar/06bd3ba899782d7067fc37cfd5d9e39b.jpg?s=512&d=https%3A%2F%2Fa.slack-edge.com%2Fdf10d%2Fimg%2Favatars%2Fava_0007-512.png", "custom_css": null}, {"id": 19063, "slack_id": "U091MLZ68T0", "display_name": "zypherift", "bio": null, "projects_count": 0, "devlogs_count": 0, "votes_count": 0, "ships_count": 0, "projects": [], "coding_time_seconds": 0, "coding_time_seconds_today": 0, "balance": "You need to have a pocket watcher badge to view this.", "badges": [], "created_at": "2025-07-24T13:44:03.376-04:00", "updated_at": "2025-07-24T17:23:57.504-04:00", "avatar": "https://secure.gravatar.com/avatar/d2b23ae2376a428deb98873736c56763.jpg?s=512&d=https%3A%2F%2Fa.slack-edge.com%2Fdf10d%2Fimg%2Favatars%2Fava_0023-512.png", "custom_css": null}, {"id": 19064, "slack_id": "U0979FXU1QE", "display_name": "roundabout-host.com", "bio": null, "projects_count": 0, "devlogs_count": 0, "votes_count": 0, "ships_count": 0, "projects": [], "coding_time_seconds": 37279, "coding_time_seconds_today": 0, "balance": "You need to have a pocket watcher badge to view this.", "badges": [], "created_at": "2025-07-24T13:47:40.692-04:00", "updated_at": "2025-07-24T17:23:57.597-04:00", "avatar": "https://secure.gravatar.com/avatar/745622c33457a335b18da71ec037578f.jpg?s=512&d=https%3A%2F%2Fa.slack-edge.com%2Fdf10d%2Fimg%2Favatars%2Fava_0001-512.png", "custom_css": null}, {"id": 19065, "slack_id": "U0979GAHT0W", "display_name": "Andy Zang", "bio": null, "projects_count": 0, "devlogs_count": 0, "votes_count": 0, "ships_count": 0, "projects": [], "coding_time_seconds": 0, "coding_time_seconds_today": 0, "balance": "You need to have a pocket watcher badge to view this.", "badges": [], "created_at": "2025-07-24T13:58:33.832-04:00", "updated_at": "2025-07-24T17:23:57.681-04:00", "avatar": "https://secure.gravatar.com/avatar/7e3abcbb0374eff8fc01e3ebdbbd39c6.jpg?s=512&d=https%3A%2F%2Fa.slack-edge.com%2Fdf10d%2Fimg%2Favatars%2Fava_0014-512.png", "custom_css": null}], "pagination": {"page": 949, "pages": 1192, "count": 23828, "items": 20}}