{"users": [{"id": 1881, "slack_id": "U091N3HG9E1", "display_name": "Daniele", "bio": null, "projects_count": 0, "devlogs_count": 0, "votes_count": 0, "ships_count": 0, "projects": [], "coding_time_seconds": 551, "coding_time_seconds_today": 0, "balance": "You need to have a pocket watcher badge to view this.", "badges": [], "created_at": "2025-06-16T14:11:01.511-04:00", "updated_at": "2025-07-03T19:19:39.255-04:00", "avatar": "https://secure.gravatar.com/avatar/c63ea1335dba9c56af9f9e8c4491f1f5.jpg?s=512&d=https%3A%2F%2Fa.slack-edge.com%2Fdf10d%2Fimg%2Favatars%2Fava_0004-512.png", "custom_css": null}, {"id": 1882, "slack_id": "U082G48UQ2V", "display_name": "CaptainRexPL", "bio": null, "projects_count": 1, "devlogs_count": 3, "votes_count": 2, "ships_count": 1, "projects": [{"id": 10039, "title": "Hillock-frontend", "devlogs_count": 3, "created_at": "2025-08-03T16:03:01.407-04:00"}], "coding_time_seconds": 186564, "coding_time_seconds_today": 0, "balance": "You need to have a pocket watcher badge to view this.", "badges": [{"name": "Maiden Voyage", "text": "you shipped your first project! the journey begins...", "icon": "\ud83d\udea2"}], "created_at": "2025-06-16T14:11:07.193-04:00", "updated_at": "2025-09-10T22:52:05.836-04:00", "avatar": "https://avatars.slack-edge.com/2025-02-26/8536895225376_3440fac888bafed7bc8f_original.jpg", "custom_css": null}, {"id": 1883, "slack_id": "U092CAD2Q00", "display_name": "aqarib", "bio": null, "projects_count": 0, "devlogs_count": 0, "votes_count": 0, "ships_count": 0, "projects": [], "coding_time_seconds": 0, "coding_time_seconds_today": 0, "balance": "You need to have a pocket watcher badge to view this.", "badges": [], "created_at": "2025-06-16T14:11:26.921-04:00", "updated_at": "2025-07-03T19:19:39.794-04:00", "avatar": "https://secure.gravatar.com/avatar/01c8dc09c618a483e8e24cd21466f85e.jpg?s=512&d=https%3A%2F%2Fa.slack-edge.com%2Fdf10d%2Fimg%2Favatars%2Fava_0011-512.png", "custom_css": null}, {"id": 1884, "slack_id": "U091N3J5EUD", "display_name": "vrund patel", "bio": null, "projects_count": 0, "devlogs_count": 0, "votes_count": 0, "ships_count": 0, "projects": [], "coding_time_seconds": 0, "coding_time_seconds_today": 0, "balance": "You need to have a pocket watcher badge to view this.", "badges": [], "created_at": "2025-06-16T14:11:37.639-04:00", "updated_at": "2025-07-03T19:19:40.080-04:00", "avatar": "https://avatars.slack-edge.com/2025-06-16/9050961376051_20d38c830d7ccb68735f_original.jpg", "custom_css": null}, {"id": 1885, "slack_id": "U0918HF6L3Z", "display_name": "Rafael Cleydson", "bio": null, "projects_count": 0, "devlogs_count": 0, "votes_count": 0, "ships_count": 0, "projects": [], "coding_time_seconds": 0, "coding_time_seconds_today": 0, "balance": "You need to have a pocket watcher badge to view this.", "badges": [], "created_at": "2025-06-16T14:11:51.730-04:00", "updated_at": "2025-07-03T19:19:40.403-04:00", "avatar": "https://avatars.slack-edge.com/2025-06-16/9057912642786_0d7ecd6e77626f4696c7_original.png", "custom_css": null}, {"id": 1886, "slack_id": "U091Q8HFCR2", "display_name": "Danwand NS", "bio": null, "projects_count": 0, "devlogs_count": 0, "votes_count": 0, "ships_count": 0, "projects": [], "coding_time_seconds": 0, "coding_time_seconds_today": 0, "balance": "You need to have a pocket watcher badge to view this.", "badges": [], "created_at": "2025-06-16T14:11:55.543-04:00", "updated_at": "2025-07-03T19:19:40.693-04:00", "avatar": "https://avatars.slack-edge.com/2025-06-16/9058308216772_dfd8b8d3bef5e1bffab3_original.png", "custom_css": null}, {"id": 1887, "slack_id": "U091GTVS93M", "display_name": "Human Friend", "bio": null, "projects_count": 1, "devlogs_count": 1, "votes_count": 2, "ships_count": 1, "projects": [{"id": 13069, "title": "Gael Force Robotics Website", "devlogs_count": 1, "created_at": "2025-09-08T02:30:32.511-04:00"}], "coding_time_seconds": 281387, "coding_time_seconds_today": 0, "balance": "You need to have a pocket watcher badge to view this.", "badges": [{"name": "Maiden Voyage", "text": "you shipped your first project! the journey begins...", "icon": "\ud83d\udea2"}], "created_at": "2025-06-16T14:12:11.647-04:00", "updated_at": "2025-09-10T22:52:05.959-04:00", "avatar": "https://avatars.slack-edge.com/2025-06-16/9057914433698_f744b1bc1897a6c2cb8f_original.jpg", "custom_css": null}, {"id": 1888, "slack_id": "U092CAESWJC", "display_name": "MADISHETTI ASHWITH KUMAR (RA2111026010129)", "bio": null, "projects_count": 0, "devlogs_count": 0, "votes_count": 0, "ships_count": 0, "projects": [], "coding_time_seconds": 0, "coding_time_seconds_today": 0, "balance": "You need to have a pocket watcher badge to view this.", "badges": [], "created_at": "2025-06-16T14:12:12.632-04:00", "updated_at": "2025-07-03T19:19:41.264-04:00", "avatar": "https://avatars.slack-edge.com/2025-06-16/9051066305990_6ac79011f86cfb057b20_original.png", "custom_css": null}, {"id": 1889, "slack_id": "U0922D9JWCR", "display_name": "Abraham Mohammad", "bio": null, "projects_count": 0, "devlogs_count": 0, "votes_count": 0, "ships_count": 0, "projects": [], "coding_time_seconds": 0, "coding_time_seconds_today": 0, "balance": "You need to have a pocket watcher badge to view this.", "badges": [], "created_at": "2025-06-16T14:12:23.256-04:00", "updated_at": "2025-07-03T19:19:41.524-04:00", "avatar": "https://secure.gravatar.com/avatar/7e8d0f562b5e02bf743684d9c8bc8637.jpg?s=512&d=https%3A%2F%2Fa.slack-edge.com%2Fdf10d%2Fimg%2Favatars%2Fava_0022-512.png", "custom_css": null}, {"id": 1890, "slack_id": "U091PRLPBV0", "display_name": "Raunak Raj", "bio": null, "projects_count": 0, "devlogs_count": 0, "votes_count": 0, "ships_count": 0, "projects": [], "coding_time_seconds": 0, "coding_time_seconds_today": 0, "balance": "You need to have a pocket watcher badge to view this.", "badges": [], "created_at": "2025-06-16T14:12:28.876-04:00", "updated_at": "2025-07-03T19:19:41.793-04:00", "avatar": "https://secure.gravatar.com/avatar/b57d42cec717b8c9a656714697dfa4c0.jpg?s=512&d=https%3A%2F%2Fa.slack-edge.com%2Fdf10d%2Fimg%2Favatars%2Fava_0024-512.png", "custom_css": null}, {"id": 1891, "slack_id": "U0922A7R82V", "display_name": "Abdelrahman Abdelrahman", "bio": null, "projects_count": 0, "devlogs_count": 0, "votes_count": 0, "ships_count": 0, "projects": [], "coding_time_seconds": 0, "coding_time_seconds_today": 0, "balance": "You need to have a pocket watcher badge to view this.", "badges": [], "created_at": "2025-06-16T14:12:48.073-04:00", "updated_at": "2025-07-03T19:19:42.109-04:00", "avatar": "https://avatars.slack-edge.com/2025-06-16/9080380133136_e8b51a483b74e9a72b50_original.jpg", "custom_css": null}, {"id": 1892, "slack_id": "U091Q8NPC20", "display_name": "fandaa7", "bio": null, "projects_count": 0, "devlogs_count": 0, "votes_count": 0, "ships_count": 0, "projects": [], "coding_time_seconds": 0, "coding_time_seconds_today": 0, "balance": "You need to have a pocket watcher badge to view this.", "badges": [], "created_at": "2025-06-16T14:12:51.311-04:00", "updated_at": "2025-07-03T19:19:42.392-04:00", "avatar": "https://secure.gravatar.com/avatar/2e3e4333e9baf23ecc94999b0a921ebe.jpg?s=512&d=https%3A%2F%2Fa.slack-edge.com%2Fdf10d%2Fimg%2Favatars%2Fava_0025-512.png", "custom_css": null}, {"id": 1893, "slack_id": "U091H1HJAS2", "display_name": "Harshit Anand", "bio": null, "projects_count": 0, "devlogs_count": 0, "votes_count": 0, "ships_count": 0, "projects": [], "coding_time_seconds": 55004, "coding_time_seconds_today": 0, "balance": "You need to have a pocket watcher badge to view this.", "badges": [], "created_at": "2025-06-16T14:12:53.264-04:00", "updated_at": "2025-07-03T19:19:42.667-04:00", "avatar": "https://secure.gravatar.com/avatar/1d4407cef1f84464a67a7b4b1dbd2bba.jpg?s=512&d=https%3A%2F%2Fa.slack-edge.com%2Fdf10d%2Fimg%2Favatars%2Fava_0023-512.png", "custom_css": null}, {"id": 1894, "slack_id": "U0922D193RP", "display_name": "A. Hall", "bio": null, "projects_count": 0, "devlogs_count": 0, "votes_count": 0, "ships_count": 0, "projects": [], "coding_time_seconds": 114247, "coding_time_seconds_today": 0, "balance": "You need to have a pocket watcher badge to view this.", "badges": [], "created_at": "2025-06-16T14:12:55.950-04:00", "updated_at": "2025-07-03T19:19:42.937-04:00", "avatar": "https://secure.gravatar.com/avatar/a97b6fb3c8ba2ae4c1428d7a476a7a6a.jpg?s=512&d=https%3A%2F%2Fa.slack-edge.com%2Fdf10d%2Fimg%2Favatars%2Fava_0021-512.png", "custom_css": null}, {"id": 1895, "slack_id": "U081K9NV42V", "display_name": "Saaki Bhojanam", "bio": null, "projects_count": 0, "devlogs_count": 0, "votes_count": 0, "ships_count": 0, "projects": [], "coding_time_seconds": 88228, "coding_time_seconds_today": 0, "balance": "You need to have a pocket watcher badge to view this.", "badges": [], "created_at": "2025-06-16T14:13:12.475-04:00", "updated_at": "2025-07-03T19:19:43.206-04:00", "avatar": "https://avatars.slack-edge.com/2024-11-16/8043155394244_a8ca03d3e4788859844c_original.png", "custom_css": null}, {"id": 1896, "slack_id": "U08C07QLJ9M", "display_name": "notcoded", "bio": null, "projects_count": 2, "devlogs_count": 3, "votes_count": 9, "ships_count": 0, "projects": [{"id": 3248, "title": "Music Checker", "devlogs_count": 2, "created_at": "2025-06-23T14:57:12.803-04:00"}, {"id": 11847, "title": "Pywal Updater", "devlogs_count": 1, "created_at": "2025-08-20T08:27:21.932-04:00"}], "coding_time_seconds": 331960, "coding_time_seconds_today": 0, "balance": "You need to have a pocket watcher badge to view this.", "badges": [], "created_at": "2025-06-16T14:13:16.800-04:00", "updated_at": "2025-08-16T17:23:19.324-04:00", "avatar": "https://avatars.slack-edge.com/2025-02-08/8422845752290_6e7746d8a2d345a031c0_original.png", "custom_css": null}, {"id": 1897, "slack_id": "U091GU37003", "display_name": "Clemens Jele", "bio": null, "projects_count": 0, "devlogs_count": 0, "votes_count": 0, "ships_count": 0, "projects": [], "coding_time_seconds": 120, "coding_time_seconds_today": 0, "balance": "You need to have a pocket watcher badge to view this.", "badges": [], "created_at": "2025-06-16T14:13:18.179-04:00", "updated_at": "2025-07-03T19:19:43.793-04:00", "avatar": "https://secure.gravatar.com/avatar/1c228ba1fd8326e8cdb2d4dcf5213cb2.jpg?s=512&d=https%3A%2F%2Fa.slack-edge.com%2Fdf10d%2Fimg%2Favatars%2Fava_0025-512.png", "custom_css": null}, {"id": 1898, "slack_id": "U091Q8V470U", "display_name": "Wojciech", "bio": null, "projects_count": 0, "devlogs_count": 0, "votes_count": 0, "ships_count": 0, "projects": [], "coding_time_seconds": 3161, "coding_time_seconds_today": 0, "balance": "You need to have a pocket watcher badge to view this.", "badges": [], "created_at": "2025-06-16T14:13:19.427-04:00", "updated_at": "2025-07-03T19:19:44.074-04:00", "avatar": "https://secure.gravatar.com/avatar/0b636379257f3046c9585d730881754d.jpg?s=512&d=https%3A%2F%2Fa.slack-edge.com%2Fdf10d%2Fimg%2Favatars%2Fava_0009-512.png", "custom_css": null}, {"id": 1899, "slack_id": "U091H1GTHDL", "display_name": "Jacob", "bio": null, "projects_count": 0, "devlogs_count": 0, "votes_count": 0, "ships_count": 0, "projects": [], "coding_time_seconds": 2, "coding_time_seconds_today": 0, "balance": "You need to have a pocket watcher badge to view this.", "badges": [], "created_at": "2025-06-16T14:13:22.403-04:00", "updated_at": "2025-07-03T19:19:44.356-04:00", "avatar": "https://secure.gravatar.com/avatar/e292758c2d0f4320bc928e0354be490e.jpg?s=512&d=https%3A%2F%2Fa.slack-edge.com%2Fdf10d%2Fimg%2Favatars%2Fava_0020-512.png", "custom_css": null}, {"id": 1900, "slack_id": "U091GU5FT6X", "display_name": "Arihant Jain", "bio": null, "projects_count": 0, "devlogs_count": 0, "votes_count": 0, "ships_count": 0, "projects": [], "coding_time_seconds": 0, "coding_time_seconds_today": 0, "balance": "You need to have a pocket watcher badge to view this.", "badges": [], "created_at": "2025-06-16T14:13:46.624-04:00", "updated_at": "2025-07-03T19:19:44.636-04:00", "avatar": "https://secure.gravatar.com/avatar/7738d1930ca7492d8c4b020f5a2e5513.jpg?s=512&d=https%3A%2F%2Fa.slack-edge.com%2Fdf10d%2Fimg%2Favatars%2Fava_0016-512.png", "custom_css": null}], "pagination": {"page": 95, "pages": 1192, "count": 23828, "items": 20}}