{"users": [{"id": 19066, "slack_id": "U0979HLHKQE", "display_name": "Kalash", "bio": null, "projects_count": 0, "devlogs_count": 0, "votes_count": 0, "ships_count": 0, "projects": [], "coding_time_seconds": 0, "coding_time_seconds_today": 0, "balance": "You need to have a pocket watcher badge to view this.", "badges": [], "created_at": "2025-07-24T14:03:46.666-04:00", "updated_at": "2025-07-24T17:23:57.763-04:00", "avatar": "https://secure.gravatar.com/avatar/200cb51aa14e2fef254f2092ef670fc3.jpg?s=512&d=https%3A%2F%2Fa.slack-edge.com%2Fdf10d%2Fimg%2Favatars%2Fava_0023-512.png", "custom_css": null}, {"id": 19067, "slack_id": "U08P89AJRED", "display_name": "Hewis lamilton", "bio": null, "projects_count": 0, "devlogs_count": 0, "votes_count": 0, "ships_count": 0, "projects": [], "coding_time_seconds": 0, "coding_time_seconds_today": 0, "balance": "You need to have a pocket watcher badge to view this.", "badges": [], "created_at": "2025-07-24T14:04:40.057-04:00", "updated_at": "2025-07-24T14:05:00.344-04:00", "avatar": "https://avatars.slack-edge.com/2025-06-19/9071724134708_9cc121a86451143f618e_original.jpg", "custom_css": null}, {"id": 19068, "slack_id": "U09325HJMPC", "display_name": "Harsh", "bio": null, "projects_count": 0, "devlogs_count": 0, "votes_count": 0, "ships_count": 0, "projects": [], "coding_time_seconds": 0, "coding_time_seconds_today": 0, "balance": "You need to have a pocket watcher badge to view this.", "badges": [], "created_at": "2025-07-24T14:06:54.516-04:00", "updated_at": "2025-07-24T17:23:57.909-04:00", "avatar": "https://secure.gravatar.com/avatar/fe7358754fc7db5502c2eed37704b8b7.jpg?s=512&d=https%3A%2F%2Fa.slack-edge.com%2Fdf10d%2Fimg%2Favatars%2Fava_0023-512.png", "custom_css": null}, {"id": 19069, "slack_id": "U0979KW0VUN", "display_name": "Asim Aftab", "bio": null, "projects_count": 1, "devlogs_count": 0, "votes_count": 0, "ships_count": 0, "projects": [{"id": 8093, "title": "Sentinel-AI-Backend", "devlogs_count": 0, "created_at": "2025-07-24T14:45:02.175-04:00"}], "coding_time_seconds": 22454, "coding_time_seconds_today": 0, "balance": "You need to have a pocket watcher badge to view this.", "badges": [], "created_at": "2025-07-24T14:07:58.399-04:00", "updated_at": "2025-07-24T17:23:58.012-04:00", "avatar": "https://secure.gravatar.com/avatar/457de03600fcdbf8cbe4e22befeb47fa.jpg?s=512&d=https%3A%2F%2Fa.slack-edge.com%2Fdf10d%2Fimg%2Favatars%2Fava_0004-512.png", "custom_css": null}, {"id": 19070, "slack_id": "U097RP19ZDX", "display_name": "Savanah Gonzales", "bio": null, "projects_count": 0, "devlogs_count": 0, "votes_count": 0, "ships_count": 0, "projects": [], "coding_time_seconds": 2009, "coding_time_seconds_today": 0, "balance": "You need to have a pocket watcher badge to view this.", "badges": [], "created_at": "2025-07-24T14:19:14.530-04:00", "updated_at": "2025-07-24T17:23:58.107-04:00", "avatar": "https://avatars.slack-edge.com/2025-07-24/9249203606453_2aab80f0e1bfb1b8dcba_original.png", "custom_css": null}, {"id": 19071, "slack_id": "U096W39L0DQ", "display_name": "Nimrod A", "bio": null, "projects_count": 0, "devlogs_count": 0, "votes_count": 0, "ships_count": 0, "projects": [], "coding_time_seconds": 996, "coding_time_seconds_today": 0, "balance": "You need to have a pocket watcher badge to view this.", "badges": [], "created_at": "2025-07-24T14:20:29.649-04:00", "updated_at": "2025-07-24T17:23:58.183-04:00", "avatar": "https://secure.gravatar.com/avatar/bb67db3d52b59214b5706d25287960dc.jpg?s=512&d=https%3A%2F%2Fa.slack-edge.com%2Fdf10d%2Fimg%2Favatars%2Fava_0012-512.png", "custom_css": null}, {"id": 19072, "slack_id": "U097CNFLVTL", "display_name": "Nikolaigamer11", "bio": null, "projects_count": 0, "devlogs_count": 0, "votes_count": 0, "ships_count": 0, "projects": [], "coding_time_seconds": 0, "coding_time_seconds_today": 0, "balance": "You need to have a pocket watcher badge to view this.", "badges": [], "created_at": "2025-07-24T14:21:18.779-04:00", "updated_at": "2025-07-24T17:23:58.272-04:00", "avatar": "https://secure.gravatar.com/avatar/f7d54e3d5b56d81e004b3b6e6ae4fb69.jpg?s=512&d=https%3A%2F%2Fa.slack-edge.com%2Fdf10d%2Fimg%2Favatars%2Fava_0000-512.png", "custom_css": null}, {"id": 19073, "slack_id": "U0979NSK7ML", "display_name": "Caspervbs", "bio": null, "projects_count": 0, "devlogs_count": 0, "votes_count": 0, "ships_count": 0, "projects": [], "coding_time_seconds": 0, "coding_time_seconds_today": 0, "balance": "You need to have a pocket watcher badge to view this.", "badges": [], "created_at": "2025-07-24T14:27:25.933-04:00", "updated_at": "2025-07-24T17:23:58.367-04:00", "avatar": "https://secure.gravatar.com/avatar/8bd97a67f3288855f5c3c4cbb70bcbe6.jpg?s=512&d=https%3A%2F%2Fa.slack-edge.com%2Fdf10d%2Fimg%2Favatars%2Fava_0010-512.png", "custom_css": null}, {"id": 19074, "slack_id": "U097DL3HTB6", "display_name": "CookerCandle", "bio": null, "projects_count": 0, "devlogs_count": 0, "votes_count": 0, "ships_count": 0, "projects": [], "coding_time_seconds": 0, "coding_time_seconds_today": 0, "balance": "You need to have a pocket watcher badge to view this.", "badges": [], "created_at": "2025-07-24T14:32:54.822-04:00", "updated_at": "2025-07-27T16:58:09.318-04:00", "avatar": "https://secure.gravatar.com/avatar/8a8a916e6d7f8cd1e50dac32b98c411f.jpg?s=512&d=https%3A%2F%2Fa.slack-edge.com%2Fdf10d%2Fimg%2Favatars%2Fava_0013-512.png", "custom_css": null}, {"id": 19075, "slack_id": "U096ZRTUAN7", "display_name": "David Stall", "bio": null, "projects_count": 0, "devlogs_count": 0, "votes_count": 0, "ships_count": 0, "projects": [], "coding_time_seconds": 0, "coding_time_seconds_today": 0, "balance": "You need to have a pocket watcher badge to view this.", "badges": [], "created_at": "2025-07-24T14:55:12.692-04:00", "updated_at": "2025-07-24T17:23:58.543-04:00", "avatar": "https://avatars.slack-edge.com/2025-07-24/9245655030467_4eaf75bb4ae2f3ecb170_original.png", "custom_css": null}, {"id": 19076, "slack_id": "U0977GYKDPD", "display_name": "Geofrey", "bio": null, "projects_count": 0, "devlogs_count": 0, "votes_count": 0, "ships_count": 0, "projects": [], "coding_time_seconds": 0, "coding_time_seconds_today": 0, "balance": "You need to have a pocket watcher badge to view this.", "badges": [], "created_at": "2025-07-24T14:55:53.221-04:00", "updated_at": "2025-07-24T17:24:02.665-04:00", "avatar": "https://secure.gravatar.com/avatar/1edf630db3d139f35fafa519d2a29f31.jpg?s=512&d=https%3A%2F%2Fa.slack-edge.com%2Fdf10d%2Fimg%2Favatars%2Fava_0023-512.png", "custom_css": null}, {"id": 19077, "slack_id": "U097DR1BMQU", "display_name": "KPS", "bio": null, "projects_count": 0, "devlogs_count": 0, "votes_count": 0, "ships_count": 0, "projects": [], "coding_time_seconds": 0, "coding_time_seconds_today": 0, "balance": "You need to have a pocket watcher badge to view this.", "badges": [], "created_at": "2025-07-24T15:02:38.621-04:00", "updated_at": "2025-07-24T17:24:02.774-04:00", "avatar": "https://secure.gravatar.com/avatar/ca86a1d63638886f7ff43c2fd5cacc79.jpg?s=512&d=https%3A%2F%2Fa.slack-edge.com%2Fdf10d%2Fimg%2Favatars%2Fava_0024-512.png", "custom_css": null}, {"id": 19078, "slack_id": "U096T32A55M", "display_name": "Venkateshwara Reddy", "bio": null, "projects_count": 0, "devlogs_count": 0, "votes_count": 0, "ships_count": 0, "projects": [], "coding_time_seconds": 0, "coding_time_seconds_today": 0, "balance": "You need to have a pocket watcher badge to view this.", "badges": [], "created_at": "2025-07-24T15:06:05.105-04:00", "updated_at": "2025-07-24T17:24:02.862-04:00", "avatar": "https://avatars.slack-edge.com/2025-07-24/9235461304711_fef41e3bc6c54e5cf060_original.jpg", "custom_css": null}, {"id": 19079, "slack_id": "U097D0Z7AP4", "display_name": "Harshit Popli", "bio": null, "projects_count": 0, "devlogs_count": 0, "votes_count": 0, "ships_count": 0, "projects": [], "coding_time_seconds": 0, "coding_time_seconds_today": 0, "balance": "You need to have a pocket watcher badge to view this.", "badges": [], "created_at": "2025-07-24T15:08:14.385-04:00", "updated_at": "2025-07-24T17:24:06.987-04:00", "avatar": "https://secure.gravatar.com/avatar/a4df500e34a6a6d4f2d36f5f795f88f2.jpg?s=512&d=https%3A%2F%2Fa.slack-edge.com%2Fdf10d%2Fimg%2Favatars%2Fava_0008-512.png", "custom_css": null}, {"id": 19080, "slack_id": "U09811317R6", "display_name": "hatecoder", "bio": null, "projects_count": 0, "devlogs_count": 0, "votes_count": 0, "ships_count": 0, "projects": [], "coding_time_seconds": 0, "coding_time_seconds_today": 0, "balance": "You need to have a pocket watcher badge to view this.", "badges": [], "created_at": "2025-07-24T15:17:05.998-04:00", "updated_at": "2025-07-24T17:24:07.100-04:00", "avatar": "https://secure.gravatar.com/avatar/0db260c3f3ef0d77da413627b2c74a1e.jpg?s=512&d=https%3A%2F%2Fa.slack-edge.com%2Fdf10d%2Fimg%2Favatars%2Fava_0006-512.png", "custom_css": null}, {"id": 19081, "slack_id": "U0977MPKFFD", "display_name": "Sem Acou", "bio": null, "projects_count": 0, "devlogs_count": 0, "votes_count": 0, "ships_count": 0, "projects": [], "coding_time_seconds": 0, "coding_time_seconds_today": 0, "balance": "You need to have a pocket watcher badge to view this.", "badges": [], "created_at": "2025-07-24T15:18:20.868-04:00", "updated_at": "2025-07-24T17:24:07.203-04:00", "avatar": "https://secure.gravatar.com/avatar/8642bbd5a8fce434c29b8129ae9823be.jpg?s=512&d=https%3A%2F%2Fa.slack-edge.com%2Fdf10d%2Fimg%2Favatars%2Fava_0023-512.png", "custom_css": null}, {"id": 19082, "slack_id": "U097E0RFZFW", "display_name": "Lucky Singh", "bio": "", "projects_count": 0, "devlogs_count": 31, "votes_count": 102, "ships_count": 0, "projects": [], "coding_time_seconds": 424845, "coding_time_seconds_today": 0, "balance": "You need to have a pocket watcher badge to view this.", "badges": [], "created_at": "2025-07-24T15:35:22.808-04:00", "updated_at": "2025-08-16T13:02:30.916-04:00", "avatar": "https://secure.gravatar.com/avatar/e57d39dade72e6f650899281c59f2d36.jpg?s=512&d=https%3A%2F%2Fa.slack-edge.com%2Fdf10d%2Fimg%2Favatars%2Fava_0003-512.png", "custom_css": null}, {"id": 19083, "slack_id": "U097BK6JEKX", "display_name": "Shlok", "bio": null, "projects_count": 0, "devlogs_count": 0, "votes_count": 0, "ships_count": 0, "projects": [], "coding_time_seconds": 0, "coding_time_seconds_today": 0, "balance": "You need to have a pocket watcher badge to view this.", "badges": [], "created_at": "2025-07-24T15:42:00.862-04:00", "updated_at": "2025-07-25T13:10:49.696-04:00", "avatar": "https://secure.gravatar.com/avatar/6386863c48a7b234dd31ccbf0ebc92f2.jpg?s=512&d=https%3A%2F%2Fa.slack-edge.com%2Fdf10d%2Fimg%2Favatars%2Fava_0007-512.png", "custom_css": null}, {"id": 19084, "slack_id": "U097D6EB3M0", "display_name": "Starbuster", "bio": null, "projects_count": 0, "devlogs_count": 0, "votes_count": 0, "ships_count": 0, "projects": [], "coding_time_seconds": 0, "coding_time_seconds_today": 0, "balance": "You need to have a pocket watcher badge to view this.", "badges": [], "created_at": "2025-07-24T15:45:29.114-04:00", "updated_at": "2025-07-24T17:24:07.487-04:00", "avatar": "https://secure.gravatar.com/avatar/b0247856bab2843d570a84da4c57afa8.jpg?s=512&d=https%3A%2F%2Fa.slack-edge.com%2Fdf10d%2Fimg%2Favatars%2Fava_0011-512.png", "custom_css": null}, {"id": 19085, "slack_id": "U097BLC8AA1", "display_name": "Sourav", "bio": null, "projects_count": 0, "devlogs_count": 0, "votes_count": 0, "ships_count": 0, "projects": [], "coding_time_seconds": 0, "coding_time_seconds_today": 0, "balance": "You need to have a pocket watcher badge to view this.", "badges": [], "created_at": "2025-07-24T15:48:33.097-04:00", "updated_at": "2025-07-24T17:24:07.567-04:00", "avatar": "https://secure.gravatar.com/avatar/2b1ea23f7ea44c64a9c921aa4de4490f.jpg?s=512&d=https%3A%2F%2Fa.slack-edge.com%2Fdf10d%2Fimg%2Favatars%2Fava_0002-512.png", "custom_css": null}], "pagination": {"page": 950, "pages": 1192, "count": 23828, "items": 20}}