{"users": [{"id": 19106, "slack_id": "U0981S5MW48", "display_name": "Lyna", "bio": null, "projects_count": 0, "devlogs_count": 0, "votes_count": 0, "ships_count": 0, "projects": [], "coding_time_seconds": 0, "coding_time_seconds_today": 0, "balance": "You need to have a pocket watcher badge to view this.", "badges": [], "created_at": "2025-07-24T18:28:47.264-04:00", "updated_at": "2025-08-01T18:34:30.248-04:00", "avatar": "https://secure.gravatar.com/avatar/8a708ac7cf22c72ef8e0e7d943a72190.jpg?s=512&d=https%3A%2F%2Fa.slack-edge.com%2Fdf10d%2Fimg%2Favatars%2Fava_0024-512.png", "custom_css": null}, {"id": 19107, "slack_id": "U097ATATNA2", "display_name": "Anika A", "bio": null, "projects_count": 0, "devlogs_count": 0, "votes_count": 0, "ships_count": 0, "projects": [], "coding_time_seconds": 0, "coding_time_seconds_today": 0, "balance": "You need to have a pocket watcher badge to view this.", "badges": [], "created_at": "2025-07-24T18:29:56.649-04:00", "updated_at": "2025-07-25T00:00:23.455-04:00", "avatar": "https://avatars.slack-edge.com/2025-07-24/9236329886151_3caef7b51b120e2c3db5_original.jpg", "custom_css": null}, {"id": 19108, "slack_id": "U0978LWD3S7", "display_name": "Holly", "bio": null, "projects_count": 0, "devlogs_count": 0, "votes_count": 0, "ships_count": 0, "projects": [], "coding_time_seconds": 0, "coding_time_seconds_today": 0, "balance": "You need to have a pocket watcher badge to view this.", "badges": [], "created_at": "2025-07-24T18:59:56.106-04:00", "updated_at": "2025-07-25T11:55:53.628-04:00", "avatar": "https://secure.gravatar.com/avatar/e621efa378336147541d10e3f9bbce66.jpg?s=512&d=https%3A%2F%2Fa.slack-edge.com%2Fdf10d%2Fimg%2Favatars%2Fava_0013-512.png", "custom_css": null}, {"id": 19109, "slack_id": "U097E552MFC", "display_name": "Suki", "bio": null, "projects_count": 0, "devlogs_count": 0, "votes_count": 0, "ships_count": 0, "projects": [], "coding_time_seconds": 6011, "coding_time_seconds_today": 0, "balance": "You need to have a pocket watcher badge to view this.", "badges": [], "created_at": "2025-07-24T19:42:52.308-04:00", "updated_at": "2025-08-07T21:37:17.111-04:00", "avatar": "https://secure.gravatar.com/avatar/e3440ed17a7c83c8667cad80dca3ee0b.jpg?s=512&d=https%3A%2F%2Fa.slack-edge.com%2Fdf10d%2Fimg%2Favatars%2Fava_0017-512.png", "custom_css": null}, {"id": 19110, "slack_id": "U097E6D87A6", "display_name": "coder168", "bio": null, "projects_count": 0, "devlogs_count": 0, "votes_count": 0, "ships_count": 0, "projects": [], "coding_time_seconds": 0, "coding_time_seconds_today": 0, "balance": "You need to have a pocket watcher badge to view this.", "badges": [], "created_at": "2025-07-24T19:59:13.990-04:00", "updated_at": "2025-07-25T00:00:23.719-04:00", "avatar": "https://secure.gravatar.com/avatar/330d698505387c3e2899e8e9464ba417.jpg?s=512&d=https%3A%2F%2Fa.slack-edge.com%2Fdf10d%2Fimg%2Favatars%2Fava_0004-512.png", "custom_css": null}, {"id": 19111, "slack_id": "U097T9WB6AV", "display_name": "Harry Proctor", "bio": null, "projects_count": 0, "devlogs_count": 0, "votes_count": 0, "ships_count": 0, "projects": [], "coding_time_seconds": 0, "coding_time_seconds_today": 0, "balance": "You need to have a pocket watcher badge to view this.", "badges": [], "created_at": "2025-07-24T20:26:05.253-04:00", "updated_at": "2025-07-25T00:00:23.819-04:00", "avatar": "https://secure.gravatar.com/avatar/f244cefaa9ddcd9b4aea718b8eb6de04.jpg?s=512&d=https%3A%2F%2Fa.slack-edge.com%2Fdf10d%2Fimg%2Favatars%2Fava_0020-512.png", "custom_css": null}, {"id": 19112, "slack_id": "U09790K7667", "display_name": "phantom hack club", "bio": null, "projects_count": 0, "devlogs_count": 22, "votes_count": 44, "ships_count": 0, "projects": [], "coding_time_seconds": 482848, "coding_time_seconds_today": 0, "balance": "You need to have a pocket watcher badge to view this.", "badges": [], "created_at": "2025-07-24T20:36:56.426-04:00", "updated_at": "2025-08-14T13:18:03.855-04:00", "avatar": "https://secure.gravatar.com/avatar/0570aaf7bcd09fba88eab9a73faf90d8.jpg?s=512&d=https%3A%2F%2Fa.slack-edge.com%2Fdf10d%2Fimg%2Favatars%2Fava_0023-512.png", "custom_css": null}, {"id": 19113, "slack_id": "U097899DJG3", "display_name": "Kenneth", "bio": null, "projects_count": 0, "devlogs_count": 0, "votes_count": 0, "ships_count": 0, "projects": [], "coding_time_seconds": 0, "coding_time_seconds_today": 0, "balance": "You need to have a pocket watcher badge to view this.", "badges": [], "created_at": "2025-07-24T20:44:53.681-04:00", "updated_at": "2025-07-25T00:00:24.029-04:00", "avatar": "https://secure.gravatar.com/avatar/479d8db51cf746a0da5e9b575f8f239b.jpg?s=512&d=https%3A%2F%2Fa.slack-edge.com%2Fdf10d%2Fimg%2Favatars%2Fava_0008-512.png", "custom_css": null}, {"id": 19114, "slack_id": "U0982AAHG64", "display_name": "Arnav Raj Singh", "bio": null, "projects_count": 0, "devlogs_count": 0, "votes_count": 0, "ships_count": 0, "projects": [], "coding_time_seconds": 0, "coding_time_seconds_today": 0, "balance": "You need to have a pocket watcher badge to view this.", "badges": [], "created_at": "2025-07-24T21:01:11.996-04:00", "updated_at": "2025-07-25T00:00:24.122-04:00", "avatar": "https://avatars.slack-edge.com/2025-07-24/9253231874500_b8753631e431854ff3d9_original.jpg", "custom_css": null}, {"id": 19115, "slack_id": "U097EEPKZEE", "display_name": "Sam", "bio": null, "projects_count": 0, "devlogs_count": 0, "votes_count": 0, "ships_count": 0, "projects": [], "coding_time_seconds": 0, "coding_time_seconds_today": 0, "balance": "You need to have a pocket watcher badge to view this.", "badges": [], "created_at": "2025-07-24T21:22:59.014-04:00", "updated_at": "2025-07-25T00:00:24.239-04:00", "avatar": "https://secure.gravatar.com/avatar/32d018f34951ce68e72e81acd80aac2c.jpg?s=512&d=https%3A%2F%2Fa.slack-edge.com%2Fdf10d%2Fimg%2Favatars%2Fava_0008-512.png", "custom_css": null}, {"id": 19116, "slack_id": "U097TGXJ85P", "display_name": "Henry", "bio": null, "projects_count": 0, "devlogs_count": 0, "votes_count": 0, "ships_count": 0, "projects": [], "coding_time_seconds": 0, "coding_time_seconds_today": 0, "balance": "You need to have a pocket watcher badge to view this.", "badges": [], "created_at": "2025-07-24T21:39:56.478-04:00", "updated_at": "2025-07-25T00:00:24.357-04:00", "avatar": "https://secure.gravatar.com/avatar/fa931976ba0a9bb3977d04f46342d149.jpg?s=512&d=https%3A%2F%2Fa.slack-edge.com%2Fdf10d%2Fimg%2Favatars%2Fava_0003-512.png", "custom_css": null}, {"id": 19117, "slack_id": "U097FA5BW92", "display_name": "Maira Gonz\u00e1lez", "bio": null, "projects_count": 0, "devlogs_count": 0, "votes_count": 0, "ships_count": 0, "projects": [], "coding_time_seconds": 0, "coding_time_seconds_today": 0, "balance": "You need to have a pocket watcher badge to view this.", "badges": [], "created_at": "2025-07-24T21:43:54.873-04:00", "updated_at": "2025-07-25T00:00:24.467-04:00", "avatar": "https://secure.gravatar.com/avatar/732b4a7120c92d639939de47193a637d.jpg?s=512&d=https%3A%2F%2Fa.slack-edge.com%2Fdf10d%2Fimg%2Favatars%2Fava_0010-512.png", "custom_css": null}, {"id": 19118, "slack_id": "U097THA1HFB", "display_name": "Zaid Zamani", "bio": null, "projects_count": 1, "devlogs_count": 2, "votes_count": 4, "ships_count": 0, "projects": [{"id": 8218, "title": "3D Physics engine", "devlogs_count": 2, "created_at": "2025-07-25T10:23:08.820-04:00"}], "coding_time_seconds": 20086, "coding_time_seconds_today": 0, "balance": "You need to have a pocket watcher badge to view this.", "badges": [], "created_at": "2025-07-24T21:45:24.937-04:00", "updated_at": "2025-07-25T11:33:04.665-04:00", "avatar": "https://secure.gravatar.com/avatar/d151f376502c28cadf1ccefccf713253.jpg?s=512&d=https%3A%2F%2Fa.slack-edge.com%2Fdf10d%2Fimg%2Favatars%2Fava_0005-512.png", "custom_css": null}, {"id": 19119, "slack_id": "U097D4YS1NH", "display_name": "cris", "bio": null, "projects_count": 0, "devlogs_count": 0, "votes_count": 0, "ships_count": 0, "projects": [], "coding_time_seconds": 0, "coding_time_seconds_today": 0, "balance": "You need to have a pocket watcher badge to view this.", "badges": [], "created_at": "2025-07-24T22:20:42.869-04:00", "updated_at": "2025-07-25T21:51:52.424-04:00", "avatar": "https://secure.gravatar.com/avatar/5d6010da804bd97deca770307b36fca1.jpg?s=512&d=https%3A%2F%2Fa.slack-edge.com%2Fdf10d%2Fimg%2Favatars%2Fava_0003-512.png", "custom_css": null}, {"id": 19120, "slack_id": "U097BL24MB8", "display_name": "Bhabuk", "bio": null, "projects_count": 0, "devlogs_count": 0, "votes_count": 0, "ships_count": 0, "projects": [], "coding_time_seconds": 0, "coding_time_seconds_today": 0, "balance": "You need to have a pocket watcher badge to view this.", "badges": [], "created_at": "2025-07-24T22:27:24.012-04:00", "updated_at": "2025-07-25T00:00:28.783-04:00", "avatar": "https://secure.gravatar.com/avatar/0017bb72844eafe2e72584d8fda9874b.jpg?s=512&d=https%3A%2F%2Fa.slack-edge.com%2Fdf10d%2Fimg%2Favatars%2Fava_0026-512.png", "custom_css": null}, {"id": 19121, "slack_id": "U096Z0B338X", "display_name": "Roshan T", "bio": null, "projects_count": 0, "devlogs_count": 0, "votes_count": 0, "ships_count": 0, "projects": [], "coding_time_seconds": 143206, "coding_time_seconds_today": 0, "balance": "You need to have a pocket watcher badge to view this.", "badges": [], "created_at": "2025-07-24T22:27:55.631-04:00", "updated_at": "2025-07-25T10:32:00.748-04:00", "avatar": "https://avatars.slack-edge.com/2025-07-24/9247388603747_2fe11d1cf447b5cd64be_original.jpg", "custom_css": null}, {"id": 19122, "slack_id": "U097BLNEL1L", "display_name": "Niranjana", "bio": null, "projects_count": 2, "devlogs_count": 4, "votes_count": 3, "ships_count": 1, "projects": [{"id": 8448, "title": "FlexiFi", "devlogs_count": 1, "created_at": "2025-07-27T08:33:37.343-04:00"}, {"id": 8559, "title": "Whack A Mole", "devlogs_count": 3, "created_at": "2025-07-28T06:44:37.123-04:00"}], "coding_time_seconds": 193385, "coding_time_seconds_today": 240, "balance": "You need to have a pocket watcher badge to view this.", "badges": [], "created_at": "2025-07-24T22:35:29.222-04:00", "updated_at": "2025-08-07T04:22:47.674-04:00", "avatar": "https://avatars.slack-edge.com/2025-07-28/9260035516147_5aab2d2cac987edbe427_original.jpg", "custom_css": null}, {"id": 19123, "slack_id": "U097BMR90AJ", "display_name": "Riya", "bio": null, "projects_count": 0, "devlogs_count": 0, "votes_count": 0, "ships_count": 0, "projects": [], "coding_time_seconds": 0, "coding_time_seconds_today": 0, "balance": "You need to have a pocket watcher badge to view this.", "badges": [], "created_at": "2025-07-24T22:47:55.901-04:00", "updated_at": "2025-07-25T00:00:29.080-04:00", "avatar": "https://secure.gravatar.com/avatar/9e16b0de9790e595a64250c22f63e2fe.jpg?s=512&d=https%3A%2F%2Fa.slack-edge.com%2Fdf10d%2Fimg%2Favatars%2Fava_0016-512.png", "custom_css": null}, {"id": 19124, "slack_id": "U096Z2SAREK", "display_name": "IRESH ERANGA", "bio": null, "projects_count": 0, "devlogs_count": 0, "votes_count": 0, "ships_count": 0, "projects": [], "coding_time_seconds": 257055, "coding_time_seconds_today": 0, "balance": "You need to have a pocket watcher badge to view this.", "badges": [], "created_at": "2025-07-24T23:00:18.274-04:00", "updated_at": "2025-07-25T03:35:14.717-04:00", "avatar": "https://avatars.slack-edge.com/2025-07-24/9253581874276_b27adab50c8278e8ec5f_original.jpg", "custom_css": null}, {"id": 19125, "slack_id": "U097BPLEL0N", "display_name": "Vansh Patel", "bio": null, "projects_count": 0, "devlogs_count": 0, "votes_count": 0, "ships_count": 0, "projects": [], "coding_time_seconds": 0, "coding_time_seconds_today": 0, "balance": "You need to have a pocket watcher badge to view this.", "badges": [], "created_at": "2025-07-24T23:07:51.944-04:00", "updated_at": "2025-07-25T00:00:33.294-04:00", "avatar": "https://secure.gravatar.com/avatar/811a6373a616c5ebe42f07e36f74bf41.jpg?s=512&d=https%3A%2F%2Fa.slack-edge.com%2Fdf10d%2Fimg%2Favatars%2Fava_0005-512.png", "custom_css": null}], "pagination": {"page": 952, "pages": 1192, "count": 23828, "items": 20}}