{"users": [{"id": 19126, "slack_id": "U097D33GSSZ", "display_name": "obro", "bio": null, "projects_count": 1, "devlogs_count": 2, "votes_count": 24, "ships_count": 1, "projects": [{"id": 8287, "title": "Chat Patches", "devlogs_count": 2, "created_at": "2025-07-26T01:56:33.093-04:00"}], "coding_time_seconds": 115111, "coding_time_seconds_today": 0, "balance": "You need to have a pocket watcher badge to view this.", "badges": [], "created_at": "2025-07-24T23:08:04.353-04:00", "updated_at": "2025-08-19T22:49:46.641-04:00", "avatar": "https://avatars.slack-edge.com/2025-07-24/9249823774470_e7925b95f700c5ee9473_original.jpg", "custom_css": null}, {"id": 19127, "slack_id": "U097D9BGHL5", "display_name": "Aarav Rohilla", "bio": null, "projects_count": 0, "devlogs_count": 0, "votes_count": 0, "ships_count": 0, "projects": [], "coding_time_seconds": 0, "coding_time_seconds_today": 0, "balance": "You need to have a pocket watcher badge to view this.", "badges": [], "created_at": "2025-07-24T23:08:31.348-04:00", "updated_at": "2025-07-25T00:00:33.502-04:00", "avatar": "https://secure.gravatar.com/avatar/0dd9606fa2d92178c91d609aa154c803.jpg?s=512&d=https%3A%2F%2Fa.slack-edge.com%2Fdf10d%2Fimg%2Favatars%2Fava_0004-512.png", "custom_css": null}, {"id": 19128, "slack_id": "U097FHY2F9A", "display_name": "Sita Pataphorn Jenkittikul", "bio": null, "projects_count": 0, "devlogs_count": 0, "votes_count": 0, "ships_count": 0, "projects": [], "coding_time_seconds": 0, "coding_time_seconds_today": 0, "balance": "You need to have a pocket watcher badge to view this.", "badges": [], "created_at": "2025-07-24T23:16:31.167-04:00", "updated_at": "2025-07-25T00:00:33.619-04:00", "avatar": "https://secure.gravatar.com/avatar/290a0feefe7113aa2aaaef0695b6d96e.jpg?s=512&d=https%3A%2F%2Fa.slack-edge.com%2Fdf10d%2Fimg%2Favatars%2Fava_0021-512.png", "custom_css": null}, {"id": 19129, "slack_id": "U097TSQV5H7", "display_name": "ADITYA TRIPATHI", "bio": null, "projects_count": 2, "devlogs_count": 2, "votes_count": 18, "ships_count": 1, "projects": [{"id": 8242, "title": "A web portal for hosting a college sports fest.", "devlogs_count": 1, "created_at": "2025-07-25T14:49:23.782-04:00"}, {"id": 10366, "title": "AI_Car_Simulator", "devlogs_count": 1, "created_at": "2025-08-06T10:10:06.499-04:00"}], "coding_time_seconds": 100170, "coding_time_seconds_today": 0, "balance": "You need to have a pocket watcher badge to view this.", "badges": [], "created_at": "2025-07-24T23:27:08.420-04:00", "updated_at": "2025-08-07T04:11:44.095-04:00", "avatar": "https://avatars.slack-edge.com/2025-07-24/9247565077619_0f7769c2a2aa7bd3ff16_original.png", "custom_css": null}, {"id": 19130, "slack_id": "U0979G8UNE7", "display_name": "Suparna", "bio": null, "projects_count": 0, "devlogs_count": 0, "votes_count": 4, "ships_count": 0, "projects": [], "coding_time_seconds": 1273, "coding_time_seconds_today": 0, "balance": "You need to have a pocket watcher badge to view this.", "badges": [], "created_at": "2025-07-24T23:29:20.873-04:00", "updated_at": "2025-07-26T09:45:26.686-04:00", "avatar": "https://secure.gravatar.com/avatar/994c3e63393c2197bdf7d89f1ea60bb9.jpg?s=512&d=https%3A%2F%2Fa.slack-edge.com%2Fdf10d%2Fimg%2Favatars%2Fava_0026-512.png", "custom_css": null}, {"id": 19131, "slack_id": "U097ESKDE82", "display_name": "Jit", "bio": null, "projects_count": 0, "devlogs_count": 0, "votes_count": 0, "ships_count": 0, "projects": [], "coding_time_seconds": 0, "coding_time_seconds_today": 0, "balance": "You need to have a pocket watcher badge to view this.", "badges": [], "created_at": "2025-07-24T23:34:34.308-04:00", "updated_at": "2025-07-25T00:00:33.997-04:00", "avatar": "https://secure.gravatar.com/avatar/9cbabcc3904865b748d2bdef678eeccd.jpg?s=512&d=https%3A%2F%2Fa.slack-edge.com%2Fdf10d%2Fimg%2Favatars%2Fava_0001-512.png", "custom_css": null}, {"id": 19132, "slack_id": "U097ESN1QKU", "display_name": "Saagar Bhujel", "bio": null, "projects_count": 0, "devlogs_count": 0, "votes_count": 0, "ships_count": 0, "projects": [], "coding_time_seconds": 0, "coding_time_seconds_today": 0, "balance": "You need to have a pocket watcher badge to view this.", "badges": [], "created_at": "2025-07-24T23:35:01.547-04:00", "updated_at": "2025-07-25T00:00:34.232-04:00", "avatar": "https://secure.gravatar.com/avatar/410371e02e51e90c00d62df1fd4d1667.jpg?s=512&d=https%3A%2F%2Fa.slack-edge.com%2Fdf10d%2Fimg%2Favatars%2Fava_0003-512.png", "custom_css": null}, {"id": 19133, "slack_id": "U097BS9NTP0", "display_name": "Lincoln Paxton", "bio": null, "projects_count": 0, "devlogs_count": 0, "votes_count": 0, "ships_count": 0, "projects": [], "coding_time_seconds": 0, "coding_time_seconds_today": 0, "balance": "You need to have a pocket watcher badge to view this.", "badges": [], "created_at": "2025-07-24T23:42:25.795-04:00", "updated_at": "2025-07-25T07:05:02.889-04:00", "avatar": "https://secure.gravatar.com/avatar/79cf9ee3cd1969a6efdee0ee4e11449e.jpg?s=512&d=https%3A%2F%2Fa.slack-edge.com%2Fdf10d%2Fimg%2Favatars%2Fava_0018-512.png", "custom_css": null}, {"id": 19134, "slack_id": "U0979HZ56MR", "display_name": "Raj", "bio": null, "projects_count": 0, "devlogs_count": 0, "votes_count": 0, "ships_count": 0, "projects": [], "coding_time_seconds": 0, "coding_time_seconds_today": 0, "balance": "You need to have a pocket watcher badge to view this.", "badges": [], "created_at": "2025-07-24T23:48:25.750-04:00", "updated_at": "2025-08-26T06:30:39.967-04:00", "avatar": "https://secure.gravatar.com/avatar/6d25e44b9f5d65176a58bead1d212086.jpg?s=512&d=https%3A%2F%2Fa.slack-edge.com%2Fdf10d%2Fimg%2Favatars%2Fava_0024-512.png", "custom_css": null}, {"id": 19135, "slack_id": "U096Z6SS98F", "display_name": "Roushan Singh", "bio": null, "projects_count": 0, "devlogs_count": 0, "votes_count": 0, "ships_count": 0, "projects": [], "coding_time_seconds": 0, "coding_time_seconds_today": 0, "balance": "You need to have a pocket watcher badge to view this.", "badges": [], "created_at": "2025-07-24T23:50:13.652-04:00", "updated_at": "2025-07-25T07:05:03.174-04:00", "avatar": "https://secure.gravatar.com/avatar/01bf133865054a984f778f965e86f61f.jpg?s=512&d=https%3A%2F%2Fa.slack-edge.com%2Fdf10d%2Fimg%2Favatars%2Fava_0019-512.png", "custom_css": null}, {"id": 19136, "slack_id": "U097DD0MAN9", "display_name": "Yash", "bio": null, "projects_count": 0, "devlogs_count": 0, "votes_count": 0, "ships_count": 0, "projects": [], "coding_time_seconds": 0, "coding_time_seconds_today": 0, "balance": "You need to have a pocket watcher badge to view this.", "badges": [], "created_at": "2025-07-24T23:55:34.798-04:00", "updated_at": "2025-07-25T07:05:03.269-04:00", "avatar": "https://secure.gravatar.com/avatar/720c6afc5ed58f3e9190168f44a65729.jpg?s=512&d=https%3A%2F%2Fa.slack-edge.com%2Fdf10d%2Fimg%2Favatars%2Fava_0023-512.png", "custom_css": null}, {"id": 19137, "slack_id": "U096Z771Y4F", "display_name": "Rafaelo Slaquito", "bio": null, "projects_count": 0, "devlogs_count": 0, "votes_count": 0, "ships_count": 0, "projects": [], "coding_time_seconds": 0, "coding_time_seconds_today": 0, "balance": "You need to have a pocket watcher badge to view this.", "badges": [], "created_at": "2025-07-24T23:55:55.650-04:00", "updated_at": "2025-07-25T07:05:03.360-04:00", "avatar": "https://secure.gravatar.com/avatar/ad091277f184f6dd15437fa1d5186a97.jpg?s=512&d=https%3A%2F%2Fa.slack-edge.com%2Fdf10d%2Fimg%2Favatars%2Fava_0001-512.png", "custom_css": null}, {"id": 19138, "slack_id": "U0974G1HK8D", "display_name": "AYDOSUL", "bio": null, "projects_count": 0, "devlogs_count": 0, "votes_count": 0, "ships_count": 0, "projects": [], "coding_time_seconds": 0, "coding_time_seconds_today": 0, "balance": "You need to have a pocket watcher badge to view this.", "badges": [], "created_at": "2025-07-24T23:58:57.225-04:00", "updated_at": "2025-08-15T15:04:02.488-04:00", "avatar": "https://secure.gravatar.com/avatar/132351cdd8d4232c4d611f822b04ee72.jpg?s=512&d=https%3A%2F%2Fa.slack-edge.com%2Fdf10d%2Fimg%2Favatars%2Fava_0018-512.png", "custom_css": null}, {"id": 19139, "slack_id": "U097C3RUG01", "display_name": "Abhijeet P", "bio": "", "projects_count": 0, "devlogs_count": 0, "votes_count": 1, "ships_count": 0, "projects": [], "coding_time_seconds": 8081, "coding_time_seconds_today": 0, "balance": "You need to have a pocket watcher badge to view this.", "badges": [], "created_at": "2025-07-25T00:04:19.494-04:00", "updated_at": "2025-07-26T10:25:34.899-04:00", "avatar": "https://secure.gravatar.com/avatar/02f24bec7422a0a1812b124ef9f2fd68.jpg?s=512&d=https%3A%2F%2Fa.slack-edge.com%2Fdf10d%2Fimg%2Favatars%2Fava_0024-512.png", "custom_css": null}, {"id": 19140, "slack_id": "U08R9MF5NVD", "display_name": "Eeva", "bio": null, "projects_count": 0, "devlogs_count": 0, "votes_count": 0, "ships_count": 0, "projects": [], "coding_time_seconds": 0, "coding_time_seconds_today": 0, "balance": "You need to have a pocket watcher badge to view this.", "badges": [], "created_at": "2025-07-25T00:08:59.803-04:00", "updated_at": "2025-07-25T07:05:07.714-04:00", "avatar": "https://secure.gravatar.com/avatar/832e57cca232dbdac6cbefb0eefb70e6.jpg?s=512&d=https%3A%2F%2Fa.slack-edge.com%2Fdf10d%2Fimg%2Favatars%2Fava_0003-512.png", "custom_css": null}, {"id": 19141, "slack_id": "U097XDX3248", "display_name": "Agam", "bio": null, "projects_count": 0, "devlogs_count": 0, "votes_count": 0, "ships_count": 0, "projects": [], "coding_time_seconds": 0, "coding_time_seconds_today": 0, "balance": "You need to have a pocket watcher badge to view this.", "badges": [], "created_at": "2025-07-25T00:10:46.668-04:00", "updated_at": "2025-07-25T07:05:07.806-04:00", "avatar": "https://secure.gravatar.com/avatar/825d3009666358ab87b46ad74e664323.jpg?s=512&d=https%3A%2F%2Fa.slack-edge.com%2Fdf10d%2Fimg%2Favatars%2Fava_0005-512.png", "custom_css": null}, {"id": 19142, "slack_id": "U0979L61C3V", "display_name": "Utkarsh", "bio": null, "projects_count": 0, "devlogs_count": 0, "votes_count": 0, "ships_count": 0, "projects": [], "coding_time_seconds": 0, "coding_time_seconds_today": 0, "balance": "You need to have a pocket watcher badge to view this.", "badges": [], "created_at": "2025-07-25T00:12:48.605-04:00", "updated_at": "2025-07-25T07:05:07.914-04:00", "avatar": "https://secure.gravatar.com/avatar/c89786cd6ececfba8f48b60352aff6c4.jpg?s=512&d=https%3A%2F%2Fa.slack-edge.com%2Fdf10d%2Fimg%2Favatars%2Fava_0015-512.png", "custom_css": null}, {"id": 19143, "slack_id": "U097DEVMVHT", "display_name": "maryamm", "bio": null, "projects_count": 0, "devlogs_count": 0, "votes_count": 0, "ships_count": 0, "projects": [], "coding_time_seconds": 0, "coding_time_seconds_today": 0, "balance": "You need to have a pocket watcher badge to view this.", "badges": [], "created_at": "2025-07-25T00:18:18.649-04:00", "updated_at": "2025-07-25T07:05:08.068-04:00", "avatar": "https://secure.gravatar.com/avatar/3243a8d5e9dbb6ce7670cc464e458fde.jpg?s=512&d=https%3A%2F%2Fa.slack-edge.com%2Fdf10d%2Fimg%2Favatars%2Fava_0025-512.png", "custom_css": null}, {"id": 19144, "slack_id": "U097DG0CWTF", "display_name": "Ushan Ikshana", "bio": null, "projects_count": 0, "devlogs_count": 0, "votes_count": 0, "ships_count": 0, "projects": [], "coding_time_seconds": 0, "coding_time_seconds_today": 0, "balance": "You need to have a pocket watcher badge to view this.", "badges": [], "created_at": "2025-07-25T00:26:16.706-04:00", "updated_at": "2025-07-25T07:05:08.211-04:00", "avatar": "https://secure.gravatar.com/avatar/accfe7da4f50ca805c955cb72a44a749.jpg?s=512&d=https%3A%2F%2Fa.slack-edge.com%2Fdf10d%2Fimg%2Favatars%2Fava_0021-512.png", "custom_css": null}, {"id": 19145, "slack_id": "U096Z80RVQX", "display_name": "Ritesh", "bio": null, "projects_count": 0, "devlogs_count": 0, "votes_count": 0, "ships_count": 0, "projects": [], "coding_time_seconds": 0, "coding_time_seconds_today": 0, "balance": "You need to have a pocket watcher badge to view this.", "badges": [], "created_at": "2025-07-25T00:31:24.688-04:00", "updated_at": "2025-09-16T05:21:39.872-04:00", "avatar": "https://secure.gravatar.com/avatar/5e582d5f5287b90ca75ba9ea39b785da.jpg?s=512&d=https%3A%2F%2Fa.slack-edge.com%2Fdf10d%2Fimg%2Favatars%2Fava_0025-512.png", "custom_css": null}], "pagination": {"page": 953, "pages": 1192, "count": 23828, "items": 20}}