{"users": [{"id": 19146, "slack_id": "U096ZAN6ADD", "display_name": "ZRGRU", "bio": null, "projects_count": 0, "devlogs_count": 0, "votes_count": 0, "ships_count": 0, "projects": [], "coding_time_seconds": 0, "coding_time_seconds_today": 0, "balance": "You need to have a pocket watcher badge to view this.", "badges": [], "created_at": "2025-07-25T00:38:17.869-04:00", "updated_at": "2025-07-25T07:05:08.485-04:00", "avatar": "https://secure.gravatar.com/avatar/ed31538eb81bdbccf4b1a534a9805111.jpg?s=512&d=https%3A%2F%2Fa.slack-edge.com%2Fdf10d%2Fimg%2Favatars%2Fava_0021-512.png", "custom_css": null}, {"id": 19147, "slack_id": "U096ZAYQYTH", "display_name": "W.A.H ISHAN", "bio": null, "projects_count": 0, "devlogs_count": 0, "votes_count": 0, "ships_count": 0, "projects": [], "coding_time_seconds": 81979, "coding_time_seconds_today": 3591, "balance": "You need to have a pocket watcher badge to view this.", "badges": [], "created_at": "2025-07-25T00:43:05.895-04:00", "updated_at": "2025-07-25T07:05:08.619-04:00", "avatar": "https://avatars.slack-edge.com/2025-07-24/9250082371446_617d9ae2a1adae43b4b5_original.png", "custom_css": null}, {"id": 19148, "slack_id": "U097C2WLHAS", "display_name": "1_aurelius", "bio": "", "projects_count": 1, "devlogs_count": 1, "votes_count": 1, "ships_count": 0, "projects": [{"id": 8160, "title": "Media Manager Lite", "devlogs_count": 1, "created_at": "2025-07-25T02:29:55.823-04:00"}], "coding_time_seconds": 33246, "coding_time_seconds_today": 0, "balance": "You need to have a pocket watcher badge to view this.", "badges": [], "created_at": "2025-07-25T00:52:43.797-04:00", "updated_at": "2025-07-25T19:26:51.018-04:00", "avatar": "https://avatars.slack-edge.com/2025-07-25/9237430538103_f394ae4335253209134f_original.webp", "custom_css": null}, {"id": 19149, "slack_id": "U097F52T7UJ", "display_name": "Yogesh Mahat", "bio": null, "projects_count": 0, "devlogs_count": 0, "votes_count": 0, "ships_count": 0, "projects": [], "coding_time_seconds": 0, "coding_time_seconds_today": 0, "balance": "You need to have a pocket watcher badge to view this.", "badges": [], "created_at": "2025-07-25T01:03:10.843-04:00", "updated_at": "2025-07-25T07:05:08.855-04:00", "avatar": "https://secure.gravatar.com/avatar/057642b4d92b84f72b8165ab9bc51279.jpg?s=512&d=https%3A%2F%2Fa.slack-edge.com%2Fdf10d%2Fimg%2Favatars%2Fava_0005-512.png", "custom_css": null}, {"id": 19150, "slack_id": "U09832UEDMW", "display_name": "Cindy", "bio": null, "projects_count": 0, "devlogs_count": 0, "votes_count": 0, "ships_count": 0, "projects": [], "coding_time_seconds": 0, "coding_time_seconds_today": 0, "balance": "You need to have a pocket watcher badge to view this.", "badges": [], "created_at": "2025-07-25T01:09:52.657-04:00", "updated_at": "2025-07-25T07:05:08.951-04:00", "avatar": "https://secure.gravatar.com/avatar/faa032edf70a7028d9c3a55a2ce3a0b5.jpg?s=512&d=https%3A%2F%2Fa.slack-edge.com%2Fdf10d%2Fimg%2Favatars%2Fava_0018-512.png", "custom_css": null}, {"id": 19151, "slack_id": "U097DMA7V2R", "display_name": "DS", "bio": null, "projects_count": 0, "devlogs_count": 0, "votes_count": 0, "ships_count": 0, "projects": [], "coding_time_seconds": 0, "coding_time_seconds_today": 0, "balance": "You need to have a pocket watcher badge to view this.", "badges": [], "created_at": "2025-07-25T01:21:48.037-04:00", "updated_at": "2025-07-25T07:05:09.045-04:00", "avatar": "https://secure.gravatar.com/avatar/bb09163fdc74f2fc7c638fe2179682df.jpg?s=512&d=https%3A%2F%2Fa.slack-edge.com%2Fdf10d%2Fimg%2Favatars%2Fava_0009-512.png", "custom_css": null}, {"id": 19152, "slack_id": "U09833QKBNU", "display_name": "siddardha", "bio": null, "projects_count": 0, "devlogs_count": 0, "votes_count": 0, "ships_count": 0, "projects": [], "coding_time_seconds": 2982, "coding_time_seconds_today": 0, "balance": "You need to have a pocket watcher badge to view this.", "badges": [], "created_at": "2025-07-25T01:22:40.211-04:00", "updated_at": "2025-07-30T13:38:56.781-04:00", "avatar": "https://secure.gravatar.com/avatar/b2a1e154f2c771c1feb0dddac03280f9.jpg?s=512&d=https%3A%2F%2Fa.slack-edge.com%2Fdf10d%2Fimg%2Favatars%2Fava_0002-512.png", "custom_css": null}, {"id": 19153, "slack_id": "U098341R196", "display_name": "Otter rose", "bio": null, "projects_count": 0, "devlogs_count": 0, "votes_count": 0, "ships_count": 0, "projects": [], "coding_time_seconds": 120, "coding_time_seconds_today": 0, "balance": "You need to have a pocket watcher badge to view this.", "badges": [], "created_at": "2025-07-25T01:24:21.252-04:00", "updated_at": "2025-08-06T19:38:25.142-04:00", "avatar": "https://secure.gravatar.com/avatar/a3d6e80a54adb6673ee54a5c02be759f.jpg?s=512&d=https%3A%2F%2Fa.slack-edge.com%2Fdf10d%2Fimg%2Favatars%2Fava_0002-512.png", "custom_css": null}, {"id": 19154, "slack_id": "U097FTN93N0", "display_name": "Cas Tial", "bio": null, "projects_count": 0, "devlogs_count": 0, "votes_count": 0, "ships_count": 0, "projects": [], "coding_time_seconds": 0, "coding_time_seconds_today": 0, "balance": "You need to have a pocket watcher badge to view this.", "badges": [], "created_at": "2025-07-25T01:24:38.557-04:00", "updated_at": "2025-07-25T07:05:09.372-04:00", "avatar": "https://avatars.slack-edge.com/2025-07-24/9266277143841_b6789904a8c80cd0b6c8_original.png", "custom_css": null}, {"id": 19155, "slack_id": "U097C6REK38", "display_name": "Dharshan", "bio": null, "projects_count": 0, "devlogs_count": 0, "votes_count": 0, "ships_count": 0, "projects": [], "coding_time_seconds": 0, "coding_time_seconds_today": 0, "balance": "You need to have a pocket watcher badge to view this.", "badges": [], "created_at": "2025-07-25T01:34:17.504-04:00", "updated_at": "2025-07-25T07:05:09.459-04:00", "avatar": "https://secure.gravatar.com/avatar/8d4cba9020bb9baeef370516e1e15ee9.jpg?s=512&d=https%3A%2F%2Fa.slack-edge.com%2Fdf10d%2Fimg%2Favatars%2Fava_0011-512.png", "custom_css": null}, {"id": 19156, "slack_id": "U097G04M4MS", "display_name": "alle/therealshadowmilkcookie", "bio": null, "projects_count": 0, "devlogs_count": 0, "votes_count": 0, "ships_count": 0, "projects": [], "coding_time_seconds": 0, "coding_time_seconds_today": 0, "balance": "You need to have a pocket watcher badge to view this.", "badges": [], "created_at": "2025-07-25T01:34:41.971-04:00", "updated_at": "2025-07-26T11:57:04.177-04:00", "avatar": "https://secure.gravatar.com/avatar/045a96e9ec05dae47a25937a937e95d9.jpg?s=512&d=https%3A%2F%2Fa.slack-edge.com%2Fdf10d%2Fimg%2Favatars%2Fava_0000-512.png", "custom_css": null}, {"id": 19157, "slack_id": "U097F8T3KM0", "display_name": "Prajwal", "bio": null, "projects_count": 0, "devlogs_count": 0, "votes_count": 0, "ships_count": 0, "projects": [], "coding_time_seconds": 0, "coding_time_seconds_today": 0, "balance": "You need to have a pocket watcher badge to view this.", "badges": [], "created_at": "2025-07-25T01:42:41.744-04:00", "updated_at": "2025-07-25T07:05:13.673-04:00", "avatar": "https://secure.gravatar.com/avatar/498d0c008c849cbc6bfbed277384ffbe.jpg?s=512&d=https%3A%2F%2Fa.slack-edge.com%2Fdf10d%2Fimg%2Favatars%2Fava_0025-512.png", "custom_css": null}, {"id": 19158, "slack_id": "U096ZGNQC2K", "display_name": "W.D.Yeshmi Nathasha", "bio": "", "projects_count": 0, "devlogs_count": 0, "votes_count": 0, "ships_count": 0, "projects": [], "coding_time_seconds": 0, "coding_time_seconds_today": 0, "balance": "You need to have a pocket watcher badge to view this.", "badges": [], "created_at": "2025-07-25T01:47:03.463-04:00", "updated_at": "2025-07-25T07:05:13.757-04:00", "avatar": "https://secure.gravatar.com/avatar/73bfda7525be5d1c1ea0f3b9a30f3702.jpg?s=512&d=https%3A%2F%2Fa.slack-edge.com%2Fdf10d%2Fimg%2Favatars%2Fava_0024-512.png", "custom_css": null}, {"id": 19159, "slack_id": "U097BNNURC6", "display_name": "Kingston Tsai", "bio": null, "projects_count": 0, "devlogs_count": 0, "votes_count": 0, "ships_count": 0, "projects": [], "coding_time_seconds": 0, "coding_time_seconds_today": 0, "balance": "You need to have a pocket watcher badge to view this.", "badges": [], "created_at": "2025-07-25T02:00:08.746-04:00", "updated_at": "2025-07-25T07:05:13.843-04:00", "avatar": "https://secure.gravatar.com/avatar/f0c0ed1a3b08da911c86b4954007ddb0.jpg?s=512&d=https%3A%2F%2Fa.slack-edge.com%2Fdf10d%2Fimg%2Favatars%2Fava_0014-512.png", "custom_css": null}, {"id": 19160, "slack_id": "U097UBMG82D", "display_name": "Barney", "bio": null, "projects_count": 0, "devlogs_count": 0, "votes_count": 0, "ships_count": 0, "projects": [], "coding_time_seconds": 0, "coding_time_seconds_today": 0, "balance": "You need to have a pocket watcher badge to view this.", "badges": [], "created_at": "2025-07-25T02:02:05.055-04:00", "updated_at": "2025-07-25T07:05:13.920-04:00", "avatar": "https://secure.gravatar.com/avatar/3d319958bc78a4ee2e31640eccc20f8c.jpg?s=512&d=https%3A%2F%2Fa.slack-edge.com%2Fdf10d%2Fimg%2Favatars%2Fava_0012-512.png", "custom_css": null}, {"id": 19161, "slack_id": "U097UBMH4JV", "display_name": "geet", "bio": null, "projects_count": 0, "devlogs_count": 0, "votes_count": 0, "ships_count": 0, "projects": [], "coding_time_seconds": 0, "coding_time_seconds_today": 0, "balance": "You need to have a pocket watcher badge to view this.", "badges": [], "created_at": "2025-07-25T02:03:46.171-04:00", "updated_at": "2025-07-25T07:05:14.001-04:00", "avatar": "https://secure.gravatar.com/avatar/25004dfcd7513613f58f280683b86fd6.jpg?s=512&d=https%3A%2F%2Fa.slack-edge.com%2Fdf10d%2Fimg%2Favatars%2Fava_0008-512.png", "custom_css": null}, {"id": 19162, "slack_id": "U0979U2PKPD", "display_name": "Ghulam Mustafa", "bio": null, "projects_count": 1, "devlogs_count": 0, "votes_count": 0, "ships_count": 0, "projects": [{"id": 8164, "title": "Tic Tac Toe", "devlogs_count": 0, "created_at": "2025-07-25T03:02:28.757-04:00"}], "coding_time_seconds": 10797, "coding_time_seconds_today": 0, "balance": "You need to have a pocket watcher badge to view this.", "badges": [], "created_at": "2025-07-25T02:07:23.170-04:00", "updated_at": "2025-07-25T07:05:14.094-04:00", "avatar": "https://secure.gravatar.com/avatar/f757cb4a7228c4cab6f43eaaf1527f42.jpg?s=512&d=https%3A%2F%2Fa.slack-edge.com%2Fdf10d%2Fimg%2Favatars%2Fava_0003-512.png", "custom_css": null}, {"id": 19163, "slack_id": "U097C9Y6546", "display_name": "Sujoy De", "bio": null, "projects_count": 1, "devlogs_count": 0, "votes_count": 0, "ships_count": 0, "projects": [{"id": 8159, "title": "SocGen DocSec", "devlogs_count": 0, "created_at": "2025-07-25T02:28:21.219-04:00"}], "coding_time_seconds": 26533, "coding_time_seconds_today": 0, "balance": "You need to have a pocket watcher badge to view this.", "badges": [], "created_at": "2025-07-25T02:11:37.040-04:00", "updated_at": "2025-07-27T05:16:00.062-04:00", "avatar": "https://avatars.slack-edge.com/2025-07-24/9237652148103_2f9184b5a2cb6814ed76_original.jpg", "custom_css": null}, {"id": 19164, "slack_id": "U097UCZE2BB", "display_name": "J.AI", "bio": null, "projects_count": 0, "devlogs_count": 9, "votes_count": 6, "ships_count": 0, "projects": [], "coding_time_seconds": 281094, "coding_time_seconds_today": 0, "balance": "You need to have a pocket watcher badge to view this.", "badges": [], "created_at": "2025-07-25T02:14:06.723-04:00", "updated_at": "2025-09-15T09:35:11.961-04:00", "avatar": "https://avatars.slack-edge.com/2025-09-07/9501739318384_0a650f592a139ff8e838_original.png", "custom_css": null}, {"id": 19165, "slack_id": "U097FCEN15Y", "display_name": "Francisco", "bio": null, "projects_count": 0, "devlogs_count": 0, "votes_count": 0, "ships_count": 0, "projects": [], "coding_time_seconds": 0, "coding_time_seconds_today": 0, "balance": "You need to have a pocket watcher badge to view this.", "badges": [], "created_at": "2025-07-25T02:15:23.609-04:00", "updated_at": "2025-07-25T07:05:14.354-04:00", "avatar": "https://secure.gravatar.com/avatar/555ca640c0b95c85bd549d496f0486b5.jpg?s=512&d=https%3A%2F%2Fa.slack-edge.com%2Fdf10d%2Fimg%2Favatars%2Fava_0006-512.png", "custom_css": null}], "pagination": {"page": 954, "pages": 1192, "count": 23828, "items": 20}}