{"users": [{"id": 19166, "slack_id": "U097UCSLVDF", "display_name": "Sawyer Holmes", "bio": null, "projects_count": 0, "devlogs_count": 0, "votes_count": 0, "ships_count": 0, "projects": [], "coding_time_seconds": 0, "coding_time_seconds_today": 0, "balance": "You need to have a pocket watcher badge to view this.", "badges": [], "created_at": "2025-07-25T02:15:32.775-04:00", "updated_at": "2025-07-25T07:05:14.448-04:00", "avatar": "https://secure.gravatar.com/avatar/3a0d38c77b00db9252ab29902f1954f4.jpg?s=512&d=https%3A%2F%2Fa.slack-edge.com%2Fdf10d%2Fimg%2Favatars%2Fava_0005-512.png", "custom_css": null}, {"id": 19167, "slack_id": "U097UD3GFSM", "display_name": "Jagadeesh Mahalingam", "bio": null, "projects_count": 0, "devlogs_count": 0, "votes_count": 0, "ships_count": 0, "projects": [], "coding_time_seconds": 0, "coding_time_seconds_today": 0, "balance": "You need to have a pocket watcher badge to view this.", "badges": [], "created_at": "2025-07-25T02:16:18.061-04:00", "updated_at": "2025-07-25T07:05:14.543-04:00", "avatar": "https://secure.gravatar.com/avatar/4bcd8d2cab0e8514c54db00ad64b9c3e.jpg?s=512&d=https%3A%2F%2Fa.slack-edge.com%2Fdf10d%2Fimg%2Favatars%2Fava_0006-512.png", "custom_css": null}, {"id": 19168, "slack_id": "U097UDC8V6D", "display_name": "Pranjal", "bio": "i work on projects", "projects_count": 3, "devlogs_count": 3, "votes_count": 18, "ships_count": 0, "projects": [{"id": 8179, "title": "SyncStream", "devlogs_count": 1, "created_at": "2025-07-25T04:41:28.940-04:00"}, {"id": 8205, "title": "Void Sector", "devlogs_count": 0, "created_at": "2025-07-25T07:40:39.359-04:00"}, {"id": 8163, "title": "TimeStitch", "devlogs_count": 1, "created_at": "2025-07-25T02:43:10.188-04:00"}], "coding_time_seconds": 46356, "coding_time_seconds_today": 0, "balance": "You need to have a pocket watcher badge to view this.", "badges": [], "created_at": "2025-07-25T02:19:44.475-04:00", "updated_at": "2025-07-25T07:05:14.628-04:00", "avatar": "https://secure.gravatar.com/avatar/bcfccf0fc5bb735c65dea996b39c3548.jpg?s=512&d=https%3A%2F%2Fa.slack-edge.com%2Fdf10d%2Fimg%2Favatars%2Fava_0005-512.png", "custom_css": null}, {"id": 19169, "slack_id": "U0983BASVRN", "display_name": "samriddhi", "bio": null, "projects_count": 0, "devlogs_count": 0, "votes_count": 0, "ships_count": 0, "projects": [], "coding_time_seconds": 46845, "coding_time_seconds_today": 706, "balance": "You need to have a pocket watcher badge to view this.", "badges": [], "created_at": "2025-07-25T02:33:42.606-04:00", "updated_at": "2025-07-25T07:05:14.710-04:00", "avatar": "https://secure.gravatar.com/avatar/bb4a2933a0857a3fbfeeae1bf6060ee1.jpg?s=512&d=https%3A%2F%2Fa.slack-edge.com%2Fdf10d%2Fimg%2Favatars%2Fava_0003-512.png", "custom_css": null}, {"id": 19170, "slack_id": "U0983BPSFDE", "display_name": "Zarine", "bio": null, "projects_count": 0, "devlogs_count": 0, "votes_count": 0, "ships_count": 0, "projects": [], "coding_time_seconds": 0, "coding_time_seconds_today": 0, "balance": "You need to have a pocket watcher badge to view this.", "badges": [], "created_at": "2025-07-25T02:38:56.201-04:00", "updated_at": "2025-07-25T07:05:14.807-04:00", "avatar": "https://secure.gravatar.com/avatar/f83c043e876f889a5a541dea31bc28da.jpg?s=512&d=https%3A%2F%2Fa.slack-edge.com%2Fdf10d%2Fimg%2Favatars%2Fava_0005-512.png", "custom_css": null}, {"id": 19171, "slack_id": "U097CEHHX7Y", "display_name": "Kiruthik Kumar", "bio": null, "projects_count": 0, "devlogs_count": 0, "votes_count": 0, "ships_count": 0, "projects": [], "coding_time_seconds": 118909, "coding_time_seconds_today": 1561, "balance": "You need to have a pocket watcher badge to view this.", "badges": [], "created_at": "2025-07-25T02:49:13.431-04:00", "updated_at": "2025-07-25T07:05:14.916-04:00", "avatar": "https://secure.gravatar.com/avatar/f1530bf936dd9eab6e8346fbf3e5dc7d.jpg?s=512&d=https%3A%2F%2Fa.slack-edge.com%2Fdf10d%2Fimg%2Favatars%2Fava_0015-512.png", "custom_css": null}, {"id": 19172, "slack_id": "U098391D7ME", "display_name": "arsenal fan", "bio": null, "projects_count": 0, "devlogs_count": 73, "votes_count": 135, "ships_count": 0, "projects": [], "coding_time_seconds": 552920, "coding_time_seconds_today": 0, "balance": "You need to have a pocket watcher badge to view this.", "badges": [], "created_at": "2025-07-25T02:49:30.561-04:00", "updated_at": "2025-09-03T02:29:43.319-04:00", "avatar": "https://avatars.slack-edge.com/2025-07-24/9266592826849_fb8410a23e5bb9973691_original.png", "custom_css": null}, {"id": 19173, "slack_id": "U096ZNH9Y1M", "display_name": "RT", "bio": null, "projects_count": 0, "devlogs_count": 0, "votes_count": 0, "ships_count": 0, "projects": [], "coding_time_seconds": 20431, "coding_time_seconds_today": 0, "balance": "You need to have a pocket watcher badge to view this.", "badges": [], "created_at": "2025-07-25T02:55:02.186-04:00", "updated_at": "2025-07-25T07:05:15.142-04:00", "avatar": "https://avatars.slack-edge.com/2025-07-25/9253743886834_df52bb57f757966025d8_original.png", "custom_css": null}, {"id": 19174, "slack_id": "U0983DD0DK2", "display_name": "Catherin Jenira", "bio": null, "projects_count": 0, "devlogs_count": 0, "votes_count": 0, "ships_count": 0, "projects": [], "coding_time_seconds": 42268, "coding_time_seconds_today": 0, "balance": "You need to have a pocket watcher badge to view this.", "badges": [], "created_at": "2025-07-25T02:55:45.197-04:00", "updated_at": "2025-07-25T07:05:15.221-04:00", "avatar": "https://secure.gravatar.com/avatar/a60e7543951b0130db90049362f2b36c.jpg?s=512&d=https%3A%2F%2Fa.slack-edge.com%2Fdf10d%2Fimg%2Favatars%2Fava_0013-512.png", "custom_css": null}, {"id": 19175, "slack_id": "U097UJLPTG9", "display_name": "Ishit", "bio": null, "projects_count": 0, "devlogs_count": 0, "votes_count": 0, "ships_count": 0, "projects": [], "coding_time_seconds": 0, "coding_time_seconds_today": 0, "balance": "You need to have a pocket watcher badge to view this.", "badges": [], "created_at": "2025-07-25T03:01:57.290-04:00", "updated_at": "2025-07-25T07:05:15.303-04:00", "avatar": "https://secure.gravatar.com/avatar/cd7a553a78e9a0f1ec15ec1e751339c3.jpg?s=512&d=https%3A%2F%2Fa.slack-edge.com%2Fdf10d%2Fimg%2Favatars%2Fava_0012-512.png", "custom_css": null}, {"id": 19176, "slack_id": "U097E38NP3P", "display_name": "Krishna", "bio": null, "projects_count": 0, "devlogs_count": 0, "votes_count": 0, "ships_count": 0, "projects": [], "coding_time_seconds": 0, "coding_time_seconds_today": 0, "balance": "You need to have a pocket watcher badge to view this.", "badges": [], "created_at": "2025-07-25T03:04:06.910-04:00", "updated_at": "2025-07-25T07:05:15.396-04:00", "avatar": "https://secure.gravatar.com/avatar/7c7a6b28184619b6c2b6b401b0c06d36.jpg?s=512&d=https%3A%2F%2Fa.slack-edge.com%2Fdf10d%2Fimg%2Favatars%2Fava_0005-512.png", "custom_css": null}, {"id": 19177, "slack_id": "U097CHD8TPY", "display_name": "Ridhima", "bio": null, "projects_count": 0, "devlogs_count": 0, "votes_count": 0, "ships_count": 0, "projects": [], "coding_time_seconds": 0, "coding_time_seconds_today": 0, "balance": "You need to have a pocket watcher badge to view this.", "badges": [], "created_at": "2025-07-25T03:12:09.708-04:00", "updated_at": "2025-07-25T07:05:15.497-04:00", "avatar": "https://secure.gravatar.com/avatar/55f6ff73a3716550055a2ca818602bf8.jpg?s=512&d=https%3A%2F%2Fa.slack-edge.com%2Fdf10d%2Fimg%2Favatars%2Fava_0006-512.png", "custom_css": null}, {"id": 19178, "slack_id": "U0983G0UMFS", "display_name": "Arjun Krishna P", "bio": null, "projects_count": 0, "devlogs_count": 0, "votes_count": 0, "ships_count": 0, "projects": [], "coding_time_seconds": 0, "coding_time_seconds_today": 0, "balance": "You need to have a pocket watcher badge to view this.", "badges": [], "created_at": "2025-07-25T03:14:05.573-04:00", "updated_at": "2025-07-26T03:01:52.974-04:00", "avatar": "https://avatars.slack-edge.com/2025-07-25/9253724912066_89798af99879c1553cab_original.png", "custom_css": null}, {"id": 19179, "slack_id": "U097E4NS2NR", "display_name": "Joachim", "bio": null, "projects_count": 1, "devlogs_count": 0, "votes_count": 0, "ships_count": 0, "projects": [{"id": 8174, "title": "Gameplanner", "devlogs_count": 0, "created_at": "2025-07-25T04:09:51.677-04:00"}], "coding_time_seconds": 75401, "coding_time_seconds_today": 0, "balance": "You need to have a pocket watcher badge to view this.", "badges": [], "created_at": "2025-07-25T03:16:04.876-04:00", "updated_at": "2025-07-25T07:05:15.682-04:00", "avatar": "https://secure.gravatar.com/avatar/500d253c3cdd301937c3a76fba7d9ed2.jpg?s=512&d=https%3A%2F%2Fa.slack-edge.com%2Fdf10d%2Fimg%2Favatars%2Fava_0012-512.png", "custom_css": null}, {"id": 19180, "slack_id": "U097AHQQNN9", "display_name": "satya//7YA", "bio": null, "projects_count": 4, "devlogs_count": 20, "votes_count": 0, "ships_count": 2, "projects": [{"id": 10024, "title": "Voidexity", "devlogs_count": 0, "created_at": "2025-08-03T14:23:54.520-04:00"}, {"id": 12463, "title": "WiWii", "devlogs_count": 0, "created_at": "2025-08-28T00:18:28.964-04:00"}, {"id": 8168, "title": "Hack4Vibe", "devlogs_count": 17, "created_at": "2025-07-25T03:39:49.152-04:00"}, {"id": 10653, "title": "Personal Portfolio Website", "devlogs_count": 3, "created_at": "2025-08-09T10:25:21.298-04:00"}], "coding_time_seconds": 165187, "coding_time_seconds_today": 0, "balance": "You need to have a pocket watcher badge to view this.", "badges": [], "created_at": "2025-07-25T03:19:28.554-04:00", "updated_at": "2025-08-06T14:51:03.782-04:00", "avatar": "https://avatars.slack-edge.com/2025-07-25/9248518529315_6f0a74151dad785891dd_original.jpg", "custom_css": null}, {"id": 19181, "slack_id": "U097E5B6A21", "display_name": "Gargi Bajpai", "bio": null, "projects_count": 0, "devlogs_count": 0, "votes_count": 0, "ships_count": 0, "projects": [], "coding_time_seconds": 0, "coding_time_seconds_today": 0, "balance": "You need to have a pocket watcher badge to view this.", "badges": [], "created_at": "2025-07-25T03:27:40.098-04:00", "updated_at": "2025-07-25T07:05:19.909-04:00", "avatar": "https://secure.gravatar.com/avatar/d09b9dfc608efc0953f0ac52b47705f2.jpg?s=512&d=https%3A%2F%2Fa.slack-edge.com%2Fdf10d%2Fimg%2Favatars%2Fava_0013-512.png", "custom_css": null}, {"id": 19182, "slack_id": "U07KSFPDAVD", "display_name": "Jasmeen Dahak", "bio": null, "projects_count": 0, "devlogs_count": 0, "votes_count": 0, "ships_count": 0, "projects": [], "coding_time_seconds": 189837, "coding_time_seconds_today": 0, "balance": "You need to have a pocket watcher badge to view this.", "badges": [], "created_at": "2025-07-25T03:29:33.878-04:00", "updated_at": "2025-07-25T07:05:20.014-04:00", "avatar": "https://secure.gravatar.com/avatar/585ae59a6cf7ed3e8cef9638f20b7803.jpg?s=512&d=https%3A%2F%2Fa.slack-edge.com%2Fdf10d%2Fimg%2Favatars%2Fava_0020-512.png", "custom_css": null}, {"id": 19183, "slack_id": "U097UNKMRJM", "display_name": "zw_rin", "bio": null, "projects_count": 0, "devlogs_count": 0, "votes_count": 0, "ships_count": 0, "projects": [], "coding_time_seconds": 0, "coding_time_seconds_today": 0, "balance": "You need to have a pocket watcher badge to view this.", "badges": [], "created_at": "2025-07-25T03:32:42.853-04:00", "updated_at": "2025-07-25T07:05:20.113-04:00", "avatar": "https://secure.gravatar.com/avatar/f0f8df6ee52edf480d7e09b52345c4ec.jpg?s=512&d=https%3A%2F%2Fa.slack-edge.com%2Fdf10d%2Fimg%2Favatars%2Fava_0022-512.png", "custom_css": null}, {"id": 19184, "slack_id": "U0983JSBB08", "display_name": "supremeashu", "bio": null, "projects_count": 0, "devlogs_count": 0, "votes_count": 0, "ships_count": 0, "projects": [], "coding_time_seconds": 0, "coding_time_seconds_today": 0, "balance": "You need to have a pocket watcher badge to view this.", "badges": [], "created_at": "2025-07-25T03:40:16.852-04:00", "updated_at": "2025-07-25T07:05:20.207-04:00", "avatar": "https://secure.gravatar.com/avatar/227e444ddab18be952e79c9c0e68bb54.jpg?s=512&d=https%3A%2F%2Fa.slack-edge.com%2Fdf10d%2Fimg%2Favatars%2Fava_0015-512.png", "custom_css": null}, {"id": 19185, "slack_id": "U0983KHSBTJ", "display_name": "Srishti Gupta", "bio": null, "projects_count": 0, "devlogs_count": 0, "votes_count": 0, "ships_count": 0, "projects": [], "coding_time_seconds": 43482, "coding_time_seconds_today": 0, "balance": "You need to have a pocket watcher badge to view this.", "badges": [], "created_at": "2025-07-25T03:42:47.507-04:00", "updated_at": "2025-07-25T07:05:20.304-04:00", "avatar": "https://secure.gravatar.com/avatar/3ad20d1e29113e003a45ebe184318399.jpg?s=512&d=https%3A%2F%2Fa.slack-edge.com%2Fdf10d%2Fimg%2Favatars%2Fava_0022-512.png", "custom_css": null}], "pagination": {"page": 955, "pages": 1192, "count": 23828, "items": 20}}