{"users": [{"id": 19186, "slack_id": "U096ZV7G05V", "display_name": "Priyanshu", "bio": null, "projects_count": 0, "devlogs_count": 0, "votes_count": 0, "ships_count": 0, "projects": [], "coding_time_seconds": 18818, "coding_time_seconds_today": 0, "balance": "You need to have a pocket watcher badge to view this.", "badges": [], "created_at": "2025-07-25T03:46:06.511-04:00", "updated_at": "2025-07-25T07:05:20.407-04:00", "avatar": "https://secure.gravatar.com/avatar/511a396a83f77622ceca72c854ae16ec.jpg?s=512&d=https%3A%2F%2Fa.slack-edge.com%2Fdf10d%2Fimg%2Favatars%2Fava_0014-512.png", "custom_css": null}, {"id": 19187, "slack_id": "U097CN9UFL6", "display_name": "PIYUSH NEGI", "bio": null, "projects_count": 0, "devlogs_count": 0, "votes_count": 0, "ships_count": 0, "projects": [], "coding_time_seconds": 9358, "coding_time_seconds_today": 0, "balance": "You need to have a pocket watcher badge to view this.", "badges": [], "created_at": "2025-07-25T03:53:35.346-04:00", "updated_at": "2025-07-25T07:05:20.509-04:00", "avatar": "https://avatars.slack-edge.com/2025-07-25/9275732561888_9a43539c6a9589c46f02_original.jpg", "custom_css": null}, {"id": 19188, "slack_id": "U0977M3JNPQ", "display_name": "Maria Sunil", "bio": null, "projects_count": 0, "devlogs_count": 0, "votes_count": 0, "ships_count": 0, "projects": [], "coding_time_seconds": 0, "coding_time_seconds_today": 0, "balance": "You need to have a pocket watcher badge to view this.", "badges": [], "created_at": "2025-07-25T04:06:04.327-04:00", "updated_at": "2025-07-25T07:05:20.600-04:00", "avatar": "https://secure.gravatar.com/avatar/a4b486d8fe5e771f9275397ada57809c.jpg?s=512&d=https%3A%2F%2Fa.slack-edge.com%2Fdf10d%2Fimg%2Favatars%2Fava_0009-512.png", "custom_css": null}, {"id": 19189, "slack_id": "U097FTH1L6N", "display_name": "Miree", "bio": null, "projects_count": 0, "devlogs_count": 0, "votes_count": 0, "ships_count": 0, "projects": [], "coding_time_seconds": 0, "coding_time_seconds_today": 0, "balance": "You need to have a pocket watcher badge to view this.", "badges": [], "created_at": "2025-07-25T04:15:43.862-04:00", "updated_at": "2025-07-25T07:05:20.695-04:00", "avatar": "https://avatars.slack-edge.com/2025-07-25/9252457590853_cf5addd57bf1538aa105_original.jpg", "custom_css": null}, {"id": 19190, "slack_id": "U09705XHV3R", "display_name": "vishaan", "bio": null, "projects_count": 3, "devlogs_count": 15, "votes_count": 40, "ships_count": 3, "projects": [{"id": 10822, "title": "Dailyjournal", "devlogs_count": 6, "created_at": "2025-08-11T06:40:58.021-04:00"}, {"id": 8182, "title": "Tetris but better", "devlogs_count": 4, "created_at": "2025-07-25T05:36:43.192-04:00"}, {"id": 9734, "title": "Chrono Flow Calendar", "devlogs_count": 5, "created_at": "2025-08-02T06:13:07.360-04:00"}], "coding_time_seconds": 172320, "coding_time_seconds_today": 480, "balance": "You need to have a pocket watcher badge to view this.", "badges": [], "created_at": "2025-07-25T04:31:40.353-04:00", "updated_at": "2025-08-07T07:21:44.508-04:00", "avatar": "https://secure.gravatar.com/avatar/a2c2927bae41ba8c5495c1e30d8a70b0.jpg?s=512&d=https%3A%2F%2Fa.slack-edge.com%2Fdf10d%2Fimg%2Favatars%2Fava_0005-512.png", "custom_css": null}, {"id": 19191, "slack_id": "U06UWRH3BNJ", "display_name": "Bowie", "bio": null, "projects_count": 0, "devlogs_count": 0, "votes_count": 0, "ships_count": 0, "projects": [], "coding_time_seconds": 0, "coding_time_seconds_today": 0, "balance": "You need to have a pocket watcher badge to view this.", "badges": [], "created_at": "2025-07-25T04:32:07.204-04:00", "updated_at": "2025-07-25T04:32:13.858-04:00", "avatar": "https://avatars.slack-edge.com/2024-04-19/6989478401283_3c8b5d4a9e5ef4d4f11a_original.png", "custom_css": null}, {"id": 19192, "slack_id": "U096ZMR22S3", "display_name": "Saurabh", "bio": null, "projects_count": 0, "devlogs_count": 0, "votes_count": 0, "ships_count": 0, "projects": [], "coding_time_seconds": 0, "coding_time_seconds_today": 0, "balance": "You need to have a pocket watcher badge to view this.", "badges": [], "created_at": "2025-07-25T04:44:28.929-04:00", "updated_at": "2025-08-02T04:41:24.642-04:00", "avatar": "https://secure.gravatar.com/avatar/42124136111d86d73c6fe94269c7810b.jpg?s=512&d=https%3A%2F%2Fa.slack-edge.com%2Fdf10d%2Fimg%2Favatars%2Fava_0012-512.png", "custom_css": null}, {"id": 19193, "slack_id": "U097CVB30TY", "display_name": "pcmpstri", "bio": null, "projects_count": 0, "devlogs_count": 0, "votes_count": 0, "ships_count": 0, "projects": [], "coding_time_seconds": 2537, "coding_time_seconds_today": 0, "balance": "You need to have a pocket watcher badge to view this.", "badges": [], "created_at": "2025-07-25T04:46:23.751-04:00", "updated_at": "2025-07-25T07:05:21.057-04:00", "avatar": "https://secure.gravatar.com/avatar/943d2abe4e6b43259a817b53abe493a5.jpg?s=512&d=https%3A%2F%2Fa.slack-edge.com%2Fdf10d%2Fimg%2Favatars%2Fava_0026-512.png", "custom_css": null}, {"id": 19194, "slack_id": "U0976NFSD4N", "display_name": "Jacinth Mahanta", "bio": null, "projects_count": 0, "devlogs_count": 0, "votes_count": 0, "ships_count": 0, "projects": [], "coding_time_seconds": 4366, "coding_time_seconds_today": 0, "balance": "You need to have a pocket watcher badge to view this.", "badges": [], "created_at": "2025-07-25T05:01:28.791-04:00", "updated_at": "2025-08-07T03:54:40.511-04:00", "avatar": "https://avatars.slack-edge.com/2025-07-25/9276053393648_ec81627ef9fa77dee8be_original.jpg", "custom_css": null}, {"id": 19195, "slack_id": "U097D1VEL3Y", "display_name": "sgducki", "bio": null, "projects_count": 0, "devlogs_count": 0, "votes_count": 0, "ships_count": 0, "projects": [], "coding_time_seconds": 0, "coding_time_seconds_today": 0, "balance": "You need to have a pocket watcher badge to view this.", "badges": [], "created_at": "2025-07-25T05:02:32.642-04:00", "updated_at": "2025-07-25T07:05:21.276-04:00", "avatar": "https://secure.gravatar.com/avatar/2cb8d28ba63b89a60a8c9bcad2d8ce5b.jpg?s=512&d=https%3A%2F%2Fa.slack-edge.com%2Fdf10d%2Fimg%2Favatars%2Fava_0009-512.png", "custom_css": null}, {"id": 19196, "slack_id": "U096ZJN6S77", "display_name": "Aaqib Rashid Mir", "bio": null, "projects_count": 0, "devlogs_count": 0, "votes_count": 0, "ships_count": 0, "projects": [], "coding_time_seconds": 0, "coding_time_seconds_today": 0, "balance": "You need to have a pocket watcher badge to view this.", "badges": [], "created_at": "2025-07-25T05:07:59.344-04:00", "updated_at": "2025-07-25T07:05:21.387-04:00", "avatar": "https://secure.gravatar.com/avatar/690c06cdbfdb5d10579a401e2e28de4c.jpg?s=512&d=https%3A%2F%2Fa.slack-edge.com%2Fdf10d%2Fimg%2Favatars%2Fava_0016-512.png", "custom_css": null}, {"id": 19197, "slack_id": "U096UCT5T2N", "display_name": "Nate Wombwell", "bio": null, "projects_count": 0, "devlogs_count": 0, "votes_count": 0, "ships_count": 0, "projects": [], "coding_time_seconds": 0, "coding_time_seconds_today": 0, "balance": "You need to have a pocket watcher badge to view this.", "badges": [], "created_at": "2025-07-25T05:17:22.019-04:00", "updated_at": "2025-07-25T07:05:21.479-04:00", "avatar": "https://avatars.slack-edge.com/2025-07-25/9267305267377_f48fbe1211ad72615f2f_original.png", "custom_css": null}, {"id": 19198, "slack_id": "U097EMVHBU5", "display_name": "Lola Yael", "bio": null, "projects_count": 0, "devlogs_count": 0, "votes_count": 0, "ships_count": 0, "projects": [], "coding_time_seconds": 3883, "coding_time_seconds_today": 0, "balance": "You need to have a pocket watcher badge to view this.", "badges": [], "created_at": "2025-07-25T05:20:09.691-04:00", "updated_at": "2025-07-26T15:45:29.714-04:00", "avatar": "https://secure.gravatar.com/avatar/fd1366c16dd9f9cc76948617138934c9.jpg?s=512&d=https%3A%2F%2Fa.slack-edge.com%2Fdf10d%2Fimg%2Favatars%2Fava_0007-512.png", "custom_css": null}, {"id": 19199, "slack_id": "U0970CXM687", "display_name": "Triggered Legend", "bio": null, "projects_count": 2, "devlogs_count": 2, "votes_count": 1, "ships_count": 1, "projects": [{"id": 8183, "title": "PteroCore", "devlogs_count": 1, "created_at": "2025-07-25T05:53:41.185-04:00"}, {"id": 8185, "title": "DevCurio", "devlogs_count": 1, "created_at": "2025-07-25T06:01:47.844-04:00"}], "coding_time_seconds": 15789, "coding_time_seconds_today": 0, "balance": "You need to have a pocket watcher badge to view this.", "badges": [], "created_at": "2025-07-25T05:24:05.061-04:00", "updated_at": "2025-08-08T09:55:51.668-04:00", "avatar": "https://secure.gravatar.com/avatar/f94393e8dfb86393efa72b707216037c.jpg?s=512&d=https%3A%2F%2Fa.slack-edge.com%2Fdf10d%2Fimg%2Favatars%2Fava_0000-512.png", "custom_css": null}, {"id": 19200, "slack_id": "U096ZM52HPX", "display_name": "Sonu", "bio": null, "projects_count": 0, "devlogs_count": 0, "votes_count": 0, "ships_count": 0, "projects": [], "coding_time_seconds": 0, "coding_time_seconds_today": 0, "balance": "You need to have a pocket watcher badge to view this.", "badges": [], "created_at": "2025-07-25T05:27:41.528-04:00", "updated_at": "2025-07-25T07:05:21.762-04:00", "avatar": "https://secure.gravatar.com/avatar/63fcacbecaa85a628385ab76d5e2ba5b.jpg?s=512&d=https%3A%2F%2Fa.slack-edge.com%2Fdf10d%2Fimg%2Favatars%2Fava_0007-512.png", "custom_css": null}, {"id": 19201, "slack_id": "U097G8TUV0S", "display_name": "MUHAMMED SANEEN M", "bio": null, "projects_count": 0, "devlogs_count": 0, "votes_count": 0, "ships_count": 0, "projects": [], "coding_time_seconds": 0, "coding_time_seconds_today": 0, "balance": "You need to have a pocket watcher badge to view this.", "badges": [], "created_at": "2025-07-25T05:28:53.477-04:00", "updated_at": "2025-07-25T07:05:21.850-04:00", "avatar": "https://avatars.slack-edge.com/2025-07-25/9251208331430_56ec919aa395a1a3bbd6_original.png", "custom_css": null}, {"id": 19202, "slack_id": "U097GURDRTN", "display_name": "Surafel Ferede", "bio": null, "projects_count": 0, "devlogs_count": 4, "votes_count": 0, "ships_count": 0, "projects": [], "coding_time_seconds": 126387, "coding_time_seconds_today": 0, "balance": "You need to have a pocket watcher badge to view this.", "badges": [], "created_at": "2025-07-25T05:36:36.464-04:00", "updated_at": "2025-08-13T08:08:40.282-04:00", "avatar": "https://avatars.slack-edge.com/2025-07-25/9238511854327_63440fe8276ea491fb97_original.png", "custom_css": null}, {"id": 19203, "slack_id": "U096Z69R1DM", "display_name": "ZinLin Chen", "bio": null, "projects_count": 0, "devlogs_count": 0, "votes_count": 0, "ships_count": 0, "projects": [], "coding_time_seconds": 0, "coding_time_seconds_today": 0, "balance": "You need to have a pocket watcher badge to view this.", "badges": [], "created_at": "2025-07-25T05:39:47.307-04:00", "updated_at": "2025-07-25T07:05:22.034-04:00", "avatar": "https://secure.gravatar.com/avatar/cc5080c73c67afe2a190a38cda2a1a4b.jpg?s=512&d=https%3A%2F%2Fa.slack-edge.com%2Fdf10d%2Fimg%2Favatars%2Fava_0018-512.png", "custom_css": null}, {"id": 19204, "slack_id": "U097GU4204U", "display_name": "Akshat Sharma", "bio": null, "projects_count": 0, "devlogs_count": 0, "votes_count": 0, "ships_count": 0, "projects": [], "coding_time_seconds": 0, "coding_time_seconds_today": 0, "balance": "You need to have a pocket watcher badge to view this.", "badges": [], "created_at": "2025-07-25T05:41:09.797-04:00", "updated_at": "2025-07-25T07:05:22.125-04:00", "avatar": "https://secure.gravatar.com/avatar/a3d0f0a7964ddcc5683404caf7bca326.jpg?s=512&d=https%3A%2F%2Fa.slack-edge.com%2Fdf10d%2Fimg%2Favatars%2Fava_0016-512.png", "custom_css": null}, {"id": 19205, "slack_id": "U097DA9TRRC", "display_name": "Aman Sanoj", "bio": null, "projects_count": 1, "devlogs_count": 0, "votes_count": 0, "ships_count": 0, "projects": [{"id": 8463, "title": "Influencer Island Tycoon", "devlogs_count": 0, "created_at": "2025-07-27T10:57:29.081-04:00"}], "coding_time_seconds": 11269, "coding_time_seconds_today": 0, "balance": "You need to have a pocket watcher badge to view this.", "badges": [], "created_at": "2025-07-25T06:10:11.582-04:00", "updated_at": "2025-08-18T04:09:27.889-04:00", "avatar": "https://secure.gravatar.com/avatar/62038e755b2b2e54b3170720ea218ea6.jpg?s=512&d=https%3A%2F%2Fa.slack-edge.com%2Fdf10d%2Fimg%2Favatars%2Fava_0023-512.png", "custom_css": null}], "pagination": {"page": 956, "pages": 1192, "count": 23828, "items": 20}}