{"users": [{"id": 19206, "slack_id": "U0984AB4C56", "display_name": "Jules", "bio": null, "projects_count": 0, "devlogs_count": 0, "votes_count": 0, "ships_count": 0, "projects": [], "coding_time_seconds": 0, "coding_time_seconds_today": 0, "balance": "You need to have a pocket watcher badge to view this.", "badges": [], "created_at": "2025-07-25T06:11:24.231-04:00", "updated_at": "2025-07-25T07:05:22.305-04:00", "avatar": "https://secure.gravatar.com/avatar/fe648915f670a46132e4c0aa5f0adc15.jpg?s=512&d=https%3A%2F%2Fa.slack-edge.com%2Fdf10d%2Fimg%2Favatars%2Fava_0000-512.png", "custom_css": null}, {"id": 19207, "slack_id": "U097DCDTG2J", "display_name": "Jaydatta", "bio": null, "projects_count": 0, "devlogs_count": 0, "votes_count": 0, "ships_count": 0, "projects": [], "coding_time_seconds": 0, "coding_time_seconds_today": 0, "balance": "You need to have a pocket watcher badge to view this.", "badges": [], "created_at": "2025-07-25T06:24:35.415-04:00", "updated_at": "2025-07-25T07:05:22.434-04:00", "avatar": "https://secure.gravatar.com/avatar/fa4b4cd22e32cc9fb4af51c1342a987c.jpg?s=512&d=https%3A%2F%2Fa.slack-edge.com%2Fdf10d%2Fimg%2Favatars%2Fava_0021-512.png", "custom_css": null}, {"id": 19208, "slack_id": "U097F2LQ8CV", "display_name": "ryukgod26", "bio": null, "projects_count": 10, "devlogs_count": 56, "votes_count": 159, "ships_count": 7, "projects": [{"id": 8229, "title": "Dsa practice ", "devlogs_count": 1, "created_at": "2025-07-25T12:01:46.579-04:00"}, {"id": 11773, "title": "VR Exploration", "devlogs_count": 3, "created_at": "2025-08-19T11:44:33.764-04:00"}, {"id": 12025, "title": "Galactic Practice VR", "devlogs_count": 3, "created_at": "2025-08-22T08:54:47.341-04:00"}, {"id": 11283, "title": "Database in c from scratch ", "devlogs_count": 17, "created_at": "2025-08-14T15:05:37.165-04:00"}, {"id": 11227, "title": "Eco Adventure VR", "devlogs_count": 3, "created_at": "2025-08-14T06:30:07.477-04:00"}, {"id": 13701, "title": "Godot Wakatime for mobile", "devlogs_count": 1, "created_at": "2025-09-23T07:36:20.339-04:00"}, {"id": 13031, "title": "Aura Arena", "devlogs_count": 12, "created_at": "2025-09-07T08:58:40.523-04:00"}, {"id": 13729, "title": "Face Powered Accessibility ", "devlogs_count": 2, "created_at": "2025-09-23T22:58:14.411-04:00"}, {"id": 9685, "title": " Echo And Ivory OdooXCGC ", "devlogs_count": 4, "created_at": "2025-08-02T02:48:59.276-04:00"}, {"id": 10827, "title": "GameSync", "devlogs_count": 4, "created_at": "2025-08-11T07:20:28.713-04:00"}], "coding_time_seconds": 581771, "coding_time_seconds_today": 2740, "balance": "You need to have a pocket watcher badge to view this.", "badges": [], "created_at": "2025-07-25T06:39:12.809-04:00", "updated_at": "2025-09-04T21:41:11.867-04:00", "avatar": "https://avatars.slack-edge.com/2025-09-04/9459166523461_0bd53bd40fbfdcd5a184_original.jpg", "custom_css": null}, {"id": 19209, "slack_id": "U09805PPLLQ", "display_name": "Divyansh Singh Sendhav", "bio": null, "projects_count": 0, "devlogs_count": 0, "votes_count": 0, "ships_count": 0, "projects": [], "coding_time_seconds": 15879, "coding_time_seconds_today": 0, "balance": "You need to have a pocket watcher badge to view this.", "badges": [], "created_at": "2025-07-25T06:47:43.565-04:00", "updated_at": "2025-07-26T00:55:58.177-04:00", "avatar": "https://secure.gravatar.com/avatar/1a7ff61c83c82abd2b73c00a19d247bc.jpg?s=512&d=https%3A%2F%2Fa.slack-edge.com%2Fdf10d%2Fimg%2Favatars%2Fava_0021-512.png", "custom_css": null}, {"id": 19210, "slack_id": "U097H801LLU", "display_name": "Punktum", "bio": null, "projects_count": 0, "devlogs_count": 0, "votes_count": 0, "ships_count": 0, "projects": [], "coding_time_seconds": 0, "coding_time_seconds_today": 0, "balance": "You need to have a pocket watcher badge to view this.", "badges": [], "created_at": "2025-07-25T06:52:19.161-04:00", "updated_at": "2025-07-26T00:56:02.321-04:00", "avatar": "https://secure.gravatar.com/avatar/de3a2a780005d26c4f34f8f6e7884083.jpg?s=512&d=https%3A%2F%2Fa.slack-edge.com%2Fdf10d%2Fimg%2Favatars%2Fava_0006-512.png", "custom_css": null}, {"id": 19211, "slack_id": "U0984FG29CY", "display_name": "niyonkuru fiston", "bio": null, "projects_count": 0, "devlogs_count": 0, "votes_count": 0, "ships_count": 0, "projects": [], "coding_time_seconds": 0, "coding_time_seconds_today": 0, "balance": "You need to have a pocket watcher badge to view this.", "badges": [], "created_at": "2025-07-25T06:59:29.108-04:00", "updated_at": "2025-07-26T00:56:02.401-04:00", "avatar": "https://secure.gravatar.com/avatar/6e29cbda5a5df673f1ae25c823724bbb.jpg?s=512&d=https%3A%2F%2Fa.slack-edge.com%2Fdf10d%2Fimg%2Favatars%2Fava_0004-512.png", "custom_css": null}, {"id": 19212, "slack_id": "U097H8VRBRA", "display_name": "SillyGoose123", "bio": null, "projects_count": 0, "devlogs_count": 0, "votes_count": 0, "ships_count": 0, "projects": [], "coding_time_seconds": 0, "coding_time_seconds_today": 0, "balance": "You need to have a pocket watcher badge to view this.", "badges": [], "created_at": "2025-07-25T07:00:21.153-04:00", "updated_at": "2025-07-26T00:56:02.502-04:00", "avatar": "https://secure.gravatar.com/avatar/4cfd1d7ea8fded1bd159ab77a2cca799.jpg?s=512&d=https%3A%2F%2Fa.slack-edge.com%2Fdf10d%2Fimg%2Favatars%2Fava_0020-512.png", "custom_css": null}, {"id": 19213, "slack_id": "U097GNNTD9Q", "display_name": "AdamsGeeky", "bio": null, "projects_count": 0, "devlogs_count": 0, "votes_count": 0, "ships_count": 0, "projects": [], "coding_time_seconds": 3197, "coding_time_seconds_today": 0, "balance": "You need to have a pocket watcher badge to view this.", "badges": [], "created_at": "2025-07-25T07:25:57.228-04:00", "updated_at": "2025-07-26T00:56:02.605-04:00", "avatar": "https://secure.gravatar.com/avatar/2344b13ebae3fc1ce2757094b73dc947.jpg?s=512&d=https%3A%2F%2Fa.slack-edge.com%2Fdf10d%2Fimg%2Favatars%2Fava_0019-512.png", "custom_css": null}, {"id": 19214, "slack_id": "U097VSTQZEV", "display_name": "student", "bio": null, "projects_count": 0, "devlogs_count": 0, "votes_count": 0, "ships_count": 0, "projects": [], "coding_time_seconds": 0, "coding_time_seconds_today": 0, "balance": "You need to have a pocket watcher badge to view this.", "badges": [], "created_at": "2025-07-25T07:44:12.122-04:00", "updated_at": "2025-07-26T00:56:02.711-04:00", "avatar": "https://secure.gravatar.com/avatar/9bfbb901ef46e35ff48527b4246118fd.jpg?s=512&d=https%3A%2F%2Fa.slack-edge.com%2Fdf10d%2Fimg%2Favatars%2Fava_0004-512.png", "custom_css": null}, {"id": 19215, "slack_id": "U09710RCTQX", "display_name": "hamza", "bio": null, "projects_count": 0, "devlogs_count": 0, "votes_count": 0, "ships_count": 0, "projects": [], "coding_time_seconds": 0, "coding_time_seconds_today": 0, "balance": "You need to have a pocket watcher badge to view this.", "badges": [], "created_at": "2025-07-25T07:56:04.089-04:00", "updated_at": "2025-07-26T00:56:02.830-04:00", "avatar": "https://secure.gravatar.com/avatar/2da96d2db3dd8bc920befaa2f3bb3071.jpg?s=512&d=https%3A%2F%2Fa.slack-edge.com%2Fdf10d%2Fimg%2Favatars%2Fava_0013-512.png", "custom_css": null}, {"id": 19216, "slack_id": "U097DN1RH1U", "display_name": "natan", "bio": null, "projects_count": 0, "devlogs_count": 0, "votes_count": 0, "ships_count": 0, "projects": [], "coding_time_seconds": 0, "coding_time_seconds_today": 0, "balance": "You need to have a pocket watcher badge to view this.", "badges": [], "created_at": "2025-07-25T07:58:22.894-04:00", "updated_at": "2025-07-26T00:56:02.952-04:00", "avatar": "https://secure.gravatar.com/avatar/5aeb5dac6ebede9ceeba2c807a399aa4.jpg?s=512&d=https%3A%2F%2Fa.slack-edge.com%2Fdf10d%2Fimg%2Favatars%2Fava_0011-512.png", "custom_css": null}, {"id": 19217, "slack_id": "U096EKW77NK", "display_name": "Siddappa Kurabar", "bio": null, "projects_count": 0, "devlogs_count": 0, "votes_count": 0, "ships_count": 0, "projects": [], "coding_time_seconds": 0, "coding_time_seconds_today": 0, "balance": "You need to have a pocket watcher badge to view this.", "badges": [], "created_at": "2025-07-25T08:05:22.725-04:00", "updated_at": "2025-07-26T00:56:07.085-04:00", "avatar": "https://secure.gravatar.com/avatar/44f8e5460e1bf594cf4f08a4607a85b5.jpg?s=512&d=https%3A%2F%2Fa.slack-edge.com%2Fdf10d%2Fimg%2Favatars%2Fava_0013-512.png", "custom_css": null}, {"id": 19218, "slack_id": "U0984NH4M88", "display_name": "Pratham", "bio": null, "projects_count": 0, "devlogs_count": 0, "votes_count": 0, "ships_count": 0, "projects": [], "coding_time_seconds": 20949, "coding_time_seconds_today": 0, "balance": "You need to have a pocket watcher badge to view this.", "badges": [], "created_at": "2025-07-25T08:09:07.671-04:00", "updated_at": "2025-07-26T10:43:06.253-04:00", "avatar": "https://avatars.slack-edge.com/2025-07-25/9268081015489_a73e33561302f4f528b7_original.jpg", "custom_css": null}, {"id": 19219, "slack_id": "U097W285RAM", "display_name": "Rohan Ganguly", "bio": null, "projects_count": 0, "devlogs_count": 0, "votes_count": 0, "ships_count": 0, "projects": [], "coding_time_seconds": 0, "coding_time_seconds_today": 0, "balance": "You need to have a pocket watcher badge to view this.", "badges": [], "created_at": "2025-07-25T08:14:47.946-04:00", "updated_at": "2025-07-26T00:56:07.247-04:00", "avatar": "https://avatars.slack-edge.com/2025-07-25/9255004732322_3bffbd8446c683937e5e_original.jpg", "custom_css": null}, {"id": 19220, "slack_id": "U097DQWPFQW", "display_name": "saif", "bio": null, "projects_count": 0, "devlogs_count": 0, "votes_count": 0, "ships_count": 0, "projects": [], "coding_time_seconds": 0, "coding_time_seconds_today": 0, "balance": "You need to have a pocket watcher badge to view this.", "badges": [], "created_at": "2025-07-25T08:19:17.151-04:00", "updated_at": "2025-07-26T00:56:07.328-04:00", "avatar": "https://secure.gravatar.com/avatar/6cd87e267f711be483e8b626d4e5c371.jpg?s=512&d=https%3A%2F%2Fa.slack-edge.com%2Fdf10d%2Fimg%2Favatars%2Fava_0023-512.png", "custom_css": null}, {"id": 19221, "slack_id": "U097FFDGP29", "display_name": "Sam Abdul", "bio": null, "projects_count": 0, "devlogs_count": 0, "votes_count": 0, "ships_count": 0, "projects": [], "coding_time_seconds": 0, "coding_time_seconds_today": 0, "balance": "You need to have a pocket watcher badge to view this.", "badges": [], "created_at": "2025-07-25T08:26:42.358-04:00", "updated_at": "2025-07-26T00:56:07.400-04:00", "avatar": "https://secure.gravatar.com/avatar/ef9b5760a1a329a3adf69b60d9ae2efa.jpg?s=512&d=https%3A%2F%2Fa.slack-edge.com%2Fdf10d%2Fimg%2Favatars%2Fava_0023-512.png", "custom_css": null}, {"id": 19222, "slack_id": "U097DRS8YLE", "display_name": "Mahim", "bio": null, "projects_count": 0, "devlogs_count": 0, "votes_count": 0, "ships_count": 0, "projects": [], "coding_time_seconds": 0, "coding_time_seconds_today": 0, "balance": "You need to have a pocket watcher badge to view this.", "badges": [], "created_at": "2025-07-25T08:27:57.544-04:00", "updated_at": "2025-07-26T00:56:07.478-04:00", "avatar": "https://secure.gravatar.com/avatar/3fcbe148f3aa16d864e3e45e4e1b86b3.jpg?s=512&d=https%3A%2F%2Fa.slack-edge.com%2Fdf10d%2Fimg%2Favatars%2Fava_0026-512.png", "custom_css": null}, {"id": 19223, "slack_id": "U097DSKRL22", "display_name": "Dawid", "bio": null, "projects_count": 0, "devlogs_count": 0, "votes_count": 0, "ships_count": 0, "projects": [], "coding_time_seconds": 0, "coding_time_seconds_today": 0, "balance": "You need to have a pocket watcher badge to view this.", "badges": [], "created_at": "2025-07-25T08:33:03.392-04:00", "updated_at": "2025-07-26T00:56:07.586-04:00", "avatar": "https://secure.gravatar.com/avatar/4b7ad738bdedb905ca43e20fe65a21c0.jpg?s=512&d=https%3A%2F%2Fa.slack-edge.com%2Fdf10d%2Fimg%2Favatars%2Fava_0022-512.png", "custom_css": null}, {"id": 19224, "slack_id": "U097FGU4GRK", "display_name": "Puja Kumari", "bio": null, "projects_count": 0, "devlogs_count": 0, "votes_count": 0, "ships_count": 0, "projects": [], "coding_time_seconds": 0, "coding_time_seconds_today": 0, "balance": "You need to have a pocket watcher badge to view this.", "badges": [], "created_at": "2025-07-25T08:36:46.067-04:00", "updated_at": "2025-07-26T00:56:07.670-04:00", "avatar": "https://secure.gravatar.com/avatar/6fc42626412f6b5c708f059ac293a08f.jpg?s=512&d=https%3A%2F%2Fa.slack-edge.com%2Fdf10d%2Fimg%2Favatars%2Fava_0022-512.png", "custom_css": null}, {"id": 19225, "slack_id": "U097BMEDUJX", "display_name": "Hishaam Abdul Razik", "bio": null, "projects_count": 0, "devlogs_count": 0, "votes_count": 0, "ships_count": 0, "projects": [], "coding_time_seconds": 0, "coding_time_seconds_today": 0, "balance": "You need to have a pocket watcher badge to view this.", "badges": [], "created_at": "2025-07-25T08:39:12.765-04:00", "updated_at": "2025-07-26T19:11:50.567-04:00", "avatar": "https://secure.gravatar.com/avatar/cd0d2cb3cb841cc05e7ac9a79f666e18.jpg?s=512&d=https%3A%2F%2Fa.slack-edge.com%2Fdf10d%2Fimg%2Favatars%2Fava_0006-512.png", "custom_css": null}], "pagination": {"page": 957, "pages": 1192, "count": 23828, "items": 20}}