{"users": [{"id": 19226, "slack_id": "U097GMHNZ8A", "display_name": "Gakul", "bio": null, "projects_count": 0, "devlogs_count": 0, "votes_count": 0, "ships_count": 0, "projects": [], "coding_time_seconds": 0, "coding_time_seconds_today": 0, "balance": "You need to have a pocket watcher badge to view this.", "badges": [], "created_at": "2025-07-25T08:41:41.640-04:00", "updated_at": "2025-07-26T00:56:07.863-04:00", "avatar": "https://secure.gravatar.com/avatar/9c909f6b5047c68206355bd00fe7db38.jpg?s=512&d=https%3A%2F%2Fa.slack-edge.com%2Fdf10d%2Fimg%2Favatars%2Fava_0010-512.png", "custom_css": null}, {"id": 19227, "slack_id": "U097W7ENHSM", "display_name": "Dawcio232", "bio": null, "projects_count": 2, "devlogs_count": 3, "votes_count": 6, "ships_count": 2, "projects": [{"id": 8214, "title": "Game about a kity", "devlogs_count": 2, "created_at": "2025-07-25T09:53:25.837-04:00"}, {"id": 8222, "title": "Starfish Project", "devlogs_count": 1, "created_at": "2025-07-25T10:52:39.256-04:00"}], "coding_time_seconds": 2613, "coding_time_seconds_today": 0, "balance": "You need to have a pocket watcher badge to view this.", "badges": [], "created_at": "2025-07-25T08:51:27.724-04:00", "updated_at": "2025-08-07T14:20:24.083-04:00", "avatar": "https://secure.gravatar.com/avatar/b521dd2b48559649b8e01b358885106e.jpg?s=512&d=https%3A%2F%2Fa.slack-edge.com%2Fdf10d%2Fimg%2Favatars%2Fava_0023-512.png", "custom_css": null}, {"id": 19228, "slack_id": "U0984V3S9DE", "display_name": "jason martin", "bio": null, "projects_count": 0, "devlogs_count": 0, "votes_count": 0, "ships_count": 0, "projects": [], "coding_time_seconds": 0, "coding_time_seconds_today": 0, "balance": "You need to have a pocket watcher badge to view this.", "badges": [], "created_at": "2025-07-25T08:51:55.037-04:00", "updated_at": "2025-07-26T00:56:08.047-04:00", "avatar": "https://secure.gravatar.com/avatar/e88fd6eed6959971f5d940ac3a42b76b.jpg?s=512&d=https%3A%2F%2Fa.slack-edge.com%2Fdf10d%2Fimg%2Favatars%2Fava_0026-512.png", "custom_css": null}, {"id": 19229, "slack_id": "U097FMBGZJR", "display_name": "Rushi", "bio": null, "projects_count": 0, "devlogs_count": 0, "votes_count": 0, "ships_count": 0, "projects": [], "coding_time_seconds": 0, "coding_time_seconds_today": 0, "balance": "You need to have a pocket watcher badge to view this.", "badges": [], "created_at": "2025-07-25T09:08:01.446-04:00", "updated_at": "2025-07-26T00:56:08.153-04:00", "avatar": "https://secure.gravatar.com/avatar/7cf45812b8f8245fc074fda38f73c273.jpg?s=512&d=https%3A%2F%2Fa.slack-edge.com%2Fdf10d%2Fimg%2Favatars%2Fava_0026-512.png", "custom_css": null}, {"id": 19230, "slack_id": "U097FMLQ0A1", "display_name": "leao09", "bio": null, "projects_count": 0, "devlogs_count": 0, "votes_count": 0, "ships_count": 0, "projects": [], "coding_time_seconds": 0, "coding_time_seconds_today": 0, "balance": "You need to have a pocket watcher badge to view this.", "badges": [], "created_at": "2025-07-25T09:09:54.920-04:00", "updated_at": "2025-07-26T14:19:25.793-04:00", "avatar": "https://secure.gravatar.com/avatar/a11ed3718011c3bff8d7a5d71c5ea1a6.jpg?s=512&d=https%3A%2F%2Fa.slack-edge.com%2Fdf10d%2Fimg%2Favatars%2Fava_0023-512.png", "custom_css": null}, {"id": 19231, "slack_id": "U0971B8BLUF", "display_name": "Jb Carreon", "bio": null, "projects_count": 1, "devlogs_count": 2, "votes_count": 0, "ships_count": 0, "projects": [{"id": 8334, "title": "Nekomment", "devlogs_count": 2, "created_at": "2025-07-26T09:54:14.865-04:00"}], "coding_time_seconds": 576892, "coding_time_seconds_today": 12320, "balance": "You need to have a pocket watcher badge to view this.", "badges": [], "created_at": "2025-07-25T09:17:14.059-04:00", "updated_at": "2025-07-27T04:55:07.954-04:00", "avatar": "https://avatars.slack-edge.com/2025-07-27/9261283440964_fa76a5bf0e410b3c5859_original.png", "custom_css": null}, {"id": 19232, "slack_id": "U097H9DB6G2", "display_name": "Vyas Giri", "bio": null, "projects_count": 0, "devlogs_count": 0, "votes_count": 0, "ships_count": 0, "projects": [], "coding_time_seconds": 0, "coding_time_seconds_today": 0, "balance": "You need to have a pocket watcher badge to view this.", "badges": [], "created_at": "2025-07-25T09:23:23.939-04:00", "updated_at": "2025-07-26T00:56:08.494-04:00", "avatar": "https://avatars.slack-edge.com/2025-07-25/9277172027376_cce260b9eb7eaf8fb13c_original.jpg", "custom_css": null}, {"id": 19233, "slack_id": "U097HRVFDPW", "display_name": "Rooben T John", "bio": null, "projects_count": 0, "devlogs_count": 0, "votes_count": 0, "ships_count": 0, "projects": [], "coding_time_seconds": 0, "coding_time_seconds_today": 0, "balance": "You need to have a pocket watcher badge to view this.", "badges": [], "created_at": "2025-07-25T09:23:37.507-04:00", "updated_at": "2025-07-26T00:56:08.578-04:00", "avatar": "https://secure.gravatar.com/avatar/512894581eba8cf95ce17fc9ed610a20.jpg?s=512&d=https%3A%2F%2Fa.slack-edge.com%2Fdf10d%2Fimg%2Favatars%2Fava_0012-512.png", "custom_css": null}, {"id": 19234, "slack_id": "U097E5H2ZV4", "display_name": "HardikRunwal", "bio": null, "projects_count": 1, "devlogs_count": 2, "votes_count": 1, "ships_count": 0, "projects": [{"id": 8213, "title": "Data Science And Algorithms", "devlogs_count": 2, "created_at": "2025-07-25T09:46:12.784-04:00"}], "coding_time_seconds": 11541, "coding_time_seconds_today": 0, "balance": "You need to have a pocket watcher badge to view this.", "badges": [], "created_at": "2025-07-25T09:32:32.773-04:00", "updated_at": "2025-08-12T10:24:10.234-04:00", "avatar": "https://secure.gravatar.com/avatar/d2721f2af3f296165c29d6583550c7d1.jpg?s=512&d=https%3A%2F%2Fa.slack-edge.com%2Fdf10d%2Fimg%2Favatars%2Fava_0011-512.png", "custom_css": null}, {"id": 19235, "slack_id": "U097C0XNY1H", "display_name": "Rohit Chauhan", "bio": null, "projects_count": 0, "devlogs_count": 0, "votes_count": 0, "ships_count": 0, "projects": [], "coding_time_seconds": 13538, "coding_time_seconds_today": 0, "balance": "You need to have a pocket watcher badge to view this.", "badges": [], "created_at": "2025-07-25T09:35:57.856-04:00", "updated_at": "2025-07-26T00:56:08.768-04:00", "avatar": "https://secure.gravatar.com/avatar/41cb44f8769d70c0180658974304a151.jpg?s=512&d=https%3A%2F%2Fa.slack-edge.com%2Fdf10d%2Fimg%2Favatars%2Fava_0021-512.png", "custom_css": null}, {"id": 19236, "slack_id": "U097HCD5Y2W", "display_name": "Zalan Kovacs", "bio": null, "projects_count": 0, "devlogs_count": 0, "votes_count": 0, "ships_count": 0, "projects": [], "coding_time_seconds": 0, "coding_time_seconds_today": 0, "balance": "You need to have a pocket watcher badge to view this.", "badges": [], "created_at": "2025-07-25T09:40:15.746-04:00", "updated_at": "2025-07-26T00:56:08.881-04:00", "avatar": "https://secure.gravatar.com/avatar/2c20af24e8343e7b627e201b95342711.jpg?s=512&d=https%3A%2F%2Fa.slack-edge.com%2Fdf10d%2Fimg%2Favatars%2Fava_0003-512.png", "custom_css": null}, {"id": 19237, "slack_id": "U078GA8807M", "display_name": "filip", "bio": null, "projects_count": 0, "devlogs_count": 0, "votes_count": 0, "ships_count": 0, "projects": [], "coding_time_seconds": 0, "coding_time_seconds_today": 0, "balance": "You need to have a pocket watcher badge to view this.", "badges": [], "created_at": "2025-07-25T09:46:25.884-04:00", "updated_at": "2025-07-26T00:56:08.993-04:00", "avatar": "https://secure.gravatar.com/avatar/8f02a0ef39b5d80911ef17c1e25e0a12.jpg?s=512&d=https%3A%2F%2Fa.slack-edge.com%2Fdf10d%2Fimg%2Favatars%2Fava_0018-512.png", "custom_css": null}, {"id": 19238, "slack_id": "U097HDFG68J", "display_name": "Ayushman Mohapatra", "bio": null, "projects_count": 3, "devlogs_count": 3, "votes_count": 15, "ships_count": 2, "projects": [{"id": 8275, "title": "Snake game", "devlogs_count": 2, "created_at": "2025-07-25T23:26:46.660-04:00"}, {"id": 8217, "title": "pdfExtractor", "devlogs_count": 0, "created_at": "2025-07-25T10:12:48.884-04:00"}, {"id": 8590, "title": "CPP ML Kit", "devlogs_count": 1, "created_at": "2025-07-28T11:05:07.016-04:00"}], "coding_time_seconds": 15449, "coding_time_seconds_today": 0, "balance": "You need to have a pocket watcher badge to view this.", "badges": [], "created_at": "2025-07-25T09:48:40.219-04:00", "updated_at": "2025-08-08T05:27:27.976-04:00", "avatar": "https://secure.gravatar.com/avatar/32d1c764da62d9aacc528796c4d9fd3a.jpg?s=512&d=https%3A%2F%2Fa.slack-edge.com%2Fdf10d%2Fimg%2Favatars%2Fava_0003-512.png", "custom_css": null}, {"id": 19239, "slack_id": "U097DVCMFUM", "display_name": "B Mounika", "bio": null, "projects_count": 0, "devlogs_count": 0, "votes_count": 0, "ships_count": 0, "projects": [], "coding_time_seconds": 6393, "coding_time_seconds_today": 0, "balance": "You need to have a pocket watcher badge to view this.", "badges": [], "created_at": "2025-07-25T09:52:37.542-04:00", "updated_at": "2025-07-26T00:56:13.210-04:00", "avatar": "https://secure.gravatar.com/avatar/a9ceca0cf76e9b43be7f5da39ed8382c.jpg?s=512&d=https%3A%2F%2Fa.slack-edge.com%2Fdf10d%2Fimg%2Favatars%2Fava_0001-512.png", "custom_css": null}, {"id": 19240, "slack_id": "U097C3HKL5R", "display_name": "Erick Mendes", "bio": "", "projects_count": 0, "devlogs_count": 0, "votes_count": 0, "ships_count": 0, "projects": [], "coding_time_seconds": 0, "coding_time_seconds_today": 0, "balance": "You need to have a pocket watcher badge to view this.", "badges": [], "created_at": "2025-07-25T09:52:59.693-04:00", "updated_at": "2025-07-26T00:56:13.295-04:00", "avatar": "https://secure.gravatar.com/avatar/a17f948136621176e6dd04e93f78f092.jpg?s=512&d=https%3A%2F%2Fa.slack-edge.com%2Fdf10d%2Fimg%2Favatars%2Fava_0024-512.png", "custom_css": null}, {"id": 19241, "slack_id": "U097HDU0QAE", "display_name": "kaiyao duan", "bio": null, "projects_count": 0, "devlogs_count": 0, "votes_count": 0, "ships_count": 0, "projects": [], "coding_time_seconds": 0, "coding_time_seconds_today": 0, "balance": "You need to have a pocket watcher badge to view this.", "badges": [], "created_at": "2025-07-25T09:54:03.275-04:00", "updated_at": "2025-07-26T00:56:13.377-04:00", "avatar": "https://secure.gravatar.com/avatar/74e120dd6b32ece3f9ac8469947e7026.jpg?s=512&d=https%3A%2F%2Fa.slack-edge.com%2Fdf10d%2Fimg%2Favatars%2Fava_0000-512.png", "custom_css": null}, {"id": 19242, "slack_id": "U097J288XNG", "display_name": "Nandesh", "bio": null, "projects_count": 0, "devlogs_count": 0, "votes_count": 0, "ships_count": 0, "projects": [], "coding_time_seconds": 3, "coding_time_seconds_today": 0, "balance": "You need to have a pocket watcher badge to view this.", "badges": [], "created_at": "2025-07-25T09:59:12.278-04:00", "updated_at": "2025-07-26T00:56:13.460-04:00", "avatar": "https://secure.gravatar.com/avatar/1f4f96838a2d2122dfedee447526ba6d.jpg?s=512&d=https%3A%2F%2Fa.slack-edge.com%2Fdf10d%2Fimg%2Favatars%2Fava_0014-512.png", "custom_css": null}, {"id": 19243, "slack_id": "U097J390EJY", "display_name": "Sasmitha Ashinsana", "bio": null, "projects_count": 0, "devlogs_count": 0, "votes_count": 0, "ships_count": 0, "projects": [], "coding_time_seconds": 0, "coding_time_seconds_today": 0, "balance": "You need to have a pocket watcher badge to view this.", "badges": [], "created_at": "2025-07-25T10:03:06.659-04:00", "updated_at": "2025-07-26T00:56:13.555-04:00", "avatar": "https://secure.gravatar.com/avatar/f4fdcfc02796b0de7c80dd7e85bdfff2.jpg?s=512&d=https%3A%2F%2Fa.slack-edge.com%2Fdf10d%2Fimg%2Favatars%2Fava_0010-512.png", "custom_css": null}, {"id": 19244, "slack_id": "U097G2KTMGD", "display_name": "Aashish K", "bio": null, "projects_count": 1, "devlogs_count": 2, "votes_count": 1, "ships_count": 0, "projects": [{"id": 11490, "title": "Weather Report", "devlogs_count": 2, "created_at": "2025-08-16T09:53:14.944-04:00"}], "coding_time_seconds": 152677, "coding_time_seconds_today": 0, "balance": "You need to have a pocket watcher badge to view this.", "badges": [], "created_at": "2025-07-25T10:09:47.126-04:00", "updated_at": "2025-08-16T11:56:58.243-04:00", "avatar": "https://secure.gravatar.com/avatar/ace6987fa3170f3e005b93a6541e32de.jpg?s=512&d=https%3A%2F%2Fa.slack-edge.com%2Fdf10d%2Fimg%2Favatars%2Fava_0011-512.png", "custom_css": null}, {"id": 19245, "slack_id": "U097E9QEEG6", "display_name": "NateNate", "bio": null, "projects_count": 0, "devlogs_count": 0, "votes_count": 0, "ships_count": 0, "projects": [], "coding_time_seconds": 0, "coding_time_seconds_today": 0, "balance": "You need to have a pocket watcher badge to view this.", "badges": [], "created_at": "2025-07-25T10:13:09.344-04:00", "updated_at": "2025-07-26T00:56:13.810-04:00", "avatar": "https://secure.gravatar.com/avatar/144bd06b5e618b7df6d8e62a756d306c.jpg?s=512&d=https%3A%2F%2Fa.slack-edge.com%2Fdf10d%2Fimg%2Favatars%2Fava_0014-512.png", "custom_css": null}], "pagination": {"page": 958, "pages": 1192, "count": 23828, "items": 20}}