{"users": [{"id": 19246, "slack_id": "U0985E4JZ7A", "display_name": "Daksh Bhalala", "bio": null, "projects_count": 0, "devlogs_count": 0, "votes_count": 0, "ships_count": 0, "projects": [], "coding_time_seconds": 0, "coding_time_seconds_today": 0, "balance": "You need to have a pocket watcher badge to view this.", "badges": [], "created_at": "2025-07-25T10:19:59.454-04:00", "updated_at": "2025-07-26T00:56:13.901-04:00", "avatar": "https://secure.gravatar.com/avatar/b01d19d5fb862aef5a3ea22e1d67a484.jpg?s=512&d=https%3A%2F%2Fa.slack-edge.com%2Fdf10d%2Fimg%2Favatars%2Fava_0002-512.png", "custom_css": null}, {"id": 19247, "slack_id": "U097HK0RAUS", "display_name": "Victor R", "bio": null, "projects_count": 0, "devlogs_count": 0, "votes_count": 0, "ships_count": 0, "projects": [], "coding_time_seconds": 0, "coding_time_seconds_today": 0, "balance": "You need to have a pocket watcher badge to view this.", "badges": [], "created_at": "2025-07-25T10:20:38.042-04:00", "updated_at": "2025-07-26T00:56:13.979-04:00", "avatar": "https://secure.gravatar.com/avatar/dca97578233dfb6f5740feed1d3a1b7b.jpg?s=512&d=https%3A%2F%2Fa.slack-edge.com%2Fdf10d%2Fimg%2Favatars%2Fava_0002-512.png", "custom_css": null}, {"id": 19248, "slack_id": "U097BV6C2SF", "display_name": "Srestha", "bio": null, "projects_count": 0, "devlogs_count": 0, "votes_count": 0, "ships_count": 0, "projects": [], "coding_time_seconds": 0, "coding_time_seconds_today": 0, "balance": "You need to have a pocket watcher badge to view this.", "badges": [], "created_at": "2025-07-25T10:21:45.784-04:00", "updated_at": "2025-07-26T00:56:14.601-04:00", "avatar": "https://secure.gravatar.com/avatar/e15207e640fc9528ba6ec61384ba35dc.jpg?s=512&d=https%3A%2F%2Fa.slack-edge.com%2Fdf10d%2Fimg%2Favatars%2Fava_0013-512.png", "custom_css": null}, {"id": 19249, "slack_id": "U097J6Z3X28", "display_name": "Oviyaa", "bio": null, "projects_count": 0, "devlogs_count": 0, "votes_count": 0, "ships_count": 0, "projects": [], "coding_time_seconds": 0, "coding_time_seconds_today": 0, "balance": "You need to have a pocket watcher badge to view this.", "badges": [], "created_at": "2025-07-25T10:26:07.815-04:00", "updated_at": "2025-07-31T09:52:59.963-04:00", "avatar": "https://avatars.slack-edge.com/2025-07-31/9282418970549_791d33ed3f2df44fcefa_original.png", "custom_css": null}, {"id": 19250, "slack_id": "U097G5UBDAR", "display_name": "Ahmed", "bio": null, "projects_count": 0, "devlogs_count": 0, "votes_count": 0, "ships_count": 0, "projects": [], "coding_time_seconds": 0, "coding_time_seconds_today": 0, "balance": "You need to have a pocket watcher badge to view this.", "badges": [], "created_at": "2025-07-25T10:28:08.098-04:00", "updated_at": "2025-07-26T00:56:18.827-04:00", "avatar": "https://secure.gravatar.com/avatar/1ffb123faec2bd733fff677209dc4bee.jpg?s=512&d=https%3A%2F%2Fa.slack-edge.com%2Fdf10d%2Fimg%2Favatars%2Fava_0023-512.png", "custom_css": null}, {"id": 19251, "slack_id": "U097J6GSW9J", "display_name": "TheRock999", "bio": null, "projects_count": 0, "devlogs_count": 0, "votes_count": 0, "ships_count": 0, "projects": [], "coding_time_seconds": 0, "coding_time_seconds_today": 0, "balance": "You need to have a pocket watcher badge to view this.", "badges": [], "created_at": "2025-07-25T10:29:10.061-04:00", "updated_at": "2025-07-26T00:56:18.916-04:00", "avatar": "https://secure.gravatar.com/avatar/7babd8f824ec9420435ddedca87cbc1a.jpg?s=512&d=https%3A%2F%2Fa.slack-edge.com%2Fdf10d%2Fimg%2Favatars%2Fava_0023-512.png", "custom_css": null}, {"id": 19252, "slack_id": "U097G8KAVSR", "display_name": "Aadarsh.k", "bio": "", "projects_count": 1, "devlogs_count": 4, "votes_count": 6, "ships_count": 0, "projects": [{"id": 11148, "title": "Stock It Up", "devlogs_count": 4, "created_at": "2025-08-13T14:21:23.098-04:00"}], "coding_time_seconds": 313625, "coding_time_seconds_today": 5532, "balance": "You need to have a pocket watcher badge to view this.", "badges": [], "created_at": "2025-07-25T10:44:44.081-04:00", "updated_at": "2025-08-16T09:00:07.624-04:00", "avatar": "https://secure.gravatar.com/avatar/76005ea932b497cd332809be06d76b8f.jpg?s=512&d=https%3A%2F%2Fa.slack-edge.com%2Fdf10d%2Fimg%2Favatars%2Fava_0009-512.png", "custom_css": null}, {"id": 19253, "slack_id": "U097EH1E2ES", "display_name": "jellywaffles", "bio": null, "projects_count": 0, "devlogs_count": 0, "votes_count": 0, "ships_count": 0, "projects": [], "coding_time_seconds": 0, "coding_time_seconds_today": 0, "balance": "You need to have a pocket watcher badge to view this.", "badges": [], "created_at": "2025-07-25T10:44:59.348-04:00", "updated_at": "2025-07-26T00:56:19.113-04:00", "avatar": "https://secure.gravatar.com/avatar/828336b1dfc50f8ae5cd20222378a2af.jpg?s=512&d=https%3A%2F%2Fa.slack-edge.com%2Fdf10d%2Fimg%2Favatars%2Fava_0008-512.png", "custom_css": null}, {"id": 19254, "slack_id": "U0985K5UHDE", "display_name": "lazy_coder_yash", "bio": null, "projects_count": 0, "devlogs_count": 0, "votes_count": 0, "ships_count": 0, "projects": [], "coding_time_seconds": 0, "coding_time_seconds_today": 0, "balance": "You need to have a pocket watcher badge to view this.", "badges": [], "created_at": "2025-07-25T10:51:29.761-04:00", "updated_at": "2025-07-26T00:56:19.201-04:00", "avatar": "https://secure.gravatar.com/avatar/ac272b52f69a286c59c2ae9ecef5372a.jpg?s=512&d=https%3A%2F%2Fa.slack-edge.com%2Fdf10d%2Fimg%2Favatars%2Fava_0021-512.png", "custom_css": null}, {"id": 19255, "slack_id": "U097CEPECGK", "display_name": "TMC_Elite_Fn", "bio": null, "projects_count": 0, "devlogs_count": 0, "votes_count": 0, "ships_count": 0, "projects": [], "coding_time_seconds": 0, "coding_time_seconds_today": 0, "balance": "You need to have a pocket watcher badge to view this.", "badges": [], "created_at": "2025-07-25T10:59:00.684-04:00", "updated_at": "2025-07-26T00:56:19.286-04:00", "avatar": "https://secure.gravatar.com/avatar/5b329a2a4da268e66b8fb6f9d3a86f35.jpg?s=512&d=https%3A%2F%2Fa.slack-edge.com%2Fdf10d%2Fimg%2Favatars%2Fava_0025-512.png", "custom_css": null}, {"id": 19256, "slack_id": "U097X0T2CKB", "display_name": "lunvox", "bio": null, "projects_count": 0, "devlogs_count": 0, "votes_count": 0, "ships_count": 0, "projects": [], "coding_time_seconds": 18192, "coding_time_seconds_today": 0, "balance": "You need to have a pocket watcher badge to view this.", "badges": [], "created_at": "2025-07-25T11:02:23.247-04:00", "updated_at": "2025-07-26T00:56:19.383-04:00", "avatar": "https://secure.gravatar.com/avatar/e04e189a916f94ca8f1d9e90aa4f9b21.jpg?s=512&d=https%3A%2F%2Fa.slack-edge.com%2Fdf10d%2Fimg%2Favatars%2Fava_0008-512.png", "custom_css": null}, {"id": 19257, "slack_id": "U097CEMLY11", "display_name": "Kyle", "bio": null, "projects_count": 0, "devlogs_count": 0, "votes_count": 0, "ships_count": 0, "projects": [], "coding_time_seconds": 0, "coding_time_seconds_today": 0, "balance": "You need to have a pocket watcher badge to view this.", "badges": [], "created_at": "2025-07-25T11:03:55.690-04:00", "updated_at": "2025-07-26T00:56:19.494-04:00", "avatar": "https://avatars.slack-edge.com/2025-07-25/9255930770706_1572626730db6c099782_original.jpg", "custom_css": null}, {"id": 19258, "slack_id": "U097HSX0LAW", "display_name": "imp", "bio": null, "projects_count": 0, "devlogs_count": 0, "votes_count": 0, "ships_count": 0, "projects": [], "coding_time_seconds": 0, "coding_time_seconds_today": 0, "balance": "You need to have a pocket watcher badge to view this.", "badges": [], "created_at": "2025-07-25T11:04:35.872-04:00", "updated_at": "2025-07-26T00:56:19.596-04:00", "avatar": "https://secure.gravatar.com/avatar/f78fe7482bd382fa6d0d726fb66f5c2b.jpg?s=512&d=https%3A%2F%2Fa.slack-edge.com%2Fdf10d%2Fimg%2Favatars%2Fava_0012-512.png", "custom_css": null}, {"id": 19259, "slack_id": "U097EMM73PY", "display_name": "Jesse Sher", "bio": null, "projects_count": 0, "devlogs_count": 0, "votes_count": 0, "ships_count": 0, "projects": [], "coding_time_seconds": 0, "coding_time_seconds_today": 0, "balance": "You need to have a pocket watcher badge to view this.", "badges": [], "created_at": "2025-07-25T11:12:07.328-04:00", "updated_at": "2025-07-26T00:56:19.691-04:00", "avatar": "https://secure.gravatar.com/avatar/ed555a13452bf8b664aa549dc6675517.jpg?s=512&d=https%3A%2F%2Fa.slack-edge.com%2Fdf10d%2Fimg%2Favatars%2Fava_0002-512.png", "custom_css": null}, {"id": 19260, "slack_id": "U097CJ2CE1Z", "display_name": "Durgesh Kumar", "bio": null, "projects_count": 0, "devlogs_count": 0, "votes_count": 1, "ships_count": 0, "projects": [], "coding_time_seconds": 35675, "coding_time_seconds_today": 0, "balance": "You need to have a pocket watcher badge to view this.", "badges": [], "created_at": "2025-07-25T11:15:59.826-04:00", "updated_at": "2025-07-26T22:03:46.063-04:00", "avatar": "https://secure.gravatar.com/avatar/1f6b660d4e8a2219a8b217a521d2260c.jpg?s=512&d=https%3A%2F%2Fa.slack-edge.com%2Fdf10d%2Fimg%2Favatars%2Fava_0003-512.png", "custom_css": null}, {"id": 19261, "slack_id": "U097JHNJ5QC", "display_name": "KALYAN", "bio": null, "projects_count": 0, "devlogs_count": 0, "votes_count": 0, "ships_count": 0, "projects": [], "coding_time_seconds": 0, "coding_time_seconds_today": 0, "balance": "You need to have a pocket watcher badge to view this.", "badges": [], "created_at": "2025-07-25T11:32:59.813-04:00", "updated_at": "2025-08-02T07:27:22.046-04:00", "avatar": "https://secure.gravatar.com/avatar/820a425c624658f1576226054fec7204.jpg?s=512&d=https%3A%2F%2Fa.slack-edge.com%2Fdf10d%2Fimg%2Favatars%2Fava_0014-512.png", "custom_css": null}, {"id": 19262, "slack_id": "U0985SQHQ9E", "display_name": "Kap Petrov", "bio": null, "projects_count": 1, "devlogs_count": 3, "votes_count": 3, "ships_count": 1, "projects": [{"id": 8301, "title": "ScantrumOS", "devlogs_count": 3, "created_at": "2025-07-26T03:57:11.018-04:00"}], "coding_time_seconds": 262077, "coding_time_seconds_today": 1629, "balance": "You need to have a pocket watcher badge to view this.", "badges": [], "created_at": "2025-07-25T11:33:00.539-04:00", "updated_at": "2025-07-26T04:24:00.582-04:00", "avatar": "https://avatars.slack-edge.com/2025-07-25/9254611771589_40ea2f6cbbffc2186d16_original.png", "custom_css": null}, {"id": 19263, "slack_id": "U097JJ25PAQ", "display_name": "Sree ram Krishna", "bio": null, "projects_count": 0, "devlogs_count": 0, "votes_count": 0, "ships_count": 0, "projects": [], "coding_time_seconds": 0, "coding_time_seconds_today": 0, "balance": "You need to have a pocket watcher badge to view this.", "badges": [], "created_at": "2025-07-25T11:37:30.518-04:00", "updated_at": "2025-07-26T00:56:20.056-04:00", "avatar": "https://secure.gravatar.com/avatar/ddea634b9975415c2020526cee41a9f8.jpg?s=512&d=https%3A%2F%2Fa.slack-edge.com%2Fdf10d%2Fimg%2Favatars%2Fava_0017-512.png", "custom_css": null}, {"id": 19264, "slack_id": "U097J38JNKC", "display_name": "tom", "bio": null, "projects_count": 0, "devlogs_count": 0, "votes_count": 0, "ships_count": 0, "projects": [], "coding_time_seconds": 0, "coding_time_seconds_today": 0, "balance": "You need to have a pocket watcher badge to view this.", "badges": [], "created_at": "2025-07-25T11:37:43.494-04:00", "updated_at": "2025-07-26T00:56:20.146-04:00", "avatar": "https://secure.gravatar.com/avatar/62b24e21402df3732947035e439f716c.jpg?s=512&d=https%3A%2F%2Fa.slack-edge.com%2Fdf10d%2Fimg%2Favatars%2Fava_0023-512.png", "custom_css": null}, {"id": 19265, "slack_id": "U097E71UBV4", "display_name": "Felixmax_", "bio": null, "projects_count": 1, "devlogs_count": 3, "votes_count": 1, "ships_count": 0, "projects": [{"id": 8233, "title": "Shelf Goblin", "devlogs_count": 3, "created_at": "2025-07-25T13:05:11.892-04:00"}], "coding_time_seconds": 16527, "coding_time_seconds_today": 0, "balance": "You need to have a pocket watcher badge to view this.", "badges": [], "created_at": "2025-07-25T11:43:14.643-04:00", "updated_at": "2025-08-25T08:20:36.769-04:00", "avatar": "https://secure.gravatar.com/avatar/72ba54e0d6bb72ee91d8a3278b72be3b.jpg?s=512&d=https%3A%2F%2Fa.slack-edge.com%2Fdf10d%2Fimg%2Favatars%2Fava_0009-512.png", "custom_css": null}], "pagination": {"page": 959, "pages": 1192, "count": 23828, "items": 20}}