{"users": [{"id": 1901, "slack_id": "U081X00T5SA", "display_name": "ILikeMice", "bio": null, "projects_count": 3, "devlogs_count": 21, "votes_count": 20, "ships_count": 1, "projects": [{"id": 603, "title": "XenAI", "devlogs_count": 0, "created_at": "2025-06-17T02:34:37.087-04:00"}, {"id": 6322, "title": "hclang", "devlogs_count": 3, "created_at": "2025-07-12T10:16:31.642-04:00"}, {"id": 936, "title": "BetterSOM", "devlogs_count": 18, "created_at": "2025-06-17T11:47:20.360-04:00"}], "coding_time_seconds": 215057, "coding_time_seconds_today": 0, "balance": "You need to have a pocket watcher badge to view this.", "badges": [{"name": "Maiden Voyage", "text": "you shipped your first project! the journey begins...", "icon": "\ud83d\udea2"}], "created_at": "2025-06-16T14:13:59.468-04:00", "updated_at": "2025-09-10T22:52:06.287-04:00", "avatar": "https://avatars.slack-edge.com/2025-02-25/8518243072193_8433c529ffafde315db8_original.png", "custom_css": null}, {"id": 1902, "slack_id": "U07GJ0B0J92", "display_name": "Mohamed Nady", "bio": null, "projects_count": 8, "devlogs_count": 18, "votes_count": 139, "ships_count": 7, "projects": [{"id": 10916, "title": "Flappy Eagle", "devlogs_count": 2, "created_at": "2025-08-11T19:02:19.573-04:00"}, {"id": 12893, "title": "Video summarizer web app ", "devlogs_count": 2, "created_at": "2025-09-04T14:12:58.395-04:00"}, {"id": 13481, "title": "snake game", "devlogs_count": 4, "created_at": "2025-09-17T13:01:44.425-04:00"}, {"id": 7243, "title": "Super_Mario_World", "devlogs_count": 1, "created_at": "2025-07-20T08:33:10.142-04:00"}, {"id": 8244, "title": "Space Shooter", "devlogs_count": 1, "created_at": "2025-07-25T15:51:12.220-04:00"}, {"id": 8373, "title": "mcp_weather", "devlogs_count": 1, "created_at": "2025-07-26T16:48:20.046-04:00"}, {"id": 2342, "title": "textStudy", "devlogs_count": 5, "created_at": "2025-06-20T18:33:18.725-04:00"}, {"id": 11420, "title": "TMNT Merch Store", "devlogs_count": 1, "created_at": "2025-08-15T18:14:45.247-04:00"}], "coding_time_seconds": 406449, "coding_time_seconds_today": 0, "balance": "You need to have a pocket watcher badge to view this.", "badges": [{"name": "Maiden Voyage", "text": "you shipped your first project! the journey begins...", "icon": "\ud83d\udea2"}, {"name": "Ballot Stuffer", "text": "vote 100 times.", "icon": "https://summer.hackclub.com/assets/i_voted-bf851b48.png"}], "created_at": "2025-06-16T14:14:04.329-04:00", "updated_at": "2025-09-10T22:52:06.313-04:00", "avatar": "https://secure.gravatar.com/avatar/aff6a2683e5d9d8aff1586cd7773efb0.jpg?s=512&d=https%3A%2F%2Fa.slack-edge.com%2Fdf10d%2Fimg%2Favatars%2Fava_0002-512.png", "custom_css": null}, {"id": 1903, "slack_id": "U091H0LUVJA", "display_name": "Muzammil Alam", "bio": null, "projects_count": 0, "devlogs_count": 0, "votes_count": 0, "ships_count": 0, "projects": [], "coding_time_seconds": 0, "coding_time_seconds_today": 0, "balance": "You need to have a pocket watcher badge to view this.", "badges": [], "created_at": "2025-06-16T14:14:05.170-04:00", "updated_at": "2025-07-03T19:19:45.617-04:00", "avatar": "https://avatars.slack-edge.com/2025-06-16/9070471515409_544d411cb54b790c89fd_original.jpg", "custom_css": null}, {"id": 1904, "slack_id": "U07G0UGHA6B", "display_name": "Amro Salah", "bio": null, "projects_count": 0, "devlogs_count": 0, "votes_count": 0, "ships_count": 0, "projects": [], "coding_time_seconds": 0, "coding_time_seconds_today": 0, "balance": "You need to have a pocket watcher badge to view this.", "badges": [], "created_at": "2025-06-16T14:14:09.256-04:00", "updated_at": "2025-07-03T19:19:45.914-04:00", "avatar": "https://secure.gravatar.com/avatar/36923877e6a62ea8265f9362f00ec7a9.jpg?s=512&d=https%3A%2F%2Fa.slack-edge.com%2Fdf10d%2Fimg%2Favatars%2Fava_0020-512.png", "custom_css": null}, {"id": 1905, "slack_id": "U091N3VQ3E1", "display_name": "andrea", "bio": null, "projects_count": 0, "devlogs_count": 0, "votes_count": 0, "ships_count": 0, "projects": [], "coding_time_seconds": 558397, "coding_time_seconds_today": 0, "balance": "You need to have a pocket watcher badge to view this.", "badges": [], "created_at": "2025-06-16T14:14:17.233-04:00", "updated_at": "2025-07-03T19:19:46.192-04:00", "avatar": "https://secure.gravatar.com/avatar/9fc1b913fd4dbe544bdce02fa2182fa4.jpg?s=512&d=https%3A%2F%2Fa.slack-edge.com%2Fdf10d%2Fimg%2Favatars%2Fava_0000-512.png", "custom_css": null}, {"id": 1906, "slack_id": "U091H1R6UNS", "display_name": "Dishant Bothra", "bio": null, "projects_count": 0, "devlogs_count": 0, "votes_count": 0, "ships_count": 0, "projects": [], "coding_time_seconds": 0, "coding_time_seconds_today": 0, "balance": "You need to have a pocket watcher badge to view this.", "badges": [], "created_at": "2025-06-16T14:14:40.372-04:00", "updated_at": "2025-07-03T19:19:46.474-04:00", "avatar": "https://avatars.slack-edge.com/2025-06-16/9050976578051_2ee553dfcd9b8a1eb5a9_original.png", "custom_css": null}, {"id": 1907, "slack_id": "U0829HRSQ76", "display_name": "PianoMan0", "bio": "Fullstack dev, helping make SoM happen", "projects_count": 13, "devlogs_count": 30, "votes_count": 170, "ships_count": 9, "projects": [{"id": 1391, "title": "Guestbook", "devlogs_count": 1, "created_at": "2025-06-18T13:26:05.456-04:00"}, {"id": 6109, "title": "Valley Forge", "devlogs_count": 0, "created_at": "2025-07-10T15:09:10.489-04:00"}, {"id": 6117, "title": "HackWorlds", "devlogs_count": 1, "created_at": "2025-07-10T16:17:20.172-04:00"}, {"id": 6358, "title": "BBB", "devlogs_count": 0, "created_at": "2025-07-12T16:37:50.795-04:00"}, {"id": 11406, "title": "You Find Yourself In Elon Musk's Bathroom", "devlogs_count": 1, "created_at": "2025-08-15T14:38:58.706-04:00"}, {"id": 1875, "title": "Billion", "devlogs_count": 3, "created_at": "2025-06-19T13:48:34.872-04:00"}, {"id": 5340, "title": "BillionCall", "devlogs_count": 9, "created_at": "2025-07-04T15:07:30.636-04:00"}, {"id": 8494, "title": "Loop Pedal Online", "devlogs_count": 1, "created_at": "2025-07-27T14:44:52.781-04:00"}, {"id": 5612, "title": "Piano Story", "devlogs_count": 1, "created_at": "2025-07-06T14:35:49.875-04:00"}, {"id": 222, "title": "Twist", "devlogs_count": 5, "created_at": "2025-06-16T15:49:42.879-04:00"}, {"id": 1162, "title": "The Bouncy Ball Experiment", "devlogs_count": 3, "created_at": "2025-06-17T19:15:42.237-04:00"}, {"id": 4128, "title": "Snake Game Portfolio!", "devlogs_count": 3, "created_at": "2025-06-27T16:33:49.396-04:00"}, {"id": 2655, "title": "My first userscript!", "devlogs_count": 1, "created_at": "2025-06-21T15:02:02.656-04:00"}], "coding_time_seconds": 170942, "coding_time_seconds_today": 0, "balance": "You need to have a pocket watcher badge to view this.", "badges": [{"name": "Maiden Voyage", "text": "you shipped your first project! the journey begins...", "icon": "\ud83d\udea2"}, {"name": "Ballot Stuffer", "text": "vote 100 times.", "icon": "https://summer.hackclub.com/assets/i_voted-bf851b48.png"}], "created_at": "2025-06-16T14:14:48.144-04:00", "updated_at": "2025-09-10T22:52:06.432-04:00", "avatar": "https://avatars.slack-edge.com/2025-08-21/9377372311527_377433563929642af508_original.png", "custom_css": null}, {"id": 1908, "slack_id": "U0918HRQWDD", "display_name": "Rhythm Suthar", "bio": null, "projects_count": 0, "devlogs_count": 0, "votes_count": 0, "ships_count": 0, "projects": [], "coding_time_seconds": 0, "coding_time_seconds_today": 0, "balance": "You need to have a pocket watcher badge to view this.", "badges": [], "created_at": "2025-06-16T14:14:59.449-04:00", "updated_at": "2025-07-03T19:19:47.142-04:00", "avatar": "https://secure.gravatar.com/avatar/15ea61a06a2ce3491e96ca923fb2560a.jpg?s=512&d=https%3A%2F%2Fa.slack-edge.com%2Fdf10d%2Fimg%2Favatars%2Fava_0005-512.png", "custom_css": null}, {"id": 1909, "slack_id": "U078BVD4QT0", "display_name": "ARYAN SEHRAWAT", "bio": null, "projects_count": 0, "devlogs_count": 0, "votes_count": 0, "ships_count": 0, "projects": [], "coding_time_seconds": 27565, "coding_time_seconds_today": 0, "balance": "You need to have a pocket watcher badge to view this.", "badges": [], "created_at": "2025-06-16T14:15:08.900-04:00", "updated_at": "2025-07-03T19:19:47.411-04:00", "avatar": "https://avatars.slack-edge.com/2024-06-17/7313438485200_9b0a76f29af17e930a95_original.jpg", "custom_css": null}, {"id": 1910, "slack_id": "U091N3YV0S1", "display_name": "Furkan Aksoy", "bio": null, "projects_count": 0, "devlogs_count": 0, "votes_count": 0, "ships_count": 0, "projects": [], "coding_time_seconds": 0, "coding_time_seconds_today": 0, "balance": "You need to have a pocket watcher badge to view this.", "badges": [], "created_at": "2025-06-16T14:15:09.796-04:00", "updated_at": "2025-07-03T19:19:47.686-04:00", "avatar": "https://secure.gravatar.com/avatar/12226882145370aa599bf7ee1aac384b.jpg?s=512&d=https%3A%2F%2Fa.slack-edge.com%2Fdf10d%2Fimg%2Favatars%2Fava_0008-512.png", "custom_css": null}, {"id": 1911, "slack_id": "U0922DJHEAV", "display_name": "Solis", "bio": null, "projects_count": 0, "devlogs_count": 0, "votes_count": 0, "ships_count": 0, "projects": [], "coding_time_seconds": 0, "coding_time_seconds_today": 0, "balance": "You need to have a pocket watcher badge to view this.", "badges": [], "created_at": "2025-06-16T14:15:11.879-04:00", "updated_at": "2025-07-03T19:19:47.946-04:00", "avatar": "https://secure.gravatar.com/avatar/5d813a551b3cdc969c19c95310f8d885.jpg?s=512&d=https%3A%2F%2Fa.slack-edge.com%2Fdf10d%2Fimg%2Favatars%2Fava_0016-512.png", "custom_css": null}, {"id": 1912, "slack_id": "U079R5MESTD", "display_name": "Yufan Wang", "bio": null, "projects_count": 5, "devlogs_count": 15, "votes_count": 0, "ships_count": 1, "projects": [{"id": 455, "title": "NOVO Test Automation", "devlogs_count": 6, "created_at": "2025-06-16T22:08:59.964-04:00"}, {"id": 1159, "title": "TetrisGPT", "devlogs_count": 0, "created_at": "2025-06-17T19:12:51.747-04:00"}, {"id": 2245, "title": "Agentic AI for Android Automation", "devlogs_count": 3, "created_at": "2025-06-20T14:41:20.373-04:00"}, {"id": 3263, "title": "ChessGPT", "devlogs_count": 4, "created_at": "2025-06-23T15:59:06.940-04:00"}, {"id": 3946, "title": "WebADB", "devlogs_count": 2, "created_at": "2025-06-26T12:20:33.402-04:00"}], "coding_time_seconds": 490976, "coding_time_seconds_today": 0, "balance": "You need to have a pocket watcher badge to view this.", "badges": [{"name": "Maiden Voyage", "text": "you shipped your first project! the journey begins...", "icon": "\ud83d\udea2"}], "created_at": "2025-06-16T14:15:14.592-04:00", "updated_at": "2025-09-10T22:52:06.569-04:00", "avatar": "https://avatars.slack-edge.com/2024-06-25/7333841976452_ce5058d0916e3cb76552_original.png", "custom_css": null}, {"id": 1913, "slack_id": "U091N447D8D", "display_name": "Trofimov", "bio": null, "projects_count": 0, "devlogs_count": 0, "votes_count": 0, "ships_count": 0, "projects": [], "coding_time_seconds": 0, "coding_time_seconds_today": 0, "balance": "You need to have a pocket watcher badge to view this.", "badges": [], "created_at": "2025-06-16T14:15:25.153-04:00", "updated_at": "2025-07-03T19:19:48.497-04:00", "avatar": "https://secure.gravatar.com/avatar/a9b9b66212d6059f88609e2e311b2739.jpg?s=512&d=https%3A%2F%2Fa.slack-edge.com%2Fdf10d%2Fimg%2Favatars%2Fava_0023-512.png", "custom_css": null}, {"id": 1914, "slack_id": "U092CB5LSQ0", "display_name": "gs_725", "bio": null, "projects_count": 0, "devlogs_count": 0, "votes_count": 0, "ships_count": 0, "projects": [], "coding_time_seconds": 0, "coding_time_seconds_today": 0, "balance": "You need to have a pocket watcher badge to view this.", "badges": [], "created_at": "2025-06-16T14:15:27.902-04:00", "updated_at": "2025-07-03T19:19:48.762-04:00", "avatar": "https://secure.gravatar.com/avatar/d1c0c3fe5392cfc60437ce4d238f4fbe.jpg?s=512&d=https%3A%2F%2Fa.slack-edge.com%2Fdf10d%2Fimg%2Favatars%2Fava_0010-512.png", "custom_css": null}, {"id": 1915, "slack_id": "U091PSV0T0A", "display_name": "M.SAAD", "bio": null, "projects_count": 0, "devlogs_count": 0, "votes_count": 0, "ships_count": 0, "projects": [], "coding_time_seconds": 29165, "coding_time_seconds_today": 0, "balance": "You need to have a pocket watcher badge to view this.", "badges": [], "created_at": "2025-06-16T14:15:30.502-04:00", "updated_at": "2025-07-03T19:19:49.050-04:00", "avatar": "https://secure.gravatar.com/avatar/5afa8f679704897e5bcd115080001d6d.jpg?s=512&d=https%3A%2F%2Fa.slack-edge.com%2Fdf10d%2Fimg%2Favatars%2Fava_0010-512.png", "custom_css": null}, {"id": 1916, "slack_id": "U091H1Y1AVC", "display_name": "Kenneth Nguyen", "bio": null, "projects_count": 0, "devlogs_count": 0, "votes_count": 0, "ships_count": 0, "projects": [], "coding_time_seconds": 0, "coding_time_seconds_today": 0, "balance": "You need to have a pocket watcher badge to view this.", "badges": [], "created_at": "2025-06-16T14:15:32.958-04:00", "updated_at": "2025-07-03T19:19:49.325-04:00", "avatar": "https://secure.gravatar.com/avatar/4fbec03c9250a6cee7c19c466ff4c24e.jpg?s=512&d=https%3A%2F%2Fa.slack-edge.com%2Fdf10d%2Fimg%2Favatars%2Fava_0016-512.png", "custom_css": null}, {"id": 1917, "slack_id": "U0918J0ULMV", "display_name": "Hrudu Shibu", "bio": null, "projects_count": 0, "devlogs_count": 0, "votes_count": 0, "ships_count": 0, "projects": [], "coding_time_seconds": 19614, "coding_time_seconds_today": 0, "balance": "You need to have a pocket watcher badge to view this.", "badges": [], "created_at": "2025-06-16T14:16:50.064-04:00", "updated_at": "2025-07-03T19:19:49.605-04:00", "avatar": "https://secure.gravatar.com/avatar/e9527b77cecd154ff303ecbbaf0da50c.jpg?s=512&d=https%3A%2F%2Fa.slack-edge.com%2Fdf10d%2Fimg%2Favatars%2Fava_0014-512.png", "custom_css": null}, {"id": 1918, "slack_id": "U08STT8TDRN", "display_name": "Shaun Thomas Shibu", "bio": null, "projects_count": 0, "devlogs_count": 46, "votes_count": 110, "ships_count": 0, "projects": [], "coding_time_seconds": 867434, "coding_time_seconds_today": 0, "balance": "You need to have a pocket watcher badge to view this.", "badges": [{"name": "Maiden Voyage", "text": "you shipped your first project! the journey begins...", "icon": "\ud83d\udea2"}, {"name": "Ballot Stuffer", "text": "vote 100 times.", "icon": "https://summer.hackclub.com/assets/i_voted-bf851b48.png"}], "created_at": "2025-06-16T14:17:16.584-04:00", "updated_at": "2025-09-23T11:35:52.163-04:00", "avatar": "https://avatars.slack-edge.com/2025-05-13/8887529091253_65a3258511740fbda2a7_original.png", "custom_css": null}, {"id": 1919, "slack_id": "U091PT4KTHQ", "display_name": "neko 2 electric boogaloo", "bio": "Uuuh what is this account\r\n-Felix\r\n\r\nWHAT?\r\n", "projects_count": 0, "devlogs_count": 0, "votes_count": 0, "ships_count": 0, "projects": [], "coding_time_seconds": 0, "coding_time_seconds_today": 0, "balance": "You need to have a pocket watcher badge to view this.", "badges": [], "created_at": "2025-06-16T14:17:28.098-04:00", "updated_at": "2025-07-03T19:19:50.144-04:00", "avatar": "https://secure.gravatar.com/avatar/ff6695547ce5cb0e99e95c1e04b4d82b.jpg?s=512&d=https%3A%2F%2Fa.slack-edge.com%2Fdf10d%2Fimg%2Favatars%2Fava_0006-512.png", "custom_css": null}, {"id": 1920, "slack_id": "U0918J3FTV5", "display_name": "Dilshod Fayzullayev", "bio": null, "projects_count": 0, "devlogs_count": 0, "votes_count": 0, "ships_count": 0, "projects": [], "coding_time_seconds": 59886, "coding_time_seconds_today": 0, "balance": "You need to have a pocket watcher badge to view this.", "badges": [], "created_at": "2025-06-16T14:17:48.033-04:00", "updated_at": "2025-07-03T19:19:50.455-04:00", "avatar": "https://secure.gravatar.com/avatar/6f76051ca9c33c32eebe7256ecb7c998.jpg?s=512&d=https%3A%2F%2Fa.slack-edge.com%2Fdf10d%2Fimg%2Favatars%2Fava_0016-512.png", "custom_css": null}], "pagination": {"page": 96, "pages": 1192, "count": 23828, "items": 20}}