{"users": [{"id": 19266, "slack_id": "U097285TF9V", "display_name": "Enno", "bio": null, "projects_count": 0, "devlogs_count": 0, "votes_count": 0, "ships_count": 0, "projects": [], "coding_time_seconds": 0, "coding_time_seconds_today": 0, "balance": "You need to have a pocket watcher badge to view this.", "badges": [], "created_at": "2025-07-25T11:54:04.761-04:00", "updated_at": "2025-07-26T00:56:20.321-04:00", "avatar": "https://secure.gravatar.com/avatar/d3390ca90eabd3e1b168010b2eeb1102.jpg?s=512&d=https%3A%2F%2Fa.slack-edge.com%2Fdf10d%2Fimg%2Favatars%2Fava_0026-512.png", "custom_css": null}, {"id": 19267, "slack_id": "U097JM13L9J", "display_name": "Shri Vignesh", "bio": null, "projects_count": 0, "devlogs_count": 0, "votes_count": 0, "ships_count": 0, "projects": [], "coding_time_seconds": 0, "coding_time_seconds_today": 0, "balance": "You need to have a pocket watcher badge to view this.", "badges": [], "created_at": "2025-07-25T11:55:11.787-04:00", "updated_at": "2025-07-26T00:56:20.398-04:00", "avatar": "https://secure.gravatar.com/avatar/15773950b47d23313e60191db8b2e181.jpg?s=512&d=https%3A%2F%2Fa.slack-edge.com%2Fdf10d%2Fimg%2Favatars%2Fava_0014-512.png", "custom_css": null}, {"id": 19268, "slack_id": "U097J6SBUMQ", "display_name": "FlyingPig525", "bio": null, "projects_count": 0, "devlogs_count": 0, "votes_count": 0, "ships_count": 0, "projects": [], "coding_time_seconds": 146336, "coding_time_seconds_today": 3412, "balance": "You need to have a pocket watcher badge to view this.", "badges": [], "created_at": "2025-07-25T12:00:16.193-04:00", "updated_at": "2025-07-26T00:56:20.474-04:00", "avatar": "https://secure.gravatar.com/avatar/ad87212f6345e219b8029b920b9d4ef1.jpg?s=512&d=https%3A%2F%2Fa.slack-edge.com%2Fdf10d%2Fimg%2Favatars%2Fava_0006-512.png", "custom_css": null}, {"id": 19269, "slack_id": "U097XBY06DP", "display_name": "Nischal Darnal", "bio": null, "projects_count": 0, "devlogs_count": 0, "votes_count": 0, "ships_count": 0, "projects": [], "coding_time_seconds": 0, "coding_time_seconds_today": 0, "balance": "You need to have a pocket watcher badge to view this.", "badges": [], "created_at": "2025-07-25T12:01:03.004-04:00", "updated_at": "2025-07-26T00:56:20.565-04:00", "avatar": "https://avatars.slack-edge.com/2025-07-25/9240341497223_b07b868ee25df871c435_original.gif", "custom_css": null}, {"id": 19270, "slack_id": "U08258YN469", "display_name": "Fralas", "bio": null, "projects_count": 0, "devlogs_count": 9, "votes_count": 0, "ships_count": 0, "projects": [], "coding_time_seconds": 66839, "coding_time_seconds_today": 0, "balance": "You need to have a pocket watcher badge to view this.", "badges": [], "created_at": "2025-07-25T12:01:46.817-04:00", "updated_at": "2025-08-10T11:32:41.163-04:00", "avatar": "https://avatars.slack-edge.com/2025-02-27/8517397657830_eda843d519781065a078_original.png", "custom_css": null}, {"id": 19271, "slack_id": "U08U8NQT4SK", "display_name": "Mrunali", "bio": null, "projects_count": 0, "devlogs_count": 0, "votes_count": 0, "ships_count": 0, "projects": [], "coding_time_seconds": 0, "coding_time_seconds_today": 0, "balance": "You need to have a pocket watcher badge to view this.", "badges": [], "created_at": "2025-07-25T12:05:10.487-04:00", "updated_at": "2025-07-31T04:50:38.500-04:00", "avatar": "https://secure.gravatar.com/avatar/790ebcdc0464abf23457e365e8edabab.jpg?s=512&d=https%3A%2F%2Fa.slack-edge.com%2Fdf10d%2Fimg%2Favatars%2Fava_0016-512.png", "custom_css": null}, {"id": 19272, "slack_id": "U097XETNZKK", "display_name": "pavan", "bio": null, "projects_count": 0, "devlogs_count": 0, "votes_count": 0, "ships_count": 0, "projects": [], "coding_time_seconds": 0, "coding_time_seconds_today": 0, "balance": "You need to have a pocket watcher badge to view this.", "badges": [], "created_at": "2025-07-25T12:16:18.463-04:00", "updated_at": "2025-07-26T00:56:20.948-04:00", "avatar": "https://secure.gravatar.com/avatar/b838c95abdb71e68b26596771decc0d0.jpg?s=512&d=https%3A%2F%2Fa.slack-edge.com%2Fdf10d%2Fimg%2Favatars%2Fava_0015-512.png", "custom_css": null}, {"id": 19273, "slack_id": "U097CV7RD5Z", "display_name": "kaiser", "bio": null, "projects_count": 0, "devlogs_count": 0, "votes_count": 0, "ships_count": 0, "projects": [], "coding_time_seconds": 0, "coding_time_seconds_today": 0, "balance": "You need to have a pocket watcher badge to view this.", "badges": [], "created_at": "2025-07-25T12:16:37.018-04:00", "updated_at": "2025-07-26T00:56:21.039-04:00", "avatar": "https://secure.gravatar.com/avatar/224a998e88f9ec12ff767388c845dfce.jpg?s=512&d=https%3A%2F%2Fa.slack-edge.com%2Fdf10d%2Fimg%2Favatars%2Fava_0013-512.png", "custom_css": null}, {"id": 19274, "slack_id": "U09864VBTFA", "display_name": "Abhinav Yadav", "bio": null, "projects_count": 0, "devlogs_count": 0, "votes_count": 0, "ships_count": 0, "projects": [], "coding_time_seconds": 0, "coding_time_seconds_today": 0, "balance": "You need to have a pocket watcher badge to view this.", "badges": [], "created_at": "2025-07-25T12:17:48.396-04:00", "updated_at": "2025-07-26T00:56:21.554-04:00", "avatar": "https://avatars.slack-edge.com/2025-07-25/9253121983462_f4dd41baa8fe11f019b5_original.jpg", "custom_css": null}, {"id": 19275, "slack_id": "U097CV6RN9H", "display_name": "akula", "bio": null, "projects_count": 0, "devlogs_count": 0, "votes_count": 0, "ships_count": 0, "projects": [], "coding_time_seconds": 0, "coding_time_seconds_today": 0, "balance": "You need to have a pocket watcher badge to view this.", "badges": [], "created_at": "2025-07-25T12:18:28.075-04:00", "updated_at": "2025-07-26T00:56:21.647-04:00", "avatar": "https://secure.gravatar.com/avatar/cfd46bf21039c840e7c7e08515108990.jpg?s=512&d=https%3A%2F%2Fa.slack-edge.com%2Fdf10d%2Fimg%2Favatars%2Fava_0007-512.png", "custom_css": null}, {"id": 19276, "slack_id": "U097GRYJHBP", "display_name": "malya", "bio": null, "projects_count": 0, "devlogs_count": 0, "votes_count": 0, "ships_count": 0, "projects": [], "coding_time_seconds": 0, "coding_time_seconds_today": 0, "balance": "You need to have a pocket watcher badge to view this.", "badges": [], "created_at": "2025-07-25T12:22:13.323-04:00", "updated_at": "2025-07-26T00:56:21.724-04:00", "avatar": "https://secure.gravatar.com/avatar/0d9d678061ade254eb24a735841b0882.jpg?s=512&d=https%3A%2F%2Fa.slack-edge.com%2Fdf10d%2Fimg%2Favatars%2Fava_0000-512.png", "custom_css": null}, {"id": 19277, "slack_id": "U0972DNM1QF", "display_name": "Manuel", "bio": "Manuel\r\n17m Student (Computer Science BSc) \r\nBavaria/Germany \r\nBeginner Coder\r\nPhysics+Math <3\r\n", "projects_count": 0, "devlogs_count": 0, "votes_count": 0, "ships_count": 0, "projects": [], "coding_time_seconds": 2905, "coding_time_seconds_today": 0, "balance": "You need to have a pocket watcher badge to view this.", "badges": [], "created_at": "2025-07-25T12:27:35.513-04:00", "updated_at": "2025-07-26T00:56:21.830-04:00", "avatar": "https://secure.gravatar.com/avatar/2e9f8b7d3370ac81493f1e3e9ab363c7.jpg?s=512&d=https%3A%2F%2Fa.slack-edge.com%2Fdf10d%2Fimg%2Favatars%2Fava_0007-512.png", "custom_css": null}, {"id": 19278, "slack_id": "U097D1JLFDH", "display_name": "Jayash Shukla", "bio": null, "projects_count": 0, "devlogs_count": 0, "votes_count": 0, "ships_count": 0, "projects": [], "coding_time_seconds": 0, "coding_time_seconds_today": 0, "balance": "You need to have a pocket watcher badge to view this.", "badges": [], "created_at": "2025-07-25T12:37:21.286-04:00", "updated_at": "2025-07-27T04:18:14.928-04:00", "avatar": "https://secure.gravatar.com/avatar/a9499b5daaf7a2b77a75cc62fa4669e7.jpg?s=512&d=https%3A%2F%2Fa.slack-edge.com%2Fdf10d%2Fimg%2Favatars%2Fava_0020-512.png", "custom_css": null}, {"id": 19279, "slack_id": "U097D4QEK9R", "display_name": "Tina", "bio": null, "projects_count": 0, "devlogs_count": 0, "votes_count": 0, "ships_count": 0, "projects": [], "coding_time_seconds": 0, "coding_time_seconds_today": 0, "balance": "You need to have a pocket watcher badge to view this.", "badges": [], "created_at": "2025-07-25T12:48:10.685-04:00", "updated_at": "2025-07-26T00:56:22.006-04:00", "avatar": "https://secure.gravatar.com/avatar/8ea09547ccf27a3f99176a064ae34625.jpg?s=512&d=https%3A%2F%2Fa.slack-edge.com%2Fdf10d%2Fimg%2Favatars%2Fava_0016-512.png", "custom_css": null}, {"id": 19280, "slack_id": "U0972HLPRST", "display_name": "Pranav", "bio": null, "projects_count": 0, "devlogs_count": 0, "votes_count": 0, "ships_count": 0, "projects": [], "coding_time_seconds": 86352, "coding_time_seconds_today": 0, "balance": "You need to have a pocket watcher badge to view this.", "badges": [], "created_at": "2025-07-25T12:57:12.745-04:00", "updated_at": "2025-08-19T05:26:57.991-04:00", "avatar": "https://secure.gravatar.com/avatar/ff70c3e10fcbe8974a0e41a7bdf68929.jpg?s=512&d=https%3A%2F%2Fa.slack-edge.com%2Fdf10d%2Fimg%2Favatars%2Fava_0017-512.png", "custom_css": null}, {"id": 19281, "slack_id": "U097D78HTM1", "display_name": "Vaggelis Softsis", "bio": null, "projects_count": 0, "devlogs_count": 0, "votes_count": 0, "ships_count": 0, "projects": [], "coding_time_seconds": 0, "coding_time_seconds_today": 0, "balance": "You need to have a pocket watcher badge to view this.", "badges": [], "created_at": "2025-07-25T13:02:08.500-04:00", "updated_at": "2025-07-26T00:56:26.251-04:00", "avatar": "https://avatars.slack-edge.com/2025-07-25/9255131338149_dec93c93b6751175ae97_original.jpg", "custom_css": null}, {"id": 19282, "slack_id": "U097TRU83QQ", "display_name": "Ayush Jain", "bio": null, "projects_count": 0, "devlogs_count": 0, "votes_count": 0, "ships_count": 0, "projects": [], "coding_time_seconds": 12110, "coding_time_seconds_today": 0, "balance": "You need to have a pocket watcher badge to view this.", "badges": [], "created_at": "2025-07-25T13:04:09.996-04:00", "updated_at": "2025-07-26T00:56:26.353-04:00", "avatar": "https://secure.gravatar.com/avatar/288951db25b5c4c5aa3f4931f0c79adf.jpg?s=512&d=https%3A%2F%2Fa.slack-edge.com%2Fdf10d%2Fimg%2Favatars%2Fava_0008-512.png", "custom_css": null}, {"id": 19283, "slack_id": "U0976KGTNV9", "display_name": "Covenant Popoola", "bio": null, "projects_count": 0, "devlogs_count": 0, "votes_count": 0, "ships_count": 0, "projects": [], "coding_time_seconds": 0, "coding_time_seconds_today": 0, "balance": "You need to have a pocket watcher badge to view this.", "badges": [], "created_at": "2025-07-25T13:16:19.562-04:00", "updated_at": "2025-07-26T00:56:26.480-04:00", "avatar": "https://secure.gravatar.com/avatar/7bf0f1e866331ce807463b6223a69e9b.jpg?s=512&d=https%3A%2F%2Fa.slack-edge.com%2Fdf10d%2Fimg%2Favatars%2Fava_0018-512.png", "custom_css": null}, {"id": 19284, "slack_id": "U097H5UK71B", "display_name": "Harry", "bio": "I am 16 and I have had an interest in programming since i was 10, I wanted to make games in C# but ended up fading away, then learnt small amounts of python in high school even creating a small clicker game, now i have a big interest in HTML and CSS eventually I'll move onto javascript!", "projects_count": 1, "devlogs_count": 1, "votes_count": 2, "ships_count": 0, "projects": [{"id": 8239, "title": "Get to gnome me!", "devlogs_count": 1, "created_at": "2025-07-25T13:58:24.069-04:00"}], "coding_time_seconds": 6401, "coding_time_seconds_today": 0, "balance": "You need to have a pocket watcher badge to view this.", "badges": [], "created_at": "2025-07-25T13:18:31.519-04:00", "updated_at": "2025-07-26T07:36:24.375-04:00", "avatar": "https://secure.gravatar.com/avatar/3a74def06eb3c1d2e8f8d3acf6073974.jpg?s=512&d=https%3A%2F%2Fa.slack-edge.com%2Fdf10d%2Fimg%2Favatars%2Fava_0023-512.png", "custom_css": null}, {"id": 19285, "slack_id": "U097FCU9RP0", "display_name": "Wade Watts", "bio": null, "projects_count": 0, "devlogs_count": 0, "votes_count": 0, "ships_count": 0, "projects": [], "coding_time_seconds": 4023, "coding_time_seconds_today": 0, "balance": "You need to have a pocket watcher badge to view this.", "badges": [], "created_at": "2025-07-25T13:22:16.509-04:00", "updated_at": "2025-07-26T00:56:26.706-04:00", "avatar": "https://avatars.slack-edge.com/2025-07-25/9269909065169_5e286aab0dc99659bd55_original.png", "custom_css": null}], "pagination": {"page": 960, "pages": 1192, "count": 23828, "items": 20}}