{"users": [{"id": 19286, "slack_id": "U0972PYKZD5", "display_name": "I", "bio": null, "projects_count": 0, "devlogs_count": 0, "votes_count": 0, "ships_count": 0, "projects": [], "coding_time_seconds": 0, "coding_time_seconds_today": 0, "balance": "You need to have a pocket watcher badge to view this.", "badges": [], "created_at": "2025-07-25T13:34:57.547-04:00", "updated_at": "2025-07-26T00:56:26.800-04:00", "avatar": "https://secure.gravatar.com/avatar/5e714bf1a676917ac6a9f0bfce10b02f.jpg?s=512&d=https%3A%2F%2Fa.slack-edge.com%2Fdf10d%2Fimg%2Favatars%2Fava_0019-512.png", "custom_css": null}, {"id": 19287, "slack_id": "U07DMCJTB8Q", "display_name": "Adriana", "bio": null, "projects_count": 0, "devlogs_count": 0, "votes_count": 0, "ships_count": 0, "projects": [], "coding_time_seconds": 489340, "coding_time_seconds_today": 0, "balance": "You need to have a pocket watcher badge to view this.", "badges": [], "created_at": "2025-07-25T13:45:09.319-04:00", "updated_at": "2025-07-26T00:56:26.915-04:00", "avatar": "https://avatars.slack-edge.com/2024-10-27/7964708814800_dc907e945ab17de3dff7_original.png", "custom_css": null}, {"id": 19288, "slack_id": "U096CK376EB", "display_name": "Jos\u00e9 Antonio Tapia", "bio": null, "projects_count": 0, "devlogs_count": 0, "votes_count": 0, "ships_count": 0, "projects": [], "coding_time_seconds": 0, "coding_time_seconds_today": 0, "balance": "You need to have a pocket watcher badge to view this.", "badges": [], "created_at": "2025-07-25T13:48:04.200-04:00", "updated_at": "2025-07-26T00:56:27.020-04:00", "avatar": "https://secure.gravatar.com/avatar/492ba9ab0f21a535b9c1acda5493b949.jpg?s=512&d=https%3A%2F%2Fa.slack-edge.com%2Fdf10d%2Fimg%2Favatars%2Fava_0002-512.png", "custom_css": null}, {"id": 19289, "slack_id": "U097FH9S3QE", "display_name": "Mario", "bio": null, "projects_count": 0, "devlogs_count": 0, "votes_count": 0, "ships_count": 0, "projects": [], "coding_time_seconds": 0, "coding_time_seconds_today": 0, "balance": "You need to have a pocket watcher badge to view this.", "badges": [], "created_at": "2025-07-25T13:53:35.084-04:00", "updated_at": "2025-07-26T00:56:27.108-04:00", "avatar": "https://secure.gravatar.com/avatar/1f4eac36c28a21607dc3c9a3b70931ce.jpg?s=512&d=https%3A%2F%2Fa.slack-edge.com%2Fdf10d%2Fimg%2Favatars%2Fava_0016-512.png", "custom_css": null}, {"id": 19290, "slack_id": "U097BTF6HHU", "display_name": "Ary Kah", "bio": "", "projects_count": 1, "devlogs_count": 5, "votes_count": 19, "ships_count": 0, "projects": [{"id": 11422, "title": "Eggs-cellent platformer", "devlogs_count": 5, "created_at": "2025-08-15T19:55:05.642-04:00"}], "coding_time_seconds": 159212, "coding_time_seconds_today": 0, "balance": "You need to have a pocket watcher badge to view this.", "badges": [], "created_at": "2025-07-25T14:19:58.049-04:00", "updated_at": "2025-07-26T10:44:32.983-04:00", "avatar": "https://secure.gravatar.com/avatar/ba3e1d9ecd60390d6fb29593ff03dce1.jpg?s=512&d=https%3A%2F%2Fa.slack-edge.com%2Fdf10d%2Fimg%2Favatars%2Fava_0017-512.png", "custom_css": null}, {"id": 19291, "slack_id": "U096N77AR1R", "display_name": "Megane Alexis", "bio": null, "projects_count": 0, "devlogs_count": 0, "votes_count": 0, "ships_count": 0, "projects": [], "coding_time_seconds": 130586, "coding_time_seconds_today": 1588, "balance": "You need to have a pocket watcher badge to view this.", "badges": [], "created_at": "2025-07-25T14:26:37.446-04:00", "updated_at": "2025-07-26T00:56:27.302-04:00", "avatar": "https://avatars.slack-edge.com/2025-07-25/9278845507840_c7ebaf61e59fcfbeecdb_original.png", "custom_css": null}, {"id": 19292, "slack_id": "U097HHU5N21", "display_name": "julio", "bio": null, "projects_count": 0, "devlogs_count": 0, "votes_count": 0, "ships_count": 0, "projects": [], "coding_time_seconds": 0, "coding_time_seconds_today": 0, "balance": "You need to have a pocket watcher badge to view this.", "badges": [], "created_at": "2025-07-25T14:40:26.657-04:00", "updated_at": "2025-07-26T00:56:27.383-04:00", "avatar": "https://secure.gravatar.com/avatar/916c1c20efe96f60b052d873b8e36e0f.jpg?s=512&d=https%3A%2F%2Fa.slack-edge.com%2Fdf10d%2Fimg%2Favatars%2Fava_0018-512.png", "custom_css": null}, {"id": 19293, "slack_id": "U097HJBJT0D", "display_name": "G4UO", "bio": null, "projects_count": 0, "devlogs_count": 0, "votes_count": 0, "ships_count": 0, "projects": [], "coding_time_seconds": 2215, "coding_time_seconds_today": 0, "balance": "You need to have a pocket watcher badge to view this.", "badges": [], "created_at": "2025-07-25T14:42:40.014-04:00", "updated_at": "2025-08-14T04:30:13.662-04:00", "avatar": "https://secure.gravatar.com/avatar/12baa0a1aef49db23faaf4f791ebd610.jpg?s=512&d=https%3A%2F%2Fa.slack-edge.com%2Fdf10d%2Fimg%2Favatars%2Fava_0004-512.png", "custom_css": null}, {"id": 19294, "slack_id": "U097FMTS5J8", "display_name": "Yichen Xiao", "bio": null, "projects_count": 0, "devlogs_count": 0, "votes_count": 0, "ships_count": 0, "projects": [], "coding_time_seconds": 212112, "coding_time_seconds_today": 0, "balance": "You need to have a pocket watcher badge to view this.", "badges": [], "created_at": "2025-07-25T14:57:32.546-04:00", "updated_at": "2025-07-28T11:46:57.508-04:00", "avatar": "https://secure.gravatar.com/avatar/8049bfa4b306be3d8da41db9d8f9eb16.jpg?s=512&d=https%3A%2F%2Fa.slack-edge.com%2Fdf10d%2Fimg%2Favatars%2Fava_0024-512.png", "custom_css": null}, {"id": 19295, "slack_id": "U09736UCA6T", "display_name": "Rishabh Agrawal", "bio": null, "projects_count": 1, "devlogs_count": 0, "votes_count": 1, "ships_count": 0, "projects": [{"id": 8246, "title": "E Commerce Stationery Website", "devlogs_count": 0, "created_at": "2025-07-25T16:09:08.526-04:00"}], "coding_time_seconds": 5281, "coding_time_seconds_today": 0, "balance": "You need to have a pocket watcher badge to view this.", "badges": [], "created_at": "2025-07-25T15:01:19.646-04:00", "updated_at": "2025-07-26T00:56:27.638-04:00", "avatar": "https://avatars.slack-edge.com/2025-07-25/9253926224326_d937678e45e9d1337356_original.jpg", "custom_css": null}, {"id": 19296, "slack_id": "U09735S7ZEK", "display_name": "Mrk", "bio": null, "projects_count": 0, "devlogs_count": 0, "votes_count": 0, "ships_count": 0, "projects": [], "coding_time_seconds": 0, "coding_time_seconds_today": 0, "balance": "You need to have a pocket watcher badge to view this.", "badges": [], "created_at": "2025-07-25T15:02:50.818-04:00", "updated_at": "2025-07-26T00:56:27.714-04:00", "avatar": "https://secure.gravatar.com/avatar/d7cad7aaef020a24ccf38ba7cb00e746.jpg?s=512&d=https%3A%2F%2Fa.slack-edge.com%2Fdf10d%2Fimg%2Favatars%2Fava_0010-512.png", "custom_css": null}, {"id": 19297, "slack_id": "U08SXQ87X9Q", "display_name": "Jaitra Bhatt", "bio": null, "projects_count": 0, "devlogs_count": 0, "votes_count": 0, "ships_count": 0, "projects": [], "coding_time_seconds": 0, "coding_time_seconds_today": 0, "balance": "You need to have a pocket watcher badge to view this.", "badges": [], "created_at": "2025-07-25T15:15:48.080-04:00", "updated_at": "2025-07-25T20:11:35.492-04:00", "avatar": "https://secure.gravatar.com/avatar/38355a90a0f1f32565d85c1868736bfd.jpg?s=512&d=https%3A%2F%2Fa.slack-edge.com%2Fdf10d%2Fimg%2Favatars%2Fava_0005-512.png", "custom_css": null}, {"id": 19298, "slack_id": "U097K8L04RY", "display_name": "Xichil", "bio": null, "projects_count": 0, "devlogs_count": 0, "votes_count": 0, "ships_count": 0, "projects": [], "coding_time_seconds": 5, "coding_time_seconds_today": 0, "balance": "You need to have a pocket watcher badge to view this.", "badges": [], "created_at": "2025-07-25T15:25:19.911-04:00", "updated_at": "2025-07-26T00:56:31.903-04:00", "avatar": "https://avatars.slack-edge.com/2025-07-25/9257380642642_fa92ee44bc44e5dfdbf9_original.jpg", "custom_css": null}, {"id": 19299, "slack_id": "U097YEPTLKB", "display_name": "Shiven S.", "bio": null, "projects_count": 0, "devlogs_count": 0, "votes_count": 0, "ships_count": 0, "projects": [], "coding_time_seconds": 0, "coding_time_seconds_today": 0, "balance": "You need to have a pocket watcher badge to view this.", "badges": [], "created_at": "2025-07-25T15:25:59.351-04:00", "updated_at": "2025-07-26T00:56:31.992-04:00", "avatar": "https://secure.gravatar.com/avatar/b846a6c864c8e3d0631d8dac479a2b6b.jpg?s=512&d=https%3A%2F%2Fa.slack-edge.com%2Fdf10d%2Fimg%2Favatars%2Fava_0002-512.png", "custom_css": null}, {"id": 19300, "slack_id": "U09873D8LTS", "display_name": "Khang Nguyen", "bio": null, "projects_count": 1, "devlogs_count": 0, "votes_count": 0, "ships_count": 0, "projects": [{"id": 8450, "title": "Somi - AI Expense & Budget Tracker ", "devlogs_count": 0, "created_at": "2025-07-27T09:26:34.132-04:00"}], "coding_time_seconds": 20490, "coding_time_seconds_today": 0, "balance": "You need to have a pocket watcher badge to view this.", "badges": [], "created_at": "2025-07-25T15:27:30.493-04:00", "updated_at": "2025-07-27T09:23:51.042-04:00", "avatar": "https://secure.gravatar.com/avatar/313541b2743bcc6d9f474cc1219a8bc7.jpg?s=512&d=https%3A%2F%2Fa.slack-edge.com%2Fdf10d%2Fimg%2Favatars%2Fava_0021-512.png", "custom_css": null}, {"id": 19301, "slack_id": "U097DU7QJFM", "display_name": "Utkarsh Vishwakarma", "bio": null, "projects_count": 0, "devlogs_count": 0, "votes_count": 0, "ships_count": 0, "projects": [], "coding_time_seconds": 0, "coding_time_seconds_today": 0, "balance": "You need to have a pocket watcher badge to view this.", "badges": [], "created_at": "2025-07-25T15:28:03.914-04:00", "updated_at": "2025-07-26T00:56:32.167-04:00", "avatar": "https://avatars.slack-edge.com/2025-07-25/9254042326150_7c51b140f092a060f7ce_original.png", "custom_css": null}, {"id": 19302, "slack_id": "U0973ADMRE3", "display_name": "Aayush G", "bio": null, "projects_count": 0, "devlogs_count": 0, "votes_count": 0, "ships_count": 0, "projects": [], "coding_time_seconds": 187, "coding_time_seconds_today": 0, "balance": "You need to have a pocket watcher badge to view this.", "badges": [], "created_at": "2025-07-25T15:28:43.127-04:00", "updated_at": "2025-07-26T00:56:32.251-04:00", "avatar": "https://secure.gravatar.com/avatar/f8ab58fb7db6f0262f3b54871c81618b.jpg?s=512&d=https%3A%2F%2Fa.slack-edge.com%2Fdf10d%2Fimg%2Favatars%2Fava_0003-512.png", "custom_css": null}, {"id": 19303, "slack_id": "U097KBPJZC2", "display_name": "Yusuf Wael", "bio": null, "projects_count": 0, "devlogs_count": 0, "votes_count": 0, "ships_count": 0, "projects": [], "coding_time_seconds": 0, "coding_time_seconds_today": 0, "balance": "You need to have a pocket watcher badge to view this.", "badges": [], "created_at": "2025-07-25T15:50:06.322-04:00", "updated_at": "2025-07-26T03:08:57.029-04:00", "avatar": "https://secure.gravatar.com/avatar/2bc823e8a3e204bbf964f0c2fbfdfef9.jpg?s=512&d=https%3A%2F%2Fa.slack-edge.com%2Fdf10d%2Fimg%2Favatars%2Fava_0002-512.png", "custom_css": null}, {"id": 19304, "slack_id": "U097KC4RJTU", "display_name": "Mateus", "bio": null, "projects_count": 0, "devlogs_count": 0, "votes_count": 0, "ships_count": 0, "projects": [], "coding_time_seconds": 0, "coding_time_seconds_today": 0, "balance": "You need to have a pocket watcher badge to view this.", "badges": [], "created_at": "2025-07-25T15:54:18.328-04:00", "updated_at": "2025-07-26T00:56:32.470-04:00", "avatar": "https://secure.gravatar.com/avatar/09ea3068554c006be8219c362751a7ce.jpg?s=512&d=https%3A%2F%2Fa.slack-edge.com%2Fdf10d%2Fimg%2Favatars%2Fava_0005-512.png", "custom_css": null}, {"id": 19305, "slack_id": "U097HU222MB", "display_name": "Josh Zeng", "bio": null, "projects_count": 0, "devlogs_count": 0, "votes_count": 0, "ships_count": 0, "projects": [], "coding_time_seconds": 12261, "coding_time_seconds_today": 0, "balance": "You need to have a pocket watcher badge to view this.", "badges": [], "created_at": "2025-07-25T15:55:18.293-04:00", "updated_at": "2025-07-26T00:56:32.558-04:00", "avatar": "https://avatars.slack-edge.com/2025-07-25/9252107908227_30d688ea831b5d37ba76_original.png", "custom_css": null}], "pagination": {"page": 961, "pages": 1192, "count": 23828, "items": 20}}