{"users": [{"id": 19326, "slack_id": "U097476KPNK", "display_name": "Jana Hanafy", "bio": null, "projects_count": 0, "devlogs_count": 0, "votes_count": 0, "ships_count": 0, "projects": [], "coding_time_seconds": 0, "coding_time_seconds_today": 0, "balance": "You need to have a pocket watcher badge to view this.", "badges": [], "created_at": "2025-07-25T20:27:57.890-04:00", "updated_at": "2025-07-26T00:56:38.463-04:00", "avatar": "https://secure.gravatar.com/avatar/f229d6b036234b3c2f23ccfffe549b86.jpg?s=512&d=https%3A%2F%2Fa.slack-edge.com%2Fdf10d%2Fimg%2Favatars%2Fava_0005-512.png", "custom_css": null}, {"id": 19327, "slack_id": "U097EUN1MV1", "display_name": "aarav maru", "bio": null, "projects_count": 0, "devlogs_count": 0, "votes_count": 0, "ships_count": 0, "projects": [], "coding_time_seconds": 0, "coding_time_seconds_today": 0, "balance": "You need to have a pocket watcher badge to view this.", "badges": [], "created_at": "2025-07-25T20:58:20.805-04:00", "updated_at": "2025-07-26T00:56:38.554-04:00", "avatar": "https://secure.gravatar.com/avatar/9d748b01e5490929b2fb0ba42b4812b0.jpg?s=512&d=https%3A%2F%2Fa.slack-edge.com%2Fdf10d%2Fimg%2Favatars%2Fava_0016-512.png", "custom_css": null}, {"id": 19328, "slack_id": "U0971LL7Q31", "display_name": "Juveeh Sagun", "bio": null, "projects_count": 0, "devlogs_count": 0, "votes_count": 0, "ships_count": 0, "projects": [], "coding_time_seconds": 0, "coding_time_seconds_today": 0, "balance": "You need to have a pocket watcher badge to view this.", "badges": [], "created_at": "2025-07-25T21:09:27.411-04:00", "updated_at": "2025-07-26T00:56:38.639-04:00", "avatar": "https://secure.gravatar.com/avatar/4463521db2e7a15e152fa51370822213.jpg?s=512&d=https%3A%2F%2Fa.slack-edge.com%2Fdf10d%2Fimg%2Favatars%2Fava_0014-512.png", "custom_css": null}, {"id": 19329, "slack_id": "U097H0T8YNA", "display_name": "Luke", "bio": null, "projects_count": 1, "devlogs_count": 0, "votes_count": 0, "ships_count": 0, "projects": [{"id": 8508, "title": "Ball balencing Robot", "devlogs_count": 0, "created_at": "2025-07-27T17:42:12.867-04:00"}], "coding_time_seconds": 16345, "coding_time_seconds_today": 0, "balance": "You need to have a pocket watcher badge to view this.", "badges": [], "created_at": "2025-07-25T21:16:30.151-04:00", "updated_at": "2025-07-28T11:19:37.305-04:00", "avatar": "https://secure.gravatar.com/avatar/58c5d9a7d9c51e1557729b11558e60bf.jpg?s=512&d=https%3A%2F%2Fa.slack-edge.com%2Fdf10d%2Fimg%2Favatars%2Fava_0009-512.png", "custom_css": null}, {"id": 19330, "slack_id": "U0974LPS8AJ", "display_name": "Eric", "bio": null, "projects_count": 0, "devlogs_count": 0, "votes_count": 0, "ships_count": 0, "projects": [], "coding_time_seconds": 0, "coding_time_seconds_today": 0, "balance": "You need to have a pocket watcher badge to view this.", "badges": [], "created_at": "2025-07-25T21:19:53.249-04:00", "updated_at": "2025-07-26T00:56:42.847-04:00", "avatar": "https://secure.gravatar.com/avatar/be1fdd66fe75782b64ea65c23fcadf19.jpg?s=512&d=https%3A%2F%2Fa.slack-edge.com%2Fdf10d%2Fimg%2Favatars%2Fava_0008-512.png", "custom_css": null}, {"id": 19331, "slack_id": "U09645V3L79", "display_name": "Pranay Bokde", "bio": null, "projects_count": 0, "devlogs_count": 0, "votes_count": 0, "ships_count": 0, "projects": [], "coding_time_seconds": 0, "coding_time_seconds_today": 0, "balance": "You need to have a pocket watcher badge to view this.", "badges": [], "created_at": "2025-07-25T21:30:32.605-04:00", "updated_at": "2025-07-25T21:30:52.819-04:00", "avatar": "https://secure.gravatar.com/avatar/3713666d62c6c910015575ceefc7801f.jpg?s=512&d=https%3A%2F%2Fa.slack-edge.com%2Fdf10d%2Fimg%2Favatars%2Fava_0018-512.png", "custom_css": null}, {"id": 19332, "slack_id": "U04BG2HB5UK", "display_name": "M1racleMax", "bio": null, "projects_count": 1, "devlogs_count": 1, "votes_count": 0, "ships_count": 0, "projects": [{"id": 8440, "title": "miracle sheets", "devlogs_count": 1, "created_at": "2025-07-27T07:30:34.151-04:00"}], "coding_time_seconds": 123368, "coding_time_seconds_today": 0, "balance": "You need to have a pocket watcher badge to view this.", "badges": [], "created_at": "2025-07-25T21:31:06.454-04:00", "updated_at": "2025-07-27T07:27:27.287-04:00", "avatar": "https://avatars.slack-edge.com/2024-06-03/7220028551188_ad4a638012b426925387_original.jpg", "custom_css": null}, {"id": 19333, "slack_id": "U097JSBTRQV", "display_name": "Abheek", "bio": null, "projects_count": 0, "devlogs_count": 0, "votes_count": 0, "ships_count": 0, "projects": [], "coding_time_seconds": 76970, "coding_time_seconds_today": 0, "balance": "You need to have a pocket watcher badge to view this.", "badges": [], "created_at": "2025-07-25T21:35:14.440-04:00", "updated_at": "2025-07-26T00:56:43.046-04:00", "avatar": "https://secure.gravatar.com/avatar/0827dea18efd9326778c30ab6115a9fe.jpg?s=512&d=https%3A%2F%2Fa.slack-edge.com%2Fdf10d%2Fimg%2Favatars%2Fava_0006-512.png", "custom_css": null}, {"id": 19334, "slack_id": "U097412NRJT", "display_name": "Aathi Karthik", "bio": null, "projects_count": 1, "devlogs_count": 1, "votes_count": 0, "ships_count": 0, "projects": [{"id": 11870, "title": "SkillsShare", "devlogs_count": 1, "created_at": "2025-08-20T13:31:28.132-04:00"}], "coding_time_seconds": 64654, "coding_time_seconds_today": 0, "balance": "You need to have a pocket watcher badge to view this.", "badges": [], "created_at": "2025-07-25T22:16:13.558-04:00", "updated_at": "2025-08-13T17:47:37.601-04:00", "avatar": "https://secure.gravatar.com/avatar/f43bb3a2e4c22bc52e6c5f24738b8434.jpg?s=512&d=https%3A%2F%2Fa.slack-edge.com%2Fdf10d%2Fimg%2Favatars%2Fava_0008-512.png", "custom_css": null}, {"id": 19335, "slack_id": "U095K264EP9", "display_name": "Ilhan", "bio": null, "projects_count": 0, "devlogs_count": 0, "votes_count": 0, "ships_count": 0, "projects": [], "coding_time_seconds": 0, "coding_time_seconds_today": 0, "balance": "You need to have a pocket watcher badge to view this.", "badges": [], "created_at": "2025-07-25T22:24:25.277-04:00", "updated_at": "2025-08-04T20:16:58.622-04:00", "avatar": "https://secure.gravatar.com/avatar/5b819aede65044ae4a16c0e334b33665.jpg?s=512&d=https%3A%2F%2Fa.slack-edge.com%2Fdf10d%2Fimg%2Favatars%2Fava_0023-512.png", "custom_css": null}, {"id": 19336, "slack_id": "U08BY11GGDP", "display_name": "Ivy", "bio": null, "projects_count": 0, "devlogs_count": 0, "votes_count": 0, "ships_count": 0, "projects": [], "coding_time_seconds": 1110, "coding_time_seconds_today": 0, "balance": "You need to have a pocket watcher badge to view this.", "badges": [], "created_at": "2025-07-25T22:27:12.908-04:00", "updated_at": "2025-08-01T18:31:42.937-04:00", "avatar": "https://secure.gravatar.com/avatar/c4761ab5bb416af78a4982a04e0c4f07.jpg?s=512&d=https%3A%2F%2Fa.slack-edge.com%2Fdf10d%2Fimg%2Favatars%2Fava_0026-512.png", "custom_css": null}, {"id": 19337, "slack_id": "U09887GFT8Q", "display_name": "Kemh", "bio": null, "projects_count": 0, "devlogs_count": 0, "votes_count": 0, "ships_count": 0, "projects": [], "coding_time_seconds": 78592, "coding_time_seconds_today": 0, "balance": "You need to have a pocket watcher badge to view this.", "badges": [], "created_at": "2025-07-25T22:33:38.319-04:00", "updated_at": "2025-08-19T14:26:43.943-04:00", "avatar": "https://secure.gravatar.com/avatar/c3ec2e4f063f1fc29493c0528e7af3b7.jpg?s=512&d=https%3A%2F%2Fa.slack-edge.com%2Fdf10d%2Fimg%2Favatars%2Fava_0023-512.png", "custom_css": null}, {"id": 19338, "slack_id": "U097JV2E8N9", "display_name": "brahmaad28", "bio": null, "projects_count": 0, "devlogs_count": 0, "votes_count": 0, "ships_count": 0, "projects": [], "coding_time_seconds": 0, "coding_time_seconds_today": 0, "balance": "You need to have a pocket watcher badge to view this.", "badges": [], "created_at": "2025-07-25T22:36:52.053-04:00", "updated_at": "2025-07-26T00:56:43.435-04:00", "avatar": "https://secure.gravatar.com/avatar/be2e8ebe96d24289eb69d61f7697c01f.jpg?s=512&d=https%3A%2F%2Fa.slack-edge.com%2Fdf10d%2Fimg%2Favatars%2Fava_0026-512.png", "custom_css": null}, {"id": 19339, "slack_id": "U0974D98J07", "display_name": "Aayas Neupane", "bio": null, "projects_count": 0, "devlogs_count": 0, "votes_count": 0, "ships_count": 0, "projects": [], "coding_time_seconds": 0, "coding_time_seconds_today": 0, "balance": "You need to have a pocket watcher badge to view this.", "badges": [], "created_at": "2025-07-25T22:41:13.002-04:00", "updated_at": "2025-07-26T00:56:43.531-04:00", "avatar": "https://secure.gravatar.com/avatar/6869e63bb2fd799584515da9c909692a.jpg?s=512&d=https%3A%2F%2Fa.slack-edge.com%2Fdf10d%2Fimg%2Favatars%2Fava_0000-512.png", "custom_css": null}, {"id": 19340, "slack_id": "U053U8N68A3", "display_name": "Giovanni Castillo Rodriguez", "bio": null, "projects_count": 0, "devlogs_count": 0, "votes_count": 0, "ships_count": 0, "projects": [], "coding_time_seconds": 0, "coding_time_seconds_today": 0, "balance": "You need to have a pocket watcher badge to view this.", "badges": [], "created_at": "2025-07-25T22:44:40.888-04:00", "updated_at": "2025-07-25T22:47:20.358-04:00", "avatar": "https://avatars.slack-edge.com/2023-04-20/5144716709715_bd0f09219220301539ac_original.jpg", "custom_css": null}, {"id": 19341, "slack_id": "U097F4AGZ51", "display_name": "Abhaya Tuladhar", "bio": null, "projects_count": 0, "devlogs_count": 0, "votes_count": 0, "ships_count": 0, "projects": [], "coding_time_seconds": 0, "coding_time_seconds_today": 0, "balance": "You need to have a pocket watcher badge to view this.", "badges": [], "created_at": "2025-07-25T22:44:54.811-04:00", "updated_at": "2025-07-26T00:56:43.677-04:00", "avatar": "https://secure.gravatar.com/avatar/513656d40bc68a7d3260287c4a934d88.jpg?s=512&d=https%3A%2F%2Fa.slack-edge.com%2Fdf10d%2Fimg%2Favatars%2Fava_0019-512.png", "custom_css": null}, {"id": 19342, "slack_id": "U097LCY3LEN", "display_name": "Jonah Byrom", "bio": null, "projects_count": 0, "devlogs_count": 0, "votes_count": 0, "ships_count": 0, "projects": [], "coding_time_seconds": 0, "coding_time_seconds_today": 0, "balance": "You need to have a pocket watcher badge to view this.", "badges": [], "created_at": "2025-07-25T22:54:47.396-04:00", "updated_at": "2025-07-26T00:56:43.760-04:00", "avatar": "https://secure.gravatar.com/avatar/6679781e05aefffe47f90d1584bbcc17.jpg?s=512&d=https%3A%2F%2Fa.slack-edge.com%2Fdf10d%2Fimg%2Favatars%2Fava_0026-512.png", "custom_css": null}, {"id": 19343, "slack_id": "U08S61X2ENA", "display_name": "Jess", "bio": null, "projects_count": 1, "devlogs_count": 7, "votes_count": 20, "ships_count": 1, "projects": [{"id": 11816, "title": "Unscroll", "devlogs_count": 7, "created_at": "2025-08-19T19:59:43.184-04:00"}], "coding_time_seconds": 344065, "coding_time_seconds_today": 0, "balance": "You need to have a pocket watcher badge to view this.", "badges": [], "created_at": "2025-07-25T22:59:46.649-04:00", "updated_at": "2025-08-24T14:08:14.873-04:00", "avatar": "https://avatars.slack-edge.com/2025-08-11/9330844924035_d391ec6d59a91043fe23_original.jpg", "custom_css": null}, {"id": 19344, "slack_id": "U097F5SA891", "display_name": "Timothy Tran", "bio": null, "projects_count": 0, "devlogs_count": 0, "votes_count": 0, "ships_count": 0, "projects": [], "coding_time_seconds": 0, "coding_time_seconds_today": 0, "balance": "You need to have a pocket watcher badge to view this.", "badges": [], "created_at": "2025-07-25T23:17:43.723-04:00", "updated_at": "2025-07-26T00:56:43.939-04:00", "avatar": "https://avatars.slack-edge.com/2025-07-25/9257060404277_f7c0db40d200654fa092_original.png", "custom_css": null}, {"id": 19345, "slack_id": "U095NG746DS", "display_name": "Sai Nagadheeraj Kamsani", "bio": null, "projects_count": 0, "devlogs_count": 0, "votes_count": 0, "ships_count": 0, "projects": [], "coding_time_seconds": 0, "coding_time_seconds_today": 0, "balance": "You need to have a pocket watcher badge to view this.", "badges": [], "created_at": "2025-07-25T23:22:51.750-04:00", "updated_at": "2025-07-26T00:56:44.017-04:00", "avatar": "https://secure.gravatar.com/avatar/e2fa897a60b2f78f5c42696ee92c8876.jpg?s=512&d=https%3A%2F%2Fa.slack-edge.com%2Fdf10d%2Fimg%2Favatars%2Fava_0016-512.png", "custom_css": null}], "pagination": {"page": 963, "pages": 1192, "count": 23828, "items": 20}}