{"users": [{"id": 19346, "slack_id": "U097LT6BN4U", "display_name": "Dignite", "bio": null, "projects_count": 0, "devlogs_count": 0, "votes_count": 0, "ships_count": 0, "projects": [], "coding_time_seconds": 0, "coding_time_seconds_today": 0, "balance": "You need to have a pocket watcher badge to view this.", "badges": [], "created_at": "2025-07-25T23:23:38.770-04:00", "updated_at": "2025-07-26T00:56:48.146-04:00", "avatar": "https://secure.gravatar.com/avatar/761d23f2d5afc93c6d650844cd05d425.jpg?s=512&d=https%3A%2F%2Fa.slack-edge.com%2Fdf10d%2Fimg%2Favatars%2Fava_0020-512.png", "custom_css": null}, {"id": 19347, "slack_id": "U097K1KCS69", "display_name": "Elisha Smile", "bio": null, "projects_count": 1, "devlogs_count": 2, "votes_count": 0, "ships_count": 0, "projects": [{"id": 10023, "title": "SkillSwap", "devlogs_count": 2, "created_at": "2025-08-03T14:22:28.990-04:00"}], "coding_time_seconds": 72007, "coding_time_seconds_today": 0, "balance": "You need to have a pocket watcher badge to view this.", "badges": [], "created_at": "2025-07-25T23:25:07.168-04:00", "updated_at": "2025-08-07T08:57:44.981-04:00", "avatar": "https://secure.gravatar.com/avatar/d7c1b4ec50aa6d741ffebb794e64bfc8.jpg?s=512&d=https%3A%2F%2Fa.slack-edge.com%2Fdf10d%2Fimg%2Favatars%2Fava_0026-512.png", "custom_css": null}, {"id": 19348, "slack_id": "U097LFQHR50", "display_name": "Aashish Sapkota", "bio": null, "projects_count": 0, "devlogs_count": 0, "votes_count": 0, "ships_count": 0, "projects": [], "coding_time_seconds": 36730, "coding_time_seconds_today": 0, "balance": "You need to have a pocket watcher badge to view this.", "badges": [], "created_at": "2025-07-26T00:01:30.114-04:00", "updated_at": "2025-07-26T00:56:48.316-04:00", "avatar": "https://secure.gravatar.com/avatar/376b809f24f2dc2bd77fedc74589e67d.jpg?s=512&d=https%3A%2F%2Fa.slack-edge.com%2Fdf10d%2Fimg%2Favatars%2Fava_0017-512.png", "custom_css": null}, {"id": 19349, "slack_id": "U097H7F1G14", "display_name": "Ayush", "bio": null, "projects_count": 0, "devlogs_count": 0, "votes_count": 0, "ships_count": 0, "projects": [], "coding_time_seconds": 0, "coding_time_seconds_today": 0, "balance": "You need to have a pocket watcher badge to view this.", "badges": [], "created_at": "2025-07-26T00:01:53.996-04:00", "updated_at": "2025-08-04T06:18:07.804-04:00", "avatar": "https://secure.gravatar.com/avatar/f2fd2b4e504be589bab90938e1322247.jpg?s=512&d=https%3A%2F%2Fa.slack-edge.com%2Fdf10d%2Fimg%2Favatars%2Fava_0007-512.png", "custom_css": null}, {"id": 19350, "slack_id": "U097DHM04N5", "display_name": "Tanvi Pandey", "bio": null, "projects_count": 0, "devlogs_count": 0, "votes_count": 0, "ships_count": 0, "projects": [], "coding_time_seconds": 0, "coding_time_seconds_today": 0, "balance": "You need to have a pocket watcher badge to view this.", "badges": [], "created_at": "2025-07-26T00:04:30.819-04:00", "updated_at": "2025-07-28T05:53:45.053-04:00", "avatar": "https://avatars.slack-edge.com/2025-07-23/9227206864503_95dc987b86b48271b168_original.png", "custom_css": null}, {"id": 19351, "slack_id": "U097LFVCMT4", "display_name": "fransz_julius", "bio": null, "projects_count": 0, "devlogs_count": 0, "votes_count": 0, "ships_count": 0, "projects": [], "coding_time_seconds": 0, "coding_time_seconds_today": 0, "balance": "You need to have a pocket watcher badge to view this.", "badges": [], "created_at": "2025-07-26T00:04:45.360-04:00", "updated_at": "2025-07-26T00:56:48.579-04:00", "avatar": "https://avatars.slack-edge.com/2025-07-26/9259010463156_dd17e9ea8dd2922f1736_original.jpg", "custom_css": null}, {"id": 19352, "slack_id": "U097M0S7X28", "display_name": "Riki Lin", "bio": null, "projects_count": 0, "devlogs_count": 0, "votes_count": 0, "ships_count": 0, "projects": [], "coding_time_seconds": 0, "coding_time_seconds_today": 0, "balance": "You need to have a pocket watcher badge to view this.", "badges": [], "created_at": "2025-07-26T00:26:14.767-04:00", "updated_at": "2025-07-26T00:56:48.670-04:00", "avatar": "https://secure.gravatar.com/avatar/8836092a3f94fffaccbf86ade3f8042d.jpg?s=512&d=https%3A%2F%2Fa.slack-edge.com%2Fdf10d%2Fimg%2Favatars%2Fava_0021-512.png", "custom_css": null}, {"id": 19353, "slack_id": "U097ZU8EX3K", "display_name": "Mohamed Maged", "bio": null, "projects_count": 0, "devlogs_count": 0, "votes_count": 0, "ships_count": 0, "projects": [], "coding_time_seconds": 1213, "coding_time_seconds_today": 0, "balance": "You need to have a pocket watcher badge to view this.", "badges": [], "created_at": "2025-07-26T00:31:43.411-04:00", "updated_at": "2025-07-26T01:46:09.944-04:00", "avatar": "https://secure.gravatar.com/avatar/fc29fb6afdf54e9bc39254503cf0112d.jpg?s=512&d=https%3A%2F%2Fa.slack-edge.com%2Fdf10d%2Fimg%2Favatars%2Fava_0007-512.png", "custom_css": null}, {"id": 19354, "slack_id": "U097F8Z0J0K", "display_name": "MRITUNJAY SINGH", "bio": null, "projects_count": 0, "devlogs_count": 0, "votes_count": 0, "ships_count": 0, "projects": [], "coding_time_seconds": 42833, "coding_time_seconds_today": 0, "balance": "You need to have a pocket watcher badge to view this.", "badges": [], "created_at": "2025-07-26T00:34:40.377-04:00", "updated_at": "2025-07-29T09:15:14.130-04:00", "avatar": "https://secure.gravatar.com/avatar/b453d9aeed1095d5157e5162de302892.jpg?s=512&d=https%3A%2F%2Fa.slack-edge.com%2Fdf10d%2Fimg%2Favatars%2Fava_0010-512.png", "custom_css": null}, {"id": 19355, "slack_id": "U097H9GK4CW", "display_name": "younus", "bio": null, "projects_count": 0, "devlogs_count": 0, "votes_count": 0, "ships_count": 0, "projects": [], "coding_time_seconds": 0, "coding_time_seconds_today": 0, "balance": "You need to have a pocket watcher badge to view this.", "badges": [], "created_at": "2025-07-26T00:52:35.079-04:00", "updated_at": "2025-07-26T07:41:18.700-04:00", "avatar": "https://secure.gravatar.com/avatar/81001900e057a3aa11fcc3fd62353eb3.jpg?s=512&d=https%3A%2F%2Fa.slack-edge.com%2Fdf10d%2Fimg%2Favatars%2Fava_0008-512.png", "custom_css": null}, {"id": 19356, "slack_id": "U097M25PKS8", "display_name": "Orbi", "bio": null, "projects_count": 0, "devlogs_count": 0, "votes_count": 0, "ships_count": 0, "projects": [], "coding_time_seconds": 266, "coding_time_seconds_today": 0, "balance": "You need to have a pocket watcher badge to view this.", "badges": [], "created_at": "2025-07-26T01:01:49.321-04:00", "updated_at": "2025-07-26T07:41:18.789-04:00", "avatar": "https://secure.gravatar.com/avatar/1d9a8c3d84ef684bd906e9a0924932c8.jpg?s=512&d=https%3A%2F%2Fa.slack-edge.com%2Fdf10d%2Fimg%2Favatars%2Fava_0019-512.png", "custom_css": null}, {"id": 19357, "slack_id": "U097K76TFQV", "display_name": "Fyaz Mohammed", "bio": null, "projects_count": 0, "devlogs_count": 0, "votes_count": 0, "ships_count": 0, "projects": [], "coding_time_seconds": 5644, "coding_time_seconds_today": 0, "balance": "You need to have a pocket watcher badge to view this.", "badges": [], "created_at": "2025-07-26T01:29:21.013-04:00", "updated_at": "2025-07-26T07:41:18.878-04:00", "avatar": "https://secure.gravatar.com/avatar/3f15484601f8f03040b448466bee7a7a.jpg?s=512&d=https%3A%2F%2Fa.slack-edge.com%2Fdf10d%2Fimg%2Favatars%2Fava_0023-512.png", "custom_css": null}, {"id": 19358, "slack_id": "U097HBWAYDU", "display_name": "Kavennesh", "bio": null, "projects_count": 0, "devlogs_count": 0, "votes_count": 0, "ships_count": 0, "projects": [], "coding_time_seconds": 0, "coding_time_seconds_today": 0, "balance": "You need to have a pocket watcher badge to view this.", "badges": [], "created_at": "2025-07-26T01:48:28.000-04:00", "updated_at": "2025-07-26T07:41:19.065-04:00", "avatar": "https://secure.gravatar.com/avatar/8812edbc95970559b1b250a0f233a7af.jpg?s=512&d=https%3A%2F%2Fa.slack-edge.com%2Fdf10d%2Fimg%2Favatars%2Fava_0005-512.png", "custom_css": null}, {"id": 19359, "slack_id": "U098036D0SV", "display_name": "Baartosz", "bio": "Hi this account has been seized by @felix :)", "projects_count": 0, "devlogs_count": 0, "votes_count": 0, "ships_count": 0, "projects": [], "coding_time_seconds": 0, "coding_time_seconds_today": 0, "balance": "You need to have a pocket watcher badge to view this.", "badges": [], "created_at": "2025-07-26T01:58:33.130-04:00", "updated_at": "2025-07-26T07:41:19.162-04:00", "avatar": "https://secure.gravatar.com/avatar/cc5e97917c9d3155b2ae3f8fb7fbc8dc.jpg?s=512&d=https%3A%2F%2Fa.slack-edge.com%2Fdf10d%2Fimg%2Favatars%2Fava_0005-512.png", "custom_css": null}, {"id": 19360, "slack_id": "U098040PX9P", "display_name": "Mohammad Ziyafat Abbas", "bio": null, "projects_count": 1, "devlogs_count": 0, "votes_count": 1, "ships_count": 0, "projects": [{"id": 8299, "title": "Mythos-AI", "devlogs_count": 0, "created_at": "2025-07-26T03:33:43.765-04:00"}], "coding_time_seconds": 11502, "coding_time_seconds_today": 0, "balance": "You need to have a pocket watcher badge to view this.", "badges": [], "created_at": "2025-07-26T02:15:31.478-04:00", "updated_at": "2025-07-26T08:57:09.980-04:00", "avatar": "https://avatars.slack-edge.com/2025-07-25/9280575539216_30300ac0cb8d4f3e0b45_original.jpg", "custom_css": null}, {"id": 19361, "slack_id": "U098042S6F3", "display_name": "John Lathrop", "bio": null, "projects_count": 0, "devlogs_count": 0, "votes_count": 0, "ships_count": 0, "projects": [], "coding_time_seconds": 3088, "coding_time_seconds_today": 0, "balance": "You need to have a pocket watcher badge to view this.", "badges": [], "created_at": "2025-07-26T02:16:57.338-04:00", "updated_at": "2025-07-26T10:11:40.990-04:00", "avatar": "https://secure.gravatar.com/avatar/f5a243c3bc4fdeb6b706594c328578fc.jpg?s=512&d=https%3A%2F%2Fa.slack-edge.com%2Fdf10d%2Fimg%2Favatars%2Fava_0026-512.png", "custom_css": null}, {"id": 19362, "slack_id": "U097LMQCGE6", "display_name": "Pavani Satwika", "bio": null, "projects_count": 0, "devlogs_count": 0, "votes_count": 0, "ships_count": 0, "projects": [], "coding_time_seconds": 111730, "coding_time_seconds_today": 0, "balance": "You need to have a pocket watcher badge to view this.", "badges": [], "created_at": "2025-07-26T02:24:43.356-04:00", "updated_at": "2025-07-26T07:41:19.452-04:00", "avatar": "https://avatars.slack-edge.com/2025-07-25/9255465794406_6a041ae42a1f3bd64bfe_original.png", "custom_css": null}, {"id": 19363, "slack_id": "U0974NQL0J3", "display_name": "RISHABH SINGH ICSE", "bio": null, "projects_count": 0, "devlogs_count": 0, "votes_count": 0, "ships_count": 0, "projects": [], "coding_time_seconds": 0, "coding_time_seconds_today": 0, "balance": "You need to have a pocket watcher badge to view this.", "badges": [], "created_at": "2025-07-26T02:30:25.535-04:00", "updated_at": "2025-07-26T07:41:19.548-04:00", "avatar": "https://avatars.slack-edge.com/2025-07-25/9253472782835_6e51492e134684787c98_original.png", "custom_css": null}, {"id": 19364, "slack_id": "U0988HJ3HLY", "display_name": "Koopa Pro", "bio": null, "projects_count": 0, "devlogs_count": 0, "votes_count": 0, "ships_count": 0, "projects": [], "coding_time_seconds": 5063, "coding_time_seconds_today": 0, "balance": "You need to have a pocket watcher badge to view this.", "badges": [], "created_at": "2025-07-26T02:36:30.641-04:00", "updated_at": "2025-07-26T07:41:19.637-04:00", "avatar": "https://avatars.slack-edge.com/2025-07-25/9242790380327_8c8694de3fd54fbbb69e_original.png", "custom_css": null}, {"id": 19365, "slack_id": "U097M682R0U", "display_name": "Arman", "bio": null, "projects_count": 0, "devlogs_count": 0, "votes_count": 0, "ships_count": 0, "projects": [], "coding_time_seconds": 121474, "coding_time_seconds_today": 0, "balance": "You need to have a pocket watcher badge to view this.", "badges": [], "created_at": "2025-07-26T02:40:29.013-04:00", "updated_at": "2025-07-26T07:41:19.720-04:00", "avatar": "https://secure.gravatar.com/avatar/141d85565e3f24ac582b2461a57ced4a.jpg?s=512&d=https%3A%2F%2Fa.slack-edge.com%2Fdf10d%2Fimg%2Favatars%2Fava_0013-512.png", "custom_css": null}], "pagination": {"page": 964, "pages": 1192, "count": 23828, "items": 20}}