{"users": [{"id": 19366, "slack_id": "U097KBMH0QM", "display_name": "Roni", "bio": null, "projects_count": 0, "devlogs_count": 0, "votes_count": 0, "ships_count": 0, "projects": [], "coding_time_seconds": 0, "coding_time_seconds_today": 0, "balance": "You need to have a pocket watcher badge to view this.", "badges": [], "created_at": "2025-07-26T03:17:14.093-04:00", "updated_at": "2025-07-26T07:41:19.804-04:00", "avatar": "https://secure.gravatar.com/avatar/f24ad0314b42387f67b6eec8b9909c2a.jpg?s=512&d=https%3A%2F%2Fa.slack-edge.com%2Fdf10d%2Fimg%2Favatars%2Fava_0011-512.png", "custom_css": null}, {"id": 19367, "slack_id": "U0988KL8Q6L", "display_name": "Devraj Soni", "bio": null, "projects_count": 1, "devlogs_count": 0, "votes_count": 0, "ships_count": 0, "projects": [{"id": 8313, "title": "To-Do app", "devlogs_count": 0, "created_at": "2025-07-26T06:10:40.578-04:00"}], "coding_time_seconds": 46911, "coding_time_seconds_today": 0, "balance": "You need to have a pocket watcher badge to view this.", "badges": [], "created_at": "2025-07-26T03:24:00.453-04:00", "updated_at": "2025-08-08T01:02:05.853-04:00", "avatar": "https://secure.gravatar.com/avatar/f5df12e4c353d497aa4284665103ccd6.jpg?s=512&d=https%3A%2F%2Fa.slack-edge.com%2Fdf10d%2Fimg%2Favatars%2Fava_0007-512.png", "custom_css": null}, {"id": 19368, "slack_id": "U097LQ6AQ3C", "display_name": "mahi", "bio": null, "projects_count": 0, "devlogs_count": 0, "votes_count": 0, "ships_count": 0, "projects": [], "coding_time_seconds": 0, "coding_time_seconds_today": 0, "balance": "You need to have a pocket watcher badge to view this.", "badges": [], "created_at": "2025-07-26T03:26:35.550-04:00", "updated_at": "2025-07-26T07:41:19.987-04:00", "avatar": "https://secure.gravatar.com/avatar/90643a3617ef5131dbb29253b26d825d.jpg?s=512&d=https%3A%2F%2Fa.slack-edge.com%2Fdf10d%2Fimg%2Favatars%2Fava_0019-512.png", "custom_css": null}, {"id": 19369, "slack_id": "U0974RB6Q87", "display_name": "Alex D", "bio": null, "projects_count": 0, "devlogs_count": 0, "votes_count": 0, "ships_count": 0, "projects": [], "coding_time_seconds": 0, "coding_time_seconds_today": 0, "balance": "You need to have a pocket watcher badge to view this.", "badges": [], "created_at": "2025-07-26T03:34:48.476-04:00", "updated_at": "2025-07-26T07:41:20.071-04:00", "avatar": "https://avatars.slack-edge.com/2025-07-26/9280689847136_a253ded82a2dc9695476_original.png", "custom_css": null}, {"id": 19370, "slack_id": "U0974RRSUR5", "display_name": "Harshit", "bio": null, "projects_count": 0, "devlogs_count": 0, "votes_count": 0, "ships_count": 0, "projects": [], "coding_time_seconds": 0, "coding_time_seconds_today": 0, "balance": "You need to have a pocket watcher badge to view this.", "badges": [], "created_at": "2025-07-26T03:42:12.314-04:00", "updated_at": "2025-07-26T07:41:20.160-04:00", "avatar": "https://secure.gravatar.com/avatar/c5969ccffdacdc8db308e29780e6d16d.jpg?s=512&d=https%3A%2F%2Fa.slack-edge.com%2Fdf10d%2Fimg%2Favatars%2Fava_0012-512.png", "custom_css": null}, {"id": 19371, "slack_id": "U0988LKQ24Q", "display_name": "ParthKansara", "bio": null, "projects_count": 0, "devlogs_count": 0, "votes_count": 1, "ships_count": 0, "projects": [], "coding_time_seconds": 0, "coding_time_seconds_today": 0, "balance": "You need to have a pocket watcher badge to view this.", "badges": [], "created_at": "2025-07-26T03:49:20.931-04:00", "updated_at": "2025-07-26T07:41:20.240-04:00", "avatar": "https://secure.gravatar.com/avatar/aab82227e96111c0bacdf930a6305283.jpg?s=512&d=https%3A%2F%2Fa.slack-edge.com%2Fdf10d%2Fimg%2Favatars%2Fava_0006-512.png", "custom_css": null}, {"id": 19372, "slack_id": "U097FH1K3M1", "display_name": "Areeb Khan", "bio": null, "projects_count": 1, "devlogs_count": 1, "votes_count": 0, "ships_count": 0, "projects": [{"id": 8305, "title": "Nerva", "devlogs_count": 0, "created_at": "2025-07-26T04:39:08.421-04:00"}], "coding_time_seconds": 283, "coding_time_seconds_today": 0, "balance": "You need to have a pocket watcher badge to view this.", "badges": [], "created_at": "2025-07-26T03:51:25.534-04:00", "updated_at": "2025-07-26T11:20:08.053-04:00", "avatar": "https://secure.gravatar.com/avatar/628ec0eca4ce55fada45a510f511818a.jpg?s=512&d=https%3A%2F%2Fa.slack-edge.com%2Fdf10d%2Fimg%2Favatars%2Fava_0014-512.png", "custom_css": null}, {"id": 19373, "slack_id": "U097KCV9C13", "display_name": "Platon", "bio": "I'm learning how to code in python \r\n\r\nbeen learning seriously for a couple months ", "projects_count": 0, "devlogs_count": 0, "votes_count": 0, "ships_count": 0, "projects": [], "coding_time_seconds": 6416, "coding_time_seconds_today": 0, "balance": "You need to have a pocket watcher badge to view this.", "badges": [], "created_at": "2025-07-26T03:52:16.467-04:00", "updated_at": "2025-07-26T07:41:20.406-04:00", "avatar": "https://avatars.slack-edge.com/2025-07-26/9253642621091_fe55a444004d87a9189a_original.jpg", "custom_css": null}, {"id": 19374, "slack_id": "U01BY53MR16", "display_name": "Lukas Cao", "bio": null, "projects_count": 1, "devlogs_count": 1, "votes_count": 0, "ships_count": 0, "projects": [{"id": 8991, "title": "socceer", "devlogs_count": 1, "created_at": "2025-07-30T05:24:55.951-04:00"}], "coding_time_seconds": 49048, "coding_time_seconds_today": 0, "balance": "You need to have a pocket watcher badge to view this.", "badges": [], "created_at": "2025-07-26T04:01:57.472-04:00", "updated_at": "2025-07-26T18:06:05.914-04:00", "avatar": "https://avatars.slack-edge.com/2020-09-23/1367593871735_ba2da04bb27b9590b0f2_original.png", "custom_css": null}, {"id": 19375, "slack_id": "U097KDVJM0V", "display_name": "Daniel K", "bio": null, "projects_count": 0, "devlogs_count": 0, "votes_count": 0, "ships_count": 0, "projects": [], "coding_time_seconds": 0, "coding_time_seconds_today": 0, "balance": "You need to have a pocket watcher badge to view this.", "badges": [], "created_at": "2025-07-26T04:13:51.485-04:00", "updated_at": "2025-07-26T07:41:20.580-04:00", "avatar": "https://secure.gravatar.com/avatar/e2969e6035b0cd3a33b5831f2e898e1d.jpg?s=512&d=https%3A%2F%2Fa.slack-edge.com%2Fdf10d%2Fimg%2Favatars%2Fava_0014-512.png", "custom_css": null}, {"id": 19376, "slack_id": "U07ATEP2CSG", "display_name": "Mithilessh Bhasker", "bio": null, "projects_count": 0, "devlogs_count": 80, "votes_count": 30, "ships_count": 0, "projects": [], "coding_time_seconds": 829829, "coding_time_seconds_today": 0, "balance": "You need to have a pocket watcher badge to view this.", "badges": [], "created_at": "2025-07-26T04:17:29.162-04:00", "updated_at": "2025-08-07T21:36:41.664-04:00", "avatar": "https://secure.gravatar.com/avatar/4cda5bb3493560afc8baf9efa4f3c9fa.jpg?s=512&d=https%3A%2F%2Fa.slack-edge.com%2Fdf10d%2Fimg%2Favatars%2Fava_0008-512.png", "custom_css": null}, {"id": 19377, "slack_id": "U097LSFTTQA", "display_name": "Harsha Jallepalli", "bio": null, "projects_count": 0, "devlogs_count": 0, "votes_count": 0, "ships_count": 0, "projects": [], "coding_time_seconds": 0, "coding_time_seconds_today": 0, "balance": "You need to have a pocket watcher badge to view this.", "badges": [], "created_at": "2025-07-26T04:18:49.878-04:00", "updated_at": "2025-07-26T07:41:20.758-04:00", "avatar": "https://avatars.slack-edge.com/2025-07-26/9280754102800_d31cc656fa70f8480910_original.jpg", "custom_css": null}, {"id": 19378, "slack_id": "U0988N18Q2C", "display_name": "Arjun V Reddy", "bio": null, "projects_count": 0, "devlogs_count": 0, "votes_count": 0, "ships_count": 0, "projects": [], "coding_time_seconds": 0, "coding_time_seconds_today": 0, "balance": "You need to have a pocket watcher badge to view this.", "badges": [], "created_at": "2025-07-26T04:22:27.658-04:00", "updated_at": "2025-07-26T07:41:20.848-04:00", "avatar": "https://secure.gravatar.com/avatar/a94a1af63931ee8d2cdcedd170eaf676.jpg?s=512&d=https%3A%2F%2Fa.slack-edge.com%2Fdf10d%2Fimg%2Favatars%2Fava_0025-512.png", "custom_css": null}, {"id": 19379, "slack_id": "U097HJDEGKY", "display_name": "Hanish kafle", "bio": null, "projects_count": 0, "devlogs_count": 0, "votes_count": 0, "ships_count": 0, "projects": [], "coding_time_seconds": 0, "coding_time_seconds_today": 0, "balance": "You need to have a pocket watcher badge to view this.", "badges": [], "created_at": "2025-07-26T04:24:41.819-04:00", "updated_at": "2025-07-26T07:41:20.955-04:00", "avatar": "https://secure.gravatar.com/avatar/97a208ab16e025cb18f00e1d47344680.jpg?s=512&d=https%3A%2F%2Fa.slack-edge.com%2Fdf10d%2Fimg%2Favatars%2Fava_0009-512.png", "custom_css": null}, {"id": 19380, "slack_id": "U097FJQCUNP", "display_name": "imy", "bio": null, "projects_count": 0, "devlogs_count": 0, "votes_count": 0, "ships_count": 0, "projects": [], "coding_time_seconds": 0, "coding_time_seconds_today": 0, "balance": "You need to have a pocket watcher badge to view this.", "badges": [], "created_at": "2025-07-26T04:33:23.138-04:00", "updated_at": "2025-07-27T12:25:03.181-04:00", "avatar": "https://secure.gravatar.com/avatar/882a68b4e119e970cad52ebe03ce2d1d.jpg?s=512&d=https%3A%2F%2Fa.slack-edge.com%2Fdf10d%2Fimg%2Favatars%2Fava_0019-512.png", "custom_css": null}, {"id": 19381, "slack_id": "U0980ATSLRF", "display_name": "MOHAMMED FAIZAAN SHARIEF", "bio": null, "projects_count": 0, "devlogs_count": 0, "votes_count": 0, "ships_count": 0, "projects": [], "coding_time_seconds": 31183, "coding_time_seconds_today": 0, "balance": "You need to have a pocket watcher badge to view this.", "badges": [], "created_at": "2025-07-26T04:35:32.850-04:00", "updated_at": "2025-07-26T07:41:25.159-04:00", "avatar": "https://secure.gravatar.com/avatar/374d14c12292fff108b3c460a00e628f.jpg?s=512&d=https%3A%2F%2Fa.slack-edge.com%2Fdf10d%2Fimg%2Favatars%2Fava_0014-512.png", "custom_css": null}, {"id": 19382, "slack_id": "U097KG2F8FP", "display_name": "shalu", "bio": null, "projects_count": 0, "devlogs_count": 0, "votes_count": 0, "ships_count": 0, "projects": [], "coding_time_seconds": 0, "coding_time_seconds_today": 0, "balance": "You need to have a pocket watcher badge to view this.", "badges": [], "created_at": "2025-07-26T05:11:21.612-04:00", "updated_at": "2025-07-26T07:41:25.237-04:00", "avatar": "https://secure.gravatar.com/avatar/5fe4dd8f9ee4f35e1878836481b0b62a.jpg?s=512&d=https%3A%2F%2Fa.slack-edge.com%2Fdf10d%2Fimg%2Favatars%2Fava_0025-512.png", "custom_css": null}, {"id": 19383, "slack_id": "U097LUS74QJ", "display_name": "moraa", "bio": null, "projects_count": 0, "devlogs_count": 0, "votes_count": 0, "ships_count": 0, "projects": [], "coding_time_seconds": 0, "coding_time_seconds_today": 0, "balance": "You need to have a pocket watcher badge to view this.", "badges": [], "created_at": "2025-07-26T05:13:37.365-04:00", "updated_at": "2025-07-26T07:41:25.328-04:00", "avatar": "https://secure.gravatar.com/avatar/76bcc7daded6e7c1eb0cdcdffeed1b04.jpg?s=512&d=https%3A%2F%2Fa.slack-edge.com%2Fdf10d%2Fimg%2Favatars%2Fava_0023-512.png", "custom_css": null}, {"id": 19384, "slack_id": "U097M0S457U", "display_name": "bhavini", "bio": null, "projects_count": 0, "devlogs_count": 0, "votes_count": 0, "ships_count": 0, "projects": [], "coding_time_seconds": 0, "coding_time_seconds_today": 0, "balance": "You need to have a pocket watcher badge to view this.", "badges": [], "created_at": "2025-07-26T05:51:51.763-04:00", "updated_at": "2025-07-27T01:38:45.329-04:00", "avatar": "https://avatars.slack-edge.com/2025-07-26/9257660645717_dba46e6227ebdae3a9d9_original.png", "custom_css": null}, {"id": 19385, "slack_id": "U097MFQLB8U", "display_name": "Aditya", "bio": null, "projects_count": 0, "devlogs_count": 0, "votes_count": 0, "ships_count": 0, "projects": [], "coding_time_seconds": 0, "coding_time_seconds_today": 0, "balance": "You need to have a pocket watcher badge to view this.", "badges": [], "created_at": "2025-07-26T06:28:23.459-04:00", "updated_at": "2025-07-26T07:41:25.495-04:00", "avatar": "https://secure.gravatar.com/avatar/36d23ec6e0aecfe0baa7e01113c6e012.jpg?s=512&d=https%3A%2F%2Fa.slack-edge.com%2Fdf10d%2Fimg%2Favatars%2Fava_0019-512.png", "custom_css": null}], "pagination": {"page": 965, "pages": 1192, "count": 23828, "items": 20}}