{"users": [{"id": 19386, "slack_id": "U092JM3E2K1", "display_name": "shubham", "bio": null, "projects_count": 0, "devlogs_count": 0, "votes_count": 0, "ships_count": 0, "projects": [], "coding_time_seconds": 0, "coding_time_seconds_today": 0, "balance": "You need to have a pocket watcher badge to view this.", "badges": [], "created_at": "2025-07-26T06:31:28.005-04:00", "updated_at": "2025-07-26T07:41:25.582-04:00", "avatar": "https://secure.gravatar.com/avatar/d2f8d54ca77967dd97ad9206c89a3b71.jpg?s=512&d=https%3A%2F%2Fa.slack-edge.com%2Fdf10d%2Fimg%2Favatars%2Fava_0018-512.png", "custom_css": null}, {"id": 19387, "slack_id": "U097HPGM5DL", "display_name": "Rehan Akhtar", "bio": null, "projects_count": 0, "devlogs_count": 0, "votes_count": 0, "ships_count": 0, "projects": [], "coding_time_seconds": 59212, "coding_time_seconds_today": 0, "balance": "You need to have a pocket watcher badge to view this.", "badges": [], "created_at": "2025-07-26T06:33:13.815-04:00", "updated_at": "2025-07-26T11:41:15.089-04:00", "avatar": "https://avatars.slack-edge.com/2025-07-26/9243137776151_8172c9ffc811a04a8eff_original.png", "custom_css": null}, {"id": 19388, "slack_id": "U097FPQ5CP5", "display_name": "Lio", "bio": null, "projects_count": 1, "devlogs_count": 4, "votes_count": 0, "ships_count": 1, "projects": [{"id": 8352, "title": "PlayBox", "devlogs_count": 4, "created_at": "2025-07-26T11:59:16.214-04:00"}], "coding_time_seconds": 47526, "coding_time_seconds_today": 0, "balance": "You need to have a pocket watcher badge to view this.", "badges": [], "created_at": "2025-07-26T06:38:31.991-04:00", "updated_at": "2025-07-28T20:15:51.736-04:00", "avatar": "https://avatars.slack-edge.com/2025-07-28/9286765157568_23b086c0622446344236_original.jpg", "custom_css": null}, {"id": 19389, "slack_id": "U097KLGDF7F", "display_name": "MUHAMMAD BILAL", "bio": null, "projects_count": 0, "devlogs_count": 0, "votes_count": 0, "ships_count": 0, "projects": [], "coding_time_seconds": 523395, "coding_time_seconds_today": 0, "balance": "You need to have a pocket watcher badge to view this.", "badges": [], "created_at": "2025-07-26T06:53:17.255-04:00", "updated_at": "2025-07-26T11:00:50.147-04:00", "avatar": "https://avatars.slack-edge.com/2025-07-26/9280969860000_120364af7fe0871d7516_original.jpg", "custom_css": null}, {"id": 19390, "slack_id": "U097FQFGMT5", "display_name": "SyedArafat", "bio": null, "projects_count": 0, "devlogs_count": 0, "votes_count": 0, "ships_count": 0, "projects": [], "coding_time_seconds": 0, "coding_time_seconds_today": 0, "balance": "You need to have a pocket watcher badge to view this.", "badges": [], "created_at": "2025-07-26T06:58:29.311-04:00", "updated_at": "2025-07-26T07:41:29.978-04:00", "avatar": "https://secure.gravatar.com/avatar/e3a8ad978edde7e9b123ea1b9455eb46.jpg?s=512&d=https%3A%2F%2Fa.slack-edge.com%2Fdf10d%2Fimg%2Favatars%2Fava_0003-512.png", "custom_css": null}, {"id": 19391, "slack_id": "U086R89T8H3", "display_name": "Ian Rutagengwa", "bio": null, "projects_count": 2, "devlogs_count": 2, "votes_count": 9, "ships_count": 1, "projects": [{"id": 8467, "title": "Rwamoto", "devlogs_count": 1, "created_at": "2025-07-27T11:19:56.956-04:00"}, {"id": 10352, "title": "VUE.JS - JOBS", "devlogs_count": 1, "created_at": "2025-08-06T07:12:10.321-04:00"}], "coding_time_seconds": 70401, "coding_time_seconds_today": 0, "balance": "You need to have a pocket watcher badge to view this.", "badges": [], "created_at": "2025-07-26T07:28:25.479-04:00", "updated_at": "2025-08-10T12:17:33.766-04:00", "avatar": "https://avatars.slack-edge.com/2024-12-30/8234660541012_69c412c11ca67803c153_original.png", "custom_css": null}, {"id": 19392, "slack_id": "U0988P29ZMW", "display_name": "Ismael Reina", "bio": null, "projects_count": 0, "devlogs_count": 0, "votes_count": 0, "ships_count": 0, "projects": [], "coding_time_seconds": 0, "coding_time_seconds_today": 0, "balance": "You need to have a pocket watcher badge to view this.", "badges": [], "created_at": "2025-07-26T07:42:33.906-04:00", "updated_at": "2025-07-26T15:28:36.011-04:00", "avatar": "https://secure.gravatar.com/avatar/df18632f806093c18265e7745efe1349.jpg?s=512&d=https%3A%2F%2Fa.slack-edge.com%2Fdf10d%2Fimg%2Favatars%2Fava_0003-512.png", "custom_css": null}, {"id": 19393, "slack_id": "U097KMJN71T", "display_name": "AlLo", "bio": null, "projects_count": 0, "devlogs_count": 0, "votes_count": 0, "ships_count": 0, "projects": [], "coding_time_seconds": 0, "coding_time_seconds_today": 0, "balance": "You need to have a pocket watcher badge to view this.", "badges": [], "created_at": "2025-07-26T07:42:38.173-04:00", "updated_at": "2025-07-26T15:28:36.119-04:00", "avatar": "https://secure.gravatar.com/avatar/2f517bebbd653d53d93215b215e1820d.jpg?s=512&d=https%3A%2F%2Fa.slack-edge.com%2Fdf10d%2Fimg%2Favatars%2Fava_0006-512.png", "custom_css": null}, {"id": 19394, "slack_id": "U097MK74WFN", "display_name": "Jose", "bio": null, "projects_count": 0, "devlogs_count": 0, "votes_count": 0, "ships_count": 0, "projects": [], "coding_time_seconds": 801, "coding_time_seconds_today": 0, "balance": "You need to have a pocket watcher badge to view this.", "badges": [], "created_at": "2025-07-26T07:54:39.459-04:00", "updated_at": "2025-07-26T15:28:36.194-04:00", "avatar": "https://secure.gravatar.com/avatar/cac28a1eb4847ed7bb79bfd9a7f333cb.jpg?s=512&d=https%3A%2F%2Fa.slack-edge.com%2Fdf10d%2Fimg%2Favatars%2Fava_0023-512.png", "custom_css": null}, {"id": 19395, "slack_id": "U097MKYKAAY", "display_name": "Shubham", "bio": null, "projects_count": 0, "devlogs_count": 0, "votes_count": 0, "ships_count": 0, "projects": [], "coding_time_seconds": 0, "coding_time_seconds_today": 0, "balance": "You need to have a pocket watcher badge to view this.", "badges": [], "created_at": "2025-07-26T08:12:13.833-04:00", "updated_at": "2025-07-26T15:28:36.291-04:00", "avatar": "https://secure.gravatar.com/avatar/14d0bef5d3ebf4acd05343e1bf3964e4.jpg?s=512&d=https%3A%2F%2Fa.slack-edge.com%2Fdf10d%2Fimg%2Favatars%2Fava_0002-512.png", "custom_css": null}, {"id": 19396, "slack_id": "U097M6P45PC", "display_name": "Nivaan Srivastava", "bio": null, "projects_count": 0, "devlogs_count": 0, "votes_count": 0, "ships_count": 0, "projects": [], "coding_time_seconds": 0, "coding_time_seconds_today": 0, "balance": "You need to have a pocket watcher badge to view this.", "badges": [], "created_at": "2025-07-26T08:24:31.499-04:00", "updated_at": "2025-08-02T08:47:44.023-04:00", "avatar": "https://avatars.slack-edge.com/2025-07-26/9257834734373_eb3d44d2e96fbd06dd33_original.png", "custom_css": null}, {"id": 19397, "slack_id": "U0980MJQPNV", "display_name": "Cameron Yarnall", "bio": "", "projects_count": 0, "devlogs_count": 0, "votes_count": 0, "ships_count": 0, "projects": [], "coding_time_seconds": 0, "coding_time_seconds_today": 0, "balance": "You need to have a pocket watcher badge to view this.", "badges": [], "created_at": "2025-07-26T08:31:32.605-04:00", "updated_at": "2025-07-26T15:28:36.460-04:00", "avatar": "https://avatars.slack-edge.com/2025-07-26/9255967417078_73e14a200cc629a7f7f5_original.png", "custom_css": null}, {"id": 19398, "slack_id": "U097MLU77NG", "display_name": "Afzal", "bio": null, "projects_count": 0, "devlogs_count": 0, "votes_count": 0, "ships_count": 0, "projects": [], "coding_time_seconds": 0, "coding_time_seconds_today": 0, "balance": "You need to have a pocket watcher badge to view this.", "badges": [], "created_at": "2025-07-26T08:36:33.378-04:00", "updated_at": "2025-07-26T15:28:36.553-04:00", "avatar": "https://secure.gravatar.com/avatar/9633811c7c65361b41ea48aa3360375f.jpg?s=512&d=https%3A%2F%2Fa.slack-edge.com%2Fdf10d%2Fimg%2Favatars%2Fava_0010-512.png", "custom_css": null}, {"id": 19399, "slack_id": "U097594SVPZ", "display_name": "dev", "bio": null, "projects_count": 1, "devlogs_count": 0, "votes_count": 0, "ships_count": 0, "projects": [{"id": 8344, "title": "online judge", "devlogs_count": 0, "created_at": "2025-07-26T11:19:00.403-04:00"}], "coding_time_seconds": 0, "coding_time_seconds_today": 0, "balance": "You need to have a pocket watcher badge to view this.", "badges": [], "created_at": "2025-07-26T08:39:26.164-04:00", "updated_at": "2025-07-26T15:28:36.634-04:00", "avatar": "https://secure.gravatar.com/avatar/b9c500ebfab488a8249e3101db58ae69.jpg?s=512&d=https%3A%2F%2Fa.slack-edge.com%2Fdf10d%2Fimg%2Favatars%2Fava_0000-512.png", "custom_css": null}, {"id": 19400, "slack_id": "U097FUY2J3V", "display_name": "aharshit123456", "bio": null, "projects_count": 0, "devlogs_count": 0, "votes_count": 0, "ships_count": 0, "projects": [], "coding_time_seconds": 0, "coding_time_seconds_today": 0, "balance": "You need to have a pocket watcher badge to view this.", "badges": [], "created_at": "2025-07-26T08:47:12.441-04:00", "updated_at": "2025-07-26T15:28:36.723-04:00", "avatar": "https://secure.gravatar.com/avatar/a1cf2d12ed82c785cbfa5c994c7c0edc.jpg?s=512&d=https%3A%2F%2Fa.slack-edge.com%2Fdf10d%2Fimg%2Favatars%2Fava_0001-512.png", "custom_css": null}, {"id": 19401, "slack_id": "U0975A6HHC7", "display_name": "winicu", "bio": null, "projects_count": 0, "devlogs_count": 0, "votes_count": 0, "ships_count": 0, "projects": [], "coding_time_seconds": 0, "coding_time_seconds_today": 0, "balance": "You need to have a pocket watcher badge to view this.", "badges": [], "created_at": "2025-07-26T09:02:09.426-04:00", "updated_at": "2025-07-26T15:28:40.842-04:00", "avatar": "https://avatars.slack-edge.com/2025-07-26/9259762576068_0bb3fd6522f418d52f3c_original.png", "custom_css": null}, {"id": 19402, "slack_id": "U097M8L32Q2", "display_name": "Santiago Mamian", "bio": null, "projects_count": 0, "devlogs_count": 0, "votes_count": 0, "ships_count": 0, "projects": [], "coding_time_seconds": 0, "coding_time_seconds_today": 0, "balance": "You need to have a pocket watcher badge to view this.", "badges": [], "created_at": "2025-07-26T09:10:01.041-04:00", "updated_at": "2025-07-26T15:28:40.928-04:00", "avatar": "https://avatars.slack-edge.com/2025-07-26/9254028266131_ea474785082be20c5a1d_original.png", "custom_css": null}, {"id": 19403, "slack_id": "U09894HL8AU", "display_name": "Pascal L\u00f6sch", "bio": null, "projects_count": 2, "devlogs_count": 8, "votes_count": 101, "ships_count": 2, "projects": [{"id": 12377, "title": "Find the Tiles", "devlogs_count": 7, "created_at": "2025-08-26T11:50:19.676-04:00"}, {"id": 12411, "title": "Phexor", "devlogs_count": 1, "created_at": "2025-08-27T04:43:51.147-04:00"}], "coding_time_seconds": 188632, "coding_time_seconds_today": 0, "balance": "You need to have a pocket watcher badge to view this.", "badges": [{"name": "Maiden Voyage", "text": "you shipped your first project! the journey begins...", "icon": "\ud83d\udea2"}, {"name": "Ballot Stuffer", "text": "vote 100 times.", "icon": "https://summer.hackclub.com/assets/i_voted-bf851b48.png"}], "created_at": "2025-07-26T09:11:17.418-04:00", "updated_at": "2025-09-23T07:07:29.131-04:00", "avatar": "https://avatars.slack-edge.com/2025-07-26/9281170609936_a0e147230c0b04390e4d_original.jpg", "custom_css": null}, {"id": 19404, "slack_id": "U0980Q3RVHP", "display_name": "Grace Chepkemoi", "bio": null, "projects_count": 0, "devlogs_count": 0, "votes_count": 0, "ships_count": 0, "projects": [], "coding_time_seconds": 0, "coding_time_seconds_today": 0, "balance": "You need to have a pocket watcher badge to view this.", "badges": [], "created_at": "2025-07-26T09:24:38.773-04:00", "updated_at": "2025-08-05T09:54:06.749-04:00", "avatar": "https://avatars.slack-edge.com/2025-08-05/9328408011184_48041694460111bb67d8_original.jpg", "custom_css": null}, {"id": 19405, "slack_id": "U097G1SG2F5", "display_name": "McBoss", "bio": null, "projects_count": 0, "devlogs_count": 0, "votes_count": 0, "ships_count": 0, "projects": [], "coding_time_seconds": 76859, "coding_time_seconds_today": 0, "balance": "You need to have a pocket watcher badge to view this.", "badges": [], "created_at": "2025-07-26T09:38:12.895-04:00", "updated_at": "2025-08-05T10:53:37.313-04:00", "avatar": "https://secure.gravatar.com/avatar/640b398a9dda724ae0de24e8fd235883.jpg?s=512&d=https%3A%2F%2Fa.slack-edge.com%2Fdf10d%2Fimg%2Favatars%2Fava_0008-512.png", "custom_css": null}], "pagination": {"page": 966, "pages": 1192, "count": 23828, "items": 20}}