{"users": [{"id": 19406, "slack_id": "U0975BTSX3R", "display_name": "Hasnain Riaz", "bio": null, "projects_count": 0, "devlogs_count": 0, "votes_count": 0, "ships_count": 0, "projects": [], "coding_time_seconds": 0, "coding_time_seconds_today": 0, "balance": "You need to have a pocket watcher badge to view this.", "badges": [], "created_at": "2025-07-26T09:40:56.364-04:00", "updated_at": "2025-07-26T15:28:41.398-04:00", "avatar": "https://secure.gravatar.com/avatar/b74ccda9bc3451c07e2800f223927275.jpg?s=512&d=https%3A%2F%2Fa.slack-edge.com%2Fdf10d%2Fimg%2Favatars%2Fava_0016-512.png", "custom_css": null}, {"id": 19407, "slack_id": "U097J1T70TG", "display_name": "Xiao EDen", "bio": null, "projects_count": 0, "devlogs_count": 0, "votes_count": 0, "ships_count": 0, "projects": [], "coding_time_seconds": 0, "coding_time_seconds_today": 0, "balance": "You need to have a pocket watcher badge to view this.", "badges": [], "created_at": "2025-07-26T09:41:41.680-04:00", "updated_at": "2025-07-26T15:28:41.507-04:00", "avatar": "https://secure.gravatar.com/avatar/2f0cc972b442d3b74c239993317fa35a.jpg?s=512&d=https%3A%2F%2Fa.slack-edge.com%2Fdf10d%2Fimg%2Favatars%2Fava_0011-512.png", "custom_css": null}, {"id": 19408, "slack_id": "U097J20QTAA", "display_name": "Tan", "bio": null, "projects_count": 0, "devlogs_count": 0, "votes_count": 0, "ships_count": 0, "projects": [], "coding_time_seconds": 158, "coding_time_seconds_today": 0, "balance": "You need to have a pocket watcher badge to view this.", "badges": [], "created_at": "2025-07-26T09:47:18.957-04:00", "updated_at": "2025-07-26T15:28:41.589-04:00", "avatar": "https://secure.gravatar.com/avatar/ee073192b53dc95aae5bd180da45add8.jpg?s=512&d=https%3A%2F%2Fa.slack-edge.com%2Fdf10d%2Fimg%2Favatars%2Fava_0005-512.png", "custom_css": null}, {"id": 19409, "slack_id": "U097J2AH36J", "display_name": "Thu\u1ef3 Mini World", "bio": null, "projects_count": 0, "devlogs_count": 0, "votes_count": 0, "ships_count": 0, "projects": [], "coding_time_seconds": 0, "coding_time_seconds_today": 0, "balance": "You need to have a pocket watcher badge to view this.", "badges": [], "created_at": "2025-07-26T09:53:41.092-04:00", "updated_at": "2025-07-26T15:28:41.675-04:00", "avatar": "https://avatars.slack-edge.com/2025-07-26/9243428911575_6b18f101e2a6681f4940_original.jpg", "custom_css": null}, {"id": 19410, "slack_id": "U09896Q5B24", "display_name": "Mehmet Battal", "bio": null, "projects_count": 0, "devlogs_count": 0, "votes_count": 0, "ships_count": 0, "projects": [], "coding_time_seconds": 52804, "coding_time_seconds_today": 2295, "balance": "You need to have a pocket watcher badge to view this.", "badges": [], "created_at": "2025-07-26T09:57:57.616-04:00", "updated_at": "2025-07-26T15:28:41.763-04:00", "avatar": "https://avatars.slack-edge.com/2025-07-26/9256089761494_759dd6ede7be6ca01c93_original.png", "custom_css": null}, {"id": 19411, "slack_id": "U097KUDE4VB", "display_name": "Raunak Kumar", "bio": null, "projects_count": 0, "devlogs_count": 0, "votes_count": 0, "ships_count": 0, "projects": [], "coding_time_seconds": 0, "coding_time_seconds_today": 0, "balance": "You need to have a pocket watcher badge to view this.", "badges": [], "created_at": "2025-07-26T09:59:29.160-04:00", "updated_at": "2025-07-27T13:29:35.409-04:00", "avatar": "https://avatars.slack-edge.com/2025-07-27/9274752788433_041b7dc25b5e88dc0260_original.png", "custom_css": null}, {"id": 19412, "slack_id": "U0980RTADHP", "display_name": "Aditya Kumar", "bio": null, "projects_count": 0, "devlogs_count": 0, "votes_count": 0, "ships_count": 0, "projects": [], "coding_time_seconds": 0, "coding_time_seconds_today": 0, "balance": "You need to have a pocket watcher badge to view this.", "badges": [], "created_at": "2025-07-26T09:59:52.755-04:00", "updated_at": "2025-07-26T15:28:41.991-04:00", "avatar": "https://secure.gravatar.com/avatar/a3c0dbd6e3004190badf3b8375459d95.jpg?s=512&d=https%3A%2F%2Fa.slack-edge.com%2Fdf10d%2Fimg%2Favatars%2Fava_0009-512.png", "custom_css": null}, {"id": 19413, "slack_id": "U097MAXNSJW", "display_name": "dogancanbakir", "bio": null, "projects_count": 0, "devlogs_count": 0, "votes_count": 0, "ships_count": 0, "projects": [], "coding_time_seconds": 0, "coding_time_seconds_today": 0, "balance": "You need to have a pocket watcher badge to view this.", "badges": [], "created_at": "2025-07-26T10:06:04.286-04:00", "updated_at": "2025-07-26T15:28:42.095-04:00", "avatar": "https://secure.gravatar.com/avatar/c1808517d37edc3486efa902c7e3bc99.jpg?s=512&d=https%3A%2F%2Fa.slack-edge.com%2Fdf10d%2Fimg%2Favatars%2Fava_0012-512.png", "custom_css": null}, {"id": 19414, "slack_id": "U097KUTM5HT", "display_name": "Tabeer", "bio": null, "projects_count": 0, "devlogs_count": 0, "votes_count": 0, "ships_count": 0, "projects": [], "coding_time_seconds": 0, "coding_time_seconds_today": 0, "balance": "You need to have a pocket watcher badge to view this.", "badges": [], "created_at": "2025-07-26T10:08:38.947-04:00", "updated_at": "2025-07-26T15:28:42.232-04:00", "avatar": "https://secure.gravatar.com/avatar/1c59f6682af2f4b52c1dd2c1188cf86b.jpg?s=512&d=https%3A%2F%2Fa.slack-edge.com%2Fdf10d%2Fimg%2Favatars%2Fava_0001-512.png", "custom_css": null}, {"id": 19415, "slack_id": "U097J36JCB0", "display_name": "Merve", "bio": null, "projects_count": 0, "devlogs_count": 0, "votes_count": 0, "ships_count": 0, "projects": [], "coding_time_seconds": 0, "coding_time_seconds_today": 0, "balance": "You need to have a pocket watcher badge to view this.", "badges": [], "created_at": "2025-07-26T10:12:59.997-04:00", "updated_at": "2025-07-26T15:28:42.310-04:00", "avatar": "https://secure.gravatar.com/avatar/e87270f07124688de10807a39853a0b9.jpg?s=512&d=https%3A%2F%2Fa.slack-edge.com%2Fdf10d%2Fimg%2Favatars%2Fava_0026-512.png", "custom_css": null}, {"id": 19416, "slack_id": "U0975DC6V9D", "display_name": "renji_riverstone", "bio": null, "projects_count": 0, "devlogs_count": 0, "votes_count": 0, "ships_count": 0, "projects": [], "coding_time_seconds": 0, "coding_time_seconds_today": 0, "balance": "You need to have a pocket watcher badge to view this.", "badges": [], "created_at": "2025-07-26T10:16:01.297-04:00", "updated_at": "2025-07-26T15:28:42.441-04:00", "avatar": "https://secure.gravatar.com/avatar/40f0ebb59a3e13a8c6155d25e929dda0.jpg?s=512&d=https%3A%2F%2Fa.slack-edge.com%2Fdf10d%2Fimg%2Favatars%2Fava_0012-512.png", "custom_css": null}, {"id": 19417, "slack_id": "U097J3CH0UW", "display_name": "Satya Sundar", "bio": null, "projects_count": 0, "devlogs_count": 0, "votes_count": 0, "ships_count": 0, "projects": [], "coding_time_seconds": 0, "coding_time_seconds_today": 0, "balance": "You need to have a pocket watcher badge to view this.", "badges": [], "created_at": "2025-07-26T10:20:23.862-04:00", "updated_at": "2025-07-26T15:28:42.541-04:00", "avatar": "https://secure.gravatar.com/avatar/72fe1e286ec9b6877e39f306423aa9d1.jpg?s=512&d=https%3A%2F%2Fa.slack-edge.com%2Fdf10d%2Fimg%2Favatars%2Fava_0021-512.png", "custom_css": null}, {"id": 19418, "slack_id": "U097MRPK268", "display_name": "Zaid Alsaheb", "bio": null, "projects_count": 0, "devlogs_count": 0, "votes_count": 0, "ships_count": 0, "projects": [], "coding_time_seconds": 74776, "coding_time_seconds_today": 0, "balance": "You need to have a pocket watcher badge to view this.", "badges": [], "created_at": "2025-07-26T10:22:22.988-04:00", "updated_at": "2025-07-26T15:28:42.633-04:00", "avatar": "https://secure.gravatar.com/avatar/0e2f609380125f01c32c3729b7a44390.jpg?s=512&d=https%3A%2F%2Fa.slack-edge.com%2Fdf10d%2Fimg%2Favatars%2Fava_0023-512.png", "custom_css": null}, {"id": 19419, "slack_id": "U097MRVB4NQ", "display_name": "Cqrrqpted", "bio": "Howdy!\r\njust a lovely lad whos into coding", "projects_count": 0, "devlogs_count": 9, "votes_count": 27, "ships_count": 0, "projects": [], "coding_time_seconds": 307037, "coding_time_seconds_today": 0, "balance": "You need to have a pocket watcher badge to view this.", "badges": [], "created_at": "2025-07-26T10:24:28.969-04:00", "updated_at": "2025-08-09T01:38:21.856-04:00", "avatar": "https://secure.gravatar.com/avatar/dbde739fc72b69c982d3fbc60423fca1.jpg?s=512&d=https%3A%2F%2Fa.slack-edge.com%2Fdf10d%2Fimg%2Favatars%2Fava_0016-512.png", "custom_css": null}, {"id": 19420, "slack_id": "U0980T7JF4H", "display_name": "Showaiz", "bio": null, "projects_count": 0, "devlogs_count": 3, "votes_count": 3, "ships_count": 0, "projects": [], "coding_time_seconds": 32902, "coding_time_seconds_today": 0, "balance": "You need to have a pocket watcher badge to view this.", "badges": [], "created_at": "2025-07-26T10:32:09.528-04:00", "updated_at": "2025-08-12T18:27:21.322-04:00", "avatar": "https://secure.gravatar.com/avatar/70201e264270adec52473723ee35f2a2.jpg?s=512&d=https%3A%2F%2Fa.slack-edge.com%2Fdf10d%2Fimg%2Favatars%2Fava_0024-512.png", "custom_css": null}, {"id": 19421, "slack_id": "U097MDQRM7C", "display_name": "Vanshika Ludhani", "bio": null, "projects_count": 0, "devlogs_count": 0, "votes_count": 0, "ships_count": 0, "projects": [], "coding_time_seconds": 0, "coding_time_seconds_today": 0, "balance": "You need to have a pocket watcher badge to view this.", "badges": [], "created_at": "2025-07-26T11:10:05.517-04:00", "updated_at": "2025-07-26T15:28:46.961-04:00", "avatar": "https://avatars.slack-edge.com/2025-07-26/9243547467527_d6234ee8a7fc73f36c55_original.jpg", "custom_css": null}, {"id": 19422, "slack_id": "U0975G2PE95", "display_name": "Shriya Poudel", "bio": null, "projects_count": 0, "devlogs_count": 0, "votes_count": 0, "ships_count": 0, "projects": [], "coding_time_seconds": 0, "coding_time_seconds_today": 0, "balance": "You need to have a pocket watcher badge to view this.", "badges": [], "created_at": "2025-07-26T11:15:36.516-04:00", "updated_at": "2025-09-17T13:42:32.791-04:00", "avatar": "https://secure.gravatar.com/avatar/39b99ca4602f6d01cd0442308cfc9ff3.jpg?s=512&d=https%3A%2F%2Fa.slack-edge.com%2Fdf10d%2Fimg%2Favatars%2Fava_0000-512.png", "custom_css": null}, {"id": 19423, "slack_id": "U097MV1QGE8", "display_name": "TimeX", "bio": null, "projects_count": 0, "devlogs_count": 0, "votes_count": 0, "ships_count": 0, "projects": [], "coding_time_seconds": 0, "coding_time_seconds_today": 0, "balance": "You need to have a pocket watcher badge to view this.", "badges": [], "created_at": "2025-07-26T11:34:34.501-04:00", "updated_at": "2025-07-26T15:28:47.413-04:00", "avatar": "https://secure.gravatar.com/avatar/f5f833034dac51135b9986bd3fb54c32.jpg?s=512&d=https%3A%2F%2Fa.slack-edge.com%2Fdf10d%2Fimg%2Favatars%2Fava_0020-512.png", "custom_css": null}, {"id": 19424, "slack_id": "U097G76ASAF", "display_name": "Awab", "bio": null, "projects_count": 0, "devlogs_count": 0, "votes_count": 0, "ships_count": 0, "projects": [], "coding_time_seconds": 128901, "coding_time_seconds_today": 0, "balance": "You need to have a pocket watcher badge to view this.", "badges": [], "created_at": "2025-07-26T11:40:10.556-04:00", "updated_at": "2025-07-26T15:28:47.507-04:00", "avatar": "https://secure.gravatar.com/avatar/de5daf631924db16cfa1473e79a334da.jpg?s=512&d=https%3A%2F%2Fa.slack-edge.com%2Fdf10d%2Fimg%2Favatars%2Fava_0019-512.png", "custom_css": null}, {"id": 19425, "slack_id": "U097N0EQRHA", "display_name": "rehan", "bio": null, "projects_count": 0, "devlogs_count": 0, "votes_count": 0, "ships_count": 0, "projects": [], "coding_time_seconds": 0, "coding_time_seconds_today": 0, "balance": "You need to have a pocket watcher badge to view this.", "badges": [], "created_at": "2025-07-26T11:49:12.500-04:00", "updated_at": "2025-07-26T15:28:47.590-04:00", "avatar": "https://secure.gravatar.com/avatar/893c07820eae0906e1de57652a8cdca3.jpg?s=512&d=https%3A%2F%2Fa.slack-edge.com%2Fdf10d%2Fimg%2Favatars%2Fava_0025-512.png", "custom_css": null}], "pagination": {"page": 967, "pages": 1192, "count": 23828, "items": 20}}