{"users": [{"id": 19446, "slack_id": "U097GEF7ELT", "display_name": "Jakub", "bio": null, "projects_count": 0, "devlogs_count": 0, "votes_count": 0, "ships_count": 0, "projects": [], "coding_time_seconds": 0, "coding_time_seconds_today": 0, "balance": "You need to have a pocket watcher badge to view this.", "badges": [], "created_at": "2025-07-26T14:30:26.107-04:00", "updated_at": "2025-07-26T15:28:53.535-04:00", "avatar": "https://secure.gravatar.com/avatar/08c18776f9279f0c221a4ab5f7374873.jpg?s=512&d=https%3A%2F%2Fa.slack-edge.com%2Fdf10d%2Fimg%2Favatars%2Fava_0014-512.png", "custom_css": null}, {"id": 19447, "slack_id": "U097MNJCAUS", "display_name": "Ningsang Jabegu", "bio": null, "projects_count": 0, "devlogs_count": 0, "votes_count": 0, "ships_count": 0, "projects": [], "coding_time_seconds": 29171, "coding_time_seconds_today": 0, "balance": "You need to have a pocket watcher badge to view this.", "badges": [], "created_at": "2025-07-26T14:33:06.633-04:00", "updated_at": "2025-07-26T15:28:53.713-04:00", "avatar": "https://secure.gravatar.com/avatar/a7381e89153f9b8951cb989ad1dd994a.jpg?s=512&d=https%3A%2F%2Fa.slack-edge.com%2Fdf10d%2Fimg%2Favatars%2Fava_0019-512.png", "custom_css": null}, {"id": 19448, "slack_id": "U0979K8LWRL", "display_name": "Linus", "bio": "", "projects_count": 0, "devlogs_count": 0, "votes_count": 2, "ships_count": 0, "projects": [], "coding_time_seconds": 0, "coding_time_seconds_today": 0, "balance": "You need to have a pocket watcher badge to view this.", "badges": [], "created_at": "2025-07-26T14:36:20.706-04:00", "updated_at": "2025-08-08T04:05:49.597-04:00", "avatar": "https://secure.gravatar.com/avatar/0c403d2820e775fba90054db833d2064.jpg?s=512&d=https%3A%2F%2Fa.slack-edge.com%2Fdf10d%2Fimg%2Favatars%2Fava_0014-512.png", "custom_css": null}, {"id": 19449, "slack_id": "U097GFBBF0B", "display_name": "Elias", "bio": null, "projects_count": 0, "devlogs_count": 0, "votes_count": 1, "ships_count": 0, "projects": [], "coding_time_seconds": 6784, "coding_time_seconds_today": 0, "balance": "You need to have a pocket watcher badge to view this.", "badges": [], "created_at": "2025-07-26T14:52:03.391-04:00", "updated_at": "2025-07-26T15:28:53.905-04:00", "avatar": "https://secure.gravatar.com/avatar/a44ffc705797183021dd670dff135ccd.jpg?s=512&d=https%3A%2F%2Fa.slack-edge.com%2Fdf10d%2Fimg%2Favatars%2Fava_0022-512.png", "custom_css": null}, {"id": 19450, "slack_id": "U097G17RCM9", "display_name": "Shlok Sarda", "bio": null, "projects_count": 0, "devlogs_count": 0, "votes_count": 0, "ships_count": 0, "projects": [], "coding_time_seconds": 0, "coding_time_seconds_today": 0, "balance": "You need to have a pocket watcher badge to view this.", "badges": [], "created_at": "2025-07-26T15:22:40.188-04:00", "updated_at": "2025-07-26T21:57:59.721-04:00", "avatar": "https://secure.gravatar.com/avatar/e7a97d6c8b915556517684b59d4527f1.jpg?s=512&d=https%3A%2F%2Fa.slack-edge.com%2Fdf10d%2Fimg%2Favatars%2Fava_0019-512.png", "custom_css": null}, {"id": 19451, "slack_id": "U097JGB4PEJ", "display_name": "Epshita", "bio": null, "projects_count": 0, "devlogs_count": 0, "votes_count": 0, "ships_count": 0, "projects": [], "coding_time_seconds": 0, "coding_time_seconds_today": 0, "balance": "You need to have a pocket watcher badge to view this.", "badges": [], "created_at": "2025-07-26T15:26:03.911-04:00", "updated_at": "2025-07-26T21:57:59.801-04:00", "avatar": "https://secure.gravatar.com/avatar/5715ad89524db5b97560a6dc9b651497.jpg?s=512&d=https%3A%2F%2Fa.slack-edge.com%2Fdf10d%2Fimg%2Favatars%2Fava_0005-512.png", "custom_css": null}, {"id": 19452, "slack_id": "U097LD6EJER", "display_name": "Luana Margarida", "bio": "junior c# dev :3\r\n", "projects_count": 0, "devlogs_count": 0, "votes_count": 1, "ships_count": 0, "projects": [], "coding_time_seconds": 12006, "coding_time_seconds_today": 0, "balance": "You need to have a pocket watcher badge to view this.", "badges": [], "created_at": "2025-07-26T15:30:38.011-04:00", "updated_at": "2025-07-27T22:07:18.328-04:00", "avatar": "https://avatars.slack-edge.com/2025-07-26/9254586014995_b08e28313144021810ca_original.png", "custom_css": null}, {"id": 19453, "slack_id": "U097GH1TF1R", "display_name": "Jmeow's Unverified Alt", "bio": null, "projects_count": 0, "devlogs_count": 0, "votes_count": 0, "ships_count": 0, "projects": [], "coding_time_seconds": 0, "coding_time_seconds_today": 0, "balance": "You need to have a pocket watcher badge to view this.", "badges": [], "created_at": "2025-07-26T15:34:56.289-04:00", "updated_at": "2025-07-26T21:57:59.966-04:00", "avatar": "https://secure.gravatar.com/avatar/0cea0ca73fc28179ebc0b3fd49f177f5.jpg?s=512&d=https%3A%2F%2Fa.slack-edge.com%2Fdf10d%2Fimg%2Favatars%2Fava_0020-512.png", "custom_css": null}, {"id": 19454, "slack_id": "U097JEVAPL6", "display_name": "Noah", "bio": null, "projects_count": 0, "devlogs_count": 0, "votes_count": 0, "ships_count": 0, "projects": [], "coding_time_seconds": 0, "coding_time_seconds_today": 0, "balance": "You need to have a pocket watcher badge to view this.", "badges": [], "created_at": "2025-07-26T15:43:54.666-04:00", "updated_at": "2025-08-12T22:51:07.348-04:00", "avatar": "https://avatars.slack-edge.com/2025-08-10/9325950536947_72abda7a6c3726127ec7_original.jpg", "custom_css": null}, {"id": 19455, "slack_id": "U097NB2RSCU", "display_name": "Tom Behrens", "bio": null, "projects_count": 0, "devlogs_count": 0, "votes_count": 0, "ships_count": 0, "projects": [], "coding_time_seconds": 0, "coding_time_seconds_today": 0, "balance": "You need to have a pocket watcher badge to view this.", "badges": [], "created_at": "2025-07-26T15:44:32.042-04:00", "updated_at": "2025-07-26T21:58:00.136-04:00", "avatar": "https://avatars.slack-edge.com/2025-07-26/9243949514791_b0f802566ccd7c507e18_original.png", "custom_css": null}, {"id": 19456, "slack_id": "U0989NB4DFA", "display_name": "Artolaf", "bio": null, "projects_count": 1, "devlogs_count": 1, "votes_count": 0, "ships_count": 0, "projects": [{"id": 8368, "title": "testproject", "devlogs_count": 1, "created_at": "2025-07-26T16:22:06.974-04:00"}], "coding_time_seconds": 461, "coding_time_seconds_today": 0, "balance": "You need to have a pocket watcher badge to view this.", "badges": [], "created_at": "2025-07-26T15:44:53.791-04:00", "updated_at": "2025-07-27T05:30:23.153-04:00", "avatar": "https://secure.gravatar.com/avatar/403c656a2d9a110cd981289879cbbd61.jpg?s=512&d=https%3A%2F%2Fa.slack-edge.com%2Fdf10d%2Fimg%2Favatars%2Fava_0021-512.png", "custom_css": null}, {"id": 19457, "slack_id": "U07F0T9KM62", "display_name": "gdrl", "bio": null, "projects_count": 1, "devlogs_count": 1, "votes_count": 1, "ships_count": 0, "projects": [{"id": 8604, "title": "Eruditions", "devlogs_count": 1, "created_at": "2025-07-28T13:54:48.375-04:00"}], "coding_time_seconds": 433922, "coding_time_seconds_today": 0, "balance": "You need to have a pocket watcher badge to view this.", "badges": [], "created_at": "2025-07-26T15:48:01.420-04:00", "updated_at": "2025-08-07T10:14:00.254-04:00", "avatar": "https://secure.gravatar.com/avatar/640aa48d704bfbdf51115395ed50c2b2.jpg?s=512&d=https%3A%2F%2Fa.slack-edge.com%2Fdf10d%2Fimg%2Favatars%2Fava_0009-512.png", "custom_css": null}, {"id": 19458, "slack_id": "U0981D9L5Q9", "display_name": "Ethan", "bio": null, "projects_count": 0, "devlogs_count": 0, "votes_count": 0, "ships_count": 0, "projects": [], "coding_time_seconds": 0, "coding_time_seconds_today": 0, "balance": "You need to have a pocket watcher badge to view this.", "badges": [], "created_at": "2025-07-26T15:50:05.586-04:00", "updated_at": "2025-07-26T21:58:00.362-04:00", "avatar": "https://secure.gravatar.com/avatar/c697093e623811e69cf843428784ae8c.jpg?s=512&d=https%3A%2F%2Fa.slack-edge.com%2Fdf10d%2Fimg%2Favatars%2Fava_0025-512.png", "custom_css": null}, {"id": 19459, "slack_id": "U097ME54T8A", "display_name": "Elliot Glasser", "bio": "", "projects_count": 1, "devlogs_count": 2, "votes_count": 0, "ships_count": 1, "projects": [{"id": 8584, "title": "Maze of the Minotaur", "devlogs_count": 2, "created_at": "2025-07-28T10:37:32.257-04:00"}], "coding_time_seconds": 17378, "coding_time_seconds_today": 0, "balance": "You need to have a pocket watcher badge to view this.", "badges": [], "created_at": "2025-07-26T15:58:17.755-04:00", "updated_at": "2025-07-28T10:41:12.302-04:00", "avatar": "https://avatars.slack-edge.com/2025-07-26/9273472363153_ca1ef2058acb03493665_original.gif", "custom_css": null}, {"id": 19460, "slack_id": "U0989QGS48Y", "display_name": "linn dang", "bio": null, "projects_count": 0, "devlogs_count": 0, "votes_count": 0, "ships_count": 0, "projects": [], "coding_time_seconds": 0, "coding_time_seconds_today": 0, "balance": "You need to have a pocket watcher badge to view this.", "badges": [], "created_at": "2025-07-26T16:38:38.854-04:00", "updated_at": "2025-07-26T21:58:00.534-04:00", "avatar": "https://secure.gravatar.com/avatar/f70bc496e923122c3ff2216a6acb5819.jpg?s=512&d=https%3A%2F%2Fa.slack-edge.com%2Fdf10d%2Fimg%2Favatars%2Fava_0004-512.png", "custom_css": null}, {"id": 19461, "slack_id": "U07DW5Y3H52", "display_name": "Andrei631", "bio": null, "projects_count": 0, "devlogs_count": 0, "votes_count": 0, "ships_count": 0, "projects": [], "coding_time_seconds": 323, "coding_time_seconds_today": 0, "balance": "You need to have a pocket watcher badge to view this.", "badges": [], "created_at": "2025-07-26T16:56:51.859-04:00", "updated_at": "2025-07-28T05:28:28.664-04:00", "avatar": "https://secure.gravatar.com/avatar/5b2829ef2d4ec7f0e74df0cee0410dc2.jpg?s=512&d=https%3A%2F%2Fa.slack-edge.com%2Fdf10d%2Fimg%2Favatars%2Fava_0021-512.png", "custom_css": null}, {"id": 19462, "slack_id": "U097618LY6B", "display_name": "elleoma", "bio": "I'm a Ukrainian student and a unix/linux & open-source enthusiast", "projects_count": 2, "devlogs_count": 4, "votes_count": 22, "ships_count": 1, "projects": [{"id": 8429, "title": "OS-in-1000-lines", "devlogs_count": 3, "created_at": "2025-07-27T03:46:38.644-04:00"}, {"id": 8438, "title": "whoami webpage", "devlogs_count": 1, "created_at": "2025-07-27T07:02:35.911-04:00"}], "coding_time_seconds": 121723, "coding_time_seconds_today": 3349, "balance": "You need to have a pocket watcher badge to view this.", "badges": [], "created_at": "2025-07-26T16:59:46.508-04:00", "updated_at": "2025-08-07T03:50:58.856-04:00", "avatar": "https://secure.gravatar.com/avatar/e52d14d19a21796e4505d4861334f0fb.jpg?s=512&d=https%3A%2F%2Fa.slack-edge.com%2Fdf10d%2Fimg%2Favatars%2Fava_0009-512.png", "custom_css": null}, {"id": 19463, "slack_id": "U0981GNDNBT", "display_name": "Sarah Sid", "bio": null, "projects_count": 0, "devlogs_count": 0, "votes_count": 0, "ships_count": 0, "projects": [], "coding_time_seconds": 0, "coding_time_seconds_today": 0, "balance": "You need to have a pocket watcher badge to view this.", "badges": [], "created_at": "2025-07-26T17:07:06.063-04:00", "updated_at": "2025-07-26T21:58:00.781-04:00", "avatar": "https://secure.gravatar.com/avatar/ad73be884959438c3ff1144ac30cfc38.jpg?s=512&d=https%3A%2F%2Fa.slack-edge.com%2Fdf10d%2Fimg%2Favatars%2Fava_0001-512.png", "custom_css": null}, {"id": 19464, "slack_id": "U097XP55H7B", "display_name": "Isabella Deng", "bio": null, "projects_count": 0, "devlogs_count": 0, "votes_count": 0, "ships_count": 0, "projects": [], "coding_time_seconds": 0, "coding_time_seconds_today": 0, "balance": "You need to have a pocket watcher badge to view this.", "badges": [], "created_at": "2025-07-26T17:14:10.156-04:00", "updated_at": "2025-07-26T21:58:00.873-04:00", "avatar": "https://secure.gravatar.com/avatar/fa1a982680d18afa5ddfbaa18b374ca5.jpg?s=512&d=https%3A%2F%2Fa.slack-edge.com%2Fdf10d%2Fimg%2Favatars%2Fava_0004-512.png", "custom_css": null}, {"id": 19465, "slack_id": "U0989SN4HUG", "display_name": "NoobCoder", "bio": null, "projects_count": 2, "devlogs_count": 0, "votes_count": 0, "ships_count": 0, "projects": [{"id": 8430, "title": "Loan_repaymen_predictor", "devlogs_count": 0, "created_at": "2025-07-27T03:48:04.437-04:00"}, {"id": 8465, "title": "California_Housing_Price_Predictor", "devlogs_count": 0, "created_at": "2025-07-27T11:15:20.795-04:00"}], "coding_time_seconds": 16748, "coding_time_seconds_today": 0, "balance": "You need to have a pocket watcher badge to view this.", "badges": [], "created_at": "2025-07-26T17:34:49.641-04:00", "updated_at": "2025-07-27T03:26:50.868-04:00", "avatar": "https://secure.gravatar.com/avatar/3ea46bfd34d4ea92a4b045fdb1550302.jpg?s=512&d=https%3A%2F%2Fa.slack-edge.com%2Fdf10d%2Fimg%2Favatars%2Fava_0014-512.png", "custom_css": null}], "pagination": {"page": 969, "pages": 1192, "count": 23828, "items": 20}}