{"users": [{"id": 1921, "slack_id": "U091GUH4BNX", "display_name": "Abualnees", "bio": null, "projects_count": 0, "devlogs_count": 0, "votes_count": 0, "ships_count": 0, "projects": [], "coding_time_seconds": 0, "coding_time_seconds_today": 0, "balance": "You need to have a pocket watcher badge to view this.", "badges": [], "created_at": "2025-06-16T14:17:48.997-04:00", "updated_at": "2025-07-03T19:19:50.745-04:00", "avatar": "https://secure.gravatar.com/avatar/350c436fcbe1ace44a0dfb20e7b8cc90.jpg?s=512&d=https%3A%2F%2Fa.slack-edge.com%2Fdf10d%2Fimg%2Favatars%2Fava_0008-512.png", "custom_css": null}, {"id": 1922, "slack_id": "U091Q9CTSA0", "display_name": "Daniel Esambu", "bio": null, "projects_count": 0, "devlogs_count": 0, "votes_count": 0, "ships_count": 0, "projects": [], "coding_time_seconds": 0, "coding_time_seconds_today": 0, "balance": "You need to have a pocket watcher badge to view this.", "badges": [], "created_at": "2025-06-16T14:18:00.202-04:00", "updated_at": "2025-07-03T19:19:51.018-04:00", "avatar": "https://secure.gravatar.com/avatar/c1e4215a63233d96726fa5334676882f.jpg?s=512&d=https%3A%2F%2Fa.slack-edge.com%2Fdf10d%2Fimg%2Favatars%2Fava_0015-512.png", "custom_css": null}, {"id": 1923, "slack_id": "U091H2B01GW", "display_name": "Yash", "bio": null, "projects_count": 0, "devlogs_count": 0, "votes_count": 0, "ships_count": 0, "projects": [], "coding_time_seconds": 0, "coding_time_seconds_today": 0, "balance": "You need to have a pocket watcher badge to view this.", "badges": [], "created_at": "2025-06-16T14:18:06.901-04:00", "updated_at": "2025-07-03T19:19:51.298-04:00", "avatar": "https://secure.gravatar.com/avatar/30e4fdbf4d5f0b231bd9c98083e36327.jpg?s=512&d=https%3A%2F%2Fa.slack-edge.com%2Fdf10d%2Fimg%2Favatars%2Fava_0008-512.png", "custom_css": null}, {"id": 1924, "slack_id": "U091PSV5090", "display_name": "Keshav Kumar", "bio": null, "projects_count": 0, "devlogs_count": 0, "votes_count": 0, "ships_count": 0, "projects": [], "coding_time_seconds": 0, "coding_time_seconds_today": 0, "balance": "You need to have a pocket watcher badge to view this.", "badges": [], "created_at": "2025-06-16T14:18:09.204-04:00", "updated_at": "2025-07-03T19:19:51.570-04:00", "avatar": "https://secure.gravatar.com/avatar/719b02f37a3579ad2b37767510201299.jpg?s=512&d=https%3A%2F%2Fa.slack-edge.com%2Fdf10d%2Fimg%2Favatars%2Fava_0017-512.png", "custom_css": null}, {"id": 1925, "slack_id": "U091GU20143", "display_name": "Johann", "bio": null, "projects_count": 0, "devlogs_count": 0, "votes_count": 0, "ships_count": 0, "projects": [], "coding_time_seconds": 249, "coding_time_seconds_today": 0, "balance": "You need to have a pocket watcher badge to view this.", "badges": [], "created_at": "2025-06-16T14:18:25.985-04:00", "updated_at": "2025-07-03T19:19:51.840-04:00", "avatar": "https://secure.gravatar.com/avatar/6e672699414673b348226237df5c7bae.jpg?s=512&d=https%3A%2F%2Fa.slack-edge.com%2Fdf10d%2Fimg%2Favatars%2Fava_0005-512.png", "custom_css": null}, {"id": 1926, "slack_id": "U091H2CCAKG", "display_name": "Krishmal", "bio": null, "projects_count": 0, "devlogs_count": 0, "votes_count": 0, "ships_count": 0, "projects": [], "coding_time_seconds": 0, "coding_time_seconds_today": 0, "balance": "You need to have a pocket watcher badge to view this.", "badges": [], "created_at": "2025-06-16T14:18:26.206-04:00", "updated_at": "2025-07-03T19:19:52.117-04:00", "avatar": "https://secure.gravatar.com/avatar/df76b8f9c67780d04369261fea67c2c4.jpg?s=512&d=https%3A%2F%2Fa.slack-edge.com%2Fdf10d%2Fimg%2Favatars%2Fava_0000-512.png", "custom_css": null}, {"id": 1927, "slack_id": "U092CBL7PPA", "display_name": "Rijon Shahariar", "bio": null, "projects_count": 0, "devlogs_count": 0, "votes_count": 0, "ships_count": 0, "projects": [], "coding_time_seconds": 5643, "coding_time_seconds_today": 0, "balance": "You need to have a pocket watcher badge to view this.", "badges": [], "created_at": "2025-06-16T14:18:30.272-04:00", "updated_at": "2025-07-03T19:19:52.386-04:00", "avatar": "https://secure.gravatar.com/avatar/3a3d42016359767bb5d956fea8679773.jpg?s=512&d=https%3A%2F%2Fa.slack-edge.com%2Fdf10d%2Fimg%2Favatars%2Fava_0000-512.png", "custom_css": null}, {"id": 1928, "slack_id": "U0922DP7B1P", "display_name": "Anand Vardhan", "bio": null, "projects_count": 1, "devlogs_count": 0, "votes_count": 0, "ships_count": 0, "projects": [{"id": 899, "title": "AUG Design Estima", "devlogs_count": 0, "created_at": "2025-06-17T10:51:25.642-04:00"}], "coding_time_seconds": 5024, "coding_time_seconds_today": 0, "balance": "You need to have a pocket watcher badge to view this.", "badges": [], "created_at": "2025-06-16T14:18:56.015-04:00", "updated_at": "2025-07-03T19:19:52.653-04:00", "avatar": "https://secure.gravatar.com/avatar/3f9b999e81a961b83d92497a8a42eed9.jpg?s=512&d=https%3A%2F%2Fa.slack-edge.com%2Fdf10d%2Fimg%2Favatars%2Fava_0009-512.png", "custom_css": null}, {"id": 1929, "slack_id": "U084Q2E1171", "display_name": "tan", "bio": null, "projects_count": 0, "devlogs_count": 0, "votes_count": 41, "ships_count": 0, "projects": [], "coding_time_seconds": 312049, "coding_time_seconds_today": 0, "balance": "You need to have a pocket watcher badge to view this.", "badges": [], "created_at": "2025-06-16T14:18:56.042-04:00", "updated_at": "2025-08-13T16:38:14.583-04:00", "avatar": "https://avatars.slack-edge.com/2025-07-31/9275902990851_4f537547adc1cf6bf42a_original.png", "custom_css": null}, {"id": 1930, "slack_id": "U091N47SSAH", "display_name": "Gabriel", "bio": null, "projects_count": 0, "devlogs_count": 0, "votes_count": 0, "ships_count": 0, "projects": [], "coding_time_seconds": 0, "coding_time_seconds_today": 0, "balance": "You need to have a pocket watcher badge to view this.", "badges": [], "created_at": "2025-06-16T14:19:00.465-04:00", "updated_at": "2025-07-03T19:19:53.191-04:00", "avatar": "https://secure.gravatar.com/avatar/0d7fa79125219ffe486507925cdf38e0.jpg?s=512&d=https%3A%2F%2Fa.slack-edge.com%2Fdf10d%2Fimg%2Favatars%2Fava_0025-512.png", "custom_css": null}, {"id": 1931, "slack_id": "U091Q9J2DU4", "display_name": "artyom", "bio": null, "projects_count": 0, "devlogs_count": 0, "votes_count": 0, "ships_count": 0, "projects": [], "coding_time_seconds": 0, "coding_time_seconds_today": 0, "balance": "You need to have a pocket watcher badge to view this.", "badges": [], "created_at": "2025-06-16T14:19:04.463-04:00", "updated_at": "2025-07-03T19:19:53.488-04:00", "avatar": "https://secure.gravatar.com/avatar/fb09eb324085a86f7cac1bcf9fcda002.jpg?s=512&d=https%3A%2F%2Fa.slack-edge.com%2Fdf10d%2Fimg%2Favatars%2Fava_0011-512.png", "custom_css": null}, {"id": 1932, "slack_id": "U0918JD7P1D", "display_name": "Rei Yi Lai", "bio": null, "projects_count": 0, "devlogs_count": 0, "votes_count": 0, "ships_count": 0, "projects": [], "coding_time_seconds": 360517, "coding_time_seconds_today": 0, "balance": "You need to have a pocket watcher badge to view this.", "badges": [], "created_at": "2025-06-16T14:19:18.512-04:00", "updated_at": "2025-07-03T19:19:53.757-04:00", "avatar": "https://avatars.slack-edge.com/2025-06-16/9042640332999_b8d1bec482eb7ee694db_original.png", "custom_css": null}, {"id": 1933, "slack_id": "U092CBPBD1N", "display_name": "Aditya Sharma", "bio": null, "projects_count": 1, "devlogs_count": 0, "votes_count": 0, "ships_count": 0, "projects": [{"id": 1572, "title": "World of Wordcraft", "devlogs_count": 0, "created_at": "2025-06-18T19:04:53.695-04:00"}], "coding_time_seconds": 328, "coding_time_seconds_today": 0, "balance": "You need to have a pocket watcher badge to view this.", "badges": [], "created_at": "2025-06-16T14:19:22.951-04:00", "updated_at": "2025-07-03T19:19:54.019-04:00", "avatar": "https://secure.gravatar.com/avatar/a85ade712d639c5414f50f308a598a3d.jpg?s=512&d=https%3A%2F%2Fa.slack-edge.com%2Fdf10d%2Fimg%2Favatars%2Fava_0011-512.png", "custom_css": null}, {"id": 1934, "slack_id": "U091N4LTH0D", "display_name": "Max", "bio": null, "projects_count": 0, "devlogs_count": 0, "votes_count": 0, "ships_count": 0, "projects": [], "coding_time_seconds": 0, "coding_time_seconds_today": 0, "balance": "You need to have a pocket watcher badge to view this.", "badges": [], "created_at": "2025-06-16T14:19:41.102-04:00", "updated_at": "2025-07-03T19:19:54.291-04:00", "avatar": "https://secure.gravatar.com/avatar/b28a8c5f172ab3c577f6ecf932e66f19.jpg?s=512&d=https%3A%2F%2Fa.slack-edge.com%2Fdf10d%2Fimg%2Favatars%2Fava_0003-512.png", "custom_css": null}, {"id": 1935, "slack_id": "U0922E80WQZ", "display_name": "Slugarius", "bio": "Programmer, game developer, artist, modeller.", "projects_count": 5, "devlogs_count": 47, "votes_count": 38, "ships_count": 2, "projects": [{"id": 2992, "title": "Slurm", "devlogs_count": 5, "created_at": "2025-06-22T16:54:53.711-04:00"}, {"id": 5104, "title": "Metabol", "devlogs_count": 1, "created_at": "2025-07-03T09:28:18.612-04:00"}, {"id": 5480, "title": "Sulkan", "devlogs_count": 31, "created_at": "2025-07-05T15:06:22.422-04:00"}, {"id": 12719, "title": "diagmaker", "devlogs_count": 1, "created_at": "2025-09-01T12:36:25.434-04:00"}, {"id": 4289, "title": "Slote", "devlogs_count": 9, "created_at": "2025-06-28T17:13:00.270-04:00"}], "coding_time_seconds": 573102, "coding_time_seconds_today": 0, "balance": "You need to have a pocket watcher badge to view this.", "badges": [{"name": "Maiden Voyage", "text": "you shipped your first project! the journey begins...", "icon": "\ud83d\udea2"}], "created_at": "2025-06-16T14:19:44.152-04:00", "updated_at": "2025-09-10T22:52:07.362-04:00", "avatar": "https://avatars.slack-edge.com/2025-06-17/9062705280069_a919f2ca455e6091e4c3_original.png", "custom_css": null}, {"id": 1936, "slack_id": "U091GUMJ199", "display_name": "Omar", "bio": null, "projects_count": 0, "devlogs_count": 0, "votes_count": 0, "ships_count": 0, "projects": [], "coding_time_seconds": 0, "coding_time_seconds_today": 0, "balance": "You need to have a pocket watcher badge to view this.", "badges": [], "created_at": "2025-06-16T14:20:11.908-04:00", "updated_at": "2025-07-31T14:34:48.145-04:00", "avatar": "https://secure.gravatar.com/avatar/26cd576fd01221ab990323efb3bb8691.jpg?s=512&d=https%3A%2F%2Fa.slack-edge.com%2Fdf10d%2Fimg%2Favatars%2Fava_0010-512.png", "custom_css": null}, {"id": 1937, "slack_id": "U0922E5KR17", "display_name": "Abraham Valenzuela", "bio": null, "projects_count": 1, "devlogs_count": 0, "votes_count": 0, "ships_count": 0, "projects": [{"id": 1685, "title": "EDULates", "devlogs_count": 0, "created_at": "2025-06-19T02:53:37.199-04:00"}], "coding_time_seconds": 10381, "coding_time_seconds_today": 0, "balance": "You need to have a pocket watcher badge to view this.", "badges": [], "created_at": "2025-06-16T14:20:21.108-04:00", "updated_at": "2025-07-03T19:19:55.113-04:00", "avatar": "https://avatars.slack-edge.com/2025-06-16/9051108198710_89342c35b2f084ed23f0_original.png", "custom_css": null}, {"id": 1938, "slack_id": "U092CB6FN80", "display_name": "Stan Zhelokhovtsev", "bio": null, "projects_count": 0, "devlogs_count": 0, "votes_count": 0, "ships_count": 0, "projects": [], "coding_time_seconds": 0, "coding_time_seconds_today": 0, "balance": "You need to have a pocket watcher badge to view this.", "badges": [], "created_at": "2025-06-16T14:20:40.881-04:00", "updated_at": "2025-07-03T19:19:55.386-04:00", "avatar": "https://secure.gravatar.com/avatar/be36231a87bca1ad75d859a793c4ffd8.jpg?s=512&d=https%3A%2F%2Fa.slack-edge.com%2Fdf10d%2Fimg%2Favatars%2Fava_0021-512.png", "custom_css": null}, {"id": 1939, "slack_id": "U091PRTJZ7U", "display_name": "Mika-Rsbg", "bio": null, "projects_count": 0, "devlogs_count": 0, "votes_count": 0, "ships_count": 0, "projects": [], "coding_time_seconds": 46544, "coding_time_seconds_today": 0, "balance": "You need to have a pocket watcher badge to view this.", "badges": [], "created_at": "2025-06-16T14:21:05.057-04:00", "updated_at": "2025-07-03T19:19:55.663-04:00", "avatar": "https://secure.gravatar.com/avatar/365df042fd38db021f135b6d5dffc171.jpg?s=512&d=https%3A%2F%2Fa.slack-edge.com%2Fdf10d%2Fimg%2Favatars%2Fava_0020-512.png", "custom_css": null}, {"id": 1940, "slack_id": "U0918JLTQUF", "display_name": "Surabhi", "bio": null, "projects_count": 0, "devlogs_count": 0, "votes_count": 0, "ships_count": 0, "projects": [], "coding_time_seconds": 0, "coding_time_seconds_today": 0, "balance": "You need to have a pocket watcher badge to view this.", "badges": [], "created_at": "2025-06-16T14:21:08.664-04:00", "updated_at": "2025-07-03T19:19:55.937-04:00", "avatar": "https://secure.gravatar.com/avatar/763b9ce2b810afe8f322a2e0e5f63fd1.jpg?s=512&d=https%3A%2F%2Fa.slack-edge.com%2Fdf10d%2Fimg%2Favatars%2Fava_0019-512.png", "custom_css": null}], "pagination": {"page": 97, "pages": 1192, "count": 23828, "items": 20}}