{"users": [{"id": 19466, "slack_id": "U0989SUF0NL", "display_name": "Farin Tom", "bio": null, "projects_count": 0, "devlogs_count": 0, "votes_count": 0, "ships_count": 0, "projects": [], "coding_time_seconds": 61628, "coding_time_seconds_today": 1709, "balance": "You need to have a pocket watcher badge to view this.", "badges": [], "created_at": "2025-07-26T17:40:22.822-04:00", "updated_at": "2025-07-26T21:58:01.062-04:00", "avatar": "https://secure.gravatar.com/avatar/5fa5d0694f2748717bdbcf500cea1bf2.jpg?s=512&d=https%3A%2F%2Fa.slack-edge.com%2Fdf10d%2Fimg%2Favatars%2Fava_0009-512.png", "custom_css": null}, {"id": 19467, "slack_id": "U093DRJ3C5A", "display_name": "Aditya", "bio": null, "projects_count": 0, "devlogs_count": 0, "votes_count": 0, "ships_count": 0, "projects": [], "coding_time_seconds": 0, "coding_time_seconds_today": 0, "balance": "You need to have a pocket watcher badge to view this.", "badges": [], "created_at": "2025-07-26T18:03:16.865-04:00", "updated_at": "2025-07-26T21:58:01.155-04:00", "avatar": "https://secure.gravatar.com/avatar/b0ce828100b9ac46b3672946dac07b88.jpg?s=512&d=https%3A%2F%2Fa.slack-edge.com%2Fdf10d%2Fimg%2Favatars%2Fava_0024-512.png", "custom_css": null}, {"id": 19468, "slack_id": "U07BVMBBE2G", "display_name": "Atere", "bio": null, "projects_count": 1, "devlogs_count": 0, "votes_count": 0, "ships_count": 0, "projects": [{"id": 8623, "title": "PinOnTop", "devlogs_count": 0, "created_at": "2025-07-28T17:22:12.990-04:00"}], "coding_time_seconds": 228936, "coding_time_seconds_today": 0, "balance": "You need to have a pocket watcher badge to view this.", "badges": [], "created_at": "2025-07-26T18:04:40.895-04:00", "updated_at": "2025-08-10T19:12:40.518-04:00", "avatar": "https://secure.gravatar.com/avatar/d3742dca89a9f600c88da070817c7afa.jpg?s=512&d=https%3A%2F%2Fa.slack-edge.com%2Fdf10d%2Fimg%2Favatars%2Fava_0013-512.png", "custom_css": null}, {"id": 19469, "slack_id": "U097LKS9KJ9", "display_name": "Dima", "bio": null, "projects_count": 0, "devlogs_count": 0, "votes_count": 0, "ships_count": 0, "projects": [], "coding_time_seconds": 0, "coding_time_seconds_today": 0, "balance": "You need to have a pocket watcher badge to view this.", "badges": [], "created_at": "2025-07-26T18:14:27.971-04:00", "updated_at": "2025-07-26T21:58:01.361-04:00", "avatar": "https://secure.gravatar.com/avatar/74559a1d51047ef4eab7bfaf718112a5.jpg?s=512&d=https%3A%2F%2Fa.slack-edge.com%2Fdf10d%2Fimg%2Favatars%2Fava_0001-512.png", "custom_css": null}, {"id": 19470, "slack_id": "U0981KJHN8H", "display_name": "Chiara L", "bio": null, "projects_count": 0, "devlogs_count": 0, "votes_count": 0, "ships_count": 0, "projects": [], "coding_time_seconds": 0, "coding_time_seconds_today": 0, "balance": "You need to have a pocket watcher badge to view this.", "badges": [], "created_at": "2025-07-26T18:18:23.328-04:00", "updated_at": "2025-07-26T21:58:01.456-04:00", "avatar": "https://secure.gravatar.com/avatar/5a9c4979f9e8b61a0f058a5393e27334.jpg?s=512&d=https%3A%2F%2Fa.slack-edge.com%2Fdf10d%2Fimg%2Favatars%2Fava_0025-512.png", "custom_css": null}, {"id": 19471, "slack_id": "U08787XQWSD", "display_name": "reghev", "bio": null, "projects_count": 1, "devlogs_count": 0, "votes_count": 3, "ships_count": 0, "projects": [{"id": 12125, "title": "takeachillpill", "devlogs_count": 0, "created_at": "2025-08-23T10:03:54.675-04:00"}], "coding_time_seconds": 1543, "coding_time_seconds_today": 0, "balance": "You need to have a pocket watcher badge to view this.", "badges": [], "created_at": "2025-07-26T18:18:41.764-04:00", "updated_at": "2025-08-23T10:14:09.007-04:00", "avatar": "https://secure.gravatar.com/avatar/a7073c6ac38a6575dbf5a01cca627b72.jpg?s=512&d=https%3A%2F%2Fa.slack-edge.com%2Fdf10d%2Fimg%2Favatars%2Fava_0015-512.png", "custom_css": null}, {"id": 19472, "slack_id": "U0981KWNNKB", "display_name": "Rahul Nandelly", "bio": null, "projects_count": 0, "devlogs_count": 0, "votes_count": 0, "ships_count": 0, "projects": [], "coding_time_seconds": 0, "coding_time_seconds_today": 0, "balance": "You need to have a pocket watcher badge to view this.", "badges": [], "created_at": "2025-07-26T18:26:15.408-04:00", "updated_at": "2025-07-26T21:58:01.634-04:00", "avatar": "https://secure.gravatar.com/avatar/e71ef660e46fea2133a238ab37bacd14.jpg?s=512&d=https%3A%2F%2Fa.slack-edge.com%2Fdf10d%2Fimg%2Favatars%2Fava_0023-512.png", "custom_css": null}, {"id": 19473, "slack_id": "U097GPYUC2X", "display_name": "Dominik Honzak", "bio": null, "projects_count": 0, "devlogs_count": 0, "votes_count": 0, "ships_count": 0, "projects": [], "coding_time_seconds": 0, "coding_time_seconds_today": 0, "balance": "You need to have a pocket watcher badge to view this.", "badges": [], "created_at": "2025-07-26T18:44:18.743-04:00", "updated_at": "2025-07-26T21:58:01.719-04:00", "avatar": "https://avatars.slack-edge.com/2025-07-26/9282008812128_736bc0e28ce2a94d8846_original.jpg", "custom_css": null}, {"id": 19474, "slack_id": "U097NJTLE04", "display_name": "Aayush Sood", "bio": null, "projects_count": 0, "devlogs_count": 0, "votes_count": 0, "ships_count": 0, "projects": [], "coding_time_seconds": 0, "coding_time_seconds_today": 0, "balance": "You need to have a pocket watcher badge to view this.", "badges": [], "created_at": "2025-07-26T18:47:53.025-04:00", "updated_at": "2025-07-27T10:58:13.301-04:00", "avatar": "https://secure.gravatar.com/avatar/099afd383e3e84c53652e0ab99893cb4.jpg?s=512&d=https%3A%2F%2Fa.slack-edge.com%2Fdf10d%2Fimg%2Favatars%2Fava_0023-512.png", "custom_css": null}, {"id": 19475, "slack_id": "U097GQA9UUB", "display_name": "Sophia Estrada", "bio": null, "projects_count": 0, "devlogs_count": 0, "votes_count": 0, "ships_count": 0, "projects": [], "coding_time_seconds": 0, "coding_time_seconds_today": 0, "balance": "You need to have a pocket watcher badge to view this.", "badges": [], "created_at": "2025-07-26T18:54:03.126-04:00", "updated_at": "2025-07-26T21:58:05.942-04:00", "avatar": "https://secure.gravatar.com/avatar/dca3dbcee0f97daf96d6ab4afdf68040.jpg?s=512&d=https%3A%2F%2Fa.slack-edge.com%2Fdf10d%2Fimg%2Favatars%2Fava_0001-512.png", "custom_css": null}, {"id": 19476, "slack_id": "U09765XCQ07", "display_name": "saaransh", "bio": null, "projects_count": 0, "devlogs_count": 0, "votes_count": 0, "ships_count": 0, "projects": [], "coding_time_seconds": 0, "coding_time_seconds_today": 0, "balance": "You need to have a pocket watcher badge to view this.", "badges": [], "created_at": "2025-07-26T18:54:08.575-04:00", "updated_at": "2025-07-26T21:58:06.035-04:00", "avatar": "https://secure.gravatar.com/avatar/174730cdfc8ac85b018c7b465b1624e0.jpg?s=512&d=https%3A%2F%2Fa.slack-edge.com%2Fdf10d%2Fimg%2Favatars%2Fava_0007-512.png", "custom_css": null}, {"id": 19477, "slack_id": "U0981MNCTK3", "display_name": "Nuzhat Rayann", "bio": null, "projects_count": 0, "devlogs_count": 0, "votes_count": 0, "ships_count": 0, "projects": [], "coding_time_seconds": 0, "coding_time_seconds_today": 0, "balance": "You need to have a pocket watcher badge to view this.", "badges": [], "created_at": "2025-07-26T19:09:42.208-04:00", "updated_at": "2025-08-01T10:20:08.027-04:00", "avatar": "https://secure.gravatar.com/avatar/412ed1c5762742d794820579373933ed.jpg?s=512&d=https%3A%2F%2Fa.slack-edge.com%2Fdf10d%2Fimg%2Favatars%2Fava_0004-512.png", "custom_css": null}, {"id": 19478, "slack_id": "U097N3TD23U", "display_name": "Duyen Le", "bio": null, "projects_count": 0, "devlogs_count": 0, "votes_count": 0, "ships_count": 0, "projects": [], "coding_time_seconds": 0, "coding_time_seconds_today": 0, "balance": "You need to have a pocket watcher badge to view this.", "badges": [], "created_at": "2025-07-26T19:11:22.881-04:00", "updated_at": "2025-07-26T21:58:06.195-04:00", "avatar": "https://secure.gravatar.com/avatar/0ec079268f4eb290d1f149ebb5fbe96b.jpg?s=512&d=https%3A%2F%2Fa.slack-edge.com%2Fdf10d%2Fimg%2Favatars%2Fava_0007-512.png", "custom_css": null}, {"id": 19479, "slack_id": "U07C97K3SG0", "display_name": "kiyanoosh", "bio": null, "projects_count": 0, "devlogs_count": 0, "votes_count": 0, "ships_count": 0, "projects": [], "coding_time_seconds": 0, "coding_time_seconds_today": 0, "balance": "You need to have a pocket watcher badge to view this.", "badges": [], "created_at": "2025-07-26T19:12:37.050-04:00", "updated_at": "2025-07-28T07:35:44.336-04:00", "avatar": "https://avatars.slack-edge.com/2024-07-31/7520760621265_7ab356291eca30f5bf9b_original.png", "custom_css": null}, {"id": 19480, "slack_id": "U0981NEJDFB", "display_name": "Sanjay Kumar S", "bio": null, "projects_count": 0, "devlogs_count": 0, "votes_count": 0, "ships_count": 0, "projects": [], "coding_time_seconds": 0, "coding_time_seconds_today": 0, "balance": "You need to have a pocket watcher badge to view this.", "badges": [], "created_at": "2025-07-26T19:29:26.723-04:00", "updated_at": "2025-07-26T21:58:06.365-04:00", "avatar": "https://secure.gravatar.com/avatar/565a09bc3640557de249e7ea37ee8d86.jpg?s=512&d=https%3A%2F%2Fa.slack-edge.com%2Fdf10d%2Fimg%2Favatars%2Fava_0012-512.png", "custom_css": null}, {"id": 19481, "slack_id": "U097NLW4VRA", "display_name": "Ren\u00e9 Montes Contreras", "bio": null, "projects_count": 0, "devlogs_count": 0, "votes_count": 0, "ships_count": 0, "projects": [], "coding_time_seconds": 0, "coding_time_seconds_today": 0, "balance": "You need to have a pocket watcher badge to view this.", "badges": [], "created_at": "2025-07-26T19:46:00.670-04:00", "updated_at": "2025-07-30T21:34:33.334-04:00", "avatar": "https://secure.gravatar.com/avatar/18b088560f89eac6a09257ebea78f54d.jpg?s=512&d=https%3A%2F%2Fa.slack-edge.com%2Fdf10d%2Fimg%2Favatars%2Fava_0026-512.png", "custom_css": null}, {"id": 19482, "slack_id": "U079QD81MPU", "display_name": "Nes\u2019et Kablan", "bio": null, "projects_count": 1, "devlogs_count": 1, "votes_count": 1, "ships_count": 0, "projects": [{"id": 8396, "title": "Personal Website", "devlogs_count": 1, "created_at": "2025-07-26T20:20:14.047-04:00"}], "coding_time_seconds": 49769, "coding_time_seconds_today": 0, "balance": "You need to have a pocket watcher badge to view this.", "badges": [], "created_at": "2025-07-26T19:55:15.940-04:00", "updated_at": "2025-08-09T17:46:34.767-04:00", "avatar": "https://avatars.slack-edge.com/2025-08-05/9308856046021_42995db428f866197fd9_original.png", "custom_css": null}, {"id": 19483, "slack_id": "U092T4Y9NTA", "display_name": "Amna Nada", "bio": null, "projects_count": 0, "devlogs_count": 0, "votes_count": 0, "ships_count": 0, "projects": [], "coding_time_seconds": 0, "coding_time_seconds_today": 0, "balance": "You need to have a pocket watcher badge to view this.", "badges": [], "created_at": "2025-07-26T20:21:40.647-04:00", "updated_at": "2025-07-26T21:58:06.612-04:00", "avatar": "https://secure.gravatar.com/avatar/66d52f9d9acecc71bccdeaf899e5233d.jpg?s=512&d=https%3A%2F%2Fa.slack-edge.com%2Fdf10d%2Fimg%2Favatars%2Fava_0014-512.png", "custom_css": null}, {"id": 19484, "slack_id": "U097N6UNTNE", "display_name": "Daniel Meilhon", "bio": null, "projects_count": 1, "devlogs_count": 2, "votes_count": 3, "ships_count": 0, "projects": [{"id": 9907, "title": "RabbitHole", "devlogs_count": 2, "created_at": "2025-08-02T20:24:11.681-04:00"}], "coding_time_seconds": 48113, "coding_time_seconds_today": 0, "balance": "You need to have a pocket watcher badge to view this.", "badges": [], "created_at": "2025-07-26T20:34:18.131-04:00", "updated_at": "2025-08-06T16:58:34.100-04:00", "avatar": "https://secure.gravatar.com/avatar/96c0c4c44b1d3a71b50480aa7da15c53.jpg?s=512&d=https%3A%2F%2Fa.slack-edge.com%2Fdf10d%2Fimg%2Favatars%2Fava_0025-512.png", "custom_css": null}, {"id": 19485, "slack_id": "U097N89MPNE", "display_name": "Max", "bio": null, "projects_count": 0, "devlogs_count": 0, "votes_count": 0, "ships_count": 0, "projects": [], "coding_time_seconds": 0, "coding_time_seconds_today": 0, "balance": "You need to have a pocket watcher badge to view this.", "badges": [], "created_at": "2025-07-26T21:03:44.834-04:00", "updated_at": "2025-07-27T12:50:58.571-04:00", "avatar": "https://secure.gravatar.com/avatar/785d628201b78f30b0730c8f4ce105f8.jpg?s=512&d=https%3A%2F%2Fa.slack-edge.com%2Fdf10d%2Fimg%2Favatars%2Fava_0014-512.png", "custom_css": null}], "pagination": {"page": 970, "pages": 1192, "count": 23828, "items": 20}}