{"users": [{"id": 19486, "slack_id": "U08RM7YQX2N", "display_name": "Chris", "bio": null, "projects_count": 0, "devlogs_count": 0, "votes_count": 0, "ships_count": 0, "projects": [], "coding_time_seconds": 66859, "coding_time_seconds_today": 0, "balance": "You need to have a pocket watcher badge to view this.", "badges": [], "created_at": "2025-07-26T21:10:39.136-04:00", "updated_at": "2025-07-26T21:58:06.978-04:00", "avatar": "https://avatars.slack-edge.com/2025-05-08/8881418596113_8c558fa40e45912e2560_original.png", "custom_css": null}, {"id": 19487, "slack_id": "U082S9PHLAU", "display_name": "Dhyrk", "bio": null, "projects_count": 1, "devlogs_count": 1, "votes_count": 0, "ships_count": 0, "projects": [{"id": 10535, "title": "Portfolio", "devlogs_count": 1, "created_at": "2025-08-07T22:26:18.970-04:00"}], "coding_time_seconds": 6429, "coding_time_seconds_today": 0, "balance": "You need to have a pocket watcher badge to view this.", "badges": [], "created_at": "2025-07-26T21:57:41.697-04:00", "updated_at": "2025-08-07T22:44:01.968-04:00", "avatar": "https://secure.gravatar.com/avatar/717877b89dbea91535c731f78d42eaf9.jpg?s=512&d=https%3A%2F%2Fa.slack-edge.com%2Fdf10d%2Fimg%2Favatars%2Fava_0021-512.png", "custom_css": null}, {"id": 19488, "slack_id": "U097LUP6W9K", "display_name": "Rayyan Khalique", "bio": null, "projects_count": 0, "devlogs_count": 0, "votes_count": 0, "ships_count": 0, "projects": [], "coding_time_seconds": 12975, "coding_time_seconds_today": 0, "balance": "You need to have a pocket watcher badge to view this.", "badges": [], "created_at": "2025-07-26T21:59:40.795-04:00", "updated_at": "2025-07-27T14:44:50.578-04:00", "avatar": "https://secure.gravatar.com/avatar/378a4ba3b7ab6e52fbb5716eeeea3183.jpg?s=512&d=https%3A%2F%2Fa.slack-edge.com%2Fdf10d%2Fimg%2Favatars%2Fava_0019-512.png", "custom_css": null}, {"id": 19489, "slack_id": "U0981UBCARF", "display_name": "jung", "bio": null, "projects_count": 0, "devlogs_count": 0, "votes_count": 0, "ships_count": 0, "projects": [], "coding_time_seconds": 0, "coding_time_seconds_today": 0, "balance": "You need to have a pocket watcher badge to view this.", "badges": [], "created_at": "2025-07-26T22:10:32.739-04:00", "updated_at": "2025-07-27T04:56:39.880-04:00", "avatar": "https://avatars.slack-edge.com/2025-07-27/9274413746225_3c91173b13d7b5939863_original.jpg", "custom_css": null}, {"id": 19490, "slack_id": "U097LV6F3RB", "display_name": "OmniacDev", "bio": null, "projects_count": 0, "devlogs_count": 0, "votes_count": 0, "ships_count": 0, "projects": [], "coding_time_seconds": 0, "coding_time_seconds_today": 0, "balance": "You need to have a pocket watcher badge to view this.", "badges": [], "created_at": "2025-07-26T22:12:58.969-04:00", "updated_at": "2025-07-27T04:56:39.963-04:00", "avatar": "https://secure.gravatar.com/avatar/3d9607dc89fd29ca68e03e0b267f5aba.jpg?s=512&d=https%3A%2F%2Fa.slack-edge.com%2Fdf10d%2Fimg%2Favatars%2Fava_0024-512.png", "custom_css": null}, {"id": 19491, "slack_id": "U097LV92C8M", "display_name": "therealgofrez", "bio": null, "projects_count": 0, "devlogs_count": 0, "votes_count": 0, "ships_count": 0, "projects": [], "coding_time_seconds": 0, "coding_time_seconds_today": 0, "balance": "You need to have a pocket watcher badge to view this.", "badges": [], "created_at": "2025-07-26T22:16:52.409-04:00", "updated_at": "2025-07-27T04:56:40.060-04:00", "avatar": "https://secure.gravatar.com/avatar/89419e736bba739d3a820d47b7a18ebe.jpg?s=512&d=https%3A%2F%2Fa.slack-edge.com%2Fdf10d%2Fimg%2Favatars%2Fava_0022-512.png", "custom_css": null}, {"id": 19492, "slack_id": "U097K2C8MGE", "display_name": "Lorena", "bio": null, "projects_count": 0, "devlogs_count": 0, "votes_count": 0, "ships_count": 0, "projects": [], "coding_time_seconds": 0, "coding_time_seconds_today": 0, "balance": "You need to have a pocket watcher badge to view this.", "badges": [], "created_at": "2025-07-26T22:20:48.220-04:00", "updated_at": "2025-07-27T04:56:40.146-04:00", "avatar": "https://secure.gravatar.com/avatar/740a37957760c73e50528d9621d6be61.jpg?s=512&d=https%3A%2F%2Fa.slack-edge.com%2Fdf10d%2Fimg%2Favatars%2Fava_0014-512.png", "custom_css": null}, {"id": 19493, "slack_id": "U098A9YF9GQ", "display_name": "chicken", "bio": null, "projects_count": 1, "devlogs_count": 6, "votes_count": 27, "ships_count": 1, "projects": [{"id": 9648, "title": "EssentialAI", "devlogs_count": 5, "created_at": "2025-08-02T00:47:12.534-04:00"}], "coding_time_seconds": 25148, "coding_time_seconds_today": 0, "balance": "You need to have a pocket watcher badge to view this.", "badges": [], "created_at": "2025-07-26T22:44:29.969-04:00", "updated_at": "2025-08-06T16:22:28.023-04:00", "avatar": "https://avatars.slack-edge.com/2025-08-05/9305173208854_8139c3882fab4a89476e_original.gif", "custom_css": null}, {"id": 19494, "slack_id": "U0976D6FV47", "display_name": "Ella Z", "bio": null, "projects_count": 0, "devlogs_count": 0, "votes_count": 0, "ships_count": 0, "projects": [], "coding_time_seconds": 0, "coding_time_seconds_today": 0, "balance": "You need to have a pocket watcher badge to view this.", "badges": [], "created_at": "2025-07-26T22:55:15.146-04:00", "updated_at": "2025-07-27T04:56:40.326-04:00", "avatar": "https://secure.gravatar.com/avatar/19d16ef04a72e3b48a044ce48d36ce85.jpg?s=512&d=https%3A%2F%2Fa.slack-edge.com%2Fdf10d%2Fimg%2Favatars%2Fava_0007-512.png", "custom_css": null}, {"id": 19495, "slack_id": "U097K3HLGS2", "display_name": "XT Cooper", "bio": null, "projects_count": 0, "devlogs_count": 0, "votes_count": 0, "ships_count": 0, "projects": [], "coding_time_seconds": 2686, "coding_time_seconds_today": 0, "balance": "You need to have a pocket watcher badge to view this.", "badges": [], "created_at": "2025-07-26T22:56:00.584-04:00", "updated_at": "2025-07-27T04:56:40.428-04:00", "avatar": "https://avatars.slack-edge.com/2025-07-26/9257126013590_fad7217129109adb1509_original.jpg", "custom_css": null}, {"id": 19496, "slack_id": "U097NCTNLQJ", "display_name": "Arpan Chaudhary", "bio": null, "projects_count": 0, "devlogs_count": 0, "votes_count": 0, "ships_count": 0, "projects": [], "coding_time_seconds": 0, "coding_time_seconds_today": 0, "balance": "You need to have a pocket watcher badge to view this.", "badges": [], "created_at": "2025-07-26T23:06:41.163-04:00", "updated_at": "2025-07-27T04:56:40.533-04:00", "avatar": "https://secure.gravatar.com/avatar/bc9e961e0d8c1a5edc1aa64ae54e2cf2.jpg?s=512&d=https%3A%2F%2Fa.slack-edge.com%2Fdf10d%2Fimg%2Favatars%2Fava_0009-512.png", "custom_css": null}, {"id": 19497, "slack_id": "U098AB20656", "display_name": "Nishesh Chaudhary", "bio": null, "projects_count": 0, "devlogs_count": 0, "votes_count": 0, "ships_count": 0, "projects": [], "coding_time_seconds": 0, "coding_time_seconds_today": 0, "balance": "You need to have a pocket watcher badge to view this.", "badges": [], "created_at": "2025-07-26T23:15:11.288-04:00", "updated_at": "2025-07-27T04:56:40.631-04:00", "avatar": "https://secure.gravatar.com/avatar/95e1c5b90753f150259ca56d15117ec9.jpg?s=512&d=https%3A%2F%2Fa.slack-edge.com%2Fdf10d%2Fimg%2Favatars%2Fava_0020-512.png", "custom_css": null}, {"id": 19498, "slack_id": "U07F68KMT34", "display_name": "Pixlox", "bio": null, "projects_count": 0, "devlogs_count": 0, "votes_count": 0, "ships_count": 0, "projects": [], "coding_time_seconds": 49860, "coding_time_seconds_today": 120, "balance": "You need to have a pocket watcher badge to view this.", "badges": [], "created_at": "2025-07-26T23:15:59.834-04:00", "updated_at": "2025-07-27T09:29:22.936-04:00", "avatar": "https://avatars.slack-edge.com/2024-08-02/7509677126102_2724a9746cf9db695410_original.jpg", "custom_css": null}, {"id": 19499, "slack_id": "U097K4C4CRL", "display_name": "Ana", "bio": null, "projects_count": 0, "devlogs_count": 0, "votes_count": 0, "ships_count": 0, "projects": [], "coding_time_seconds": 0, "coding_time_seconds_today": 0, "balance": "You need to have a pocket watcher badge to view this.", "badges": [], "created_at": "2025-07-26T23:23:41.640-04:00", "updated_at": "2025-07-27T04:56:40.782-04:00", "avatar": "https://secure.gravatar.com/avatar/13f2e028dfe353f5a99077ca74733a04.jpg?s=512&d=https%3A%2F%2Fa.slack-edge.com%2Fdf10d%2Fimg%2Favatars%2Fava_0019-512.png", "custom_css": null}, {"id": 19500, "slack_id": "U095N5526SF", "display_name": "dextan(-_-)", "bio": "", "projects_count": 0, "devlogs_count": 32, "votes_count": 0, "ships_count": 0, "projects": [], "coding_time_seconds": 448536, "coding_time_seconds_today": 0, "balance": "You need to have a pocket watcher badge to view this.", "badges": [{"name": "Maiden Voyage", "text": "you shipped your first project! the journey begins...", "icon": "\ud83d\udea2"}, {"name": "Ballot Stuffer", "text": "vote 100 times.", "icon": "https://summer.hackclub.com/assets/i_voted-bf851b48.png"}], "created_at": "2025-07-26T23:25:11.513-04:00", "updated_at": "2025-09-21T22:24:14.332-04:00", "avatar": "https://avatars.slack-edge.com/2025-07-26/9274097103265_b310cf6a462235885232_original.png", "custom_css": null}, {"id": 19501, "slack_id": "U098ACGDBNU", "display_name": "Mohd Aatif", "bio": null, "projects_count": 0, "devlogs_count": 0, "votes_count": 0, "ships_count": 0, "projects": [], "coding_time_seconds": 95681, "coding_time_seconds_today": 385, "balance": "You need to have a pocket watcher badge to view this.", "badges": [], "created_at": "2025-07-26T23:54:16.992-04:00", "updated_at": "2025-09-09T22:39:17.286-04:00", "avatar": "https://secure.gravatar.com/avatar/71f9e644d3bcb7bfed671249a2808698.jpg?s=512&d=https%3A%2F%2Fa.slack-edge.com%2Fdf10d%2Fimg%2Favatars%2Fava_0014-512.png", "custom_css": null}, {"id": 19502, "slack_id": "U098ACWE43A", "display_name": "svetoslav47", "bio": null, "projects_count": 0, "devlogs_count": 0, "votes_count": 0, "ships_count": 0, "projects": [], "coding_time_seconds": 0, "coding_time_seconds_today": 0, "balance": "You need to have a pocket watcher badge to view this.", "badges": [], "created_at": "2025-07-27T00:05:27.328-04:00", "updated_at": "2025-07-27T04:56:41.066-04:00", "avatar": "https://secure.gravatar.com/avatar/755ab90c506479d9bd589ecc98b4cbcb.jpg?s=512&d=https%3A%2F%2Fa.slack-edge.com%2Fdf10d%2Fimg%2Favatars%2Fava_0025-512.png", "custom_css": null}, {"id": 19503, "slack_id": "U097HJH5R7S", "display_name": "Ved Prakash Vishwakarma", "bio": null, "projects_count": 0, "devlogs_count": 0, "votes_count": 0, "ships_count": 0, "projects": [], "coding_time_seconds": 246819, "coding_time_seconds_today": 2942, "balance": "You need to have a pocket watcher badge to view this.", "badges": [], "created_at": "2025-07-27T00:32:30.885-04:00", "updated_at": "2025-07-27T04:56:45.211-04:00", "avatar": "https://secure.gravatar.com/avatar/3d330282a2c85f0e62265d5a20f4cb42.jpg?s=512&d=https%3A%2F%2Fa.slack-edge.com%2Fdf10d%2Fimg%2Favatars%2Fava_0000-512.png", "custom_css": null}, {"id": 19504, "slack_id": "U097K6TNFJA", "display_name": "Avani Avani", "bio": null, "projects_count": 0, "devlogs_count": 0, "votes_count": 0, "ships_count": 0, "projects": [], "coding_time_seconds": 0, "coding_time_seconds_today": 0, "balance": "You need to have a pocket watcher badge to view this.", "badges": [], "created_at": "2025-07-27T00:34:04.905-04:00", "updated_at": "2025-07-27T04:56:45.309-04:00", "avatar": "https://avatars.slack-edge.com/2025-07-26/9255255060163_0dc06933eff5c53ecb19_original.png", "custom_css": null}, {"id": 19505, "slack_id": "U0976K0M9SB", "display_name": "Darshan Saravanan", "bio": "", "projects_count": 0, "devlogs_count": 0, "votes_count": 0, "ships_count": 0, "projects": [], "coding_time_seconds": 0, "coding_time_seconds_today": 0, "balance": "You need to have a pocket watcher badge to view this.", "badges": [], "created_at": "2025-07-27T00:35:03.664-04:00", "updated_at": "2025-08-15T22:23:01.242-04:00", "avatar": "https://secure.gravatar.com/avatar/ecd4656104fcb391a1d27bbffa0b33dc.jpg?s=512&d=https%3A%2F%2Fa.slack-edge.com%2Fdf10d%2Fimg%2Favatars%2Fava_0025-512.png", "custom_css": null}], "pagination": {"page": 971, "pages": 1192, "count": 23828, "items": 20}}