{"users": [{"id": 19506, "slack_id": "U06CGQ3HUEM", "display_name": "Kanika", "bio": null, "projects_count": 1, "devlogs_count": 0, "votes_count": 0, "ships_count": 0, "projects": [{"id": 8416, "title": "HOH ", "devlogs_count": 0, "created_at": "2025-07-27T01:56:21.160-04:00"}], "coding_time_seconds": 13023, "coding_time_seconds_today": 0, "balance": "You need to have a pocket watcher badge to view this.", "badges": [], "created_at": "2025-07-27T00:44:35.996-04:00", "updated_at": "2025-07-27T01:54:23.056-04:00", "avatar": "https://avatars.slack-edge.com/2025-07-27/9261117939332_5ed5a2d0e5c38be1cf82_original.jpg", "custom_css": null}, {"id": 19507, "slack_id": "U098A7T4E1W", "display_name": "Ahnaf Zaman", "bio": null, "projects_count": 5, "devlogs_count": 7, "votes_count": 4, "ships_count": 1, "projects": [{"id": 8785, "title": "Elementarium", "devlogs_count": 0, "created_at": "2025-07-29T09:05:39.048-04:00"}, {"id": 8882, "title": "Keepsake", "devlogs_count": 0, "created_at": "2025-07-29T14:45:24.172-04:00"}, {"id": 11706, "title": "Ranked Voting Simulator", "devlogs_count": 0, "created_at": "2025-08-18T15:42:42.562-04:00"}, {"id": 10411, "title": "Personal SvelteKit Website", "devlogs_count": 0, "created_at": "2025-08-06T18:32:24.496-04:00"}, {"id": 10143, "title": "Shobdle", "devlogs_count": 7, "created_at": "2025-08-04T11:16:59.649-04:00"}], "coding_time_seconds": 72842, "coding_time_seconds_today": 0, "balance": "You need to have a pocket watcher badge to view this.", "badges": [], "created_at": "2025-07-27T00:50:26.174-04:00", "updated_at": "2025-08-06T19:21:42.603-04:00", "avatar": "https://avatars.slack-edge.com/2025-07-26/9259193013509_db2b335e962a3d73a1c3_original.jpg", "custom_css": null}, {"id": 19508, "slack_id": "U097K7C1H0E", "display_name": "BBN", "bio": null, "projects_count": 0, "devlogs_count": 0, "votes_count": 0, "ships_count": 0, "projects": [], "coding_time_seconds": 0, "coding_time_seconds_today": 0, "balance": "You need to have a pocket watcher badge to view this.", "badges": [], "created_at": "2025-07-27T00:52:30.970-04:00", "updated_at": "2025-07-27T04:56:45.641-04:00", "avatar": "https://secure.gravatar.com/avatar/018769c0a87faa70b2488beb3d965b99.jpg?s=512&d=https%3A%2F%2Fa.slack-edge.com%2Fdf10d%2Fimg%2Favatars%2Fava_0011-512.png", "custom_css": null}, {"id": 19509, "slack_id": "U097H82Q6Q3", "display_name": "Mr. MiME", "bio": null, "projects_count": 0, "devlogs_count": 0, "votes_count": 0, "ships_count": 0, "projects": [], "coding_time_seconds": 6939, "coding_time_seconds_today": 0, "balance": "You need to have a pocket watcher badge to view this.", "badges": [], "created_at": "2025-07-27T00:59:14.965-04:00", "updated_at": "2025-09-19T15:11:31.738-04:00", "avatar": "https://secure.gravatar.com/avatar/c2287a6bba5a53fa886f1d900bf0b9ae.jpg?s=512&d=https%3A%2F%2Fa.slack-edge.com%2Fdf10d%2Fimg%2Favatars%2Fava_0021-512.png", "custom_css": null}, {"id": 19510, "slack_id": "U097H8FN1EF", "display_name": "bhabin.dev", "bio": null, "projects_count": 0, "devlogs_count": 0, "votes_count": 0, "ships_count": 0, "projects": [], "coding_time_seconds": 0, "coding_time_seconds_today": 0, "balance": "You need to have a pocket watcher badge to view this.", "badges": [], "created_at": "2025-07-27T01:04:58.894-04:00", "updated_at": "2025-07-27T04:56:45.844-04:00", "avatar": "https://secure.gravatar.com/avatar/3437dad491e7868e9b559a92a14b7bca.jpg?s=512&d=https%3A%2F%2Fa.slack-edge.com%2Fdf10d%2Fimg%2Favatars%2Fava_0025-512.png", "custom_css": null}, {"id": 19511, "slack_id": "U097NGRLKRQ", "display_name": "Valezka", "bio": null, "projects_count": 0, "devlogs_count": 0, "votes_count": 0, "ships_count": 0, "projects": [], "coding_time_seconds": 0, "coding_time_seconds_today": 0, "balance": "You need to have a pocket watcher badge to view this.", "badges": [], "created_at": "2025-07-27T01:09:41.864-04:00", "updated_at": "2025-07-27T04:56:45.958-04:00", "avatar": "https://secure.gravatar.com/avatar/6dc97285826f60e7d4b8e41cd469158b.jpg?s=512&d=https%3A%2F%2Fa.slack-edge.com%2Fdf10d%2Fimg%2Favatars%2Fava_0007-512.png", "custom_css": null}, {"id": 19512, "slack_id": "U097NH3LTD0", "display_name": "Rajesh Mondal", "bio": null, "projects_count": 0, "devlogs_count": 0, "votes_count": 0, "ships_count": 0, "projects": [], "coding_time_seconds": 0, "coding_time_seconds_today": 0, "balance": "You need to have a pocket watcher badge to view this.", "badges": [], "created_at": "2025-07-27T01:11:38.595-04:00", "updated_at": "2025-07-27T04:56:46.039-04:00", "avatar": "https://secure.gravatar.com/avatar/f87c3f3cc7f972250f97075abdaf2495.jpg?s=512&d=https%3A%2F%2Fa.slack-edge.com%2Fdf10d%2Fimg%2Favatars%2Fava_0015-512.png", "custom_css": null}, {"id": 19513, "slack_id": "U097K8CJGMC", "display_name": "Michael Sunarta-McDougall", "bio": null, "projects_count": 1, "devlogs_count": 0, "votes_count": 0, "ships_count": 0, "projects": [{"id": 8540, "title": "Basic Tower Defense Game", "devlogs_count": 0, "created_at": "2025-07-28T04:21:42.559-04:00"}], "coding_time_seconds": 4961, "coding_time_seconds_today": 0, "balance": "You need to have a pocket watcher badge to view this.", "badges": [], "created_at": "2025-07-27T01:18:19.953-04:00", "updated_at": "2025-07-27T14:04:53.868-04:00", "avatar": "https://avatars.slack-edge.com/2025-07-26/9259229032245_5881b41082308664d14e_original.jpg", "custom_css": null}, {"id": 19514, "slack_id": "U07A0PEG603", "display_name": "Shamal Lakshan", "bio": null, "projects_count": 0, "devlogs_count": 0, "votes_count": 0, "ships_count": 0, "projects": [], "coding_time_seconds": 0, "coding_time_seconds_today": 0, "balance": "You need to have a pocket watcher badge to view this.", "badges": [], "created_at": "2025-07-27T01:25:12.763-04:00", "updated_at": "2025-07-27T01:25:21.726-04:00", "avatar": "https://avatars.slack-edge.com/2024-06-27/7338809836085_62dca6bc7e1567e0a790_original.png", "custom_css": null}, {"id": 19515, "slack_id": "U098AGE62F2", "display_name": "Matthew Sunarta-Mcdougall", "bio": null, "projects_count": 0, "devlogs_count": 0, "votes_count": 3, "ships_count": 0, "projects": [], "coding_time_seconds": 177, "coding_time_seconds_today": 0, "balance": "You need to have a pocket watcher badge to view this.", "badges": [], "created_at": "2025-07-27T01:40:28.880-04:00", "updated_at": "2025-07-27T14:19:03.095-04:00", "avatar": "https://avatars.slack-edge.com/2025-07-26/9255335131587_acf292e1bc11a7ad595b_original.jpg", "custom_css": null}, {"id": 19516, "slack_id": "U097H9AAWR1", "display_name": "Sketchey", "bio": null, "projects_count": 0, "devlogs_count": 0, "votes_count": 0, "ships_count": 0, "projects": [], "coding_time_seconds": 0, "coding_time_seconds_today": 0, "balance": "You need to have a pocket watcher badge to view this.", "badges": [], "created_at": "2025-07-27T01:47:24.166-04:00", "updated_at": "2025-07-27T04:56:50.379-04:00", "avatar": "https://secure.gravatar.com/avatar/988b7547fd37a9a526c0cff9c3b1bc88.jpg?s=512&d=https%3A%2F%2Fa.slack-edge.com%2Fdf10d%2Fimg%2Favatars%2Fava_0006-512.png", "custom_css": null}, {"id": 19517, "slack_id": "U097K9DDCBG", "display_name": "sam", "bio": null, "projects_count": 0, "devlogs_count": 0, "votes_count": 0, "ships_count": 0, "projects": [], "coding_time_seconds": 0, "coding_time_seconds_today": 0, "balance": "You need to have a pocket watcher badge to view this.", "badges": [], "created_at": "2025-07-27T01:49:24.904-04:00", "updated_at": "2025-07-27T04:56:50.458-04:00", "avatar": "https://secure.gravatar.com/avatar/4f0c7b34bba1df0548982cfed61411e6.jpg?s=512&d=https%3A%2F%2Fa.slack-edge.com%2Fdf10d%2Fimg%2Favatars%2Fava_0007-512.png", "custom_css": null}, {"id": 19518, "slack_id": "U097K9DGH70", "display_name": "Reesa Shete", "bio": null, "projects_count": 0, "devlogs_count": 0, "votes_count": 0, "ships_count": 0, "projects": [], "coding_time_seconds": 0, "coding_time_seconds_today": 0, "balance": "You need to have a pocket watcher badge to view this.", "badges": [], "created_at": "2025-07-27T01:50:54.141-04:00", "updated_at": "2025-07-27T04:56:50.568-04:00", "avatar": "https://secure.gravatar.com/avatar/7cd40285e5088a0cc4b2cd08a8921600.jpg?s=512&d=https%3A%2F%2Fa.slack-edge.com%2Fdf10d%2Fimg%2Favatars%2Fava_0016-512.png", "custom_css": null}, {"id": 19519, "slack_id": "U09828Q1401", "display_name": "Mridul", "bio": null, "projects_count": 0, "devlogs_count": 0, "votes_count": 0, "ships_count": 0, "projects": [], "coding_time_seconds": 0, "coding_time_seconds_today": 0, "balance": "You need to have a pocket watcher badge to view this.", "badges": [], "created_at": "2025-07-27T02:06:38.462-04:00", "updated_at": "2025-07-27T04:56:50.679-04:00", "avatar": "https://secure.gravatar.com/avatar/5e845e18bc6b138bac6d28df07799c41.jpg?s=512&d=https%3A%2F%2Fa.slack-edge.com%2Fdf10d%2Fimg%2Favatars%2Fava_0012-512.png", "custom_css": null}, {"id": 19520, "slack_id": "U097HAT8CH1", "display_name": "vietds", "bio": null, "projects_count": 0, "devlogs_count": 0, "votes_count": 0, "ships_count": 0, "projects": [], "coding_time_seconds": 0, "coding_time_seconds_today": 0, "balance": "You need to have a pocket watcher badge to view this.", "badges": [], "created_at": "2025-07-27T02:12:57.829-04:00", "updated_at": "2025-07-27T09:35:05.082-04:00", "avatar": "https://secure.gravatar.com/avatar/d864ebd6820e4c3e7be49653a2b071dd.jpg?s=512&d=https%3A%2F%2Fa.slack-edge.com%2Fdf10d%2Fimg%2Favatars%2Fava_0026-512.png", "custom_css": null}, {"id": 19521, "slack_id": "U098AHPMTAL", "display_name": "Rushendra", "bio": "", "projects_count": 0, "devlogs_count": 0, "votes_count": 0, "ships_count": 0, "projects": [], "coding_time_seconds": 3788, "coding_time_seconds_today": 0, "balance": "You need to have a pocket watcher badge to view this.", "badges": [], "created_at": "2025-07-27T02:14:40.727-04:00", "updated_at": "2025-07-28T02:54:15.341-04:00", "avatar": "https://secure.gravatar.com/avatar/12d0de8ebdcd9fc1b307bfec3ae5bace.jpg?s=512&d=https%3A%2F%2Fa.slack-edge.com%2Fdf10d%2Fimg%2Favatars%2Fava_0021-512.png", "custom_css": null}, {"id": 19522, "slack_id": "U0981V5EN1F", "display_name": "Matt", "bio": null, "projects_count": 0, "devlogs_count": 0, "votes_count": 0, "ships_count": 0, "projects": [], "coding_time_seconds": 0, "coding_time_seconds_today": 0, "balance": "You need to have a pocket watcher badge to view this.", "badges": [], "created_at": "2025-07-27T02:21:02.374-04:00", "updated_at": "2025-07-27T04:56:51.006-04:00", "avatar": "https://secure.gravatar.com/avatar/bddf8936cd4c7a2da36db2408822dada.jpg?s=512&d=https%3A%2F%2Fa.slack-edge.com%2Fdf10d%2Fimg%2Favatars%2Fava_0007-512.png", "custom_css": null}, {"id": 19523, "slack_id": "U078F3XDYBH", "display_name": "Zachary Lesser", "bio": null, "projects_count": 0, "devlogs_count": 0, "votes_count": 0, "ships_count": 0, "projects": [], "coding_time_seconds": 320386, "coding_time_seconds_today": 0, "balance": "You need to have a pocket watcher badge to view this.", "badges": [], "created_at": "2025-07-27T02:24:35.949-04:00", "updated_at": "2025-08-28T02:27:08.004-04:00", "avatar": "https://secure.gravatar.com/avatar/d9f1bfddc4ee41f028326f03815170f2.jpg?s=512&d=https%3A%2F%2Fa.slack-edge.com%2Fdf10d%2Fimg%2Favatars%2Fava_0001-512.png", "custom_css": null}, {"id": 19524, "slack_id": "U098AJ6U4FJ", "display_name": "Adarsh Raj", "bio": null, "projects_count": 0, "devlogs_count": 0, "votes_count": 0, "ships_count": 0, "projects": [], "coding_time_seconds": 7900, "coding_time_seconds_today": 0, "balance": "You need to have a pocket watcher badge to view this.", "badges": [], "created_at": "2025-07-27T02:29:06.226-04:00", "updated_at": "2025-07-27T04:56:55.211-04:00", "avatar": "https://secure.gravatar.com/avatar/efc5946cfb6b59b4ffaf8d7d9609c2c3.jpg?s=512&d=https%3A%2F%2Fa.slack-edge.com%2Fdf10d%2Fimg%2Favatars%2Fava_0026-512.png", "custom_css": null}, {"id": 19525, "slack_id": "U098AJR8TCY", "display_name": "Nasheetat Rahman", "bio": null, "projects_count": 0, "devlogs_count": 0, "votes_count": 0, "ships_count": 0, "projects": [], "coding_time_seconds": 0, "coding_time_seconds_today": 0, "balance": "You need to have a pocket watcher badge to view this.", "badges": [], "created_at": "2025-07-27T02:40:57.359-04:00", "updated_at": "2025-07-27T04:56:55.288-04:00", "avatar": "https://avatars.slack-edge.com/2025-07-26/9257389462070_a68a06270080dd959c0f_original.png", "custom_css": null}], "pagination": {"page": 972, "pages": 1192, "count": 23828, "items": 20}}