{"users": [{"id": 19526, "slack_id": "U097NLQTS9Y", "display_name": "Binayak Bhattacharjee", "bio": null, "projects_count": 0, "devlogs_count": 0, "votes_count": 0, "ships_count": 0, "projects": [], "coding_time_seconds": 0, "coding_time_seconds_today": 0, "balance": "You need to have a pocket watcher badge to view this.", "badges": [], "created_at": "2025-07-27T02:56:14.636-04:00", "updated_at": "2025-07-27T04:56:55.372-04:00", "avatar": "https://avatars.slack-edge.com/2025-07-26/9244831703895_4b74d7f273a6af577898_original.jpg", "custom_css": null}, {"id": 19527, "slack_id": "U097KBTGPFG", "display_name": "Mohammad Abdul Sahil", "bio": null, "projects_count": 0, "devlogs_count": 0, "votes_count": 0, "ships_count": 0, "projects": [], "coding_time_seconds": 70819, "coding_time_seconds_today": 0, "balance": "You need to have a pocket watcher badge to view this.", "badges": [], "created_at": "2025-07-27T02:58:59.183-04:00", "updated_at": "2025-07-27T04:56:55.449-04:00", "avatar": "https://secure.gravatar.com/avatar/3740b72d89344a8211e519a3fafd9855.jpg?s=512&d=https%3A%2F%2Fa.slack-edge.com%2Fdf10d%2Fimg%2Favatars%2Fava_0013-512.png", "custom_css": null}, {"id": 19528, "slack_id": "U098AJTKUQY", "display_name": "Brian Kasozi", "bio": null, "projects_count": 0, "devlogs_count": 0, "votes_count": 0, "ships_count": 0, "projects": [], "coding_time_seconds": 89304, "coding_time_seconds_today": 1920, "balance": "You need to have a pocket watcher badge to view this.", "badges": [], "created_at": "2025-07-27T03:15:01.126-04:00", "updated_at": "2025-07-27T09:18:54.476-04:00", "avatar": "https://secure.gravatar.com/avatar/c1590e07def017d51d47c198a664143d.jpg?s=512&d=https%3A%2F%2Fa.slack-edge.com%2Fdf10d%2Fimg%2Favatars%2Fava_0010-512.png", "custom_css": null}, {"id": 19529, "slack_id": "U098ALN6J9E", "display_name": "Giriraj Roy", "bio": null, "projects_count": 0, "devlogs_count": 0, "votes_count": 0, "ships_count": 0, "projects": [], "coding_time_seconds": 116238, "coding_time_seconds_today": 0, "balance": "You need to have a pocket watcher badge to view this.", "badges": [], "created_at": "2025-07-27T03:32:27.532-04:00", "updated_at": "2025-07-27T04:56:55.619-04:00", "avatar": "https://secure.gravatar.com/avatar/ddbcac0ebeb75b860c5014d636317a4c.jpg?s=512&d=https%3A%2F%2Fa.slack-edge.com%2Fdf10d%2Fimg%2Favatars%2Fava_0002-512.png", "custom_css": null}, {"id": 19530, "slack_id": "U097PAML2UC", "display_name": "Deep Joshi", "bio": null, "projects_count": 0, "devlogs_count": 0, "votes_count": 0, "ships_count": 0, "projects": [], "coding_time_seconds": 0, "coding_time_seconds_today": 0, "balance": "You need to have a pocket watcher badge to view this.", "badges": [], "created_at": "2025-07-27T03:43:41.601-04:00", "updated_at": "2025-07-27T04:56:55.693-04:00", "avatar": "https://secure.gravatar.com/avatar/2040e04df0061d860e6a08093c6663d6.jpg?s=512&d=https%3A%2F%2Fa.slack-edge.com%2Fdf10d%2Fimg%2Favatars%2Fava_0026-512.png", "custom_css": null}, {"id": 19531, "slack_id": "U097NA9Q5GS", "display_name": "Se _er", "bio": null, "projects_count": 0, "devlogs_count": 0, "votes_count": 0, "ships_count": 0, "projects": [], "coding_time_seconds": 679, "coding_time_seconds_today": 0, "balance": "You need to have a pocket watcher badge to view this.", "badges": [], "created_at": "2025-07-27T03:52:54.710-04:00", "updated_at": "2025-07-27T04:56:55.768-04:00", "avatar": "https://avatars.slack-edge.com/2025-07-27/9255502662307_266b9b496670efe99f7f_original.png", "custom_css": null}, {"id": 19532, "slack_id": "U098ANA4GSU", "display_name": "Arunava Nandi", "bio": null, "projects_count": 0, "devlogs_count": 0, "votes_count": 0, "ships_count": 0, "projects": [], "coding_time_seconds": 14172, "coding_time_seconds_today": 0, "balance": "You need to have a pocket watcher badge to view this.", "badges": [], "created_at": "2025-07-27T04:14:34.337-04:00", "updated_at": "2025-07-27T04:56:55.849-04:00", "avatar": "https://secure.gravatar.com/avatar/a48d52db9fdb0cc2baad56fe53d699c3.jpg?s=512&d=https%3A%2F%2Fa.slack-edge.com%2Fdf10d%2Fimg%2Favatars%2Fava_0011-512.png", "custom_css": null}, {"id": 19533, "slack_id": "U097KGKEW5C", "display_name": "Salah", "bio": null, "projects_count": 0, "devlogs_count": 0, "votes_count": 0, "ships_count": 0, "projects": [], "coding_time_seconds": 21547, "coding_time_seconds_today": 0, "balance": "You need to have a pocket watcher badge to view this.", "badges": [], "created_at": "2025-07-27T05:03:13.701-04:00", "updated_at": "2025-07-27T13:30:22.930-04:00", "avatar": "https://secure.gravatar.com/avatar/4f1af5ab5883c56af7838c3a1a8cf1ae.jpg?s=512&d=https%3A%2F%2Fa.slack-edge.com%2Fdf10d%2Fimg%2Favatars%2Fava_0013-512.png", "custom_css": null}, {"id": 19534, "slack_id": "U097HHJ538B", "display_name": "GalacticVraj", "bio": null, "projects_count": 1, "devlogs_count": 0, "votes_count": 0, "ships_count": 0, "projects": [{"id": 8435, "title": "Deep Learning - CNN on MNIST Dataset", "devlogs_count": 0, "created_at": "2025-07-27T05:26:13.107-04:00"}], "coding_time_seconds": 51630, "coding_time_seconds_today": 0, "balance": "You need to have a pocket watcher badge to view this.", "badges": [], "created_at": "2025-07-27T05:07:17.751-04:00", "updated_at": "2025-07-27T13:30:23.008-04:00", "avatar": "https://secure.gravatar.com/avatar/9afcbee13e727e9f061450e84eee9245.jpg?s=512&d=https%3A%2F%2Fa.slack-edge.com%2Fdf10d%2Fimg%2Favatars%2Fava_0024-512.png", "custom_css": null}, {"id": 19535, "slack_id": "U0982G5V925", "display_name": "FARES", "bio": null, "projects_count": 0, "devlogs_count": 0, "votes_count": 0, "ships_count": 0, "projects": [], "coding_time_seconds": 0, "coding_time_seconds_today": 0, "balance": "You need to have a pocket watcher badge to view this.", "badges": [], "created_at": "2025-07-27T05:11:21.162-04:00", "updated_at": "2025-07-28T17:25:11.684-04:00", "avatar": "https://secure.gravatar.com/avatar/add7de1223e524eb3e5c78704b8bf18b.jpg?s=512&d=https%3A%2F%2Fa.slack-edge.com%2Fdf10d%2Fimg%2Favatars%2Fava_0015-512.png", "custom_css": null}, {"id": 19536, "slack_id": "U0982HJKKPB", "display_name": "Boris", "bio": null, "projects_count": 0, "devlogs_count": 0, "votes_count": 0, "ships_count": 0, "projects": [], "coding_time_seconds": 0, "coding_time_seconds_today": 0, "balance": "You need to have a pocket watcher badge to view this.", "badges": [], "created_at": "2025-07-27T05:31:26.984-04:00", "updated_at": "2025-07-28T10:56:17.682-04:00", "avatar": "https://secure.gravatar.com/avatar/c62fe5ec1688904ac32f966a5df9b687.jpg?s=512&d=https%3A%2F%2Fa.slack-edge.com%2Fdf10d%2Fimg%2Favatars%2Fava_0000-512.png", "custom_css": null}, {"id": 19537, "slack_id": "U0982HR7XC1", "display_name": "dennis", "bio": null, "projects_count": 0, "devlogs_count": 0, "votes_count": 0, "ships_count": 0, "projects": [], "coding_time_seconds": 0, "coding_time_seconds_today": 0, "balance": "You need to have a pocket watcher badge to view this.", "badges": [], "created_at": "2025-07-27T05:36:13.876-04:00", "updated_at": "2025-07-27T13:30:23.267-04:00", "avatar": "https://secure.gravatar.com/avatar/6c20132c0e2d7ac2f9b09821d6407c0a.jpg?s=512&d=https%3A%2F%2Fa.slack-edge.com%2Fdf10d%2Fimg%2Favatars%2Fava_0003-512.png", "custom_css": null}, {"id": 19538, "slack_id": "U098ARUAGBA", "display_name": "Batoul iH", "bio": null, "projects_count": 0, "devlogs_count": 0, "votes_count": 0, "ships_count": 0, "projects": [], "coding_time_seconds": 0, "coding_time_seconds_today": 0, "balance": "You need to have a pocket watcher badge to view this.", "badges": [], "created_at": "2025-07-27T05:42:43.536-04:00", "updated_at": "2025-07-27T13:30:23.354-04:00", "avatar": "https://avatars.slack-edge.com/2025-07-27/9274624114065_7a4b447f397529c60780_original.png", "custom_css": null}, {"id": 19539, "slack_id": "U097MGTRTJR", "display_name": "mohamd", "bio": null, "projects_count": 0, "devlogs_count": 0, "votes_count": 0, "ships_count": 0, "projects": [], "coding_time_seconds": 0, "coding_time_seconds_today": 0, "balance": "You need to have a pocket watcher badge to view this.", "badges": [], "created_at": "2025-07-27T05:44:38.899-04:00", "updated_at": "2025-07-29T01:49:05.406-04:00", "avatar": "https://secure.gravatar.com/avatar/c70370a5a9f6cff8311e6080919f7ae7.jpg?s=512&d=https%3A%2F%2Fa.slack-edge.com%2Fdf10d%2Fimg%2Favatars%2Fava_0002-512.png", "custom_css": null}, {"id": 19540, "slack_id": "U097PFM3GAY", "display_name": "Isabelle", "bio": null, "projects_count": 0, "devlogs_count": 0, "votes_count": 0, "ships_count": 0, "projects": [], "coding_time_seconds": 0, "coding_time_seconds_today": 0, "balance": "You need to have a pocket watcher badge to view this.", "badges": [], "created_at": "2025-07-27T05:45:25.000-04:00", "updated_at": "2025-07-27T13:53:24.145-04:00", "avatar": "https://secure.gravatar.com/avatar/d3686cd00e80726ccef55afad1a37c70.jpg?s=512&d=https%3A%2F%2Fa.slack-edge.com%2Fdf10d%2Fimg%2Favatars%2Fava_0004-512.png", "custom_css": null}, {"id": 19541, "slack_id": "U098ARXTBA4", "display_name": "dconco", "bio": null, "projects_count": 0, "devlogs_count": 0, "votes_count": 0, "ships_count": 0, "projects": [], "coding_time_seconds": 0, "coding_time_seconds_today": 0, "balance": "You need to have a pocket watcher badge to view this.", "badges": [], "created_at": "2025-07-27T06:16:08.685-04:00", "updated_at": "2025-07-27T13:30:23.683-04:00", "avatar": "https://secure.gravatar.com/avatar/a83d6e29cee754e7c69c6b112dd3f3c2.jpg?s=512&d=https%3A%2F%2Fa.slack-edge.com%2Fdf10d%2Fimg%2Favatars%2Fava_0004-512.png", "custom_css": null}, {"id": 19542, "slack_id": "U098AT9HHR6", "display_name": "TheRealOne78", "bio": null, "projects_count": 0, "devlogs_count": 0, "votes_count": 0, "ships_count": 0, "projects": [], "coding_time_seconds": 0, "coding_time_seconds_today": 0, "balance": "You need to have a pocket watcher badge to view this.", "badges": [], "created_at": "2025-07-27T06:21:34.745-04:00", "updated_at": "2025-07-27T13:30:23.767-04:00", "avatar": "https://secure.gravatar.com/avatar/7670c39b47fb0de0e9031579befa5ac2.jpg?s=512&d=https%3A%2F%2Fa.slack-edge.com%2Fdf10d%2Fimg%2Favatars%2Fava_0020-512.png", "custom_css": null}, {"id": 19543, "slack_id": "U097734AL79", "display_name": "Avi Fenesh", "bio": null, "projects_count": 2, "devlogs_count": 0, "votes_count": 0, "ships_count": 0, "projects": [{"id": 8444, "title": "30 colorful days of vim", "devlogs_count": 0, "created_at": "2025-07-27T08:08:05.902-04:00"}, {"id": 8445, "title": "claucode.nvim", "devlogs_count": 0, "created_at": "2025-07-27T08:10:34.072-04:00"}], "coding_time_seconds": 160015, "coding_time_seconds_today": 0, "balance": "You need to have a pocket watcher badge to view this.", "badges": [], "created_at": "2025-07-27T06:31:26.151-04:00", "updated_at": "2025-07-27T13:30:23.852-04:00", "avatar": "https://secure.gravatar.com/avatar/fa9cad52926697b7460bc28c8c7a5eb6.jpg?s=512&d=https%3A%2F%2Fa.slack-edge.com%2Fdf10d%2Fimg%2Favatars%2Fava_0013-512.png", "custom_css": null}, {"id": 19544, "slack_id": "U097KKW6RRU", "display_name": "Aathmaj", "bio": null, "projects_count": 3, "devlogs_count": 8, "votes_count": 21, "ships_count": 1, "projects": [{"id": 8600, "title": "Vector", "devlogs_count": 2, "created_at": "2025-07-28T13:21:38.187-04:00"}, {"id": 9305, "title": "Fractal Lab", "devlogs_count": 0, "created_at": "2025-07-31T13:32:46.654-04:00"}, {"id": 9306, "title": "Fractal Lab", "devlogs_count": 6, "created_at": "2025-07-31T13:32:46.690-04:00"}], "coding_time_seconds": 19062, "coding_time_seconds_today": 0, "balance": "You need to have a pocket watcher badge to view this.", "badges": [], "created_at": "2025-07-27T06:32:57.747-04:00", "updated_at": "2025-07-28T18:32:42.882-04:00", "avatar": "https://secure.gravatar.com/avatar/c684f08ced56d51930840f0fb0f83899.jpg?s=512&d=https%3A%2F%2Fa.slack-edge.com%2Fdf10d%2Fimg%2Favatars%2Fava_0000-512.png", "custom_css": null}, {"id": 19545, "slack_id": "U097NV2AKPC", "display_name": "Amrit Bikram Shahi", "bio": null, "projects_count": 0, "devlogs_count": 0, "votes_count": 0, "ships_count": 0, "projects": [], "coding_time_seconds": 0, "coding_time_seconds_today": 0, "balance": "You need to have a pocket watcher badge to view this.", "badges": [], "created_at": "2025-07-27T06:33:47.304-04:00", "updated_at": "2025-07-28T20:16:51.213-04:00", "avatar": "https://avatars.slack-edge.com/2025-07-28/9260841788643_70dd01dcce406544a5d8_original.jpg", "custom_css": null}], "pagination": {"page": 973, "pages": 1192, "count": 23828, "items": 20}}