{"users": [{"id": 19546, "slack_id": "U098ATU6G64", "display_name": "Alimad Gaming", "bio": null, "projects_count": 0, "devlogs_count": 0, "votes_count": 0, "ships_count": 0, "projects": [], "coding_time_seconds": 0, "coding_time_seconds_today": 0, "balance": "You need to have a pocket watcher badge to view this.", "badges": [], "created_at": "2025-07-27T06:35:44.740-04:00", "updated_at": "2025-07-27T13:30:24.133-04:00", "avatar": "https://secure.gravatar.com/avatar/8e5a9cb6d442fde4dc5610e8e9f7f3f4.jpg?s=512&d=https%3A%2F%2Fa.slack-edge.com%2Fdf10d%2Fimg%2Favatars%2Fava_0023-512.png", "custom_css": null}, {"id": 19547, "slack_id": "U097HLYTRD1", "display_name": "Zain Ali Khan", "bio": null, "projects_count": 0, "devlogs_count": 0, "votes_count": 0, "ships_count": 0, "projects": [], "coding_time_seconds": 0, "coding_time_seconds_today": 0, "balance": "You need to have a pocket watcher badge to view this.", "badges": [], "created_at": "2025-07-27T06:40:23.334-04:00", "updated_at": "2025-07-27T13:30:24.215-04:00", "avatar": "https://secure.gravatar.com/avatar/aae3acf67354abc2b03041c7c6344ad2.jpg?s=512&d=https%3A%2F%2Fa.slack-edge.com%2Fdf10d%2Fimg%2Favatars%2Fava_0009-512.png", "custom_css": null}, {"id": 19548, "slack_id": "U0982LYKW9X", "display_name": "vioplea", "bio": null, "projects_count": 1, "devlogs_count": 1, "votes_count": 5, "ships_count": 0, "projects": [{"id": 8457, "title": "Study Tracker", "devlogs_count": 1, "created_at": "2025-07-27T10:22:41.589-04:00"}], "coding_time_seconds": 42359, "coding_time_seconds_today": 0, "balance": "You need to have a pocket watcher badge to view this.", "badges": [], "created_at": "2025-07-27T06:59:21.197-04:00", "updated_at": "2025-07-27T13:30:24.316-04:00", "avatar": "https://secure.gravatar.com/avatar/63e8a52beba7ba5d65aeb9968d8ee59d.jpg?s=512&d=https%3A%2F%2Fa.slack-edge.com%2Fdf10d%2Fimg%2Favatars%2Fava_0014-512.png", "custom_css": null}, {"id": 19549, "slack_id": "U097MKZ8WSZ", "display_name": "Damini", "bio": null, "projects_count": 0, "devlogs_count": 0, "votes_count": 0, "ships_count": 0, "projects": [], "coding_time_seconds": 43893, "coding_time_seconds_today": 6093, "balance": "You need to have a pocket watcher badge to view this.", "badges": [], "created_at": "2025-07-27T07:09:07.606-04:00", "updated_at": "2025-07-27T13:30:24.395-04:00", "avatar": "https://secure.gravatar.com/avatar/b5375d64335c82fbd9d0e9951e5000e5.jpg?s=512&d=https%3A%2F%2Fa.slack-edge.com%2Fdf10d%2Fimg%2Favatars%2Fava_0004-512.png", "custom_css": null}, {"id": 19550, "slack_id": "U0982MW083B", "display_name": "miguel", "bio": null, "projects_count": 1, "devlogs_count": 2, "votes_count": 4, "ships_count": 1, "projects": [{"id": 8557, "title": "cantolico", "devlogs_count": 2, "created_at": "2025-07-28T06:36:51.287-04:00"}], "coding_time_seconds": 59740, "coding_time_seconds_today": 0, "balance": "You need to have a pocket watcher badge to view this.", "badges": [], "created_at": "2025-07-27T07:13:19.388-04:00", "updated_at": "2025-09-05T21:42:29.464-04:00", "avatar": "https://avatars.slack-edge.com/2025-09-05/9470789535698_f085860c834adaab722a_original.png", "custom_css": null}, {"id": 19551, "slack_id": "U097P1GS4RY", "display_name": "Resam Zaha", "bio": null, "projects_count": 0, "devlogs_count": 0, "votes_count": 0, "ships_count": 0, "projects": [], "coding_time_seconds": 0, "coding_time_seconds_today": 0, "balance": "You need to have a pocket watcher badge to view this.", "badges": [], "created_at": "2025-07-27T07:21:40.418-04:00", "updated_at": "2025-07-27T13:30:24.573-04:00", "avatar": "https://secure.gravatar.com/avatar/5c6df87d9f923519dbc175f73e3b6c98.jpg?s=512&d=https%3A%2F%2Fa.slack-edge.com%2Fdf10d%2Fimg%2Favatars%2Fava_0015-512.png", "custom_css": null}, {"id": 19552, "slack_id": "U0982NP6P8R", "display_name": "cabylock", "bio": null, "projects_count": 0, "devlogs_count": 0, "votes_count": 0, "ships_count": 0, "projects": [], "coding_time_seconds": 0, "coding_time_seconds_today": 0, "balance": "You need to have a pocket watcher badge to view this.", "badges": [], "created_at": "2025-07-27T07:33:35.776-04:00", "updated_at": "2025-07-27T13:30:24.663-04:00", "avatar": "https://secure.gravatar.com/avatar/cc4cacad6708cf5ce0af9b71f09cba81.jpg?s=512&d=https%3A%2F%2Fa.slack-edge.com%2Fdf10d%2Fimg%2Favatars%2Fava_0011-512.png", "custom_css": null}, {"id": 19553, "slack_id": "U098B0F0WBA", "display_name": "aryan", "bio": null, "projects_count": 0, "devlogs_count": 0, "votes_count": 0, "ships_count": 0, "projects": [], "coding_time_seconds": 28120, "coding_time_seconds_today": 0, "balance": "You need to have a pocket watcher badge to view this.", "badges": [], "created_at": "2025-07-27T07:33:50.023-04:00", "updated_at": "2025-07-31T14:34:21.879-04:00", "avatar": "https://avatars.slack-edge.com/2025-07-29/9264597252355_f69e4d8692602ca71261_original.jpg", "custom_css": null}, {"id": 19554, "slack_id": "U097KNFJMKQ", "display_name": "PB ProgrammingBuilder", "bio": null, "projects_count": 0, "devlogs_count": 0, "votes_count": 0, "ships_count": 0, "projects": [], "coding_time_seconds": 0, "coding_time_seconds_today": 0, "balance": "You need to have a pocket watcher badge to view this.", "badges": [], "created_at": "2025-07-27T07:43:25.595-04:00", "updated_at": "2025-07-27T13:30:24.928-04:00", "avatar": "https://avatars.slack-edge.com/2025-07-27/9261702647252_698c1c5341dbb8e63305_original.png", "custom_css": null}, {"id": 19555, "slack_id": "U097MMLQNTX", "display_name": "Mosh", "bio": null, "projects_count": 0, "devlogs_count": 0, "votes_count": 0, "ships_count": 0, "projects": [], "coding_time_seconds": 0, "coding_time_seconds_today": 0, "balance": "You need to have a pocket watcher badge to view this.", "badges": [], "created_at": "2025-07-27T07:46:01.864-04:00", "updated_at": "2025-07-27T13:30:25.013-04:00", "avatar": "https://secure.gravatar.com/avatar/c418c0531096ef973f62cf70d7613262.jpg?s=512&d=https%3A%2F%2Fa.slack-edge.com%2Fdf10d%2Fimg%2Favatars%2Fava_0005-512.png", "custom_css": null}, {"id": 19556, "slack_id": "U097764P4T1", "display_name": "Naz", "bio": null, "projects_count": 0, "devlogs_count": 0, "votes_count": 0, "ships_count": 0, "projects": [], "coding_time_seconds": 0, "coding_time_seconds_today": 0, "balance": "You need to have a pocket watcher badge to view this.", "badges": [], "created_at": "2025-07-27T07:47:37.732-04:00", "updated_at": "2025-07-27T13:30:25.098-04:00", "avatar": "https://secure.gravatar.com/avatar/63f46b8101711d82a257eb3ec9f3eb17.jpg?s=512&d=https%3A%2F%2Fa.slack-edge.com%2Fdf10d%2Fimg%2Favatars%2Fava_0004-512.png", "custom_css": null}, {"id": 19557, "slack_id": "U097MN36893", "display_name": "omar", "bio": null, "projects_count": 0, "devlogs_count": 0, "votes_count": 0, "ships_count": 0, "projects": [], "coding_time_seconds": 0, "coding_time_seconds_today": 0, "balance": "You need to have a pocket watcher badge to view this.", "badges": [], "created_at": "2025-07-27T08:00:01.184-04:00", "updated_at": "2025-07-27T13:30:25.183-04:00", "avatar": "https://secure.gravatar.com/avatar/4fa1546be98223a26d11843011834d0a.jpg?s=512&d=https%3A%2F%2Fa.slack-edge.com%2Fdf10d%2Fimg%2Favatars%2Fava_0008-512.png", "custom_css": null}, {"id": 19558, "slack_id": "U09776WDAMV", "display_name": "Abdul shaikh", "bio": null, "projects_count": 0, "devlogs_count": 0, "votes_count": 0, "ships_count": 0, "projects": [], "coding_time_seconds": 0, "coding_time_seconds_today": 0, "balance": "You need to have a pocket watcher badge to view this.", "badges": [], "created_at": "2025-07-27T08:05:25.185-04:00", "updated_at": "2025-07-27T13:30:25.279-04:00", "avatar": "https://secure.gravatar.com/avatar/6e2c54b612ded5cb654564bd4a7e3468.jpg?s=512&d=https%3A%2F%2Fa.slack-edge.com%2Fdf10d%2Fimg%2Favatars%2Fava_0007-512.png", "custom_css": null}, {"id": 19559, "slack_id": "U097PMHJQCU", "display_name": "Areeba Azam", "bio": null, "projects_count": 0, "devlogs_count": 0, "votes_count": 0, "ships_count": 0, "projects": [], "coding_time_seconds": 0, "coding_time_seconds_today": 0, "balance": "You need to have a pocket watcher badge to view this.", "badges": [], "created_at": "2025-07-27T08:15:29.784-04:00", "updated_at": "2025-07-27T13:30:25.368-04:00", "avatar": "https://secure.gravatar.com/avatar/ab8df0400dfeef67123cca3cb1d7259f.jpg?s=512&d=https%3A%2F%2Fa.slack-edge.com%2Fdf10d%2Fimg%2Favatars%2Fava_0019-512.png", "custom_css": null}, {"id": 19560, "slack_id": "U097HQXL7GT", "display_name": "Anish Harsha Jannabhatla", "bio": null, "projects_count": 0, "devlogs_count": 0, "votes_count": 0, "ships_count": 0, "projects": [], "coding_time_seconds": 0, "coding_time_seconds_today": 0, "balance": "You need to have a pocket watcher badge to view this.", "badges": [], "created_at": "2025-07-27T08:17:12.360-04:00", "updated_at": "2025-07-27T13:30:25.458-04:00", "avatar": "https://secure.gravatar.com/avatar/efe6d2bcf71b0bfe5065bb613ed9af09.jpg?s=512&d=https%3A%2F%2Fa.slack-edge.com%2Fdf10d%2Fimg%2Favatars%2Fava_0016-512.png", "custom_css": null}, {"id": 19561, "slack_id": "U097MP0K5QV", "display_name": "Sivasai", "bio": null, "projects_count": 0, "devlogs_count": 0, "votes_count": 0, "ships_count": 0, "projects": [], "coding_time_seconds": 0, "coding_time_seconds_today": 0, "balance": "You need to have a pocket watcher badge to view this.", "badges": [], "created_at": "2025-07-27T08:18:01.905-04:00", "updated_at": "2025-07-27T13:30:29.579-04:00", "avatar": "https://secure.gravatar.com/avatar/f51dedbd47746ec1d5c1632b2bf5a111.jpg?s=512&d=https%3A%2F%2Fa.slack-edge.com%2Fdf10d%2Fimg%2Favatars%2Fava_0011-512.png", "custom_css": null}, {"id": 19562, "slack_id": "U0982QVP709", "display_name": "omar alramamneh", "bio": null, "projects_count": 0, "devlogs_count": 0, "votes_count": 0, "ships_count": 0, "projects": [], "coding_time_seconds": 0, "coding_time_seconds_today": 0, "balance": "You need to have a pocket watcher badge to view this.", "badges": [], "created_at": "2025-07-27T08:23:47.026-04:00", "updated_at": "2025-07-27T13:30:29.676-04:00", "avatar": "https://secure.gravatar.com/avatar/a9fb0d510c0d471d366af57a21d691b7.jpg?s=512&d=https%3A%2F%2Fa.slack-edge.com%2Fdf10d%2Fimg%2Favatars%2Fava_0015-512.png", "custom_css": null}, {"id": 19563, "slack_id": "U07DMMMKP5J", "display_name": "Kfir", "bio": null, "projects_count": 0, "devlogs_count": 0, "votes_count": 0, "ships_count": 0, "projects": [], "coding_time_seconds": 0, "coding_time_seconds_today": 0, "balance": "You need to have a pocket watcher badge to view this.", "badges": [], "created_at": "2025-07-27T08:31:47.944-04:00", "updated_at": "2025-07-27T15:40:18.759-04:00", "avatar": "https://secure.gravatar.com/avatar/7bebba65a2487b8b9209f56e774759dc.jpg?s=512&d=https%3A%2F%2Fa.slack-edge.com%2Fdf10d%2Fimg%2Favatars%2Fava_0020-512.png", "custom_css": null}, {"id": 19564, "slack_id": "U097NPS4UTU", "display_name": "Abhik Ghosh", "bio": null, "projects_count": 0, "devlogs_count": 0, "votes_count": 0, "ships_count": 0, "projects": [], "coding_time_seconds": 22055, "coding_time_seconds_today": 0, "balance": "You need to have a pocket watcher badge to view this.", "badges": [], "created_at": "2025-07-27T08:36:45.300-04:00", "updated_at": "2025-07-27T13:30:29.817-04:00", "avatar": "https://avatars.slack-edge.com/2025-07-27/9274875205409_28def79cac12406b5792_original.jpg", "custom_css": null}, {"id": 19565, "slack_id": "U0982SPU7S5", "display_name": "Dhanush P Reji", "bio": null, "projects_count": 0, "devlogs_count": 0, "votes_count": 0, "ships_count": 0, "projects": [], "coding_time_seconds": 4642, "coding_time_seconds_today": 0, "balance": "You need to have a pocket watcher badge to view this.", "badges": [], "created_at": "2025-07-27T09:02:42.924-04:00", "updated_at": "2025-07-27T13:30:29.906-04:00", "avatar": "https://avatars.slack-edge.com/2025-07-27/9255922008083_ee70c6be083ed6093c08_original.png", "custom_css": null}], "pagination": {"page": 974, "pages": 1192, "count": 23828, "items": 20}}