{"users": [{"id": 19586, "slack_id": "U097NPSP76G", "display_name": "Kunal Aki", "bio": null, "projects_count": 0, "devlogs_count": 0, "votes_count": 0, "ships_count": 0, "projects": [], "coding_time_seconds": 7196, "coding_time_seconds_today": 0, "balance": "You need to have a pocket watcher badge to view this.", "badges": [], "created_at": "2025-07-27T11:17:46.368-04:00", "updated_at": "2025-07-27T13:30:36.737-04:00", "avatar": "https://secure.gravatar.com/avatar/3732f25e303e4238b7b597be0b5e31fb.jpg?s=512&d=https%3A%2F%2Fa.slack-edge.com%2Fdf10d%2Fimg%2Favatars%2Fava_0010-512.png", "custom_css": null}, {"id": 19587, "slack_id": "U09834NHF97", "display_name": "Chetan", "bio": null, "projects_count": 0, "devlogs_count": 0, "votes_count": 0, "ships_count": 0, "projects": [], "coding_time_seconds": 0, "coding_time_seconds_today": 0, "balance": "You need to have a pocket watcher badge to view this.", "badges": [], "created_at": "2025-07-27T11:40:00.947-04:00", "updated_at": "2025-08-07T13:38:12.333-04:00", "avatar": "https://secure.gravatar.com/avatar/8928c30fe8cfd2ebcbe5db0ad8321cdd.jpg?s=512&d=https%3A%2F%2Fa.slack-edge.com%2Fdf10d%2Fimg%2Favatars%2Fava_0015-512.png", "custom_css": null}, {"id": 19588, "slack_id": "U097Q14M94L", "display_name": "Deb", "bio": null, "projects_count": 0, "devlogs_count": 0, "votes_count": 0, "ships_count": 0, "projects": [], "coding_time_seconds": 0, "coding_time_seconds_today": 0, "balance": "You need to have a pocket watcher badge to view this.", "badges": [], "created_at": "2025-07-27T11:44:34.253-04:00", "updated_at": "2025-07-27T13:30:36.932-04:00", "avatar": "https://secure.gravatar.com/avatar/171c8bfaef7db97971f2c16fbfee959e.jpg?s=512&d=https%3A%2F%2Fa.slack-edge.com%2Fdf10d%2Fimg%2Favatars%2Fava_0015-512.png", "custom_css": null}, {"id": 19589, "slack_id": "U09835Q2MDX", "display_name": "Fuddie", "bio": null, "projects_count": 0, "devlogs_count": 0, "votes_count": 0, "ships_count": 0, "projects": [], "coding_time_seconds": 0, "coding_time_seconds_today": 0, "balance": "You need to have a pocket watcher badge to view this.", "badges": [], "created_at": "2025-07-27T12:03:40.313-04:00", "updated_at": "2025-07-27T13:30:37.794-04:00", "avatar": "https://secure.gravatar.com/avatar/20fa1ac8b4da11f37be349c52436ceaf.jpg?s=512&d=https%3A%2F%2Fa.slack-edge.com%2Fdf10d%2Fimg%2Favatars%2Fava_0022-512.png", "custom_css": null}, {"id": 19590, "slack_id": "U097MB8HSGM", "display_name": "Ackerman", "bio": null, "projects_count": 0, "devlogs_count": 0, "votes_count": 0, "ships_count": 0, "projects": [], "coding_time_seconds": 0, "coding_time_seconds_today": 0, "balance": "You need to have a pocket watcher badge to view this.", "badges": [], "created_at": "2025-07-27T12:04:02.951-04:00", "updated_at": "2025-07-27T13:30:37.888-04:00", "avatar": "https://secure.gravatar.com/avatar/0fef03630334350aabbe0d733ef1419f.jpg?s=512&d=https%3A%2F%2Fa.slack-edge.com%2Fdf10d%2Fimg%2Favatars%2Fava_0008-512.png", "custom_css": null}, {"id": 19591, "slack_id": "U0977HQFFGF", "display_name": "R A I N Z", "bio": null, "projects_count": 1, "devlogs_count": 0, "votes_count": 0, "ships_count": 0, "projects": [{"id": 8771, "title": "Bizlytics", "devlogs_count": 0, "created_at": "2025-07-29T08:06:02.204-04:00"}], "coding_time_seconds": 15029, "coding_time_seconds_today": 0, "balance": "You need to have a pocket watcher badge to view this.", "badges": [], "created_at": "2025-07-27T12:18:34.727-04:00", "updated_at": "2025-07-29T07:59:34.358-04:00", "avatar": "https://avatars.slack-edge.com/2025-07-27/9262112693220_b9dab239a087275bd3da_original.jpg", "custom_css": null}, {"id": 19592, "slack_id": "U08AHJVSFQE", "display_name": "Michelle Yeboah", "bio": null, "projects_count": 0, "devlogs_count": 0, "votes_count": 0, "ships_count": 0, "projects": [], "coding_time_seconds": 0, "coding_time_seconds_today": 0, "balance": "You need to have a pocket watcher badge to view this.", "badges": [], "created_at": "2025-07-27T12:32:26.963-04:00", "updated_at": "2025-07-29T18:27:02.592-04:00", "avatar": "https://avatars.slack-edge.com/2025-01-28/8349741154711_59eeaebe4379cc7324cd_original.png", "custom_css": null}, {"id": 19593, "slack_id": "U098397AWCR", "display_name": "Radsi", "bio": null, "projects_count": 0, "devlogs_count": 0, "votes_count": 0, "ships_count": 0, "projects": [], "coding_time_seconds": 0, "coding_time_seconds_today": 0, "balance": "You need to have a pocket watcher badge to view this.", "badges": [], "created_at": "2025-07-27T13:19:49.685-04:00", "updated_at": "2025-09-22T17:39:49.559-04:00", "avatar": "https://avatars.slack-edge.com/2025-09-22/9590819539024_970ccfd8a8877668fb24_original.png", "custom_css": null}, {"id": 19594, "slack_id": "U097N6AM953", "display_name": "K.V.L.V.Narasimha Prakash", "bio": null, "projects_count": 0, "devlogs_count": 0, "votes_count": 0, "ships_count": 0, "projects": [], "coding_time_seconds": 0, "coding_time_seconds_today": 0, "balance": "You need to have a pocket watcher badge to view this.", "badges": [], "created_at": "2025-07-27T13:20:11.024-04:00", "updated_at": "2025-07-27T18:23:45.412-04:00", "avatar": "https://secure.gravatar.com/avatar/32ee8af21116f985c9ce3d5395c8bea2.jpg?s=512&d=https%3A%2F%2Fa.slack-edge.com%2Fdf10d%2Fimg%2Favatars%2Fava_0005-512.png", "custom_css": null}, {"id": 19595, "slack_id": "U097Q6PTWJY", "display_name": "A.S.Mohamed Arfeen", "bio": null, "projects_count": 0, "devlogs_count": 0, "votes_count": 0, "ships_count": 0, "projects": [], "coding_time_seconds": 0, "coding_time_seconds_today": 0, "balance": "You need to have a pocket watcher badge to view this.", "badges": [], "created_at": "2025-07-27T13:42:19.234-04:00", "updated_at": "2025-07-27T18:23:45.494-04:00", "avatar": "https://avatars.slack-edge.com/2025-07-27/9261574333874_6918b45962d149325a0a_original.png", "custom_css": null}, {"id": 19596, "slack_id": "U095X9FE1CH", "display_name": "Ammar", "bio": null, "projects_count": 0, "devlogs_count": 0, "votes_count": 0, "ships_count": 0, "projects": [], "coding_time_seconds": 3925, "coding_time_seconds_today": 0, "balance": "You need to have a pocket watcher badge to view this.", "badges": [], "created_at": "2025-07-27T13:48:00.935-04:00", "updated_at": "2025-07-28T08:53:40.920-04:00", "avatar": "https://secure.gravatar.com/avatar/9aeb21028b2806fb1a7b5eab85477e0f.jpg?s=512&d=https%3A%2F%2Fa.slack-edge.com%2Fdf10d%2Fimg%2Favatars%2Fava_0011-512.png", "custom_css": null}, {"id": 19597, "slack_id": "U098BGTNAJC", "display_name": "abhimanyu Singh", "bio": null, "projects_count": 0, "devlogs_count": 0, "votes_count": 2, "ships_count": 0, "projects": [], "coding_time_seconds": 2286, "coding_time_seconds_today": 0, "balance": "You need to have a pocket watcher badge to view this.", "badges": [], "created_at": "2025-07-27T13:48:37.210-04:00", "updated_at": "2025-07-28T08:34:00.353-04:00", "avatar": "https://secure.gravatar.com/avatar/0fac179eb8352c6fb8d83259b2860d05.jpg?s=512&d=https%3A%2F%2Fa.slack-edge.com%2Fdf10d%2Fimg%2Favatars%2Fava_0005-512.png", "custom_css": null}, {"id": 19598, "slack_id": "U097N761K7X", "display_name": "Max Hickin", "bio": null, "projects_count": 0, "devlogs_count": 0, "votes_count": 0, "ships_count": 0, "projects": [], "coding_time_seconds": 2939, "coding_time_seconds_today": 0, "balance": "You need to have a pocket watcher badge to view this.", "badges": [], "created_at": "2025-07-27T13:49:12.478-04:00", "updated_at": "2025-07-27T18:23:45.788-04:00", "avatar": "https://secure.gravatar.com/avatar/2cc7854b926221e517c684607e70909e.jpg?s=512&d=https%3A%2F%2Fa.slack-edge.com%2Fdf10d%2Fimg%2Favatars%2Fava_0025-512.png", "custom_css": null}, {"id": 19599, "slack_id": "U0983AETUG1", "display_name": "skill", "bio": null, "projects_count": 0, "devlogs_count": 0, "votes_count": 0, "ships_count": 0, "projects": [], "coding_time_seconds": 0, "coding_time_seconds_today": 0, "balance": "You need to have a pocket watcher badge to view this.", "badges": [], "created_at": "2025-07-27T13:49:13.911-04:00", "updated_at": "2025-08-20T09:45:22.790-04:00", "avatar": "https://avatars.slack-edge.com/2025-08-20/9383425082244_14312734a853a87556d6_original.jpg", "custom_css": null}, {"id": 19600, "slack_id": "U086GPQFMJA", "display_name": "Leyli", "bio": null, "projects_count": 0, "devlogs_count": 0, "votes_count": 0, "ships_count": 0, "projects": [], "coding_time_seconds": 0, "coding_time_seconds_today": 0, "balance": "You need to have a pocket watcher badge to view this.", "badges": [], "created_at": "2025-07-27T13:53:54.671-04:00", "updated_at": "2025-07-27T18:23:46.025-04:00", "avatar": "https://secure.gravatar.com/avatar/06a4b632918b56395855926e9895fa13.jpg?s=512&d=https%3A%2F%2Fa.slack-edge.com%2Fdf10d%2Fimg%2Favatars%2Fava_0019-512.png", "custom_css": null}, {"id": 19601, "slack_id": "U097PHNGBSN", "display_name": "pretty", "bio": null, "projects_count": 0, "devlogs_count": 0, "votes_count": 0, "ships_count": 0, "projects": [], "coding_time_seconds": 0, "coding_time_seconds_today": 0, "balance": "You need to have a pocket watcher badge to view this.", "badges": [], "created_at": "2025-07-27T14:06:44.234-04:00", "updated_at": "2025-07-27T18:23:46.131-04:00", "avatar": "https://secure.gravatar.com/avatar/2830e5d630fbfcae2adb90a21a8809e2.jpg?s=512&d=https%3A%2F%2Fa.slack-edge.com%2Fdf10d%2Fimg%2Favatars%2Fava_0003-512.png", "custom_css": null}, {"id": 19602, "slack_id": "U097L8817B8", "display_name": "Zakriya Mansoor", "bio": null, "projects_count": 0, "devlogs_count": 0, "votes_count": 0, "ships_count": 0, "projects": [], "coding_time_seconds": 0, "coding_time_seconds_today": 0, "balance": "You need to have a pocket watcher badge to view this.", "badges": [], "created_at": "2025-07-27T14:09:00.285-04:00", "updated_at": "2025-07-27T18:23:46.246-04:00", "avatar": "https://avatars.slack-edge.com/2025-07-27/9275395375633_aa7ac7068a1045985c71_original.png", "custom_css": null}, {"id": 19603, "slack_id": "U0983BM8VQ9", "display_name": "r", "bio": null, "projects_count": 0, "devlogs_count": 0, "votes_count": 0, "ships_count": 0, "projects": [], "coding_time_seconds": 68298, "coding_time_seconds_today": 0, "balance": "You need to have a pocket watcher badge to view this.", "badges": [], "created_at": "2025-07-27T14:17:33.545-04:00", "updated_at": "2025-07-28T10:07:04.993-04:00", "avatar": "https://secure.gravatar.com/avatar/1dba618c4df486a14e922b0a91161f00.jpg?s=512&d=https%3A%2F%2Fa.slack-edge.com%2Fdf10d%2Fimg%2Favatars%2Fava_0019-512.png", "custom_css": null}, {"id": 19604, "slack_id": "U097N96RVKP", "display_name": "Bartek", "bio": null, "projects_count": 0, "devlogs_count": 0, "votes_count": 0, "ships_count": 0, "projects": [], "coding_time_seconds": 0, "coding_time_seconds_today": 0, "balance": "You need to have a pocket watcher badge to view this.", "badges": [], "created_at": "2025-07-27T14:33:52.258-04:00", "updated_at": "2025-07-27T18:23:46.505-04:00", "avatar": "https://secure.gravatar.com/avatar/12b3f2db0b5f9ce01d1ab51f7a669e8b.jpg?s=512&d=https%3A%2F%2Fa.slack-edge.com%2Fdf10d%2Fimg%2Favatars%2Fava_0009-512.png", "custom_css": null}, {"id": 19605, "slack_id": "U097N9KR2TX", "display_name": "Subhajit", "bio": null, "projects_count": 0, "devlogs_count": 0, "votes_count": 0, "ships_count": 0, "projects": [], "coding_time_seconds": 0, "coding_time_seconds_today": 0, "balance": "You need to have a pocket watcher badge to view this.", "badges": [], "created_at": "2025-07-27T14:40:52.618-04:00", "updated_at": "2025-08-17T07:31:08.707-04:00", "avatar": "https://secure.gravatar.com/avatar/83c6fede921c22d9fdfa404c3dd5e244.jpg?s=512&d=https%3A%2F%2Fa.slack-edge.com%2Fdf10d%2Fimg%2Favatars%2Fava_0019-512.png", "custom_css": null}], "pagination": {"page": 976, "pages": 1192, "count": 23828, "items": 20}}