{"users": [{"id": 19606, "slack_id": "U097L9VMHF0", "display_name": "test", "bio": null, "projects_count": 0, "devlogs_count": 0, "votes_count": 0, "ships_count": 0, "projects": [], "coding_time_seconds": 0, "coding_time_seconds_today": 0, "balance": "You need to have a pocket watcher badge to view this.", "badges": [], "created_at": "2025-07-27T14:53:28.823-04:00", "updated_at": "2025-07-27T18:23:46.827-04:00", "avatar": "https://secure.gravatar.com/avatar/f90943f02552ee8ef74ad4317fd79cd4.jpg?s=512&d=https%3A%2F%2Fa.slack-edge.com%2Fdf10d%2Fimg%2Favatars%2Fava_0026-512.png", "custom_css": null}, {"id": 19607, "slack_id": "U0977PXLRAB", "display_name": "Aaditya Jain", "bio": null, "projects_count": 0, "devlogs_count": 0, "votes_count": 1, "ships_count": 0, "projects": [], "coding_time_seconds": 106025, "coding_time_seconds_today": 0, "balance": "You need to have a pocket watcher badge to view this.", "badges": [], "created_at": "2025-07-27T14:56:05.963-04:00", "updated_at": "2025-07-27T18:23:47.017-04:00", "avatar": "https://secure.gravatar.com/avatar/3baa998a61450bd0d3d2eaeb6b06c1b0.jpg?s=512&d=https%3A%2F%2Fa.slack-edge.com%2Fdf10d%2Fimg%2Favatars%2Fava_0003-512.png", "custom_css": null}, {"id": 19608, "slack_id": "U097JCWUU7M", "display_name": "ainuRakk", "bio": null, "projects_count": 4, "devlogs_count": 15, "votes_count": 21, "ships_count": 3, "projects": [{"id": 8497, "title": "NiceUtil", "devlogs_count": 1, "created_at": "2025-07-27T15:30:19.000-04:00"}, {"id": 8606, "title": "Macinpush", "devlogs_count": 2, "created_at": "2025-07-28T14:31:46.792-04:00"}, {"id": 9454, "title": "MacWinTil", "devlogs_count": 7, "created_at": "2025-08-01T09:19:39.290-04:00"}, {"id": 10236, "title": "My minimal portfolio", "devlogs_count": 5, "created_at": "2025-08-05T08:20:41.045-04:00"}], "coding_time_seconds": 295950, "coding_time_seconds_today": 1737, "balance": "You need to have a pocket watcher badge to view this.", "badges": [], "created_at": "2025-07-27T15:09:46.613-04:00", "updated_at": "2025-08-06T17:29:47.547-04:00", "avatar": "https://avatars.slack-edge.com/2025-07-27/9262499841908_daa092ee411744ad25bf_original.jpg", "custom_css": null}, {"id": 19609, "slack_id": "U097NAUSB9B", "display_name": "Daniel Sam", "bio": null, "projects_count": 0, "devlogs_count": 0, "votes_count": 0, "ships_count": 0, "projects": [], "coding_time_seconds": 0, "coding_time_seconds_today": 0, "balance": "You need to have a pocket watcher badge to view this.", "badges": [], "created_at": "2025-07-27T15:12:06.394-04:00", "updated_at": "2025-07-28T08:47:39.541-04:00", "avatar": "https://secure.gravatar.com/avatar/3d56eb8a5c7ddc4e83e516f9a6fd7405.jpg?s=512&d=https%3A%2F%2Fa.slack-edge.com%2Fdf10d%2Fimg%2Favatars%2Fava_0024-512.png", "custom_css": null}, {"id": 19610, "slack_id": "U08HWGTLTQD", "display_name": "Ryan Leung", "bio": "", "projects_count": 0, "devlogs_count": 0, "votes_count": 0, "ships_count": 0, "projects": [], "coding_time_seconds": 889, "coding_time_seconds_today": 0, "balance": "You need to have a pocket watcher badge to view this.", "badges": [], "created_at": "2025-07-27T15:25:55.888-04:00", "updated_at": "2025-07-28T11:46:39.344-04:00", "avatar": "https://secure.gravatar.com/avatar/ef750ac7486e9a48e491e236e5ebb779.jpg?s=512&d=https%3A%2F%2Fa.slack-edge.com%2Fdf10d%2Fimg%2Favatars%2Fava_0024-512.png", "custom_css": null}, {"id": 19611, "slack_id": "U096VMD64CS", "display_name": "Ankit nainwal", "bio": null, "projects_count": 0, "devlogs_count": 0, "votes_count": 0, "ships_count": 0, "projects": [], "coding_time_seconds": 0, "coding_time_seconds_today": 0, "balance": "You need to have a pocket watcher badge to view this.", "badges": [], "created_at": "2025-07-27T15:28:27.704-04:00", "updated_at": "2025-08-02T18:43:17.667-04:00", "avatar": "https://secure.gravatar.com/avatar/31dc3054a834f7d41ad046a6b2efff35.jpg?s=512&d=https%3A%2F%2Fa.slack-edge.com%2Fdf10d%2Fimg%2Favatars%2Fava_0021-512.png", "custom_css": null}, {"id": 19612, "slack_id": "U097JEDG6D9", "display_name": "hemant", "bio": null, "projects_count": 0, "devlogs_count": 0, "votes_count": 0, "ships_count": 0, "projects": [], "coding_time_seconds": 0, "coding_time_seconds_today": 0, "balance": "You need to have a pocket watcher badge to view this.", "badges": [], "created_at": "2025-07-27T15:47:30.837-04:00", "updated_at": "2025-07-27T18:23:51.645-04:00", "avatar": "https://secure.gravatar.com/avatar/ec666ce961763e4c642e33a6126e4c5b.jpg?s=512&d=https%3A%2F%2Fa.slack-edge.com%2Fdf10d%2Fimg%2Favatars%2Fava_0002-512.png", "custom_css": null}, {"id": 19613, "slack_id": "U0983FU3P17", "display_name": "Michael Solis", "bio": null, "projects_count": 0, "devlogs_count": 0, "votes_count": 0, "ships_count": 0, "projects": [], "coding_time_seconds": 0, "coding_time_seconds_today": 0, "balance": "You need to have a pocket watcher badge to view this.", "badges": [], "created_at": "2025-07-27T15:48:13.249-04:00", "updated_at": "2025-07-27T18:23:51.729-04:00", "avatar": "https://secure.gravatar.com/avatar/f3a4b8609421f539d82eba8483aff934.jpg?s=512&d=https%3A%2F%2Fa.slack-edge.com%2Fdf10d%2Fimg%2Favatars%2Fava_0004-512.png", "custom_css": null}, {"id": 19614, "slack_id": "U080JMD4VT2", "display_name": "gameboy", "bio": "I make games on Roblox.\r\n\r\nMy previous Hack Club events/workshops I attended were High Seas, Hackapet, Scrapyard, Hackcraft V2, and HackNight!", "projects_count": 1, "devlogs_count": 2, "votes_count": 1, "ships_count": 1, "projects": [{"id": 10503, "title": "gamebeats", "devlogs_count": 2, "created_at": "2025-08-07T14:41:55.826-04:00"}], "coding_time_seconds": 32645, "coding_time_seconds_today": 0, "balance": "You need to have a pocket watcher badge to view this.", "badges": [], "created_at": "2025-07-27T16:04:46.173-04:00", "updated_at": "2025-08-07T13:53:35.891-04:00", "avatar": "https://avatars.slack-edge.com/2024-11-07/7992352548086_3a4ed72085753fb1db4f_original.jpg", "custom_css": "body {background: blue;}"}, {"id": 19615, "slack_id": "U08Q3LPH6P2", "display_name": "Poundcake", "bio": null, "projects_count": 2, "devlogs_count": 10, "votes_count": 24, "ships_count": 2, "projects": [{"id": 11175, "title": "Cruel and Unusual Punishments", "devlogs_count": 6, "created_at": "2025-08-13T19:18:34.900-04:00"}, {"id": 8515, "title": "Worse Maces", "devlogs_count": 4, "created_at": "2025-07-27T18:45:08.688-04:00"}], "coding_time_seconds": 163744, "coding_time_seconds_today": 0, "balance": "You need to have a pocket watcher badge to view this.", "badges": [], "created_at": "2025-07-27T16:35:49.710-04:00", "updated_at": "2025-08-09T13:47:30.541-04:00", "avatar": "https://avatars.slack-edge.com/2025-04-23/8781829361383_625fb02c39458ea2a400_original.png", "custom_css": null}, {"id": 19616, "slack_id": "U097LDW09V4", "display_name": "Alisha Khan", "bio": null, "projects_count": 0, "devlogs_count": 0, "votes_count": 0, "ships_count": 0, "projects": [], "coding_time_seconds": 0, "coding_time_seconds_today": 0, "balance": "You need to have a pocket watcher badge to view this.", "badges": [], "created_at": "2025-07-27T16:42:16.110-04:00", "updated_at": "2025-07-28T11:46:45.790-04:00", "avatar": "https://avatars.slack-edge.com/2025-07-27/9283818130864_2305b5b996b80c645c56_original.png", "custom_css": null}, {"id": 19617, "slack_id": "U0983JPFWG1", "display_name": "Jayden Kim", "bio": null, "projects_count": 0, "devlogs_count": 0, "votes_count": 0, "ships_count": 0, "projects": [], "coding_time_seconds": 497, "coding_time_seconds_today": 0, "balance": "You need to have a pocket watcher badge to view this.", "badges": [], "created_at": "2025-07-27T16:58:03.706-04:00", "updated_at": "2025-07-28T11:46:49.004-04:00", "avatar": "https://secure.gravatar.com/avatar/1c9809f3e56448c7be4023c48c39f2fb.jpg?s=512&d=https%3A%2F%2Fa.slack-edge.com%2Fdf10d%2Fimg%2Favatars%2Fava_0005-512.png", "custom_css": null}, {"id": 19618, "slack_id": "U097QFL7NLU", "display_name": "Rashmi thimmaraju", "bio": null, "projects_count": 0, "devlogs_count": 0, "votes_count": 0, "ships_count": 0, "projects": [], "coding_time_seconds": 0, "coding_time_seconds_today": 0, "balance": "You need to have a pocket watcher badge to view this.", "badges": [], "created_at": "2025-07-27T17:18:44.101-04:00", "updated_at": "2025-08-01T15:57:56.819-04:00", "avatar": "https://secure.gravatar.com/avatar/0b18180949b884d4d4701d15be7fd430.jpg?s=512&d=https%3A%2F%2Fa.slack-edge.com%2Fdf10d%2Fimg%2Favatars%2Fava_0023-512.png", "custom_css": null}, {"id": 19619, "slack_id": "U097PR9NQTC", "display_name": "Sruthi Desigar", "bio": null, "projects_count": 0, "devlogs_count": 0, "votes_count": 0, "ships_count": 0, "projects": [], "coding_time_seconds": 0, "coding_time_seconds_today": 0, "balance": "You need to have a pocket watcher badge to view this.", "badges": [], "created_at": "2025-07-27T17:28:51.689-04:00", "updated_at": "2025-07-27T18:23:52.282-04:00", "avatar": "https://secure.gravatar.com/avatar/7d9bd97827d30eedf45de92f517f888d.jpg?s=512&d=https%3A%2F%2Fa.slack-edge.com%2Fdf10d%2Fimg%2Favatars%2Fava_0001-512.png", "custom_css": null}, {"id": 19620, "slack_id": "U0983CGDRJ5", "display_name": "Kennedy D.", "bio": null, "projects_count": 0, "devlogs_count": 0, "votes_count": 0, "ships_count": 0, "projects": [], "coding_time_seconds": 0, "coding_time_seconds_today": 0, "balance": "You need to have a pocket watcher badge to view this.", "badges": [], "created_at": "2025-07-27T18:03:16.283-04:00", "updated_at": "2025-07-27T23:00:53.781-04:00", "avatar": "https://avatars.slack-edge.com/2025-07-27/9258403634278_cbe329888ff60fc0fe02_original.jpg", "custom_css": null}, {"id": 19621, "slack_id": "U097JKX230T", "display_name": "AKANGA ANDREW", "bio": null, "projects_count": 0, "devlogs_count": 0, "votes_count": 0, "ships_count": 0, "projects": [], "coding_time_seconds": 1440, "coding_time_seconds_today": 0, "balance": "You need to have a pocket watcher badge to view this.", "badges": [], "created_at": "2025-07-27T18:09:03.304-04:00", "updated_at": "2025-07-28T18:19:42.959-04:00", "avatar": "https://avatars.slack-edge.com/2025-07-27/9258590486198_e1735f8a4620c1d2f77b_original.png", "custom_css": null}, {"id": 19622, "slack_id": "U097QJRPSUU", "display_name": "Benita", "bio": null, "projects_count": 0, "devlogs_count": 0, "votes_count": 0, "ships_count": 0, "projects": [], "coding_time_seconds": 9821, "coding_time_seconds_today": 0, "balance": "You need to have a pocket watcher badge to view this.", "badges": [], "created_at": "2025-07-27T18:33:51.611-04:00", "updated_at": "2025-08-21T20:57:16.970-04:00", "avatar": "https://secure.gravatar.com/avatar/be86dd36a17f9bce382a9e35c2981e0b.jpg?s=512&d=https%3A%2F%2Fa.slack-edge.com%2Fdf10d%2Fimg%2Favatars%2Fava_0006-512.png", "custom_css": null}, {"id": 19623, "slack_id": "U097PUCBTHQ", "display_name": "Viraj Singh", "bio": null, "projects_count": 0, "devlogs_count": 0, "votes_count": 0, "ships_count": 0, "projects": [], "coding_time_seconds": 42993, "coding_time_seconds_today": 0, "balance": "You need to have a pocket watcher badge to view this.", "badges": [], "created_at": "2025-07-27T18:48:02.953-04:00", "updated_at": "2025-07-29T05:57:21.318-04:00", "avatar": "https://avatars.slack-edge.com/2025-07-27/9260680429301_90c6065900d3cb8a44ec_original.png", "custom_css": null}, {"id": 19624, "slack_id": "U09784K4YVD", "display_name": "Milan Torres", "bio": null, "projects_count": 0, "devlogs_count": 0, "votes_count": 0, "ships_count": 0, "projects": [], "coding_time_seconds": 0, "coding_time_seconds_today": 0, "balance": "You need to have a pocket watcher badge to view this.", "badges": [], "created_at": "2025-07-27T19:07:16.861-04:00", "updated_at": "2025-07-28T11:46:52.509-04:00", "avatar": "https://secure.gravatar.com/avatar/d2464fa97393d2a11a8afc2cd4dc622f.jpg?s=512&d=https%3A%2F%2Fa.slack-edge.com%2Fdf10d%2Fimg%2Favatars%2Fava_0006-512.png", "custom_css": null}, {"id": 19625, "slack_id": "U097PV280H0", "display_name": "Wandernder Vogel", "bio": null, "projects_count": 1, "devlogs_count": 0, "votes_count": 9, "ships_count": 0, "projects": [{"id": 12423, "title": "Moving Head with ESP32", "devlogs_count": 0, "created_at": "2025-08-27T08:29:11.597-04:00"}], "coding_time_seconds": 79844, "coding_time_seconds_today": 0, "balance": "You need to have a pocket watcher badge to view this.", "badges": [], "created_at": "2025-07-27T19:07:46.550-04:00", "updated_at": "2025-08-27T08:14:01.552-04:00", "avatar": "https://secure.gravatar.com/avatar/654f2471e4b5ecfc4405b032c1644b3c.jpg?s=512&d=https%3A%2F%2Fa.slack-edge.com%2Fdf10d%2Fimg%2Favatars%2Fava_0013-512.png", "custom_css": null}], "pagination": {"page": 977, "pages": 1192, "count": 23828, "items": 20}}