{"users": [{"id": 19626, "slack_id": "U097QKHDJAG", "display_name": "Snigdha", "bio": null, "projects_count": 0, "devlogs_count": 0, "votes_count": 0, "ships_count": 0, "projects": [], "coding_time_seconds": 0, "coding_time_seconds_today": 0, "balance": "You need to have a pocket watcher badge to view this.", "badges": [], "created_at": "2025-07-27T19:17:13.789-04:00", "updated_at": "2025-07-28T00:41:36.614-04:00", "avatar": "https://secure.gravatar.com/avatar/ca1824475f7ce7c7ad9639ec65f00cc5.jpg?s=512&d=https%3A%2F%2Fa.slack-edge.com%2Fdf10d%2Fimg%2Favatars%2Fava_0006-512.png", "custom_css": null}, {"id": 19627, "slack_id": "U0978622947", "display_name": "Vitor Barbosa", "bio": null, "projects_count": 0, "devlogs_count": 0, "votes_count": 0, "ships_count": 0, "projects": [], "coding_time_seconds": 795, "coding_time_seconds_today": 0, "balance": "You need to have a pocket watcher badge to view this.", "badges": [], "created_at": "2025-07-27T19:37:31.845-04:00", "updated_at": "2025-07-28T00:41:36.705-04:00", "avatar": "https://avatars.slack-edge.com/2025-07-27/9275901929233_b2e163b658e773bf2f1c_original.jpg", "custom_css": null}, {"id": 19628, "slack_id": "U097Q1W86M8", "display_name": "bella", "bio": null, "projects_count": 0, "devlogs_count": 0, "votes_count": 0, "ships_count": 0, "projects": [], "coding_time_seconds": 0, "coding_time_seconds_today": 0, "balance": "You need to have a pocket watcher badge to view this.", "badges": [], "created_at": "2025-07-27T19:51:31.334-04:00", "updated_at": "2025-07-28T00:41:36.809-04:00", "avatar": "https://secure.gravatar.com/avatar/c71ccd3cb2185cb24d27be6dcbc0ecd1.jpg?s=512&d=https%3A%2F%2Fa.slack-edge.com%2Fdf10d%2Fimg%2Favatars%2Fava_0001-512.png", "custom_css": null}, {"id": 19629, "slack_id": "U097NQFTU1K", "display_name": "Mattin Tasbihgoo", "bio": null, "projects_count": 1, "devlogs_count": 0, "votes_count": 0, "ships_count": 0, "projects": [{"id": 8523, "title": "City Civics", "devlogs_count": 0, "created_at": "2025-07-27T21:02:56.484-04:00"}], "coding_time_seconds": 11991, "coding_time_seconds_today": 0, "balance": "You need to have a pocket watcher badge to view this.", "badges": [], "created_at": "2025-07-27T20:12:16.060-04:00", "updated_at": "2025-07-28T00:41:36.901-04:00", "avatar": "https://avatars.slack-edge.com/2025-07-27/9262822664932_4b0e34816a428a2f480d_original.webp", "custom_css": null}, {"id": 19630, "slack_id": "U097NR3N7PX", "display_name": "Fseech", "bio": null, "projects_count": 0, "devlogs_count": 0, "votes_count": 0, "ships_count": 0, "projects": [], "coding_time_seconds": 0, "coding_time_seconds_today": 0, "balance": "You need to have a pocket watcher badge to view this.", "badges": [], "created_at": "2025-07-27T20:23:18.907-04:00", "updated_at": "2025-08-12T01:30:05.429-04:00", "avatar": "https://secure.gravatar.com/avatar/9e6ce78db655f380c914305cea04a016.jpg?s=512&d=https%3A%2F%2Fa.slack-edge.com%2Fdf10d%2Fimg%2Favatars%2Fava_0002-512.png", "custom_css": null}, {"id": 19631, "slack_id": "U0978A6K3M5", "display_name": "Teran", "bio": null, "projects_count": 0, "devlogs_count": 0, "votes_count": 0, "ships_count": 0, "projects": [], "coding_time_seconds": 0, "coding_time_seconds_today": 0, "balance": "You need to have a pocket watcher badge to view this.", "badges": [], "created_at": "2025-07-27T20:42:32.301-04:00", "updated_at": "2025-07-28T00:41:37.121-04:00", "avatar": "https://secure.gravatar.com/avatar/4f28bb26fe30b136d3158a6f1dd8b5dd.jpg?s=512&d=https%3A%2F%2Fa.slack-edge.com%2Fdf10d%2Fimg%2Favatars%2Fava_0018-512.png", "custom_css": null}, {"id": 19632, "slack_id": "U097QTWQTRA", "display_name": "Haseeb Ali", "bio": null, "projects_count": 0, "devlogs_count": 0, "votes_count": 0, "ships_count": 0, "projects": [], "coding_time_seconds": 0, "coding_time_seconds_today": 0, "balance": "You need to have a pocket watcher badge to view this.", "badges": [], "created_at": "2025-07-27T21:07:29.052-04:00", "updated_at": "2025-07-28T00:41:41.246-04:00", "avatar": "https://avatars.slack-edge.com/2025-07-27/9276133397217_062c8735327423befa15_original.png", "custom_css": null}, {"id": 19633, "slack_id": "U0978CARL07", "display_name": "victor smith", "bio": null, "projects_count": 0, "devlogs_count": 0, "votes_count": 0, "ships_count": 0, "projects": [], "coding_time_seconds": 0, "coding_time_seconds_today": 0, "balance": "You need to have a pocket watcher badge to view this.", "badges": [], "created_at": "2025-07-27T21:09:49.415-04:00", "updated_at": "2025-07-28T00:41:41.334-04:00", "avatar": "https://secure.gravatar.com/avatar/332adfdad2867defed03e0eb193bbb2c.jpg?s=512&d=https%3A%2F%2Fa.slack-edge.com%2Fdf10d%2Fimg%2Favatars%2Fava_0013-512.png", "custom_css": null}, {"id": 19634, "slack_id": "U09789SRXNK", "display_name": "leumas", "bio": null, "projects_count": 0, "devlogs_count": 0, "votes_count": 0, "ships_count": 0, "projects": [], "coding_time_seconds": 0, "coding_time_seconds_today": 0, "balance": "You need to have a pocket watcher badge to view this.", "badges": [], "created_at": "2025-07-27T21:14:14.176-04:00", "updated_at": "2025-07-28T00:41:41.445-04:00", "avatar": "https://avatars.slack-edge.com/2025-07-27/9262306459602_7360b935e5861c4a4abe_original.jpg", "custom_css": null}, {"id": 19635, "slack_id": "U0978FDBC0P", "display_name": "Jihe", "bio": null, "projects_count": 1, "devlogs_count": 1, "votes_count": 6, "ships_count": 1, "projects": [{"id": 8524, "title": "Arrays", "devlogs_count": 1, "created_at": "2025-07-27T22:29:37.530-04:00"}], "coding_time_seconds": 6543, "coding_time_seconds_today": 0, "balance": "You need to have a pocket watcher badge to view this.", "badges": [], "created_at": "2025-07-27T21:47:28.663-04:00", "updated_at": "2025-08-08T04:21:28.541-04:00", "avatar": "https://secure.gravatar.com/avatar/4a873b8f2ad85625d17c85e39cc6c9a5.jpg?s=512&d=https%3A%2F%2Fa.slack-edge.com%2Fdf10d%2Fimg%2Favatars%2Fava_0004-512.png", "custom_css": null}, {"id": 19636, "slack_id": "U09848XDZ7T", "display_name": "Uyaiabasi Itina", "bio": null, "projects_count": 0, "devlogs_count": 0, "votes_count": 0, "ships_count": 0, "projects": [], "coding_time_seconds": 0, "coding_time_seconds_today": 0, "balance": "You need to have a pocket watcher badge to view this.", "badges": [], "created_at": "2025-07-27T22:09:30.211-04:00", "updated_at": "2025-07-28T00:41:41.652-04:00", "avatar": "https://secure.gravatar.com/avatar/84facc6f95d3c3cc9bb7587e7d8073f1.jpg?s=512&d=https%3A%2F%2Fa.slack-edge.com%2Fdf10d%2Fimg%2Favatars%2Fava_0011-512.png", "custom_css": null}, {"id": 19637, "slack_id": "U0978HA2MAB", "display_name": "Mahidhar Nalla", "bio": null, "projects_count": 0, "devlogs_count": 3, "votes_count": 4, "ships_count": 0, "projects": [], "coding_time_seconds": 179418, "coding_time_seconds_today": 0, "balance": "You need to have a pocket watcher badge to view this.", "badges": [], "created_at": "2025-07-27T22:10:43.597-04:00", "updated_at": "2025-08-10T16:38:46.258-04:00", "avatar": "https://secure.gravatar.com/avatar/b5c34f4b3088a094d1a092a5a65ccc18.jpg?s=512&d=https%3A%2F%2Fa.slack-edge.com%2Fdf10d%2Fimg%2Favatars%2Fava_0008-512.png", "custom_css": null}, {"id": 19638, "slack_id": "U097P4K1L6R", "display_name": "Ralph", "bio": null, "projects_count": 0, "devlogs_count": 0, "votes_count": 0, "ships_count": 0, "projects": [], "coding_time_seconds": 0, "coding_time_seconds_today": 0, "balance": "You need to have a pocket watcher badge to view this.", "badges": [], "created_at": "2025-07-27T22:15:54.066-04:00", "updated_at": "2025-07-28T00:41:41.852-04:00", "avatar": "https://secure.gravatar.com/avatar/0f08359d755966656990f38fe626b2a9.jpg?s=512&d=https%3A%2F%2Fa.slack-edge.com%2Fdf10d%2Fimg%2Favatars%2Fava_0013-512.png", "custom_css": null}, {"id": 19639, "slack_id": "U098CEHR6DN", "display_name": "Tara Kharal", "bio": null, "projects_count": 0, "devlogs_count": 0, "votes_count": 0, "ships_count": 0, "projects": [], "coding_time_seconds": 325, "coding_time_seconds_today": 0, "balance": "You need to have a pocket watcher badge to view this.", "badges": [], "created_at": "2025-07-27T22:26:46.779-04:00", "updated_at": "2025-07-28T11:47:02.541-04:00", "avatar": "https://secure.gravatar.com/avatar/0cf684d6d8c8952ae4a22a6f63ba2996.jpg?s=512&d=https%3A%2F%2Fa.slack-edge.com%2Fdf10d%2Fimg%2Favatars%2Fava_0024-512.png", "custom_css": null}, {"id": 19640, "slack_id": "U097QDNFTR8", "display_name": "Sebasti\u00e3o Paula", "bio": null, "projects_count": 0, "devlogs_count": 0, "votes_count": 0, "ships_count": 0, "projects": [], "coding_time_seconds": 0, "coding_time_seconds_today": 0, "balance": "You need to have a pocket watcher badge to view this.", "badges": [], "created_at": "2025-07-27T22:31:23.637-04:00", "updated_at": "2025-07-28T00:41:42.123-04:00", "avatar": "https://secure.gravatar.com/avatar/f038687a262d6ab4488c81b74463663b.jpg?s=512&d=https%3A%2F%2Fa.slack-edge.com%2Fdf10d%2Fimg%2Favatars%2Fava_0018-512.png", "custom_css": null}, {"id": 19641, "slack_id": "U082SDUSQ80", "display_name": "louwiinter", "bio": null, "projects_count": 0, "devlogs_count": 0, "votes_count": 0, "ships_count": 0, "projects": [], "coding_time_seconds": 0, "coding_time_seconds_today": 0, "balance": "You need to have a pocket watcher badge to view this.", "badges": [], "created_at": "2025-07-27T22:42:39.284-04:00", "updated_at": "2025-07-31T17:16:12.904-04:00", "avatar": "https://avatars.slack-edge.com/2025-07-31/9286190951858_67600b8b766045901b24_original.jpg", "custom_css": null}, {"id": 19642, "slack_id": "U0978MT8H9V", "display_name": "Nestor", "bio": null, "projects_count": 0, "devlogs_count": 0, "votes_count": 0, "ships_count": 0, "projects": [], "coding_time_seconds": 0, "coding_time_seconds_today": 0, "balance": "You need to have a pocket watcher badge to view this.", "badges": [], "created_at": "2025-07-27T23:08:19.285-04:00", "updated_at": "2025-07-28T09:57:58.923-04:00", "avatar": "https://secure.gravatar.com/avatar/9142c33d94dc8dfcb24cac78ff07726d.jpg?s=512&d=https%3A%2F%2Fa.slack-edge.com%2Fdf10d%2Fimg%2Favatars%2Fava_0003-512.png", "custom_css": null}, {"id": 19643, "slack_id": "U097P8TUHUM", "display_name": "Revoke", "bio": null, "projects_count": 0, "devlogs_count": 0, "votes_count": 0, "ships_count": 0, "projects": [], "coding_time_seconds": 34725, "coding_time_seconds_today": 0, "balance": "You need to have a pocket watcher badge to view this.", "badges": [], "created_at": "2025-07-27T23:12:51.652-04:00", "updated_at": "2025-07-28T14:40:59.600-04:00", "avatar": "https://secure.gravatar.com/avatar/745d313b01ec2f3b383973ca3f71e7b5.jpg?s=512&d=https%3A%2F%2Fa.slack-edge.com%2Fdf10d%2Fimg%2Favatars%2Fava_0025-512.png", "custom_css": null}, {"id": 19644, "slack_id": "U0984F3GUMP", "display_name": "Mohammad", "bio": null, "projects_count": 0, "devlogs_count": 0, "votes_count": 0, "ships_count": 0, "projects": [], "coding_time_seconds": 3111, "coding_time_seconds_today": 0, "balance": "You need to have a pocket watcher badge to view this.", "badges": [], "created_at": "2025-07-27T23:21:05.980-04:00", "updated_at": "2025-07-28T07:42:04.216-04:00", "avatar": "https://secure.gravatar.com/avatar/9b4bc69e9fcc6df732f188a6da585bd6.jpg?s=512&d=https%3A%2F%2Fa.slack-edge.com%2Fdf10d%2Fimg%2Favatars%2Fava_0013-512.png", "custom_css": null}, {"id": 19645, "slack_id": "U0958V8G4EA", "display_name": "Tribhuvan Sanoria", "bio": null, "projects_count": 0, "devlogs_count": 0, "votes_count": 2, "ships_count": 0, "projects": [], "coding_time_seconds": 10693, "coding_time_seconds_today": 0, "balance": "You need to have a pocket watcher badge to view this.", "badges": [], "created_at": "2025-07-27T23:21:50.757-04:00", "updated_at": "2025-07-28T06:54:09.396-04:00", "avatar": "https://secure.gravatar.com/avatar/f55faca8c0d643a6bba08f0fcd7ffc12.jpg?s=512&d=https%3A%2F%2Fa.slack-edge.com%2Fdf10d%2Fimg%2Favatars%2Fava_0008-512.png", "custom_css": null}], "pagination": {"page": 978, "pages": 1192, "count": 23828, "items": 20}}