{"users": [{"id": 19646, "slack_id": "U0978P4D89M", "display_name": "Ricky", "bio": "Aspiring software engineer", "projects_count": 1, "devlogs_count": 1, "votes_count": 6, "ships_count": 1, "projects": [{"id": 10427, "title": "Ricky's Website", "devlogs_count": 1, "created_at": "2025-08-06T23:47:24.006-04:00"}], "coding_time_seconds": 331097, "coding_time_seconds_today": 0, "balance": "You need to have a pocket watcher badge to view this.", "badges": [], "created_at": "2025-07-27T23:23:57.498-04:00", "updated_at": "2025-08-06T23:50:09.789-04:00", "avatar": "https://secure.gravatar.com/avatar/432d356947fa41b8a64a7f1dc94cb218.jpg?s=512&d=https%3A%2F%2Fa.slack-edge.com%2Fdf10d%2Fimg%2Favatars%2Fava_0021-512.png", "custom_css": null}, {"id": 19647, "slack_id": "U0975DR1D5M", "display_name": "jaba", "bio": null, "projects_count": 0, "devlogs_count": 0, "votes_count": 0, "ships_count": 0, "projects": [], "coding_time_seconds": 0, "coding_time_seconds_today": 0, "balance": "You need to have a pocket watcher badge to view this.", "badges": [], "created_at": "2025-07-27T23:35:18.325-04:00", "updated_at": "2025-07-28T00:41:47.169-04:00", "avatar": "https://secure.gravatar.com/avatar/3b3be0feea9fbc1b1545cfe39e883689.jpg?s=512&d=https%3A%2F%2Fa.slack-edge.com%2Fdf10d%2Fimg%2Favatars%2Fava_0022-512.png", "custom_css": null}, {"id": 19648, "slack_id": "U0984GT0R4Z", "display_name": "Vanshika", "bio": null, "projects_count": 0, "devlogs_count": 0, "votes_count": 0, "ships_count": 0, "projects": [], "coding_time_seconds": 0, "coding_time_seconds_today": 0, "balance": "You need to have a pocket watcher badge to view this.", "badges": [], "created_at": "2025-07-27T23:40:26.553-04:00", "updated_at": "2025-07-28T01:31:00.329-04:00", "avatar": "https://avatars.slack-edge.com/2025-07-27/9246837947623_7e3b48ff651283c5ddd1_original.png", "custom_css": null}, {"id": 19649, "slack_id": "U093SCZB14P", "display_name": "utsarg", "bio": null, "projects_count": 0, "devlogs_count": 0, "votes_count": 0, "ships_count": 0, "projects": [], "coding_time_seconds": 0, "coding_time_seconds_today": 0, "balance": "You need to have a pocket watcher badge to view this.", "badges": [], "created_at": "2025-07-27T23:46:23.793-04:00", "updated_at": "2025-07-27T23:46:57.158-04:00", "avatar": "https://secure.gravatar.com/avatar/a6a6fe543e8170089afbc279d6268679.jpg?s=512&d=https%3A%2F%2Fa.slack-edge.com%2Fdf10d%2Fimg%2Favatars%2Fava_0021-512.png", "custom_css": null}, {"id": 19650, "slack_id": "U097MCTJ7GW", "display_name": "Braedyn Lea", "bio": null, "projects_count": 0, "devlogs_count": 0, "votes_count": 0, "ships_count": 0, "projects": [], "coding_time_seconds": 0, "coding_time_seconds_today": 0, "balance": "You need to have a pocket watcher badge to view this.", "badges": [], "created_at": "2025-07-28T00:21:24.801-04:00", "updated_at": "2025-07-28T07:15:23.467-04:00", "avatar": "https://secure.gravatar.com/avatar/5f6e87ba7efa10bbba560e5895a03250.jpg?s=512&d=https%3A%2F%2Fa.slack-edge.com%2Fdf10d%2Fimg%2Favatars%2Fava_0005-512.png", "custom_css": null}, {"id": 19651, "slack_id": "U097KG44KPV", "display_name": "Scarlett Fugazy", "bio": null, "projects_count": 0, "devlogs_count": 0, "votes_count": 0, "ships_count": 0, "projects": [], "coding_time_seconds": 0, "coding_time_seconds_today": 0, "balance": "You need to have a pocket watcher badge to view this.", "badges": [], "created_at": "2025-07-28T00:29:37.651-04:00", "updated_at": "2025-08-31T21:43:39.221-04:00", "avatar": "https://avatars.slack-edge.com/2025-08-31/9433122552483_76cdfc75aead4a779629_original.png", "custom_css": null}, {"id": 19652, "slack_id": "U097MDXPZKQ", "display_name": "Prakhar Dubey", "bio": null, "projects_count": 0, "devlogs_count": 0, "votes_count": 0, "ships_count": 0, "projects": [], "coding_time_seconds": 0, "coding_time_seconds_today": 0, "balance": "You need to have a pocket watcher badge to view this.", "badges": [], "created_at": "2025-07-28T00:35:50.081-04:00", "updated_at": "2025-07-28T07:15:23.702-04:00", "avatar": "https://secure.gravatar.com/avatar/9af8fda43319e973d2c517a2a1b98726.jpg?s=512&d=https%3A%2F%2Fa.slack-edge.com%2Fdf10d%2Fimg%2Favatars%2Fava_0000-512.png", "custom_css": null}, {"id": 19653, "slack_id": "U097MFS7R7Y", "display_name": "tonicatOWO", "bio": null, "projects_count": 0, "devlogs_count": 0, "votes_count": 0, "ships_count": 0, "projects": [], "coding_time_seconds": 0, "coding_time_seconds_today": 0, "balance": "You need to have a pocket watcher badge to view this.", "badges": [], "created_at": "2025-07-28T00:57:36.581-04:00", "updated_at": "2025-07-28T07:15:27.835-04:00", "avatar": "https://secure.gravatar.com/avatar/aa03940ab83fd19eca0af802c502a4ad.jpg?s=512&d=https%3A%2F%2Fa.slack-edge.com%2Fdf10d%2Fimg%2Favatars%2Fava_0020-512.png", "custom_css": null}, {"id": 19654, "slack_id": "U09792DN9JB", "display_name": "\u8a31\u5929\u624d", "bio": null, "projects_count": 0, "devlogs_count": 0, "votes_count": 0, "ships_count": 0, "projects": [], "coding_time_seconds": 0, "coding_time_seconds_today": 0, "balance": "You need to have a pocket watcher badge to view this.", "badges": [], "created_at": "2025-07-28T01:10:22.719-04:00", "updated_at": "2025-08-07T10:59:32.968-04:00", "avatar": "https://avatars.slack-edge.com/2025-07-27/9262909871330_8894ee3344c720a8821d_original.jpg", "custom_css": null}, {"id": 19655, "slack_id": "U09793HH4GP", "display_name": "Aditi Haasini", "bio": null, "projects_count": 0, "devlogs_count": 0, "votes_count": 0, "ships_count": 0, "projects": [], "coding_time_seconds": 0, "coding_time_seconds_today": 0, "balance": "You need to have a pocket watcher badge to view this.", "badges": [], "created_at": "2025-07-28T01:22:42.353-04:00", "updated_at": "2025-08-04T03:11:28.859-04:00", "avatar": "https://secure.gravatar.com/avatar/0c4e1c6349eef8dddb08460ccb16c3fc.jpg?s=512&d=https%3A%2F%2Fa.slack-edge.com%2Fdf10d%2Fimg%2Favatars%2Fava_0015-512.png", "custom_css": null}, {"id": 19656, "slack_id": "U09792W82NT", "display_name": "GeekHirusha", "bio": null, "projects_count": 0, "devlogs_count": 0, "votes_count": 0, "ships_count": 0, "projects": [], "coding_time_seconds": 277935, "coding_time_seconds_today": 7045, "balance": "You need to have a pocket watcher badge to view this.", "badges": [], "created_at": "2025-07-28T01:27:06.822-04:00", "updated_at": "2025-08-28T15:06:07.230-04:00", "avatar": "https://secure.gravatar.com/avatar/389003f6dac5bea8cda74f4f33be7bf6.jpg?s=512&d=https%3A%2F%2Fa.slack-edge.com%2Fdf10d%2Fimg%2Favatars%2Fava_0023-512.png", "custom_css": null}, {"id": 19657, "slack_id": "U0984SJ19K3", "display_name": "Raphael Dikstra", "bio": null, "projects_count": 0, "devlogs_count": 0, "votes_count": 0, "ships_count": 0, "projects": [], "coding_time_seconds": 0, "coding_time_seconds_today": 0, "balance": "You need to have a pocket watcher badge to view this.", "badges": [], "created_at": "2025-07-28T01:28:01.972-04:00", "updated_at": "2025-07-28T07:15:28.199-04:00", "avatar": "https://avatars.slack-edge.com/2025-07-27/9259642462134_742925bc00def9a4a78a_original.png", "custom_css": null}, {"id": 19658, "slack_id": "U097RQ31284", "display_name": "Tariq Aws", "bio": null, "projects_count": 0, "devlogs_count": 0, "votes_count": 0, "ships_count": 0, "projects": [], "coding_time_seconds": 0, "coding_time_seconds_today": 0, "balance": "You need to have a pocket watcher badge to view this.", "badges": [], "created_at": "2025-07-28T02:10:05.798-04:00", "updated_at": "2025-07-28T07:15:28.335-04:00", "avatar": "https://secure.gravatar.com/avatar/36c6e6701096f71a06832da3a108a7bd.jpg?s=512&d=https%3A%2F%2Fa.slack-edge.com%2Fdf10d%2Fimg%2Favatars%2Fava_0015-512.png", "custom_css": null}, {"id": 19659, "slack_id": "U09852KSX2M", "display_name": "Adeel Manzoor", "bio": null, "projects_count": 0, "devlogs_count": 0, "votes_count": 0, "ships_count": 0, "projects": [], "coding_time_seconds": 750208, "coding_time_seconds_today": 631, "balance": "You need to have a pocket watcher badge to view this.", "badges": [], "created_at": "2025-07-28T02:16:59.381-04:00", "updated_at": "2025-07-28T07:15:28.447-04:00", "avatar": "https://secure.gravatar.com/avatar/bf9f17d9465f0ae52292072e89136665.jpg?s=512&d=https%3A%2F%2Fa.slack-edge.com%2Fdf10d%2Fimg%2Favatars%2Fava_0005-512.png", "custom_css": null}, {"id": 19660, "slack_id": "U097RSNKJQ4", "display_name": "Carlos Antonio Lopez Prieto", "bio": null, "projects_count": 0, "devlogs_count": 0, "votes_count": 1, "ships_count": 0, "projects": [], "coding_time_seconds": 21929, "coding_time_seconds_today": 0, "balance": "You need to have a pocket watcher badge to view this.", "badges": [], "created_at": "2025-07-28T02:33:49.605-04:00", "updated_at": "2025-08-21T16:46:15.127-04:00", "avatar": "https://avatars.slack-edge.com/2025-07-27/9257956457427_1c7d149d90545544a9c7_original.jpg", "custom_css": null}, {"id": 19661, "slack_id": "U097QJZHNJW", "display_name": "Anwesh Rao", "bio": null, "projects_count": 0, "devlogs_count": 0, "votes_count": 0, "ships_count": 0, "projects": [], "coding_time_seconds": 0, "coding_time_seconds_today": 0, "balance": "You need to have a pocket watcher badge to view this.", "badges": [], "created_at": "2025-07-28T02:35:54.986-04:00", "updated_at": "2025-07-28T07:15:28.651-04:00", "avatar": "https://secure.gravatar.com/avatar/430da98b274f98a0ff2c9e288ed579bb.jpg?s=512&d=https%3A%2F%2Fa.slack-edge.com%2Fdf10d%2Fimg%2Favatars%2Fava_0000-512.png", "custom_css": null}, {"id": 19662, "slack_id": "U097R6XM482", "display_name": "Samarth Gupta", "bio": null, "projects_count": 0, "devlogs_count": 0, "votes_count": 0, "ships_count": 0, "projects": [], "coding_time_seconds": 0, "coding_time_seconds_today": 0, "balance": "You need to have a pocket watcher badge to view this.", "badges": [], "created_at": "2025-07-28T02:48:42.346-04:00", "updated_at": "2025-07-28T07:15:28.755-04:00", "avatar": "https://secure.gravatar.com/avatar/f48efce49b46f85fe2fa836cd01cc988.jpg?s=512&d=https%3A%2F%2Fa.slack-edge.com%2Fdf10d%2Fimg%2Favatars%2Fava_0020-512.png", "custom_css": null}, {"id": 19663, "slack_id": "U097N1RGY3G", "display_name": "bill johns", "bio": null, "projects_count": 0, "devlogs_count": 0, "votes_count": 0, "ships_count": 0, "projects": [], "coding_time_seconds": 0, "coding_time_seconds_today": 0, "balance": "You need to have a pocket watcher badge to view this.", "badges": [], "created_at": "2025-07-28T03:22:53.772-04:00", "updated_at": "2025-07-28T07:15:28.861-04:00", "avatar": "https://avatars.slack-edge.com/2025-07-28/9277398845857_80ae0bc13f1579ef3675_original.png", "custom_css": null}, {"id": 19664, "slack_id": "U097N32KPGE", "display_name": "Rushiraj", "bio": null, "projects_count": 0, "devlogs_count": 0, "votes_count": 0, "ships_count": 0, "projects": [], "coding_time_seconds": 0, "coding_time_seconds_today": 0, "balance": "You need to have a pocket watcher badge to view this.", "badges": [], "created_at": "2025-07-28T03:31:02.169-04:00", "updated_at": "2025-07-28T07:15:28.990-04:00", "avatar": "https://secure.gravatar.com/avatar/84966e3759c8de9f2b7f5c586e2aa6f7.jpg?s=512&d=https%3A%2F%2Fa.slack-edge.com%2Fdf10d%2Fimg%2Favatars%2Fava_0012-512.png", "custom_css": null}, {"id": 19665, "slack_id": "U097Q3QCU5B", "display_name": "yash", "bio": null, "projects_count": 0, "devlogs_count": 0, "votes_count": 0, "ships_count": 0, "projects": [], "coding_time_seconds": 0, "coding_time_seconds_today": 0, "balance": "You need to have a pocket watcher badge to view this.", "badges": [], "created_at": "2025-07-28T03:31:57.223-04:00", "updated_at": "2025-07-28T07:15:29.113-04:00", "avatar": "https://secure.gravatar.com/avatar/c14277a3c101428f78efb48993b4c558.jpg?s=512&d=https%3A%2F%2Fa.slack-edge.com%2Fdf10d%2Fimg%2Favatars%2Fava_0023-512.png", "custom_css": null}], "pagination": {"page": 979, "pages": 1192, "count": 23828, "items": 20}}