{"users": [{"id": 1941, "slack_id": "U07FYCGCHQ9", "display_name": "CitrusB1", "bio": null, "projects_count": 0, "devlogs_count": 0, "votes_count": 0, "ships_count": 0, "projects": [], "coding_time_seconds": 65520, "coding_time_seconds_today": 0, "balance": "You need to have a pocket watcher badge to view this.", "badges": [], "created_at": "2025-06-16T14:21:28.003-04:00", "updated_at": "2025-07-03T19:19:56.214-04:00", "avatar": "https://avatars.slack-edge.com/2025-06-18/9069540876325_7a951fd9a2b68313ab9c_original.jpg", "custom_css": null}, {"id": 1942, "slack_id": "U078GA0P32P", "display_name": "kaileh57", "bio": "I code", "projects_count": 1, "devlogs_count": 29, "votes_count": 20, "ships_count": 0, "projects": [{"id": 11886, "title": "Cat terminal", "devlogs_count": 1, "created_at": "2025-08-20T17:49:05.915-04:00"}], "coding_time_seconds": 423323, "coding_time_seconds_today": 0, "balance": "You need to have a pocket watcher badge to view this.", "badges": [{"name": "Maiden Voyage", "text": "you shipped your first project! the journey begins...", "icon": "\ud83d\udea2"}], "created_at": "2025-06-16T14:21:38.291-04:00", "updated_at": "2025-09-10T22:52:07.562-04:00", "avatar": "https://avatars.slack-edge.com/2024-11-07/8011372474977_74e324507ff617386c44_original.jpg", "custom_css": null}, {"id": 1943, "slack_id": "U091GV8AFCK", "display_name": "FRANCESCO", "bio": null, "projects_count": 0, "devlogs_count": 0, "votes_count": 0, "ships_count": 0, "projects": [], "coding_time_seconds": 0, "coding_time_seconds_today": 0, "balance": "You need to have a pocket watcher badge to view this.", "badges": [], "created_at": "2025-06-16T14:21:47.656-04:00", "updated_at": "2025-07-03T19:19:56.773-04:00", "avatar": "https://secure.gravatar.com/avatar/a4e6333018472c8c0e3023269a5f2048.jpg?s=512&d=https%3A%2F%2Fa.slack-edge.com%2Fdf10d%2Fimg%2Favatars%2Fava_0026-512.png", "custom_css": null}, {"id": 1944, "slack_id": "U091N4U9BAR", "display_name": "Vyanderuri", "bio": null, "projects_count": 0, "devlogs_count": 0, "votes_count": 0, "ships_count": 0, "projects": [], "coding_time_seconds": 1897, "coding_time_seconds_today": 0, "balance": "You need to have a pocket watcher badge to view this.", "badges": [], "created_at": "2025-06-16T14:22:06.820-04:00", "updated_at": "2025-07-03T19:19:57.050-04:00", "avatar": "https://secure.gravatar.com/avatar/bbb2e1b7bcd38779a0a69e760bbde402.jpg?s=512&d=https%3A%2F%2Fa.slack-edge.com%2Fdf10d%2Fimg%2Favatars%2Fava_0007-512.png", "custom_css": null}, {"id": 1945, "slack_id": "U092CBX4C7J", "display_name": "Lukas", "bio": null, "projects_count": 0, "devlogs_count": 0, "votes_count": 0, "ships_count": 0, "projects": [], "coding_time_seconds": 123, "coding_time_seconds_today": 0, "balance": "You need to have a pocket watcher badge to view this.", "badges": [], "created_at": "2025-06-16T14:22:08.330-04:00", "updated_at": "2025-07-03T19:19:57.322-04:00", "avatar": "https://secure.gravatar.com/avatar/1889033a2a0eb58c77219b90528494c8.jpg?s=512&d=https%3A%2F%2Fa.slack-edge.com%2Fdf10d%2Fimg%2Favatars%2Fava_0026-512.png", "custom_css": null}, {"id": 1946, "slack_id": "U091H2YTLMU", "display_name": "Rushikesh Shelar", "bio": null, "projects_count": 0, "devlogs_count": 0, "votes_count": 0, "ships_count": 0, "projects": [], "coding_time_seconds": 181566, "coding_time_seconds_today": 0, "balance": "You need to have a pocket watcher badge to view this.", "badges": [], "created_at": "2025-06-16T14:22:19.787-04:00", "updated_at": "2025-07-03T19:19:57.591-04:00", "avatar": "https://avatars.slack-edge.com/2025-06-16/9051015545155_0d5a28cc53ff36b7d401_original.png", "custom_css": null}, {"id": 1947, "slack_id": "U091PTZ9KLJ", "display_name": "Christopher Lin", "bio": null, "projects_count": 0, "devlogs_count": 0, "votes_count": 0, "ships_count": 0, "projects": [], "coding_time_seconds": 189392, "coding_time_seconds_today": 0, "balance": "You need to have a pocket watcher badge to view this.", "badges": [], "created_at": "2025-06-16T14:22:26.931-04:00", "updated_at": "2025-07-03T19:19:57.867-04:00", "avatar": "https://avatars.slack-edge.com/2025-06-16/9051119442326_6fb15f6e64432c8e2705_original.png", "custom_css": null}, {"id": 1948, "slack_id": "U091H2RRULW", "display_name": "Gulam", "bio": null, "projects_count": 0, "devlogs_count": 0, "votes_count": 0, "ships_count": 0, "projects": [], "coding_time_seconds": 0, "coding_time_seconds_today": 0, "balance": "You need to have a pocket watcher badge to view this.", "badges": [], "created_at": "2025-06-16T14:22:30.498-04:00", "updated_at": "2025-07-03T19:19:58.144-04:00", "avatar": "https://secure.gravatar.com/avatar/581e20f455d6e24fb594e07564582617.jpg?s=512&d=https%3A%2F%2Fa.slack-edge.com%2Fdf10d%2Fimg%2Favatars%2Fava_0022-512.png", "custom_css": null}, {"id": 1949, "slack_id": "U0918JRJT9V", "display_name": "James Alford-Allan", "bio": null, "projects_count": 0, "devlogs_count": 0, "votes_count": 0, "ships_count": 0, "projects": [], "coding_time_seconds": 0, "coding_time_seconds_today": 0, "balance": "You need to have a pocket watcher badge to view this.", "badges": [], "created_at": "2025-06-16T14:22:31.230-04:00", "updated_at": "2025-07-03T19:19:58.420-04:00", "avatar": "https://secure.gravatar.com/avatar/7f0f909acc9c41d18d4819863d7f099e.jpg?s=512&d=https%3A%2F%2Fa.slack-edge.com%2Fdf10d%2Fimg%2Favatars%2Fava_0002-512.png", "custom_css": null}, {"id": 1950, "slack_id": "U091H1NGXAS", "display_name": "Kunjesh", "bio": null, "projects_count": 0, "devlogs_count": 0, "votes_count": 0, "ships_count": 0, "projects": [], "coding_time_seconds": 0, "coding_time_seconds_today": 0, "balance": "You need to have a pocket watcher badge to view this.", "badges": [], "created_at": "2025-06-16T14:22:32.323-04:00", "updated_at": "2025-07-03T19:19:58.682-04:00", "avatar": "https://secure.gravatar.com/avatar/c82568ece00c3b2a64522014d113d197.jpg?s=512&d=https%3A%2F%2Fa.slack-edge.com%2Fdf10d%2Fimg%2Favatars%2Fava_0023-512.png", "custom_css": null}, {"id": 1951, "slack_id": "U092CC602P2", "display_name": "Enzo Trulenque", "bio": null, "projects_count": 0, "devlogs_count": 0, "votes_count": 0, "ships_count": 0, "projects": [], "coding_time_seconds": 0, "coding_time_seconds_today": 0, "balance": "You need to have a pocket watcher badge to view this.", "badges": [], "created_at": "2025-06-16T14:22:32.532-04:00", "updated_at": "2025-07-03T19:19:58.961-04:00", "avatar": "https://secure.gravatar.com/avatar/02f7beeeb1fda63c3673b58a3a18eba8.jpg?s=512&d=https%3A%2F%2Fa.slack-edge.com%2Fdf10d%2Fimg%2Favatars%2Fava_0003-512.png", "custom_css": null}, {"id": 1952, "slack_id": "U091QA3L48L", "display_name": "Annu Kumari", "bio": null, "projects_count": 0, "devlogs_count": 0, "votes_count": 0, "ships_count": 0, "projects": [], "coding_time_seconds": 494452, "coding_time_seconds_today": 0, "balance": "You need to have a pocket watcher badge to view this.", "badges": [], "created_at": "2025-06-16T14:22:37.838-04:00", "updated_at": "2025-07-03T19:19:59.222-04:00", "avatar": "https://secure.gravatar.com/avatar/c7f86321270b1d358991669c3927ac5a.jpg?s=512&d=https%3A%2F%2Fa.slack-edge.com%2Fdf10d%2Fimg%2Favatars%2Fava_0004-512.png", "custom_css": null}, {"id": 1953, "slack_id": "U0922B46LE5", "display_name": "Mayank Raj", "bio": null, "projects_count": 0, "devlogs_count": 0, "votes_count": 0, "ships_count": 0, "projects": [], "coding_time_seconds": 13207, "coding_time_seconds_today": 0, "balance": "You need to have a pocket watcher badge to view this.", "badges": [], "created_at": "2025-06-16T14:22:40.222-04:00", "updated_at": "2025-07-03T19:19:59.499-04:00", "avatar": "https://secure.gravatar.com/avatar/604ad504ddb4c83593527b5e140fbfa3.jpg?s=512&d=https%3A%2F%2Fa.slack-edge.com%2Fdf10d%2Fimg%2Favatars%2Fava_0003-512.png", "custom_css": null}, {"id": 1954, "slack_id": "U092CCA4UC8", "display_name": "Uwitondanishema Muslim", "bio": null, "projects_count": 0, "devlogs_count": 0, "votes_count": 0, "ships_count": 0, "projects": [], "coding_time_seconds": 192472, "coding_time_seconds_today": 0, "balance": "You need to have a pocket watcher badge to view this.", "badges": [], "created_at": "2025-06-16T14:23:05.136-04:00", "updated_at": "2025-07-03T19:19:59.768-04:00", "avatar": "https://avatars.slack-edge.com/2025-06-16/9070516371345_545eeab394b50fdeade9_original.png", "custom_css": null}, {"id": 1955, "slack_id": "U0922EQC77T", "display_name": "Subham Kumar", "bio": null, "projects_count": 0, "devlogs_count": 0, "votes_count": 0, "ships_count": 0, "projects": [], "coding_time_seconds": 0, "coding_time_seconds_today": 0, "balance": "You need to have a pocket watcher badge to view this.", "badges": [], "created_at": "2025-06-16T14:23:27.118-04:00", "updated_at": "2025-07-03T19:20:00.054-04:00", "avatar": "https://avatars.slack-edge.com/2025-06-16/9070518732737_f270081985effbf43604_original.png", "custom_css": null}, {"id": 1956, "slack_id": "U091H31MB3Q", "display_name": "brbtavares", "bio": null, "projects_count": 0, "devlogs_count": 0, "votes_count": 0, "ships_count": 0, "projects": [], "coding_time_seconds": 0, "coding_time_seconds_today": 0, "balance": "You need to have a pocket watcher badge to view this.", "badges": [], "created_at": "2025-06-16T14:23:36.516-04:00", "updated_at": "2025-07-03T19:20:00.326-04:00", "avatar": "https://secure.gravatar.com/avatar/d94e7adffa1a9055621ca22a7d396ef4.jpg?s=512&d=https%3A%2F%2Fa.slack-edge.com%2Fdf10d%2Fimg%2Favatars%2Fava_0014-512.png", "custom_css": null}, {"id": 1957, "slack_id": "U091QABAK9A", "display_name": "Artur", "bio": null, "projects_count": 2, "devlogs_count": 1, "votes_count": 0, "ships_count": 0, "projects": [{"id": 259, "title": "BackTrace", "devlogs_count": 1, "created_at": "2025-06-16T16:27:36.785-04:00"}, {"id": 2555, "title": "Todo List", "devlogs_count": 0, "created_at": "2025-06-21T10:05:20.427-04:00"}], "coding_time_seconds": 72794, "coding_time_seconds_today": 0, "balance": "You need to have a pocket watcher badge to view this.", "badges": [], "created_at": "2025-06-16T14:23:49.088-04:00", "updated_at": "2025-07-03T19:20:00.603-04:00", "avatar": "https://secure.gravatar.com/avatar/d0c4e1c739717045128a45fe569de882.jpg?s=512&d=https%3A%2F%2Fa.slack-edge.com%2Fdf10d%2Fimg%2Favatars%2Fava_0000-512.png", "custom_css": null}, {"id": 1958, "slack_id": "U092CCHGS6L", "display_name": "Varun", "bio": null, "projects_count": 0, "devlogs_count": 0, "votes_count": 0, "ships_count": 0, "projects": [], "coding_time_seconds": 9371, "coding_time_seconds_today": 0, "balance": "You need to have a pocket watcher badge to view this.", "badges": [], "created_at": "2025-06-16T14:23:52.527-04:00", "updated_at": "2025-07-03T19:20:00.888-04:00", "avatar": "https://secure.gravatar.com/avatar/8e837128a90ed765772a24898dc96c5b.jpg?s=512&d=https%3A%2F%2Fa.slack-edge.com%2Fdf10d%2Fimg%2Favatars%2Fava_0011-512.png", "custom_css": null}, {"id": 1959, "slack_id": "U0918K08Q23", "display_name": "Ankit Raj", "bio": null, "projects_count": 0, "devlogs_count": 0, "votes_count": 0, "ships_count": 0, "projects": [], "coding_time_seconds": 276244, "coding_time_seconds_today": 1270, "balance": "You need to have a pocket watcher badge to view this.", "badges": [], "created_at": "2025-06-16T14:23:59.070-04:00", "updated_at": "2025-07-03T19:20:01.460-04:00", "avatar": "https://avatars.slack-edge.com/2025-06-16/9080435074704_0fa7be07360f6ed16c66_original.webp", "custom_css": null}, {"id": 1960, "slack_id": "U092CCE2JSC", "display_name": "Fakiha", "bio": null, "projects_count": 0, "devlogs_count": 0, "votes_count": 0, "ships_count": 0, "projects": [], "coding_time_seconds": 0, "coding_time_seconds_today": 0, "balance": "You need to have a pocket watcher badge to view this.", "badges": [], "created_at": "2025-06-16T14:24:10.393-04:00", "updated_at": "2025-07-03T19:20:01.749-04:00", "avatar": "https://secure.gravatar.com/avatar/10b3012dcd4d5867175fd95a7da08c49.jpg?s=512&d=https%3A%2F%2Fa.slack-edge.com%2Fdf10d%2Fimg%2Favatars%2Fava_0010-512.png", "custom_css": null}], "pagination": {"page": 98, "pages": 1192, "count": 23828, "items": 20}}