{"users": [{"id": 19666, "slack_id": "U097Q4NQH3P", "display_name": "Mahmoud Kaddour", "bio": null, "projects_count": 0, "devlogs_count": 0, "votes_count": 0, "ships_count": 0, "projects": [], "coding_time_seconds": 6794, "coding_time_seconds_today": 0, "balance": "You need to have a pocket watcher badge to view this.", "badges": [], "created_at": "2025-07-28T03:39:34.684-04:00", "updated_at": "2025-08-11T10:15:37.705-04:00", "avatar": "https://secure.gravatar.com/avatar/e42e1f38c2a59954303e8ccfb7c9b7a0.jpg?s=512&d=https%3A%2F%2Fa.slack-edge.com%2Fdf10d%2Fimg%2Favatars%2Fava_0013-512.png", "custom_css": null}, {"id": 19667, "slack_id": "U097Q5J2MNZ", "display_name": "Hari Om Vishwkarma", "bio": null, "projects_count": 0, "devlogs_count": 0, "votes_count": 0, "ships_count": 0, "projects": [], "coding_time_seconds": 0, "coding_time_seconds_today": 0, "balance": "You need to have a pocket watcher badge to view this.", "badges": [], "created_at": "2025-07-28T03:46:11.408-04:00", "updated_at": "2025-07-29T02:05:26.724-04:00", "avatar": "https://secure.gravatar.com/avatar/739a24182be58cc41a702fa6a16ca35b.jpg?s=512&d=https%3A%2F%2Fa.slack-edge.com%2Fdf10d%2Fimg%2Favatars%2Fava_0006-512.png", "custom_css": null}, {"id": 19668, "slack_id": "U097S7QLEF6", "display_name": "Shriyansh agarwal", "bio": null, "projects_count": 0, "devlogs_count": 0, "votes_count": 0, "ships_count": 0, "projects": [], "coding_time_seconds": 0, "coding_time_seconds_today": 0, "balance": "You need to have a pocket watcher badge to view this.", "badges": [], "created_at": "2025-07-28T03:54:01.280-04:00", "updated_at": "2025-07-28T07:15:29.387-04:00", "avatar": "https://secure.gravatar.com/avatar/45c570db18cd019c35330fb3a2bb65be.jpg?s=512&d=https%3A%2F%2Fa.slack-edge.com%2Fdf10d%2Fimg%2Favatars%2Fava_0022-512.png", "custom_css": null}, {"id": 19669, "slack_id": "U097C8RN7E0", "display_name": "Manohar Sonsale", "bio": null, "projects_count": 0, "devlogs_count": 0, "votes_count": 0, "ships_count": 0, "projects": [], "coding_time_seconds": 2064, "coding_time_seconds_today": 0, "balance": "You need to have a pocket watcher badge to view this.", "badges": [], "created_at": "2025-07-28T04:02:08.280-04:00", "updated_at": "2025-07-28T10:09:04.012-04:00", "avatar": "https://avatars.slack-edge.com/2025-07-28/9260276000086_5919028279dbd0943e7b_original.png", "custom_css": null}, {"id": 19670, "slack_id": "U098DKBG5PS", "display_name": "trun", "bio": null, "projects_count": 0, "devlogs_count": 0, "votes_count": 0, "ships_count": 0, "projects": [], "coding_time_seconds": 7915, "coding_time_seconds_today": 0, "balance": "You need to have a pocket watcher badge to view this.", "badges": [], "created_at": "2025-07-28T04:06:09.937-04:00", "updated_at": "2025-08-02T01:09:01.670-04:00", "avatar": "https://secure.gravatar.com/avatar/19113d70ca80692f3224f891bd7d8616.jpg?s=512&d=https%3A%2F%2Fa.slack-edge.com%2Fdf10d%2Fimg%2Favatars%2Fava_0007-512.png", "custom_css": null}, {"id": 19671, "slack_id": "U0983B752GG", "display_name": "mudit", "bio": null, "projects_count": 0, "devlogs_count": 0, "votes_count": 0, "ships_count": 0, "projects": [], "coding_time_seconds": 0, "coding_time_seconds_today": 0, "balance": "You need to have a pocket watcher badge to view this.", "badges": [], "created_at": "2025-07-28T04:17:25.330-04:00", "updated_at": "2025-07-28T07:15:29.702-04:00", "avatar": "https://secure.gravatar.com/avatar/7e70aece25cde6cefb956465bfc2c5af.jpg?s=512&d=https%3A%2F%2Fa.slack-edge.com%2Fdf10d%2Fimg%2Favatars%2Fava_0003-512.png", "custom_css": null}, {"id": 19672, "slack_id": "U0979QTLPLP", "display_name": "Sandeep Singh", "bio": null, "projects_count": 0, "devlogs_count": 0, "votes_count": 0, "ships_count": 0, "projects": [], "coding_time_seconds": 0, "coding_time_seconds_today": 0, "balance": "You need to have a pocket watcher badge to view this.", "badges": [], "created_at": "2025-07-28T04:18:52.011-04:00", "updated_at": "2025-07-28T07:15:29.799-04:00", "avatar": "https://secure.gravatar.com/avatar/715390f3b5af1dc6ee76d7bbeea50121.jpg?s=512&d=https%3A%2F%2Fa.slack-edge.com%2Fdf10d%2Fimg%2Favatars%2Fava_0002-512.png", "custom_css": null}, {"id": 19673, "slack_id": "U0979T57CKZ", "display_name": "Harsh", "bio": null, "projects_count": 0, "devlogs_count": 0, "votes_count": 0, "ships_count": 0, "projects": [], "coding_time_seconds": 0, "coding_time_seconds_today": 0, "balance": "You need to have a pocket watcher badge to view this.", "badges": [], "created_at": "2025-07-28T04:31:29.958-04:00", "updated_at": "2025-07-29T01:34:26.147-04:00", "avatar": "https://secure.gravatar.com/avatar/adf1cd2996c590681a4dccdf05dd3e07.jpg?s=512&d=https%3A%2F%2Fa.slack-edge.com%2Fdf10d%2Fimg%2Favatars%2Fava_0011-512.png", "custom_css": null}, {"id": 19674, "slack_id": "U096Z7E3J94", "display_name": "Ajayi OREOLUWA RUTH", "bio": null, "projects_count": 0, "devlogs_count": 0, "votes_count": 0, "ships_count": 0, "projects": [], "coding_time_seconds": 151679, "coding_time_seconds_today": 0, "balance": "You need to have a pocket watcher badge to view this.", "badges": [], "created_at": "2025-07-28T04:37:35.669-04:00", "updated_at": "2025-07-28T07:15:29.999-04:00", "avatar": "https://avatars.slack-edge.com/2025-07-28/9277780710001_c424af185eb73e407f65_original.png", "custom_css": null}, {"id": 19675, "slack_id": "U097FGEP22E", "display_name": "Nadipudi Shanmukhi satya", "bio": null, "projects_count": 0, "devlogs_count": 0, "votes_count": 0, "ships_count": 0, "projects": [], "coding_time_seconds": 0, "coding_time_seconds_today": 0, "balance": "You need to have a pocket watcher badge to view this.", "badges": [], "created_at": "2025-07-28T04:44:56.048-04:00", "updated_at": "2025-07-28T07:15:30.097-04:00", "avatar": "https://secure.gravatar.com/avatar/7c9194e355a60b856191532cd9c04141.jpg?s=512&d=https%3A%2F%2Fa.slack-edge.com%2Fdf10d%2Fimg%2Favatars%2Fava_0002-512.png", "custom_css": null}, {"id": 19676, "slack_id": "U097SH4FR1A", "display_name": "Itri Ibouanane", "bio": null, "projects_count": 0, "devlogs_count": 0, "votes_count": 0, "ships_count": 0, "projects": [], "coding_time_seconds": 0, "coding_time_seconds_today": 0, "balance": "You need to have a pocket watcher badge to view this.", "badges": [], "created_at": "2025-07-28T04:57:27.393-04:00", "updated_at": "2025-07-28T17:56:04.993-04:00", "avatar": "https://secure.gravatar.com/avatar/11471b37c82548b33ab2dd84a9d6eb90.jpg?s=512&d=https%3A%2F%2Fa.slack-edge.com%2Fdf10d%2Fimg%2Favatars%2Fava_0012-512.png", "custom_css": null}, {"id": 19677, "slack_id": "U097H7A8SV8", "display_name": "tanuja", "bio": null, "projects_count": 0, "devlogs_count": 0, "votes_count": 0, "ships_count": 0, "projects": [], "coding_time_seconds": 0, "coding_time_seconds_today": 0, "balance": "You need to have a pocket watcher badge to view this.", "badges": [], "created_at": "2025-07-28T04:58:12.420-04:00", "updated_at": "2025-07-28T07:15:30.288-04:00", "avatar": "https://secure.gravatar.com/avatar/4ced2333f20355c428cff9c0ca14f87d.jpg?s=512&d=https%3A%2F%2Fa.slack-edge.com%2Fdf10d%2Fimg%2Favatars%2Fava_0023-512.png", "custom_css": null}, {"id": 19678, "slack_id": "U097RUSTMMY", "display_name": "Suraj", "bio": null, "projects_count": 0, "devlogs_count": 0, "votes_count": 0, "ships_count": 0, "projects": [], "coding_time_seconds": 0, "coding_time_seconds_today": 0, "balance": "You need to have a pocket watcher badge to view this.", "badges": [], "created_at": "2025-07-28T05:21:57.595-04:00", "updated_at": "2025-07-28T07:15:30.388-04:00", "avatar": "https://secure.gravatar.com/avatar/fccb219671df8fdd15ef14154c6b81e5.jpg?s=512&d=https%3A%2F%2Fa.slack-edge.com%2Fdf10d%2Fimg%2Favatars%2Fava_0011-512.png", "custom_css": null}, {"id": 19679, "slack_id": "U097LPBJ3FD", "display_name": "Rohan U", "bio": null, "projects_count": 0, "devlogs_count": 0, "votes_count": 0, "ships_count": 0, "projects": [], "coding_time_seconds": 0, "coding_time_seconds_today": 0, "balance": "You need to have a pocket watcher badge to view this.", "badges": [], "created_at": "2025-07-28T05:37:28.091-04:00", "updated_at": "2025-07-28T10:56:32.626-04:00", "avatar": "https://secure.gravatar.com/avatar/70219e34740ac9ab40834ae4cd951a28.jpg?s=512&d=https%3A%2F%2Fa.slack-edge.com%2Fdf10d%2Fimg%2Favatars%2Fava_0004-512.png", "custom_css": null}, {"id": 19680, "slack_id": "U097LQ8LMLK", "display_name": "Manssiiii", "bio": null, "projects_count": 4, "devlogs_count": 6, "votes_count": 53, "ships_count": 4, "projects": [{"id": 8994, "title": "The Image Shuffler", "devlogs_count": 1, "created_at": "2025-07-30T05:39:16.781-04:00"}, {"id": 11638, "title": "Tic-Tac-Toe", "devlogs_count": 2, "created_at": "2025-08-18T01:40:06.049-04:00"}, {"id": 12604, "title": "Bubble Shooter ", "devlogs_count": 1, "created_at": "2025-08-30T11:01:58.952-04:00"}, {"id": 11914, "title": "Pookie AI Bot", "devlogs_count": 2, "created_at": "2025-08-21T03:12:06.362-04:00"}], "coding_time_seconds": 83307, "coding_time_seconds_today": 0, "balance": "You need to have a pocket watcher badge to view this.", "badges": [], "created_at": "2025-07-28T06:00:14.146-04:00", "updated_at": "2025-08-07T00:44:25.308-04:00", "avatar": "https://avatars.slack-edge.com/2025-07-29/9267395595205_ea541fedf108636cd57e_original.jpg", "custom_css": null}, {"id": 19681, "slack_id": "U097QQP7W77", "display_name": "D\u01b0\u01a1ng V\u0103n", "bio": null, "projects_count": 0, "devlogs_count": 0, "votes_count": 0, "ships_count": 0, "projects": [], "coding_time_seconds": 0, "coding_time_seconds_today": 0, "balance": "You need to have a pocket watcher badge to view this.", "badges": [], "created_at": "2025-07-28T06:09:42.589-04:00", "updated_at": "2025-07-28T07:15:34.711-04:00", "avatar": "https://avatars.slack-edge.com/2025-07-28/9278235010513_da685d0728caf7307b06_original.jpg", "custom_css": null}, {"id": 19682, "slack_id": "U097ADZ2PSB", "display_name": "Ardi", "bio": null, "projects_count": 0, "devlogs_count": 0, "votes_count": 0, "ships_count": 0, "projects": [], "coding_time_seconds": 0, "coding_time_seconds_today": 0, "balance": "You need to have a pocket watcher badge to view this.", "badges": [], "created_at": "2025-07-28T06:20:35.259-04:00", "updated_at": "2025-07-28T07:15:34.814-04:00", "avatar": "https://secure.gravatar.com/avatar/5054332a6fdf33df9aabfde1fcd31f15.jpg?s=512&d=https%3A%2F%2Fa.slack-edge.com%2Fdf10d%2Fimg%2Favatars%2Fava_0014-512.png", "custom_css": null}, {"id": 19683, "slack_id": "U097QSAARRB", "display_name": "Aman Jaiswal", "bio": null, "projects_count": 0, "devlogs_count": 0, "votes_count": 0, "ships_count": 0, "projects": [], "coding_time_seconds": 448412, "coding_time_seconds_today": 0, "balance": "You need to have a pocket watcher badge to view this.", "badges": [], "created_at": "2025-07-28T06:23:37.286-04:00", "updated_at": "2025-07-28T07:15:34.902-04:00", "avatar": "https://avatars.slack-edge.com/2025-07-28/9259012639603_8b545d382bd590fce937_original.png", "custom_css": null}, {"id": 19684, "slack_id": "U0986AC3U1X", "display_name": "surabhi", "bio": null, "projects_count": 0, "devlogs_count": 0, "votes_count": 0, "ships_count": 0, "projects": [], "coding_time_seconds": 0, "coding_time_seconds_today": 0, "balance": "You need to have a pocket watcher badge to view this.", "badges": [], "created_at": "2025-07-28T06:40:10.099-04:00", "updated_at": "2025-07-28T07:15:34.988-04:00", "avatar": "https://secure.gravatar.com/avatar/de614551b06aa7865afc2e993990382b.jpg?s=512&d=https%3A%2F%2Fa.slack-edge.com%2Fdf10d%2Fimg%2Favatars%2Fava_0006-512.png", "custom_css": null}, {"id": 19685, "slack_id": "U07UEM1PEJX", "display_name": "Kryptic", "bio": null, "projects_count": 0, "devlogs_count": 0, "votes_count": 0, "ships_count": 0, "projects": [], "coding_time_seconds": 37106, "coding_time_seconds_today": 0, "balance": "You need to have a pocket watcher badge to view this.", "badges": [], "created_at": "2025-07-28T06:42:19.152-04:00", "updated_at": "2025-07-28T07:15:35.101-04:00", "avatar": "https://avatars.slack-edge.com/2024-12-06/8161886257568_33df70768bf80f73c424_original.jpg", "custom_css": null}], "pagination": {"page": 980, "pages": 1192, "count": 23828, "items": 20}}