{"users": [{"id": 19686, "slack_id": "U097M27C77D", "display_name": "akashavverma", "bio": null, "projects_count": 0, "devlogs_count": 0, "votes_count": 0, "ships_count": 0, "projects": [], "coding_time_seconds": 0, "coding_time_seconds_today": 0, "balance": "You need to have a pocket watcher badge to view this.", "badges": [], "created_at": "2025-07-28T06:43:12.263-04:00", "updated_at": "2025-07-28T07:15:35.196-04:00", "avatar": "https://secure.gravatar.com/avatar/55f5db251bbe8a5524fb65aa618a4055.jpg?s=512&d=https%3A%2F%2Fa.slack-edge.com%2Fdf10d%2Fimg%2Favatars%2Fava_0018-512.png", "custom_css": null}, {"id": 19687, "slack_id": "U097QUCHM4M", "display_name": "Bharat verma", "bio": null, "projects_count": 0, "devlogs_count": 0, "votes_count": 0, "ships_count": 0, "projects": [], "coding_time_seconds": 0, "coding_time_seconds_today": 0, "balance": "You need to have a pocket watcher badge to view this.", "badges": [], "created_at": "2025-07-28T06:50:59.380-04:00", "updated_at": "2025-08-03T12:05:55.195-04:00", "avatar": "https://secure.gravatar.com/avatar/8f39987ac96677cc95f3aa3233d1a841.jpg?s=512&d=https%3A%2F%2Fa.slack-edge.com%2Fdf10d%2Fimg%2Favatars%2Fava_0000-512.png", "custom_css": null}, {"id": 19688, "slack_id": "U097P072ZEJ", "display_name": "blacklizardcode", "bio": null, "projects_count": 0, "devlogs_count": 0, "votes_count": 0, "ships_count": 0, "projects": [], "coding_time_seconds": 0, "coding_time_seconds_today": 0, "balance": "You need to have a pocket watcher badge to view this.", "badges": [], "created_at": "2025-07-28T07:01:04.896-04:00", "updated_at": "2025-08-21T14:47:32.924-04:00", "avatar": "https://secure.gravatar.com/avatar/0a8bc9aab4d2b93b1d8397d4cbf6f0b1.jpg?s=512&d=https%3A%2F%2Fa.slack-edge.com%2Fdf10d%2Fimg%2Favatars%2Fava_0001-512.png", "custom_css": null}, {"id": 19689, "slack_id": "U097R43DKGD", "display_name": "Abhishee", "bio": null, "projects_count": 0, "devlogs_count": 0, "votes_count": 0, "ships_count": 0, "projects": [], "coding_time_seconds": 13244, "coding_time_seconds_today": 0, "balance": "You need to have a pocket watcher badge to view this.", "badges": [], "created_at": "2025-07-28T07:26:52.961-04:00", "updated_at": "2025-07-31T08:41:45.625-04:00", "avatar": "https://secure.gravatar.com/avatar/029f5b9a040bfbc7a3f69db90b9dba68.jpg?s=512&d=https%3A%2F%2Fa.slack-edge.com%2Fdf10d%2Fimg%2Favatars%2Fava_0019-512.png", "custom_css": null}, {"id": 19690, "slack_id": "U097SH8A51Q", "display_name": "ahmadsmaan", "bio": null, "projects_count": 0, "devlogs_count": 0, "votes_count": 0, "ships_count": 0, "projects": [], "coding_time_seconds": 0, "coding_time_seconds_today": 0, "balance": "You need to have a pocket watcher badge to view this.", "badges": [], "created_at": "2025-07-28T07:45:30.387-04:00", "updated_at": "2025-07-28T20:17:37.872-04:00", "avatar": "https://secure.gravatar.com/avatar/0709413ecd009e5b297f2e4a92f09fce.jpg?s=512&d=https%3A%2F%2Fa.slack-edge.com%2Fdf10d%2Fimg%2Favatars%2Fava_0025-512.png", "custom_css": null}, {"id": 19691, "slack_id": "U097M8UM06P", "display_name": "Deeprince", "bio": null, "projects_count": 0, "devlogs_count": 0, "votes_count": 0, "ships_count": 0, "projects": [], "coding_time_seconds": 0, "coding_time_seconds_today": 0, "balance": "You need to have a pocket watcher badge to view this.", "badges": [], "created_at": "2025-07-28T07:53:13.227-04:00", "updated_at": "2025-07-28T20:17:37.965-04:00", "avatar": "https://secure.gravatar.com/avatar/f31e2376af24f7041e456689dfeff753.jpg?s=512&d=https%3A%2F%2Fa.slack-edge.com%2Fdf10d%2Fimg%2Favatars%2Fava_0023-512.png", "custom_css": null}, {"id": 19692, "slack_id": "U097T7R6BRS", "display_name": "Zain Abbas Raza__OISKP_(G8A)/CUB", "bio": null, "projects_count": 1, "devlogs_count": 0, "votes_count": 1, "ships_count": 0, "projects": [{"id": 11267, "title": "The Python city", "devlogs_count": 0, "created_at": "2025-08-14T12:08:36.388-04:00"}], "coding_time_seconds": 12797, "coding_time_seconds_today": 0, "balance": "You need to have a pocket watcher badge to view this.", "badges": [], "created_at": "2025-07-28T07:56:37.218-04:00", "updated_at": "2025-08-13T11:47:29.694-04:00", "avatar": "https://secure.gravatar.com/avatar/352da6acca41d2290eff5b1ff8ffdcc1.jpg?s=512&d=https%3A%2F%2Fa.slack-edge.com%2Fdf10d%2Fimg%2Favatars%2Fava_0011-512.png", "custom_css": null}, {"id": 19693, "slack_id": "U097MB7MAPM", "display_name": "Nimer", "bio": null, "projects_count": 0, "devlogs_count": 0, "votes_count": 0, "ships_count": 0, "projects": [], "coding_time_seconds": 0, "coding_time_seconds_today": 0, "balance": "You need to have a pocket watcher badge to view this.", "badges": [], "created_at": "2025-07-28T08:00:41.757-04:00", "updated_at": "2025-07-28T20:17:38.138-04:00", "avatar": "https://secure.gravatar.com/avatar/540db41a84a9c80d4e39f1a54e3c5d0e.jpg?s=512&d=https%3A%2F%2Fa.slack-edge.com%2Fdf10d%2Fimg%2Favatars%2Fava_0015-512.png", "custom_css": null}, {"id": 19694, "slack_id": "U097SKVTE4S", "display_name": "Rei", "bio": null, "projects_count": 0, "devlogs_count": 0, "votes_count": 0, "ships_count": 0, "projects": [], "coding_time_seconds": 0, "coding_time_seconds_today": 0, "balance": "You need to have a pocket watcher badge to view this.", "badges": [], "created_at": "2025-07-28T08:04:55.878-04:00", "updated_at": "2025-07-28T20:17:38.213-04:00", "avatar": "https://avatars.slack-edge.com/2025-07-28/9286879257808_c5aed32e5d5e61afb3d2_original.jpg", "custom_css": null}, {"id": 19695, "slack_id": "U097ATT017H", "display_name": "sean", "bio": null, "projects_count": 0, "devlogs_count": 0, "votes_count": 0, "ships_count": 0, "projects": [], "coding_time_seconds": 0, "coding_time_seconds_today": 0, "balance": "You need to have a pocket watcher badge to view this.", "badges": [], "created_at": "2025-07-28T08:06:01.976-04:00", "updated_at": "2025-07-28T20:17:38.294-04:00", "avatar": "https://secure.gravatar.com/avatar/62868a92aab9a909a004f761bbdea39e.jpg?s=512&d=https%3A%2F%2Fa.slack-edge.com%2Fdf10d%2Fimg%2Favatars%2Fava_0013-512.png", "custom_css": null}, {"id": 19696, "slack_id": "U097MCGJQQ3", "display_name": "8k_zi", "bio": null, "projects_count": 0, "devlogs_count": 0, "votes_count": 0, "ships_count": 0, "projects": [], "coding_time_seconds": 3076, "coding_time_seconds_today": 0, "balance": "You need to have a pocket watcher badge to view this.", "badges": [], "created_at": "2025-07-28T08:07:08.042-04:00", "updated_at": "2025-07-28T20:17:38.385-04:00", "avatar": "https://secure.gravatar.com/avatar/428f8a9b23641e9451d2d384bb332c4a.jpg?s=512&d=https%3A%2F%2Fa.slack-edge.com%2Fdf10d%2Fimg%2Favatars%2Fava_0024-512.png", "custom_css": null}, {"id": 19697, "slack_id": "U094TMG6ZGQ", "display_name": "Max", "bio": "I'm running Hyprland on Arch Linux on a 20GB partition while symlinking a couple key directories onto a different 500gb linux mint partition. I know my stuff.\r\n\r\nI love programming and drawing!\r\n\r\nI can do anything if I put enough effort into it. For example, I have made my own physics engine and a program that can wrap an image into a circle, but with certain bits that are straight.", "projects_count": 1, "devlogs_count": 9, "votes_count": 21, "ships_count": 1, "projects": [{"id": 8923, "title": "NES - 4 Seasons Away", "devlogs_count": 9, "created_at": "2025-07-29T17:27:24.122-04:00"}], "coding_time_seconds": 375259, "coding_time_seconds_today": 3147, "balance": "You need to have a pocket watcher badge to view this.", "badges": [], "created_at": "2025-07-28T08:19:23.581-04:00", "updated_at": "2025-09-15T07:43:45.298-04:00", "avatar": "https://avatars.slack-edge.com/2025-09-08/9505694996048_d82e7563b1201cc64e55_original.jpg", "custom_css": null}, {"id": 19698, "slack_id": "U097SR3DWAW", "display_name": "Yaman Devrim", "bio": null, "projects_count": 0, "devlogs_count": 0, "votes_count": 0, "ships_count": 0, "projects": [], "coding_time_seconds": 59042, "coding_time_seconds_today": 0, "balance": "You need to have a pocket watcher badge to view this.", "badges": [], "created_at": "2025-07-28T08:58:05.689-04:00", "updated_at": "2025-07-28T20:17:42.587-04:00", "avatar": "https://secure.gravatar.com/avatar/e12cc051183c80df6300fecac5c16a92.jpg?s=512&d=https%3A%2F%2Fa.slack-edge.com%2Fdf10d%2Fimg%2Favatars%2Fava_0005-512.png", "custom_css": null}, {"id": 19699, "slack_id": "U097MK63Q03", "display_name": "Nouf", "bio": null, "projects_count": 0, "devlogs_count": 0, "votes_count": 0, "ships_count": 0, "projects": [], "coding_time_seconds": 0, "coding_time_seconds_today": 0, "balance": "You need to have a pocket watcher badge to view this.", "badges": [], "created_at": "2025-07-28T08:59:51.666-04:00", "updated_at": "2025-07-28T20:17:46.706-04:00", "avatar": "https://secure.gravatar.com/avatar/c33ac5b98513d8e3705cb313820796e7.jpg?s=512&d=https%3A%2F%2Fa.slack-edge.com%2Fdf10d%2Fimg%2Favatars%2Fava_0021-512.png", "custom_css": null}, {"id": 19700, "slack_id": "U097MLEAS0K", "display_name": "Nia", "bio": null, "projects_count": 0, "devlogs_count": 0, "votes_count": 0, "ships_count": 0, "projects": [], "coding_time_seconds": 0, "coding_time_seconds_today": 0, "balance": "You need to have a pocket watcher badge to view this.", "badges": [], "created_at": "2025-07-28T09:01:13.243-04:00", "updated_at": "2025-07-28T20:17:46.834-04:00", "avatar": "https://secure.gravatar.com/avatar/7f2cfffe2ee9373903776888011e5331.jpg?s=512&d=https%3A%2F%2Fa.slack-edge.com%2Fdf10d%2Fimg%2Favatars%2Fava_0007-512.png", "custom_css": null}, {"id": 19701, "slack_id": "U097ACQV371", "display_name": "Ifeanyi Eneonwo", "bio": null, "projects_count": 0, "devlogs_count": 0, "votes_count": 0, "ships_count": 0, "projects": [], "coding_time_seconds": 4350, "coding_time_seconds_today": 0, "balance": "You need to have a pocket watcher badge to view this.", "badges": [], "created_at": "2025-07-28T09:02:24.048-04:00", "updated_at": "2025-07-28T20:17:46.923-04:00", "avatar": "https://avatars.slack-edge.com/2025-07-28/9287034401936_67fce0b8dc47fb94a1bd_original.jpg", "custom_css": null}, {"id": 19702, "slack_id": "U0979T3NP6X", "display_name": "Jorik", "bio": null, "projects_count": 0, "devlogs_count": 0, "votes_count": 0, "ships_count": 0, "projects": [], "coding_time_seconds": 0, "coding_time_seconds_today": 0, "balance": "You need to have a pocket watcher badge to view this.", "badges": [], "created_at": "2025-07-28T09:02:27.934-04:00", "updated_at": "2025-07-28T20:17:47.025-04:00", "avatar": "https://secure.gravatar.com/avatar/719a1639576a1bf95a0d362a8a37b303.jpg?s=512&d=https%3A%2F%2Fa.slack-edge.com%2Fdf10d%2Fimg%2Favatars%2Fava_0007-512.png", "custom_css": null}, {"id": 19703, "slack_id": "U09870CJCMP", "display_name": "frazzle21", "bio": null, "projects_count": 0, "devlogs_count": 0, "votes_count": 0, "ships_count": 0, "projects": [], "coding_time_seconds": 0, "coding_time_seconds_today": 0, "balance": "You need to have a pocket watcher badge to view this.", "badges": [], "created_at": "2025-07-28T09:03:01.589-04:00", "updated_at": "2025-07-28T20:17:47.101-04:00", "avatar": "https://secure.gravatar.com/avatar/8d7be9f80c52f206ecf2a94ad93e9daf.jpg?s=512&d=https%3A%2F%2Fa.slack-edge.com%2Fdf10d%2Fimg%2Favatars%2Fava_0011-512.png", "custom_css": null}, {"id": 19704, "slack_id": "U097SUCKJ90", "display_name": "Ferboinkles", "bio": null, "projects_count": 2, "devlogs_count": 10, "votes_count": 43, "ships_count": 1, "projects": [{"id": 11000, "title": "Cowculator", "devlogs_count": 0, "created_at": "2025-08-12T09:52:20.041-04:00"}, {"id": 10116, "title": "Kitty clicker", "devlogs_count": 9, "created_at": "2025-08-04T06:51:06.343-04:00"}], "coding_time_seconds": 48906, "coding_time_seconds_today": 149, "balance": "You need to have a pocket watcher badge to view this.", "badges": [], "created_at": "2025-07-28T09:04:06.055-04:00", "updated_at": "2025-09-25T03:21:38.199-04:00", "avatar": "https://avatars.slack-edge.com/2025-07-28/9287053260480_3b17dd52b34c853a1a51_original.png", "custom_css": null}, {"id": 19705, "slack_id": "U096T82H5GS", "display_name": "Sergio Sillero", "bio": null, "projects_count": 0, "devlogs_count": 0, "votes_count": 0, "ships_count": 0, "projects": [], "coding_time_seconds": 0, "coding_time_seconds_today": 0, "balance": "You need to have a pocket watcher badge to view this.", "badges": [], "created_at": "2025-07-28T09:04:54.739-04:00", "updated_at": "2025-07-28T20:17:47.287-04:00", "avatar": "https://avatars.slack-edge.com/2025-07-28/9249286094791_924fe8a9711120909554_original.png", "custom_css": null}], "pagination": {"page": 981, "pages": 1192, "count": 23828, "items": 20}}