{"users": [{"id": 19726, "slack_id": "U097UGCHD60", "display_name": "Akhil", "bio": null, "projects_count": 0, "devlogs_count": 0, "votes_count": 0, "ships_count": 0, "projects": [], "coding_time_seconds": 11791, "coding_time_seconds_today": 0, "balance": "You need to have a pocket watcher badge to view this.", "badges": [], "created_at": "2025-07-28T11:11:29.471-04:00", "updated_at": "2025-07-28T20:17:49.282-04:00", "avatar": "https://secure.gravatar.com/avatar/992b7cb30a4aeef379e282d55f1c7b7e.jpg?s=512&d=https%3A%2F%2Fa.slack-edge.com%2Fdf10d%2Fimg%2Favatars%2Fava_0012-512.png", "custom_css": null}, {"id": 19727, "slack_id": "U097QGJNGRL", "display_name": "Ishan Gautam", "bio": null, "projects_count": 0, "devlogs_count": 0, "votes_count": 0, "ships_count": 0, "projects": [], "coding_time_seconds": 0, "coding_time_seconds_today": 0, "balance": "You need to have a pocket watcher badge to view this.", "badges": [], "created_at": "2025-07-28T11:20:20.256-04:00", "updated_at": "2025-07-29T23:09:22.045-04:00", "avatar": "https://secure.gravatar.com/avatar/52e088e1b6af5489550c70c94c361f47.jpg?s=512&d=https%3A%2F%2Fa.slack-edge.com%2Fdf10d%2Fimg%2Favatars%2Fava_0014-512.png", "custom_css": null}, {"id": 19728, "slack_id": "U097UQEBNJD", "display_name": "Siman", "bio": null, "projects_count": 0, "devlogs_count": 0, "votes_count": 0, "ships_count": 0, "projects": [], "coding_time_seconds": 0, "coding_time_seconds_today": 0, "balance": "You need to have a pocket watcher badge to view this.", "badges": [], "created_at": "2025-07-28T11:54:39.012-04:00", "updated_at": "2025-07-28T11:56:31.672-04:00", "avatar": "https://avatars.slack-edge.com/2025-07-25/9253843054306_72e0746bbd8a36bf8cc0_original.jpg", "custom_css": null}, {"id": 19729, "slack_id": "U09885QSSFK", "display_name": "vayun agarwal", "bio": null, "projects_count": 0, "devlogs_count": 0, "votes_count": 0, "ships_count": 0, "projects": [], "coding_time_seconds": 0, "coding_time_seconds_today": 0, "balance": "You need to have a pocket watcher badge to view this.", "badges": [], "created_at": "2025-07-28T12:02:54.191-04:00", "updated_at": "2025-07-29T06:54:30.659-04:00", "avatar": "https://secure.gravatar.com/avatar/c657f550d0b35780eb3d2e48181109e7.jpg?s=512&d=https%3A%2F%2Fa.slack-edge.com%2Fdf10d%2Fimg%2Favatars%2Fava_0008-512.png", "custom_css": null}, {"id": 19730, "slack_id": "U097SJRTEHK", "display_name": "Muhammad", "bio": null, "projects_count": 0, "devlogs_count": 0, "votes_count": 0, "ships_count": 0, "projects": [], "coding_time_seconds": 2129, "coding_time_seconds_today": 0, "balance": "You need to have a pocket watcher badge to view this.", "badges": [], "created_at": "2025-07-28T12:03:50.653-04:00", "updated_at": "2025-07-28T20:17:53.655-04:00", "avatar": "https://secure.gravatar.com/avatar/154165a38d56fccef687b2a36efb9e2f.jpg?s=512&d=https%3A%2F%2Fa.slack-edge.com%2Fdf10d%2Fimg%2Favatars%2Fava_0017-512.png", "custom_css": null}, {"id": 19731, "slack_id": "U097U4PN5T4", "display_name": "Jason", "bio": null, "projects_count": 0, "devlogs_count": 0, "votes_count": 0, "ships_count": 0, "projects": [], "coding_time_seconds": 11059, "coding_time_seconds_today": 0, "balance": "You need to have a pocket watcher badge to view this.", "badges": [], "created_at": "2025-07-28T12:08:53.442-04:00", "updated_at": "2025-07-28T20:17:53.736-04:00", "avatar": "https://secure.gravatar.com/avatar/d19bac95a3691b1a7135fe1852eceae2.jpg?s=512&d=https%3A%2F%2Fa.slack-edge.com%2Fdf10d%2Fimg%2Favatars%2Fava_0001-512.png", "custom_css": null}, {"id": 19732, "slack_id": "U08RA821B08", "display_name": "Rumet", "bio": null, "projects_count": 0, "devlogs_count": 16, "votes_count": 18, "ships_count": 0, "projects": [], "coding_time_seconds": 142671, "coding_time_seconds_today": 0, "balance": "You need to have a pocket watcher badge to view this.", "badges": [], "created_at": "2025-07-28T12:09:59.674-04:00", "updated_at": "2025-08-24T03:01:29.458-04:00", "avatar": "https://avatars.slack-edge.com/2025-08-14/9368514034993_cd0aa098e40ca196340f_original.jpg", "custom_css": null}, {"id": 19733, "slack_id": "U097UUA4VRA", "display_name": "Nishit Kaul", "bio": null, "projects_count": 0, "devlogs_count": 0, "votes_count": 0, "ships_count": 0, "projects": [], "coding_time_seconds": 0, "coding_time_seconds_today": 0, "balance": "You need to have a pocket watcher badge to view this.", "badges": [], "created_at": "2025-07-28T12:15:53.063-04:00", "updated_at": "2025-07-28T20:17:53.885-04:00", "avatar": "https://avatars.slack-edge.com/2025-07-28/9266982622868_f778b0f9c15b172d87ce_original.png", "custom_css": null}, {"id": 19734, "slack_id": "U097SKZ46Q5", "display_name": "ThirstyWater", "bio": null, "projects_count": 0, "devlogs_count": 0, "votes_count": 0, "ships_count": 0, "projects": [], "coding_time_seconds": 0, "coding_time_seconds_today": 0, "balance": "You need to have a pocket watcher badge to view this.", "badges": [], "created_at": "2025-07-28T12:18:00.798-04:00", "updated_at": "2025-07-28T20:17:53.970-04:00", "avatar": "https://secure.gravatar.com/avatar/de88cd5bc0051b2c7cbc93a371a49fba.jpg?s=512&d=https%3A%2F%2Fa.slack-edge.com%2Fdf10d%2Fimg%2Favatars%2Fava_0018-512.png", "custom_css": null}, {"id": 19735, "slack_id": "U096NMRMMUK", "display_name": "Kenneth M", "bio": null, "projects_count": 0, "devlogs_count": 0, "votes_count": 0, "ships_count": 0, "projects": [], "coding_time_seconds": 0, "coding_time_seconds_today": 0, "balance": "You need to have a pocket watcher badge to view this.", "badges": [], "created_at": "2025-07-28T12:22:31.716-04:00", "updated_at": "2025-07-28T20:17:54.048-04:00", "avatar": "https://secure.gravatar.com/avatar/420c7979f198cd006a3ce016160f71c8.jpg?s=512&d=https%3A%2F%2Fa.slack-edge.com%2Fdf10d%2Fimg%2Favatars%2Fava_0005-512.png", "custom_css": null}, {"id": 19736, "slack_id": "U097V2W9LN8", "display_name": "Prashant Singh", "bio": null, "projects_count": 0, "devlogs_count": 0, "votes_count": 0, "ships_count": 0, "projects": [], "coding_time_seconds": 1377, "coding_time_seconds_today": 0, "balance": "You need to have a pocket watcher badge to view this.", "badges": [], "created_at": "2025-07-28T12:40:22.891-04:00", "updated_at": "2025-07-28T20:17:54.140-04:00", "avatar": "https://secure.gravatar.com/avatar/25054d56dca6a3f4681857df32cb0ad5.jpg?s=512&d=https%3A%2F%2Fa.slack-edge.com%2Fdf10d%2Fimg%2Favatars%2Fava_0002-512.png", "custom_css": null}, {"id": 19737, "slack_id": "U092J4RHVDY", "display_name": "chrisward", "bio": null, "projects_count": 0, "devlogs_count": 0, "votes_count": 0, "ships_count": 0, "projects": [], "coding_time_seconds": 0, "coding_time_seconds_today": 0, "balance": "You need to have a pocket watcher badge to view this.", "badges": [], "created_at": "2025-07-28T12:52:42.977-04:00", "updated_at": "2025-07-28T20:17:54.221-04:00", "avatar": "https://secure.gravatar.com/avatar/97cd85b1431ef9f092247a7b32d7c221.jpg?s=512&d=https%3A%2F%2Fa.slack-edge.com%2Fdf10d%2Fimg%2Favatars%2Fava_0001-512.png", "custom_css": null}, {"id": 19738, "slack_id": "U097UEMSN90", "display_name": "Julio", "bio": null, "projects_count": 0, "devlogs_count": 0, "votes_count": 0, "ships_count": 0, "projects": [], "coding_time_seconds": 0, "coding_time_seconds_today": 0, "balance": "You need to have a pocket watcher badge to view this.", "badges": [], "created_at": "2025-07-28T13:04:45.568-04:00", "updated_at": "2025-07-28T20:17:54.305-04:00", "avatar": "https://secure.gravatar.com/avatar/6bd00caba8f6f6fcfb27176ecd08aa40.jpg?s=512&d=https%3A%2F%2Fa.slack-edge.com%2Fdf10d%2Fimg%2Favatars%2Fava_0024-512.png", "custom_css": null}, {"id": 19739, "slack_id": "U0988JJ953K", "display_name": "Sanika V H", "bio": null, "projects_count": 0, "devlogs_count": 0, "votes_count": 0, "ships_count": 0, "projects": [], "coding_time_seconds": 0, "coding_time_seconds_today": 0, "balance": "You need to have a pocket watcher badge to view this.", "badges": [], "created_at": "2025-07-28T13:12:44.740-04:00", "updated_at": "2025-07-28T20:17:54.395-04:00", "avatar": "https://secure.gravatar.com/avatar/4842c849e869c07bf086a8fcef3ebd9a.jpg?s=512&d=https%3A%2F%2Fa.slack-edge.com%2Fdf10d%2Fimg%2Favatars%2Fava_0000-512.png", "custom_css": null}, {"id": 19740, "slack_id": "U097P904459", "display_name": "Yatharth Katyal", "bio": null, "projects_count": 0, "devlogs_count": 0, "votes_count": 0, "ships_count": 0, "projects": [], "coding_time_seconds": 0, "coding_time_seconds_today": 0, "balance": "You need to have a pocket watcher badge to view this.", "badges": [], "created_at": "2025-07-28T13:17:30.280-04:00", "updated_at": "2025-07-28T20:17:54.484-04:00", "avatar": "https://secure.gravatar.com/avatar/861874acfa956311ed9c15227cea7e22.jpg?s=512&d=https%3A%2F%2Fa.slack-edge.com%2Fdf10d%2Fimg%2Favatars%2Fava_0022-512.png", "custom_css": null}, {"id": 19741, "slack_id": "U097R95PBSS", "display_name": "AHAD KHATTAK", "bio": null, "projects_count": 0, "devlogs_count": 0, "votes_count": 0, "ships_count": 0, "projects": [], "coding_time_seconds": 0, "coding_time_seconds_today": 0, "balance": "You need to have a pocket watcher badge to view this.", "badges": [], "created_at": "2025-07-28T13:20:41.666-04:00", "updated_at": "2025-07-28T20:17:54.572-04:00", "avatar": "https://secure.gravatar.com/avatar/8bce509d50433dc6dfa8e76466f4de9a.jpg?s=512&d=https%3A%2F%2Fa.slack-edge.com%2Fdf10d%2Fimg%2Favatars%2Fava_0002-512.png", "custom_css": null}, {"id": 19742, "slack_id": "U097RFXKJEA", "display_name": "Arya", "bio": null, "projects_count": 2, "devlogs_count": 0, "votes_count": 0, "ships_count": 0, "projects": [{"id": 8614, "title": "Lumi: Note Taking App", "devlogs_count": 0, "created_at": "2025-07-28T15:50:38.340-04:00"}, {"id": 8694, "title": "Toffee's Quest", "devlogs_count": 0, "created_at": "2025-07-28T23:24:51.851-04:00"}], "coding_time_seconds": 1295, "coding_time_seconds_today": 0, "balance": "You need to have a pocket watcher badge to view this.", "badges": [], "created_at": "2025-07-28T14:00:21.592-04:00", "updated_at": "2025-07-28T22:56:59.765-04:00", "avatar": "https://secure.gravatar.com/avatar/64af0193598323220a9937849ddebcf6.jpg?s=512&d=https%3A%2F%2Fa.slack-edge.com%2Fdf10d%2Fimg%2Favatars%2Fava_0016-512.png", "custom_css": null}, {"id": 19743, "slack_id": "U097RH0FPL6", "display_name": "Dhriti Kohli", "bio": "I am a junior at Naperville North High School who is interested in coding and closing the gender gap in the field of CS. I am part of the the CS Honor Society, BPA Club, Robotics (FRC Team 3061), CS Club at my school. Additionally I am the co-founder of Girls Who Code Club at Naperville North and Strategic Software lead for my Robotics Team. I mentor FLL teams as well. \r\nMy hobbies include travelling,baking,listening to music, playing guitar, watching animes and c/k- dramas!", "projects_count": 2, "devlogs_count": 15, "votes_count": 36, "ships_count": 2, "projects": [{"id": 8645, "title": "Pomodro Timer", "devlogs_count": 6, "created_at": "2025-07-28T18:58:18.091-04:00"}, {"id": 9104, "title": "Moon Phase Calendar", "devlogs_count": 7, "created_at": "2025-07-30T15:55:54.238-04:00"}], "coding_time_seconds": 31276, "coding_time_seconds_today": 0, "balance": "You need to have a pocket watcher badge to view this.", "badges": [], "created_at": "2025-07-28T14:06:49.113-04:00", "updated_at": "2025-08-08T10:50:23.086-04:00", "avatar": "https://secure.gravatar.com/avatar/39307559a2caebb85542401eae2f654f.jpg?s=512&d=https%3A%2F%2Fa.slack-edge.com%2Fdf10d%2Fimg%2Favatars%2Fava_0004-512.png", "custom_css": null}, {"id": 19744, "slack_id": "U097RHK37E2", "display_name": "Vijay Raj", "bio": null, "projects_count": 0, "devlogs_count": 0, "votes_count": 0, "ships_count": 0, "projects": [], "coding_time_seconds": 14427, "coding_time_seconds_today": 0, "balance": "You need to have a pocket watcher badge to view this.", "badges": [], "created_at": "2025-07-28T14:08:40.499-04:00", "updated_at": "2025-07-28T20:17:54.849-04:00", "avatar": "https://secure.gravatar.com/avatar/7617637444bc35cc6b40f14a6a27b77b.jpg?s=512&d=https%3A%2F%2Fa.slack-edge.com%2Fdf10d%2Fimg%2Favatars%2Fava_0020-512.png", "custom_css": null}, {"id": 19745, "slack_id": "U097T9K8TV3", "display_name": "Ofer Afik", "bio": null, "projects_count": 3, "devlogs_count": 15, "votes_count": 59, "ships_count": 3, "projects": [{"id": 9241, "title": "Whack-a-Mole Game", "devlogs_count": 7, "created_at": "2025-07-31T06:28:53.921-04:00"}, {"id": 12344, "title": "Towers of Hanoi", "devlogs_count": 7, "created_at": "2025-08-26T02:03:33.930-04:00"}, {"id": 13240, "title": "XOR-Cipher", "devlogs_count": 1, "created_at": "2025-09-12T10:47:18.365-04:00"}], "coding_time_seconds": 115074, "coding_time_seconds_today": 0, "balance": "You need to have a pocket watcher badge to view this.", "badges": [], "created_at": "2025-07-28T14:12:19.306-04:00", "updated_at": "2025-08-07T08:12:20.798-04:00", "avatar": "https://secure.gravatar.com/avatar/36d36d5ccc88b7a8a9d9d20429b5d553.jpg?s=512&d=https%3A%2F%2Fa.slack-edge.com%2Fdf10d%2Fimg%2Favatars%2Fava_0019-512.png", "custom_css": null}], "pagination": {"page": 983, "pages": 1192, "count": 23828, "items": 20}}