{"users": [{"id": 19746, "slack_id": "U09766Z97V2", "display_name": "Maria", "bio": null, "projects_count": 0, "devlogs_count": 0, "votes_count": 0, "ships_count": 0, "projects": [], "coding_time_seconds": 0, "coding_time_seconds_today": 0, "balance": "You need to have a pocket watcher badge to view this.", "badges": [], "created_at": "2025-07-28T14:12:36.715-04:00", "updated_at": "2025-07-28T20:17:55.032-04:00", "avatar": "https://secure.gravatar.com/avatar/3d9459ac2056f7388b101fcd37d516d3.jpg?s=512&d=https%3A%2F%2Fa.slack-edge.com%2Fdf10d%2Fimg%2Favatars%2Fava_0005-512.png", "custom_css": null}, {"id": 19747, "slack_id": "U097PLNDJ9H", "display_name": "Zach Branum", "bio": null, "projects_count": 0, "devlogs_count": 0, "votes_count": 0, "ships_count": 0, "projects": [], "coding_time_seconds": 0, "coding_time_seconds_today": 0, "balance": "You need to have a pocket watcher badge to view this.", "badges": [], "created_at": "2025-07-28T14:25:16.344-04:00", "updated_at": "2025-07-28T20:17:55.131-04:00", "avatar": "https://secure.gravatar.com/avatar/bc1d2709895e3b25515b899bc55f6713.jpg?s=512&d=https%3A%2F%2Fa.slack-edge.com%2Fdf10d%2Fimg%2Favatars%2Fava_0000-512.png", "custom_css": null}, {"id": 19748, "slack_id": "U097DC7B78F", "display_name": "SUDHANSHU PANTHRI", "bio": null, "projects_count": 0, "devlogs_count": 0, "votes_count": 0, "ships_count": 0, "projects": [], "coding_time_seconds": 0, "coding_time_seconds_today": 0, "balance": "You need to have a pocket watcher badge to view this.", "badges": [], "created_at": "2025-07-28T14:30:58.803-04:00", "updated_at": "2025-07-28T20:17:55.219-04:00", "avatar": "https://secure.gravatar.com/avatar/19287d574146ef0a9ceba47146b7e2bd.jpg?s=512&d=https%3A%2F%2Fa.slack-edge.com%2Fdf10d%2Fimg%2Favatars%2Fava_0020-512.png", "custom_css": null}, {"id": 19749, "slack_id": "U097VNQTGCC", "display_name": "Mohd Azeem Malik", "bio": null, "projects_count": 0, "devlogs_count": 0, "votes_count": 0, "ships_count": 0, "projects": [], "coding_time_seconds": 0, "coding_time_seconds_today": 0, "balance": "You need to have a pocket watcher badge to view this.", "badges": [], "created_at": "2025-07-28T14:34:56.795-04:00", "updated_at": "2025-07-28T20:17:55.313-04:00", "avatar": "https://avatars.slack-edge.com/2025-07-28/9251456519335_ac949ae589baa18dbdb9_original.png", "custom_css": null}, {"id": 19750, "slack_id": "U097PPCGGTV", "display_name": "amanda stone", "bio": null, "projects_count": 0, "devlogs_count": 0, "votes_count": 0, "ships_count": 0, "projects": [], "coding_time_seconds": 0, "coding_time_seconds_today": 0, "balance": "You need to have a pocket watcher badge to view this.", "badges": [], "created_at": "2025-07-28T14:41:46.755-04:00", "updated_at": "2025-07-28T20:17:55.408-04:00", "avatar": "https://secure.gravatar.com/avatar/f926d0c9295115ad25820e6006479d4e.jpg?s=512&d=https%3A%2F%2Fa.slack-edge.com%2Fdf10d%2Fimg%2Favatars%2Fava_0022-512.png", "custom_css": null}, {"id": 19751, "slack_id": "U09894E0F41", "display_name": "cyp", "bio": null, "projects_count": 0, "devlogs_count": 0, "votes_count": 0, "ships_count": 0, "projects": [], "coding_time_seconds": 137561, "coding_time_seconds_today": 0, "balance": "You need to have a pocket watcher badge to view this.", "badges": [], "created_at": "2025-07-28T14:45:31.397-04:00", "updated_at": "2025-07-28T20:17:55.501-04:00", "avatar": "https://secure.gravatar.com/avatar/393480515d90ff3fe00424df9f8331b7.jpg?s=512&d=https%3A%2F%2Fa.slack-edge.com%2Fdf10d%2Fimg%2Favatars%2Fava_0017-512.png", "custom_css": null}, {"id": 19752, "slack_id": "U093BPL11H9", "display_name": "EpicScientist", "bio": null, "projects_count": 0, "devlogs_count": 0, "votes_count": 0, "ships_count": 0, "projects": [], "coding_time_seconds": 0, "coding_time_seconds_today": 0, "balance": "You need to have a pocket watcher badge to view this.", "badges": [], "created_at": "2025-07-28T14:57:03.982-04:00", "updated_at": "2025-07-28T20:17:55.630-04:00", "avatar": "https://secure.gravatar.com/avatar/a417a236f19f3f0087bfd2401f527ada.jpg?s=512&d=https%3A%2F%2Fa.slack-edge.com%2Fdf10d%2Fimg%2Favatars%2Fava_0001-512.png", "custom_css": null}, {"id": 19753, "slack_id": "U097RU9SU6A", "display_name": "Chaudhary Rudra Pratap Singh YADAV", "bio": null, "projects_count": 0, "devlogs_count": 0, "votes_count": 0, "ships_count": 0, "projects": [], "coding_time_seconds": 0, "coding_time_seconds_today": 0, "balance": "You need to have a pocket watcher badge to view this.", "badges": [], "created_at": "2025-07-28T15:23:12.886-04:00", "updated_at": "2025-07-28T20:17:55.721-04:00", "avatar": "https://secure.gravatar.com/avatar/078bac6a704908fc947e9424c1d42489.jpg?s=512&d=https%3A%2F%2Fa.slack-edge.com%2Fdf10d%2Fimg%2Favatars%2Fava_0019-512.png", "custom_css": null}, {"id": 19754, "slack_id": "U0978QVJUT1", "display_name": "Shriyans", "bio": null, "projects_count": 0, "devlogs_count": 0, "votes_count": 0, "ships_count": 0, "projects": [], "coding_time_seconds": 0, "coding_time_seconds_today": 0, "balance": "You need to have a pocket watcher badge to view this.", "badges": [], "created_at": "2025-07-28T15:24:55.131-04:00", "updated_at": "2025-07-28T20:17:55.808-04:00", "avatar": "https://avatars.slack-edge.com/2025-07-29/9251821154615_432b3988af0f0d06a40c_original.jpg", "custom_css": null}, {"id": 19755, "slack_id": "U0401RQMCQ5", "display_name": "alexbluo", "bio": null, "projects_count": 0, "devlogs_count": 0, "votes_count": 0, "ships_count": 0, "projects": [], "coding_time_seconds": 0, "coding_time_seconds_today": 0, "balance": "You need to have a pocket watcher badge to view this.", "badges": [], "created_at": "2025-07-28T15:46:28.895-04:00", "updated_at": "2025-07-28T20:17:55.886-04:00", "avatar": "https://avatars.slack-edge.com/2025-07-16/9209849024724_7ed8d8e9d319e9f77926_original.jpg", "custom_css": null}, {"id": 19756, "slack_id": "U097TU4KF6Z", "display_name": "aadil agoussal", "bio": null, "projects_count": 0, "devlogs_count": 0, "votes_count": 0, "ships_count": 0, "projects": [], "coding_time_seconds": 0, "coding_time_seconds_today": 0, "balance": "You need to have a pocket watcher badge to view this.", "badges": [], "created_at": "2025-07-28T16:24:24.478-04:00", "updated_at": "2025-07-28T20:17:55.977-04:00", "avatar": "https://secure.gravatar.com/avatar/9c1dfde3da433ef9b8afae5512985795.jpg?s=512&d=https%3A%2F%2Fa.slack-edge.com%2Fdf10d%2Fimg%2Favatars%2Fava_0007-512.png", "custom_css": null}, {"id": 19757, "slack_id": "U097DT5SNQ7", "display_name": "Daniil Jarykaou", "bio": "Competitive programmer", "projects_count": 0, "devlogs_count": 0, "votes_count": 0, "ships_count": 0, "projects": [], "coding_time_seconds": 0, "coding_time_seconds_today": 0, "balance": "You need to have a pocket watcher badge to view this.", "badges": [], "created_at": "2025-07-28T16:29:41.337-04:00", "updated_at": "2025-07-28T20:17:56.064-04:00", "avatar": "https://secure.gravatar.com/avatar/4abca93bc467e2c5798d5bc27919e04d.jpg?s=512&d=https%3A%2F%2Fa.slack-edge.com%2Fdf10d%2Fimg%2Favatars%2Fava_0001-512.png", "custom_css": null}, {"id": 19758, "slack_id": "U097E2M4ZQX", "display_name": "enigma", "bio": null, "projects_count": 0, "devlogs_count": 0, "votes_count": 0, "ships_count": 0, "projects": [], "coding_time_seconds": 0, "coding_time_seconds_today": 0, "balance": "You need to have a pocket watcher badge to view this.", "badges": [], "created_at": "2025-07-28T16:42:45.448-04:00", "updated_at": "2025-07-28T20:17:56.157-04:00", "avatar": "https://secure.gravatar.com/avatar/3784b2d3ea599977f19c276742d01be7.jpg?s=512&d=https%3A%2F%2Fa.slack-edge.com%2Fdf10d%2Fimg%2Favatars%2Fava_0017-512.png", "custom_css": null}, {"id": 19759, "slack_id": "U0787K31BM5", "display_name": "Kashvi", "bio": null, "projects_count": 0, "devlogs_count": 0, "votes_count": 0, "ships_count": 0, "projects": [], "coding_time_seconds": 0, "coding_time_seconds_today": 0, "balance": "You need to have a pocket watcher badge to view this.", "badges": [], "created_at": "2025-07-28T16:44:07.539-04:00", "updated_at": "2025-07-30T02:59:12.030-04:00", "avatar": "https://secure.gravatar.com/avatar/6c745a83ba8dab60463add9a40a02956.jpg?s=512&d=https%3A%2F%2Fa.slack-edge.com%2Fdf10d%2Fimg%2Favatars%2Fava_0008-512.png", "custom_css": null}, {"id": 19760, "slack_id": "U097VL5CUTC", "display_name": "Mateo Fdez", "bio": null, "projects_count": 0, "devlogs_count": 0, "votes_count": 0, "ships_count": 0, "projects": [], "coding_time_seconds": 120, "coding_time_seconds_today": 0, "balance": "You need to have a pocket watcher badge to view this.", "badges": [], "created_at": "2025-07-28T16:54:37.724-04:00", "updated_at": "2025-08-05T16:05:11.758-04:00", "avatar": "https://avatars.slack-edge.com/2025-07-28/9281829261457_5b0753d506a3b428f50e_original.png", "custom_css": null}, {"id": 19761, "slack_id": "U097C8EUPMM", "display_name": "Turner Burgess", "bio": null, "projects_count": 0, "devlogs_count": 0, "votes_count": 0, "ships_count": 0, "projects": [], "coding_time_seconds": 0, "coding_time_seconds_today": 0, "balance": "You need to have a pocket watcher badge to view this.", "badges": [], "created_at": "2025-07-28T17:01:22.288-04:00", "updated_at": "2025-07-28T20:17:56.391-04:00", "avatar": "https://secure.gravatar.com/avatar/3f761b49b239828398bac66ad7268375.jpg?s=512&d=https%3A%2F%2Fa.slack-edge.com%2Fdf10d%2Fimg%2Favatars%2Fava_0009-512.png", "custom_css": null}, {"id": 19762, "slack_id": "U098HNU9M6U", "display_name": "Ewan McCairn", "bio": null, "projects_count": 0, "devlogs_count": 0, "votes_count": 0, "ships_count": 0, "projects": [], "coding_time_seconds": 0, "coding_time_seconds_today": 0, "balance": "You need to have a pocket watcher badge to view this.", "badges": [], "created_at": "2025-07-28T17:14:07.153-04:00", "updated_at": "2025-08-08T03:45:50.402-04:00", "avatar": "https://avatars.slack-edge.com/2025-08-07/9323675819796_23b0d8e343e0f85be0de_original.jpg", "custom_css": null}, {"id": 19763, "slack_id": "U0989T5QUNM", "display_name": "Fernando Kavinsky", "bio": null, "projects_count": 0, "devlogs_count": 0, "votes_count": 0, "ships_count": 0, "projects": [], "coding_time_seconds": 63638, "coding_time_seconds_today": 0, "balance": "You need to have a pocket watcher badge to view this.", "badges": [], "created_at": "2025-07-28T17:16:51.180-04:00", "updated_at": "2025-07-28T20:18:00.607-04:00", "avatar": "https://secure.gravatar.com/avatar/851d9cc926fc0d54c2d2a96483ae5ecc.jpg?s=512&d=https%3A%2F%2Fa.slack-edge.com%2Fdf10d%2Fimg%2Favatars%2Fava_0020-512.png", "custom_css": null}, {"id": 19764, "slack_id": "U097Y2Y3WAC", "display_name": "Neelam Sharma", "bio": null, "projects_count": 0, "devlogs_count": 0, "votes_count": 0, "ships_count": 0, "projects": [], "coding_time_seconds": 0, "coding_time_seconds_today": 0, "balance": "You need to have a pocket watcher badge to view this.", "badges": [], "created_at": "2025-07-28T17:19:06.843-04:00", "updated_at": "2025-07-28T20:18:00.693-04:00", "avatar": "https://secure.gravatar.com/avatar/6c0b75567605b96ccb1ba4efc464609c.jpg?s=512&d=https%3A%2F%2Fa.slack-edge.com%2Fdf10d%2Fimg%2Favatars%2Fava_0025-512.png", "custom_css": null}, {"id": 19765, "slack_id": "U098A0KQH6V", "display_name": "Elio", "bio": null, "projects_count": 0, "devlogs_count": 0, "votes_count": 0, "ships_count": 0, "projects": [], "coding_time_seconds": 25865, "coding_time_seconds_today": 0, "balance": "You need to have a pocket watcher badge to view this.", "badges": [], "created_at": "2025-07-28T17:41:17.792-04:00", "updated_at": "2025-07-28T20:18:00.780-04:00", "avatar": "https://secure.gravatar.com/avatar/d17cd92472e7dbe8e096bca89ef73719.jpg?s=512&d=https%3A%2F%2Fa.slack-edge.com%2Fdf10d%2Fimg%2Favatars%2Fava_0013-512.png", "custom_css": null}], "pagination": {"page": 984, "pages": 1192, "count": 23828, "items": 20}}