{"users": [{"id": 19766, "slack_id": "U044P84SGLD", "display_name": "Jirayu", "bio": null, "projects_count": 3, "devlogs_count": 48, "votes_count": 43, "ships_count": 2, "projects": [{"id": 10792, "title": "LetsEncrypt Cert Server", "devlogs_count": 0, "created_at": "2025-08-10T21:41:39.546-04:00"}, {"id": 12525, "title": "Good Morning, My Goat \u2764\ufe0f [sharable image gen]", "devlogs_count": 23, "created_at": "2025-08-29T01:46:46.484-04:00"}, {"id": 8628, "title": "SnapSplat", "devlogs_count": 25, "created_at": "2025-07-28T17:51:54.633-04:00"}], "coding_time_seconds": 611984, "coding_time_seconds_today": 2799, "balance": "You need to have a pocket watcher badge to view this.", "badges": [], "created_at": "2025-07-28T17:42:01.193-04:00", "updated_at": "2025-08-28T04:12:46.036-04:00", "avatar": "https://avatars.slack-edge.com/2025-08-11/9344505855553_68b816cfa0ae173fee3f_original.png", "custom_css": null}, {"id": 19767, "slack_id": "U097UBQDFPX", "display_name": "Antoni Wrzesinski", "bio": null, "projects_count": 1, "devlogs_count": 2, "votes_count": 0, "ships_count": 0, "projects": [{"id": 8655, "title": "Tripio", "devlogs_count": 2, "created_at": "2025-07-28T19:47:41.474-04:00"}], "coding_time_seconds": 10864, "coding_time_seconds_today": 0, "balance": "You need to have a pocket watcher badge to view this.", "badges": [], "created_at": "2025-07-28T18:19:23.044-04:00", "updated_at": "2025-08-07T10:29:54.224-04:00", "avatar": "https://avatars.slack-edge.com/2025-07-28/9282180187873_f8f9890d1542c3012f19_original.png", "custom_css": null}, {"id": 19768, "slack_id": "U097UDF8RAR", "display_name": "Justin", "bio": null, "projects_count": 0, "devlogs_count": 0, "votes_count": 0, "ships_count": 0, "projects": [], "coding_time_seconds": 0, "coding_time_seconds_today": 0, "balance": "You need to have a pocket watcher badge to view this.", "badges": [], "created_at": "2025-07-28T18:41:38.210-04:00", "updated_at": "2025-07-30T05:10:08.890-04:00", "avatar": "https://avatars.slack-edge.com/2025-07-28/9252584665975_b5087d12d521512837de_original.png", "custom_css": null}, {"id": 19769, "slack_id": "U0977U1ARB3", "display_name": "nikimsernal", "bio": null, "projects_count": 0, "devlogs_count": 0, "votes_count": 0, "ships_count": 0, "projects": [], "coding_time_seconds": 11694, "coding_time_seconds_today": 0, "balance": "You need to have a pocket watcher badge to view this.", "badges": [], "created_at": "2025-07-28T18:41:41.048-04:00", "updated_at": "2025-07-28T20:18:01.126-04:00", "avatar": "https://avatars.slack-edge.com/2025-07-28/9268346725410_f8ba5d00b0877ea66264_original.jpg", "custom_css": null}, {"id": 19770, "slack_id": "U097QT1DRUK", "display_name": "Jensen", "bio": null, "projects_count": 0, "devlogs_count": 0, "votes_count": 0, "ships_count": 0, "projects": [], "coding_time_seconds": 0, "coding_time_seconds_today": 0, "balance": "You need to have a pocket watcher badge to view this.", "badges": [], "created_at": "2025-07-28T18:42:13.002-04:00", "updated_at": "2025-07-28T20:18:01.215-04:00", "avatar": "https://secure.gravatar.com/avatar/b1e4fbbbf928b02d9d538fc233fe7f61.jpg?s=512&d=https%3A%2F%2Fa.slack-edge.com%2Fdf10d%2Fimg%2Favatars%2Fava_0007-512.png", "custom_css": null}, {"id": 19771, "slack_id": "U098J4K9VR6", "display_name": "Ram Lavu", "bio": null, "projects_count": 0, "devlogs_count": 0, "votes_count": 0, "ships_count": 0, "projects": [], "coding_time_seconds": 0, "coding_time_seconds_today": 0, "balance": "You need to have a pocket watcher badge to view this.", "badges": [], "created_at": "2025-07-28T18:54:57.970-04:00", "updated_at": "2025-07-28T20:18:01.301-04:00", "avatar": "https://avatars.slack-edge.com/2025-07-28/9290165608480_546099f9651ec4b74563_original.png", "custom_css": null}, {"id": 19772, "slack_id": "U097SR5TEVC", "display_name": "Jaikaar Singh", "bio": null, "projects_count": 0, "devlogs_count": 0, "votes_count": 0, "ships_count": 0, "projects": [], "coding_time_seconds": 0, "coding_time_seconds_today": 0, "balance": "You need to have a pocket watcher badge to view this.", "badges": [], "created_at": "2025-07-28T19:07:29.320-04:00", "updated_at": "2025-07-28T20:18:01.387-04:00", "avatar": "https://avatars.slack-edge.com/2025-07-28/9269021303188_80355099e836af4bbdf9_original.jpg", "custom_css": null}, {"id": 19773, "slack_id": "U097ST84CBY", "display_name": "Riptide Games", "bio": null, "projects_count": 0, "devlogs_count": 0, "votes_count": 0, "ships_count": 0, "projects": [], "coding_time_seconds": 0, "coding_time_seconds_today": 0, "balance": "You need to have a pocket watcher badge to view this.", "badges": [], "created_at": "2025-07-28T19:15:58.611-04:00", "updated_at": "2025-07-28T20:18:01.482-04:00", "avatar": "https://avatars.slack-edge.com/2025-07-28/9282365299345_74407f820d53bd7503ea_original.jpg", "custom_css": null}, {"id": 19774, "slack_id": "U07ESBTK1AB", "display_name": "Tphat77923", "bio": null, "projects_count": 1, "devlogs_count": 1, "votes_count": 14, "ships_count": 1, "projects": [{"id": 8735, "title": "Discord School", "devlogs_count": 1, "created_at": "2025-07-29T04:14:10.010-04:00"}], "coding_time_seconds": 70573, "coding_time_seconds_today": 0, "balance": "You need to have a pocket watcher badge to view this.", "badges": [], "created_at": "2025-07-28T19:34:02.003-04:00", "updated_at": "2025-08-08T07:55:11.825-04:00", "avatar": "https://secure.gravatar.com/avatar/fc63925bab44999896e94e0567a2a217.jpg?s=512&d=https%3A%2F%2Fa.slack-edge.com%2Fdf10d%2Fimg%2Favatars%2Fava_0026-512.png", "custom_css": null}, {"id": 19775, "slack_id": "U097R4N0GAF", "display_name": "e", "bio": null, "projects_count": 0, "devlogs_count": 0, "votes_count": 0, "ships_count": 0, "projects": [], "coding_time_seconds": 0, "coding_time_seconds_today": 0, "balance": "You need to have a pocket watcher badge to view this.", "badges": [], "created_at": "2025-07-28T20:06:13.328-04:00", "updated_at": "2025-07-29T03:09:14.131-04:00", "avatar": "https://secure.gravatar.com/avatar/f5f4b39bbdea816e6062275339b0eb62.jpg?s=512&d=https%3A%2F%2Fa.slack-edge.com%2Fdf10d%2Fimg%2Favatars%2Fava_0020-512.png", "custom_css": null}, {"id": 19776, "slack_id": "U097T3EF2ES", "display_name": "Abdul Manan", "bio": null, "projects_count": 0, "devlogs_count": 0, "votes_count": 0, "ships_count": 0, "projects": [], "coding_time_seconds": 0, "coding_time_seconds_today": 0, "balance": "You need to have a pocket watcher badge to view this.", "badges": [], "created_at": "2025-07-28T20:22:49.009-04:00", "updated_at": "2025-07-29T03:09:14.216-04:00", "avatar": "https://avatars.slack-edge.com/2025-07-29/9282618903297_e33fad9673552c830af2_original.jpg", "custom_css": null}, {"id": 19777, "slack_id": "U096SA441E1", "display_name": "Luna", "bio": null, "projects_count": 0, "devlogs_count": 0, "votes_count": 0, "ships_count": 0, "projects": [], "coding_time_seconds": 0, "coding_time_seconds_today": 0, "balance": "You need to have a pocket watcher badge to view this.", "badges": [], "created_at": "2025-07-28T20:57:45.274-04:00", "updated_at": "2025-07-29T03:09:14.301-04:00", "avatar": "https://secure.gravatar.com/avatar/b2e71ac3fba2b46aa70bd93c3aa21550.jpg?s=512&d=https%3A%2F%2Fa.slack-edge.com%2Fdf10d%2Fimg%2Favatars%2Fava_0020-512.png", "custom_css": null}, {"id": 19778, "slack_id": "U097F38M3HV", "display_name": "Jake Hu", "bio": null, "projects_count": 0, "devlogs_count": 0, "votes_count": 0, "ships_count": 0, "projects": [], "coding_time_seconds": 0, "coding_time_seconds_today": 0, "balance": "You need to have a pocket watcher badge to view this.", "badges": [], "created_at": "2025-07-28T21:34:32.426-04:00", "updated_at": "2025-07-30T21:49:52.121-04:00", "avatar": "https://avatars.slack-edge.com/2025-07-28/9263513969347_edc3b5480b8a1223466f_original.png", "custom_css": null}, {"id": 19779, "slack_id": "U097TBBS206", "display_name": "Kayla", "bio": null, "projects_count": 0, "devlogs_count": 0, "votes_count": 0, "ships_count": 0, "projects": [], "coding_time_seconds": 0, "coding_time_seconds_today": 0, "balance": "You need to have a pocket watcher badge to view this.", "badges": [], "created_at": "2025-07-28T21:48:34.183-04:00", "updated_at": "2025-07-29T03:09:14.476-04:00", "avatar": "https://secure.gravatar.com/avatar/8e232591a5ca8779de42b01f2e9d33c1.jpg?s=512&d=https%3A%2F%2Fa.slack-edge.com%2Fdf10d%2Fimg%2Favatars%2Fava_0001-512.png", "custom_css": null}, {"id": 19780, "slack_id": "U097TBEKNAJ", "display_name": "Abhiram Navulla", "bio": null, "projects_count": 0, "devlogs_count": 0, "votes_count": 0, "ships_count": 0, "projects": [], "coding_time_seconds": 0, "coding_time_seconds_today": 0, "balance": "You need to have a pocket watcher badge to view this.", "badges": [], "created_at": "2025-07-28T21:49:30.600-04:00", "updated_at": "2025-07-29T03:09:14.566-04:00", "avatar": "https://avatars.slack-edge.com/2025-07-28/9253179789367_483dad1b8b4e0f54889a_original.png", "custom_css": null}, {"id": 19781, "slack_id": "U098AR3A057", "display_name": "Ebay Sales", "bio": null, "projects_count": 0, "devlogs_count": 0, "votes_count": 0, "ships_count": 0, "projects": [], "coding_time_seconds": 0, "coding_time_seconds_today": 0, "balance": "You need to have a pocket watcher badge to view this.", "badges": [], "created_at": "2025-07-28T21:50:12.742-04:00", "updated_at": "2025-07-29T03:09:14.644-04:00", "avatar": "https://avatars.slack-edge.com/2025-07-28/9268699124034_93cfcc7f986a7f0f092a_original.png", "custom_css": null}, {"id": 19782, "slack_id": "U097MQKD4LW", "display_name": "Kelvin", "bio": null, "projects_count": 0, "devlogs_count": 0, "votes_count": 0, "ships_count": 0, "projects": [], "coding_time_seconds": 0, "coding_time_seconds_today": 0, "balance": "You need to have a pocket watcher badge to view this.", "badges": [], "created_at": "2025-07-28T22:01:04.662-04:00", "updated_at": "2025-07-29T03:09:14.720-04:00", "avatar": "https://secure.gravatar.com/avatar/bf6f3d163fe7e6f1b3bca4a0edd47b69.jpg?s=512&d=https%3A%2F%2Fa.slack-edge.com%2Fdf10d%2Fimg%2Favatars%2Fava_0022-512.png", "custom_css": null}, {"id": 19783, "slack_id": "U09865XKN6M", "display_name": "Hana", "bio": null, "projects_count": 0, "devlogs_count": 0, "votes_count": 0, "ships_count": 0, "projects": [], "coding_time_seconds": 0, "coding_time_seconds_today": 0, "balance": "You need to have a pocket watcher badge to view this.", "badges": [], "created_at": "2025-07-28T22:22:30.355-04:00", "updated_at": "2025-07-30T08:41:16.196-04:00", "avatar": "https://secure.gravatar.com/avatar/1a337184e2f6a19244682c12d8c436f7.jpg?s=512&d=https%3A%2F%2Fa.slack-edge.com%2Fdf10d%2Fimg%2Favatars%2Fava_0002-512.png", "custom_css": null}, {"id": 19784, "slack_id": "U097TFM4ZAS", "display_name": "Mateusz", "bio": null, "projects_count": 0, "devlogs_count": 0, "votes_count": 0, "ships_count": 0, "projects": [], "coding_time_seconds": 0, "coding_time_seconds_today": 0, "balance": "You need to have a pocket watcher badge to view this.", "badges": [], "created_at": "2025-07-28T22:37:22.849-04:00", "updated_at": "2025-07-29T03:09:14.879-04:00", "avatar": "https://secure.gravatar.com/avatar/9a86f8398dd2c374ffd4ca2232edc235.jpg?s=512&d=https%3A%2F%2Fa.slack-edge.com%2Fdf10d%2Fimg%2Favatars%2Fava_0022-512.png", "custom_css": null}, {"id": 19785, "slack_id": "U097WRXMN02", "display_name": "Amar", "bio": null, "projects_count": 0, "devlogs_count": 0, "votes_count": 0, "ships_count": 0, "projects": [], "coding_time_seconds": 0, "coding_time_seconds_today": 0, "balance": "You need to have a pocket watcher badge to view this.", "badges": [], "created_at": "2025-07-28T22:55:40.583-04:00", "updated_at": "2025-07-29T03:09:14.971-04:00", "avatar": "https://secure.gravatar.com/avatar/6b681b670f87c5437f77cdd723093852.jpg?s=512&d=https%3A%2F%2Fa.slack-edge.com%2Fdf10d%2Fimg%2Favatars%2Fava_0009-512.png", "custom_css": null}], "pagination": {"page": 985, "pages": 1192, "count": 23828, "items": 20}}