{"users": [{"id": 19786, "slack_id": "U097TH484R4", "display_name": "Welyson", "bio": null, "projects_count": 0, "devlogs_count": 0, "votes_count": 1, "ships_count": 0, "projects": [], "coding_time_seconds": 8751, "coding_time_seconds_today": 0, "balance": "You need to have a pocket watcher badge to view this.", "badges": [], "created_at": "2025-07-28T22:56:07.718-04:00", "updated_at": "2025-08-04T21:17:14.522-04:00", "avatar": "https://secure.gravatar.com/avatar/7e16e83efaa1d1e1941f723a89e33aef.jpg?s=512&d=https%3A%2F%2Fa.slack-edge.com%2Fdf10d%2Fimg%2Favatars%2Fava_0023-512.png", "custom_css": null}, {"id": 19787, "slack_id": "U08RMFXJ56X", "display_name": "Christian", "bio": null, "projects_count": 1, "devlogs_count": 6, "votes_count": 0, "ships_count": 0, "projects": [{"id": 8692, "title": "SchoolRegister", "devlogs_count": 6, "created_at": "2025-07-28T23:17:41.823-04:00"}], "coding_time_seconds": 98571, "coding_time_seconds_today": 0, "balance": "You need to have a pocket watcher badge to view this.", "badges": [], "created_at": "2025-07-28T23:13:07.157-04:00", "updated_at": "2025-08-01T17:00:03.532-04:00", "avatar": "https://avatars.slack-edge.com/2025-05-08/8866964494245_470601492cf86c335971_original.jpg", "custom_css": null}, {"id": 19788, "slack_id": "U08UY8F08UF", "display_name": "Affan Sajid", "bio": null, "projects_count": 0, "devlogs_count": 0, "votes_count": 0, "ships_count": 0, "projects": [], "coding_time_seconds": 149019, "coding_time_seconds_today": 0, "balance": "You need to have a pocket watcher badge to view this.", "badges": [], "created_at": "2025-07-28T23:13:36.487-04:00", "updated_at": "2025-07-30T10:28:00.389-04:00", "avatar": "https://avatars.slack-edge.com/2025-07-02/9150319291489_8b061b3d5b282fd4a3bd_original.png", "custom_css": null}, {"id": 19789, "slack_id": "U098K05DYF2", "display_name": "Arnold", "bio": null, "projects_count": 0, "devlogs_count": 0, "votes_count": 0, "ships_count": 0, "projects": [], "coding_time_seconds": 0, "coding_time_seconds_today": 0, "balance": "You need to have a pocket watcher badge to view this.", "badges": [], "created_at": "2025-07-28T23:38:15.108-04:00", "updated_at": "2025-07-29T03:09:15.376-04:00", "avatar": "https://secure.gravatar.com/avatar/44fcb18acae7da1466698f24dd8d6b75.jpg?s=512&d=https%3A%2F%2Fa.slack-edge.com%2Fdf10d%2Fimg%2Favatars%2Fava_0014-512.png", "custom_css": null}, {"id": 19790, "slack_id": "U097USW4J7P", "display_name": "\u6d6e\u4e16\u6e05\u767d", "bio": null, "projects_count": 0, "devlogs_count": 0, "votes_count": 0, "ships_count": 0, "projects": [], "coding_time_seconds": 0, "coding_time_seconds_today": 0, "balance": "You need to have a pocket watcher badge to view this.", "badges": [], "created_at": "2025-07-28T23:38:32.407-04:00", "updated_at": "2025-07-29T03:09:15.475-04:00", "avatar": "https://secure.gravatar.com/avatar/c6dc4999b184405afba6c580c2bd6946.jpg?s=512&d=https%3A%2F%2Fa.slack-edge.com%2Fdf10d%2Fimg%2Favatars%2Fava_0010-512.png", "custom_css": null}, {"id": 19791, "slack_id": "U09820EQRUH", "display_name": "Ishaan Kumar", "bio": null, "projects_count": 0, "devlogs_count": 0, "votes_count": 0, "ships_count": 0, "projects": [], "coding_time_seconds": 0, "coding_time_seconds_today": 0, "balance": "You need to have a pocket watcher badge to view this.", "badges": [], "created_at": "2025-07-28T23:50:48.649-04:00", "updated_at": "2025-07-29T03:09:15.582-04:00", "avatar": "https://secure.gravatar.com/avatar/b45b7598d98714d5d965a2e4052d77b2.jpg?s=512&d=https%3A%2F%2Fa.slack-edge.com%2Fdf10d%2Fimg%2Favatars%2Fava_0001-512.png", "custom_css": null}, {"id": 19792, "slack_id": "U097UU4BZMJ", "display_name": "IoTMan", "bio": "I am a student who is enthusiastic about building embedded systems, coding, IoT prototyping and Ethical Hacking. ", "projects_count": 0, "devlogs_count": 9, "votes_count": 36, "ships_count": 0, "projects": [], "coding_time_seconds": 242017, "coding_time_seconds_today": 0, "balance": "You need to have a pocket watcher badge to view this.", "badges": [], "created_at": "2025-07-29T00:07:49.475-04:00", "updated_at": "2025-08-25T04:48:54.322-04:00", "avatar": "https://secure.gravatar.com/avatar/532f4c38c2c94975998d1cc4821489cb.jpg?s=512&d=https%3A%2F%2Fa.slack-edge.com%2Fdf10d%2Fimg%2Favatars%2Fava_0005-512.png", "custom_css": null}, {"id": 19793, "slack_id": "U097VBVN0LD", "display_name": "ahan", "bio": null, "projects_count": 0, "devlogs_count": 0, "votes_count": 0, "ships_count": 0, "projects": [], "coding_time_seconds": 919, "coding_time_seconds_today": 0, "balance": "You need to have a pocket watcher badge to view this.", "badges": [], "created_at": "2025-07-29T00:23:40.865-04:00", "updated_at": "2025-07-29T14:07:02.784-04:00", "avatar": "https://secure.gravatar.com/avatar/2ae4a1b567c54117d6f9efcee8c095ff.jpg?s=512&d=https%3A%2F%2Fa.slack-edge.com%2Fdf10d%2Fimg%2Favatars%2Fava_0010-512.png", "custom_css": null}, {"id": 19794, "slack_id": "U098K4U4CGG", "display_name": "Alexis", "bio": null, "projects_count": 0, "devlogs_count": 0, "votes_count": 0, "ships_count": 0, "projects": [], "coding_time_seconds": 0, "coding_time_seconds_today": 0, "balance": "You need to have a pocket watcher badge to view this.", "badges": [], "created_at": "2025-07-29T00:30:07.587-04:00", "updated_at": "2025-07-29T03:09:15.845-04:00", "avatar": "https://secure.gravatar.com/avatar/7836b347acdad99d050943d2733991e1.jpg?s=512&d=https%3A%2F%2Fa.slack-edge.com%2Fdf10d%2Fimg%2Favatars%2Fava_0006-512.png", "custom_css": null}, {"id": 19795, "slack_id": "U083BHJ6XNK", "display_name": "Tanvi", "bio": null, "projects_count": 0, "devlogs_count": 0, "votes_count": 0, "ships_count": 0, "projects": [], "coding_time_seconds": 69930, "coding_time_seconds_today": 0, "balance": "You need to have a pocket watcher badge to view this.", "badges": [], "created_at": "2025-07-29T00:38:46.385-04:00", "updated_at": "2025-07-29T03:09:15.945-04:00", "avatar": "https://avatars.slack-edge.com/2024-12-05/8121866374790_8af70657f2c269d61b60_original.png", "custom_css": null}, {"id": 19796, "slack_id": "U098K66QZ5E", "display_name": "deactivateduser", "bio": null, "projects_count": 0, "devlogs_count": 0, "votes_count": 0, "ships_count": 0, "projects": [], "coding_time_seconds": 0, "coding_time_seconds_today": 0, "balance": "You need to have a pocket watcher badge to view this.", "badges": [], "created_at": "2025-07-29T00:46:45.143-04:00", "updated_at": "2025-07-29T03:09:16.042-04:00", "avatar": "https://secure.gravatar.com/avatar/4fe5b839f870616ef30fdbe0316355b3.jpg?s=512&d=https%3A%2F%2Fa.slack-edge.com%2Fdf10d%2Fimg%2Favatars%2Fava_0007-512.png", "custom_css": null}, {"id": 19797, "slack_id": "U097FLCP539", "display_name": "Luis Alonso", "bio": null, "projects_count": 0, "devlogs_count": 0, "votes_count": 0, "ships_count": 0, "projects": [], "coding_time_seconds": 0, "coding_time_seconds_today": 0, "balance": "You need to have a pocket watcher badge to view this.", "badges": [], "created_at": "2025-07-29T00:52:23.803-04:00", "updated_at": "2025-07-29T03:09:16.180-04:00", "avatar": "https://secure.gravatar.com/avatar/a3544d0ce36f69d31a75bd2fdc4dfb1d.jpg?s=512&d=https%3A%2F%2Fa.slack-edge.com%2Fdf10d%2Fimg%2Favatars%2Fava_0007-512.png", "custom_css": null}, {"id": 19798, "slack_id": "U0751FR36E5", "display_name": "Alim", "bio": null, "projects_count": 0, "devlogs_count": 0, "votes_count": 0, "ships_count": 0, "projects": [], "coding_time_seconds": 114917, "coding_time_seconds_today": 0, "balance": "You need to have a pocket watcher badge to view this.", "badges": [], "created_at": "2025-07-29T00:58:05.128-04:00", "updated_at": "2025-07-29T01:04:15.368-04:00", "avatar": "https://avatars.slack-edge.com/2024-05-23/7167487524292_1545f14f1cbd113d7677_original.png", "custom_css": null}, {"id": 19799, "slack_id": "U097L5UHQ77", "display_name": "Mandela Doondi Usha Sri", "bio": null, "projects_count": 0, "devlogs_count": 0, "votes_count": 0, "ships_count": 0, "projects": [], "coding_time_seconds": 0, "coding_time_seconds_today": 0, "balance": "You need to have a pocket watcher badge to view this.", "badges": [], "created_at": "2025-07-29T01:18:58.679-04:00", "updated_at": "2025-07-30T12:58:36.220-04:00", "avatar": "https://secure.gravatar.com/avatar/a41c1f7f225b3bf6accb928e66c7f0b0.jpg?s=512&d=https%3A%2F%2Fa.slack-edge.com%2Fdf10d%2Fimg%2Favatars%2Fava_0010-512.png", "custom_css": null}, {"id": 19800, "slack_id": "U097FQ879AT", "display_name": "Mohan", "bio": null, "projects_count": 2, "devlogs_count": 0, "votes_count": 1, "ships_count": 0, "projects": [{"id": 8814, "title": "BST Explorer", "devlogs_count": 0, "created_at": "2025-07-29T10:47:19.431-04:00"}, {"id": 8813, "title": "BST Explorer", "devlogs_count": 0, "created_at": "2025-07-29T10:47:18.623-04:00"}], "coding_time_seconds": 132268, "coding_time_seconds_today": 0, "balance": "You need to have a pocket watcher badge to view this.", "badges": [], "created_at": "2025-07-29T01:26:25.256-04:00", "updated_at": "2025-07-29T03:09:20.498-04:00", "avatar": "https://secure.gravatar.com/avatar/68c8414aa530abae90a43921e0b631bb.jpg?s=512&d=https%3A%2F%2Fa.slack-edge.com%2Fdf10d%2Fimg%2Favatars%2Fava_0020-512.png", "custom_css": null}, {"id": 19801, "slack_id": "U098KA2501W", "display_name": "Shaun Sebastian", "bio": null, "projects_count": 0, "devlogs_count": 0, "votes_count": 0, "ships_count": 0, "projects": [], "coding_time_seconds": 0, "coding_time_seconds_today": 0, "balance": "You need to have a pocket watcher badge to view this.", "badges": [], "created_at": "2025-07-29T01:28:21.911-04:00", "updated_at": "2025-07-29T03:09:20.586-04:00", "avatar": "https://avatars.slack-edge.com/2025-07-28/9266021910150_3d13abcc9377d12599f4_original.jpg", "custom_css": null}, {"id": 19802, "slack_id": "U097Y5Y2F1S", "display_name": "Ayushi", "bio": "", "projects_count": 0, "devlogs_count": 0, "votes_count": 0, "ships_count": 0, "projects": [], "coding_time_seconds": 120, "coding_time_seconds_today": 0, "balance": "You need to have a pocket watcher badge to view this.", "badges": [], "created_at": "2025-07-29T01:32:22.721-04:00", "updated_at": "2025-07-29T03:09:20.678-04:00", "avatar": "https://secure.gravatar.com/avatar/e2ff0833ba7bf0178c92157a2d61dec8.jpg?s=512&d=https%3A%2F%2Fa.slack-edge.com%2Fdf10d%2Fimg%2Favatars%2Fava_0008-512.png", "custom_css": null}, {"id": 19803, "slack_id": "U098KNLLR4Y", "display_name": "Aanyaa Garatikar", "bio": null, "projects_count": 0, "devlogs_count": 0, "votes_count": 0, "ships_count": 0, "projects": [], "coding_time_seconds": 0, "coding_time_seconds_today": 0, "balance": "You need to have a pocket watcher badge to view this.", "badges": [], "created_at": "2025-07-29T03:23:04.225-04:00", "updated_at": "2025-07-29T09:15:00.667-04:00", "avatar": "https://secure.gravatar.com/avatar/f74033f5dfc8ab4b1297c755d9b25d06.jpg?s=512&d=https%3A%2F%2Fa.slack-edge.com%2Fdf10d%2Fimg%2Favatars%2Fava_0009-512.png", "custom_css": null}, {"id": 19804, "slack_id": "U098KQE8RQ8", "display_name": "Shafian Khan", "bio": null, "projects_count": 0, "devlogs_count": 0, "votes_count": 0, "ships_count": 0, "projects": [], "coding_time_seconds": 449, "coding_time_seconds_today": 0, "balance": "You need to have a pocket watcher badge to view this.", "badges": [], "created_at": "2025-07-29T03:45:01.546-04:00", "updated_at": "2025-08-28T04:04:47.623-04:00", "avatar": "https://secure.gravatar.com/avatar/4b80d37ad6e56f94c79863a890496708.jpg?s=512&d=https%3A%2F%2Fa.slack-edge.com%2Fdf10d%2Fimg%2Favatars%2Fava_0014-512.png", "custom_css": null}, {"id": 19805, "slack_id": "U097GC3T5K9", "display_name": "Park_bo_gum", "bio": null, "projects_count": 0, "devlogs_count": 0, "votes_count": 0, "ships_count": 0, "projects": [], "coding_time_seconds": 0, "coding_time_seconds_today": 0, "balance": "You need to have a pocket watcher badge to view this.", "badges": [], "created_at": "2025-07-29T03:53:37.858-04:00", "updated_at": "2025-07-29T09:15:00.849-04:00", "avatar": "https://secure.gravatar.com/avatar/e1d54f9ce0070d45c963585f7bcd93d5.jpg?s=512&d=https%3A%2F%2Fa.slack-edge.com%2Fdf10d%2Fimg%2Favatars%2Fava_0012-512.png", "custom_css": null}], "pagination": {"page": 986, "pages": 1192, "count": 23828, "items": 20}}