{"users": [{"id": 19806, "slack_id": "U098KTRU44Q", "display_name": "Sara V", "bio": null, "projects_count": 0, "devlogs_count": 0, "votes_count": 0, "ships_count": 0, "projects": [], "coding_time_seconds": 0, "coding_time_seconds_today": 0, "balance": "You need to have a pocket watcher badge to view this.", "badges": [], "created_at": "2025-07-29T04:08:55.494-04:00", "updated_at": "2025-07-29T04:13:42.574-04:00", "avatar": "https://secure.gravatar.com/avatar/e93ee85ee38b0d2fb471f7e98be4e493.jpg?s=512&d=https%3A%2F%2Fa.slack-edge.com%2Fdf10d%2Fimg%2Favatars%2Fava_0009-512.png", "custom_css": null}, {"id": 19807, "slack_id": "U086S1KMKPD", "display_name": "Tanishq Jain", "bio": null, "projects_count": 0, "devlogs_count": 0, "votes_count": 0, "ships_count": 0, "projects": [], "coding_time_seconds": 42259, "coding_time_seconds_today": 0, "balance": "You need to have a pocket watcher badge to view this.", "badges": [], "created_at": "2025-07-29T04:20:06.321-04:00", "updated_at": "2025-08-15T07:55:37.016-04:00", "avatar": "https://secure.gravatar.com/avatar/4947142b53948fbef7fdc48e6142c732.jpg?s=512&d=https%3A%2F%2Fa.slack-edge.com%2Fdf10d%2Fimg%2Favatars%2Fava_0016-512.png", "custom_css": null}, {"id": 19808, "slack_id": "U097YTEH68L", "display_name": "Shaik Mohammed Omar", "bio": null, "projects_count": 0, "devlogs_count": 0, "votes_count": 0, "ships_count": 0, "projects": [], "coding_time_seconds": 0, "coding_time_seconds_today": 0, "balance": "You need to have a pocket watcher badge to view this.", "badges": [], "created_at": "2025-07-29T04:20:36.074-04:00", "updated_at": "2025-07-29T09:15:01.123-04:00", "avatar": "https://secure.gravatar.com/avatar/e65398f26c7a146269007f076003f117.jpg?s=512&d=https%3A%2F%2Fa.slack-edge.com%2Fdf10d%2Fimg%2Favatars%2Fava_0012-512.png", "custom_css": null}, {"id": 19809, "slack_id": "U097ULR2N4E", "display_name": "shiva", "bio": null, "projects_count": 0, "devlogs_count": 0, "votes_count": 0, "ships_count": 0, "projects": [], "coding_time_seconds": 572, "coding_time_seconds_today": 0, "balance": "You need to have a pocket watcher badge to view this.", "badges": [], "created_at": "2025-07-29T04:23:27.606-04:00", "updated_at": "2025-07-29T09:15:01.256-04:00", "avatar": "https://secure.gravatar.com/avatar/bf60f688985d46ff77e54a929140c36e.jpg?s=512&d=https%3A%2F%2Fa.slack-edge.com%2Fdf10d%2Fimg%2Favatars%2Fava_0024-512.png", "custom_css": null}, {"id": 19810, "slack_id": "U07ST9USVH6", "display_name": "Tafsir Raza", "bio": null, "projects_count": 1, "devlogs_count": 1, "votes_count": 20, "ships_count": 1, "projects": [{"id": 8899, "title": "Pixel Art Studio", "devlogs_count": 1, "created_at": "2025-07-29T15:35:24.589-04:00"}], "coding_time_seconds": 31199, "coding_time_seconds_today": 0, "balance": "You need to have a pocket watcher badge to view this.", "badges": [], "created_at": "2025-07-29T04:42:18.154-04:00", "updated_at": "2025-08-07T06:39:43.179-04:00", "avatar": "https://avatars.slack-edge.com/2025-07-30/9297866968320_0ed0c59a7c059aba892a_original.jpg", "custom_css": null}, {"id": 19811, "slack_id": "U098L5MPH7A", "display_name": "Juliette Wang", "bio": null, "projects_count": 1, "devlogs_count": 0, "votes_count": 1, "ships_count": 0, "projects": [{"id": 8818, "title": "Flotte", "devlogs_count": 0, "created_at": "2025-07-29T11:14:24.870-04:00"}], "coding_time_seconds": 22937, "coding_time_seconds_today": 0, "balance": "You need to have a pocket watcher badge to view this.", "badges": [], "created_at": "2025-07-29T04:48:47.631-04:00", "updated_at": "2025-07-29T14:01:27.802-04:00", "avatar": "https://secure.gravatar.com/avatar/d324781a95e3d04c3c11add201ca9a61.jpg?s=512&d=https%3A%2F%2Fa.slack-edge.com%2Fdf10d%2Fimg%2Favatars%2Fava_0021-512.png", "custom_css": null}, {"id": 19812, "slack_id": "U097Y7C9G1Y", "display_name": "Omar", "bio": null, "projects_count": 0, "devlogs_count": 0, "votes_count": 0, "ships_count": 0, "projects": [], "coding_time_seconds": 0, "coding_time_seconds_today": 0, "balance": "You need to have a pocket watcher badge to view this.", "badges": [], "created_at": "2025-07-29T04:51:12.382-04:00", "updated_at": "2025-07-29T16:06:28.348-04:00", "avatar": "https://avatars.slack-edge.com/2025-07-29/9270274193010_acaedf5663a513009292_original.png", "custom_css": null}, {"id": 19813, "slack_id": "U098CCB6FEV", "display_name": "daniela hurtado", "bio": null, "projects_count": 0, "devlogs_count": 0, "votes_count": 0, "ships_count": 0, "projects": [], "coding_time_seconds": 31211, "coding_time_seconds_today": 0, "balance": "You need to have a pocket watcher badge to view this.", "badges": [], "created_at": "2025-07-29T04:53:55.377-04:00", "updated_at": "2025-07-29T09:15:01.626-04:00", "avatar": "https://avatars.slack-edge.com/2025-07-29/9266874230534_e9bf07e9cb3ca037e8db_original.jpg", "custom_css": null}, {"id": 19814, "slack_id": "U097Y9N738A", "display_name": "Amr", "bio": null, "projects_count": 0, "devlogs_count": 0, "votes_count": 0, "ships_count": 0, "projects": [], "coding_time_seconds": 0, "coding_time_seconds_today": 0, "balance": "You need to have a pocket watcher badge to view this.", "badges": [], "created_at": "2025-07-29T05:03:38.533-04:00", "updated_at": "2025-07-30T03:40:52.144-04:00", "avatar": "https://avatars.slack-edge.com/2025-07-29/9284536429489_c1e111cba7eddf64bd2c_original.png", "custom_css": null}, {"id": 19815, "slack_id": "U097TB0Q0R1", "display_name": "fraxito", "bio": null, "projects_count": 0, "devlogs_count": 0, "votes_count": 0, "ships_count": 0, "projects": [], "coding_time_seconds": 0, "coding_time_seconds_today": 0, "balance": "You need to have a pocket watcher badge to view this.", "badges": [], "created_at": "2025-07-29T05:18:18.727-04:00", "updated_at": "2025-07-29T09:15:05.846-04:00", "avatar": "https://secure.gravatar.com/avatar/1843a66491583452a4eba72c5d2132e5.jpg?s=512&d=https%3A%2F%2Fa.slack-edge.com%2Fdf10d%2Fimg%2Favatars%2Fava_0020-512.png", "custom_css": null}, {"id": 19816, "slack_id": "U097Z63RBNG", "display_name": "Rajbeer Saha", "bio": null, "projects_count": 0, "devlogs_count": 0, "votes_count": 0, "ships_count": 0, "projects": [], "coding_time_seconds": 0, "coding_time_seconds_today": 0, "balance": "You need to have a pocket watcher badge to view this.", "badges": [], "created_at": "2025-07-29T05:26:04.522-04:00", "updated_at": "2025-07-29T09:15:05.933-04:00", "avatar": "https://secure.gravatar.com/avatar/1db0fc851408e2cc02e3c65fb2be8d4c.jpg?s=512&d=https%3A%2F%2Fa.slack-edge.com%2Fdf10d%2Fimg%2Favatars%2Fava_0005-512.png", "custom_css": null}, {"id": 19817, "slack_id": "U098BSUAU57", "display_name": "Tanya", "bio": null, "projects_count": 0, "devlogs_count": 0, "votes_count": 0, "ships_count": 0, "projects": [], "coding_time_seconds": 0, "coding_time_seconds_today": 0, "balance": "You need to have a pocket watcher badge to view this.", "badges": [], "created_at": "2025-07-29T05:31:11.004-04:00", "updated_at": "2025-07-29T09:15:06.029-04:00", "avatar": "https://secure.gravatar.com/avatar/5fdd386dcf8ad0dcb37a008ec4d34cae.jpg?s=512&d=https%3A%2F%2Fa.slack-edge.com%2Fdf10d%2Fimg%2Favatars%2Fava_0005-512.png", "custom_css": null}, {"id": 19818, "slack_id": "U098CL7GW7K", "display_name": "Supawit Marayat", "bio": null, "projects_count": 2, "devlogs_count": 0, "votes_count": 0, "ships_count": 0, "projects": [{"id": 8760, "title": "The Codex", "devlogs_count": 0, "created_at": "2025-07-29T06:28:50.042-04:00"}, {"id": 8761, "title": "The Codex", "devlogs_count": 0, "created_at": "2025-07-29T06:28:50.043-04:00"}], "coding_time_seconds": 218476, "coding_time_seconds_today": 0, "balance": "You need to have a pocket watcher badge to view this.", "badges": [], "created_at": "2025-07-29T05:35:08.435-04:00", "updated_at": "2025-07-29T09:15:06.109-04:00", "avatar": "https://secure.gravatar.com/avatar/228b633b588866972d8496fe28fdc6c0.jpg?s=512&d=https%3A%2F%2Fa.slack-edge.com%2Fdf10d%2Fimg%2Favatars%2Fava_0021-512.png", "custom_css": null}, {"id": 19819, "slack_id": "U097ZAH3VJ8", "display_name": "Mr. Idul", "bio": "I like playing Minecraft and creating random things. I am also interested in cybersecurity(red teaming). My main proficiency is in C/C++ and python but I am learning javascript, so I also like it I guess -_-\r\n\r\n", "projects_count": 1, "devlogs_count": 2, "votes_count": 11, "ships_count": 0, "projects": [{"id": 13115, "title": "My Humble Portfolio", "devlogs_count": 2, "created_at": "2025-09-08T21:31:46.551-04:00"}], "coding_time_seconds": 79745, "coding_time_seconds_today": 120, "balance": "You need to have a pocket watcher badge to view this.", "badges": [], "created_at": "2025-07-29T05:43:12.234-04:00", "updated_at": "2025-09-17T21:42:30.012-04:00", "avatar": "https://secure.gravatar.com/avatar/0a80292e6668e77daf69288e5567aab8.jpg?s=512&d=https%3A%2F%2Fa.slack-edge.com%2Fdf10d%2Fimg%2Favatars%2Fava_0022-512.png", "custom_css": null}, {"id": 19820, "slack_id": "U097YFXC3J6", "display_name": "rishabh", "bio": null, "projects_count": 0, "devlogs_count": 0, "votes_count": 0, "ships_count": 0, "projects": [], "coding_time_seconds": 218471, "coding_time_seconds_today": 0, "balance": "You need to have a pocket watcher badge to view this.", "badges": [], "created_at": "2025-07-29T05:47:56.031-04:00", "updated_at": "2025-07-29T09:15:06.288-04:00", "avatar": "https://avatars.slack-edge.com/2025-07-29/9270561568306_bb95f74c56bcd3179a28_original.jpg", "custom_css": null}, {"id": 19821, "slack_id": "U097GUUA92T", "display_name": "Tanisha Bhardwaj_Himachal", "bio": null, "projects_count": 0, "devlogs_count": 0, "votes_count": 0, "ships_count": 0, "projects": [], "coding_time_seconds": 102214, "coding_time_seconds_today": 0, "balance": "You need to have a pocket watcher badge to view this.", "badges": [], "created_at": "2025-07-29T05:49:36.329-04:00", "updated_at": "2025-08-07T00:43:18.054-04:00", "avatar": "https://avatars.slack-edge.com/2025-07-29/9292508198304_3968f80b32c4188ab001_original.png", "custom_css": null}, {"id": 19822, "slack_id": "U098CN77W8Z", "display_name": "Aanchal Kashyap", "bio": null, "projects_count": 0, "devlogs_count": 0, "votes_count": 0, "ships_count": 0, "projects": [], "coding_time_seconds": 21763, "coding_time_seconds_today": 0, "balance": "You need to have a pocket watcher badge to view this.", "badges": [], "created_at": "2025-07-29T05:51:04.420-04:00", "updated_at": "2025-07-30T05:24:00.043-04:00", "avatar": "https://avatars.slack-edge.com/2025-07-29/9270574795122_26e35e3ae4426db5ada6_original.png", "custom_css": null}, {"id": 19823, "slack_id": "U098LEANW8G", "display_name": "Arshdeep Kaur", "bio": null, "projects_count": 0, "devlogs_count": 0, "votes_count": 0, "ships_count": 0, "projects": [], "coding_time_seconds": 123289, "coding_time_seconds_today": 439, "balance": "You need to have a pocket watcher badge to view this.", "badges": [], "created_at": "2025-07-29T05:51:25.677-04:00", "updated_at": "2025-07-30T00:17:04.753-04:00", "avatar": "https://avatars.slack-edge.com/2025-07-29/9270577268722_3ba10b2e684d9cc54d88_original.png", "custom_css": null}, {"id": 19824, "slack_id": "U097YGACD26", "display_name": "lokesh dangwal", "bio": "", "projects_count": 0, "devlogs_count": 0, "votes_count": 0, "ships_count": 0, "projects": [], "coding_time_seconds": 11540, "coding_time_seconds_today": 0, "balance": "You need to have a pocket watcher badge to view this.", "badges": [], "created_at": "2025-07-29T05:51:26.265-04:00", "updated_at": "2025-08-07T02:50:48.789-04:00", "avatar": "https://secure.gravatar.com/avatar/01a006229e653826413d31a664c0a8ea.jpg?s=512&d=https%3A%2F%2Fa.slack-edge.com%2Fdf10d%2Fimg%2Favatars%2Fava_0009-512.png", "custom_css": null}, {"id": 19825, "slack_id": "U097ZBL28P6", "display_name": "Iknoor Vran", "bio": null, "projects_count": 0, "devlogs_count": 0, "votes_count": 0, "ships_count": 0, "projects": [], "coding_time_seconds": 90264, "coding_time_seconds_today": 0, "balance": "You need to have a pocket watcher badge to view this.", "badges": [], "created_at": "2025-07-29T05:51:52.507-04:00", "updated_at": "2025-07-30T00:44:57.834-04:00", "avatar": "https://avatars.slack-edge.com/2025-07-29/9265559110899_7a3921dae0edcfe7b9e1_original.png", "custom_css": null}], "pagination": {"page": 987, "pages": 1192, "count": 23828, "items": 20}}