{"users": [{"id": 19826, "slack_id": "U097YG0Q5UJ", "display_name": "Rohit Verma", "bio": null, "projects_count": 0, "devlogs_count": 0, "votes_count": 0, "ships_count": 0, "projects": [], "coding_time_seconds": 83896, "coding_time_seconds_today": 0, "balance": "You need to have a pocket watcher badge to view this.", "badges": [], "created_at": "2025-07-29T05:52:15.904-04:00", "updated_at": "2025-07-29T09:15:06.860-04:00", "avatar": "https://secure.gravatar.com/avatar/4810f42045d2c71dcae8db9eb58c9f1e.jpg?s=512&d=https%3A%2F%2Fa.slack-edge.com%2Fdf10d%2Fimg%2Favatars%2Fava_0009-512.png", "custom_css": null}, {"id": 19827, "slack_id": "U097V3GU8H4", "display_name": "its shiv", "bio": "i love to code!", "projects_count": 15, "devlogs_count": 22, "votes_count": 0, "ships_count": 14, "projects": [{"id": 10557, "title": "Navgurukul page", "devlogs_count": 1, "created_at": "2025-08-08T05:17:55.150-04:00"}, {"id": 12467, "title": "questions & options ", "devlogs_count": 1, "created_at": "2025-08-28T01:42:16.157-04:00"}, {"id": 12533, "title": "memory game", "devlogs_count": 2, "created_at": "2025-08-29T04:42:52.147-04:00"}, {"id": 12705, "title": "green steps", "devlogs_count": 1, "created_at": "2025-09-01T06:48:16.727-04:00"}, {"id": 12745, "title": "personal porfolio ", "devlogs_count": 6, "created_at": "2025-09-01T22:41:16.196-04:00"}, {"id": 13086, "title": "building game", "devlogs_count": 2, "created_at": "2025-09-08T10:02:33.394-04:00"}, {"id": 13502, "title": "just project ", "devlogs_count": 0, "created_at": "2025-09-18T02:45:21.167-04:00"}, {"id": 10970, "title": "ORDER BMW ", "devlogs_count": 1, "created_at": "2025-08-12T05:21:50.316-04:00"}, {"id": 11031, "title": "pizza hub ", "devlogs_count": 1, "created_at": "2025-08-12T13:50:23.474-04:00"}, {"id": 10982, "title": "Apple store ", "devlogs_count": 1, "created_at": "2025-08-12T07:20:33.214-04:00"}, {"id": 11203, "title": "Street food", "devlogs_count": 1, "created_at": "2025-08-14T03:13:56.262-04:00"}, {"id": 11576, "title": "ice Cream shop", "devlogs_count": 1, "created_at": "2025-08-17T06:37:31.702-04:00"}, {"id": 11738, "title": "jawa bikes ", "devlogs_count": 1, "created_at": "2025-08-19T01:26:14.854-04:00"}, {"id": 10492, "title": "e commerce", "devlogs_count": 1, "created_at": "2025-08-07T13:57:40.147-04:00"}, {"id": 12056, "title": "Mini-Games-Arcade-", "devlogs_count": 1, "created_at": "2025-08-22T12:46:02.971-04:00"}], "coding_time_seconds": 359243, "coding_time_seconds_today": 0, "balance": "You need to have a pocket watcher badge to view this.", "badges": [], "created_at": "2025-07-29T05:52:21.982-04:00", "updated_at": "2025-09-13T06:51:02.815-04:00", "avatar": "https://avatars.slack-edge.com/2025-09-08/9477527566806_acab6da54fefd3f8997a_original.jpg", "custom_css": null}, {"id": 19828, "slack_id": "U097TFUN95Z", "display_name": "surbhi shikha", "bio": null, "projects_count": 0, "devlogs_count": 0, "votes_count": 0, "ships_count": 0, "projects": [], "coding_time_seconds": 0, "coding_time_seconds_today": 0, "balance": "You need to have a pocket watcher badge to view this.", "badges": [], "created_at": "2025-07-29T05:52:25.681-04:00", "updated_at": "2025-07-29T09:15:07.047-04:00", "avatar": "https://secure.gravatar.com/avatar/201253680282e523a092dafbadba70cf.jpg?s=512&d=https%3A%2F%2Fa.slack-edge.com%2Fdf10d%2Fimg%2Favatars%2Fava_0015-512.png", "custom_css": null}, {"id": 19829, "slack_id": "U097GVBQMQX", "display_name": "Ahmad Shatnawi (ahmadsh2007)", "bio": null, "projects_count": 0, "devlogs_count": 0, "votes_count": 0, "ships_count": 0, "projects": [], "coding_time_seconds": 0, "coding_time_seconds_today": 0, "balance": "You need to have a pocket watcher badge to view this.", "badges": [], "created_at": "2025-07-29T05:52:56.945-04:00", "updated_at": "2025-07-31T13:31:01.962-04:00", "avatar": "https://avatars.slack-edge.com/2025-07-29/9267150399958_2d1c3dcc99581042c98f_original.jpg", "custom_css": null}, {"id": 19830, "slack_id": "U097YG9QRH8", "display_name": "Aashika Singh", "bio": null, "projects_count": 4, "devlogs_count": 4, "votes_count": 62, "ships_count": 3, "projects": [{"id": 11219, "title": "Divine Heritage", "devlogs_count": 2, "created_at": "2025-08-14T05:26:45.456-04:00"}, {"id": 11922, "title": "Royal Feast", "devlogs_count": 1, "created_at": "2025-08-21T05:45:58.760-04:00"}, {"id": 12924, "title": "Medicinal Plant", "devlogs_count": 0, "created_at": "2025-09-05T12:56:35.693-04:00"}, {"id": 11093, "title": "Dynamic Calculator", "devlogs_count": 1, "created_at": "2025-08-13T06:13:40.799-04:00"}], "coding_time_seconds": 151949, "coding_time_seconds_today": 163, "balance": "You need to have a pocket watcher badge to view this.", "badges": [], "created_at": "2025-07-29T05:53:07.393-04:00", "updated_at": "2025-08-07T00:24:07.340-04:00", "avatar": "https://secure.gravatar.com/avatar/ab27ef2ba8501549940c0323e7764b7a.jpg?s=512&d=https%3A%2F%2Fa.slack-edge.com%2Fdf10d%2Fimg%2Favatars%2Fava_0023-512.png", "custom_css": null}, {"id": 19831, "slack_id": "U097V3LK1QW", "display_name": "Khushbu Thakur", "bio": null, "projects_count": 1, "devlogs_count": 1, "votes_count": 19, "ships_count": 1, "projects": [{"id": 11646, "title": "Bihar - The Heart of Heritage ", "devlogs_count": 1, "created_at": "2025-08-18T03:31:55.804-04:00"}], "coding_time_seconds": 86803, "coding_time_seconds_today": 0, "balance": "You need to have a pocket watcher badge to view this.", "badges": [], "created_at": "2025-07-29T05:53:14.666-04:00", "updated_at": "2025-08-12T10:16:19.502-04:00", "avatar": "https://avatars.slack-edge.com/2025-07-29/9284785699969_625a369d0b695294e0ba_original.jpg", "custom_css": null}, {"id": 19832, "slack_id": "U097V3J36LW", "display_name": "Yogita Painkra", "bio": null, "projects_count": 0, "devlogs_count": 0, "votes_count": 0, "ships_count": 0, "projects": [], "coding_time_seconds": 46136, "coding_time_seconds_today": 0, "balance": "You need to have a pocket watcher badge to view this.", "badges": [], "created_at": "2025-07-29T05:53:37.344-04:00", "updated_at": "2025-07-30T04:46:40.822-04:00", "avatar": "https://avatars.slack-edge.com/2025-07-29/9292526207872_712e92787365f2d726d8_original.jpg", "custom_css": null}, {"id": 19833, "slack_id": "U097ZBDKA68", "display_name": "Riya Rohilla", "bio": null, "projects_count": 0, "devlogs_count": 0, "votes_count": 0, "ships_count": 0, "projects": [], "coding_time_seconds": 0, "coding_time_seconds_today": 0, "balance": "You need to have a pocket watcher badge to view this.", "badges": [], "created_at": "2025-07-29T05:54:03.911-04:00", "updated_at": "2025-07-29T09:15:07.564-04:00", "avatar": "https://avatars.slack-edge.com/2025-07-29/9267155015078_38a75eb0c6c95f41c0ec_original.jpg", "custom_css": null}, {"id": 19834, "slack_id": "U097V3V8HJA", "display_name": "Jannatveer Kaur", "bio": null, "projects_count": 0, "devlogs_count": 0, "votes_count": 0, "ships_count": 0, "projects": [], "coding_time_seconds": 146804, "coding_time_seconds_today": 0, "balance": "You need to have a pocket watcher badge to view this.", "badges": [], "created_at": "2025-07-29T05:54:11.605-04:00", "updated_at": "2025-07-29T09:15:07.646-04:00", "avatar": "https://avatars.slack-edge.com/2025-07-29/9292527196832_5fe7ad73662171b30b9a_original.png", "custom_css": null}, {"id": 19835, "slack_id": "U097TG9QERZ", "display_name": "Noor Setia", "bio": null, "projects_count": 0, "devlogs_count": 0, "votes_count": 0, "ships_count": 0, "projects": [], "coding_time_seconds": 0, "coding_time_seconds_today": 0, "balance": "You need to have a pocket watcher badge to view this.", "badges": [], "created_at": "2025-07-29T05:54:41.049-04:00", "updated_at": "2025-07-29T09:15:07.803-04:00", "avatar": "https://avatars.slack-edge.com/2025-07-29/9284791863089_b1d5f00aa8361790735a_original.png", "custom_css": null}, {"id": 19836, "slack_id": "U098CNAPBK3", "display_name": "Shila Nag", "bio": null, "projects_count": 0, "devlogs_count": 0, "votes_count": 0, "ships_count": 0, "projects": [], "coding_time_seconds": 2, "coding_time_seconds_today": 0, "balance": "You need to have a pocket watcher badge to view this.", "badges": [], "created_at": "2025-07-29T05:56:33.088-04:00", "updated_at": "2025-07-29T09:15:07.930-04:00", "avatar": "https://secure.gravatar.com/avatar/f10542dd6b47590a1a44691e7f4c78a6.jpg?s=512&d=https%3A%2F%2Fa.slack-edge.com%2Fdf10d%2Fimg%2Favatars%2Fava_0011-512.png", "custom_css": null}, {"id": 19837, "slack_id": "U097GV6B68P", "display_name": "Deepti painkra", "bio": null, "projects_count": 0, "devlogs_count": 0, "votes_count": 0, "ships_count": 0, "projects": [], "coding_time_seconds": 0, "coding_time_seconds_today": 0, "balance": "You need to have a pocket watcher badge to view this.", "badges": [], "created_at": "2025-07-29T05:56:35.585-04:00", "updated_at": "2025-07-29T09:15:12.058-04:00", "avatar": "https://secure.gravatar.com/avatar/8e4cf07b493b51912b5ac46296c6417c.jpg?s=512&d=https%3A%2F%2Fa.slack-edge.com%2Fdf10d%2Fimg%2Favatars%2Fava_0000-512.png", "custom_css": null}, {"id": 19838, "slack_id": "U0972LA9NCF", "display_name": "Suhan Ramani", "bio": null, "projects_count": 0, "devlogs_count": 0, "votes_count": 0, "ships_count": 0, "projects": [], "coding_time_seconds": 0, "coding_time_seconds_today": 0, "balance": "You need to have a pocket watcher badge to view this.", "badges": [], "created_at": "2025-07-29T05:57:34.855-04:00", "updated_at": "2025-07-29T09:15:12.153-04:00", "avatar": "https://avatars.slack-edge.com/2025-07-29/9271438054452_d5b6d1b3bc67ba676cb0_original.png", "custom_css": null}, {"id": 19839, "slack_id": "U097H09A99V", "display_name": "arun", "bio": null, "projects_count": 0, "devlogs_count": 0, "votes_count": 0, "ships_count": 0, "projects": [], "coding_time_seconds": 748, "coding_time_seconds_today": 0, "balance": "You need to have a pocket watcher badge to view this.", "badges": [], "created_at": "2025-07-29T05:57:58.908-04:00", "updated_at": "2025-07-29T09:15:12.256-04:00", "avatar": "https://secure.gravatar.com/avatar/e3f8328d84f303f48779591f8b638c65.jpg?s=512&d=https%3A%2F%2Fa.slack-edge.com%2Fdf10d%2Fimg%2Favatars%2Fava_0009-512.png", "custom_css": null}, {"id": 19840, "slack_id": "U097V3N96P8", "display_name": "Preeti lata Painkra", "bio": null, "projects_count": 0, "devlogs_count": 0, "votes_count": 0, "ships_count": 0, "projects": [], "coding_time_seconds": 0, "coding_time_seconds_today": 0, "balance": "You need to have a pocket watcher badge to view this.", "badges": [], "created_at": "2025-07-29T05:58:02.040-04:00", "updated_at": "2025-07-29T09:15:12.361-04:00", "avatar": "https://secure.gravatar.com/avatar/e66da44ef7bb994a9173363067f19438.jpg?s=512&d=https%3A%2F%2Fa.slack-edge.com%2Fdf10d%2Fimg%2Favatars%2Fava_0022-512.png", "custom_css": null}, {"id": 19841, "slack_id": "U098CP5NHT3", "display_name": "Rabina kumari", "bio": null, "projects_count": 0, "devlogs_count": 0, "votes_count": 0, "ships_count": 0, "projects": [], "coding_time_seconds": 0, "coding_time_seconds_today": 0, "balance": "You need to have a pocket watcher badge to view this.", "badges": [], "created_at": "2025-07-29T05:58:04.970-04:00", "updated_at": "2025-07-29T09:15:12.471-04:00", "avatar": "https://avatars.slack-edge.com/2025-07-29/9265589851299_a3342b931ff68fe97ff7_original.jpg", "custom_css": null}, {"id": 19842, "slack_id": "U097YGY57J6", "display_name": "Manpreet kaur", "bio": null, "projects_count": 0, "devlogs_count": 0, "votes_count": 0, "ships_count": 0, "projects": [], "coding_time_seconds": 135482, "coding_time_seconds_today": 0, "balance": "You need to have a pocket watcher badge to view this.", "badges": [], "created_at": "2025-07-29T05:58:13.185-04:00", "updated_at": "2025-07-29T09:15:12.548-04:00", "avatar": "https://avatars.slack-edge.com/2025-07-29/9271441287780_35b109a6dfacc7538326_original.png", "custom_css": null}, {"id": 19843, "slack_id": "U097WLUK01K", "display_name": "Rakhi Tirkey", "bio": null, "projects_count": 0, "devlogs_count": 0, "votes_count": 0, "ships_count": 0, "projects": [], "coding_time_seconds": 0, "coding_time_seconds_today": 0, "balance": "You need to have a pocket watcher badge to view this.", "badges": [], "created_at": "2025-07-29T05:59:33.874-04:00", "updated_at": "2025-07-29T09:15:12.637-04:00", "avatar": "https://secure.gravatar.com/avatar/e158a7e079bdad1c4640d04d0102fd2e.jpg?s=512&d=https%3A%2F%2Fa.slack-edge.com%2Fdf10d%2Fimg%2Favatars%2Fava_0024-512.png", "custom_css": null}, {"id": 19844, "slack_id": "U098CPC6ANM", "display_name": "Ravinder kaur", "bio": null, "projects_count": 0, "devlogs_count": 0, "votes_count": 0, "ships_count": 0, "projects": [], "coding_time_seconds": 0, "coding_time_seconds_today": 0, "balance": "You need to have a pocket watcher badge to view this.", "badges": [], "created_at": "2025-07-29T05:59:43.398-04:00", "updated_at": "2025-07-29T09:15:12.717-04:00", "avatar": "https://secure.gravatar.com/avatar/8e8cb6a7dd6163c511a9068add900904.jpg?s=512&d=https%3A%2F%2Fa.slack-edge.com%2Fdf10d%2Fimg%2Favatars%2Fava_0011-512.png", "custom_css": null}, {"id": 19845, "slack_id": "U097WLWLE93", "display_name": "Vikita Minj", "bio": null, "projects_count": 0, "devlogs_count": 0, "votes_count": 0, "ships_count": 0, "projects": [], "coding_time_seconds": 0, "coding_time_seconds_today": 0, "balance": "You need to have a pocket watcher badge to view this.", "badges": [], "created_at": "2025-07-29T05:59:56.586-04:00", "updated_at": "2025-07-29T09:15:12.802-04:00", "avatar": "https://secure.gravatar.com/avatar/fa61494c7f68430832f1b71c1e0e1a0c.jpg?s=512&d=https%3A%2F%2Fa.slack-edge.com%2Fdf10d%2Fimg%2Favatars%2Fava_0004-512.png", "custom_css": null}], "pagination": {"page": 988, "pages": 1192, "count": 23828, "items": 20}}