{"users": [{"id": 19846, "slack_id": "U097V4RHVJS", "display_name": "Divya Nag", "bio": null, "projects_count": 0, "devlogs_count": 0, "votes_count": 0, "ships_count": 0, "projects": [], "coding_time_seconds": 0, "coding_time_seconds_today": 0, "balance": "You need to have a pocket watcher badge to view this.", "badges": [], "created_at": "2025-07-29T06:01:57.706-04:00", "updated_at": "2025-07-30T16:10:00.438-04:00", "avatar": "https://secure.gravatar.com/avatar/7b8e9fb68ae26984ca7a6fe51b3a30c3.jpg?s=512&d=https%3A%2F%2Fa.slack-edge.com%2Fdf10d%2Fimg%2Favatars%2Fava_0003-512.png", "custom_css": null}, {"id": 19847, "slack_id": "U097TH9E8BV", "display_name": "adhavan v k", "bio": null, "projects_count": 0, "devlogs_count": 0, "votes_count": 0, "ships_count": 0, "projects": [], "coding_time_seconds": 3998, "coding_time_seconds_today": 0, "balance": "You need to have a pocket watcher badge to view this.", "badges": [], "created_at": "2025-07-29T06:03:21.016-04:00", "updated_at": "2025-07-29T09:15:12.972-04:00", "avatar": "https://avatars.slack-edge.com/2025-07-29/9265624183619_22bbe0bd9f0d32c96b44_original.png", "custom_css": null}, {"id": 19848, "slack_id": "U097WLAQEBF", "display_name": "Soni Kumari", "bio": null, "projects_count": 1, "devlogs_count": 1, "votes_count": 0, "ships_count": 1, "projects": [{"id": 10973, "title": "Myntra Clone \u2013 Men\u2019s Wear Section", "devlogs_count": 1, "created_at": "2025-08-12T06:10:44.983-04:00"}], "coding_time_seconds": 285102, "coding_time_seconds_today": 0, "balance": "You need to have a pocket watcher badge to view this.", "badges": [], "created_at": "2025-07-29T06:03:29.528-04:00", "updated_at": "2025-08-07T03:10:09.762-04:00", "avatar": "https://secure.gravatar.com/avatar/1da6f178697e91bb77349bcb22156ed1.jpg?s=512&d=https%3A%2F%2Fa.slack-edge.com%2Fdf10d%2Fimg%2Favatars%2Fava_0004-512.png", "custom_css": null}, {"id": 19849, "slack_id": "U097THA2203", "display_name": "sakshi", "bio": null, "projects_count": 0, "devlogs_count": 0, "votes_count": 0, "ships_count": 0, "projects": [], "coding_time_seconds": 0, "coding_time_seconds_today": 0, "balance": "You need to have a pocket watcher badge to view this.", "badges": [], "created_at": "2025-07-29T06:05:16.228-04:00", "updated_at": "2025-07-29T09:15:13.150-04:00", "avatar": "https://secure.gravatar.com/avatar/3d58351cd712eee1921579b498776a81.jpg?s=512&d=https%3A%2F%2Fa.slack-edge.com%2Fdf10d%2Fimg%2Favatars%2Fava_0019-512.png", "custom_css": null}, {"id": 19850, "slack_id": "U097HGEL66M", "display_name": "SS", "bio": null, "projects_count": 0, "devlogs_count": 0, "votes_count": 0, "ships_count": 0, "projects": [], "coding_time_seconds": 0, "coding_time_seconds_today": 0, "balance": "You need to have a pocket watcher badge to view this.", "badges": [], "created_at": "2025-07-29T06:07:12.926-04:00", "updated_at": "2025-07-29T09:15:13.304-04:00", "avatar": "https://avatars.slack-edge.com/2025-07-29/9271490386564_35d5d5d8af90fa0ba517_original.png", "custom_css": null}, {"id": 19851, "slack_id": "U097TJ72PKM", "display_name": "priyanka yadav", "bio": null, "projects_count": 0, "devlogs_count": 0, "votes_count": 0, "ships_count": 0, "projects": [], "coding_time_seconds": 0, "coding_time_seconds_today": 0, "balance": "You need to have a pocket watcher badge to view this.", "badges": [], "created_at": "2025-07-29T06:07:55.132-04:00", "updated_at": "2025-07-29T09:15:13.401-04:00", "avatar": "https://secure.gravatar.com/avatar/d92b8d163b9116654e22dce8625db4d5.jpg?s=512&d=https%3A%2F%2Fa.slack-edge.com%2Fdf10d%2Fimg%2Favatars%2Fava_0002-512.png", "custom_css": null}, {"id": 19852, "slack_id": "U097TJN1D7V", "display_name": "Manju banjara", "bio": null, "projects_count": 0, "devlogs_count": 0, "votes_count": 0, "ships_count": 0, "projects": [], "coding_time_seconds": 0, "coding_time_seconds_today": 0, "balance": "You need to have a pocket watcher badge to view this.", "badges": [], "created_at": "2025-07-29T06:08:04.335-04:00", "updated_at": "2025-07-29T09:15:13.522-04:00", "avatar": "https://secure.gravatar.com/avatar/fec40e2e190b98c114b8e88deb14face.jpg?s=512&d=https%3A%2F%2Fa.slack-edge.com%2Fdf10d%2Fimg%2Favatars%2Fava_0017-512.png", "custom_css": null}, {"id": 19853, "slack_id": "U097YGCHNLS", "display_name": "Neha kumari", "bio": null, "projects_count": 0, "devlogs_count": 0, "votes_count": 0, "ships_count": 0, "projects": [], "coding_time_seconds": 0, "coding_time_seconds_today": 0, "balance": "You need to have a pocket watcher badge to view this.", "badges": [], "created_at": "2025-07-29T06:08:23.134-04:00", "updated_at": "2025-08-06T13:01:04.306-04:00", "avatar": "https://avatars.slack-edge.com/2025-07-29/9265649310899_7065f1815fa1bbe356e2_original.png", "custom_css": null}, {"id": 19854, "slack_id": "U097WMTGVS9", "display_name": "Saumya Thakur", "bio": null, "projects_count": 0, "devlogs_count": 0, "votes_count": 0, "ships_count": 0, "projects": [], "coding_time_seconds": 0, "coding_time_seconds_today": 0, "balance": "You need to have a pocket watcher badge to view this.", "badges": [], "created_at": "2025-07-29T06:08:49.642-04:00", "updated_at": "2025-07-29T09:15:13.765-04:00", "avatar": "https://secure.gravatar.com/avatar/3af1219dbcde0055a0adf7f363c3861c.jpg?s=512&d=https%3A%2F%2Fa.slack-edge.com%2Fdf10d%2Fimg%2Favatars%2Fava_0008-512.png", "custom_css": null}, {"id": 19855, "slack_id": "U097YJX627L", "display_name": "Omanti Goswami", "bio": null, "projects_count": 0, "devlogs_count": 0, "votes_count": 0, "ships_count": 0, "projects": [], "coding_time_seconds": 272, "coding_time_seconds_today": 0, "balance": "You need to have a pocket watcher badge to view this.", "badges": [], "created_at": "2025-07-29T06:09:09.596-04:00", "updated_at": "2025-07-29T09:15:13.875-04:00", "avatar": "https://secure.gravatar.com/avatar/ffe3f1d876abcdf763a932c5fbdbf7ac.jpg?s=512&d=https%3A%2F%2Fa.slack-edge.com%2Fdf10d%2Fimg%2Favatars%2Fava_0005-512.png", "custom_css": null}, {"id": 19856, "slack_id": "U097V4RR88N", "display_name": "Rupali Jaiswal", "bio": null, "projects_count": 0, "devlogs_count": 0, "votes_count": 0, "ships_count": 0, "projects": [], "coding_time_seconds": 2430, "coding_time_seconds_today": 0, "balance": "You need to have a pocket watcher badge to view this.", "badges": [], "created_at": "2025-07-29T06:09:11.766-04:00", "updated_at": "2025-07-29T09:15:14.003-04:00", "avatar": "https://secure.gravatar.com/avatar/f58a840b3d98a17648972a351a0f7b9d.jpg?s=512&d=https%3A%2F%2Fa.slack-edge.com%2Fdf10d%2Fimg%2Favatars%2Fava_0018-512.png", "custom_css": null}, {"id": 19857, "slack_id": "U097H1Y4687", "display_name": "Monika bai", "bio": null, "projects_count": 0, "devlogs_count": 0, "votes_count": 0, "ships_count": 0, "projects": [], "coding_time_seconds": 0, "coding_time_seconds_today": 0, "balance": "You need to have a pocket watcher badge to view this.", "badges": [], "created_at": "2025-07-29T06:09:12.754-04:00", "updated_at": "2025-07-29T09:28:07.050-04:00", "avatar": "https://secure.gravatar.com/avatar/80769d1b645a76f88a5e561d62e7dcf6.jpg?s=512&d=https%3A%2F%2Fa.slack-edge.com%2Fdf10d%2Fimg%2Favatars%2Fava_0016-512.png", "custom_css": null}, {"id": 19858, "slack_id": "U098LETLHU0", "display_name": "preety chouhan", "bio": "", "projects_count": 0, "devlogs_count": 0, "votes_count": 0, "ships_count": 0, "projects": [], "coding_time_seconds": 0, "coding_time_seconds_today": 0, "balance": "You need to have a pocket watcher badge to view this.", "badges": [], "created_at": "2025-07-29T06:09:16.419-04:00", "updated_at": "2025-07-29T09:15:14.197-04:00", "avatar": "https://secure.gravatar.com/avatar/e1d233ce54add44cd47b2107e3c47ada.jpg?s=512&d=https%3A%2F%2Fa.slack-edge.com%2Fdf10d%2Fimg%2Favatars%2Fava_0002-512.png", "custom_css": null}, {"id": 19859, "slack_id": "U097YGDM5HQ", "display_name": "Archana Thakur", "bio": null, "projects_count": 3, "devlogs_count": 3, "votes_count": 40, "ships_count": 3, "projects": [{"id": 13507, "title": "Encyclopedia of Animals", "devlogs_count": 1, "created_at": "2025-09-18T05:57:09.767-04:00"}, {"id": 13160, "title": "Savoria Restaurant", "devlogs_count": 1, "created_at": "2025-09-10T05:21:42.294-04:00"}, {"id": 10865, "title": "Puzzle Maze", "devlogs_count": 1, "created_at": "2025-08-11T12:05:26.353-04:00"}], "coding_time_seconds": 83533, "coding_time_seconds_today": 0, "balance": "You need to have a pocket watcher badge to view this.", "badges": [], "created_at": "2025-07-29T06:09:21.336-04:00", "updated_at": "2025-08-11T08:33:17.733-04:00", "avatar": "https://secure.gravatar.com/avatar/2eb1af8110da6748dc7c6907d5c9be18.jpg?s=512&d=https%3A%2F%2Fa.slack-edge.com%2Fdf10d%2Fimg%2Favatars%2Fava_0025-512.png", "custom_css": null}, {"id": 19860, "slack_id": "U098LF9GSPJ", "display_name": "Divya panwar", "bio": null, "projects_count": 0, "devlogs_count": 0, "votes_count": 0, "ships_count": 0, "projects": [], "coding_time_seconds": 63662, "coding_time_seconds_today": 0, "balance": "You need to have a pocket watcher badge to view this.", "badges": [], "created_at": "2025-07-29T06:09:29.283-04:00", "updated_at": "2025-07-29T09:15:14.366-04:00", "avatar": "https://avatars.slack-edge.com/2025-07-29/9255668268983_5786a68b417498a36035_original.jpg", "custom_css": null}, {"id": 19861, "slack_id": "U097TJ859NX", "display_name": "Deepti Baiga", "bio": null, "projects_count": 0, "devlogs_count": 0, "votes_count": 0, "ships_count": 0, "projects": [], "coding_time_seconds": 0, "coding_time_seconds_today": 0, "balance": "You need to have a pocket watcher badge to view this.", "badges": [], "created_at": "2025-07-29T06:09:29.779-04:00", "updated_at": "2025-07-29T09:15:14.476-04:00", "avatar": "https://secure.gravatar.com/avatar/def380766f238c0d7b7a443bce46fcc9.jpg?s=512&d=https%3A%2F%2Fa.slack-edge.com%2Fdf10d%2Fimg%2Favatars%2Fava_0013-512.png", "custom_css": null}, {"id": 19862, "slack_id": "U097ZC37EKW", "display_name": "Deepali Kumari", "bio": null, "projects_count": 2, "devlogs_count": 3, "votes_count": 2, "ships_count": 2, "projects": [{"id": 10480, "title": "GreenThumb", "devlogs_count": 2, "created_at": "2025-08-07T11:30:05.663-04:00"}, {"id": 10485, "title": "Calcutor", "devlogs_count": 1, "created_at": "2025-08-07T12:27:15.995-04:00"}], "coding_time_seconds": 78396, "coding_time_seconds_today": 246, "balance": "You need to have a pocket watcher badge to view this.", "badges": [], "created_at": "2025-07-29T06:09:31.657-04:00", "updated_at": "2025-08-07T02:29:40.240-04:00", "avatar": "https://secure.gravatar.com/avatar/8aa4e5997d233350ffd26f64f2552b4e.jpg?s=512&d=https%3A%2F%2Fa.slack-edge.com%2Fdf10d%2Fimg%2Favatars%2Fava_0010-512.png", "custom_css": null}, {"id": 19863, "slack_id": "U097ZBZ3S92", "display_name": "Chandrakala yadav", "bio": null, "projects_count": 0, "devlogs_count": 0, "votes_count": 0, "ships_count": 0, "projects": [], "coding_time_seconds": 0, "coding_time_seconds_today": 0, "balance": "You need to have a pocket watcher badge to view this.", "badges": [], "created_at": "2025-07-29T06:09:31.788-04:00", "updated_at": "2025-07-30T16:10:03.944-04:00", "avatar": "https://secure.gravatar.com/avatar/8ad4d90b726ee0fe6514fa95f1641892.jpg?s=512&d=https%3A%2F%2Fa.slack-edge.com%2Fdf10d%2Fimg%2Favatars%2Fava_0004-512.png", "custom_css": null}, {"id": 19864, "slack_id": "U098LER0WUQ", "display_name": "Sapna Gupta", "bio": null, "projects_count": 0, "devlogs_count": 0, "votes_count": 0, "ships_count": 0, "projects": [], "coding_time_seconds": 32001, "coding_time_seconds_today": 0, "balance": "You need to have a pocket watcher badge to view this.", "badges": [], "created_at": "2025-07-29T06:09:32.653-04:00", "updated_at": "2025-07-29T09:15:18.806-04:00", "avatar": "https://secure.gravatar.com/avatar/83834346ad2185c2fade41c2d623c445.jpg?s=512&d=https%3A%2F%2Fa.slack-edge.com%2Fdf10d%2Fimg%2Favatars%2Fava_0007-512.png", "custom_css": null}, {"id": 19865, "slack_id": "U097TFSJB3M", "display_name": "Soniya Lakra", "bio": null, "projects_count": 0, "devlogs_count": 0, "votes_count": 0, "ships_count": 0, "projects": [], "coding_time_seconds": 0, "coding_time_seconds_today": 0, "balance": "You need to have a pocket watcher badge to view this.", "badges": [], "created_at": "2025-07-29T06:09:40.409-04:00", "updated_at": "2025-08-06T07:26:14.449-04:00", "avatar": "https://secure.gravatar.com/avatar/a38c48c258327821977939743e930ffa.jpg?s=512&d=https%3A%2F%2Fa.slack-edge.com%2Fdf10d%2Fimg%2Favatars%2Fava_0017-512.png", "custom_css": null}], "pagination": {"page": 989, "pages": 1192, "count": 23828, "items": 20}}