{"users": [{"id": 19866, "slack_id": "U097TGCV6N7", "display_name": "Aliya Parveen", "bio": null, "projects_count": 0, "devlogs_count": 0, "votes_count": 0, "ships_count": 0, "projects": [], "coding_time_seconds": 70553, "coding_time_seconds_today": 0, "balance": "You need to have a pocket watcher badge to view this.", "badges": [], "created_at": "2025-07-29T06:09:43.653-04:00", "updated_at": "2025-07-29T23:54:57.245-04:00", "avatar": "https://secure.gravatar.com/avatar/2ee5457427776f3c2c84f9d16ab8c68d.jpg?s=512&d=https%3A%2F%2Fa.slack-edge.com%2Fdf10d%2Fimg%2Favatars%2Fava_0019-512.png", "custom_css": null}, {"id": 19867, "slack_id": "U097H0S9E95", "display_name": "Payal Rani", "bio": null, "projects_count": 0, "devlogs_count": 0, "votes_count": 0, "ships_count": 0, "projects": [], "coding_time_seconds": 28160, "coding_time_seconds_today": 0, "balance": "You need to have a pocket watcher badge to view this.", "badges": [], "created_at": "2025-07-29T06:09:47.065-04:00", "updated_at": "2025-07-30T05:09:29.949-04:00", "avatar": "https://secure.gravatar.com/avatar/99e6140d8aa79d1305f5a804c81940c0.jpg?s=512&d=https%3A%2F%2Fa.slack-edge.com%2Fdf10d%2Fimg%2Favatars%2Fava_0010-512.png", "custom_css": null}, {"id": 19868, "slack_id": "U098LF2RV16", "display_name": "Megha Painkra", "bio": null, "projects_count": 0, "devlogs_count": 0, "votes_count": 0, "ships_count": 0, "projects": [], "coding_time_seconds": 0, "coding_time_seconds_today": 0, "balance": "You need to have a pocket watcher badge to view this.", "badges": [], "created_at": "2025-07-29T06:09:49.140-04:00", "updated_at": "2025-07-30T16:10:02.238-04:00", "avatar": "https://secure.gravatar.com/avatar/c3b097a939c6ba3186e65d2a193eca9c.jpg?s=512&d=https%3A%2F%2Fa.slack-edge.com%2Fdf10d%2Fimg%2Favatars%2Fava_0001-512.png", "custom_css": null}, {"id": 19869, "slack_id": "U097YGZV5RQ", "display_name": "radha gudewar", "bio": null, "projects_count": 0, "devlogs_count": 0, "votes_count": 0, "ships_count": 0, "projects": [], "coding_time_seconds": 14446, "coding_time_seconds_today": 0, "balance": "You need to have a pocket watcher badge to view this.", "badges": [], "created_at": "2025-07-29T06:09:54.734-04:00", "updated_at": "2025-07-29T09:15:19.288-04:00", "avatar": "https://avatars.slack-edge.com/2025-07-29/9272086286740_51f9cf1e6c790001b934_original.jpg", "custom_css": null}, {"id": 19870, "slack_id": "U097V423C14", "display_name": "madhuri kumari", "bio": null, "projects_count": 0, "devlogs_count": 0, "votes_count": 0, "ships_count": 0, "projects": [], "coding_time_seconds": 103297, "coding_time_seconds_today": 0, "balance": "You need to have a pocket watcher badge to view this.", "badges": [], "created_at": "2025-07-29T06:09:58.427-04:00", "updated_at": "2025-08-01T03:57:11.659-04:00", "avatar": "https://avatars.slack-edge.com/2025-08-01/9285578196387_6d52edccc03c2c6d6f3b_original.jpg", "custom_css": null}, {"id": 19871, "slack_id": "U097YK95U1Y", "display_name": "Chanchala Bai", "bio": null, "projects_count": 0, "devlogs_count": 0, "votes_count": 0, "ships_count": 0, "projects": [], "coding_time_seconds": 0, "coding_time_seconds_today": 0, "balance": "You need to have a pocket watcher badge to view this.", "badges": [], "created_at": "2025-07-29T06:10:07.021-04:00", "updated_at": "2025-07-31T13:43:01.853-04:00", "avatar": "https://secure.gravatar.com/avatar/626bf6acb8f7d9584a84a384c4c64b59.jpg?s=512&d=https%3A%2F%2Fa.slack-edge.com%2Fdf10d%2Fimg%2Favatars%2Fava_0021-512.png", "custom_css": null}, {"id": 19872, "slack_id": "U097V4J897G", "display_name": "vicky bhelave", "bio": "", "projects_count": 15, "devlogs_count": 24, "votes_count": 172, "ships_count": 14, "projects": [{"id": 12432, "title": "Snake-Game", "devlogs_count": 1, "created_at": "2025-08-27T10:51:58.976-04:00"}, {"id": 12435, "title": "Tudo-list", "devlogs_count": 1, "created_at": "2025-08-27T11:15:32.479-04:00"}, {"id": 13023, "title": "Expense Tracker", "devlogs_count": 1, "created_at": "2025-09-07T02:56:32.946-04:00"}, {"id": 13078, "title": "Quiz-Web", "devlogs_count": 1, "created_at": "2025-09-08T06:53:02.002-04:00"}, {"id": 13426, "title": "Number-memory-Game", "devlogs_count": 1, "created_at": "2025-09-16T05:26:49.027-04:00"}, {"id": 13727, "title": "Reading Comprehension ", "devlogs_count": 1, "created_at": "2025-09-23T21:29:44.241-04:00"}, {"id": 13728, "title": "Number game ", "devlogs_count": 1, "created_at": "2025-09-23T22:10:40.189-04:00"}, {"id": 13427, "title": "Virtual-portfolio-builder", "devlogs_count": 1, "created_at": "2025-09-16T05:42:01.902-04:00"}, {"id": 12343, "title": "Puzzal-Game", "devlogs_count": 1, "created_at": "2025-08-26T01:45:31.831-04:00"}, {"id": 11471, "title": "kinetic kitchen", "devlogs_count": 1, "created_at": "2025-08-16T06:57:41.928-04:00"}, {"id": 11635, "title": "Solar System Model", "devlogs_count": 1, "created_at": "2025-08-18T01:13:38.003-04:00"}, {"id": 11469, "title": "e-commerce -websitte", "devlogs_count": 1, "created_at": "2025-08-16T06:48:46.625-04:00"}, {"id": 11941, "title": "chess_game", "devlogs_count": 1, "created_at": "2025-08-21T09:26:59.284-04:00"}, {"id": 12008, "title": "movie-list", "devlogs_count": 1, "created_at": "2025-08-22T03:36:55.784-04:00"}, {"id": 12060, "title": "SpeakEasy-pro", "devlogs_count": 1, "created_at": "2025-08-22T13:49:46.953-04:00"}], "coding_time_seconds": 870913, "coding_time_seconds_today": 3213, "balance": "You need to have a pocket watcher badge to view this.", "badges": [], "created_at": "2025-07-29T06:10:17.301-04:00", "updated_at": "2025-08-06T15:09:59.299-04:00", "avatar": "https://secure.gravatar.com/avatar/4ee9f0b36f96aef1a972a0027011af44.jpg?s=512&d=https%3A%2F%2Fa.slack-edge.com%2Fdf10d%2Fimg%2Favatars%2Fava_0022-512.png", "custom_css": null}, {"id": 19873, "slack_id": "U098CNLSM7B", "display_name": "Aditi Yadav", "bio": null, "projects_count": 0, "devlogs_count": 0, "votes_count": 0, "ships_count": 0, "projects": [], "coding_time_seconds": 0, "coding_time_seconds_today": 0, "balance": "You need to have a pocket watcher badge to view this.", "badges": [], "created_at": "2025-07-29T06:10:41.568-04:00", "updated_at": "2025-07-29T09:15:19.671-04:00", "avatar": "https://secure.gravatar.com/avatar/a471a19cb094439a16c1c31a7ca42199.jpg?s=512&d=https%3A%2F%2Fa.slack-edge.com%2Fdf10d%2Fimg%2Favatars%2Fava_0020-512.png", "custom_css": null}, {"id": 19874, "slack_id": "U097WLQ9TBP", "display_name": "Yogesh Dangwal", "bio": null, "projects_count": 1, "devlogs_count": 1, "votes_count": 1, "ships_count": 1, "projects": [{"id": 11960, "title": "kitchen store", "devlogs_count": 1, "created_at": "2025-08-21T13:00:38.304-04:00"}], "coding_time_seconds": 179199, "coding_time_seconds_today": 0, "balance": "You need to have a pocket watcher badge to view this.", "badges": [], "created_at": "2025-07-29T06:10:52.298-04:00", "updated_at": "2025-08-07T02:44:24.106-04:00", "avatar": "https://secure.gravatar.com/avatar/04f183f3911487f73c47a2d75662ff4e.jpg?s=512&d=https%3A%2F%2Fa.slack-edge.com%2Fdf10d%2Fimg%2Favatars%2Fava_0001-512.png", "custom_css": null}, {"id": 19875, "slack_id": "U097V40H06S", "display_name": "sheetal lakra", "bio": null, "projects_count": 0, "devlogs_count": 0, "votes_count": 0, "ships_count": 0, "projects": [], "coding_time_seconds": 0, "coding_time_seconds_today": 0, "balance": "You need to have a pocket watcher badge to view this.", "badges": [], "created_at": "2025-07-29T06:11:41.542-04:00", "updated_at": "2025-07-29T09:15:19.865-04:00", "avatar": "https://secure.gravatar.com/avatar/e9898ed0dfbad6ea3f10f5ea52cb3e72.jpg?s=512&d=https%3A%2F%2Fa.slack-edge.com%2Fdf10d%2Fimg%2Favatars%2Fava_0025-512.png", "custom_css": null}, {"id": 19876, "slack_id": "U097WLU605B", "display_name": "Neha Nishad", "bio": null, "projects_count": 0, "devlogs_count": 0, "votes_count": 0, "ships_count": 0, "projects": [], "coding_time_seconds": 7319, "coding_time_seconds_today": 0, "balance": "You need to have a pocket watcher badge to view this.", "badges": [], "created_at": "2025-07-29T06:12:09.067-04:00", "updated_at": "2025-07-30T06:15:59.358-04:00", "avatar": "https://secure.gravatar.com/avatar/0ee0c9e077f0dc2c5cf51e4546e676d4.jpg?s=512&d=https%3A%2F%2Fa.slack-edge.com%2Fdf10d%2Fimg%2Favatars%2Fava_0007-512.png", "custom_css": null}, {"id": 19877, "slack_id": "U097WLUMUDT", "display_name": "Rupa", "bio": null, "projects_count": 0, "devlogs_count": 0, "votes_count": 0, "ships_count": 0, "projects": [], "coding_time_seconds": 63376, "coding_time_seconds_today": 0, "balance": "You need to have a pocket watcher badge to view this.", "badges": [], "created_at": "2025-07-29T06:12:24.158-04:00", "updated_at": "2025-07-30T16:10:09.009-04:00", "avatar": "https://secure.gravatar.com/avatar/8b3ac025f60debcb79b82f2138363071.jpg?s=512&d=https%3A%2F%2Fa.slack-edge.com%2Fdf10d%2Fimg%2Favatars%2Fava_0023-512.png", "custom_css": null}, {"id": 19878, "slack_id": "U097ZC40F6G", "display_name": "Deepa yadav", "bio": null, "projects_count": 0, "devlogs_count": 0, "votes_count": 0, "ships_count": 0, "projects": [], "coding_time_seconds": 0, "coding_time_seconds_today": 0, "balance": "You need to have a pocket watcher badge to view this.", "badges": [], "created_at": "2025-07-29T06:12:39.496-04:00", "updated_at": "2025-07-30T16:10:07.394-04:00", "avatar": "https://secure.gravatar.com/avatar/50a7829278ecd59049dc7745ca3f452b.jpg?s=512&d=https%3A%2F%2Fa.slack-edge.com%2Fdf10d%2Fimg%2Favatars%2Fava_0019-512.png", "custom_css": null}, {"id": 19879, "slack_id": "U097TJ7L10B", "display_name": "kriti kumari", "bio": null, "projects_count": 0, "devlogs_count": 0, "votes_count": 0, "ships_count": 0, "projects": [], "coding_time_seconds": 13011, "coding_time_seconds_today": 0, "balance": "You need to have a pocket watcher badge to view this.", "badges": [], "created_at": "2025-07-29T06:12:58.877-04:00", "updated_at": "2025-07-29T09:15:20.253-04:00", "avatar": "https://secure.gravatar.com/avatar/cf505555b299775b2887296526800ce8.jpg?s=512&d=https%3A%2F%2Fa.slack-edge.com%2Fdf10d%2Fimg%2Favatars%2Fava_0017-512.png", "custom_css": null}, {"id": 19880, "slack_id": "U098LFECY7J", "display_name": "Monika kumari", "bio": null, "projects_count": 0, "devlogs_count": 0, "votes_count": 0, "ships_count": 0, "projects": [], "coding_time_seconds": 0, "coding_time_seconds_today": 0, "balance": "You need to have a pocket watcher badge to view this.", "badges": [], "created_at": "2025-07-29T06:14:02.751-04:00", "updated_at": "2025-07-29T09:15:20.368-04:00", "avatar": "https://secure.gravatar.com/avatar/edaefd652f87384b8921e4ce24bf3b1c.jpg?s=512&d=https%3A%2F%2Fa.slack-edge.com%2Fdf10d%2Fimg%2Favatars%2Fava_0021-512.png", "custom_css": null}, {"id": 19881, "slack_id": "U097ZC01TE0", "display_name": "Mamta Bai", "bio": null, "projects_count": 0, "devlogs_count": 0, "votes_count": 0, "ships_count": 0, "projects": [], "coding_time_seconds": 0, "coding_time_seconds_today": 0, "balance": "You need to have a pocket watcher badge to view this.", "badges": [], "created_at": "2025-07-29T06:14:36.298-04:00", "updated_at": "2025-07-29T09:15:20.502-04:00", "avatar": "https://avatars.slack-edge.com/2025-07-29/9267247626182_b88db145a50fab535fea_original.png", "custom_css": null}, {"id": 19882, "slack_id": "U097ZBQ7N92", "display_name": "Supriya Bhagat", "bio": null, "projects_count": 0, "devlogs_count": 0, "votes_count": 0, "ships_count": 0, "projects": [], "coding_time_seconds": 0, "coding_time_seconds_today": 0, "balance": "You need to have a pocket watcher badge to view this.", "badges": [], "created_at": "2025-07-29T06:17:30.810-04:00", "updated_at": "2025-07-29T09:15:20.664-04:00", "avatar": "https://secure.gravatar.com/avatar/971905d3d9304f17cc1387f448e898b1.jpg?s=512&d=https%3A%2F%2Fa.slack-edge.com%2Fdf10d%2Fimg%2Favatars%2Fava_0001-512.png", "custom_css": null}, {"id": 19883, "slack_id": "U097TLAMK1R", "display_name": "Punita Yadav", "bio": null, "projects_count": 0, "devlogs_count": 0, "votes_count": 0, "ships_count": 0, "projects": [], "coding_time_seconds": 0, "coding_time_seconds_today": 0, "balance": "You need to have a pocket watcher badge to view this.", "badges": [], "created_at": "2025-07-29T06:21:21.474-04:00", "updated_at": "2025-07-29T09:15:20.754-04:00", "avatar": "https://avatars.slack-edge.com/2025-07-29/9270715959042_119c756665d79e9951a6_original.png", "custom_css": null}, {"id": 19884, "slack_id": "U097ZG1AWSY", "display_name": "Alex Rohith", "bio": null, "projects_count": 0, "devlogs_count": 0, "votes_count": 0, "ships_count": 0, "projects": [], "coding_time_seconds": 0, "coding_time_seconds_today": 0, "balance": "You need to have a pocket watcher badge to view this.", "badges": [], "created_at": "2025-07-29T06:24:18.458-04:00", "updated_at": "2025-07-29T09:15:20.832-04:00", "avatar": "https://secure.gravatar.com/avatar/3efa857892c957ad98cb488e8a363d2f.jpg?s=512&d=https%3A%2F%2Fa.slack-edge.com%2Fdf10d%2Fimg%2Favatars%2Fava_0017-512.png", "custom_css": null}, {"id": 19885, "slack_id": "U097TL06VEF", "display_name": "shakuntala bhagat", "bio": null, "projects_count": 0, "devlogs_count": 0, "votes_count": 0, "ships_count": 0, "projects": [], "coding_time_seconds": 0, "coding_time_seconds_today": 0, "balance": "You need to have a pocket watcher badge to view this.", "badges": [], "created_at": "2025-07-29T06:27:32.396-04:00", "updated_at": "2025-07-29T09:15:20.928-04:00", "avatar": "https://secure.gravatar.com/avatar/589595c2a55c64a9a6dc16505dee8e1d.jpg?s=512&d=https%3A%2F%2Fa.slack-edge.com%2Fdf10d%2Fimg%2Favatars%2Fava_0022-512.png", "custom_css": null}], "pagination": {"page": 990, "pages": 1192, "count": 23828, "items": 20}}