{"users": [{"id": 19886, "slack_id": "U098LKR0DLG", "display_name": "Nisha Painkra", "bio": null, "projects_count": 0, "devlogs_count": 0, "votes_count": 0, "ships_count": 0, "projects": [], "coding_time_seconds": 0, "coding_time_seconds_today": 0, "balance": "You need to have a pocket watcher badge to view this.", "badges": [], "created_at": "2025-07-29T06:30:12.391-04:00", "updated_at": "2025-07-29T09:15:21.047-04:00", "avatar": "https://secure.gravatar.com/avatar/5db372400590a096cb831c25e8ebd285.jpg?s=512&d=https%3A%2F%2Fa.slack-edge.com%2Fdf10d%2Fimg%2Favatars%2Fava_0007-512.png", "custom_css": null}, {"id": 19887, "slack_id": "U098CPCK93K", "display_name": "Shivani Kumari", "bio": null, "projects_count": 0, "devlogs_count": 0, "votes_count": 0, "ships_count": 0, "projects": [], "coding_time_seconds": 0, "coding_time_seconds_today": 0, "balance": "You need to have a pocket watcher badge to view this.", "badges": [], "created_at": "2025-07-29T06:33:10.888-04:00", "updated_at": "2025-07-29T09:15:21.161-04:00", "avatar": "https://secure.gravatar.com/avatar/94096c5ec1a93196c2c0e8ba6605e25e.jpg?s=512&d=https%3A%2F%2Fa.slack-edge.com%2Fdf10d%2Fimg%2Favatars%2Fava_0020-512.png", "custom_css": null}, {"id": 19888, "slack_id": "U097N205ZKK", "display_name": "kasumi", "bio": null, "projects_count": 2, "devlogs_count": 0, "votes_count": 0, "ships_count": 0, "projects": [{"id": 9042, "title": "Home1 Employee Website", "devlogs_count": 0, "created_at": "2025-07-30T09:29:59.061-04:00"}, {"id": 9043, "title": "Home1 Employee Website", "devlogs_count": 0, "created_at": "2025-07-30T09:29:59.064-04:00"}], "coding_time_seconds": 148855, "coding_time_seconds_today": 0, "balance": "You need to have a pocket watcher badge to view this.", "badges": [], "created_at": "2025-07-29T06:43:19.731-04:00", "updated_at": "2025-08-16T16:12:08.890-04:00", "avatar": "https://secure.gravatar.com/avatar/afb124f807d01a652cb220e754aaf318.jpg?s=512&d=https%3A%2F%2Fa.slack-edge.com%2Fdf10d%2Fimg%2Favatars%2Fava_0004-512.png", "custom_css": null}, {"id": 19889, "slack_id": "U097H5JCMU7", "display_name": "Bharti Sharma", "bio": null, "projects_count": 0, "devlogs_count": 0, "votes_count": 0, "ships_count": 0, "projects": [], "coding_time_seconds": 193174, "coding_time_seconds_today": 0, "balance": "You need to have a pocket watcher badge to view this.", "badges": [], "created_at": "2025-07-29T06:44:13.499-04:00", "updated_at": "2025-07-29T09:15:25.365-04:00", "avatar": "https://secure.gravatar.com/avatar/61e1863f2999225460b2aa4f9785f20b.jpg?s=512&d=https%3A%2F%2Fa.slack-edge.com%2Fdf10d%2Fimg%2Favatars%2Fava_0011-512.png", "custom_css": null}, {"id": 19890, "slack_id": "U097ZG9HLCC", "display_name": "anita yadav", "bio": null, "projects_count": 0, "devlogs_count": 0, "votes_count": 0, "ships_count": 0, "projects": [], "coding_time_seconds": 0, "coding_time_seconds_today": 0, "balance": "You need to have a pocket watcher badge to view this.", "badges": [], "created_at": "2025-07-29T06:51:08.981-04:00", "updated_at": "2025-07-29T09:15:25.440-04:00", "avatar": "https://secure.gravatar.com/avatar/255bca8c0df760f925a26042d2337999.jpg?s=512&d=https%3A%2F%2Fa.slack-edge.com%2Fdf10d%2Fimg%2Favatars%2Fava_0019-512.png", "custom_css": null}, {"id": 19891, "slack_id": "U097H7X2G7R", "display_name": "surbhi shikha", "bio": null, "projects_count": 0, "devlogs_count": 0, "votes_count": 0, "ships_count": 0, "projects": [], "coding_time_seconds": 0, "coding_time_seconds_today": 0, "balance": "You need to have a pocket watcher badge to view this.", "badges": [], "created_at": "2025-07-29T06:58:08.799-04:00", "updated_at": "2025-07-29T09:15:25.541-04:00", "avatar": "https://secure.gravatar.com/avatar/263b23c5b9a29bc5ca31053ee70394c5.jpg?s=512&d=https%3A%2F%2Fa.slack-edge.com%2Fdf10d%2Fimg%2Favatars%2Fava_0023-512.png", "custom_css": null}, {"id": 19892, "slack_id": "U097H84CN1M", "display_name": "Sakshi8 Sah", "bio": null, "projects_count": 0, "devlogs_count": 0, "votes_count": 0, "ships_count": 0, "projects": [], "coding_time_seconds": 0, "coding_time_seconds_today": 0, "balance": "You need to have a pocket watcher badge to view this.", "badges": [], "created_at": "2025-07-29T06:59:01.762-04:00", "updated_at": "2025-07-29T09:15:25.638-04:00", "avatar": "https://secure.gravatar.com/avatar/df68a96b8835b8be62f3ce6e456db119.jpg?s=512&d=https%3A%2F%2Fa.slack-edge.com%2Fdf10d%2Fimg%2Favatars%2Fava_0026-512.png", "custom_css": null}, {"id": 19893, "slack_id": "U098LJEJ3RN", "display_name": "Savitri Yadav", "bio": null, "projects_count": 0, "devlogs_count": 0, "votes_count": 0, "ships_count": 0, "projects": [], "coding_time_seconds": 0, "coding_time_seconds_today": 0, "balance": "You need to have a pocket watcher badge to view this.", "badges": [], "created_at": "2025-07-29T07:20:39.692-04:00", "updated_at": "2025-07-29T09:22:52.299-04:00", "avatar": "https://avatars.slack-edge.com/2025-07-29/9271804987300_d5bba2a8fe684597395c_original.png", "custom_css": null}, {"id": 19894, "slack_id": "U097YUS6K8S", "display_name": "Shashish Panda", "bio": null, "projects_count": 3, "devlogs_count": 10, "votes_count": 43, "ships_count": 3, "projects": [{"id": 9879, "title": "Textana", "devlogs_count": 1, "created_at": "2025-08-02T16:24:22.508-04:00"}, {"id": 9887, "title": "Studanova", "devlogs_count": 8, "created_at": "2025-08-02T16:43:33.929-04:00"}, {"id": 9878, "title": "Portfolio site", "devlogs_count": 1, "created_at": "2025-08-02T15:56:31.901-04:00"}], "coding_time_seconds": 328055, "coding_time_seconds_today": 0, "balance": "You need to have a pocket watcher badge to view this.", "badges": [], "created_at": "2025-07-29T07:27:43.604-04:00", "updated_at": "2025-08-01T08:17:54.136-04:00", "avatar": "https://secure.gravatar.com/avatar/032b0a004ed746b5fd0f434b5ce10dcb.jpg?s=512&d=https%3A%2F%2Fa.slack-edge.com%2Fdf10d%2Fimg%2Favatars%2Fava_0008-512.png", "custom_css": null}, {"id": 19895, "slack_id": "U097VJMFDN2", "display_name": "Shaik Mohammed Zaid", "bio": null, "projects_count": 0, "devlogs_count": 0, "votes_count": 0, "ships_count": 0, "projects": [], "coding_time_seconds": 0, "coding_time_seconds_today": 0, "balance": "You need to have a pocket watcher badge to view this.", "badges": [], "created_at": "2025-07-29T08:00:20.272-04:00", "updated_at": "2025-07-29T10:04:26.766-04:00", "avatar": "https://secure.gravatar.com/avatar/39618653076b89780a77d3d1c1035856.jpg?s=512&d=https%3A%2F%2Fa.slack-edge.com%2Fdf10d%2Fimg%2Favatars%2Fava_0004-512.png", "custom_css": null}, {"id": 19896, "slack_id": "U097U4YK3M1", "display_name": "mamta koli", "bio": null, "projects_count": 0, "devlogs_count": 0, "votes_count": 0, "ships_count": 0, "projects": [], "coding_time_seconds": 17585, "coding_time_seconds_today": 0, "balance": "You need to have a pocket watcher badge to view this.", "badges": [], "created_at": "2025-07-29T08:04:15.878-04:00", "updated_at": "2025-09-08T03:04:59.790-04:00", "avatar": "https://secure.gravatar.com/avatar/eae8800b6b7b13be794f9fa804e02162.jpg?s=512&d=https%3A%2F%2Fa.slack-edge.com%2Fdf10d%2Fimg%2Favatars%2Fava_0014-512.png", "custom_css": null}, {"id": 19897, "slack_id": "U097ZULKR1S", "display_name": "Gayatri barai", "bio": null, "projects_count": 0, "devlogs_count": 0, "votes_count": 0, "ships_count": 0, "projects": [], "coding_time_seconds": 9736, "coding_time_seconds_today": 0, "balance": "You need to have a pocket watcher badge to view this.", "badges": [], "created_at": "2025-07-29T08:04:27.677-04:00", "updated_at": "2025-07-30T16:12:05.000-04:00", "avatar": "https://secure.gravatar.com/avatar/710f12dd2d1f99d65bf65ec2c020ae82.jpg?s=512&d=https%3A%2F%2Fa.slack-edge.com%2Fdf10d%2Fimg%2Favatars%2Fava_0002-512.png", "custom_css": null}, {"id": 19898, "slack_id": "U097Z5LRY02", "display_name": "alisburkis", "bio": null, "projects_count": 0, "devlogs_count": 0, "votes_count": 0, "ships_count": 0, "projects": [], "coding_time_seconds": 0, "coding_time_seconds_today": 0, "balance": "You need to have a pocket watcher badge to view this.", "badges": [], "created_at": "2025-07-29T08:15:09.577-04:00", "updated_at": "2025-07-29T09:15:26.190-04:00", "avatar": "https://secure.gravatar.com/avatar/da33e258585474c702163a987aed6743.jpg?s=512&d=https%3A%2F%2Fa.slack-edge.com%2Fdf10d%2Fimg%2Favatars%2Fava_0020-512.png", "custom_css": null}, {"id": 19899, "slack_id": "U09800UR1A8", "display_name": "Mohammedabdemanham", "bio": null, "projects_count": 0, "devlogs_count": 0, "votes_count": 0, "ships_count": 0, "projects": [], "coding_time_seconds": 0, "coding_time_seconds_today": 0, "balance": "You need to have a pocket watcher badge to view this.", "badges": [], "created_at": "2025-07-29T08:15:44.443-04:00", "updated_at": "2025-07-29T09:37:47.970-04:00", "avatar": "https://avatars.slack-edge.com/2025-07-29/9267743045142_f4c071975d5ff01a4657_original.png", "custom_css": null}, {"id": 19900, "slack_id": "U097Z3Z0KAN", "display_name": "divya supare", "bio": null, "projects_count": 0, "devlogs_count": 0, "votes_count": 0, "ships_count": 0, "projects": [], "coding_time_seconds": 3629, "coding_time_seconds_today": 0, "balance": "You need to have a pocket watcher badge to view this.", "badges": [], "created_at": "2025-07-29T08:22:20.161-04:00", "updated_at": "2025-07-30T16:12:55.517-04:00", "avatar": "https://secure.gravatar.com/avatar/da1c2a5b2e1e3ca13fc41f56a4638bf9.jpg?s=512&d=https%3A%2F%2Fa.slack-edge.com%2Fdf10d%2Fimg%2Favatars%2Fava_0003-512.png", "custom_css": null}, {"id": 19901, "slack_id": "U097U8XHJKV", "display_name": "Tanisha Gupta", "bio": null, "projects_count": 0, "devlogs_count": 0, "votes_count": 0, "ships_count": 0, "projects": [], "coding_time_seconds": 11080, "coding_time_seconds_today": 0, "balance": "You need to have a pocket watcher badge to view this.", "badges": [], "created_at": "2025-07-29T08:30:18.840-04:00", "updated_at": "2025-07-29T09:15:30.552-04:00", "avatar": "https://secure.gravatar.com/avatar/1f2feea2e5f3e6c61dc38a1ab0c8acf3.jpg?s=512&d=https%3A%2F%2Fa.slack-edge.com%2Fdf10d%2Fimg%2Favatars%2Fava_0002-512.png", "custom_css": null}, {"id": 19902, "slack_id": "U097VQ1K0LE", "display_name": "Md. Hasnain Ali", "bio": null, "projects_count": 0, "devlogs_count": 0, "votes_count": 0, "ships_count": 0, "projects": [], "coding_time_seconds": 0, "coding_time_seconds_today": 0, "balance": "You need to have a pocket watcher badge to view this.", "badges": [], "created_at": "2025-07-29T08:36:31.693-04:00", "updated_at": "2025-07-29T09:15:30.653-04:00", "avatar": "https://secure.gravatar.com/avatar/8c2e0174ec600c28c3554887a3464448.jpg?s=512&d=https%3A%2F%2Fa.slack-edge.com%2Fdf10d%2Fimg%2Favatars%2Fava_0017-512.png", "custom_css": null}, {"id": 19903, "slack_id": "U097ZBP4M18", "display_name": "Prosper Wapali", "bio": null, "projects_count": 0, "devlogs_count": 0, "votes_count": 0, "ships_count": 0, "projects": [], "coding_time_seconds": 16016, "coding_time_seconds_today": 3415, "balance": "You need to have a pocket watcher badge to view this.", "badges": [], "created_at": "2025-07-29T08:56:11.515-04:00", "updated_at": "2025-07-30T09:50:53.950-04:00", "avatar": "https://avatars.slack-edge.com/2025-07-29/9255923062311_b99ac539ef0b8c9c78a7_original.jpg", "custom_css": null}, {"id": 19904, "slack_id": "U096F00E7JT", "display_name": "Prosper", "bio": null, "projects_count": 0, "devlogs_count": 0, "votes_count": 0, "ships_count": 0, "projects": [], "coding_time_seconds": 0, "coding_time_seconds_today": 0, "balance": "You need to have a pocket watcher badge to view this.", "badges": [], "created_at": "2025-07-29T09:05:23.110-04:00", "updated_at": "2025-07-30T09:50:54.066-04:00", "avatar": "https://secure.gravatar.com/avatar/5c5c894b1e2d0585c9d0f9af6a1afdf0.jpg?s=512&d=https%3A%2F%2Fa.slack-edge.com%2Fdf10d%2Fimg%2Favatars%2Fava_0015-512.png", "custom_css": null}, {"id": 19905, "slack_id": "U097XGDCP0D", "display_name": "Josh", "bio": null, "projects_count": 0, "devlogs_count": 0, "votes_count": 0, "ships_count": 0, "projects": [], "coding_time_seconds": 0, "coding_time_seconds_today": 0, "balance": "You need to have a pocket watcher badge to view this.", "badges": [], "created_at": "2025-07-29T09:09:00.060-04:00", "updated_at": "2025-07-30T09:50:54.246-04:00", "avatar": "https://secure.gravatar.com/avatar/23f538da1f3634b5056e0a908bae1987.jpg?s=512&d=https%3A%2F%2Fa.slack-edge.com%2Fdf10d%2Fimg%2Favatars%2Fava_0012-512.png", "custom_css": null}], "pagination": {"page": 991, "pages": 1192, "count": 23828, "items": 20}}