{"users": [{"id": 19946, "slack_id": "U097YUQUMHB", "display_name": "Huzaifa Ali", "bio": null, "projects_count": 0, "devlogs_count": 0, "votes_count": 0, "ships_count": 0, "projects": [], "coding_time_seconds": 0, "coding_time_seconds_today": 0, "balance": "You need to have a pocket watcher badge to view this.", "badges": [], "created_at": "2025-07-29T12:55:08.898-04:00", "updated_at": "2025-07-30T09:51:04.604-04:00", "avatar": "https://secure.gravatar.com/avatar/09b3932e292cf5007db9dc034d0a647c.jpg?s=512&d=https%3A%2F%2Fa.slack-edge.com%2Fdf10d%2Fimg%2Favatars%2Fava_0023-512.png", "custom_css": null}, {"id": 19947, "slack_id": "U097XCDEU2H", "display_name": "Laya M", "bio": null, "projects_count": 0, "devlogs_count": 0, "votes_count": 0, "ships_count": 0, "projects": [], "coding_time_seconds": 0, "coding_time_seconds_today": 0, "balance": "You need to have a pocket watcher badge to view this.", "badges": [], "created_at": "2025-07-29T13:03:07.504-04:00", "updated_at": "2025-07-30T09:51:04.750-04:00", "avatar": "https://secure.gravatar.com/avatar/4231a9b8be43f5e75aad1e55232f2d83.jpg?s=512&d=https%3A%2F%2Fa.slack-edge.com%2Fdf10d%2Fimg%2Favatars%2Fava_0022-512.png", "custom_css": null}, {"id": 19948, "slack_id": "U098N1TRK4G", "display_name": "Rohan Reddy", "bio": null, "projects_count": 0, "devlogs_count": 0, "votes_count": 0, "ships_count": 0, "projects": [], "coding_time_seconds": 0, "coding_time_seconds_today": 0, "balance": "You need to have a pocket watcher badge to view this.", "badges": [], "created_at": "2025-07-29T13:12:44.283-04:00", "updated_at": "2025-07-30T09:51:04.925-04:00", "avatar": "https://avatars.slack-edge.com/2025-07-29/9269533046662_21207d93bd6f46f14566_original.png", "custom_css": null}, {"id": 19949, "slack_id": "U097W7E7Y03", "display_name": "CRash-COurse", "bio": null, "projects_count": 0, "devlogs_count": 0, "votes_count": 0, "ships_count": 0, "projects": [], "coding_time_seconds": 0, "coding_time_seconds_today": 0, "balance": "You need to have a pocket watcher badge to view this.", "badges": [], "created_at": "2025-07-29T13:16:57.164-04:00", "updated_at": "2025-07-30T09:51:05.042-04:00", "avatar": "https://secure.gravatar.com/avatar/9159f763820982355b32ce703a4730b5.jpg?s=512&d=https%3A%2F%2Fa.slack-edge.com%2Fdf10d%2Fimg%2Favatars%2Fava_0003-512.png", "custom_css": null}, {"id": 19950, "slack_id": "U098FCR59R7", "display_name": "Abena", "bio": null, "projects_count": 0, "devlogs_count": 0, "votes_count": 0, "ships_count": 0, "projects": [], "coding_time_seconds": 0, "coding_time_seconds_today": 0, "balance": "You need to have a pocket watcher badge to view this.", "badges": [], "created_at": "2025-07-29T13:21:20.581-04:00", "updated_at": "2025-07-31T08:12:52.989-04:00", "avatar": "https://secure.gravatar.com/avatar/6839fdb3f092af486de73822ea5d3ba2.jpg?s=512&d=https%3A%2F%2Fa.slack-edge.com%2Fdf10d%2Fimg%2Favatars%2Fava_0010-512.png", "custom_css": null}, {"id": 19951, "slack_id": "U098FE9DT1P", "display_name": "TabicoPRG", "bio": null, "projects_count": 0, "devlogs_count": 0, "votes_count": 0, "ships_count": 0, "projects": [], "coding_time_seconds": 0, "coding_time_seconds_today": 0, "balance": "You need to have a pocket watcher badge to view this.", "badges": [], "created_at": "2025-07-29T13:30:56.938-04:00", "updated_at": "2025-07-30T09:51:05.273-04:00", "avatar": "https://secure.gravatar.com/avatar/f58ce4bf8fe0e3fa3e622ea581eaccc2.jpg?s=512&d=https%3A%2F%2Fa.slack-edge.com%2Fdf10d%2Fimg%2Favatars%2Fava_0013-512.png", "custom_css": null}, {"id": 19952, "slack_id": "U097HMF1BHD", "display_name": "Marib Bhat", "bio": null, "projects_count": 0, "devlogs_count": 0, "votes_count": 0, "ships_count": 0, "projects": [], "coding_time_seconds": 2982, "coding_time_seconds_today": 0, "balance": "You need to have a pocket watcher badge to view this.", "badges": [], "created_at": "2025-07-29T13:37:41.872-04:00", "updated_at": "2025-07-30T09:51:05.416-04:00", "avatar": "https://avatars.slack-edge.com/2025-07-29/9273198962082_be6dc9c02739ad68ea28_original.png", "custom_css": null}, {"id": 19953, "slack_id": "U079DJP17EG", "display_name": "Eesha V", "bio": null, "projects_count": 0, "devlogs_count": 0, "votes_count": 0, "ships_count": 0, "projects": [], "coding_time_seconds": 0, "coding_time_seconds_today": 0, "balance": "You need to have a pocket watcher badge to view this.", "badges": [], "created_at": "2025-07-29T13:42:53.449-04:00", "updated_at": "2025-09-08T03:45:25.117-04:00", "avatar": "https://avatars.slack-edge.com/2025-09-07/9461353762775_250ebc705971bce2c513_original.png", "custom_css": null}, {"id": 19954, "slack_id": "U098230T2CC", "display_name": "Subhasis Jena", "bio": null, "projects_count": 0, "devlogs_count": 0, "votes_count": 0, "ships_count": 0, "projects": [], "coding_time_seconds": 0, "coding_time_seconds_today": 0, "balance": "You need to have a pocket watcher badge to view this.", "badges": [], "created_at": "2025-07-29T13:48:21.072-04:00", "updated_at": "2025-07-30T09:51:05.603-04:00", "avatar": "https://avatars.slack-edge.com/2025-07-29/9257692756023_9def5b9c68ec57d8d2a5_original.jpg", "custom_css": null}, {"id": 19955, "slack_id": "U0981785DSN", "display_name": "Mahi", "bio": null, "projects_count": 0, "devlogs_count": 0, "votes_count": 0, "ships_count": 0, "projects": [], "coding_time_seconds": 0, "coding_time_seconds_today": 0, "balance": "You need to have a pocket watcher badge to view this.", "badges": [], "created_at": "2025-07-29T13:49:35.107-04:00", "updated_at": "2025-07-30T09:51:05.719-04:00", "avatar": "https://secure.gravatar.com/avatar/3c0e5499008f0cf3cea2b9bd06953cf3.jpg?s=512&d=https%3A%2F%2Fa.slack-edge.com%2Fdf10d%2Fimg%2Favatars%2Fava_0009-512.png", "custom_css": null}, {"id": 19956, "slack_id": "U097KLJ4KEK", "display_name": "Maldavius Figtree", "bio": null, "projects_count": 0, "devlogs_count": 0, "votes_count": 0, "ships_count": 0, "projects": [], "coding_time_seconds": 0, "coding_time_seconds_today": 0, "balance": "You need to have a pocket watcher badge to view this.", "badges": [], "created_at": "2025-07-29T13:53:11.724-04:00", "updated_at": "2025-07-30T09:51:05.879-04:00", "avatar": "https://secure.gravatar.com/avatar/d379421929daeb35a5fbb33e8c32553c.jpg?s=512&d=https%3A%2F%2Fa.slack-edge.com%2Fdf10d%2Fimg%2Favatars%2Fava_0002-512.png", "custom_css": null}, {"id": 19957, "slack_id": "U07FSS6MNAC", "display_name": "DiamondDudz", "bio": null, "projects_count": 0, "devlogs_count": 0, "votes_count": 0, "ships_count": 0, "projects": [], "coding_time_seconds": 0, "coding_time_seconds_today": 0, "balance": "You need to have a pocket watcher badge to view this.", "badges": [], "created_at": "2025-07-29T14:08:01.953-04:00", "updated_at": "2025-07-29T14:08:06.630-04:00", "avatar": "https://secure.gravatar.com/avatar/073a2a1c5760a3f18b93334f952376af.jpg?s=512&d=https%3A%2F%2Fa.slack-edge.com%2Fdf10d%2Fimg%2Favatars%2Fava_0008-512.png", "custom_css": null}, {"id": 19958, "slack_id": "U096X0VJQ2W", "display_name": "shoto", "bio": null, "projects_count": 0, "devlogs_count": 0, "votes_count": 0, "ships_count": 0, "projects": [], "coding_time_seconds": 0, "coding_time_seconds_today": 0, "balance": "You need to have a pocket watcher badge to view this.", "badges": [], "created_at": "2025-07-29T14:10:53.651-04:00", "updated_at": "2025-07-30T09:51:14.244-04:00", "avatar": "https://avatars.slack-edge.com/2025-07-29/9257829024775_3d8cd7724942b19be843_original.png", "custom_css": null}, {"id": 19959, "slack_id": "U097XR1AYA2", "display_name": "Aaron Wu", "bio": null, "projects_count": 0, "devlogs_count": 0, "votes_count": 0, "ships_count": 0, "projects": [], "coding_time_seconds": 0, "coding_time_seconds_today": 0, "balance": "You need to have a pocket watcher badge to view this.", "badges": [], "created_at": "2025-07-29T14:14:18.445-04:00", "updated_at": "2025-07-30T09:51:14.363-04:00", "avatar": "https://secure.gravatar.com/avatar/d62b9c0b95ca53f5099a3a7244d0d50b.jpg?s=512&d=https%3A%2F%2Fa.slack-edge.com%2Fdf10d%2Fimg%2Favatars%2Fava_0012-512.png", "custom_css": null}, {"id": 19960, "slack_id": "U098FP11F3K", "display_name": "Maldavious Figtree", "bio": null, "projects_count": 0, "devlogs_count": 0, "votes_count": 0, "ships_count": 0, "projects": [], "coding_time_seconds": 0, "coding_time_seconds_today": 0, "balance": "You need to have a pocket watcher badge to view this.", "badges": [], "created_at": "2025-07-29T14:19:30.175-04:00", "updated_at": "2025-07-30T09:51:14.463-04:00", "avatar": "https://avatars.slack-edge.com/2025-07-29/9257884777111_e4e3bcfd1939df4de274_original.png", "custom_css": null}, {"id": 19961, "slack_id": "U097ZF86DHB", "display_name": "Grant Garbe", "bio": null, "projects_count": 0, "devlogs_count": 0, "votes_count": 0, "ships_count": 0, "projects": [], "coding_time_seconds": 0, "coding_time_seconds_today": 0, "balance": "You need to have a pocket watcher badge to view this.", "badges": [], "created_at": "2025-07-29T14:32:13.478-04:00", "updated_at": "2025-07-30T09:51:14.585-04:00", "avatar": "https://secure.gravatar.com/avatar/d3cdf486f596673e7e14c382b635e25e.jpg?s=512&d=https%3A%2F%2Fa.slack-edge.com%2Fdf10d%2Fimg%2Favatars%2Fava_0023-512.png", "custom_css": null}, {"id": 19962, "slack_id": "U097E6MBGPR", "display_name": "Ewan M", "bio": "", "projects_count": 2, "devlogs_count": 33, "votes_count": 43, "ships_count": 1, "projects": [{"id": 13604, "title": "Aenigmatis", "devlogs_count": 7, "created_at": "2025-09-20T16:14:09.644-04:00"}, {"id": 8894, "title": "Loquelis", "devlogs_count": 26, "created_at": "2025-07-29T15:25:08.579-04:00"}], "coding_time_seconds": 216825, "coding_time_seconds_today": 0, "balance": "You need to have a pocket watcher badge to view this.", "badges": [], "created_at": "2025-07-29T14:36:49.467-04:00", "updated_at": "2025-08-20T09:47:38.953-04:00", "avatar": "https://avatars.slack-edge.com/2025-08-20/9378895831669_3c926c9688ac0249b27d_original.webp", "custom_css": null}, {"id": 19963, "slack_id": "U097WN7QP6X", "display_name": "Uleko Samuel", "bio": null, "projects_count": 0, "devlogs_count": 0, "votes_count": 0, "ships_count": 0, "projects": [], "coding_time_seconds": 39221, "coding_time_seconds_today": 0, "balance": "You need to have a pocket watcher badge to view this.", "badges": [], "created_at": "2025-07-29T14:39:26.518-04:00", "updated_at": "2025-07-30T09:51:14.830-04:00", "avatar": "https://avatars.slack-edge.com/2025-07-29/9271577637221_42fdeddd717d3884914b_original.png", "custom_css": null}, {"id": 19964, "slack_id": "U097ZHBDXAR", "display_name": "VIGNESH REDDY", "bio": null, "projects_count": 0, "devlogs_count": 0, "votes_count": 0, "ships_count": 0, "projects": [], "coding_time_seconds": 0, "coding_time_seconds_today": 0, "balance": "You need to have a pocket watcher badge to view this.", "badges": [], "created_at": "2025-07-29T14:44:25.574-04:00", "updated_at": "2025-07-30T09:51:14.946-04:00", "avatar": "https://secure.gravatar.com/avatar/b2dac0576ee3f174a291eec63fe84f37.jpg?s=512&d=https%3A%2F%2Fa.slack-edge.com%2Fdf10d%2Fimg%2Favatars%2Fava_0001-512.png", "custom_css": null}, {"id": 19965, "slack_id": "U097Y1G7TTQ", "display_name": "Ruby", "bio": null, "projects_count": 1, "devlogs_count": 0, "votes_count": 0, "ships_count": 0, "projects": [{"id": 9004, "title": "NoBuddy", "devlogs_count": 0, "created_at": "2025-07-30T06:39:00.536-04:00"}], "coding_time_seconds": 31432, "coding_time_seconds_today": 0, "balance": "You need to have a pocket watcher badge to view this.", "badges": [], "created_at": "2025-07-29T14:49:10.506-04:00", "updated_at": "2025-07-30T09:51:16.085-04:00", "avatar": "https://secure.gravatar.com/avatar/ebf76c4a8320c99ec9d8bbf24ea7eecc.jpg?s=512&d=https%3A%2F%2Fa.slack-edge.com%2Fdf10d%2Fimg%2Favatars%2Fava_0019-512.png", "custom_css": null}], "pagination": {"page": 994, "pages": 1192, "count": 23828, "items": 20}}