{"users": [{"id": 19966, "slack_id": "U097Y1V1LKY", "display_name": "Ansh", "bio": null, "projects_count": 0, "devlogs_count": 0, "votes_count": 0, "ships_count": 0, "projects": [], "coding_time_seconds": 0, "coding_time_seconds_today": 0, "balance": "You need to have a pocket watcher badge to view this.", "badges": [], "created_at": "2025-07-29T14:53:52.838-04:00", "updated_at": "2025-07-30T09:51:16.198-04:00", "avatar": "https://avatars.slack-edge.com/2025-07-29/9273616210834_641baeee2ca899c291a6_original.png", "custom_css": null}, {"id": 19967, "slack_id": "U098PE487LY", "display_name": "Himesha Pathirana", "bio": null, "projects_count": 0, "devlogs_count": 0, "votes_count": 0, "ships_count": 0, "projects": [], "coding_time_seconds": 0, "coding_time_seconds_today": 0, "balance": "You need to have a pocket watcher badge to view this.", "badges": [], "created_at": "2025-07-29T14:56:14.945-04:00", "updated_at": "2025-07-30T09:51:16.306-04:00", "avatar": "https://avatars.slack-edge.com/2025-07-29/9288010318017_17fe0825c99e060a0428_original.jpg", "custom_css": null}, {"id": 19968, "slack_id": "U098FV823EV", "display_name": "Ivy.", "bio": null, "projects_count": 3, "devlogs_count": 0, "votes_count": 0, "ships_count": 0, "projects": [{"id": 8927, "title": "Chorus", "devlogs_count": 0, "created_at": "2025-07-29T18:41:43.670-04:00"}, {"id": 9355, "title": "Mixify", "devlogs_count": 0, "created_at": "2025-07-31T18:55:17.508-04:00"}, {"id": 9356, "title": "Mixify", "devlogs_count": 0, "created_at": "2025-07-31T18:55:17.523-04:00"}], "coding_time_seconds": 4830, "coding_time_seconds_today": 0, "balance": "You need to have a pocket watcher badge to view this.", "badges": [], "created_at": "2025-07-29T14:57:32.603-04:00", "updated_at": "2025-07-30T09:51:16.451-04:00", "avatar": "https://avatars.slack-edge.com/2025-07-29/9274747896484_35fd9a7726f832953df3_original.jpg", "custom_css": null}, {"id": 19969, "slack_id": "U097L262BDM", "display_name": "Vidhatu Patel", "bio": null, "projects_count": 0, "devlogs_count": 0, "votes_count": 0, "ships_count": 0, "projects": [], "coding_time_seconds": 0, "coding_time_seconds_today": 0, "balance": "You need to have a pocket watcher badge to view this.", "badges": [], "created_at": "2025-07-29T14:59:21.611-04:00", "updated_at": "2025-07-30T09:51:16.579-04:00", "avatar": "https://secure.gravatar.com/avatar/057da003abb7b88828727d3bf180efec.jpg?s=512&d=https%3A%2F%2Fa.slack-edge.com%2Fdf10d%2Fimg%2Favatars%2Fava_0002-512.png", "custom_css": null}, {"id": 19970, "slack_id": "U093JE0GJ2J", "display_name": "Angel Macas", "bio": null, "projects_count": 0, "devlogs_count": 0, "votes_count": 0, "ships_count": 0, "projects": [], "coding_time_seconds": 0, "coding_time_seconds_today": 0, "balance": "You need to have a pocket watcher badge to view this.", "badges": [], "created_at": "2025-07-29T15:00:48.996-04:00", "updated_at": "2025-07-30T09:51:16.693-04:00", "avatar": "https://avatars.slack-edge.com/2025-07-29/9273658913890_c689685c1ce8fcf17636_original.jpg", "custom_css": null}, {"id": 19971, "slack_id": "U098PFQEFC0", "display_name": "Arpit", "bio": null, "projects_count": 0, "devlogs_count": 0, "votes_count": 0, "ships_count": 0, "projects": [], "coding_time_seconds": 0, "coding_time_seconds_today": 0, "balance": "You need to have a pocket watcher badge to view this.", "badges": [], "created_at": "2025-07-29T15:02:15.452-04:00", "updated_at": "2025-07-30T09:51:16.826-04:00", "avatar": "https://avatars.slack-edge.com/2025-07-29/9295534993552_f009209e051dd7d632cc_original.png", "custom_css": null}, {"id": 19972, "slack_id": "U098PFPPNLQ", "display_name": "Rudy Deana", "bio": null, "projects_count": 1, "devlogs_count": 0, "votes_count": 4, "ships_count": 0, "projects": [{"id": 8898, "title": "Advanced Agricolture", "devlogs_count": 0, "created_at": "2025-07-29T15:33:58.319-04:00"}], "coding_time_seconds": 43980, "coding_time_seconds_today": 0, "balance": "You need to have a pocket watcher badge to view this.", "badges": [], "created_at": "2025-07-29T15:04:54.404-04:00", "updated_at": "2025-07-30T09:51:16.931-04:00", "avatar": "https://secure.gravatar.com/avatar/cd84ffaf5f77014229821464f09003bb.jpg?s=512&d=https%3A%2F%2Fa.slack-edge.com%2Fdf10d%2Fimg%2Favatars%2Fava_0023-512.png", "custom_css": null}, {"id": 19973, "slack_id": "U097WUB81FD", "display_name": "Akash", "bio": null, "projects_count": 0, "devlogs_count": 0, "votes_count": 0, "ships_count": 0, "projects": [], "coding_time_seconds": 0, "coding_time_seconds_today": 0, "balance": "You need to have a pocket watcher badge to view this.", "badges": [], "created_at": "2025-07-29T15:12:40.755-04:00", "updated_at": "2025-07-30T09:51:17.033-04:00", "avatar": "https://avatars.slack-edge.com/2025-07-29/9268963923715_490105a4602ecb6a37b9_original.png", "custom_css": null}, {"id": 19974, "slack_id": "U0823F39GV8", "display_name": "AVD", "bio": null, "projects_count": 1, "devlogs_count": 4, "votes_count": 5, "ships_count": 0, "projects": [{"id": 13682, "title": "My Portfolio", "devlogs_count": 1, "created_at": "2025-09-22T20:47:11.037-04:00"}], "coding_time_seconds": 399367, "coding_time_seconds_today": 0, "balance": "You need to have a pocket watcher badge to view this.", "badges": [{"name": "Maiden Voyage", "text": "you shipped your first project! the journey begins...", "icon": "\ud83d\udea2"}, {"name": "<%= admin_tool do %>", "text": "with great power comes great responsibility... and a ban hammer.", "icon": "\ud83d\udd28"}], "created_at": "2025-07-29T15:23:02.507-04:00", "updated_at": "2025-09-23T18:15:40.659-04:00", "avatar": "https://avatars.slack-edge.com/2025-06-10/9030627660434_d6a0f0291479dc6a612a_original.jpg", "custom_css": null}, {"id": 19975, "slack_id": "U098PJ9Q37A", "display_name": "Eoin Humphries", "bio": null, "projects_count": 0, "devlogs_count": 0, "votes_count": 0, "ships_count": 0, "projects": [], "coding_time_seconds": 91, "coding_time_seconds_today": 0, "balance": "You need to have a pocket watcher badge to view this.", "badges": [], "created_at": "2025-07-29T15:23:24.308-04:00", "updated_at": "2025-07-30T09:51:17.272-04:00", "avatar": "https://secure.gravatar.com/avatar/5acd1887e087dcc8fe1d3532c26f886f.jpg?s=512&d=https%3A%2F%2Fa.slack-edge.com%2Fdf10d%2Fimg%2Favatars%2Fava_0014-512.png", "custom_css": null}, {"id": 19976, "slack_id": "U097Y60KUTG", "display_name": "Gayatri Jhade", "bio": null, "projects_count": 0, "devlogs_count": 0, "votes_count": 0, "ships_count": 0, "projects": [], "coding_time_seconds": 0, "coding_time_seconds_today": 0, "balance": "You need to have a pocket watcher badge to view this.", "badges": [], "created_at": "2025-07-29T15:24:22.229-04:00", "updated_at": "2025-07-30T09:51:17.388-04:00", "avatar": "https://secure.gravatar.com/avatar/a33b7c0f2ea7932e6ba236e689072b1a.jpg?s=512&d=https%3A%2F%2Fa.slack-edge.com%2Fdf10d%2Fimg%2Favatars%2Fava_0015-512.png", "custom_css": null}, {"id": 19977, "slack_id": "U09751T565D", "display_name": "eric paul", "bio": null, "projects_count": 0, "devlogs_count": 0, "votes_count": 0, "ships_count": 0, "projects": [], "coding_time_seconds": 0, "coding_time_seconds_today": 0, "balance": "You need to have a pocket watcher badge to view this.", "badges": [], "created_at": "2025-07-29T15:39:12.083-04:00", "updated_at": "2025-07-30T09:51:17.495-04:00", "avatar": "https://avatars.slack-edge.com/2025-07-29/9288255048177_52d020003ecc77dab260_original.png", "custom_css": null}, {"id": 19978, "slack_id": "U0975KTPBSB", "display_name": "Tiffany Zhang", "bio": null, "projects_count": 0, "devlogs_count": 0, "votes_count": 0, "ships_count": 0, "projects": [], "coding_time_seconds": 0, "coding_time_seconds_today": 0, "balance": "You need to have a pocket watcher badge to view this.", "badges": [], "created_at": "2025-07-29T15:49:10.625-04:00", "updated_at": "2025-07-30T09:51:17.599-04:00", "avatar": "https://avatars.slack-edge.com/2025-07-29/9295776793552_dc57f745745737ce65db_original.png", "custom_css": null}, {"id": 19979, "slack_id": "U098G95JPBK", "display_name": "Steven", "bio": null, "projects_count": 0, "devlogs_count": 0, "votes_count": 0, "ships_count": 0, "projects": [], "coding_time_seconds": 0, "coding_time_seconds_today": 0, "balance": "You need to have a pocket watcher badge to view this.", "badges": [], "created_at": "2025-07-29T15:53:02.694-04:00", "updated_at": "2025-07-30T09:51:17.696-04:00", "avatar": "https://secure.gravatar.com/avatar/874e1515d6942066b36641a18c0aee30.jpg?s=512&d=https%3A%2F%2Fa.slack-edge.com%2Fdf10d%2Fimg%2Favatars%2Fava_0002-512.png", "custom_css": null}, {"id": 19980, "slack_id": "U0982PDEQ1J", "display_name": "Marilyn", "bio": null, "projects_count": 0, "devlogs_count": 0, "votes_count": 0, "ships_count": 0, "projects": [], "coding_time_seconds": 69008, "coding_time_seconds_today": 0, "balance": "You need to have a pocket watcher badge to view this.", "badges": [], "created_at": "2025-07-29T15:59:46.039-04:00", "updated_at": "2025-07-30T09:51:17.812-04:00", "avatar": "https://secure.gravatar.com/avatar/888344820285424dcef555b1ec342a25.jpg?s=512&d=https%3A%2F%2Fa.slack-edge.com%2Fdf10d%2Fimg%2Favatars%2Fava_0012-512.png", "custom_css": null}, {"id": 19981, "slack_id": "U097LD41PLP", "display_name": "Cassius C", "bio": null, "projects_count": 0, "devlogs_count": 0, "votes_count": 0, "ships_count": 0, "projects": [], "coding_time_seconds": 0, "coding_time_seconds_today": 0, "balance": "You need to have a pocket watcher badge to view this.", "badges": [], "created_at": "2025-07-29T16:09:10.884-04:00", "updated_at": "2025-08-07T11:43:19.687-04:00", "avatar": "https://avatars.slack-edge.com/2025-07-29/9269282122259_6b9129d6dc56914814c9_original.png", "custom_css": null}, {"id": 19982, "slack_id": "U082F5F9887", "display_name": "Johannes Landbo", "bio": null, "projects_count": 0, "devlogs_count": 0, "votes_count": 0, "ships_count": 0, "projects": [], "coding_time_seconds": 219666, "coding_time_seconds_today": 0, "balance": "You need to have a pocket watcher badge to view this.", "badges": [], "created_at": "2025-07-29T16:11:51.518-04:00", "updated_at": "2025-07-30T09:51:18.047-04:00", "avatar": "https://avatars.slack-edge.com/2025-06-27/9106435138102_34468752ed5ddba043a9_original.jpg", "custom_css": null}, {"id": 19983, "slack_id": "U0980300LBF", "display_name": "Ada Jiang", "bio": "i like to eat", "projects_count": 1, "devlogs_count": 1, "votes_count": 1, "ships_count": 0, "projects": [{"id": 8919, "title": "yumyumcafegame", "devlogs_count": 1, "created_at": "2025-07-29T16:50:28.935-04:00"}], "coding_time_seconds": 29403, "coding_time_seconds_today": 0, "balance": "You need to have a pocket watcher badge to view this.", "badges": [], "created_at": "2025-07-29T16:25:54.300-04:00", "updated_at": "2025-07-30T10:17:27.386-04:00", "avatar": "https://secure.gravatar.com/avatar/95fbd2323e984c079b53578114b15d15.jpg?s=512&d=https%3A%2F%2Fa.slack-edge.com%2Fdf10d%2Fimg%2Favatars%2Fava_0004-512.png", "custom_css": null}, {"id": 19984, "slack_id": "U0982T2UU2Y", "display_name": "HAFANK", "bio": null, "projects_count": 0, "devlogs_count": 0, "votes_count": 0, "ships_count": 0, "projects": [], "coding_time_seconds": 0, "coding_time_seconds_today": 0, "balance": "You need to have a pocket watcher badge to view this.", "badges": [], "created_at": "2025-07-29T16:26:13.289-04:00", "updated_at": "2025-07-30T09:51:18.253-04:00", "avatar": "https://avatars.slack-edge.com/2025-07-29/9272195311365_7c2789f0d3ab11646e57_original.jpg", "custom_css": null}, {"id": 19985, "slack_id": "U08KR74D1UN", "display_name": "Pranav", "bio": null, "projects_count": 0, "devlogs_count": 0, "votes_count": 0, "ships_count": 0, "projects": [], "coding_time_seconds": 393926, "coding_time_seconds_today": 0, "balance": "You need to have a pocket watcher badge to view this.", "badges": [], "created_at": "2025-07-29T16:40:19.033-04:00", "updated_at": "2025-07-30T09:51:18.374-04:00", "avatar": "https://secure.gravatar.com/avatar/be712a8ea4d5db27c5b8f15ba8388e0e.jpg?s=512&d=https%3A%2F%2Fa.slack-edge.com%2Fdf10d%2Fimg%2Favatars%2Fava_0013-512.png", "custom_css": null}], "pagination": {"page": 995, "pages": 1192, "count": 23828, "items": 20}}