{"users": [{"id": 19986, "slack_id": "U098GJ1M4JV", "display_name": "Muhammad", "bio": null, "projects_count": 0, "devlogs_count": 0, "votes_count": 0, "ships_count": 0, "projects": [], "coding_time_seconds": 0, "coding_time_seconds_today": 0, "balance": "You need to have a pocket watcher badge to view this.", "badges": [], "created_at": "2025-07-29T16:49:14.603-04:00", "updated_at": "2025-08-03T09:57:48.026-04:00", "avatar": "https://avatars.slack-edge.com/2025-08-03/9293395025334_0dc9659b1fad47b69857_original.jpg", "custom_css": null}, {"id": 19987, "slack_id": "U09814JCRJQ", "display_name": "Aarush", "bio": null, "projects_count": 0, "devlogs_count": 0, "votes_count": 0, "ships_count": 0, "projects": [], "coding_time_seconds": 0, "coding_time_seconds_today": 0, "balance": "You need to have a pocket watcher badge to view this.", "badges": [], "created_at": "2025-07-29T17:19:48.834-04:00", "updated_at": "2025-07-30T09:51:18.591-04:00", "avatar": "https://secure.gravatar.com/avatar/35144bfbd8ca4feb82c6e70632a43641.jpg?s=512&d=https%3A%2F%2Fa.slack-edge.com%2Fdf10d%2Fimg%2Favatars%2Fava_0016-512.png", "custom_css": null}, {"id": 19988, "slack_id": "U097XKY5HH9", "display_name": "Sena", "bio": null, "projects_count": 0, "devlogs_count": 0, "votes_count": 0, "ships_count": 0, "projects": [], "coding_time_seconds": 0, "coding_time_seconds_today": 0, "balance": "You need to have a pocket watcher badge to view this.", "badges": [], "created_at": "2025-07-29T17:40:09.402-04:00", "updated_at": "2025-07-30T09:51:18.699-04:00", "avatar": "https://secure.gravatar.com/avatar/b36ae2eb86cc55d3ad5343130efb5858.jpg?s=512&d=https%3A%2F%2Fa.slack-edge.com%2Fdf10d%2Fimg%2Favatars%2Fava_0018-512.png", "custom_css": null}, {"id": 19989, "slack_id": "U098GRH7D4H", "display_name": "Avaleigh Chenery", "bio": null, "projects_count": 0, "devlogs_count": 0, "votes_count": 0, "ships_count": 0, "projects": [], "coding_time_seconds": 6681, "coding_time_seconds_today": 0, "balance": "You need to have a pocket watcher badge to view this.", "badges": [], "created_at": "2025-07-29T17:40:47.740-04:00", "updated_at": "2025-07-30T09:51:18.815-04:00", "avatar": "https://secure.gravatar.com/avatar/c342572e36eb178be53fa3b75519bded.jpg?s=512&d=https%3A%2F%2Fa.slack-edge.com%2Fdf10d%2Fimg%2Favatars%2Fava_0026-512.png", "custom_css": null}, {"id": 19990, "slack_id": "U097YQX151C", "display_name": "Milagros Galvan", "bio": null, "projects_count": 0, "devlogs_count": 0, "votes_count": 0, "ships_count": 0, "projects": [], "coding_time_seconds": 0, "coding_time_seconds_today": 0, "balance": "You need to have a pocket watcher badge to view this.", "badges": [], "created_at": "2025-07-29T17:41:07.307-04:00", "updated_at": "2025-07-30T09:51:18.910-04:00", "avatar": "https://avatars.slack-edge.com/2025-07-29/9272484295349_717c777bc398dadfbdd1_original.jpg", "custom_css": null}, {"id": 19991, "slack_id": "U09838H77HS", "display_name": "Nour El Houda", "bio": null, "projects_count": 0, "devlogs_count": 0, "votes_count": 0, "ships_count": 0, "projects": [], "coding_time_seconds": 0, "coding_time_seconds_today": 0, "balance": "You need to have a pocket watcher badge to view this.", "badges": [], "created_at": "2025-07-29T17:47:12.228-04:00", "updated_at": "2025-07-30T09:51:19.010-04:00", "avatar": "https://secure.gravatar.com/avatar/c70c84b6b66f00ca3c1545f06fde5b80.jpg?s=512&d=https%3A%2F%2Fa.slack-edge.com%2Fdf10d%2Fimg%2Favatars%2Fava_0012-512.png", "custom_css": null}, {"id": 19992, "slack_id": "U097LSBCQF9", "display_name": "Viswa", "bio": null, "projects_count": 0, "devlogs_count": 0, "votes_count": 0, "ships_count": 0, "projects": [], "coding_time_seconds": 0, "coding_time_seconds_today": 0, "balance": "You need to have a pocket watcher badge to view this.", "badges": [], "created_at": "2025-07-29T17:47:25.760-04:00", "updated_at": "2025-07-30T09:51:19.120-04:00", "avatar": "https://secure.gravatar.com/avatar/90e286e722f81e56070c20c74cd8a510.jpg?s=512&d=https%3A%2F%2Fa.slack-edge.com%2Fdf10d%2Fimg%2Favatars%2Fava_0006-512.png", "custom_css": null}, {"id": 19993, "slack_id": "U093MR3QJCC", "display_name": "Danny", "bio": null, "projects_count": 0, "devlogs_count": 0, "votes_count": 0, "ships_count": 0, "projects": [], "coding_time_seconds": 0, "coding_time_seconds_today": 0, "balance": "You need to have a pocket watcher badge to view this.", "badges": [], "created_at": "2025-07-29T17:48:06.344-04:00", "updated_at": "2025-07-30T09:51:19.226-04:00", "avatar": "https://secure.gravatar.com/avatar/277a98e11b73187bd382c4337e2af3cb.jpg?s=512&d=https%3A%2F%2Fa.slack-edge.com%2Fdf10d%2Fimg%2Favatars%2Fava_0012-512.png", "custom_css": null}, {"id": 19994, "slack_id": "U098GUX94GZ", "display_name": "PQcat", "bio": ":3", "projects_count": 2, "devlogs_count": 2, "votes_count": 3, "ships_count": 2, "projects": [{"id": 10221, "title": "ThunderFinder", "devlogs_count": 1, "created_at": "2025-08-05T05:31:35.506-04:00"}, {"id": 10260, "title": "Sudokupro", "devlogs_count": 1, "created_at": "2025-08-05T12:10:05.996-04:00"}], "coding_time_seconds": 5866, "coding_time_seconds_today": 0, "balance": "You need to have a pocket watcher badge to view this.", "badges": [], "created_at": "2025-07-29T18:17:39.911-04:00", "updated_at": "2025-08-12T15:13:56.711-04:00", "avatar": "https://secure.gravatar.com/avatar/e1f1b31d85c7bf8fbd1e56b4123cfcf9.jpg?s=512&d=https%3A%2F%2Fa.slack-edge.com%2Fdf10d%2Fimg%2Favatars%2Fava_0023-512.png", "custom_css": null}, {"id": 19995, "slack_id": "U0980HLE7GV", "display_name": "Rahel Tesfaye", "bio": null, "projects_count": 0, "devlogs_count": 0, "votes_count": 0, "ships_count": 0, "projects": [], "coding_time_seconds": 0, "coding_time_seconds_today": 0, "balance": "You need to have a pocket watcher badge to view this.", "badges": [], "created_at": "2025-07-29T18:22:58.488-04:00", "updated_at": "2025-07-30T09:51:19.416-04:00", "avatar": "https://avatars.slack-edge.com/2025-07-29/9289043666177_5ed0eebfd759c76b1413_original.png", "custom_css": null}, {"id": 19996, "slack_id": "U097JUCC6HM", "display_name": "Joseph DeLuca", "bio": null, "projects_count": 0, "devlogs_count": 0, "votes_count": 0, "ships_count": 0, "projects": [], "coding_time_seconds": 12102, "coding_time_seconds_today": 0, "balance": "You need to have a pocket watcher badge to view this.", "badges": [], "created_at": "2025-07-29T18:51:02.042-04:00", "updated_at": "2025-07-30T11:03:26.159-04:00", "avatar": "https://secure.gravatar.com/avatar/21edc7020b3b9217fdd89850f10ac899.jpg?s=512&d=https%3A%2F%2Fa.slack-edge.com%2Fdf10d%2Fimg%2Favatars%2Fava_0014-512.png", "custom_css": null}, {"id": 19997, "slack_id": "U097M3PEKU7", "display_name": "Drew Jones", "bio": null, "projects_count": 0, "devlogs_count": 0, "votes_count": 0, "ships_count": 0, "projects": [], "coding_time_seconds": 0, "coding_time_seconds_today": 0, "balance": "You need to have a pocket watcher badge to view this.", "badges": [], "created_at": "2025-07-29T18:52:39.769-04:00", "updated_at": "2025-07-30T09:51:23.658-04:00", "avatar": "https://secure.gravatar.com/avatar/26fada1564fb1c49ed51edc88d9da3f7.jpg?s=512&d=https%3A%2F%2Fa.slack-edge.com%2Fdf10d%2Fimg%2Favatars%2Fava_0023-512.png", "custom_css": null}, {"id": 19998, "slack_id": "U07QKEMD7R9", "display_name": "Hitu", "bio": null, "projects_count": 2, "devlogs_count": 2, "votes_count": 6, "ships_count": 2, "projects": [{"id": 9117, "title": "TuiType", "devlogs_count": 1, "created_at": "2025-07-30T16:45:25.054-04:00"}, {"id": 9119, "title": "TShare", "devlogs_count": 1, "created_at": "2025-07-30T16:46:16.106-04:00"}], "coding_time_seconds": 252010, "coding_time_seconds_today": 0, "balance": "You need to have a pocket watcher badge to view this.", "badges": [], "created_at": "2025-07-29T19:00:42.641-04:00", "updated_at": "2025-07-31T10:01:59.910-04:00", "avatar": "https://avatars.slack-edge.com/2024-10-05/7835499148819_98a05fa221670c74fdcd_original.gif", "custom_css": null}, {"id": 19999, "slack_id": "U0983G03CDS", "display_name": "Aryan Salian", "bio": null, "projects_count": 0, "devlogs_count": 0, "votes_count": 0, "ships_count": 0, "projects": [], "coding_time_seconds": 0, "coding_time_seconds_today": 0, "balance": "You need to have a pocket watcher badge to view this.", "badges": [], "created_at": "2025-07-29T19:01:45.731-04:00", "updated_at": "2025-07-30T09:51:23.950-04:00", "avatar": "https://secure.gravatar.com/avatar/ffd626b5d3716190a3ba534c76cfc38c.jpg?s=512&d=https%3A%2F%2Fa.slack-edge.com%2Fdf10d%2Fimg%2Favatars%2Fava_0015-512.png", "custom_css": null}, {"id": 20000, "slack_id": "U098H4ZCH7T", "display_name": "Amanda L.", "bio": null, "projects_count": 0, "devlogs_count": 0, "votes_count": 0, "ships_count": 0, "projects": [], "coding_time_seconds": 95216, "coding_time_seconds_today": 0, "balance": "You need to have a pocket watcher badge to view this.", "badges": [], "created_at": "2025-07-29T19:06:22.151-04:00", "updated_at": "2025-07-31T21:56:21.740-04:00", "avatar": "https://avatars.slack-edge.com/2025-07-31/9285794016757_51042c67f1ff94ab0ca8_original.png", "custom_css": null}, {"id": 20001, "slack_id": "U0983EC8LBW", "display_name": "Salom\u00e3o Campagna", "bio": null, "projects_count": 0, "devlogs_count": 0, "votes_count": 0, "ships_count": 0, "projects": [], "coding_time_seconds": 0, "coding_time_seconds_today": 0, "balance": "You need to have a pocket watcher badge to view this.", "badges": [], "created_at": "2025-07-29T19:09:10.949-04:00", "updated_at": "2025-07-30T09:51:24.185-04:00", "avatar": "https://avatars.slack-edge.com/2025-07-29/9270039248499_cc59f1fec64877d86a25_original.jpg", "custom_css": null}, {"id": 20002, "slack_id": "U094C33DQLX", "display_name": "Luciana Liu", "bio": null, "projects_count": 0, "devlogs_count": 0, "votes_count": 0, "ships_count": 0, "projects": [], "coding_time_seconds": 0, "coding_time_seconds_today": 0, "balance": "You need to have a pocket watcher badge to view this.", "badges": [], "created_at": "2025-07-29T19:11:16.685-04:00", "updated_at": "2025-07-30T09:51:24.287-04:00", "avatar": "https://secure.gravatar.com/avatar/a13f61956c8c8e0295b54f9f8ae9db70.jpg?s=512&d=https%3A%2F%2Fa.slack-edge.com%2Fdf10d%2Fimg%2Favatars%2Fava_0016-512.png", "custom_css": null}, {"id": 20003, "slack_id": "U0982NTQZRQ", "display_name": "William", "bio": null, "projects_count": 0, "devlogs_count": 0, "votes_count": 0, "ships_count": 0, "projects": [], "coding_time_seconds": 0, "coding_time_seconds_today": 0, "balance": "You need to have a pocket watcher badge to view this.", "badges": [], "created_at": "2025-07-29T19:21:38.114-04:00", "updated_at": "2025-07-30T09:51:24.392-04:00", "avatar": "https://secure.gravatar.com/avatar/c8465a4456623b98f701c42bc678d5f1.jpg?s=512&d=https%3A%2F%2Fa.slack-edge.com%2Fdf10d%2Fimg%2Favatars%2Fava_0022-512.png", "custom_css": null}, {"id": 20004, "slack_id": "U0980P749QV", "display_name": "Jacob Hull", "bio": null, "projects_count": 0, "devlogs_count": 0, "votes_count": 0, "ships_count": 0, "projects": [], "coding_time_seconds": 120, "coding_time_seconds_today": 0, "balance": "You need to have a pocket watcher badge to view this.", "badges": [], "created_at": "2025-07-29T19:21:38.730-04:00", "updated_at": "2025-07-30T09:51:24.509-04:00", "avatar": "https://secure.gravatar.com/avatar/9b8b1d1c5853069b2c3316b832ad4027.jpg?s=512&d=https%3A%2F%2Fa.slack-edge.com%2Fdf10d%2Fimg%2Favatars%2Fava_0018-512.png", "custom_css": null}, {"id": 20005, "slack_id": "U097M7KN81M", "display_name": "Justin Paver", "bio": null, "projects_count": 0, "devlogs_count": 0, "votes_count": 0, "ships_count": 0, "projects": [], "coding_time_seconds": 961, "coding_time_seconds_today": 0, "balance": "You need to have a pocket watcher badge to view this.", "badges": [], "created_at": "2025-07-29T19:37:20.918-04:00", "updated_at": "2025-07-30T09:51:24.658-04:00", "avatar": "https://avatars.slack-edge.com/2025-07-29/9296681975952_104ecc50ea19e7171157_original.png", "custom_css": null}], "pagination": {"page": 996, "pages": 1192, "count": 23828, "items": 20}}