{"users": [{"id": 20006, "slack_id": "U0982QA8Q3U", "display_name": "Wyatt Lipinski", "bio": null, "projects_count": 0, "devlogs_count": 0, "votes_count": 0, "ships_count": 0, "projects": [], "coding_time_seconds": 9599, "coding_time_seconds_today": 0, "balance": "You need to have a pocket watcher badge to view this.", "badges": [], "created_at": "2025-07-29T19:40:01.918-04:00", "updated_at": "2025-07-30T09:51:24.799-04:00", "avatar": "https://avatars.slack-edge.com/2025-07-29/9270131280723_509d16bb6fbbdab47df3_original.png", "custom_css": null}, {"id": 20007, "slack_id": "U097M8JCGH5", "display_name": "Sahith", "bio": null, "projects_count": 0, "devlogs_count": 0, "votes_count": 0, "ships_count": 0, "projects": [], "coding_time_seconds": 0, "coding_time_seconds_today": 0, "balance": "You need to have a pocket watcher badge to view this.", "badges": [], "created_at": "2025-07-29T19:47:42.968-04:00", "updated_at": "2025-08-03T12:06:04.750-04:00", "avatar": "https://secure.gravatar.com/avatar/b78e2f0c28bc8772e6a22d3745b27ff0.jpg?s=512&d=https%3A%2F%2Fa.slack-edge.com%2Fdf10d%2Fimg%2Favatars%2Fava_0008-512.png", "custom_css": null}, {"id": 20008, "slack_id": "U0982TX43T4", "display_name": "twonum public computer account", "bio": null, "projects_count": 0, "devlogs_count": 0, "votes_count": 0, "ships_count": 0, "projects": [], "coding_time_seconds": 0, "coding_time_seconds_today": 0, "balance": "You need to have a pocket watcher badge to view this.", "badges": [], "created_at": "2025-07-29T20:14:43.654-04:00", "updated_at": "2025-07-30T09:51:25.056-04:00", "avatar": "https://secure.gravatar.com/avatar/f79eaae90b950d657a3bb09c7ccabe45.jpg?s=512&d=https%3A%2F%2Fa.slack-edge.com%2Fdf10d%2Fimg%2Favatars%2Fava_0008-512.png", "custom_css": null}, {"id": 20009, "slack_id": "U095NJWBQLR", "display_name": "Danilo", "bio": null, "projects_count": 0, "devlogs_count": 0, "votes_count": 0, "ships_count": 0, "projects": [], "coding_time_seconds": 0, "coding_time_seconds_today": 0, "balance": "You need to have a pocket watcher badge to view this.", "badges": [], "created_at": "2025-07-29T20:27:17.644-04:00", "updated_at": "2025-07-29T20:34:36.220-04:00", "avatar": "https://secure.gravatar.com/avatar/e79a673d35e55fdaf0a7ad9510082f91.jpg?s=512&d=https%3A%2F%2Fa.slack-edge.com%2Fdf10d%2Fimg%2Favatars%2Fava_0023-512.png", "custom_css": null}, {"id": 20010, "slack_id": "U097LUXC8LF", "display_name": "Richie Bendall", "bio": null, "projects_count": 0, "devlogs_count": 0, "votes_count": 0, "ships_count": 0, "projects": [], "coding_time_seconds": 331301, "coding_time_seconds_today": 2233, "balance": "You need to have a pocket watcher badge to view this.", "badges": [], "created_at": "2025-07-29T20:36:40.124-04:00", "updated_at": "2025-07-30T17:32:02.230-04:00", "avatar": "https://secure.gravatar.com/avatar/9476a2bfb62f572fc000056ca01522e3.jpg?s=512&d=https%3A%2F%2Fa.slack-edge.com%2Fdf10d%2Fimg%2Favatars%2Fava_0004-512.png", "custom_css": null}, {"id": 20011, "slack_id": "U09830PAU9Y", "display_name": "V", "bio": null, "projects_count": 0, "devlogs_count": 0, "votes_count": 0, "ships_count": 0, "projects": [], "coding_time_seconds": 0, "coding_time_seconds_today": 0, "balance": "You need to have a pocket watcher badge to view this.", "badges": [], "created_at": "2025-07-29T20:42:40.243-04:00", "updated_at": "2025-07-30T09:51:25.325-04:00", "avatar": "https://secure.gravatar.com/avatar/01f113a21c8e0d8798c1c4206274337d.jpg?s=512&d=https%3A%2F%2Fa.slack-edge.com%2Fdf10d%2Fimg%2Favatars%2Fava_0004-512.png", "custom_css": null}, {"id": 20012, "slack_id": "U093RM57ZHA", "display_name": "kimacker", "bio": null, "projects_count": 0, "devlogs_count": 0, "votes_count": 0, "ships_count": 0, "projects": [], "coding_time_seconds": 0, "coding_time_seconds_today": 0, "balance": "You need to have a pocket watcher badge to view this.", "badges": [], "created_at": "2025-07-29T20:47:35.559-04:00", "updated_at": "2025-07-30T09:51:25.413-04:00", "avatar": "https://secure.gravatar.com/avatar/f7c2b4d1f117bd1dac9b57695eab5daf.jpg?s=512&d=https%3A%2F%2Fa.slack-edge.com%2Fdf10d%2Fimg%2Favatars%2Fava_0022-512.png", "custom_css": null}, {"id": 20013, "slack_id": "U07PKP0NPQ8", "display_name": "Amiya", "bio": null, "projects_count": 0, "devlogs_count": 0, "votes_count": 0, "ships_count": 0, "projects": [], "coding_time_seconds": 0, "coding_time_seconds_today": 0, "balance": "You need to have a pocket watcher badge to view this.", "badges": [], "created_at": "2025-07-29T21:12:11.618-04:00", "updated_at": "2025-07-29T21:12:31.401-04:00", "avatar": "https://secure.gravatar.com/avatar/8bfa10b63710fdf71a29ee44a4db9c3d.jpg?s=512&d=https%3A%2F%2Fa.slack-edge.com%2Fdf10d%2Fimg%2Favatars%2Fava_0002-512.png", "custom_css": null}, {"id": 20014, "slack_id": "U097MH7U44F", "display_name": "VIGNESH", "bio": null, "projects_count": 0, "devlogs_count": 7, "votes_count": 32, "ships_count": 0, "projects": [], "coding_time_seconds": 184821, "coding_time_seconds_today": 0, "balance": "You need to have a pocket watcher badge to view this.", "badges": [], "created_at": "2025-07-29T21:19:59.387-04:00", "updated_at": "2025-08-11T12:47:35.196-04:00", "avatar": "https://secure.gravatar.com/avatar/5d5d4ff089cb8ab08ae35110333e77f1.jpg?s=512&d=https%3A%2F%2Fa.slack-edge.com%2Fdf10d%2Fimg%2Favatars%2Fava_0000-512.png", "custom_css": null}, {"id": 20015, "slack_id": "U097MJ4E8H5", "display_name": "Sanjay Adhikari", "bio": null, "projects_count": 1, "devlogs_count": 0, "votes_count": 0, "ships_count": 0, "projects": [{"id": 8948, "title": "Visual Search ", "devlogs_count": 0, "created_at": "2025-07-29T21:52:26.527-04:00"}], "coding_time_seconds": 2545, "coding_time_seconds_today": 0, "balance": "You need to have a pocket watcher badge to view this.", "badges": [], "created_at": "2025-07-29T21:29:37.764-04:00", "updated_at": "2025-07-30T09:51:25.682-04:00", "avatar": "https://secure.gravatar.com/avatar/4646ed071c48ebd6c4894fd0315cb356.jpg?s=512&d=https%3A%2F%2Fa.slack-edge.com%2Fdf10d%2Fimg%2Favatars%2Fava_0014-512.png", "custom_css": null}, {"id": 20016, "slack_id": "U098R2GUK6U", "display_name": "Winston Fan", "bio": null, "projects_count": 0, "devlogs_count": 0, "votes_count": 0, "ships_count": 0, "projects": [], "coding_time_seconds": 0, "coding_time_seconds_today": 0, "balance": "You need to have a pocket watcher badge to view this.", "badges": [], "created_at": "2025-07-29T21:49:54.473-04:00", "updated_at": "2025-07-30T09:51:25.800-04:00", "avatar": "https://secure.gravatar.com/avatar/f2791afef984bb9f5c1e75dd66b6c762.jpg?s=512&d=https%3A%2F%2Fa.slack-edge.com%2Fdf10d%2Fimg%2Favatars%2Fava_0015-512.png", "custom_css": null}, {"id": 20017, "slack_id": "U097ZPPNTEJ", "display_name": "Arvin Khalvati", "bio": null, "projects_count": 0, "devlogs_count": 0, "votes_count": 0, "ships_count": 0, "projects": [], "coding_time_seconds": 0, "coding_time_seconds_today": 0, "balance": "You need to have a pocket watcher badge to view this.", "badges": [], "created_at": "2025-07-29T22:42:13.509-04:00", "updated_at": "2025-07-31T12:35:08.833-04:00", "avatar": "https://secure.gravatar.com/avatar/64f20ede07095bafe066fc212fcaa5e4.jpg?s=512&d=https%3A%2F%2Fa.slack-edge.com%2Fdf10d%2Fimg%2Favatars%2Fava_0000-512.png", "custom_css": null}, {"id": 20018, "slack_id": "U07VCEW5NM7", "display_name": "yunyun", "bio": null, "projects_count": 0, "devlogs_count": 0, "votes_count": 0, "ships_count": 0, "projects": [], "coding_time_seconds": 1817, "coding_time_seconds_today": 0, "balance": "You need to have a pocket watcher badge to view this.", "badges": [], "created_at": "2025-07-29T22:50:39.560-04:00", "updated_at": "2025-07-29T22:56:42.819-04:00", "avatar": "https://secure.gravatar.com/avatar/b75e4eae7f63b30e76bd82bda0754d5d.jpg?s=512&d=https%3A%2F%2Fa.slack-edge.com%2Fdf10d%2Fimg%2Favatars%2Fava_0022-512.png", "custom_css": null}, {"id": 20019, "slack_id": "U098RAB6QNL", "display_name": "Yash", "bio": null, "projects_count": 0, "devlogs_count": 0, "votes_count": 0, "ships_count": 0, "projects": [], "coding_time_seconds": 12151, "coding_time_seconds_today": 0, "balance": "You need to have a pocket watcher badge to view this.", "badges": [], "created_at": "2025-07-29T23:15:57.598-04:00", "updated_at": "2025-07-30T09:51:30.106-04:00", "avatar": "https://secure.gravatar.com/avatar/93d6b59f1a885beabe276b67466e5d1b.jpg?s=512&d=https%3A%2F%2Fa.slack-edge.com%2Fdf10d%2Fimg%2Favatars%2Fava_0024-512.png", "custom_css": null}, {"id": 20020, "slack_id": "U091L8RLZ7G", "display_name": "Krishna", "bio": null, "projects_count": 0, "devlogs_count": 0, "votes_count": 0, "ships_count": 0, "projects": [], "coding_time_seconds": 0, "coding_time_seconds_today": 0, "balance": "You need to have a pocket watcher badge to view this.", "badges": [], "created_at": "2025-07-29T23:26:21.286-04:00", "updated_at": "2025-07-30T09:51:30.210-04:00", "avatar": "https://secure.gravatar.com/avatar/dd5f2bbaecdf9999584b94407627d5ac.jpg?s=512&d=https%3A%2F%2Fa.slack-edge.com%2Fdf10d%2Fimg%2Favatars%2Fava_0022-512.png", "custom_css": null}, {"id": 20021, "slack_id": "U098J0V4FPT", "display_name": "Areen Phaltankar", "bio": null, "projects_count": 0, "devlogs_count": 0, "votes_count": 0, "ships_count": 0, "projects": [], "coding_time_seconds": 0, "coding_time_seconds_today": 0, "balance": "You need to have a pocket watcher badge to view this.", "badges": [], "created_at": "2025-07-29T23:26:26.251-04:00", "updated_at": "2025-07-30T09:51:30.320-04:00", "avatar": "https://avatars.slack-edge.com/2025-07-29/9270883238691_0bf89f273c628f140526_original.jpg", "custom_css": null}, {"id": 20022, "slack_id": "U097ZUH575L", "display_name": "Iush neupane", "bio": null, "projects_count": 0, "devlogs_count": 0, "votes_count": 0, "ships_count": 0, "projects": [], "coding_time_seconds": 0, "coding_time_seconds_today": 0, "balance": "You need to have a pocket watcher badge to view this.", "badges": [], "created_at": "2025-07-29T23:42:34.653-04:00", "updated_at": "2025-07-30T09:51:30.407-04:00", "avatar": "https://avatars.slack-edge.com/2025-07-29/9260027331255_2b314f4a7de9aa26e035_original.png", "custom_css": null}, {"id": 20023, "slack_id": "U098REEF39N", "display_name": "Damian", "bio": null, "projects_count": 0, "devlogs_count": 0, "votes_count": 0, "ships_count": 0, "projects": [], "coding_time_seconds": 142794, "coding_time_seconds_today": 0, "balance": "You need to have a pocket watcher badge to view this.", "badges": [], "created_at": "2025-07-30T00:05:59.068-04:00", "updated_at": "2025-07-30T20:05:30.836-04:00", "avatar": "https://secure.gravatar.com/avatar/b7e2652999fe2b8412b4c99101c19834.jpg?s=512&d=https%3A%2F%2Fa.slack-edge.com%2Fdf10d%2Fimg%2Favatars%2Fava_0004-512.png", "custom_css": null}, {"id": 20024, "slack_id": "U094JCWMF32", "display_name": "natalie", "bio": null, "projects_count": 1, "devlogs_count": 1, "votes_count": 0, "ships_count": 1, "projects": [{"id": 10079, "title": "i love mango bingsu!", "devlogs_count": 1, "created_at": "2025-08-03T22:38:20.996-04:00"}], "coding_time_seconds": 158860, "coding_time_seconds_today": 0, "balance": "You need to have a pocket watcher badge to view this.", "badges": [], "created_at": "2025-07-30T00:35:55.959-04:00", "updated_at": "2025-08-03T13:55:33.968-04:00", "avatar": "https://avatars.slack-edge.com/2025-07-29/9297667783952_7926d56bfaed01feb6a0_original.png", "custom_css": null}, {"id": 20025, "slack_id": "U0984HT3M3N", "display_name": "Manika Kutiyal", "bio": null, "projects_count": 1, "devlogs_count": 1, "votes_count": 1, "ships_count": 1, "projects": [{"id": 10943, "title": "My Math Buddy", "devlogs_count": 1, "created_at": "2025-08-12T00:51:46.625-04:00"}], "coding_time_seconds": 144917, "coding_time_seconds_today": 0, "balance": "You need to have a pocket watcher badge to view this.", "badges": [], "created_at": "2025-07-30T00:49:13.871-04:00", "updated_at": "2025-09-18T12:00:37.195-04:00", "avatar": "https://avatars.slack-edge.com/2025-07-29/9272169554902_c7a1459f4ffa95436d6f_original.png", "custom_css": null}], "pagination": {"page": 997, "pages": 1192, "count": 23828, "items": 20}}