{"users": [{"id": 20046, "slack_id": "U097NTLES3Z", "display_name": "Hridayesh Upadhyay", "bio": null, "projects_count": 0, "devlogs_count": 0, "votes_count": 0, "ships_count": 0, "projects": [], "coding_time_seconds": 0, "coding_time_seconds_today": 0, "balance": "You need to have a pocket watcher badge to view this.", "badges": [], "created_at": "2025-07-30T03:56:36.085-04:00", "updated_at": "2025-07-30T09:51:45.190-04:00", "avatar": "https://secure.gravatar.com/avatar/0b69557d46258f0e04939e4bb566728a.jpg?s=512&d=https%3A%2F%2Fa.slack-edge.com%2Fdf10d%2Fimg%2Favatars%2Fava_0016-512.png", "custom_css": null}, {"id": 20047, "slack_id": "U097ZUKAD2P", "display_name": "Tr\u01b0\u01a1ng L\u00ea Nguy\u00ean Khoa", "bio": null, "projects_count": 0, "devlogs_count": 0, "votes_count": 0, "ships_count": 0, "projects": [], "coding_time_seconds": 701, "coding_time_seconds_today": 0, "balance": "You need to have a pocket watcher badge to view this.", "badges": [], "created_at": "2025-07-30T04:06:58.248-04:00", "updated_at": "2025-07-30T09:51:54.568-04:00", "avatar": "https://secure.gravatar.com/avatar/fc965d417ae4120c441ea2d7183e222a.jpg?s=512&d=https%3A%2F%2Fa.slack-edge.com%2Fdf10d%2Fimg%2Favatars%2Fava_0012-512.png", "custom_css": null}, {"id": 20048, "slack_id": "U092GRYFRL6", "display_name": "Nilofar", "bio": null, "projects_count": 0, "devlogs_count": 0, "votes_count": 0, "ships_count": 0, "projects": [], "coding_time_seconds": 0, "coding_time_seconds_today": 0, "balance": "You need to have a pocket watcher badge to view this.", "badges": [], "created_at": "2025-07-30T04:16:54.926-04:00", "updated_at": "2025-07-30T09:51:45.433-04:00", "avatar": "https://secure.gravatar.com/avatar/3df56efdf9f559312fbdb7b12cba8481.jpg?s=512&d=https%3A%2F%2Fa.slack-edge.com%2Fdf10d%2Fimg%2Favatars%2Fava_0006-512.png", "custom_css": null}, {"id": 20049, "slack_id": "U097XGC4FQE", "display_name": "NabilF", "bio": null, "projects_count": 0, "devlogs_count": 0, "votes_count": 0, "ships_count": 0, "projects": [], "coding_time_seconds": 0, "coding_time_seconds_today": 0, "balance": "You need to have a pocket watcher badge to view this.", "badges": [], "created_at": "2025-07-30T04:41:59.815-04:00", "updated_at": "2025-07-30T09:51:45.557-04:00", "avatar": "https://secure.gravatar.com/avatar/d3c031036e35a2873ce3512bb7e71347.jpg?s=512&d=https%3A%2F%2Fa.slack-edge.com%2Fdf10d%2Fimg%2Favatars%2Fava_0009-512.png", "custom_css": null}, {"id": 20050, "slack_id": "U09813XPPC6", "display_name": "Shallin Minsa", "bio": null, "projects_count": 0, "devlogs_count": 0, "votes_count": 0, "ships_count": 0, "projects": [], "coding_time_seconds": 6833, "coding_time_seconds_today": 0, "balance": "You need to have a pocket watcher badge to view this.", "badges": [], "created_at": "2025-07-30T04:52:34.202-04:00", "updated_at": "2025-07-30T09:51:45.679-04:00", "avatar": "https://secure.gravatar.com/avatar/dd075756c854b11e6cb03cc3b60d5312.jpg?s=512&d=https%3A%2F%2Fa.slack-edge.com%2Fdf10d%2Fimg%2Favatars%2Fava_0004-512.png", "custom_css": null}, {"id": 20051, "slack_id": "U090VP33FG9", "display_name": "Ahmed", "bio": null, "projects_count": 0, "devlogs_count": 0, "votes_count": 0, "ships_count": 0, "projects": [], "coding_time_seconds": 0, "coding_time_seconds_today": 0, "balance": "You need to have a pocket watcher badge to view this.", "badges": [], "created_at": "2025-07-30T04:55:39.771-04:00", "updated_at": "2025-07-30T05:08:33.351-04:00", "avatar": "https://secure.gravatar.com/avatar/e6affd026581a2da6d20de6ae3bf135c.jpg?s=512&d=https%3A%2F%2Fa.slack-edge.com%2Fdf10d%2Fimg%2Favatars%2Fava_0022-512.png", "custom_css": null}, {"id": 20052, "slack_id": "U07UGGVDBFD", "display_name": "Ansh Garg", "bio": null, "projects_count": 0, "devlogs_count": 0, "votes_count": 0, "ships_count": 0, "projects": [], "coding_time_seconds": 0, "coding_time_seconds_today": 0, "balance": "You need to have a pocket watcher badge to view this.", "badges": [], "created_at": "2025-07-30T05:34:17.437-04:00", "updated_at": "2025-07-30T09:51:45.896-04:00", "avatar": "https://secure.gravatar.com/avatar/299985b7faa73a1b9ff1d5583b99d4ce.jpg?s=512&d=https%3A%2F%2Fa.slack-edge.com%2Fdf10d%2Fimg%2Favatars%2Fava_0004-512.png", "custom_css": null}, {"id": 20053, "slack_id": "U098KG7D4C9", "display_name": "Amine", "bio": null, "projects_count": 0, "devlogs_count": 0, "votes_count": 0, "ships_count": 0, "projects": [], "coding_time_seconds": 0, "coding_time_seconds_today": 0, "balance": "You need to have a pocket watcher badge to view this.", "badges": [], "created_at": "2025-07-30T05:35:20.182-04:00", "updated_at": "2025-07-30T09:51:46.014-04:00", "avatar": "https://avatars.slack-edge.com/2025-07-30/9272451197171_4c397711a2a04dbc11fb_original.jpg", "custom_css": null}, {"id": 20054, "slack_id": "U0985SCTXSQ", "display_name": "Musa", "bio": null, "projects_count": 0, "devlogs_count": 0, "votes_count": 0, "ships_count": 0, "projects": [], "coding_time_seconds": 0, "coding_time_seconds_today": 0, "balance": "You need to have a pocket watcher badge to view this.", "badges": [], "created_at": "2025-07-30T05:44:44.041-04:00", "updated_at": "2025-07-30T09:51:46.152-04:00", "avatar": "https://secure.gravatar.com/avatar/b5f849ddb5d1220186fd0fe938ec41d3.jpg?s=512&d=https%3A%2F%2Fa.slack-edge.com%2Fdf10d%2Fimg%2Favatars%2Fava_0021-512.png", "custom_css": null}, {"id": 20055, "slack_id": "U098KJCHX4Z", "display_name": "Shivani Mishra", "bio": null, "projects_count": 0, "devlogs_count": 0, "votes_count": 0, "ships_count": 0, "projects": [], "coding_time_seconds": 30111, "coding_time_seconds_today": 0, "balance": "You need to have a pocket watcher badge to view this.", "badges": [], "created_at": "2025-07-30T05:48:37.109-04:00", "updated_at": "2025-08-01T11:44:43.737-04:00", "avatar": "https://secure.gravatar.com/avatar/2ca304a93cbc6c16c4f3d74fbb6e35d3.jpg?s=512&d=https%3A%2F%2Fa.slack-edge.com%2Fdf10d%2Fimg%2Favatars%2Fava_0022-512.png", "custom_css": null}, {"id": 20056, "slack_id": "U09834408SH", "display_name": "Akshay", "bio": null, "projects_count": 0, "devlogs_count": 0, "votes_count": 0, "ships_count": 0, "projects": [], "coding_time_seconds": 114624, "coding_time_seconds_today": 0, "balance": "You need to have a pocket watcher badge to view this.", "badges": [], "created_at": "2025-07-30T06:01:09.976-04:00", "updated_at": "2025-07-30T13:15:33.915-04:00", "avatar": "https://secure.gravatar.com/avatar/513718160f4deb8db08c9645e2938bec.jpg?s=512&d=https%3A%2F%2Fa.slack-edge.com%2Fdf10d%2Fimg%2Favatars%2Fava_0018-512.png", "custom_css": null}, {"id": 20057, "slack_id": "U0985M3UPGC", "display_name": "\u0421\u043e\u0432\u0435\u0442\u0441\u043a\u0438\u0439 \u041a\u043e\u0442", "bio": null, "projects_count": 0, "devlogs_count": 0, "votes_count": 0, "ships_count": 0, "projects": [], "coding_time_seconds": 5414, "coding_time_seconds_today": 0, "balance": "You need to have a pocket watcher badge to view this.", "badges": [], "created_at": "2025-07-30T06:01:53.856-04:00", "updated_at": "2025-08-03T07:51:21.302-04:00", "avatar": "https://avatars.slack-edge.com/2025-07-30/9273493628358_b8bfde5904c6e4a38946_original.jpg", "custom_css": null}, {"id": 20058, "slack_id": "U098600DG8L", "display_name": "Andrea Morelli", "bio": null, "projects_count": 1, "devlogs_count": 3, "votes_count": 24, "ships_count": 1, "projects": [{"id": 9261, "title": "Rust AI", "devlogs_count": 3, "created_at": "2025-07-31T08:08:03.977-04:00"}], "coding_time_seconds": 136070, "coding_time_seconds_today": 0, "balance": "You need to have a pocket watcher badge to view this.", "badges": [], "created_at": "2025-07-30T06:08:01.059-04:00", "updated_at": "2025-08-09T17:39:34.703-04:00", "avatar": "https://secure.gravatar.com/avatar/7ffc9fc837f6aa7ff0f511308c2a2740.jpg?s=512&d=https%3A%2F%2Fa.slack-edge.com%2Fdf10d%2Fimg%2Favatars%2Fava_0021-512.png", "custom_css": null}, {"id": 20059, "slack_id": "U0983593HM3", "display_name": "Kritika Thakur", "bio": null, "projects_count": 1, "devlogs_count": 1, "votes_count": 0, "ships_count": 1, "projects": [{"id": 11741, "title": "Magic calculator", "devlogs_count": 1, "created_at": "2025-08-19T01:56:37.967-04:00"}], "coding_time_seconds": 91456, "coding_time_seconds_today": 500, "balance": "You need to have a pocket watcher badge to view this.", "badges": [{"name": "Maiden Voyage", "text": "you shipped your first project! the journey begins...", "icon": "\ud83d\udea2"}], "created_at": "2025-07-30T06:08:12.832-04:00", "updated_at": "2025-09-16T06:44:38.008-04:00", "avatar": "https://avatars.slack-edge.com/2025-07-30/9277112772914_4c633a3f9302415966f1_original.png", "custom_css": null}, {"id": 20060, "slack_id": "U0980JEELAF", "display_name": "Gaurang", "bio": null, "projects_count": 0, "devlogs_count": 0, "votes_count": 0, "ships_count": 0, "projects": [], "coding_time_seconds": 0, "coding_time_seconds_today": 0, "balance": "You need to have a pocket watcher badge to view this.", "badges": [], "created_at": "2025-07-30T06:18:20.645-04:00", "updated_at": "2025-08-10T06:51:07.655-04:00", "avatar": "https://avatars.slack-edge.com/2025-07-31/9282132130677_81754c54a5a8a2fa313d_original.png", "custom_css": null}, {"id": 20061, "slack_id": "U097PJLQ8AK", "display_name": "Spidar Studio", "bio": null, "projects_count": 0, "devlogs_count": 0, "votes_count": 0, "ships_count": 0, "projects": [], "coding_time_seconds": 1, "coding_time_seconds_today": 0, "balance": "You need to have a pocket watcher badge to view this.", "badges": [], "created_at": "2025-07-30T06:19:08.213-04:00", "updated_at": "2025-07-31T04:55:02.154-04:00", "avatar": "https://avatars.slack-edge.com/2025-07-30/9277157275586_62fe73ce13ff495d75b2_original.png", "custom_css": null}, {"id": 20062, "slack_id": "U097PMVG90X", "display_name": "Farhat", "bio": null, "projects_count": 0, "devlogs_count": 0, "votes_count": 0, "ships_count": 0, "projects": [], "coding_time_seconds": 0, "coding_time_seconds_today": 0, "balance": "You need to have a pocket watcher badge to view this.", "badges": [], "created_at": "2025-07-30T06:49:37.674-04:00", "updated_at": "2025-07-31T00:50:11.601-04:00", "avatar": "https://secure.gravatar.com/avatar/c9dc91e479c1cd0c5fc9f926352eed44.jpg?s=512&d=https%3A%2F%2Fa.slack-edge.com%2Fdf10d%2Fimg%2Favatars%2Fava_0017-512.png", "custom_css": null}, {"id": 20063, "slack_id": "U097PNB0L7R", "display_name": "DPhuc", "bio": null, "projects_count": 0, "devlogs_count": 0, "votes_count": 0, "ships_count": 0, "projects": [], "coding_time_seconds": 0, "coding_time_seconds_today": 0, "balance": "You need to have a pocket watcher badge to view this.", "badges": [], "created_at": "2025-07-30T06:49:49.887-04:00", "updated_at": "2025-07-30T09:51:47.113-04:00", "avatar": "https://secure.gravatar.com/avatar/977229ae77bc436ea11865154f846436.jpg?s=512&d=https%3A%2F%2Fa.slack-edge.com%2Fdf10d%2Fimg%2Favatars%2Fava_0013-512.png", "custom_css": null}, {"id": 20064, "slack_id": "U097PNCP287", "display_name": "MPhuc", "bio": null, "projects_count": 0, "devlogs_count": 0, "votes_count": 0, "ships_count": 0, "projects": [], "coding_time_seconds": 0, "coding_time_seconds_today": 0, "balance": "You need to have a pocket watcher badge to view this.", "badges": [], "created_at": "2025-07-30T06:50:54.559-04:00", "updated_at": "2025-07-30T09:51:47.233-04:00", "avatar": "https://secure.gravatar.com/avatar/d42012b1c77fa540a7409023a079112a.jpg?s=512&d=https%3A%2F%2Fa.slack-edge.com%2Fdf10d%2Fimg%2Favatars%2Fava_0010-512.png", "custom_css": null}, {"id": 20065, "slack_id": "U09858TPRBL", "display_name": "Lolo", "bio": null, "projects_count": 0, "devlogs_count": 0, "votes_count": 0, "ships_count": 0, "projects": [], "coding_time_seconds": 0, "coding_time_seconds_today": 0, "balance": "You need to have a pocket watcher badge to view this.", "badges": [], "created_at": "2025-07-30T06:58:59.676-04:00", "updated_at": "2025-07-31T04:39:01.940-04:00", "avatar": "https://avatars.slack-edge.com/2025-07-30/9275404291877_f54cae3be0df98edcd7e_original.png", "custom_css": null}], "pagination": {"page": 999, "pages": 1192, "count": 23828, "items": 20}}